 , 0, 1, 2, 3, 4, 5, 6, 7, 8, 9, 10, 11, 12, 13, 14, 15, 16, 17, 18, 19, 20, 21, 22, 23, 24, 25, 26, 27, 28, 29, 30, 31, 32, 33, 34, 35, 36, 37, 38, 39, 40, 41, 42, 43, 44, 45, 46, 47, 48, 49, 50, 51, 52, 53, 54, 55, 56, 57, 58, 59, 60, 61, 62, 63, 64, 65, 66, 67, 68, 69, 70, 71, 72, 73, 74, 75, 76, 77, 78, 79, 80, 81, 82, 83, 84, 85, 86, 87, 88, 89, 90, 91, 92, 93, 94, 95, 96, 97, 98, 99, 100, 101, 102, 103, 104, 105, 106, 107, 108, 109, 110, 111, 112, 113, 114, 115, 116, 117, 118, 119, 120, 121, 122, 123, 124, 125, 126, 127, 128, 129, 130, 131, 132, 133, 134, 135, 136, 137, 138, 139, 140, 141, 142, 143, 144, 145, 146, 147, 148, 149, 150, 151, 152, 153, 154, 155, 156, 157, 158, 159, 160, 161, 162, 163, 164, 165, 166, rowcost
C major (0), 2:0:0:0:2, 7:0:1:0:3, 3:0:0:0:1, 1:0:0:0:1, 2:0:0:0:0, 7:0:1:0:3, 3:0:0:0:1, 1:0:0:0:1, 1:0:0:0:0, 3:0:0:0:0, 2:0:0:0:2, 0:0:0:0:0, 1:0:0:0:2, 4:0:0:0:1, 2:0:0:0:1, 2:0:0:0:2, 2:0:0:0:0, 7:0:1:0:4, 3:0:0:0:1, 1:0:0:0:1, 2:0:0:0:0, 3:0:0:0:2, 3:0:0:0:0, 1:0:0:0:0, 2:0:0:0:1, 3:0:0:0:0, 4:0:0:0:4, 3:0:0:0:1, 0:0:0:0:0, 4:0:0:0:2, 1:0:0:0:0, 1:0:0:0:1, 2:0:0:0:3, 6:0:1:0:3, 1:0:0:0:1, 4:0:0:0:3, 3:0:0:0:1, 8:0:2:0:3, 3:0:0:0:1, 3:0:0:0:2, 1:0:0:0:0, 5:0:0:0:0, 3:0:1:0:1, 2:0:0:0:1, 4:0:0:0:1, 3:0:0:0:1, 4:0:0:0:1, 2:0:0:0:4, 2:0:1:0:1, 5:0:1:0:2, 2:0:1:0:3, 2:0:0:0:1, 3:0:0:0:0, 3:0:0:0:1, 1:0:0:0:0, 1:0:0:0:0, 2:0:0:0:0, 2:0:0:0:0, 5:0:1:0:3, 5:0:0:0:2, 0:0:0:0:0, 3:0:0:0:2, 5:0:0:0:0, 2:0:1:0:3, 2:0:0:0:0, 7:0:1:0:2, 1:0:0:0:1, 2:0:0:0:1, 2:0:0:0:1, 6:0:1:0:2, 2:0:0:0:1, 1:0:0:0:1, 3:0:0:0:0, 3:0:0:0:0, 2:0:0:0:1, 1:0:0:0:0, 4:0:0:0:1, 2:0:0:0:3, 3:0:1:0:3, 4:0:0:0:2, 2:0:0:0:0, 8:0:1:0:2, 1:0:0:0:1, 2:0:1:0:3, 3:0:0:0:0, 5:0:0:0:0, 2:0:0:0:2, 1:0:0:0:0, 3:0:0:0:1, 2:0:0:0:0, 2:0:0:0:1, 3:0:1:0:2, 1:0:0:0:2, 4:0:0:0:2, 2:0:0:0:0, 2:0:0:0:2, 1:0:0:0:0, 6:0:1:0:2, 2:0:1:0:3, 2:0:0:0:3, 2:0:0:0:1, 8:0:1:0:4, 2:0:0:0:3, 3:0:0:0:1, 1:0:0:0:0, 2:0:0:0:0, 1:0:0:0:0,  , 5:0:1:0:2, 7:0:0:0:3, 2:0:0:0:1, 3:0:0:0:2, 2:0:0:0:0, 8:0:1:0:2, 2:0:0:0:2, 6:0:0:0:1, 1:0:0:0:0, 3:0:0:0:1, 1:0:0:0:0, 1:0:0:0:0, 1:0:0:0:0, 2:0:0:0:0, 5:0:0:0:1, 4:0:0:0:1, 1:0:0:0:0, 3:0:0:0:3, 3:0:0:0:0, 1:0:0:0:2, 1:0:0:0:0, 6:0:1:0:2, 2:0:0:0:1, 3:0:0:0:1, 1:0:0:0:0, 7:0:1:0:2, 3:0:0:0:1, 3:0:0:0:2, 1:0:0:0:0, 2:0:0:0:0, 1:0:0:0:0, 1:0:0:0:0, 2:0:0:0:2, 4:0:0:0:5, 2:0:0:0:1, 4:0:0:0:2, 2:0:0:0:1, 6:0:3:0:6, 3:0:0:0:1, 3:0:0:0:2, 3:0:0:0:0, 2:0:0:0:0, 1:0:0:0:0, 2:0:0:0:1, 1:0:0:0:0, 2:0:0:0:0, 4:0:0:0:2, 3:0:0:0:1, 0:0:0:0:0, 5:0:0:0:4, 1:0:0:0:0, 2:0:0:0:0, 3:0:0:0:0, 0:0:0:0:0, 2:0:0:0:0, 3:0:0:0:1, 2:0:0:0:2, 2:0:0:0:2, 2:0:0:0:0, 454:0:28:0:198
A minor (0), 2:0:0:0:2, 7:0:1:0:3, 3:0:0:0:1, 1:0:0:0:1, 2:0:0:0:0, 7:0:1:0:3, 3:0:0:0:1, 1:0:0:0:1, 1:0:0:0:0, 3:0:0:0:0, 2:0:0:0:2, 0:0:0:0:0, 1:0:0:0:2, 4:0:0:0:1, 2:0:0:0:1, 2:0:0:0:2, 2:0:0:0:0, 7:0:1:0:4, 3:0:0:0:1, 1:0:0:0:1, 2:0:0:0:0, 3:0:0:0:2, 3:0:0:0:0, 1:0:0:0:0, 2:0:0:0:1, 3:0:0:0:0, 4:0:0:0:4, 3:0:0:0:1, 0:0:0:0:0, 4:0:0:0:2, 1:0:0:0:0, 1:0:0:0:1, 2:0:0:0:3, 6:0:1:0:3, 1:0:0:0:1, 4:0:0:0:3, 3:0:0:0:1, 8:0:2:0:3, 3:0:0:0:1, 3:0:0:0:2, 1:0:0:0:0, 5:0:0:0:0, 3:0:1:0:1, 2:0:0:0:1, 4:0:0:0:1, 3:0:0:0:1, 4:0:0:0:1, 2:0:0:0:4, 2:0:1:0:1, 5:0:1:0:2, 2:0:1:0:3, 2:0:0:0:1, 3:0:0:0:0, 3:0:0:0:1, 1:0:0:0:0, 1:0:0:0:0, 2:0:0:0:0, 2:0:0:0:0, 5:0:1:0:3, 5:0:0:0:2, 0:0:0:0:0, 3:0:0:0:2, 5:0:0:0:0, 2:0:1:0:3, 2:0:0:0:0, 7:0:1:0:2, 1:0:0:0:1, 2:0:0:0:1, 2:0:0:0:1, 6:0:1:0:2, 2:0:0:0:1, 1:0:0:0:1, 3:0:0:0:0, 3:0:0:0:0, 2:0:0:0:1, 1:0:0:0:0, 4:0:0:0:1, 2:0:0:0:3, 3:0:1:0:3, 4:0:0:0:2, 2:0:0:0:0, 8:0:1:0:2, 1:0:0:0:1, 2:0:1:0:3, 3:0:0:0:0, 5:0:0:0:0, 2:0:0:0:2, 1:0:0:0:0, 3:0:0:0:1, 2:0:0:0:0, 2:0:0:0:1, 3:0:1:0:2, 1:0:0:0:2, 4:0:0:0:2, 2:0:0:0:0, 2:0:0:0:2, 1:0:0:0:0, 6:0:1:0:2, 2:0:1:0:3, 2:0:0:0:3, 2:0:0:0:1, 8:0:1:0:4, 2:0:0:0:3, 3:0:0:0:1, 1:0:0:0:0, 2:0:0:0:0, 1:0:0:0:0,  , 5:0:1:0:2, 7:0:0:0:3, 2:0:0:0:1, 3:0:0:0:2, 2:0:0:0:0, 8:0:1:0:2, 2:0:0:0:2, 6:0:0:0:1, 1:0:0:0:0, 3:0:0:0:1, 1:0:0:0:0, 1:0:0:0:0, 1:0:0:0:0, 2:0:0:0:0, 5:0:0:0:1, 4:0:0:0:1, 1:0:0:0:0, 3:0:0:0:3, 3:0:0:0:0, 1:0:0:0:2, 1:0:0:0:0, 6:0:1:0:2, 2:0:0:0:1, 3:0:0:0:1, 1:0:0:0:0, 7:0:1:0:2, 3:0:0:0:1, 3:0:0:0:2, 1:0:0:0:0, 2:0:0:0:0, 1:0:0:0:0, 1:0:0:0:0, 2:0:0:0:2, 4:0:0:0:5, 2:0:0:0:1, 4:0:0:0:2, 2:0:0:0:1, 6:0:3:0:6, 3:0:0:0:1, 3:0:0:0:2, 3:0:0:0:0, 2:0:0:0:0, 1:0:0:0:0, 2:0:0:0:1, 1:0:0:0:0, 2:0:0:0:0, 4:0:0:0:2, 3:0:0:0:1, 0:0:0:0:0, 5:0:0:0:4, 1:0:0:0:0, 2:0:0:0:0, 3:0:0:0:0, 0:0:0:0:0, 2:0:0:0:0, 3:0:0:0:1, 2:0:0:0:2, 2:0:0:0:2, 2:0:0:0:0, 454:0:28:0:198
F major (1b), 3:3:0:0:3, 7:3:1:0:4, 4:1:0:0:1, 2:1:0:0:1, 3:1:0:0:1, 7:3:1:0:4, 4:1:0:0:1, 2:1:0:0:1, 1:2:0:0:2, 3:1:0:0:1, 3:3:0:0:3, 1:0:0:0:0, 2:2:0:0:2, 5:2:0:0:2, 3:1:0:0:1, 2:1:0:0:1, 3:1:0:0:1, 7:4:1:0:5, 4:1:0:0:1, 2:1:0:0:1, 2:1:0:0:1, 3:3:0:0:3, 4:1:0:0:1, 1:1:0:0:1, 3:2:0:0:2, 2:4:0:0:4, 4:3:1:0:4, 4:2:0:0:2, 1:0:0:0:0, 5:2:0:0:2, 2:1:0:0:1, 2:1:0:0:1, 3:4:0:0:4, 6:3:1:0:4, 2:1:0:0:1, 5:5:0:0:5, 4:2:0:0:2, 8:6:2:0:7, 4:1:0:0:1, 4:2:0:0:2, 1:1:0:0:1, 6:2:0:0:2, 4:4:1:0:4, 2:0:0:0:0, 5:3:0:0:3, 4:4:0:0:4, 5:1:0:0:1, 2:4:0:0:4, 3:3:1:0:3, 5:2:2:0:4, 3:3:1:0:3, 3:1:0:0:1, 3:1:0:0:1, 3:3:0:0:3, 2:3:0:0:3, 2:2:0:0:2, 3:1:0:0:1, 1:3:0:0:3, 6:5:1:0:5, 6:3:0:0:3, 1:0:0:0:0, 4:2:0:0:2, 6:1:0:0:1, 3:3:1:0:3, 3:1:0:0:1, 7:2:2:0:4, 2:1:0:0:1, 3:1:0:0:1, 3:4:0:0:4, 6:4:2:0:6, 3:2:0:0:2, 2:1:0:0:1, 2:1:0:0:1, 4:1:0:0:1, 3:2:0:0:2, 2:0:0:0:0, 5:1:0:0:1, 3:5:0:0:5, 4:5:1:0:5, 3:2:0:0:2, 3:1:0:0:1, 8:3:3:0:5, 2:1:0:0:1, 3:3:1:0:3, 3:1:0:0:1, 5:1:0:0:1, 3:3:0:0:3, 1:1:0:0:1, 4:2:0:0:2, 1:3:0:0:3, 3:3:0:0:3, 4:5:1:0:5, 2:0:0:0:0, 5:2:0:0:2, 3:1:0:0:1, 3:2:0:0:2, 2:2:0:0:2, 6:3:2:0:5, 3:3:1:0:3, 3:3:0:0:3, 3:3:0:0:3, 8:3:3:0:6, 3:4:0:0:4, 4:5:0:0:5, 1:1:0:0:1, 2:5:0:0:5, 2:1:0:0:1,  , 6:1:1:0:2, 8:4:0:0:4, 3:1:0:0:1, 4:2:0:0:2, 3:2:0:0:2, 8:2:3:0:5, 3:2:0:0:2, 7:2:0:0:2, 2:1:0:0:1, 2:3:0:0:3, 2:3:0:0:3, 2:2:0:0:2, 2:2:0:0:2, 1:2:0:0:2, 6:3:0:0:3, 5:4:0:0:4, 2:0:0:0:0, 4:3:0:0:3, 4:2:0:0:2, 2:2:0:0:2, 2:2:0:0:2, 6:2:2:0:4, 3:3:0:0:3, 4:3:0:0:3, 2:4:0:0:4, 7:2:2:0:4, 4:3:0:0:3, 4:2:0:0:2, 1:1:0:0:1, 2:2:1:0:3, 2:1:0:0:1, 2:3:0:0:3, 3:3:0:0:3, 5:7:0:0:7, 3:1:0:0:1, 5:2:0:0:2, 3:3:0:0:3, 6:6:3:0:8, 4:1:0:0:1, 4:3:0:0:3, 3:1:1:0:2, 3:1:0:0:1, 2:4:0:0:4, 3:3:0:0:3, 2:3:0:0:3, 1:1:0:0:1, 5:5:0:0:5, 4:3:0:0:3, 1:0:0:0:0, 6:4:0:0:4, 2:1:0:0:1, 3:0:0:0:0, 4:1:0:0:1, 1:0:0:0:0, 3:1:0:0:1, 4:1:0:0:1, 3:4:0:0:4, 3:2:0:0:2, 2:0:0:0:0, 568:363:43:0:394
G major (1#), 1:0:0:0:0, 6:2:1:0:2, 3:0:0:0:1, 1:0:0:0:0, 1:0:0:0:0, 6:2:1:0:2, 3:0:0:0:1, 1:0:0:0:0, 0:0:0:0:0, 2:0:0:0:1, 1:0:0:0:2, 0:0:0:0:0, 1:0:0:0:2, 3:0:0:0:1, 2:0:0:0:0, 2:0:0:0:1, 1:0:0:0:0, 6:2:1:0:3, 3:0:0:0:1, 1:0:0:0:0, 1:0:0:0:0, 2:0:0:0:2, 2:0:0:0:0, 0:0:0:0:0, 1:0:0:0:1, 2:1:0:0:0, 3:0:0:0:2, 2:2:0:0:3, 0:0:0:0:0, 3:0:0:0:1, 0:0:0:0:0, 1:0:0:0:0, 1:0:0:0:3, 5:2:1:0:3, 1:0:0:0:0, 3:0:0:0:1, 2:0:0:0:1, 7:2:2:0:2, 3:0:0:0:0, 3:0:0:0:1, 0:0:0:0:0, 4:1:0:0:1, 2:1:1:0:1, 2:0:0:0:0, 3:0:0:0:1, 2:0:0:0:1, 3:0:0:0:1, 2:0:0:0:1, 1:0:1:0:1, 4:2:1:0:1, 2:0:1:0:1, 3:0:0:0:0, 2:1:0:0:0, 2:1:0:0:1, 0:0:0:0:0, 0:0:0:0:0, 1:0:0:0:0, 1:2:0:0:0, 4:1:1:0:1, 4:0:0:0:2, 0:0:0:0:0, 4:0:0:0:1, 4:0:0:0:1, 2:0:1:0:1, 1:2:0:0:2, 6:2:1:0:1, 1:0:0:0:0, 2:1:0:0:0, 1:0:0:0:1, 5:2:1:0:1, 1:0:0:0:0, 1:0:0:0:0, 2:0:0:0:1, 2:0:0:0:1, 1:0:0:0:1, 0:0:0:0:0, 3:0:0:0:2, 1:0:0:0:3, 2:0:1:0:1, 5:0:0:0:2, 1:2:0:0:2, 7:2:1:0:1, 1:0:0:0:0, 2:0:1:0:1, 2:0:0:0:0, 4:1:2:0:3, 1:0:0:0:2, 0:0:0:0:0, 2:0:0:0:1, 1:1:0:0:0, 1:0:0:0:0, 2:0:1:0:2, 1:0:1:0:1, 5:0:0:0:2, 1:0:0:0:0, 2:0:0:0:0, 0:0:0:0:0, 5:2:1:0:1, 2:0:1:0:1, 2:0:0:0:1, 1:0:0:0:1, 7:4:1:0:5, 1:0:0:0:0, 2:2:0:0:0, 0:0:0:0:0, 1:0:0:0:2, 0:0:0:0:0,  , 4:3:1:0:2, 6:0:0:0:2, 2:1:0:0:0, 2:0:0:0:1, 1:0:0:0:0, 7:4:1:0:3, 1:0:0:0:0, 5:0:0:0:1, 0:0:0:0:0, 2:1:0:0:1, 0:0:0:0:0, 0:0:0:0:0, 0:0:0:0:0, 1:1:0:0:0, 4:2:0:0:1, 3:0:0:0:2, 0:0:0:0:0, 3:0:0:0:1, 2:2:0:0:2, 1:0:0:0:0, 0:0:0:0:0, 5:2:1:0:1, 1:0:0:0:0, 2:0:0:0:0, 0:0:0:0:0, 6:4:1:0:1, 2:0:0:0:0, 3:0:0:0:2, 0:0:0:0:0, 1:0:0:0:1, 0:0:0:0:0, 0:0:0:0:0, 2:0:1:0:3, 3:0:0:0:3, 2:0:0:0:1, 3:0:0:0:1, 1:0:0:0:0, 5:3:3:0:3, 3:0:0:0:1, 2:0:0:0:1, 2:1:0:0:1, 1:1:0:0:0, 0:0:0:0:0, 1:0:0:0:1, 0:0:0:0:0, 1:3:0:0:0, 3:0:0:0:1, 2:2:0:0:3, 0:0:0:0:0, 4:1:0:0:1, 0:0:0:0:0, 3:0:0:0:0, 2:0:0:0:1, 0:0:0:0:0, 1:0:0:0:0, 2:0:0:0:1, 1:0:0:0:0, 1:0:0:0:2, 1:0:0:0:0, 336:74:32:0:140
D minor (1b), 3:3:0:0:3, 7:3:1:0:4, 4:1:0:0:1, 2:1:0:0:1, 3:1:0:0:1, 7:3:1:0:4, 4:1:0:0:1, 2:1:0:0:1, 1:2:0:0:2, 3:1:0:0:1, 3:3:0:0:3, 1:0:0:0:0, 2:2:0:0:2, 5:2:0:0:2, 3:1:0:0:1, 2:1:0:0:1, 3:1:0:0:1, 7:4:1:0:5, 4:1:0:0:1, 2:1:0:0:1, 2:1:0:0:1, 3:3:0:0:3, 4:1:0:0:1, 1:1:0:0:1, 3:2:0:0:2, 2:4:0:0:4, 4:3:1:0:4, 4:2:0:0:2, 1:0:0:0:0, 5:2:0:0:2, 2:1:0:0:1, 2:1:0:0:1, 3:4:0:0:4, 6:3:1:0:4, 2:1:0:0:1, 5:5:0:0:5, 4:2:0:0:2, 8:6:2:0:7, 4:1:0:0:1, 4:2:0:0:2, 1:1:0:0:1, 6:2:0:0:2, 4:4:1:0:4, 2:0:0:0:0, 5:3:0:0:3, 4:4:0:0:4, 5:1:0:0:1, 2:4:0:0:4, 3:3:1:0:3, 5:2:2:0:4, 3:3:1:0:3, 3:1:0:0:1, 3:1:0:0:1, 3:3:0:0:3, 2:3:0:0:3, 2:2:0:0:2, 3:1:0:0:1, 1:3:0:0:3, 6:5:1:0:5, 6:3:0:0:3, 1:0:0:0:0, 4:2:0:0:2, 6:1:0:0:1, 3:3:1:0:3, 3:1:0:0:1, 7:2:2:0:4, 2:1:0:0:1, 3:1:0:0:1, 3:4:0:0:4, 6:4:2:0:6, 3:2:0:0:2, 2:1:0:0:1, 2:1:0:0:1, 4:1:0:0:1, 3:2:0:0:2, 2:0:0:0:0, 5:1:0:0:1, 3:5:0:0:5, 4:5:1:0:5, 3:2:0:0:2, 3:1:0:0:1, 8:3:3:0:5, 2:1:0:0:1, 3:3:1:0:3, 3:1:0:0:1, 5:1:0:0:1, 3:3:0:0:3, 1:1:0:0:1, 4:2:0:0:2, 1:3:0:0:3, 3:3:0:0:3, 4:5:1:0:5, 2:0:0:0:0, 5:2:0:0:2, 3:1:0:0:1, 3:2:0:0:2, 2:2:0:0:2, 6:3:2:0:5, 3:3:1:0:3, 3:3:0:0:3, 3:3:0:0:3, 8:3:3:0:6, 3:4:0:0:4, 4:5:0:0:5, 1:1:0:0:1, 2:5:0:0:5, 2:1:0:0:1,  , 6:1:1:0:2, 8:4:0:0:4, 3:1:0:0:1, 4:2:0:0:2, 3:2:0:0:2, 8:2:3:0:5, 3:2:0:0:2, 7:2:0:0:2, 2:1:0:0:1, 2:3:0:0:3, 2:3:0:0:3, 2:2:0:0:2, 2:2:0:0:2, 1:2:0:0:2, 6:3:0:0:3, 5:4:0:0:4, 2:0:0:0:0, 4:3:0:0:3, 4:2:0:0:2, 2:2:0:0:2, 2:2:0:0:2, 6:2:2:0:4, 3:3:0:0:3, 4:3:0:0:3, 2:4:0:0:4, 7:2:2:0:4, 4:3:0:0:3, 4:2:0:0:2, 1:1:0:0:1, 2:2:1:0:3, 2:1:0:0:1, 2:3:0:0:3, 3:3:0:0:3, 5:7:0:0:7, 3:1:0:0:1, 5:2:0:0:2, 3:3:0:0:3, 6:6:3:0:8, 4:1:0:0:1, 4:3:0:0:3, 3:1:1:0:2, 3:1:0:0:1, 2:4:0:0:4, 3:3:0:0:3, 2:3:0:0:3, 1:1:0:0:1, 5:5:0:0:5, 4:3:0:0:3, 1:0:0:0:0, 6:4:0:0:4, 2:1:0:0:1, 3:0:0:0:0, 4:1:0:0:1, 1:0:0:0:0, 3:1:0:0:1, 4:1:0:0:1, 3:4:0:0:4, 3:2:0:0:2, 2:0:0:0:0, 568:363:43:0:394
E minor (1#), 1:0:0:0:0, 6:2:1:0:2, 3:0:0:0:1, 1:0:0:0:0, 1:0:0:0:0, 6:2:1:0:2, 3:0:0:0:1, 1:0:0:0:0, 0:0:0:0:0, 2:0:0:0:1, 1:0:0:0:2, 0:0:0:0:0, 1:0:0:0:2, 3:0:0:0:1, 2:0:0:0:0, 2:0:0:0:1, 1:0:0:0:0, 6:2:1:0:3, 3:0:0:0:1, 1:0:0:0:0, 1:0:0:0:0, 2:0:0:0:2, 2:0:0:0:0, 0:0:0:0:0, 1:0:0:0:1, 2:1:0:0:0, 3:0:0:0:2, 2:2:0:0:3, 0:0:0:0:0, 3:0:0:0:1, 0:0:0:0:0, 1:0:0:0:0, 1:0:0:0:3, 5:2:1:0:3, 1:0:0:0:0, 3:0:0:0:1, 2:0:0:0:1, 7:2:2:0:2, 3:0:0:0:0, 3:0:0:0:1, 0:0:0:0:0, 4:1:0:0:1, 2:1:1:0:1, 2:0:0:0:0, 3:0:0:0:1, 2:0:0:0:1, 3:0:0:0:1, 2:0:0:0:1, 1:0:1:0:1, 4:2:1:0:1, 2:0:1:0:1, 3:0:0:0:0, 2:1:0:0:0, 2:1:0:0:1, 0:0:0:0:0, 0:0:0:0:0, 1:0:0:0:0, 1:2:0:0:0, 4:1:1:0:1, 4:0:0:0:2, 0:0:0:0:0, 4:0:0:0:1, 4:0:0:0:1, 2:0:1:0:1, 1:2:0:0:2, 6:2:1:0:1, 1:0:0:0:0, 2:1:0:0:0, 1:0:0:0:1, 5:2:1:0:1, 1:0:0:0:0, 1:0:0:0:0, 2:0:0:0:1, 2:0:0:0:1, 1:0:0:0:1, 0:0:0:0:0, 3:0:0:0:2, 1:0:0:0:3, 2:0:1:0:1, 5:0:0:0:2, 1:2:0:0:2, 7:2:1:0:1, 1:0:0:0:0, 2:0:1:0:1, 2:0:0:0:0, 4:1:2:0:3, 1:0:0:0:2, 0:0:0:0:0, 2:0:0:0:1, 1:1:0:0:0, 1:0:0:0:0, 2:0:1:0:2, 1:0:1:0:1, 5:0:0:0:2, 1:0:0:0:0, 2:0:0:0:0, 0:0:0:0:0, 5:2:1:0:1, 2:0:1:0:1, 2:0:0:0:1, 1:0:0:0:1, 7:4:1:0:5, 1:0:0:0:0, 2:2:0:0:0, 0:0:0:0:0, 1:0:0:0:2, 0:0:0:0:0,  , 4:3:1:0:2, 6:0:0:0:2, 2:1:0:0:0, 2:0:0:0:1, 1:0:0:0:0, 7:4:1:0:3, 1:0:0:0:0, 5:0:0:0:1, 0:0:0:0:0, 2:1:0:0:1, 0:0:0:0:0, 0:0:0:0:0, 0:0:0:0:0, 1:1:0:0:0, 4:2:0:0:1, 3:0:0:0:2, 0:0:0:0:0, 3:0:0:0:1, 2:2:0:0:2, 1:0:0:0:0, 0:0:0:0:0, 5:2:1:0:1, 1:0:0:0:0, 2:0:0:0:0, 0:0:0:0:0, 6:4:1:0:1, 2:0:0:0:0, 3:0:0:0:2, 0:0:0:0:0, 1:0:0:0:1, 0:0:0:0:0, 0:0:0:0:0, 2:0:1:0:3, 3:0:0:0:3, 2:0:0:0:1, 3:0:0:0:1, 1:0:0:0:0, 5:3:3:0:3, 3:0:0:0:1, 2:0:0:0:1, 2:1:0:0:1, 1:1:0:0:0, 0:0:0:0:0, 1:0:0:0:1, 0:0:0:0:0, 1:3:0:0:0, 3:0:0:0:1, 2:2:0:0:3, 0:0:0:0:0, 4:1:0:0:1, 0:0:0:0:0, 3:0:0:0:0, 2:0:0:0:1, 0:0:0:0:0, 1:0:0:0:0, 2:0:0:0:1, 1:0:0:0:0, 1:0:0:0:2, 1:0:0:0:0, 336:74:32:0:140
Bb major (2b), 4:3:0:0:4, 8:3:1:0:3, 5:1:0:0:6, 3:1:0:0:2, 4:1:0:0:2, 8:3:1:0:3, 5:1:0:0:6, 3:1:0:0:2, 1:2:0:0:2, 4:1:0:0:1, 3:3:0:0:6, 1:0:0:0:1, 3:2:0:0:4, 5:5:1:0:7, 4:1:0:0:2, 3:1:0:0:2, 4:1:0:0:2, 8:4:1:0:4, 5:1:0:0:7, 3:1:0:0:2, 2:1:0:0:1, 4:3:0:0:3, 4:6:1:0:7, 2:1:0:0:1, 3:2:0:0:4, 3:4:0:0:4, 5:3:1:0:4, 4:2:0:0:3, 2:0:0:0:4, 6:2:0:0:3, 3:1:0:0:2, 3:1:0:0:2, 4:4:0:0:5, 7:3:1:0:3, 3:1:0:0:2, 6:5:0:0:6, 5:2:0:0:4, 9:6:2:0:6, 5:1:0:0:3, 5:2:0:0:4, 2:1:0:0:1, 7:2:0:0:3, 4:4:1:0:5, 3:0:0:0:0, 6:3:0:0:5, 5:4:0:0:7, 6:1:0:0:2, 3:4:0:0:4, 4:3:1:0:5, 6:2:2:0:2, 4:3:1:0:4, 4:1:0:0:2, 4:1:0:0:1, 4:3:0:0:3, 2:3:0:0:6, 3:2:0:0:3, 4:1:0:0:3, 2:3:0:0:3, 7:5:1:0:6, 6:3:1:0:5, 2:0:0:0:1, 5:2:0:0:3, 7:1:0:0:3, 4:3:1:0:4, 4:1:0:0:2, 8:2:2:0:2, 3:1:0:0:3, 4:1:0:0:2, 4:4:0:0:5, 7:4:2:0:4, 4:2:0:0:3, 3:1:0:0:2, 2:1:0:0:3, 5:1:0:0:3, 3:1:0:0:4, 3:0:0:0:1, 6:1:0:0:2, 4:5:0:0:8, 5:5:1:0:6, 4:2:0:0:2, 4:1:0:0:2, 9:3:3:0:3, 3:1:0:0:2, 4:3:1:0:5, 3:1:0:0:1, 6:1:0:0:1, 3:3:0:0:7, 2:1:0:0:1, 5:2:0:0:4, 2:3:0:0:3, 4:3:0:0:4, 4:5:1:0:7, 3:0:0:0:1, 6:2:0:0:3, 4:1:0:0:2, 4:2:0:0:4, 3:2:0:0:3, 7:3:2:0:3, 4:3:1:0:6, 4:3:0:0:5, 4:3:0:0:4, 9:3:3:0:3, 4:4:0:0:6, 5:5:0:0:6, 2:1:0:0:1, 3:5:0:0:5, 2:1:0:0:5,  , 7:1:1:0:2, 8:7:2:0:12, 4:1:0:0:4, 5:2:0:0:3, 4:2:0:0:4, 9:2:3:0:2, 4:2:0:0:4, 8:2:0:0:5, 2:1:0:0:3, 3:3:0:0:3, 2:3:0:0:4, 3:2:0:0:3, 3:2:0:0:3, 2:2:0:0:2, 7:3:0:0:4, 6:2:1:0:6, 3:0:0:0:2, 5:3:0:0:5, 5:2:0:0:4, 3:2:0:0:5, 3:2:0:0:4, 7:2:2:0:2, 4:3:0:0:6, 5:3:0:0:4, 3:4:0:0:6, 8:2:2:0:2, 5:3:0:0:8, 5:2:0:0:4, 1:1:0:0:1, 3:2:1:0:2, 2:1:0:0:2, 2:3:0:0:4, 4:3:0:0:5, 6:7:0:0:12, 4:1:0:0:5, 6:2:0:0:3, 4:3:0:0:4, 7:6:3:0:6, 5:1:0:0:5, 5:3:0:0:5, 4:1:1:0:1, 4:1:0:0:3, 3:4:0:0:6, 4:3:0:0:6, 3:3:0:0:4, 2:1:0:0:1, 6:5:0:0:6, 4:3:0:0:6, 2:0:0:0:4, 7:4:0:0:5, 3:1:0:0:2, 4:0:0:0:1, 5:1:0:0:2, 2:0:0:0:1, 4:1:0:0:4, 5:1:0:0:5, 4:4:0:0:7, 4:2:0:0:4, 2:0:0:0:0, 709:371:49:0:607
D major (2#), 0:0:0:0:0, 5:2:1:0:3, 2:0:0:0:1, 0:0:0:0:0, 0:0:0:0:0, 5:2:1:0:3, 2:0:0:0:1, 0:0:0:0:0, 1:0:0:0:0, 3:0:0:0:1, 1:0:0:0:2, 0:0:0:0:0, 1:0:0:0:0, 3:0:0:0:0, 1:0:0:0:0, 1:0:0:0:1, 0:0:0:0:0, 5:2:1:0:4, 2:0:0:0:1, 0:0:0:0:0, 2:0:0:0:0, 3:0:0:0:2, 2:0:0:0:0, 1:0:0:0:0, 1:0:0:0:1, 3:1:0:0:0, 2:0:0:0:2, 2:0:2:0:3, 0:0:0:0:0, 2:0:0:0:0, 0:0:0:0:0, 0:0:0:0:0, 1:0:0:0:0, 4:2:1:0:2, 0:0:0:0:0, 2:0:0:0:1, 1:0:0:0:0, 6:2:2:0:3, 2:0:0:0:0, 2:0:0:0:1, 1:0:0:0:0, 5:1:0:0:0, 2:1:1:0:2, 1:0:0:0:0, 3:0:1:0:1, 3:0:0:0:0, 2:0:0:0:0, 1:0:0:0:1, 1:0:1:0:1, 3:2:1:0:2, 1:0:1:0:1, 2:0:0:0:0, 3:1:0:0:1, 3:1:0:0:0, 0:0:0:0:0, 1:0:0:0:0, 2:0:0:0:0, 2:2:0:0:0, 3:1:1:0:1, 3:0:0:0:2, 0:0:0:0:0, 3:0:0:0:0, 5:0:0:0:0, 1:0:1:0:1, 1:0:1:0:1, 5:2:1:0:2, 0:0:0:0:0, 1:1:0:0:0, 1:0:0:0:0, 4:2:1:0:2, 0:0:0:0:0, 0:0:0:0:0, 3:0:0:0:1, 3:0:0:0:1, 1:0:0:0:1, 0:0:0:0:0, 3:0:0:0:0, 1:0:0:0:0, 1:0:1:0:1, 4:0:0:0:2, 1:0:1:0:1, 6:2:1:0:2, 0:0:0:0:0, 1:0:1:0:1, 3:0:0:0:0, 5:1:2:0:3, 1:0:0:0:2, 1:0:0:0:0, 2:0:1:0:2, 2:1:0:0:0, 0:0:0:0:0, 2:0:1:0:2, 1:0:1:0:1, 4:0:0:0:1, 1:0:1:0:1, 1:0:0:0:0, 0:0:0:0:0, 4:2:1:0:2, 1:0:1:0:1, 1:0:0:0:1, 1:0:0:0:0, 6:4:1:0:5, 0:0:0:0:0, 1:2:0:0:0, 1:0:0:0:0, 2:0:0:0:2, 0:0:0:0:0,  , 3:3:1:0:1, 5:0:0:0:0, 1:1:0:0:0, 1:0:0:0:1, 2:0:0:0:0, 6:4:1:0:4, 0:0:0:0:0, 4:0:0:0:1, 1:0:0:0:0, 3:1:0:0:0, 0:0:0:0:0, 1:0:0:0:0, 0:0:0:0:0, 2:1:0:0:0, 3:2:0:0:3, 3:0:0:0:2, 0:0:0:0:0, 2:0:0:0:0, 2:0:0:0:0, 0:0:0:0:0, 0:0:0:0:0, 4:2:1:0:2, 0:0:0:0:0, 1:0:0:0:0, 0:0:0:0:0, 5:4:1:0:4, 1:0:0:0:0, 2:0:0:0:1, 1:0:0:0:0, 2:0:0:0:1, 0:0:0:0:0, 0:0:0:0:0, 2:0:1:0:1, 2:0:0:0:2, 1:0:0:0:1, 2:0:0:0:1, 0:0:0:0:0, 4:3:3:0:4, 2:0:0:0:1, 1:0:0:0:0, 3:1:0:0:0, 2:1:0:0:0, 1:0:0:0:0, 2:0:0:0:1, 1:0:0:0:0, 2:3:0:0:0, 2:0:0:0:0, 3:2:0:0:3, 0:0:0:0:0, 4:1:1:0:1, 0:0:0:0:0, 2:0:0:0:0, 2:0:0:0:1, 0:0:0:0:0, 0:0:0:0:0, 1:0:0:0:1, 0:0:0:0:0, 1:0:0:0:0, 0:0:0:0:0, 290:66:40:0:120
G minor (2b), 4:3:0:0:4, 8:3:1:0:3, 5:1:0:0:6, 3:1:0:0:2, 4:1:0:0:2, 8:3:1:0:3, 5:1:0:0:6, 3:1:0:0:2, 1:2:0:0:2, 4:1:0:0:1, 3:3:0:0:6, 1:0:0:0:1, 3:2:0:0:4, 5:5:1:0:7, 4:1:0:0:2, 3:1:0:0:2, 4:1:0:0:2, 8:4:1:0:4, 5:1:0:0:7, 3:1:0:0:2, 2:1:0:0:1, 4:3:0:0:3, 4:6:1:0:7, 2:1:0:0:1, 3:2:0:0:4, 3:4:0:0:4, 5:3:1:0:4, 4:2:0:0:3, 2:0:0:0:4, 6:2:0:0:3, 3:1:0:0:2, 3:1:0:0:2, 4:4:0:0:5, 7:3:1:0:3, 3:1:0:0:2, 6:5:0:0:6, 5:2:0:0:4, 9:6:2:0:6, 5:1:0:0:3, 5:2:0:0:4, 2:1:0:0:1, 7:2:0:0:3, 4:4:1:0:5, 3:0:0:0:0, 6:3:0:0:5, 5:4:0:0:7, 6:1:0:0:2, 3:4:0:0:4, 4:3:1:0:5, 6:2:2:0:2, 4:3:1:0:4, 4:1:0:0:2, 4:1:0:0:1, 4:3:0:0:3, 2:3:0:0:6, 3:2:0:0:3, 4:1:0:0:3, 2:3:0:0:3, 7:5:1:0:6, 6:3:1:0:5, 2:0:0:0:1, 5:2:0:0:3, 7:1:0:0:3, 4:3:1:0:4, 4:1:0:0:2, 8:2:2:0:2, 3:1:0:0:3, 4:1:0:0:2, 4:4:0:0:5, 7:4:2:0:4, 4:2:0:0:3, 3:1:0:0:2, 2:1:0:0:3, 5:1:0:0:3, 3:1:0:0:4, 3:0:0:0:1, 6:1:0:0:2, 4:5:0:0:8, 5:5:1:0:6, 4:2:0:0:2, 4:1:0:0:2, 9:3:3:0:3, 3:1:0:0:2, 4:3:1:0:5, 3:1:0:0:1, 6:1:0:0:1, 3:3:0:0:7, 2:1:0:0:1, 5:2:0:0:4, 2:3:0:0:3, 4:3:0:0:4, 4:5:1:0:7, 3:0:0:0:1, 6:2:0:0:3, 4:1:0:0:2, 4:2:0:0:4, 3:2:0:0:3, 7:3:2:0:3, 4:3:1:0:6, 4:3:0:0:5, 4:3:0:0:4, 9:3:3:0:3, 4:4:0:0:6, 5:5:0:0:6, 2:1:0:0:1, 3:5:0:0:5, 2:1:0:0:5,  , 7:1:1:0:2, 8:7:2:0:12, 4:1:0:0:4, 5:2:0:0:3, 4:2:0:0:4, 9:2:3:0:2, 4:2:0:0:4, 8:2:0:0:5, 2:1:0:0:3, 3:3:0:0:3, 2:3:0:0:4, 3:2:0:0:3, 3:2:0:0:3, 2:2:0:0:2, 7:3:0:0:4, 6:2:1:0:6, 3:0:0:0:2, 5:3:0:0:5, 5:2:0:0:4, 3:2:0:0:5, 3:2:0:0:4, 7:2:2:0:2, 4:3:0:0:6, 5:3:0:0:4, 3:4:0:0:6, 8:2:2:0:2, 5:3:0:0:8, 5:2:0:0:4, 1:1:0:0:1, 3:2:1:0:2, 2:1:0:0:2, 2:3:0:0:4, 4:3:0:0:5, 6:7:0:0:12, 4:1:0:0:5, 6:2:0:0:3, 4:3:0:0:4, 7:6:3:0:6, 5:1:0:0:5, 5:3:0:0:5, 4:1:1:0:1, 4:1:0:0:3, 3:4:0:0:6, 4:3:0:0:6, 3:3:0:0:4, 2:1:0:0:1, 6:5:0:0:6, 4:3:0:0:6, 2:0:0:0:4, 7:4:0:0:5, 3:1:0:0:2, 4:0:0:0:1, 5:1:0:0:2, 2:0:0:0:1, 4:1:0:0:4, 5:1:0:0:5, 4:4:0:0:7, 4:2:0:0:4, 2:0:0:0:0, 709:371:49:0:607
B minor (2#), 0:0:0:0:0, 5:2:1:0:3, 2:0:0:0:1, 0:0:0:0:0, 0:0:0:0:0, 5:2:1:0:3, 2:0:0:0:1, 0:0:0:0:0, 1:0:0:0:0, 3:0:0:0:1, 1:0:0:0:2, 0:0:0:0:0, 1:0:0:0:0, 3:0:0:0:0, 1:0:0:0:0, 1:0:0:0:1, 0:0:0:0:0, 5:2:1:0:4, 2:0:0:0:1, 0:0:0:0:0, 2:0:0:0:0, 3:0:0:0:2, 2:0:0:0:0, 1:0:0:0:0, 1:0:0:0:1, 3:1:0:0:0, 2:0:0:0:2, 2:0:2:0:3, 0:0:0:0:0, 2:0:0:0:0, 0:0:0:0:0, 0:0:0:0:0, 1:0:0:0:0, 4:2:1:0:2, 0:0:0:0:0, 2:0:0:0:1, 1:0:0:0:0, 6:2:2:0:3, 2:0:0:0:0, 2:0:0:0:1, 1:0:0:0:0, 5:1:0:0:0, 2:1:1:0:2, 1:0:0:0:0, 3:0:1:0:1, 3:0:0:0:0, 2:0:0:0:0, 1:0:0:0:1, 1:0:1:0:1, 3:2:1:0:2, 1:0:1:0:1, 2:0:0:0:0, 3:1:0:0:1, 3:1:0:0:0, 0:0:0:0:0, 1:0:0:0:0, 2:0:0:0:0, 2:2:0:0:0, 3:1:1:0:1, 3:0:0:0:2, 0:0:0:0:0, 3:0:0:0:0, 5:0:0:0:0, 1:0:1:0:1, 1:0:1:0:1, 5:2:1:0:2, 0:0:0:0:0, 1:1:0:0:0, 1:0:0:0:0, 4:2:1:0:2, 0:0:0:0:0, 0:0:0:0:0, 3:0:0:0:1, 3:0:0:0:1, 1:0:0:0:1, 0:0:0:0:0, 3:0:0:0:0, 1:0:0:0:0, 1:0:1:0:1, 4:0:0:0:2, 1:0:1:0:1, 6:2:1:0:2, 0:0:0:0:0, 1:0:1:0:1, 3:0:0:0:0, 5:1:2:0:3, 1:0:0:0:2, 1:0:0:0:0, 2:0:1:0:2, 2:1:0:0:0, 0:0:0:0:0, 2:0:1:0:2, 1:0:1:0:1, 4:0:0:0:1, 1:0:1:0:1, 1:0:0:0:0, 0:0:0:0:0, 4:2:1:0:2, 1:0:1:0:1, 1:0:0:0:1, 1:0:0:0:0, 6:4:1:0:5, 0:0:0:0:0, 1:2:0:0:0, 1:0:0:0:0, 2:0:0:0:2, 0:0:0:0:0,  , 3:3:1:0:1, 5:0:0:0:0, 1:1:0:0:0, 1:0:0:0:1, 2:0:0:0:0, 6:4:1:0:4, 0:0:0:0:0, 4:0:0:0:1, 1:0:0:0:0, 3:1:0:0:0, 0:0:0:0:0, 1:0:0:0:0, 0:0:0:0:0, 2:1:0:0:0, 3:2:0:0:3, 3:0:0:0:2, 0:0:0:0:0, 2:0:0:0:0, 2:0:0:0:0, 0:0:0:0:0, 0:0:0:0:0, 4:2:1:0:2, 0:0:0:0:0, 1:0:0:0:0, 0:0:0:0:0, 5:4:1:0:4, 1:0:0:0:0, 2:0:0:0:1, 1:0:0:0:0, 2:0:0:0:1, 0:0:0:0:0, 0:0:0:0:0, 2:0:1:0:1, 2:0:0:0:2, 1:0:0:0:1, 2:0:0:0:1, 0:0:0:0:0, 4:3:3:0:4, 2:0:0:0:1, 1:0:0:0:0, 3:1:0:0:0, 2:1:0:0:0, 1:0:0:0:0, 2:0:0:0:1, 1:0:0:0:0, 2:3:0:0:0, 2:0:0:0:0, 3:2:0:0:3, 0:0:0:0:0, 4:1:1:0:1, 0:0:0:0:0, 2:0:0:0:0, 2:0:0:0:1, 0:0:0:0:0, 0:0:0:0:0, 1:0:0:0:1, 0:0:0:0:0, 1:0:0:0:0, 0:0:0:0:0, 290:66:40:0:120
Eb major (3b), 5:3:0:0:5, 9:3:1:0:6, 5:2:0:0:9, 4:1:0:0:4, 5:1:0:0:3, 9:3:1:0:6, 5:2:0:0:9, 4:1:0:0:4, 2:2:0:0:2, 5:1:0:0:5, 3:3:0:0:6, 1:0:0:0:1, 3:1:0:0:4, 6:5:1:0:9, 5:1:0:0:5, 4:1:0:0:3, 5:1:0:0:3, 9:4:1:0:7, 5:2:0:0:10, 4:1:0:0:4, 3:1:0:0:1, 5:1:2:0:2, 4:6:1:0:8, 3:1:0:0:3, 3:2:0:0:4, 3:4:0:0:7, 6:3:1:0:6, 5:2:0:0:3, 2:0:0:0:5, 7:2:0:0:6, 4:1:0:0:3, 4:1:0:0:4, 5:4:0:0:6, 8:3:1:0:4, 4:1:0:0:4, 7:5:0:0:9, 6:2:0:0:5, 10:6:2:0:7, 6:1:0:0:6, 6:2:0:0:8, 3:1:0:0:2, 8:2:0:0:6, 5:4:1:0:5, 3:0:0:0:2, 7:3:0:0:8, 6:4:0:0:10, 7:1:0:0:4, 4:4:0:0:6, 5:3:1:0:6, 7:2:2:0:3, 5:3:1:0:6, 5:1:0:0:4, 5:1:0:0:2, 5:3:0:0:4, 3:3:0:0:6, 4:2:0:0:5, 5:1:0:0:4, 3:3:0:0:4, 8:5:1:0:7, 7:3:1:0:4, 2:0:0:0:2, 6:2:0:0:5, 8:1:0:0:4, 5:3:1:0:6, 5:1:0:0:3, 9:2:2:0:3, 4:1:0:0:5, 5:1:0:0:4, 5:4:0:0:6, 8:4:2:0:5, 5:2:0:0:8, 4:1:0:0:4, 3:1:0:0:3, 6:1:0:0:5, 3:1:0:0:5, 3:0:0:0:2, 5:1:0:0:5, 5:5:0:0:11, 6:5:1:0:9, 5:2:0:0:4, 5:1:0:0:3, 10:3:3:0:4, 4:1:0:0:5, 5:3:1:0:10, 4:1:0:0:1, 7:1:0:0:3, 3:3:0:0:7, 3:1:0:0:2, 5:2:0:0:5, 2:3:0:0:6, 5:3:0:0:5, 5:5:1:0:7, 4:0:0:0:3, 7:2:0:0:6, 5:1:0:0:4, 5:2:0:0:7, 4:2:0:0:4, 8:3:2:0:4, 5:3:1:0:8, 5:3:0:0:8, 5:3:0:0:7, 10:3:3:0:4, 5:4:0:0:11, 6:5:0:0:10, 3:1:0:0:3, 4:5:0:0:8, 2:1:0:0:5,  , 8:1:1:0:3, 9:7:2:0:13, 5:1:0:0:7, 6:2:0:0:5, 5:2:0:0:5, 10:2:3:0:4, 5:2:0:0:7, 9:2:0:0:8, 3:1:0:0:3, 4:3:0:0:4, 3:3:0:0:4, 4:2:0:0:5, 4:2:0:0:4, 3:2:0:0:4, 8:3:0:0:6, 7:2:1:0:5, 3:0:0:0:4, 6:3:0:0:7, 6:2:0:0:5, 4:2:0:0:7, 4:2:0:0:5, 8:2:2:0:3, 5:3:0:0:8, 6:3:0:0:6, 4:4:0:0:7, 9:2:2:0:5, 6:3:0:0:10, 6:2:0:0:7, 2:1:0:0:1, 4:2:1:0:3, 3:1:0:0:2, 3:3:0:0:4, 4:1:0:0:4, 7:7:0:0:13, 5:1:0:0:7, 7:2:0:0:4, 5:3:0:0:6, 8:6:3:0:7, 5:2:0:0:8, 6:3:0:0:8, 5:1:1:0:2, 5:1:0:0:4, 4:4:0:0:7, 5:3:0:0:8, 3:3:0:0:5, 2:1:0:0:3, 7:5:0:0:7, 5:3:0:0:6, 2:0:0:0:6, 8:4:0:0:8, 4:1:0:0:3, 5:0:0:0:4, 6:1:0:0:4, 3:0:0:0:2, 5:1:0:0:6, 6:1:0:0:7, 5:4:0:0:8, 4:0:0:0:3, 3:0:0:0:0, 848:368:51:0:874
A major (3#), 0:0:0:0:0, 5:2:1:0:2, 3:0:0:0:1, 1:0:0:0:0, 0:0:0:0:0, 5:2:1:0:2, 3:0:0:0:1, 1:0:0:0:0, 1:0:0:0:0, 4:0:0:0:0, 2:0:0:0:2, 0:0:0:0:0, 0:0:0:0:0, 2:0:0:0:0, 2:0:0:0:0, 2:0:0:0:1, 0:0:0:0:0, 5:2:1:0:2, 3:0:0:0:1, 1:0:0:0:0, 2:0:0:0:0, 4:0:0:0:0, 3:0:0:0:0, 2:0:0:0:0, 2:0:0:0:1, 4:1:0:0:0, 2:0:0:0:0, 2:0:2:0:2, 1:0:0:0:0, 1:0:0:0:0, 0:0:0:0:0, 1:0:0:0:0, 0:0:0:0:0, 3:2:1:0:2, 1:0:0:0:0, 3:0:0:0:0, 2:0:0:0:0, 7:2:2:0:3, 3:0:0:0:0, 3:0:0:0:0, 1:0:0:0:0, 6:1:0:0:0, 3:1:1:0:2, 1:0:0:0:0, 2:0:1:0:1, 3:4:0:2:2, 3:0:0:0:0, 2:0:0:0:0, 1:0:1:0:1, 3:2:1:0:2, 2:0:1:0:1, 3:0:0:0:0, 4:1:0:0:1, 4:1:0:0:1, 1:0:0:0:0, 2:0:0:0:0, 3:0:0:0:0, 3:2:0:0:0, 4:1:1:0:2, 3:0:0:0:0, 1:0:0:0:0, 2:0:0:0:0, 5:0:2:3:5, 2:0:1:0:1, 1:0:1:0:1, 5:2:1:0:2, 1:0:0:0:0, 2:1:0:0:0, 0:0:0:0:0, 4:2:1:0:2, 1:0:0:0:0, 1:0:0:0:0, 3:0:0:0:1, 4:0:0:0:0, 2:0:0:0:0, 0:0:0:0:0, 2:0:0:0:0, 0:0:0:0:0, 2:0:1:0:1, 5:0:0:0:1, 1:0:1:0:1, 6:2:1:0:2, 1:0:0:0:0, 2:0:1:0:1, 3:0:0:0:0, 6:1:2:0:3, 2:0:0:0:2, 2:0:0:0:0, 3:0:1:0:2, 3:1:0:0:0, 0:0:0:0:0, 3:0:1:0:1, 2:0:1:0:1, 3:0:0:0:1, 1:0:1:0:1, 2:0:0:0:0, 0:0:0:0:0, 4:2:1:0:2, 2:0:1:0:1, 2:0:0:0:1, 0:0:0:0:0, 5:4:1:0:4, 1:0:0:0:0, 2:2:0:0:0, 1:0:0:0:0, 3:0:0:0:0, 1:0:0:0:0,  , 2:3:1:0:1, 4:0:0:0:0, 2:1:0:0:0, 2:0:0:0:0, 2:0:0:0:0, 6:4:1:0:4, 1:0:0:0:0, 5:0:0:0:0, 1:0:0:0:0, 4:1:0:0:0, 1:0:0:0:0, 2:0:0:0:0, 1:0:0:0:0, 3:1:0:0:0, 4:2:0:0:2, 3:0:0:0:0, 1:0:0:0:0, 1:0:0:0:0, 2:0:0:0:0, 1:0:0:0:0, 0:0:0:0:0, 4:2:1:0:2, 1:0:0:0:0, 2:0:0:0:0, 0:0:0:0:0, 6:4:1:0:4, 2:0:0:0:0, 3:0:0:0:1, 1:0:0:0:0, 3:0:0:0:1, 1:0:0:0:0, 1:0:0:0:0, 1:0:1:0:1, 1:0:0:0:2, 2:0:0:0:0, 3:0:0:0:0, 0:0:0:0:0, 4:3:3:0:4, 3:0:0:0:1, 2:0:0:0:0, 4:1:0:0:0, 3:1:0:0:1, 2:0:0:0:0, 3:0:0:0:0, 2:0:0:0:0, 3:3:0:0:0, 1:0:0:0:0, 3:2:0:0:2, 1:0:0:0:0, 3:1:1:0:1, 0:0:0:0:0, 3:0:0:0:0, 2:0:0:0:0, 1:0:0:0:0, 0:0:0:0:0, 2:0:0:0:1, 0:0:0:0:0, 0:0:0:0:0, 0:0:0:0:0, 365:70:42:5:98
C minor (3b), 5:3:0:0:5, 9:3:1:0:6, 5:2:0:0:9, 4:1:0:0:4, 5:1:0:0:3, 9:3:1:0:6, 5:2:0:0:9, 4:1:0:0:4, 2:2:0:0:2, 5:1:0:0:5, 3:3:0:0:6, 1:0:0:0:1, 3:1:0:0:4, 6:5:1:0:9, 5:1:0:0:5, 4:1:0:0:3, 5:1:0:0:3, 9:4:1:0:7, 5:2:0:0:10, 4:1:0:0:4, 3:1:0:0:1, 5:1:2:0:2, 4:6:1:0:8, 3:1:0:0:3, 3:2:0:0:4, 3:4:0:0:7, 6:3:1:0:6, 5:2:0:0:3, 2:0:0:0:5, 7:2:0:0:6, 4:1:0:0:3, 4:1:0:0:4, 5:4:0:0:6, 8:3:1:0:4, 4:1:0:0:4, 7:5:0:0:9, 6:2:0:0:5, 10:6:2:0:7, 6:1:0:0:6, 6:2:0:0:8, 3:1:0:0:2, 8:2:0:0:6, 5:4:1:0:5, 3:0:0:0:2, 7:3:0:0:8, 6:4:0:0:10, 7:1:0:0:4, 4:4:0:0:6, 5:3:1:0:6, 7:2:2:0:3, 5:3:1:0:6, 5:1:0:0:4, 5:1:0:0:2, 5:3:0:0:4, 3:3:0:0:6, 4:2:0:0:5, 5:1:0:0:4, 3:3:0:0:4, 8:5:1:0:7, 7:3:1:0:4, 2:0:0:0:2, 6:2:0:0:5, 8:1:0:0:4, 5:3:1:0:6, 5:1:0:0:3, 9:2:2:0:3, 4:1:0:0:5, 5:1:0:0:4, 5:4:0:0:6, 8:4:2:0:5, 5:2:0:0:8, 4:1:0:0:4, 3:1:0:0:3, 6:1:0:0:5, 3:1:0:0:5, 3:0:0:0:2, 5:1:0:0:5, 5:5:0:0:11, 6:5:1:0:9, 5:2:0:0:4, 5:1:0:0:3, 10:3:3:0:4, 4:1:0:0:5, 5:3:1:0:10, 4:1:0:0:1, 7:1:0:0:3, 3:3:0:0:7, 3:1:0:0:2, 5:2:0:0:5, 2:3:0:0:6, 5:3:0:0:5, 5:5:1:0:7, 4:0:0:0:3, 7:2:0:0:6, 5:1:0:0:4, 5:2:0:0:7, 4:2:0:0:4, 8:3:2:0:4, 5:3:1:0:8, 5:3:0:0:8, 5:3:0:0:7, 10:3:3:0:4, 5:4:0:0:11, 6:5:0:0:10, 3:1:0:0:3, 4:5:0:0:8, 2:1:0:0:5,  , 8:1:1:0:3, 9:7:2:0:13, 5:1:0:0:7, 6:2:0:0:5, 5:2:0:0:5, 10:2:3:0:4, 5:2:0:0:7, 9:2:0:0:8, 3:1:0:0:3, 4:3:0:0:4, 3:3:0:0:4, 4:2:0:0:5, 4:2:0:0:4, 3:2:0:0:4, 8:3:0:0:6, 7:2:1:0:5, 3:0:0:0:4, 6:3:0:0:7, 6:2:0:0:5, 4:2:0:0:7, 4:2:0:0:5, 8:2:2:0:3, 5:3:0:0:8, 6:3:0:0:6, 4:4:0:0:7, 9:2:2:0:5, 6:3:0:0:10, 6:2:0:0:7, 2:1:0:0:1, 4:2:1:0:3, 3:1:0:0:2, 3:3:0:0:4, 4:1:0:0:4, 7:7:0:0:13, 5:1:0:0:7, 7:2:0:0:4, 5:3:0:0:6, 8:6:3:0:7, 5:2:0:0:8, 6:3:0:0:8, 5:1:1:0:2, 5:1:0:0:4, 4:4:0:0:7, 5:3:0:0:8, 3:3:0:0:5, 2:1:0:0:3, 7:5:0:0:7, 5:3:0:0:6, 2:0:0:0:6, 8:4:0:0:8, 4:1:0:0:3, 5:0:0:0:4, 6:1:0:0:4, 3:0:0:0:2, 5:1:0:0:6, 6:1:0:0:7, 5:4:0:0:8, 4:0:0:0:3, 3:0:0:0:0, 848:368:51:0:874
F# minor (3#), 0:0:0:0:0, 5:2:1:0:2, 3:0:0:0:1, 1:0:0:0:0, 0:0:0:0:0, 5:2:1:0:2, 3:0:0:0:1, 1:0:0:0:0, 1:0:0:0:0, 4:0:0:0:0, 2:0:0:0:2, 0:0:0:0:0, 0:0:0:0:0, 2:0:0:0:0, 2:0:0:0:0, 2:0:0:0:1, 0:0:0:0:0, 5:2:1:0:2, 3:0:0:0:1, 1:0:0:0:0, 2:0:0:0:0, 4:0:0:0:0, 3:0:0:0:0, 2:0:0:0:0, 2:0:0:0:1, 4:1:0:0:0, 2:0:0:0:0, 2:0:2:0:2, 1:0:0:0:0, 1:0:0:0:0, 0:0:0:0:0, 1:0:0:0:0, 0:0:0:0:0, 3:2:1:0:2, 1:0:0:0:0, 3:0:0:0:0, 2:0:0:0:0, 7:2:2:0:3, 3:0:0:0:0, 3:0:0:0:0, 1:0:0:0:0, 6:1:0:0:0, 3:1:1:0:2, 1:0:0:0:0, 2:0:1:0:1, 3:4:0:2:2, 3:0:0:0:0, 2:0:0:0:0, 1:0:1:0:1, 3:2:1:0:2, 2:0:1:0:1, 3:0:0:0:0, 4:1:0:0:1, 4:1:0:0:1, 1:0:0:0:0, 2:0:0:0:0, 3:0:0:0:0, 3:2:0:0:0, 4:1:1:0:2, 3:0:0:0:0, 1:0:0:0:0, 2:0:0:0:0, 5:0:2:3:5, 2:0:1:0:1, 1:0:1:0:1, 5:2:1:0:2, 1:0:0:0:0, 2:1:0:0:0, 0:0:0:0:0, 4:2:1:0:2, 1:0:0:0:0, 1:0:0:0:0, 3:0:0:0:1, 4:0:0:0:0, 2:0:0:0:0, 0:0:0:0:0, 2:0:0:0:0, 0:0:0:0:0, 2:0:1:0:1, 5:0:0:0:1, 1:0:1:0:1, 6:2:1:0:2, 1:0:0:0:0, 2:0:1:0:1, 3:0:0:0:0, 6:1:2:0:3, 2:0:0:0:2, 2:0:0:0:0, 3:0:1:0:2, 3:1:0:0:0, 0:0:0:0:0, 3:0:1:0:1, 2:0:1:0:1, 3:0:0:0:1, 1:0:1:0:1, 2:0:0:0:0, 0:0:0:0:0, 4:2:1:0:2, 2:0:1:0:1, 2:0:0:0:1, 0:0:0:0:0, 5:4:1:0:4, 1:0:0:0:0, 2:2:0:0:0, 1:0:0:0:0, 3:0:0:0:0, 1:0:0:0:0,  , 2:3:1:0:1, 4:0:0:0:0, 2:1:0:0:0, 2:0:0:0:0, 2:0:0:0:0, 6:4:1:0:4, 1:0:0:0:0, 5:0:0:0:0, 1:0:0:0:0, 4:1:0:0:0, 1:0:0:0:0, 2:0:0:0:0, 1:0:0:0:0, 3:1:0:0:0, 4:2:0:0:2, 3:0:0:0:0, 1:0:0:0:0, 1:0:0:0:0, 2:0:0:0:0, 1:0:0:0:0, 0:0:0:0:0, 4:2:1:0:2, 1:0:0:0:0, 2:0:0:0:0, 0:0:0:0:0, 6:4:1:0:4, 2:0:0:0:0, 3:0:0:0:1, 1:0:0:0:0, 3:0:0:0:1, 1:0:0:0:0, 1:0:0:0:0, 1:0:1:0:1, 1:0:0:0:2, 2:0:0:0:0, 3:0:0:0:0, 0:0:0:0:0, 4:3:3:0:4, 3:0:0:0:1, 2:0:0:0:0, 4:1:0:0:0, 3:1:0:0:1, 2:0:0:0:0, 3:0:0:0:0, 2:0:0:0:0, 3:3:0:0:0, 1:0:0:0:0, 3:2:0:0:2, 1:0:0:0:0, 3:1:1:0:1, 0:0:0:0:0, 3:0:0:0:0, 2:0:0:0:0, 1:0:0:0:0, 0:0:0:0:0, 2:0:0:0:1, 0:0:0:0:0, 0:0:0:0:0, 0:0:0:0:0, 365:70:42:5:98
Ab major (4b), 6:3:0:0:6, 9:2:1:0:6, 6:2:0:0:11, 5:1:0:0:6, 6:1:0:0:4, 9:2:1:0:6, 6:2:0:0:11, 5:1:0:0:6, 3:2:0:0:4, 5:2:0:0:8, 4:3:0:0:6, 1:0:0:0:1, 4:1:0:0:4, 7:5:1:0:10, 6:1:0:0:6, 4:1:0:0:4, 6:1:0:0:4, 9:2:3:0:4, 6:2:0:0:12, 5:1:0:0:6, 4:1:0:0:2, 5:3:0:0:8, 5:6:1:0:8, 4:1:0:0:5, 4:2:0:0:4, 3:4:0:0:7, 6:5:0:0:10, 5:2:0:0:4, 3:0:0:0:5, 8:2:0:0:7, 5:1:0:0:4, 5:1:0:0:5, 6:4:0:0:8, 8:3:1:0:7, 5:1:0:0:8, 8:5:0:0:11, 7:2:0:0:7, 11:6:2:0:11, 7:1:0:0:7, 7:2:0:0:9, 4:1:0:0:4, 9:2:0:0:11, 6:4:1:0:6, 2:0:0:0:2, 8:3:0:0:9, 7:4:0:0:11, 8:1:0:0:6, 5:3:0:0:7, 6:3:1:0:8, 8:2:2:0:4, 6:3:1:0:7, 6:1:0:0:6, 6:1:0:0:3, 6:3:0:0:7, 4:3:0:0:8, 5:2:0:0:7, 6:1:0:0:6, 4:3:0:0:5, 9:5:1:0:10, 7:3:1:0:5, 3:0:0:0:2, 7:2:0:0:6, 9:1:0:0:6, 6:3:1:0:7, 6:1:0:0:6, 8:2:2:0:6, 5:1:0:0:10, 6:1:0:0:6, 6:4:0:0:9, 8:4:2:0:8, 6:2:0:0:9, 5:1:0:0:5, 4:1:0:0:6, 6:2:0:0:8, 4:1:0:0:5, 4:0:0:0:2, 6:1:0:0:5, 6:5:0:0:13, 7:5:1:0:12, 5:2:0:0:6, 6:1:0:0:6, 9:3:3:0:8, 5:1:0:0:6, 6:3:1:0:12, 5:1:0:0:6, 8:1:0:0:5, 4:3:0:0:7, 4:1:0:0:4, 6:2:0:0:5, 2:3:0:0:6, 5:3:0:0:6, 5:5:1:0:8, 5:0:0:0:4, 8:2:0:0:8, 6:1:0:0:6, 6:2:0:0:9, 5:2:0:0:6, 8:3:2:0:6, 6:3:1:0:10, 6:3:0:0:9, 6:3:0:0:9, 11:3:3:0:6, 6:4:0:0:14, 7:5:0:0:11, 4:1:0:0:5, 5:5:0:0:10, 3:1:0:0:5,  , 9:1:1:0:5, 10:7:2:0:15, 6:1:0:0:10, 6:1:0:0:6, 6:2:0:0:7, 9:2:3:0:6, 6:2:0:0:8, 10:2:0:0:9, 4:1:0:0:6, 5:3:0:0:8, 4:3:0:0:6, 5:2:0:0:8, 5:2:0:0:5, 4:2:0:0:5, 8:3:0:0:8, 7:2:1:0:7, 4:0:0:0:4, 7:3:0:0:10, 7:2:0:0:6, 5:2:0:0:10, 5:2:0:0:8, 9:2:2:0:5, 6:3:0:0:9, 7:3:0:0:7, 5:4:0:0:9, 10:2:2:0:7, 7:3:0:0:11, 7:2:0:0:8, 3:1:0:0:3, 5:2:1:0:6, 4:1:0:0:4, 4:3:0:0:7, 5:1:0:0:4, 8:7:0:0:14, 6:1:0:0:10, 7:1:0:0:5, 6:3:0:0:8, 8:3:2:0:6, 6:2:0:0:10, 7:3:0:0:10, 6:1:1:0:4, 6:1:0:0:6, 5:4:0:0:8, 6:3:0:0:12, 4:3:0:0:5, 3:1:0:0:3, 7:5:0:0:9, 5:3:0:0:7, 3:0:0:0:6, 9:4:0:0:11, 5:1:0:0:5, 6:0:0:0:7, 7:1:0:0:8, 4:0:0:0:4, 6:1:0:0:8, 7:1:0:0:9, 6:4:0:0:10, 4:0:0:0:4, 2:0:0:0:1, 977:364:49:0:1155
E major (4#), 1:0:0:0:0, 4:2:1:0:2, 4:0:0:0:0, 2:0:0:0:0, 1:0:0:0:0, 4:2:1:0:2, 4:0:0:0:0, 2:0:0:0:0, 2:0:0:0:0, 3:0:0:0:0, 3:0:0:0:0, 0:0:0:0:0, 1:0:0:0:0, 3:0:0:0:0, 3:0:0:0:0, 2:0:0:0:0, 1:0:0:0:0, 4:2:1:0:2, 4:0:0:0:0, 2:0:0:0:0, 3:0:0:0:0, 3:0:0:0:0, 4:0:0:0:0, 3:0:0:0:0, 3:0:0:0:0, 4:1:0:0:1, 1:0:0:0:0, 1:0:2:0:2, 2:0:0:0:0, 2:0:0:0:0, 1:0:0:0:0, 2:0:0:0:0, 1:0:0:0:0, 3:2:1:0:2, 2:0:0:0:0, 4:0:0:0:0, 3:0:0:0:0, 8:2:2:0:3, 4:0:0:0:0, 4:0:0:0:0, 2:0:0:0:0, 7:1:0:0:1, 4:1:1:0:2, 1:0:0:0:0, 3:0:1:0:1, 4:4:0:2:2, 4:0:0:0:0, 3:0:0:0:0, 2:0:1:0:1, 4:2:1:0:2, 3:0:1:0:1, 4:0:0:0:0, 5:1:0:0:1, 4:0:0:0:0, 2:0:0:0:0, 3:0:0:0:0, 4:0:0:0:0, 4:2:0:0:2, 5:1:1:0:2, 2:0:0:0:0, 2:0:0:0:0, 3:0:0:0:0, 6:0:2:3:5, 3:0:1:0:1, 2:0:1:0:1, 5:2:1:0:2, 2:0:0:0:0, 3:1:0:0:1, 1:0:0:0:0, 4:2:1:0:2, 2:0:0:0:0, 2:0:0:0:0, 4:0:0:0:0, 3:0:0:0:0, 3:0:0:0:0, 1:0:0:0:0, 3:0:0:0:0, 1:0:0:0:0, 3:0:1:0:1, 4:0:0:0:0, 2:0:1:0:1, 6:2:1:0:2, 2:0:0:0:0, 3:0:1:0:1, 4:0:0:0:0, 7:1:2:0:3, 3:0:0:0:0, 3:0:0:0:0, 4:0:1:0:1, 3:1:0:0:1, 0:0:0:0:0, 2:0:1:0:1, 3:0:1:0:1, 4:0:0:0:0, 2:0:1:0:1, 3:0:0:0:0, 1:0:0:0:0, 4:2:1:0:2, 3:0:1:0:1, 3:0:0:0:0, 1:0:0:0:0, 6:4:1:0:4, 2:0:0:0:0, 3:2:0:0:2, 2:0:0:0:0, 4:0:0:0:0, 2:0:0:0:0,  , 3:3:1:0:3, 5:0:0:0:0, 3:1:0:0:1, 1:0:0:0:0, 3:0:0:0:0, 6:4:1:0:4, 2:0:0:0:0, 6:0:0:0:0, 2:0:0:0:0, 5:1:0:0:1, 2:0:0:0:0, 3:0:0:0:0, 2:0:0:0:0, 4:1:0:0:1, 3:2:0:0:2, 2:0:0:0:0, 2:0:0:0:0, 2:0:0:0:0, 3:0:0:0:0, 2:0:0:0:0, 1:0:0:0:0, 5:2:1:0:2, 2:0:0:0:0, 3:0:0:0:0, 1:0:0:0:0, 7:4:1:0:4, 3:0:0:0:0, 4:0:0:0:0, 2:0:0:0:0, 4:0:0:0:0, 2:0:0:0:0, 2:0:0:0:0, 2:0:1:0:1, 2:0:0:0:0, 3:0:0:0:0, 2:0:0:0:0, 1:0:0:0:0, 4:3:3:0:4, 4:0:0:0:0, 3:0:0:0:0, 5:1:0:0:1, 3:0:0:0:0, 3:0:0:0:0, 4:0:0:0:0, 3:0:0:0:0, 4:3:0:0:3, 1:0:0:0:0, 2:2:0:0:2, 2:0:0:0:0, 4:1:1:0:2, 1:0:0:0:0, 4:0:0:0:0, 3:0:0:0:0, 2:0:0:0:0, 1:0:0:0:0, 3:0:0:0:0, 1:0:0:0:0, 0:0:0:0:0, 0:0:0:0:0, 481:68:42:5:94
F minor (4b), 6:3:0:0:6, 9:2:1:0:6, 6:2:0:0:11, 5:1:0:0:6, 6:1:0:0:4, 9:2:1:0:6, 6:2:0:0:11, 5:1:0:0:6, 3:2:0:0:4, 5:2:0:0:8, 4:3:0:0:6, 1:0:0:0:1, 4:1:0:0:4, 7:5:1:0:10, 6:1:0:0:6, 4:1:0:0:4, 6:1:0:0:4, 9:2:3:0:4, 6:2:0:0:12, 5:1:0:0:6, 4:1:0:0:2, 5:3:0:0:8, 5:6:1:0:8, 4:1:0:0:5, 4:2:0:0:4, 3:4:0:0:7, 6:5:0:0:10, 5:2:0:0:4, 3:0:0:0:5, 8:2:0:0:7, 5:1:0:0:4, 5:1:0:0:5, 6:4:0:0:8, 8:3:1:0:7, 5:1:0:0:8, 8:5:0:0:11, 7:2:0:0:7, 11:6:2:0:11, 7:1:0:0:7, 7:2:0:0:9, 4:1:0:0:4, 9:2:0:0:11, 6:4:1:0:6, 2:0:0:0:2, 8:3:0:0:9, 7:4:0:0:11, 8:1:0:0:6, 5:3:0:0:7, 6:3:1:0:8, 8:2:2:0:4, 6:3:1:0:7, 6:1:0:0:6, 6:1:0:0:3, 6:3:0:0:7, 4:3:0:0:8, 5:2:0:0:7, 6:1:0:0:6, 4:3:0:0:5, 9:5:1:0:10, 7:3:1:0:5, 3:0:0:0:2, 7:2:0:0:6, 9:1:0:0:6, 6:3:1:0:7, 6:1:0:0:6, 8:2:2:0:6, 5:1:0:0:10, 6:1:0:0:6, 6:4:0:0:9, 8:4:2:0:8, 6:2:0:0:9, 5:1:0:0:5, 4:1:0:0:6, 6:2:0:0:8, 4:1:0:0:5, 4:0:0:0:2, 6:1:0:0:5, 6:5:0:0:13, 7:5:1:0:12, 5:2:0:0:6, 6:1:0:0:6, 9:3:3:0:8, 5:1:0:0:6, 6:3:1:0:12, 5:1:0:0:6, 8:1:0:0:5, 4:3:0:0:7, 4:1:0:0:4, 6:2:0:0:5, 2:3:0:0:6, 5:3:0:0:6, 5:5:1:0:8, 5:0:0:0:4, 8:2:0:0:8, 6:1:0:0:6, 6:2:0:0:9, 5:2:0:0:6, 8:3:2:0:6, 6:3:1:0:10, 6:3:0:0:9, 6:3:0:0:9, 11:3:3:0:6, 6:4:0:0:14, 7:5:0:0:11, 4:1:0:0:5, 5:5:0:0:10, 3:1:0:0:5,  , 9:1:1:0:5, 10:7:2:0:15, 6:1:0:0:10, 6:1:0:0:6, 6:2:0:0:7, 9:2:3:0:6, 6:2:0:0:8, 10:2:0:0:9, 4:1:0:0:6, 5:3:0:0:8, 4:3:0:0:6, 5:2:0:0:8, 5:2:0:0:5, 4:2:0:0:5, 8:3:0:0:8, 7:2:1:0:7, 4:0:0:0:4, 7:3:0:0:10, 7:2:0:0:6, 5:2:0:0:10, 5:2:0:0:8, 9:2:2:0:5, 6:3:0:0:9, 7:3:0:0:7, 5:4:0:0:9, 10:2:2:0:7, 7:3:0:0:11, 7:2:0:0:8, 3:1:0:0:3, 5:2:1:0:6, 4:1:0:0:4, 4:3:0:0:7, 5:1:0:0:4, 8:7:0:0:14, 6:1:0:0:10, 7:1:0:0:5, 6:3:0:0:8, 8:3:2:0:6, 6:2:0:0:10, 7:3:0:0:10, 6:1:1:0:4, 6:1:0:0:6, 5:4:0:0:8, 6:3:0:0:12, 4:3:0:0:5, 3:1:0:0:3, 7:5:0:0:9, 5:3:0:0:7, 3:0:0:0:6, 9:4:0:0:11, 5:1:0:0:5, 6:0:0:0:7, 7:1:0:0:8, 4:0:0:0:4, 6:1:0:0:8, 7:1:0:0:9, 6:4:0:0:10, 4:0:0:0:4, 2:0:0:0:1, 977:364:49:0:1155
C# minor (4#), 1:0:0:0:0, 4:2:1:0:2, 4:0:0:0:0, 2:0:0:0:0, 1:0:0:0:0, 4:2:1:0:2, 4:0:0:0:0, 2:0:0:0:0, 2:0:0:0:0, 3:0:0:0:0, 3:0:0:0:0, 0:0:0:0:0, 1:0:0:0:0, 3:0:0:0:0, 3:0:0:0:0, 2:0:0:0:0, 1:0:0:0:0, 4:2:1:0:2, 4:0:0:0:0, 2:0:0:0:0, 3:0:0:0:0, 3:0:0:0:0, 4:0:0:0:0, 3:0:0:0:0, 3:0:0:0:0, 4:1:0:0:1, 1:0:0:0:0, 1:0:2:0:2, 2:0:0:0:0, 2:0:0:0:0, 1:0:0:0:0, 2:0:0:0:0, 1:0:0:0:0, 3:2:1:0:2, 2:0:0:0:0, 4:0:0:0:0, 3:0:0:0:0, 8:2:2:0:3, 4:0:0:0:0, 4:0:0:0:0, 2:0:0:0:0, 7:1:0:0:1, 4:1:1:0:2, 1:0:0:0:0, 3:0:1:0:1, 4:4:0:2:2, 4:0:0:0:0, 3:0:0:0:0, 2:0:1:0:1, 4:2:1:0:2, 3:0:1:0:1, 4:0:0:0:0, 5:1:0:0:1, 4:0:0:0:0, 2:0:0:0:0, 3:0:0:0:0, 4:0:0:0:0, 4:2:0:0:2, 5:1:1:0:2, 2:0:0:0:0, 2:0:0:0:0, 3:0:0:0:0, 6:0:2:3:5, 3:0:1:0:1, 2:0:1:0:1, 5:2:1:0:2, 2:0:0:0:0, 3:1:0:0:1, 1:0:0:0:0, 4:2:1:0:2, 2:0:0:0:0, 2:0:0:0:0, 4:0:0:0:0, 3:0:0:0:0, 3:0:0:0:0, 1:0:0:0:0, 3:0:0:0:0, 1:0:0:0:0, 3:0:1:0:1, 4:0:0:0:0, 2:0:1:0:1, 6:2:1:0:2, 2:0:0:0:0, 3:0:1:0:1, 4:0:0:0:0, 7:1:2:0:3, 3:0:0:0:0, 3:0:0:0:0, 4:0:1:0:1, 3:1:0:0:1, 0:0:0:0:0, 2:0:1:0:1, 3:0:1:0:1, 4:0:0:0:0, 2:0:1:0:1, 3:0:0:0:0, 1:0:0:0:0, 4:2:1:0:2, 3:0:1:0:1, 3:0:0:0:0, 1:0:0:0:0, 6:4:1:0:4, 2:0:0:0:0, 3:2:0:0:2, 2:0:0:0:0, 4:0:0:0:0, 2:0:0:0:0,  , 3:3:1:0:3, 5:0:0:0:0, 3:1:0:0:1, 1:0:0:0:0, 3:0:0:0:0, 6:4:1:0:4, 2:0:0:0:0, 6:0:0:0:0, 2:0:0:0:0, 5:1:0:0:1, 2:0:0:0:0, 3:0:0:0:0, 2:0:0:0:0, 4:1:0:0:1, 3:2:0:0:2, 2:0:0:0:0, 2:0:0:0:0, 2:0:0:0:0, 3:0:0:0:0, 2:0:0:0:0, 1:0:0:0:0, 5:2:1:0:2, 2:0:0:0:0, 3:0:0:0:0, 1:0:0:0:0, 7:4:1:0:4, 3:0:0:0:0, 4:0:0:0:0, 2:0:0:0:0, 4:0:0:0:0, 2:0:0:0:0, 2:0:0:0:0, 2:0:1:0:1, 2:0:0:0:0, 3:0:0:0:0, 2:0:0:0:0, 1:0:0:0:0, 4:3:3:0:4, 4:0:0:0:0, 3:0:0:0:0, 5:1:0:0:1, 3:0:0:0:0, 3:0:0:0:0, 4:0:0:0:0, 3:0:0:0:0, 4:3:0:0:3, 1:0:0:0:0, 2:2:0:0:2, 2:0:0:0:0, 4:1:1:0:2, 1:0:0:0:0, 4:0:0:0:0, 3:0:0:0:0, 2:0:0:0:0, 1:0:0:0:0, 3:0:0:0:0, 1:0:0:0:0, 0:0:0:0:0, 0:0:0:0:0, 481:68:42:5:94
Db major (5b), 6:3:0:0:11, 9:2:1:0:6, 7:2:0:0:12, 6:1:0:0:7, 6:1:0:0:8, 9:2:1:0:6, 7:2:0:0:12, 6:1:0:0:7, 3:1:0:0:4, 6:2:0:0:10, 5:3:0:0:7, 1:0:0:0:1, 4:1:0:0:6, 7:2:0:0:10, 7:1:0:0:7, 5:1:0:0:4, 6:1:0:0:8, 9:2:3:0:4, 7:2:0:0:13, 6:1:0:0:7, 4:1:0:0:6, 6:3:0:0:10, 6:6:1:0:9, 5:1:0:0:6, 5:2:0:0:6, 4:4:0:0:7, 6:5:0:0:11, 5:2:0:0:4, 4:0:0:0:8, 8:2:0:0:8, 5:1:0:0:6, 6:1:0:0:7, 6:4:0:0:9, 8:3:1:0:7, 6:1:0:0:9, 9:5:0:0:12, 8:2:0:0:8, 11:2:1:0:8, 8:1:0:0:8, 8:2:0:0:12, 4:1:0:0:5, 10:2:0:0:12, 7:4:1:0:8, 1:0:0:0:2, 8:3:0:0:10, 8:4:0:0:13, 9:1:0:0:7, 6:3:0:0:8, 6:1:0:0:8, 8:2:2:0:9, 7:3:1:0:9, 7:1:0:0:9, 7:1:0:0:6, 7:3:0:0:8, 5:3:0:0:11, 6:2:0:0:10, 7:1:0:0:9, 5:3:0:0:6, 10:5:1:0:12, 7:3:1:0:7, 4:0:0:0:3, 7:2:0:0:8, 10:1:0:0:8, 7:3:1:0:9, 6:1:0:0:7, 8:2:2:0:6, 6:1:0:0:11, 7:1:0:0:7, 6:2:0:0:8, 8:2:2:0:6, 7:2:0:0:10, 6:1:0:0:6, 4:1:0:0:7, 7:2:0:0:10, 5:1:0:0:7, 3:0:0:0:4, 6:1:0:0:6, 6:4:0:0:14, 8:5:1:0:13, 6:2:0:0:6, 6:1:0:0:7, 9:3:3:0:8, 6:1:0:0:7, 7:3:1:0:13, 5:1:0:0:8, 9:1:0:0:8, 5:3:0:0:8, 5:1:0:0:5, 7:2:0:0:6, 3:3:0:0:6, 5:2:0:0:5, 6:5:1:0:8, 6:0:0:0:5, 8:2:0:0:9, 6:1:0:0:8, 7:2:0:0:11, 5:1:0:0:7, 8:2:2:0:5, 7:3:1:0:11, 7:3:0:0:10, 6:3:0:0:11, 11:2:3:0:6, 7:4:0:0:18, 8:5:0:0:12, 4:1:0:0:7, 6:5:0:0:11, 4:1:0:0:7,  , 9:1:1:0:6, 10:7:2:0:17, 7:1:0:0:11, 7:1:0:0:6, 6:1:0:0:7, 8:2:3:0:6, 7:2:0:0:10, 11:2:0:0:11, 4:1:0:0:7, 6:3:0:0:9, 5:3:0:0:7, 6:2:0:0:9, 6:2:0:0:8, 5:2:0:0:6, 9:3:0:0:8, 6:2:1:0:8, 5:0:0:0:7, 7:3:0:0:11, 7:1:0:0:8, 6:2:0:0:11, 5:1:0:0:10, 9:2:2:0:8, 7:3:0:0:12, 8:3:0:0:8, 5:1:0:0:9, 11:2:2:0:8, 8:3:0:0:12, 8:2:0:0:9, 3:1:0:0:5, 6:2:1:0:10, 5:1:0:0:7, 5:0:0:0:5, 5:1:0:0:6, 8:7:0:0:17, 7:1:0:0:11, 8:1:0:0:5, 6:2:0:0:9, 8:2:2:0:5, 7:2:0:0:12, 8:3:0:0:11, 7:1:1:0:6, 7:1:0:0:8, 6:4:0:0:12, 7:3:0:0:14, 5:3:0:0:7, 4:1:0:0:4, 7:3:0:0:7, 5:2:0:0:6, 4:0:0:0:7, 9:4:0:0:12, 5:1:0:0:6, 7:0:0:0:10, 7:1:0:0:10, 5:0:0:0:5, 6:1:0:0:9, 8:1:0:0:10, 6:3:0:0:10, 3:0:0:0:4, 1:0:0:0:1, 1068:330:46:0:1363
B major (5#), 2:0:0:0:0, 5:2:1:0:3, 3:0:0:0:0, 3:0:0:0:0, 2:0:0:0:0, 5:2:1:0:3, 3:0:0:0:0, 3:0:0:0:0, 3:0:0:0:0, 4:0:0:0:0, 2:0:0:0:0, 0:0:0:0:0, 1:0:0:0:0, 4:0:0:0:1, 4:0:0:0:0, 3:0:0:0:0, 2:0:0:0:0, 5:2:1:0:3, 3:0:0:0:0, 3:0:0:0:0, 4:0:0:0:0, 4:0:0:0:0, 4:0:0:0:1, 4:0:0:0:0, 2:0:0:0:0, 4:1:0:0:2, 2:0:0:0:0, 2:0:2:0:2, 2:0:0:0:0, 3:0:0:0:0, 2:0:0:0:0, 3:0:0:0:0, 2:0:0:0:0, 4:2:1:0:3, 3:0:0:0:0, 5:0:0:0:1, 4:0:0:0:0, 9:2:2:0:3, 5:0:0:0:0, 5:0:0:0:0, 3:0:0:0:0, 8:1:0:0:2, 5:1:1:0:1, 1:0:0:0:1, 4:0:1:0:1, 5:4:0:2:2, 5:0:0:0:0, 4:0:0:0:0, 3:0:1:0:0, 5:2:1:0:3, 4:0:1:0:1, 5:0:0:0:1, 6:1:0:0:2, 5:0:0:0:0, 3:0:0:0:0, 4:0:0:0:0, 5:0:0:0:1, 5:2:0:0:2, 6:1:1:0:1, 3:0:0:0:0, 2:0:0:0:0, 4:0:0:0:1, 7:0:2:3:3, 4:0:1:0:1, 3:0:1:0:1, 6:2:1:0:3, 3:0:0:0:0, 4:1:0:0:1, 2:0:0:0:0, 5:2:1:0:3, 3:0:0:0:0, 3:0:0:0:0, 5:0:0:0:0, 4:0:0:0:0, 3:0:0:0:0, 1:0:0:0:0, 3:0:0:0:0, 2:0:0:0:0, 4:0:1:0:1, 5:0:0:0:1, 3:0:1:0:1, 7:2:1:0:3, 3:0:0:0:0, 4:0:1:0:1, 5:0:0:0:0, 8:1:2:0:1, 2:0:0:0:0, 4:0:0:0:0, 3:0:1:0:1, 3:1:0:0:1, 1:0:0:0:0, 3:0:1:0:0, 4:0:1:0:0, 5:0:0:0:1, 3:0:1:0:1, 4:0:0:0:0, 2:0:0:0:0, 5:2:1:0:3, 4:0:1:0:1, 4:0:0:0:0, 2:0:0:0:0, 7:4:1:0:8, 3:0:0:0:0, 4:0:0:0:0, 3:0:0:0:0, 5:0:0:0:0, 2:0:0:0:0,  , 3:0:0:2:2, 6:0:0:0:2, 4:1:0:0:1, 2:0:0:0:0, 4:0:0:0:0, 7:4:1:0:5, 3:0:0:0:0, 7:0:0:0:0, 3:0:0:0:0, 6:1:0:0:1, 3:0:0:0:0, 4:0:0:0:0, 3:0:0:0:0, 5:1:0:0:1, 4:2:0:0:2, 3:0:0:0:0, 2:0:0:0:0, 3:0:0:0:0, 4:0:0:0:0, 3:0:0:0:0, 2:0:0:0:0, 6:2:1:0:3, 3:0:0:0:0, 4:0:0:0:0, 2:0:0:0:0, 8:4:1:0:5, 4:0:0:0:0, 5:0:0:0:0, 3:0:0:0:0, 5:0:0:0:0, 3:0:0:0:0, 3:0:0:0:0, 2:0:1:0:0, 3:0:0:0:0, 4:0:0:0:0, 3:0:0:0:1, 2:0:0:0:0, 5:3:3:0:5, 3:0:0:0:0, 4:0:0:0:0, 6:1:0:0:1, 4:0:0:0:0, 4:0:0:0:0, 5:0:0:0:0, 3:0:0:0:0, 4:1:0:0:1, 2:0:0:0:0, 3:2:0:0:2, 2:0:0:0:0, 5:1:1:0:2, 2:0:0:0:0, 5:0:0:0:1, 4:0:0:0:0, 3:0:0:0:0, 2:0:0:0:0, 4:0:0:0:0, 2:0:0:0:0, 1:0:0:0:0, 1:0:0:0:0, 613:61:41:7:112
Bb minor (5b), 6:3:0:0:11, 9:2:1:0:6, 7:2:0:0:12, 6:1:0:0:7, 6:1:0:0:8, 9:2:1:0:6, 7:2:0:0:12, 6:1:0:0:7, 3:1:0:0:4, 6:2:0:0:10, 5:3:0:0:7, 1:0:0:0:1, 4:1:0:0:6, 7:2:0:0:10, 7:1:0:0:7, 5:1:0:0:4, 6:1:0:0:8, 9:2:3:0:4, 7:2:0:0:13, 6:1:0:0:7, 4:1:0:0:6, 6:3:0:0:10, 6:6:1:0:9, 5:1:0:0:6, 5:2:0:0:6, 4:4:0:0:7, 6:5:0:0:11, 5:2:0:0:4, 4:0:0:0:8, 8:2:0:0:8, 5:1:0:0:6, 6:1:0:0:7, 6:4:0:0:9, 8:3:1:0:7, 6:1:0:0:9, 9:5:0:0:12, 8:2:0:0:8, 11:2:1:0:8, 8:1:0:0:8, 8:2:0:0:12, 4:1:0:0:5, 10:2:0:0:12, 7:4:1:0:8, 1:0:0:0:2, 8:3:0:0:10, 8:4:0:0:13, 9:1:0:0:7, 6:3:0:0:8, 6:1:0:0:8, 8:2:2:0:9, 7:3:1:0:9, 7:1:0:0:9, 7:1:0:0:6, 7:3:0:0:8, 5:3:0:0:11, 6:2:0:0:10, 7:1:0:0:9, 5:3:0:0:6, 10:5:1:0:12, 7:3:1:0:7, 4:0:0:0:3, 7:2:0:0:8, 10:1:0:0:8, 7:3:1:0:9, 6:1:0:0:7, 8:2:2:0:6, 6:1:0:0:11, 7:1:0:0:7, 6:2:0:0:8, 8:2:2:0:6, 7:2:0:0:10, 6:1:0:0:6, 4:1:0:0:7, 7:2:0:0:10, 5:1:0:0:7, 3:0:0:0:4, 6:1:0:0:6, 6:4:0:0:14, 8:5:1:0:13, 6:2:0:0:6, 6:1:0:0:7, 9:3:3:0:8, 6:1:0:0:7, 7:3:1:0:13, 5:1:0:0:8, 9:1:0:0:8, 5:3:0:0:8, 5:1:0:0:5, 7:2:0:0:6, 3:3:0:0:6, 5:2:0:0:5, 6:5:1:0:8, 6:0:0:0:5, 8:2:0:0:9, 6:1:0:0:8, 7:2:0:0:11, 5:1:0:0:7, 8:2:2:0:5, 7:3:1:0:11, 7:3:0:0:10, 6:3:0:0:11, 11:2:3:0:6, 7:4:0:0:18, 8:5:0:0:12, 4:1:0:0:7, 6:5:0:0:11, 4:1:0:0:7,  , 9:1:1:0:6, 10:7:2:0:17, 7:1:0:0:11, 7:1:0:0:6, 6:1:0:0:7, 8:2:3:0:6, 7:2:0:0:10, 11:2:0:0:11, 4:1:0:0:7, 6:3:0:0:9, 5:3:0:0:7, 6:2:0:0:9, 6:2:0:0:8, 5:2:0:0:6, 9:3:0:0:8, 6:2:1:0:8, 5:0:0:0:7, 7:3:0:0:11, 7:1:0:0:8, 6:2:0:0:11, 5:1:0:0:10, 9:2:2:0:8, 7:3:0:0:12, 8:3:0:0:8, 5:1:0:0:9, 11:2:2:0:8, 8:3:0:0:12, 8:2:0:0:9, 3:1:0:0:5, 6:2:1:0:10, 5:1:0:0:7, 5:0:0:0:5, 5:1:0:0:6, 8:7:0:0:17, 7:1:0:0:11, 8:1:0:0:5, 6:2:0:0:9, 8:2:2:0:5, 7:2:0:0:12, 8:3:0:0:11, 7:1:1:0:6, 7:1:0:0:8, 6:4:0:0:12, 7:3:0:0:14, 5:3:0:0:7, 4:1:0:0:4, 7:3:0:0:7, 5:2:0:0:6, 4:0:0:0:7, 9:4:0:0:12, 5:1:0:0:6, 7:0:0:0:10, 7:1:0:0:10, 5:0:0:0:5, 6:1:0:0:9, 8:1:0:0:10, 6:3:0:0:10, 3:0:0:0:4, 1:0:0:0:1, 1068:330:46:0:1363
G# minor (5#), 2:0:0:0:0, 5:2:1:0:3, 3:0:0:0:0, 3:0:0:0:0, 2:0:0:0:0, 5:2:1:0:3, 3:0:0:0:0, 3:0:0:0:0, 3:0:0:0:0, 4:0:0:0:0, 2:0:0:0:0, 0:0:0:0:0, 1:0:0:0:0, 4:0:0:0:1, 4:0:0:0:0, 3:0:0:0:0, 2:0:0:0:0, 5:2:1:0:3, 3:0:0:0:0, 3:0:0:0:0, 4:0:0:0:0, 4:0:0:0:0, 4:0:0:0:1, 4:0:0:0:0, 2:0:0:0:0, 4:1:0:0:2, 2:0:0:0:0, 2:0:2:0:2, 2:0:0:0:0, 3:0:0:0:0, 2:0:0:0:0, 3:0:0:0:0, 2:0:0:0:0, 4:2:1:0:3, 3:0:0:0:0, 5:0:0:0:1, 4:0:0:0:0, 9:2:2:0:3, 5:0:0:0:0, 5:0:0:0:0, 3:0:0:0:0, 8:1:0:0:2, 5:1:1:0:1, 1:0:0:0:1, 4:0:1:0:1, 5:4:0:2:2, 5:0:0:0:0, 4:0:0:0:0, 3:0:1:0:0, 5:2:1:0:3, 4:0:1:0:1, 5:0:0:0:1, 6:1:0:0:2, 5:0:0:0:0, 3:0:0:0:0, 4:0:0:0:0, 5:0:0:0:1, 5:2:0:0:2, 6:1:1:0:1, 3:0:0:0:0, 2:0:0:0:0, 4:0:0:0:1, 7:0:2:3:3, 4:0:1:0:1, 3:0:1:0:1, 6:2:1:0:3, 3:0:0:0:0, 4:1:0:0:1, 2:0:0:0:0, 5:2:1:0:3, 3:0:0:0:0, 3:0:0:0:0, 5:0:0:0:0, 4:0:0:0:0, 3:0:0:0:0, 1:0:0:0:0, 3:0:0:0:0, 2:0:0:0:0, 4:0:1:0:1, 5:0:0:0:1, 3:0:1:0:1, 7:2:1:0:3, 3:0:0:0:0, 4:0:1:0:1, 5:0:0:0:0, 8:1:2:0:1, 2:0:0:0:0, 4:0:0:0:0, 3:0:1:0:1, 3:1:0:0:1, 1:0:0:0:0, 3:0:1:0:0, 4:0:1:0:0, 5:0:0:0:1, 3:0:1:0:1, 4:0:0:0:0, 2:0:0:0:0, 5:2:1:0:3, 4:0:1:0:1, 4:0:0:0:0, 2:0:0:0:0, 7:4:1:0:8, 3:0:0:0:0, 4:0:0:0:0, 3:0:0:0:0, 5:0:0:0:0, 2:0:0:0:0,  , 3:0:0:2:2, 6:0:0:0:2, 4:1:0:0:1, 2:0:0:0:0, 4:0:0:0:0, 7:4:1:0:5, 3:0:0:0:0, 7:0:0:0:0, 3:0:0:0:0, 6:1:0:0:1, 3:0:0:0:0, 4:0:0:0:0, 3:0:0:0:0, 5:1:0:0:1, 4:2:0:0:2, 3:0:0:0:0, 2:0:0:0:0, 3:0:0:0:0, 4:0:0:0:0, 3:0:0:0:0, 2:0:0:0:0, 6:2:1:0:3, 3:0:0:0:0, 4:0:0:0:0, 2:0:0:0:0, 8:4:1:0:5, 4:0:0:0:0, 5:0:0:0:0, 3:0:0:0:0, 5:0:0:0:0, 3:0:0:0:0, 3:0:0:0:0, 2:0:1:0:0, 3:0:0:0:0, 4:0:0:0:0, 3:0:0:0:1, 2:0:0:0:0, 5:3:3:0:5, 3:0:0:0:0, 4:0:0:0:0, 6:1:0:0:1, 4:0:0:0:0, 4:0:0:0:0, 5:0:0:0:0, 3:0:0:0:0, 4:1:0:0:1, 2:0:0:0:0, 3:2:0:0:2, 2:0:0:0:0, 5:1:1:0:2, 2:0:0:0:0, 5:0:0:0:1, 4:0:0:0:0, 3:0:0:0:0, 2:0:0:0:0, 4:0:0:0:0, 2:0:0:0:0, 1:0:0:0:0, 1:0:0:0:0, 613:61:41:7:112
Gb major (6b), 6:3:0:0:11, 9:2:0:0:6, 7:2:0:0:11, 6:1:0:0:9, 6:1:0:0:8, 9:2:0:0:6, 7:2:0:0:11, 6:1:0:0:9, 4:1:0:0:4, 7:2:0:0:11, 5:1:0:0:4, 0:0:0:0:0, 4:1:0:0:5, 7:2:0:0:10, 7:1:0:0:10, 5:1:0:0:4, 6:1:0:0:8, 9:2:2:0:4, 7:2:0:0:11, 6:1:0:0:9, 5:1:0:0:6, 7:3:0:0:11, 6:6:1:0:10, 6:1:0:0:7, 5:1:0:0:6, 5:4:0:0:8, 6:5:0:0:11, 6:2:0:0:4, 4:0:0:0:7, 8:2:0:0:9, 5:1:0:0:6, 6:1:0:0:9, 6:4:0:0:9, 8:3:0:0:7, 6:1:0:0:11, 9:5:0:0:15, 8:2:0:0:8, 11:2:0:0:9, 8:1:0:0:12, 8:2:0:0:15, 5:1:0:0:5, 11:2:0:0:13, 7:4:1:0:10, 1:0:0:0:2, 9:3:0:0:11, 9:4:0:0:15, 9:1:0:0:10, 6:3:0:0:9, 6:1:0:0:7, 8:2:0:0:9, 7:3:1:0:11, 7:1:0:0:11, 8:1:0:0:9, 8:3:0:0:9, 5:3:0:0:12, 7:2:0:0:11, 8:1:0:0:12, 6:3:0:0:7, 10:5:1:0:13, 7:3:1:0:7, 4:0:0:0:4, 7:2:0:0:10, 11:1:0:0:11, 7:3:1:0:11, 7:1:0:0:7, 8:2:0:0:6, 6:1:0:0:13, 7:1:0:0:9, 6:2:0:0:8, 8:2:0:0:6, 7:2:0:0:13, 6:1:0:0:8, 5:1:0:0:7, 8:2:0:0:11, 5:1:0:0:6, 2:0:0:0:3, 6:1:0:0:7, 6:4:0:0:13, 8:5:1:0:16, 6:2:0:0:7, 7:1:0:0:7, 9:3:1:0:8, 6:1:0:0:10, 7:3:1:0:16, 6:1:0:0:8, 10:1:0:0:9, 5:1:0:0:8, 6:1:0:0:7, 8:1:0:0:5, 4:3:0:0:7, 5:2:0:0:4, 6:5:1:0:8, 6:0:0:0:6, 8:2:0:0:10, 7:1:0:0:8, 7:2:0:0:12, 5:1:0:0:7, 8:2:0:0:5, 7:3:1:0:13, 7:3:0:0:14, 6:3:0:0:11, 11:2:0:0:6, 7:4:0:0:21, 8:5:0:0:15, 5:1:0:0:7, 7:5:0:0:12, 4:1:0:0:6,  , 8:1:0:0:6, 10:7:2:0:18, 7:1:0:0:13, 7:1:0:0:6, 7:1:0:0:7, 8:2:0:0:6, 7:2:0:0:11, 11:2:0:0:13, 5:1:0:0:5, 7:3:0:0:10, 5:3:0:0:8, 7:2:0:0:10, 6:2:0:0:10, 6:2:0:0:8, 9:3:0:0:10, 6:2:1:0:6, 5:0:0:0:9, 7:3:0:0:12, 8:1:0:0:8, 6:2:0:0:13, 5:1:0:0:9, 9:2:0:0:8, 7:3:0:0:15, 8:3:0:0:10, 5:1:0:0:8, 11:2:0:0:9, 8:3:0:0:12, 8:2:0:0:13, 4:1:0:0:5, 7:2:0:0:11, 5:1:0:0:8, 4:0:0:0:6, 5:1:0:0:5, 8:7:0:0:17, 7:1:0:0:16, 8:1:0:0:7, 6:2:0:0:9, 8:2:0:0:5, 7:2:0:0:14, 8:3:0:0:15, 8:1:0:0:7, 8:1:0:0:8, 7:4:0:0:13, 8:3:0:0:18, 6:3:0:0:8, 5:1:0:0:5, 7:3:0:0:6, 6:2:0:0:6, 4:0:0:0:7, 10:4:0:0:13, 5:1:0:0:6, 7:0:0:0:11, 7:1:0:0:10, 5:0:0:0:6, 6:1:0:0:7, 8:0:0:0:7, 6:3:0:0:10, 2:0:0:0:2, 1:0:0:0:1, 1108:323:16:0:1492
F# major (6#), 3:0:0:0:0, 6:2:1:0:3, 4:0:0:0:0, 4:0:0:0:0, 3:0:0:0:0, 6:2:1:0:3, 4:0:0:0:0, 4:0:0:0:0, 3:0:0:0:2, 5:0:0:0:3, 2:0:0:0:0, 0:0:0:0:0, 2:0:0:0:0, 3:0:0:0:0, 5:0:0:0:1, 4:0:0:0:0, 3:0:0:0:0, 6:2:1:0:3, 4:0:0:0:0, 4:0:0:0:0, 4:0:0:0:1, 5:0:0:0:2, 3:0:0:0:0, 5:0:0:0:2, 2:0:0:0:0, 5:1:0:0:2, 3:0:0:0:0, 2:0:2:0:0, 3:0:0:0:0, 4:0:0:0:0, 3:0:0:0:0, 4:0:0:0:0, 3:0:0:0:0, 5:2:1:0:3, 4:0:0:0:0, 6:0:0:0:1, 5:0:0:0:0, 10:2:1:0:3, 6:0:0:0:1, 6:0:0:0:0, 4:0:0:0:2, 9:1:0:0:4, 4:1:0:0:1, 1:0:0:0:0, 5:0:1:0:0, 6:4:0:2:4, 6:0:0:0:0, 5:0:0:0:0, 4:0:0:0:0, 6:2:1:0:3, 5:0:1:0:0, 6:0:0:0:1, 6:1:0:0:3, 6:0:0:0:4, 3:0:0:0:0, 5:0:0:0:2, 5:1:1:0:2, 6:2:0:0:3, 7:1:0:0:2, 4:0:0:0:0, 3:0:0:0:0, 5:0:0:0:0, 8:0:0:3:4, 5:0:1:0:0, 4:0:1:0:0, 7:2:1:0:3, 4:0:0:0:0, 5:1:0:0:1, 3:0:0:0:0, 6:2:1:0:3, 4:0:0:0:0, 4:0:0:0:0, 5:0:0:0:2, 5:0:0:0:3, 4:0:0:0:0, 2:0:0:0:0, 4:0:0:0:0, 3:0:0:0:0, 5:0:1:0:0, 6:0:0:0:0, 4:0:1:0:0, 8:2:1:0:4, 4:0:0:0:0, 5:0:1:0:0, 5:0:0:0:6, 9:1:0:0:5, 2:0:0:0:0, 5:0:0:0:2, 4:0:1:0:0, 4:1:0:0:2, 2:0:0:0:0, 2:0:0:0:0, 5:0:0:0:0, 6:0:0:0:1, 4:0:1:0:0, 5:0:0:0:1, 3:0:0:0:0, 6:2:1:0:3, 5:0:1:0:0, 5:0:0:0:0, 3:0:0:0:0, 8:4:1:0:8, 4:0:0:0:0, 5:0:0:0:0, 4:0:0:0:2, 6:0:0:0:2, 2:0:0:0:0,  , 4:0:0:2:2, 5:0:0:0:0, 5:1:0:0:1, 3:0:0:0:0, 5:0:0:0:1, 8:4:1:0:6, 4:0:0:0:0, 8:0:0:0:1, 3:0:0:0:1, 7:1:0:0:3, 3:0:0:0:0, 5:0:0:0:2, 4:0:0:0:0, 6:1:0:0:4, 5:2:0:0:3, 4:0:0:0:0, 3:0:0:0:0, 4:0:0:0:0, 5:0:0:0:1, 4:0:0:0:0, 3:0:0:0:0, 7:2:1:0:3, 4:0:0:0:0, 5:0:0:0:1, 3:0:0:0:0, 9:4:1:0:5, 5:0:0:0:1, 6:0:0:0:0, 3:0:0:0:1, 6:0:0:0:4, 3:0:0:0:0, 3:0:0:0:0, 3:0:0:0:0, 4:0:0:0:0, 5:0:0:0:0, 4:0:0:0:0, 3:0:0:0:0, 6:3:3:0:4, 4:0:0:0:0, 5:0:0:0:0, 7:1:0:0:3, 5:0:0:0:3, 5:0:0:0:1, 6:0:0:0:3, 4:0:0:0:1, 5:1:0:0:3, 3:0:0:0:1, 3:2:0:0:5, 3:0:0:0:0, 6:1:1:0:1, 3:0:0:0:0, 6:0:0:0:0, 5:0:0:0:0, 4:0:0:0:0, 3:0:0:0:0, 5:0:0:0:0, 3:0:0:0:0, 2:0:0:0:0, 1:0:0:0:0, 748:62:31:7:178
Eb minor (6b), 6:3:0:0:11, 9:2:0:0:6, 7:2:0:0:11, 6:1:0:0:9, 6:1:0:0:8, 9:2:0:0:6, 7:2:0:0:11, 6:1:0:0:9, 4:1:0:0:4, 7:2:0:0:11, 5:1:0:0:4, 0:0:0:0:0, 4:1:0:0:5, 7:2:0:0:10, 7:1:0:0:10, 5:1:0:0:4, 6:1:0:0:8, 9:2:2:0:4, 7:2:0:0:11, 6:1:0:0:9, 5:1:0:0:6, 7:3:0:0:11, 6:6:1:0:10, 6:1:0:0:7, 5:1:0:0:6, 5:4:0:0:8, 6:5:0:0:11, 6:2:0:0:4, 4:0:0:0:7, 8:2:0:0:9, 5:1:0:0:6, 6:1:0:0:9, 6:4:0:0:9, 8:3:0:0:7, 6:1:0:0:11, 9:5:0:0:15, 8:2:0:0:8, 11:2:0:0:9, 8:1:0:0:12, 8:2:0:0:15, 5:1:0:0:5, 11:2:0:0:13, 7:4:1:0:10, 1:0:0:0:2, 9:3:0:0:11, 9:4:0:0:15, 9:1:0:0:10, 6:3:0:0:9, 6:1:0:0:7, 8:2:0:0:9, 7:3:1:0:11, 7:1:0:0:11, 8:1:0:0:9, 8:3:0:0:9, 5:3:0:0:12, 7:2:0:0:11, 8:1:0:0:12, 6:3:0:0:7, 10:5:1:0:13, 7:3:1:0:7, 4:0:0:0:4, 7:2:0:0:10, 11:1:0:0:11, 7:3:1:0:11, 7:1:0:0:7, 8:2:0:0:6, 6:1:0:0:13, 7:1:0:0:9, 6:2:0:0:8, 8:2:0:0:6, 7:2:0:0:13, 6:1:0:0:8, 5:1:0:0:7, 8:2:0:0:11, 5:1:0:0:6, 2:0:0:0:3, 6:1:0:0:7, 6:4:0:0:13, 8:5:1:0:16, 6:2:0:0:7, 7:1:0:0:7, 9:3:1:0:8, 6:1:0:0:10, 7:3:1:0:16, 6:1:0:0:8, 10:1:0:0:9, 5:1:0:0:8, 6:1:0:0:7, 8:1:0:0:5, 4:3:0:0:7, 5:2:0:0:4, 6:5:1:0:8, 6:0:0:0:6, 8:2:0:0:10, 7:1:0:0:8, 7:2:0:0:12, 5:1:0:0:7, 8:2:0:0:5, 7:3:1:0:13, 7:3:0:0:14, 6:3:0:0:11, 11:2:0:0:6, 7:4:0:0:21, 8:5:0:0:15, 5:1:0:0:7, 7:5:0:0:12, 4:1:0:0:6,  , 8:1:0:0:6, 10:7:2:0:18, 7:1:0:0:13, 7:1:0:0:6, 7:1:0:0:7, 8:2:0:0:6, 7:2:0:0:11, 11:2:0:0:13, 5:1:0:0:5, 7:3:0:0:10, 5:3:0:0:8, 7:2:0:0:10, 6:2:0:0:10, 6:2:0:0:8, 9:3:0:0:10, 6:2:1:0:6, 5:0:0:0:9, 7:3:0:0:12, 8:1:0:0:8, 6:2:0:0:13, 5:1:0:0:9, 9:2:0:0:8, 7:3:0:0:15, 8:3:0:0:10, 5:1:0:0:8, 11:2:0:0:9, 8:3:0:0:12, 8:2:0:0:13, 4:1:0:0:5, 7:2:0:0:11, 5:1:0:0:8, 4:0:0:0:6, 5:1:0:0:5, 8:7:0:0:17, 7:1:0:0:16, 8:1:0:0:7, 6:2:0:0:9, 8:2:0:0:5, 7:2:0:0:14, 8:3:0:0:15, 8:1:0:0:7, 8:1:0:0:8, 7:4:0:0:13, 8:3:0:0:18, 6:3:0:0:8, 5:1:0:0:5, 7:3:0:0:6, 6:2:0:0:6, 4:0:0:0:7, 10:4:0:0:13, 5:1:0:0:6, 7:0:0:0:11, 7:1:0:0:10, 5:0:0:0:6, 6:1:0:0:7, 8:0:0:0:7, 6:3:0:0:10, 2:0:0:0:2, 1:0:0:0:1, 1108:323:16:0:1492
D# minor (6#), 3:0:0:0:0, 6:2:1:0:3, 4:0:0:0:0, 4:0:0:0:0, 3:0:0:0:0, 6:2:1:0:3, 4:0:0:0:0, 4:0:0:0:0, 3:0:0:0:2, 5:0:0:0:3, 2:0:0:0:0, 0:0:0:0:0, 2:0:0:0:0, 3:0:0:0:0, 5:0:0:0:1, 4:0:0:0:0, 3:0:0:0:0, 6:2:1:0:3, 4:0:0:0:0, 4:0:0:0:0, 4:0:0:0:1, 5:0:0:0:2, 3:0:0:0:0, 5:0:0:0:2, 2:0:0:0:0, 5:1:0:0:2, 3:0:0:0:0, 2:0:2:0:0, 3:0:0:0:0, 4:0:0:0:0, 3:0:0:0:0, 4:0:0:0:0, 3:0:0:0:0, 5:2:1:0:3, 4:0:0:0:0, 6:0:0:0:1, 5:0:0:0:0, 10:2:1:0:3, 6:0:0:0:1, 6:0:0:0:0, 4:0:0:0:2, 9:1:0:0:4, 4:1:0:0:1, 1:0:0:0:0, 5:0:1:0:0, 6:4:0:2:4, 6:0:0:0:0, 5:0:0:0:0, 4:0:0:0:0, 6:2:1:0:3, 5:0:1:0:0, 6:0:0:0:1, 6:1:0:0:3, 6:0:0:0:4, 3:0:0:0:0, 5:0:0:0:2, 5:1:1:0:2, 6:2:0:0:3, 7:1:0:0:2, 4:0:0:0:0, 3:0:0:0:0, 5:0:0:0:0, 8:0:0:3:4, 5:0:1:0:0, 4:0:1:0:0, 7:2:1:0:3, 4:0:0:0:0, 5:1:0:0:1, 3:0:0:0:0, 6:2:1:0:3, 4:0:0:0:0, 4:0:0:0:0, 5:0:0:0:2, 5:0:0:0:3, 4:0:0:0:0, 2:0:0:0:0, 4:0:0:0:0, 3:0:0:0:0, 5:0:1:0:0, 6:0:0:0:0, 4:0:1:0:0, 8:2:1:0:4, 4:0:0:0:0, 5:0:1:0:0, 5:0:0:0:6, 9:1:0:0:5, 2:0:0:0:0, 5:0:0:0:2, 4:0:1:0:0, 4:1:0:0:2, 2:0:0:0:0, 2:0:0:0:0, 5:0:0:0:0, 6:0:0:0:1, 4:0:1:0:0, 5:0:0:0:1, 3:0:0:0:0, 6:2:1:0:3, 5:0:1:0:0, 5:0:0:0:0, 3:0:0:0:0, 8:4:1:0:8, 4:0:0:0:0, 5:0:0:0:0, 4:0:0:0:2, 6:0:0:0:2, 2:0:0:0:0,  , 4:0:0:2:2, 5:0:0:0:0, 5:1:0:0:1, 3:0:0:0:0, 5:0:0:0:1, 8:4:1:0:6, 4:0:0:0:0, 8:0:0:0:1, 3:0:0:0:1, 7:1:0:0:3, 3:0:0:0:0, 5:0:0:0:2, 4:0:0:0:0, 6:1:0:0:4, 5:2:0:0:3, 4:0:0:0:0, 3:0:0:0:0, 4:0:0:0:0, 5:0:0:0:1, 4:0:0:0:0, 3:0:0:0:0, 7:2:1:0:3, 4:0:0:0:0, 5:0:0:0:1, 3:0:0:0:0, 9:4:1:0:5, 5:0:0:0:1, 6:0:0:0:0, 3:0:0:0:1, 6:0:0:0:4, 3:0:0:0:0, 3:0:0:0:0, 3:0:0:0:0, 4:0:0:0:0, 5:0:0:0:0, 4:0:0:0:0, 3:0:0:0:0, 6:3:3:0:4, 4:0:0:0:0, 5:0:0:0:0, 7:1:0:0:3, 5:0:0:0:3, 5:0:0:0:1, 6:0:0:0:3, 4:0:0:0:1, 5:1:0:0:3, 3:0:0:0:1, 3:2:0:0:5, 3:0:0:0:0, 6:1:1:0:1, 3:0:0:0:0, 6:0:0:0:0, 5:0:0:0:0, 4:0:0:0:0, 3:0:0:0:0, 5:0:0:0:0, 3:0:0:0:0, 2:0:0:0:0, 1:0:0:0:0, 748:62:31:7:178
Cb major (7b), 6:3:0:0:11, 9:2:0:0:4, 7:2:0:0:11, 6:1:0:0:9, 6:1:0:0:8, 9:2:0:0:4, 7:2:0:0:11, 6:1:0:0:9, 4:1:0:0:6, 7:2:0:0:12, 5:1:0:0:4, 0:0:0:0:0, 4:1:0:0:5, 7:2:0:0:10, 7:1:0:0:10, 5:1:0:0:4, 6:1:0:0:8, 9:2:0:0:4, 7:2:0:0:11, 6:1:0:0:9, 5:1:0:0:7, 7:1:0:0:9, 6:6:1:0:9, 6:1:0:0:8, 5:1:0:0:6, 5:4:0:0:9, 6:5:0:0:11, 6:2:0:0:6, 4:0:0:0:7, 8:2:0:0:8, 5:1:0:0:6, 6:1:0:0:9, 6:4:0:0:9, 8:3:0:0:7, 6:1:0:0:11, 9:5:0:0:15, 8:2:0:0:8, 11:2:0:0:9, 8:1:0:0:12, 8:2:0:0:13, 5:1:0:0:6, 11:2:0:0:15, 7:4:1:0:10, 1:1:1:0:1, 9:3:0:0:12, 9:4:0:0:17, 9:1:0:0:10, 6:2:0:0:7, 6:1:0:0:7, 8:2:0:0:9, 7:3:1:0:11, 8:1:0:0:12, 8:1:0:0:10, 8:3:0:0:13, 5:3:0:0:12, 7:2:0:0:12, 8:1:0:0:12, 6:3:0:0:8, 10:5:1:0:14, 7:3:0:0:7, 4:0:0:0:4, 8:2:0:0:10, 11:1:0:0:12, 7:3:1:0:11, 7:1:0:0:8, 8:2:0:0:6, 6:1:0:0:13, 7:1:0:0:9, 6:2:0:0:8, 8:2:0:0:6, 7:2:0:0:13, 6:1:0:0:8, 5:1:0:0:9, 8:1:0:0:12, 5:1:0:0:5, 1:0:0:0:2, 6:1:0:0:5, 6:4:0:0:13, 8:5:1:0:15, 7:2:0:0:7, 7:1:0:0:8, 9:3:1:0:8, 6:1:0:0:9, 7:3:1:0:13, 6:1:0:0:14, 9:1:0:0:12, 5:1:0:0:8, 6:1:0:0:9, 8:1:0:0:5, 4:3:0:0:8, 5:2:0:0:4, 6:5:1:0:8, 7:0:0:0:5, 9:2:0:0:10, 7:1:0:0:9, 7:2:0:0:12, 5:1:0:0:7, 8:2:0:0:5, 7:3:1:0:13, 7:3:0:0:13, 6:3:0:0:11, 11:2:0:0:6, 7:4:0:0:18, 8:5:0:0:15, 5:1:0:0:7, 7:5:0:0:14, 4:1:0:0:6,  , 8:1:0:0:6, 10:7:2:0:18, 7:1:0:0:12, 7:1:0:0:5, 7:1:0:0:8, 8:2:0:0:7, 7:2:0:0:10, 11:2:0:0:14, 5:1:0:0:6, 7:3:0:0:12, 5:3:0:0:8, 7:2:0:0:12, 6:2:0:0:9, 6:2:0:0:11, 9:3:0:0:11, 6:2:0:0:6, 5:0:0:0:8, 7:3:0:0:12, 8:1:0:0:9, 6:2:0:0:13, 5:1:0:0:9, 9:2:0:0:8, 7:3:0:0:15, 8:3:0:0:11, 5:1:0:0:8, 11:2:0:0:9, 8:3:0:0:13, 8:2:0:0:12, 4:1:0:0:6, 7:2:0:0:15, 5:1:0:0:8, 4:0:0:0:6, 6:1:0:0:5, 8:7:0:0:17, 7:1:0:0:16, 8:2:0:0:8, 6:2:0:0:9, 8:2:0:0:6, 7:2:0:0:14, 8:3:0:0:14, 8:1:0:0:8, 8:1:0:0:11, 7:4:0:0:14, 8:3:0:0:21, 6:3:0:0:8, 5:1:0:0:7, 7:3:0:0:7, 6:2:0:0:9, 4:0:0:0:6, 10:4:0:0:13, 5:1:0:0:6, 8:0:0:0:11, 7:1:0:0:9, 5:0:0:0:6, 6:1:0:0:7, 8:0:0:0:6, 6:3:0:0:9, 1:0:0:0:1, 1:0:0:0:1, 1112:321:13:0:1533
C# major (7#), 4:0:0:0:0, 6:2:1:0:3, 5:0:0:0:2, 5:0:0:0:2, 4:0:0:0:0, 6:2:1:0:3, 5:0:0:0:2, 5:0:0:0:2, 3:0:0:0:1, 5:0:0:0:3, 3:0:0:0:1, 1:0:0:0:0, 3:0:0:0:0, 4:0:0:0:0, 5:0:0:0:3, 5:0:0:0:1, 4:0:0:0:0, 6:2:1:0:3, 5:0:0:0:2, 5:0:0:0:2, 4:0:0:0:1, 5:0:0:0:3, 4:0:0:0:1, 5:0:0:0:3, 3:0:0:0:2, 5:1:0:0:3, 3:0:0:0:0, 3:0:0:0:0, 4:0:0:0:2, 5:0:0:0:1, 4:0:0:0:0, 5:0:0:0:2, 4:0:0:0:0, 5:2:1:0:3, 5:0:0:0:2, 7:0:0:0:4, 6:0:0:0:1, 10:2:1:0:4, 7:0:0:0:4, 7:0:0:0:3, 4:0:0:0:1, 10:1:0:0:6, 5:1:0:0:3, 1:0:0:0:0, 6:0:0:0:2, 7:4:0:2:4, 7:0:0:0:3, 5:0:0:0:1, 5:0:0:0:0, 6:3:2:0:4, 6:0:0:0:2, 7:0:0:0:2, 6:1:0:0:5, 6:0:0:0:3, 4:0:0:0:3, 6:0:0:0:3, 6:1:1:0:5, 6:2:0:0:4, 8:1:0:0:2, 5:0:0:0:0, 4:0:0:0:1, 6:0:0:0:2, 9:0:0:3:0, 6:0:0:0:2, 5:0:0:0:0, 7:4:2:0:5, 5:0:0:0:3, 6:1:0:0:3, 4:0:0:0:0, 6:3:2:0:4, 5:0:0:0:3, 5:0:0:0:2, 5:1:0:0:3, 6:0:0:0:3, 5:0:0:0:1, 3:0:0:0:0, 5:0:0:0:1, 4:0:0:0:0, 6:0:0:0:3, 6:0:0:0:1, 5:0:0:0:0, 7:4:2:0:5, 5:0:0:0:3, 6:0:0:0:4, 4:0:0:0:1, 9:1:0:0:4, 3:0:0:0:5, 5:0:0:0:4, 5:0:0:0:1, 4:1:0:0:3, 3:0:0:0:0, 3:0:0:0:1, 6:0:0:0:1, 7:0:0:0:2, 5:0:0:0:0, 6:0:0:0:2, 4:0:0:0:0, 6:3:2:0:4, 6:0:0:0:3, 6:0:0:0:4, 4:0:0:0:0, 8:6:3:0:10, 5:0:0:0:3, 6:0:0:0:3, 4:0:0:0:1, 6:0:0:0:3, 3:0:0:0:2,  , 5:0:0:2:2, 6:0:0:0:1, 6:1:0:0:3, 4:0:0:0:1, 6:0:0:0:0, 7:5:3:0:6, 5:0:0:0:2, 9:0:0:0:3, 4:0:0:0:1, 7:1:0:0:4, 4:0:0:0:1, 6:0:0:0:4, 5:0:0:0:2, 6:1:0:0:6, 5:3:1:0:6, 5:0:0:0:0, 4:0:0:0:3, 5:0:0:0:1, 6:0:0:0:0, 5:0:0:0:3, 4:0:0:0:0, 7:3:2:0:4, 5:0:0:0:4, 6:0:0:0:2, 4:0:0:0:0, 9:5:2:0:7, 6:0:0:0:2, 7:0:0:0:4, 3:0:0:0:1, 7:0:0:0:3, 4:0:0:0:1, 4:0:0:0:2, 4:0:0:0:0, 5:0:0:0:0, 6:0:0:0:5, 5:0:0:0:3, 4:0:0:0:0, 5:3:2:0:4, 5:0:0:0:4, 6:0:0:0:4, 8:1:0:0:3, 6:0:0:0:4, 6:0:0:0:2, 7:0:0:0:7, 5:0:0:0:1, 5:1:0:0:4, 3:1:1:0:1, 4:2:0:0:5, 4:0:0:0:3, 7:1:0:0:2, 4:0:0:0:0, 7:0:0:0:1, 6:0:0:0:0, 5:0:0:0:1, 4:0:0:0:0, 6:0:0:0:1, 4:0:0:0:0, 3:0:0:0:0, 1:0:0:0:0, 866:77:30:7:362
Ab minor (7b), 6:3:0:0:11, 9:2:0:0:4, 7:2:0:0:11, 6:1:0:0:9, 6:1:0:0:8, 9:2:0:0:4, 7:2:0:0:11, 6:1:0:0:9, 4:1:0:0:6, 7:2:0:0:12, 5:1:0:0:4, 0:0:0:0:0, 4:1:0:0:5, 7:2:0:0:10, 7:1:0:0:10, 5:1:0:0:4, 6:1:0:0:8, 9:2:0:0:4, 7:2:0:0:11, 6:1:0:0:9, 5:1:0:0:7, 7:1:0:0:9, 6:6:1:0:9, 6:1:0:0:8, 5:1:0:0:6, 5:4:0:0:9, 6:5:0:0:11, 6:2:0:0:6, 4:0:0:0:7, 8:2:0:0:8, 5:1:0:0:6, 6:1:0:0:9, 6:4:0:0:9, 8:3:0:0:7, 6:1:0:0:11, 9:5:0:0:15, 8:2:0:0:8, 11:2:0:0:9, 8:1:0:0:12, 8:2:0:0:13, 5:1:0:0:6, 11:2:0:0:15, 7:4:1:0:10, 1:1:1:0:1, 9:3:0:0:12, 9:4:0:0:17, 9:1:0:0:10, 6:2:0:0:7, 6:1:0:0:7, 8:2:0:0:9, 7:3:1:0:11, 8:1:0:0:12, 8:1:0:0:10, 8:3:0:0:13, 5:3:0:0:12, 7:2:0:0:12, 8:1:0:0:12, 6:3:0:0:8, 10:5:1:0:14, 7:3:0:0:7, 4:0:0:0:4, 8:2:0:0:10, 11:1:0:0:12, 7:3:1:0:11, 7:1:0:0:8, 8:2:0:0:6, 6:1:0:0:13, 7:1:0:0:9, 6:2:0:0:8, 8:2:0:0:6, 7:2:0:0:13, 6:1:0:0:8, 5:1:0:0:9, 8:1:0:0:12, 5:1:0:0:5, 1:0:0:0:2, 6:1:0:0:5, 6:4:0:0:13, 8:5:1:0:15, 7:2:0:0:7, 7:1:0:0:8, 9:3:1:0:8, 6:1:0:0:9, 7:3:1:0:13, 6:1:0:0:14, 9:1:0:0:12, 5:1:0:0:8, 6:1:0:0:9, 8:1:0:0:5, 4:3:0:0:8, 5:2:0:0:4, 6:5:1:0:8, 7:0:0:0:5, 9:2:0:0:10, 7:1:0:0:9, 7:2:0:0:12, 5:1:0:0:7, 8:2:0:0:5, 7:3:1:0:13, 7:3:0:0:13, 6:3:0:0:11, 11:2:0:0:6, 7:4:0:0:18, 8:5:0:0:15, 5:1:0:0:7, 7:5:0:0:14, 4:1:0:0:6,  , 8:1:0:0:6, 10:7:2:0:18, 7:1:0:0:12, 7:1:0:0:5, 7:1:0:0:8, 8:2:0:0:7, 7:2:0:0:10, 11:2:0:0:14, 5:1:0:0:6, 7:3:0:0:12, 5:3:0:0:8, 7:2:0:0:12, 6:2:0:0:9, 6:2:0:0:11, 9:3:0:0:11, 6:2:0:0:6, 5:0:0:0:8, 7:3:0:0:12, 8:1:0:0:9, 6:2:0:0:13, 5:1:0:0:9, 9:2:0:0:8, 7:3:0:0:15, 8:3:0:0:11, 5:1:0:0:8, 11:2:0:0:9, 8:3:0:0:13, 8:2:0:0:12, 4:1:0:0:6, 7:2:0:0:15, 5:1:0:0:8, 4:0:0:0:6, 6:1:0:0:5, 8:7:0:0:17, 7:1:0:0:16, 8:2:0:0:8, 6:2:0:0:9, 8:2:0:0:6, 7:2:0:0:14, 8:3:0:0:14, 8:1:0:0:8, 8:1:0:0:11, 7:4:0:0:14, 8:3:0:0:21, 6:3:0:0:8, 5:1:0:0:7, 7:3:0:0:7, 6:2:0:0:9, 4:0:0:0:6, 10:4:0:0:13, 5:1:0:0:6, 8:0:0:0:11, 7:1:0:0:9, 5:0:0:0:6, 6:1:0:0:7, 8:0:0:0:6, 6:3:0:0:9, 1:0:0:0:1, 1:0:0:0:1, 1112:321:13:0:1533
A# minor (7#), 4:0:0:0:0, 6:2:1:0:3, 5:0:0:0:2, 5:0:0:0:2, 4:0:0:0:0, 6:2:1:0:3, 5:0:0:0:2, 5:0:0:0:2, 3:0:0:0:1, 5:0:0:0:3, 3:0:0:0:1, 1:0:0:0:0, 3:0:0:0:0, 4:0:0:0:0, 5:0:0:0:3, 5:0:0:0:1, 4:0:0:0:0, 6:2:1:0:3, 5:0:0:0:2, 5:0:0:0:2, 4:0:0:0:1, 5:0:0:0:3, 4:0:0:0:1, 5:0:0:0:3, 3:0:0:0:2, 5:1:0:0:3, 3:0:0:0:0, 3:0:0:0:0, 4:0:0:0:2, 5:0:0:0:1, 4:0:0:0:0, 5:0:0:0:2, 4:0:0:0:0, 5:2:1:0:3, 5:0:0:0:2, 7:0:0:0:4, 6:0:0:0:1, 10:2:1:0:4, 7:0:0:0:4, 7:0:0:0:3, 4:0:0:0:1, 10:1:0:0:6, 5:1:0:0:3, 1:0:0:0:0, 6:0:0:0:2, 7:4:0:2:4, 7:0:0:0:3, 5:0:0:0:1, 5:0:0:0:0, 6:3:2:0:4, 6:0:0:0:2, 7:0:0:0:2, 6:1:0:0:5, 6:0:0:0:3, 4:0:0:0:3, 6:0:0:0:3, 6:1:1:0:5, 6:2:0:0:4, 8:1:0:0:2, 5:0:0:0:0, 4:0:0:0:1, 6:0:0:0:2, 9:0:0:3:0, 6:0:0:0:2, 5:0:0:0:0, 7:4:2:0:5, 5:0:0:0:3, 6:1:0:0:3, 4:0:0:0:0, 6:3:2:0:4, 5:0:0:0:3, 5:0:0:0:2, 5:1:0:0:3, 6:0:0:0:3, 5:0:0:0:1, 3:0:0:0:0, 5:0:0:0:1, 4:0:0:0:0, 6:0:0:0:3, 6:0:0:0:1, 5:0:0:0:0, 7:4:2:0:5, 5:0:0:0:3, 6:0:0:0:4, 4:0:0:0:1, 9:1:0:0:4, 3:0:0:0:5, 5:0:0:0:4, 5:0:0:0:1, 4:1:0:0:3, 3:0:0:0:0, 3:0:0:0:1, 6:0:0:0:1, 7:0:0:0:2, 5:0:0:0:0, 6:0:0:0:2, 4:0:0:0:0, 6:3:2:0:4, 6:0:0:0:3, 6:0:0:0:4, 4:0:0:0:0, 8:6:3:0:10, 5:0:0:0:3, 6:0:0:0:3, 4:0:0:0:1, 6:0:0:0:3, 3:0:0:0:2,  , 5:0:0:2:2, 6:0:0:0:1, 6:1:0:0:3, 4:0:0:0:1, 6:0:0:0:0, 7:5:3:0:6, 5:0:0:0:2, 9:0:0:0:3, 4:0:0:0:1, 7:1:0:0:4, 4:0:0:0:1, 6:0:0:0:4, 5:0:0:0:2, 6:1:0:0:6, 5:3:1:0:6, 5:0:0:0:0, 4:0:0:0:3, 5:0:0:0:1, 6:0:0:0:0, 5:0:0:0:3, 4:0:0:0:0, 7:3:2:0:4, 5:0:0:0:4, 6:0:0:0:2, 4:0:0:0:0, 9:5:2:0:7, 6:0:0:0:2, 7:0:0:0:4, 3:0:0:0:1, 7:0:0:0:3, 4:0:0:0:1, 4:0:0:0:2, 4:0:0:0:0, 5:0:0:0:0, 6:0:0:0:5, 5:0:0:0:3, 4:0:0:0:0, 5:3:2:0:4, 5:0:0:0:4, 6:0:0:0:4, 8:1:0:0:3, 6:0:0:0:4, 6:0:0:0:2, 7:0:0:0:7, 5:0:0:0:1, 5:1:0:0:4, 3:1:1:0:1, 4:2:0:0:5, 4:0:0:0:3, 7:1:0:0:2, 4:0:0:0:0, 7:0:0:0:1, 6:0:0:0:0, 5:0:0:0:1, 4:0:0:0:0, 6:0:0:0:1, 4:0:0:0:0, 3:0:0:0:0, 1:0:0:0:0, 866:77:30:7:362
