 , 0, 1, 2, 3, 4, 5, 6, 7, 8, 9, 10, 11, 12, 13, 14, 15, 16, 17, 18, 19, 20, 21, 22, 23, 24, 25, 26, 27, 28, 29, 30, 31, 32, 33, 34, 35, 36, 37, 38, 39, 40, 41, 42, 43, 44, 45, 46, 47, 48, 49, 50, 51, 52, 53, 54, 55, 56, 57, 58, 59, 60, 61, 62, 63, 64, 65, 66, 67, 68, 69, 70, 71, 72, 73, 74, 75, 76, 77, 78, 79, 80, 81, 82, 83, 84, 85, 86, 87, 88, 89, 90, 91, 92, 93, 94, 95, 96, 97, 98, 99, 100, 101, 102, 103, 104, 105, 106, 107, 108, 109, 110, 111, 112, 113, 114, 115, 116, 117, 118, 119, 120, 121, 122, 123, 124, 125, 126, 127, 128, 129, 130, 131, 132, 133, 134, 135, 136, 137, 138, 139, 140, 141, 142, 143, 144, 145, 146, 147, 148, 149, 150, 151, 152, 153, 154, 155, 156, 157, 158, 159, 160, 161, 162, 163, 164, 165, 166, 167, 168, 169, 170, 171, 172, 173, rowcost
C major (0), 2+1:0:0:0:0, 1+1:0:0:0:0, 0+0:0:0:0:0, 1+1:0:0:0:0, 0+0:0:0:0:0, 2+1:0:0:0:0, 0+0:0:0:0:0, 1+1:0:0:0:0, 1+1:0:0:0:0, 2+1:0:0:0:0, 1+1:0:0:0:0, 2+1:0:0:0:0, 1+0:0:0:0:0, 1+2:0:0:0:0, 0+0:0:0:0:0, 2+1:0:0:0:0, 1+1:0:0:0:1, 2+1:0:0:0:0, 0+0:0:0:0:0, 0+0:0:0:0:0, 0+0:0:0:0:0, 0+0:0:0:0:0, 1+1:0:0:0:0, 0+0:0:0:0:0, 0+0:0:0:0:0, 1+1:0:0:0:0, 1+0:0:0:0:0, 0+0:0:0:0:0, 1+1:0:0:0:1, 2+1:0:0:0:0, 2+1:0:0:0:0, 1+0:0:0:0:0, 0+0:0:0:0:0, 0+0:0:0:0:0, 1+1:0:0:0:0, 0+0:0:0:0:0, 1+1:0:0:0:1, 1+1:0:0:0:0, 2+1:0:0:0:0, 1+1:0:0:0:1, 1+1:0:0:0:0, 1+1:0:0:0:0, 2+1:0:0:0:0, 1+1:0:0:0:0, 1+1:0:0:0:0, 0+0:0:0:0:0, 1+1:0:0:0:0, 1+1:0:0:0:0, 2+1:0:0:0:0, 2+1:0:0:0:0, 2+1:0:0:0:0, 1+1:0:0:0:1, 1+1:0:0:0:1, 1+1:0:0:0:0, 2+1:0:0:0:0, 1+2:0:0:0:0, 1+2:0:0:0:2, 0+0:0:0:0:0, 1+1:0:0:0:0, 2+1:0:0:0:0, 2+1:0:0:0:0, 1+1:0:0:0:0, 1+1:0:0:0:0, 0+0:0:0:0:0, 1+1:0:0:0:1, 2+1:0:0:0:0, 2+1:0:0:0:0, 1+1:0:0:0:0, 2+1:0:0:0:0, 0+0:0:0:0:0, 2+1:0:0:0:0, 0+0:0:0:0:0, 1+1:0:0:0:1, 0+0:0:0:0:0, 1+1:0:0:0:0, 0+0:0:0:0:0, 0+0:0:0:0:0, 2+1:0:0:0:0, 0+0:0:0:0:0, 2+1:0:0:0:0, 0+0:0:0:0:0, 2+1:0:0:0:0, 2+1:0:0:0:0, 0+0:0:0:0:0, 0+0:0:0:0:0, 0+0:0:0:0:0, 1+0:0:0:0:0, 1+1:0:0:0:1, 1+1:0:0:0:0, 0+0:0:0:0:0, 1+1:0:0:0:0, 3+1:0:0:0:0, 0+0:0:0:0:0, 2+1:0:0:0:0, 1+1:0:0:0:0, 2+1:0:0:0:0, 0+0:0:0:0:0, 1+1:0:0:0:0, 1+1:0:0:0:1, 1+0:0:0:0:0, 1+1:0:0:0:1, 2+1:0:0:0:0, 1+1:0:0:0:0, 1+1:0:0:0:0, 1+1:0:0:0:0, 2+1:0:0:0:0, 1+1:0:0:0:0, 0+0:0:0:0:0, 0+0:0:0:0:0, 1+1:0:0:0:0, 1+1:0:0:0:1, 1+0:0:0:0:0, 1+1:0:0:0:1, 2+1:0:0:0:0, 1+1:0:0:0:0, 1+1:0:0:0:0, 1+1:0:0:0:0, 2+1:0:0:0:0, 1+1:0:0:0:0, 0+0:0:0:0:0, 1+0:0:0:0:0, 2+1:0:0:0:0, 0+0:0:0:0:0, 2+2:0:0:0:0, 2+1:0:0:0:0, 2+1:0:0:0:0, 2+1:0:0:0:0, 0+0:0:0:0:0, 0+0:0:0:0:0, 0+0:0:0:0:0, 1+1:0:0:0:0, 0+0:0:0:0:0, 1+1:0:0:0:1, 2+1:0:0:0:0, 0+0:0:0:0:0, 1+0:0:0:0:0, 1+1:0:0:0:1, 2+1:0:0:0:0, 2+1:0:0:0:0, 1+0:0:0:0:0, 0+0:0:0:0:0, 2+1:0:0:0:0, 2+2:0:0:0:0, 2+1:0:0:0:0, 0+0:0:0:0:0, 2+1:0:0:0:0, 0+0:0:0:0:0, 1+0:0:0:0:0, 0+0:0:0:0:0, 1+1:0:0:0:0, 1+0:0:0:0:0, 1+1:0:0:0:0, 1+1:0:0:0:0, 2+1:0:0:0:0, 1+1:0:0:0:0, 2+1:0:0:0:0, 2+1:0:0:0:0, 0+0:0:0:0:0, 2+1:0:0:0:0, 1+1:0:0:0:1, 0+0:0:0:0:0, 2+1:0:0:0:0, 0+0:0:0:0:0, 1+1:0:0:0:0, 1+1:0:0:0:0, 0+0:0:0:0:0, 1+1:0:0:0:0, 0+0:0:0:0:0, 0+0:0:0:0:0, 0+0:0:0:0:0, 0+0:0:0:0:0, 0+0:0:0:0:0, 0+0:0:0:0:0, 0+0:0:0:0:0, 169+114:0:0:0:18
A minor (0), 2+3:0:0:0:0, 1+1:0:0:0:0, 0+2:0:0:0:0, 1+1:0:0:0:0, 0+1:0:0:0:0, 2+1:0:0:0:0, 0+1:0:0:0:0, 1+2:0:0:0:0, 1+1:0:0:0:0, 2+1:0:0:0:0, 1+3:0:0:0:1, 2+2:0:0:0:0, 1+2:0:0:0:0, 1+0:0:0:0:0, 0+1:0:0:0:0, 2+3:0:0:0:1, 1+1:0:0:0:0, 2+1:0:0:0:0, 0+0:0:0:0:0, 0+1:0:0:0:0, 0+0:0:0:0:0, 0+3:0:0:0:0, 1+0:0:0:0:0, 0+2:0:0:0:0, 0+3:0:0:0:0, 1+1:0:0:0:1, 1+0:0:0:0:0, 0+1:0:0:0:0, 1+1:0:0:0:0, 2+1:0:0:0:0, 2+3:0:0:0:0, 1+2:0:0:0:0, 0+1:0:0:0:0, 0+2:0:0:0:0, 1+1:0:0:0:0, 0+2:0:0:0:0, 1+1:0:0:0:0, 1+2:0:0:0:0, 2+2:0:0:0:0, 1+2:0:0:0:0, 1+1:0:0:0:0, 1+1:0:0:0:0, 2+2:0:0:0:0, 1+1:0:0:0:0, 1+1:0:0:0:0, 0+3:0:0:0:0, 1+1:0:0:0:0, 1+2:0:0:0:0, 2+3:0:0:0:0, 2+3:0:0:0:0, 2+3:0:0:0:0, 1+2:0:0:0:0, 1+1:0:0:0:0, 1+1:0:0:0:0, 2+3:0:0:0:0, 1+3:0:0:0:0, 1+2:0:0:0:0, 0+2:0:0:0:0, 1+1:0:0:0:0, 2+2:0:0:0:0, 2+3:0:0:0:0, 1+1:0:0:0:0, 1+1:0:0:0:0, 0+1:0:0:0:0, 1+1:0:0:0:0, 2+1:0:0:0:0, 2+3:0:0:0:0, 1+1:0:0:0:1, 3+1:0:0:0:0, 0+3:0:0:0:0, 2+3:0:0:0:0, 0+2:0:0:0:0, 1+2:0:0:0:0, 0+1:0:0:0:0, 1+1:0:0:0:0, 0+1:0:0:0:0, 0+0:0:0:0:0, 2+1:0:0:0:0, 0+2:0:0:0:0, 2+2:0:0:0:0, 0+0:0:0:0:0, 2+1:0:0:0:0, 2+4:0:0:0:1, 0+2:0:0:0:0, 0+1:0:0:0:0, 0+0:0:0:0:0, 1+1:0:0:0:0, 1+1:0:0:0:0, 1+1:0:0:0:0, 0+1:0:0:0:0, 1+1:0:0:0:0, 3+1:0:0:0:0, 0+0:0:0:0:0, 1+3:0:0:0:1, 1+0:0:0:0:0, 2+2:0:0:0:0, 0+2:0:0:0:0, 1+1:0:0:0:0, 1+2:0:0:0:1, 1+0:0:0:0:0, 1+1:0:0:0:0, 2+1:0:0:0:0, 1+3:0:0:0:1, 1+1:0:0:0:0, 1+1:0:0:0:0, 2+1:0:0:0:0, 1+1:0:0:0:0, 0+1:0:0:0:0, 0+2:0:0:0:0, 1+1:0:0:0:0, 1+2:0:0:0:1, 1+0:0:0:0:0, 1+1:0:0:0:0, 2+1:0:0:0:0, 1+3:0:0:0:1, 1+1:0:0:0:0, 1+1:0:0:0:0, 2+1:0:0:0:0, 1+1:0:0:0:0, 0+1:0:0:0:0, 1+3:0:0:0:0, 2+2:0:0:0:0, 0+3:0:0:0:0, 2+2:0:0:0:0, 2+3:0:0:0:0, 2+1:0:0:0:0, 2+3:0:0:0:0, 0+0:0:0:0:0, 0+1:0:0:0:0, 0+2:0:0:0:0, 1+1:0:0:0:0, 0+2:0:0:0:0, 1+2:0:0:0:0, 2+2:0:0:0:0, 0+2:0:0:0:0, 1+2:0:0:0:0, 1+1:0:0:0:0, 2+1:0:0:0:0, 2+3:0:0:0:0, 1+2:0:0:0:0, 0+0:0:0:0:0, 2+1:0:0:0:0, 2+3:0:0:0:1, 2+2:0:0:0:0, 0+2:0:0:0:0, 2+3:0:0:0:0, 0+2:0:0:0:0, 1+3:0:0:0:0, 0+1:0:0:0:0, 1+2:0:0:0:1, 1+2:0:0:0:0, 1+2:0:0:0:0, 1+1:0:0:0:0, 2+1:0:0:0:0, 1+3:0:0:0:1, 2+2:0:0:0:0, 2+3:0:0:0:0, 0+3:0:0:0:0, 2+2:0:0:0:0, 1+1:0:0:0:0, 0+0:0:0:0:0, 2+1:0:0:0:0, 0+0:0:0:0:0, 1+2:0:0:0:0, 1+1:0:0:0:0, 0+6:0:0:0:0, 1+1:0:0:0:0, 0+1:0:0:0:0, 0+0:0:0:0:0, 0+0:0:0:0:0, 0+0:0:0:0:0, 0+0:0:0:0:0, 0+0:0:0:0:0, 0+0:0:0:0:0, 169+265:0:0:0:13
F major (1b), 1+1:0:0:0:0, 2+1:0:0:0:0, 0+0:0:0:0:0, 2+1:0:0:0:0, 0+0:0:0:0:0, 1+0:0:0:0:0, 0+0:0:0:0:0, 1+1:0:0:0:0, 1+1:0:0:0:0, 1+1:0:0:0:0, 1+1:0:0:0:0, 1+1:0:0:0:0, 0+0:0:0:0:0, 1+2:0:0:0:0, 0+0:0:0:0:0, 1+1:0:0:0:0, 2+1:0:0:0:0, 1+1:0:0:0:0, 0+0:0:0:0:0, 1+0:0:0:0:0, 0+0:0:0:0:0, 1+0:0:0:0:0, 1+1:0:0:0:0, 0+0:0:0:0:0, 0+0:0:0:0:0, 2+1:0:0:0:0, 1+1:0:0:0:0, 0+0:0:0:0:0, 2+1:0:0:0:0, 1+1:0:0:0:0, 1+1:0:0:0:0, 0+0:0:0:0:0, 0+0:0:0:0:0, 1+0:0:0:0:0, 1+1:0:0:0:0, 0+0:0:0:0:0, 2+1:0:0:0:0, 1+1:0:0:0:0, 1+1:0:0:0:0, 1+1:0:0:0:1, 2+1:0:0:0:0, 1+1:0:0:0:0, 1+1:0:0:0:0, 1+1:0:0:0:0, 1+1:0:0:0:0, 1+0:0:0:0:0, 1+1:0:0:0:0, 2+1:0:0:0:0, 1+1:0:0:0:0, 1+1:0:0:0:0, 1+1:0:0:0:0, 2+1:0:0:0:0, 2+1:0:0:0:0, 2+1:0:0:0:0, 1+1:0:0:0:0, 2+2:0:0:0:0, 1+2:0:0:0:2, 1+0:0:0:0:0, 1+1:0:0:0:0, 1+1:0:0:0:0, 1+1:0:0:0:0, 1+1:0:0:0:0, 1+1:0:0:0:0, 0+0:0:0:0:0, 2+1:0:0:0:0, 1+1:0:0:0:0, 1+1:0:0:0:0, 1+1:0:0:0:0, 2+2:0:0:0:0, 0+0:0:0:0:0, 1+0:0:0:0:0, 0+0:0:0:0:0, 2+1:0:0:0:0, 0+0:0:0:0:0, 1+1:0:0:0:0, 0+0:0:0:0:0, 0+0:0:0:0:0, 1+0:0:0:0:0, 0+0:0:0:0:0, 1+1:0:0:0:0, 0+0:0:0:0:0, 1+1:0:0:0:0, 1+1:0:0:0:0, 0+0:0:0:0:0, 0+0:0:0:0:0, 0+0:0:0:0:0, 0+0:0:0:0:0, 1+1:0:0:0:1, 2+1:0:0:0:0, 1+0:0:0:0:0, 1+1:0:0:0:0, 2+1:0:0:0:0, 0+0:0:0:0:0, 1+1:0:0:0:0, 1+1:0:0:0:0, 1+1:0:0:0:0, 0+0:0:0:0:0, 1+1:0:0:0:0, 1+1:0:0:0:0, 1+1:0:0:0:0, 2+1:0:0:0:0, 1+1:0:0:0:0, 1+1:0:0:0:0, 2+1:0:0:0:0, 1+1:0:0:0:0, 1+1:0:0:0:0, 1+1:0:0:0:0, 1+0:0:0:0:0, 0+0:0:0:0:0, 1+1:0:0:0:0, 1+1:0:0:0:0, 1+1:0:0:0:0, 2+1:0:0:0:0, 1+1:0:0:0:0, 1+1:0:0:0:0, 2+1:0:0:0:0, 1+1:0:0:0:0, 1+1:0:0:0:0, 1+1:0:0:0:0, 1+0:0:0:0:0, 0+0:0:0:0:0, 1+1:0:0:0:0, 0+0:0:0:0:0, 2+2:0:0:0:0, 2+1:0:0:0:0, 1+1:0:0:0:0, 1+1:0:0:0:0, 0+0:0:0:0:0, 0+0:0:0:0:0, 1+0:0:0:0:0, 1+1:0:0:0:0, 0+0:0:0:0:0, 2+1:0:0:0:0, 1+1:0:0:0:0, 0+0:0:0:0:0, 0+0:0:0:0:0, 2+1:0:0:0:0, 1+1:0:0:0:0, 1+1:0:0:0:0, 0+0:0:0:0:0, 1+0:0:0:0:0, 1+1:0:0:0:0, 2+2:0:0:0:0, 1+1:0:0:0:0, 0+0:0:0:0:0, 1+1:0:0:0:0, 0+0:0:0:0:0, 0+0:0:0:0:0, 0+0:0:0:0:0, 2+1:0:0:0:0, 0+0:0:0:0:0, 1+1:0:0:0:0, 1+1:0:0:0:0, 1+1:0:0:0:0, 1+1:0:0:0:0, 1+1:0:0:0:0, 1+1:0:0:0:0, 0+0:0:0:0:0, 1+1:0:0:0:0, 2+1:0:0:0:0, 0+0:0:0:0:0, 1+1:0:0:0:0, 0+0:0:0:0:0, 1+1:0:0:0:0, 1+1:0:0:0:0, 0+0:0:0:0:0, 1+1:0:0:0:0, 1+0:0:0:0:0, 0+0:0:0:0:0, 0+0:0:0:0:0, 0+0:0:0:0:0, 0+0:0:0:0:0, 0+0:0:0:0:0, 0+0:0:0:0:0, 151+115:0:0:0:4
G major (1#), 1+1:0:0:0:1, 1+1:0:0:0:0, 1+0:0:0:0:0, 1+1:0:0:0:0, 1+0:0:0:0:0, 3+1:0:0:0:0, 0+0:0:0:0:0, 2+1:0:0:0:0, 2+1:0:0:0:0, 1+1:0:0:0:1, 2+1:0:0:0:0, 1+1:0:0:0:1, 1+0:0:0:0:0, 1+2:0:0:0:0, 1+1:0:0:0:0, 1+0:0:0:0:0, 3+3:0:0:0:0, 3+3:0:0:0:0, 1+0:0:0:0:0, 0+0:0:0:0:0, 1+0:0:0:0:0, 0+0:0:0:0:0, 1+1:0:0:0:0, 1+0:0:0:0:0, 0+0:0:0:0:0, 2+1:0:0:0:0, 0+0:0:0:0:0, 0+0:0:0:0:0, 3+3:0:0:0:0, 3+3:0:0:0:0, 2+3:0:0:0:0, 1+1:0:0:0:0, 0+0:0:0:0:0, 1+0:0:0:0:0, 1+1:0:0:0:0, 1+0:0:0:0:0, 1+1:0:0:0:1, 2+1:0:0:0:0, 1+1:0:0:0:1, 1+1:0:0:0:1, 2+1:0:0:0:0, 2+1:0:0:0:0, 1+1:0:0:0:1, 2+1:0:0:0:0, 2+1:0:0:0:0, 0+0:0:0:0:0, 1+0:0:0:0:0, 0+0:0:0:0:0, 1+1:0:0:0:1, 1+1:0:0:0:1, 1+1:0:0:0:1, 2+1:0:0:0:0, 3+3:0:0:0:0, 2+1:0:0:0:0, 1+1:0:0:0:1, 1+2:0:0:0:0, 1+2:0:0:0:2, 0+0:0:0:0:0, 1+1:0:0:0:0, 1+1:0:0:0:1, 1+1:0:0:0:1, 2+1:0:0:0:0, 2+1:0:0:0:0, 0+0:0:0:0:0, 3+3:0:0:0:0, 3+1:0:0:0:0, 2+1:0:0:0:0, 2+1:0:0:0:0, 2+1:0:0:0:0, 1+0:0:0:0:0, 2+0:0:0:0:0, 0+0:0:0:0:0, 1+1:0:0:0:1, 1+0:0:0:0:0, 2+1:0:0:0:0, 0+0:0:0:0:0, 1+0:0:0:0:0, 3+1:0:0:0:0, 0+0:0:0:0:0, 2+1:0:0:0:1, 1+0:0:0:0:0, 1+1:0:0:0:1, 2+1:0:0:0:0, 1+0:0:0:0:0, 0+0:0:0:0:0, 1+0:0:0:0:0, 1+1:0:0:0:0, 1+1:0:0:0:1, 2+1:0:0:0:0, 1+0:0:0:0:0, 2+1:0:0:0:0, 3+1:0:0:0:0, 1+0:0:0:0:0, 1+1:0:0:0:1, 1+1:0:0:0:0, 1+1:0:0:0:1, 0+0:0:0:0:0, 2+1:0:0:0:0, 1+1:0:0:0:1, 0+0:0:0:0:0, 3+3:0:0:0:0, 3+3:0:0:0:0, 1+1:0:0:0:0, 1+1:0:0:0:0, 2+1:0:0:0:0, 1+1:0:0:0:1, 1+1:0:0:0:0, 1+0:0:0:0:0, 0+0:0:0:0:0, 2+1:0:0:0:0, 1+1:0:0:0:1, 0+0:0:0:0:0, 3+3:0:0:0:0, 3+3:0:0:0:0, 1+1:0:0:0:0, 1+1:0:0:0:0, 2+1:0:0:0:0, 1+1:0:0:0:1, 1+1:0:0:0:0, 1+0:0:0:0:0, 1+0:0:0:0:0, 1+1:0:0:0:1, 0+0:0:0:0:0, 2+2:0:0:0:0, 3+3:0:0:0:0, 3+1:0:0:0:0, 2+1:0:0:0:0, 1+0:0:0:0:0, 1+0:0:0:0:0, 0+0:0:0:0:0, 1+1:0:0:0:0, 1+0:0:0:0:0, 1+1:0:0:0:1, 1+1:0:0:0:1, 1+0:0:0:0:0, 1+1:0:0:0:0, 2+1:0:0:0:1, 2+1:0:0:0:1, 2+1:0:0:0:0, 1+1:0:0:0:0, 0+0:0:0:0:0, 1+1:0:0:0:1, 2+2:0:0:0:0, 1+1:0:0:0:1, 0+0:0:0:0:0, 1+1:0:0:0:1, 0+0:0:0:0:0, 1+0:0:0:0:0, 1+2:0:0:0:0, 2+3:0:0:0:0, 1+0:0:0:0:0, 1+1:0:0:0:0, 2+1:0:0:0:0, 1+1:0:0:0:1, 2+1:0:0:0:0, 1+1:0:0:0:1, 2+1:0:0:0:0, 1+0:0:0:0:0, 1+1:0:0:0:1, 1+1:0:0:0:1, 1+0:0:0:0:0, 2+1:0:0:0:1, 0+0:0:0:0:0, 2+1:0:0:0:0, 2+1:0:0:0:0, 0+0:0:0:0:0, 2+1:0:0:0:0, 1+0:0:0:0:0, 0+0:0:0:0:0, 0+0:0:0:0:0, 0+0:0:0:0:0, 0+0:0:0:0:0, 0+0:0:0:0:0, 0+0:0:0:0:0, 215+143:0:0:0:38
D minor (1b), 1+3:0:0:0:0, 2+1:0:0:0:0, 0+2:0:0:0:0, 2+1:0:0:0:0, 0+0:0:0:0:0, 1+1:0:0:0:0, 0+2:0:0:0:0, 1+2:0:0:0:0, 1+1:0:0:0:1, 1+1:0:0:0:0, 1+3:0:0:0:1, 1+2:0:0:0:0, 0+2:0:0:0:0, 1+3:0:0:0:2, 0+1:0:0:0:0, 1+3:0:0:0:1, 2+3:0:0:0:0, 1+1:0:0:0:0, 0+2:0:0:0:0, 1+1:0:0:0:0, 0+0:0:0:0:0, 1+3:0:0:0:0, 1+3:0:0:0:1, 0+1:0:0:0:0, 0+2:0:0:0:0, 2+1:0:0:0:1, 1+4:0:0:0:1, 0+3:0:0:0:0, 2+3:0:0:0:0, 1+1:0:0:0:0, 1+3:0:0:0:0, 0+2:0:0:0:0, 0+0:0:0:0:0, 1+2:0:0:0:0, 1+3:0:0:0:0, 0+1:0:0:0:0, 2+1:0:0:0:0, 1+2:0:0:0:1, 1+2:0:0:0:0, 1+2:0:0:0:0, 2+1:0:0:0:0, 1+1:0:0:0:1, 1+2:0:0:0:0, 1+3:0:0:0:0, 1+1:0:0:0:1, 1+3:0:0:0:0, 1+1:0:0:0:0, 2+2:0:0:0:0, 1+3:0:0:0:0, 1+3:0:0:0:0, 1+3:0:0:0:0, 2+1:0:0:0:0, 2+3:0:0:0:0, 2+1:0:0:0:0, 1+3:0:0:0:0, 2+3:0:0:0:0, 1+2:0:0:0:0, 1+2:0:0:0:0, 1+3:0:0:0:0, 1+2:0:0:0:0, 1+3:0:0:0:0, 1+3:0:0:0:1, 1+3:0:0:0:1, 0+3:0:0:0:0, 2+3:0:0:0:0, 1+1:0:0:0:0, 1+3:0:0:0:0, 1+3:0:0:0:0, 3+2:0:0:0:1, 0+0:0:0:0:0, 1+0:0:0:0:0, 0+0:0:0:0:0, 2+1:0:0:0:0, 0+1:0:0:0:0, 1+3:0:0:0:1, 0+2:0:0:0:0, 0+0:0:0:0:0, 1+1:0:0:0:0, 0+2:0:0:0:0, 1+2:0:0:0:0, 0+0:0:0:0:0, 1+1:0:0:0:0, 1+4:0:0:0:1, 0+1:0:0:0:0, 0+2:0:0:0:0, 0+1:0:0:0:0, 0+1:0:0:0:0, 1+1:0:0:0:0, 2+1:0:0:0:0, 1+1:0:0:0:0, 1+3:0:0:0:1, 2+1:0:0:0:0, 0+0:0:0:0:0, 1+1:0:0:0:0, 1+4:0:0:0:1, 1+2:0:0:0:0, 0+3:0:0:0:0, 1+3:0:0:0:1, 1+2:0:0:0:0, 1+4:0:0:0:1, 2+3:0:0:0:0, 1+1:0:0:0:0, 1+3:0:0:0:1, 2+1:0:0:0:0, 1+1:0:0:0:1, 1+1:0:0:0:0, 1+3:0:0:0:0, 1+1:0:0:0:0, 0+3:0:0:0:0, 1+3:0:0:0:1, 1+2:0:0:0:0, 1+4:0:0:0:1, 2+3:0:0:0:0, 1+1:0:0:0:0, 1+3:0:0:0:1, 2+1:0:0:0:0, 1+1:0:0:0:1, 1+1:0:0:0:0, 1+3:0:0:0:0, 1+1:0:0:0:0, 0+3:0:0:0:0, 1+2:0:0:0:0, 0+3:0:0:0:0, 2+2:0:0:0:0, 2+3:0:0:0:0, 1+1:0:0:0:0, 1+3:0:0:0:0, 0+2:0:0:0:0, 0+0:0:0:0:0, 1+2:0:0:0:0, 1+3:0:0:0:0, 0+1:0:0:0:0, 2+1:0:0:0:0, 1+2:0:0:0:0, 0+2:0:0:0:0, 0+2:0:0:0:0, 2+3:0:0:0:0, 1+1:0:0:0:0, 1+3:0:0:0:0, 0+2:0:0:0:0, 1+0:0:0:0:0, 1+1:0:0:0:0, 2+3:0:0:0:1, 1+2:0:0:0:0, 0+2:0:0:0:0, 1+3:0:0:0:0, 0+2:0:0:0:0, 0+3:0:0:0:0, 0+1:0:0:0:0, 2+2:0:0:0:1, 0+2:0:0:0:0, 1+3:0:0:0:0, 1+1:0:0:0:1, 1+1:0:0:0:0, 1+3:0:0:0:1, 1+2:0:0:0:0, 1+3:0:0:0:0, 0+3:0:0:0:0, 1+2:0:0:0:0, 2+1:0:0:0:0, 0+1:0:0:0:0, 1+1:0:0:0:0, 0+3:0:0:0:0, 1+2:0:0:0:0, 1+1:0:0:0:1, 0+0:0:0:0:0, 1+3:0:0:0:1, 1+1:0:0:0:0, 0+7:0:0:0:0, 0+6:0:0:0:0, 0+2:0:0:0:0, 0+2:0:0:0:0, 0+1:0:0:0:0, 0+1:0:0:0:0, 152+341:0:0:0:32
E minor (1#), 1+1:0:0:0:0, 1+1:0:0:0:0, 1+2:0:0:0:0, 1+1:0:0:0:0, 1+1:0:0:0:0, 3+1:0:0:0:0, 0+1:0:0:0:0, 2+2:0:0:0:0, 2+1:0:0:0:0, 1+3:0:0:0:1, 2+1:0:0:0:0, 1+2:0:0:0:1, 1+2:0:0:0:0, 1+0:0:0:0:0, 1+1:0:0:0:0, 1+3:1:0:0:0, 2+1:0:0:0:0, 2+2:0:0:0:1, 1+0:0:0:0:0, 0+1:0:0:0:0, 1+0:0:0:0:0, 0+3:0:0:0:0, 1+0:0:0:0:0, 1+2:0:0:0:0, 0+3:0:0:0:0, 2+1:0:0:0:1, 0+0:0:0:0:0, 0+1:0:0:0:0, 2+1:0:0:0:0, 2+2:0:0:0:1, 2+3:0:0:0:0, 1+2:0:0:0:0, 0+1:0:0:0:0, 1+2:0:0:0:0, 1+1:0:0:0:0, 1+2:0:0:0:0, 1+1:0:0:0:0, 2+2:0:0:0:0, 1+2:0:0:0:0, 1+0:0:0:0:0, 2+1:0:0:0:0, 2+1:0:0:0:0, 1+2:0:0:0:1, 2+1:0:0:0:0, 2+1:0:0:0:0, 0+3:0:0:0:0, 1+1:0:0:0:0, 0+2:0:0:0:0, 1+1:0:0:0:0, 1+1:0:0:0:0, 1+1:0:0:0:0, 1+0:0:0:0:0, 2+1:0:0:0:0, 2+1:0:0:0:0, 1+2:0:0:0:1, 1+3:0:0:0:0, 1+2:0:0:0:0, 0+2:0:0:0:0, 1+1:0:0:0:0, 1+3:0:0:0:0, 1+2:0:0:0:0, 2+1:0:0:0:0, 2+1:0:0:0:0, 0+1:0:0:0:0, 2+1:0:0:0:0, 2+2:0:0:0:1, 2+3:0:0:0:0, 2+1:0:0:0:1, 3+1:0:0:0:0, 1+3:0:0:0:0, 2+3:0:0:0:0, 0+2:0:0:0:0, 1+2:0:0:0:0, 1+1:0:0:0:0, 2+1:0:0:0:0, 0+1:0:0:0:0, 1+0:0:0:0:0, 3+1:0:0:0:0, 0+2:0:0:0:0, 2+2:0:0:0:0, 1+0:0:0:0:0, 1+5:0:0:0:1, 2+4:0:0:0:1, 1+2:0:0:0:0, 0+1:0:0:0:0, 1+0:0:0:0:0, 1+2:0:0:0:0, 1+1:0:0:0:0, 2+1:0:0:0:0, 1+1:0:0:0:0, 2+1:0:0:0:0, 3+1:0:0:0:0, 1+0:0:0:0:0, 1+3:0:0:0:1, 1+0:0:0:0:0, 1+1:0:0:0:0, 0+0:0:0:0:0, 2+1:0:0:0:0, 1+1:0:0:0:0, 0+0:0:0:0:0, 2+1:0:0:0:0, 2+2:0:0:0:1, 1+1:0:0:0:0, 1+2:0:0:0:0, 2+1:0:0:0:0, 1+3:0:0:0:1, 1+1:0:0:0:0, 1+1:0:0:0:0, 0+2:0:0:0:0, 2+1:0:0:0:0, 1+1:0:0:0:0, 0+0:0:0:0:0, 2+1:0:0:0:0, 2+2:0:0:0:1, 1+1:0:0:0:0, 1+2:0:0:0:0, 2+1:0:0:0:0, 1+3:0:0:0:1, 1+1:0:0:0:0, 1+1:0:0:0:0, 1+3:0:0:0:0, 1+2:0:0:0:1, 0+2:0:0:0:0, 1+3:0:0:0:0, 2+1:0:0:0:0, 2+2:0:0:0:1, 2+3:0:0:0:0, 1+0:0:0:0:0, 1+1:0:0:0:0, 0+2:0:0:0:0, 1+1:0:0:0:0, 1+2:0:0:0:0, 1+1:0:0:0:0, 1+2:0:0:0:0, 1+0:0:0:0:0, 1+2:0:0:0:0, 2+1:0:0:0:0, 2+2:0:0:0:1, 2+3:0:0:0:0, 1+2:0:0:0:0, 0+3:0:0:0:0, 1+2:0:0:0:0, 2+1:0:0:0:0, 1+1:0:0:0:0, 0+2:0:0:0:0, 1+2:0:0:0:0, 0+1:0:0:0:0, 1+3:0:0:0:0, 1+1:0:0:0:0, 2+2:0:0:0:1, 1+2:0:0:0:0, 1+2:0:0:0:0, 2+1:0:0:0:0, 1+3:0:0:0:1, 2+1:0:0:0:0, 1+2:0:0:0:1, 2+3:0:0:0:0, 1+0:0:0:0:0, 1+2:0:0:0:0, 1+1:0:0:0:0, 1+0:0:0:0:0, 2+1:0:0:0:1, 0+0:0:0:0:0, 2+2:0:0:0:0, 2+1:0:0:0:0, 0+6:0:0:0:0, 2+1:0:0:0:0, 1+1:0:0:0:0, 0+0:0:0:0:0, 0+0:0:0:0:0, 0+0:0:0:0:0, 0+0:0:0:0:0, 0+0:0:0:0:0, 0+0:0:0:0:0, 201+252:1:0:0:23
Bb major (2b), 2+1:0:0:0:0, 1+1:0:1:0:0, 1+0:0:0:0:0, 3+1:0:0:0:0, 1+0:0:0:0:0, 0+0:0:0:0:0, 1+0:0:0:0:0, 2+1:0:0:0:0, 2+1:0:0:0:0, 1+1:0:0:0:0, 2+1:0:0:0:0, 1+1:0:0:0:0, 0+0:0:0:0:0, 1+2:0:0:0:0, 1+0:0:0:0:0, 1+1:0:0:0:0, 1+1:0:0:0:0, 1+1:0:0:0:0, 1+0:0:0:0:0, 2+0:0:0:0:0, 1+0:0:0:0:0, 1+0:0:0:0:0, 2+1:0:0:0:0, 1+0:0:0:0:0, 0+0:0:0:0:0, 1+1:0:0:0:1, 2+1:0:0:0:0, 1+0:0:0:0:0, 1+1:0:0:0:0, 1+1:0:0:0:0, 2+1:0:0:0:0, 1+0:0:0:0:0, 1+0:0:0:0:0, 1+1:0:0:0:0, 2+1:0:0:0:0, 1+0:0:0:0:0, 1+1:0:0:0:0, 2+1:0:0:0:0, 1+1:0:0:0:0, 1+1:0:0:0:0, 1+1:0:1:0:0, 2+1:0:0:0:0, 1+1:0:0:0:0, 2+1:0:0:0:0, 1+1:0:0:0:0, 1+0:0:0:0:0, 0+0:0:0:0:0, 2+0:0:0:0:0, 2+1:0:0:0:0, 1+1:0:0:0:0, 1+1:0:0:0:0, 1+1:0:0:0:0, 1+1:0:0:0:0, 3+1:0:0:0:0, 2+1:0:0:0:0, 2+2:0:0:0:0, 2+2:0:0:0:0, 1+0:0:0:0:0, 2+1:0:0:0:0, 1+1:0:0:0:0, 1+1:0:0:0:0, 2+1:0:0:0:0, 2+1:0:0:0:0, 1+0:0:0:0:0, 1+1:0:0:0:0, 1+1:0:0:0:0, 2+1:0:0:0:0, 2+1:0:0:0:0, 2+1:0:0:0:0, 1+0:0:0:0:0, 0+0:0:0:0:0, 0+0:0:0:0:0, 1+1:0:0:0:0, 1+0:0:0:0:0, 2+1:0:0:0:0, 1+0:0:0:0:0, 1+0:0:0:0:0, 0+0:0:0:0:0, 1+0:0:0:0:0, 1+1:0:0:0:0, 1+0:0:0:0:0, 1+1:0:0:0:0, 1+1:0:0:0:0, 1+0:0:0:0:0, 1+0:0:0:0:0, 0+0:0:0:0:0, 1+0:0:0:0:0, 1+1:0:0:0:0, 1+1:0:0:0:1, 1+1:0:0:0:0, 2+1:0:0:0:0, 1+1:0:0:0:0, 1+0:0:0:0:0, 1+1:0:0:0:0, 2+1:0:0:0:0, 1+1:0:0:0:0, 0+0:0:0:0:0, 2+1:0:0:0:0, 1+1:0:0:0:0, 1+1:0:0:0:0, 1+1:0:0:0:0, 1+1:0:0:0:0, 1+1:0:0:0:0, 3+1:0:0:0:0, 2+1:0:0:0:0, 1+1:0:0:0:0, 2+1:0:0:0:0, 1+1:0:0:0:0, 0+0:0:0:0:0, 2+1:0:0:0:0, 1+1:0:0:0:0, 1+1:0:0:0:0, 1+1:0:0:0:0, 1+1:0:0:0:0, 1+1:0:0:0:0, 3+1:0:0:0:0, 2+1:0:0:0:0, 1+1:0:0:0:0, 2+1:0:0:0:0, 1+1:0:0:0:0, 0+0:0:0:0:0, 2+1:0:0:0:0, 0+0:0:0:0:0, 1+2:0:0:0:0, 1+1:0:0:0:0, 1+1:0:0:0:0, 2+1:0:0:0:0, 1+0:0:0:0:0, 1+0:0:0:0:0, 1+0:0:0:0:0, 2+1:0:0:0:0, 1+0:0:0:0:0, 1+1:0:0:0:0, 1+1:0:0:0:0, 1+0:0:0:0:0, 1+0:0:0:0:0, 1+1:0:0:0:0, 1+1:0:0:0:0, 2+1:0:0:0:0, 1+0:0:0:0:0, 1+0:0:0:0:0, 1+1:0:0:0:0, 2+2:0:0:0:0, 1+1:0:0:0:0, 1+0:0:0:0:0, 1+1:0:0:0:0, 1+0:0:0:0:0, 0+0:0:0:0:0, 0+0:0:0:0:0, 1+1:0:0:0:1, 0+0:0:0:0:0, 2+1:0:0:0:0, 2+1:0:0:0:0, 1+1:0:0:0:0, 2+1:0:0:0:0, 1+1:0:0:0:0, 2+1:0:0:0:0, 1+0:0:0:0:0, 1+1:0:0:0:0, 1+1:0:0:0:0, 1+0:0:0:0:0, 1+1:0:0:0:0, 1+0:0:0:0:0, 2+1:0:0:0:0, 2+1:0:0:0:0, 0+0:0:0:0:0, 2+1:0:0:0:0, 1+1:0:0:0:0, 0+0:0:0:0:0, 0+0:0:0:0:0, 0+0:0:0:0:0, 0+0:0:0:0:0, 0+0:0:0:0:0, 0+0:0:0:0:0, 204+117:0:2:0:3
D major (2#), 3+3:0:0:0:0, 2+1:0:0:0:0, 2+1:0:0:0:0, 2+1:0:0:0:0, 1+0:0:0:0:0, 3+1:0:0:0:0, 1+2:0:0:0:0, 3+2:0:0:0:0, 2+1:0:0:0:1, 2+1:0:0:0:0, 3+3:0:0:0:1, 3+2:0:0:0:0, 2+2:0:0:0:0, 2+3:0:0:0:2, 2+1:0:0:0:0, 2+3:1:0:0:0, 3+3:0:0:0:0, 3+1:0:0:0:0, 2+2:0:0:0:0, 1+1:0:0:0:0, 1+0:0:0:0:0, 0+0:0:0:0:0, 2+3:0:0:0:1, 2+1:0:0:0:0, 1+2:0:0:0:0, 3+1:0:0:0:1, 1+0:0:0:0:0, 1+0:0:0:0:0, 3+3:0:0:0:0, 3+1:0:0:0:0, 3+3:0:0:0:0, 2+2:0:0:0:0, 0+0:0:0:0:0, 1+1:0:0:0:0, 2+3:0:0:0:0, 2+1:0:0:0:0, 3+1:0:0:0:0, 3+2:0:0:0:1, 3+2:0:0:0:0, 2+2:0:0:0:0, 3+1:0:0:0:0, 2+1:0:0:0:1, 3+2:0:0:0:0, 3+3:0:0:0:0, 2+1:0:0:0:1, 0+0:0:0:0:0, 2+3:0:0:0:0, 1+1:0:0:0:0, 3+3:0:0:0:0, 3+3:0:0:0:0, 3+3:0:0:0:0, 3+1:0:0:0:0, 4+3:0:0:0:0, 2+1:0:0:0:0, 3+3:0:0:0:0, 2+3:0:0:0:0, 1+2:0:0:0:0, 0+0:0:0:0:0, 2+3:0:0:0:0, 3+2:0:0:0:0, 3+3:0:0:0:0, 3+3:0:0:0:1, 3+3:0:0:0:1, 1+3:0:0:0:0, 3+3:0:0:0:0, 3+1:0:0:0:0, 3+3:0:0:0:0, 3+3:0:0:0:0, 2+1:0:0:0:0, 1+0:0:0:0:0, 3+3:0:0:0:0, 1+2:0:0:0:0, 3+1:0:0:0:0, 2+1:0:0:0:0, 3+3:0:0:0:1, 1+2:0:0:0:0, 1+0:0:0:0:0, 3+1:0:0:0:0, 1+2:0:0:0:0, 3+2:0:0:0:0, 1+0:0:0:0:0, 2+1:0:0:0:0, 3+4:0:0:0:1, 2+1:0:0:0:0, 1+2:0:0:0:0, 2+1:0:0:0:0, 2+1:0:0:0:0, 2+1:0:0:0:0, 2+1:0:0:0:0, 2+1:0:0:0:0, 3+3:0:0:0:1, 4+1:0:0:0:0, 1+0:0:0:0:0, 2+1:0:0:0:0, 2+4:0:0:0:1, 3+2:0:0:0:0, 1+3:0:0:0:0, 3+3:0:0:0:1, 3+2:0:0:0:0, 1+4:1:0:0:0, 3+3:0:0:0:0, 3+1:0:0:0:0, 2+3:1:0:0:0, 2+1:0:0:0:0, 2+1:0:0:0:1, 2+1:0:0:0:0, 2+3:0:0:0:0, 2+2:0:0:0:0, 1+3:0:0:0:0, 3+3:0:0:0:1, 3+2:0:0:0:0, 1+4:1:0:0:0, 3+3:0:0:0:0, 3+1:0:0:0:0, 2+3:1:0:0:0, 2+1:0:0:0:0, 2+1:0:0:0:1, 2+1:0:0:0:0, 2+3:0:0:0:0, 2+2:0:0:0:0, 2+3:0:0:0:0, 3+2:0:0:0:0, 1+3:0:0:0:0, 3+2:0:0:0:0, 3+3:0:0:0:0, 3+1:0:0:0:0, 3+3:0:0:0:0, 2+2:0:0:0:0, 1+0:0:0:0:0, 0+0:0:0:0:0, 2+3:0:0:0:0, 2+1:0:0:0:0, 3+1:0:0:0:0, 3+2:0:0:0:0, 2+2:0:0:0:0, 2+2:0:0:0:0, 3+3:0:0:0:0, 3+1:0:0:0:0, 3+3:0:0:0:0, 2+2:0:0:0:0, 1+0:0:0:0:0, 2+1:0:0:0:0, 3+3:0:0:0:1, 3+2:0:0:0:0, 1+2:0:0:0:0, 3+3:0:0:0:0, 1+2:0:0:0:0, 2+3:0:0:0:0, 2+1:0:0:0:0, 2+2:0:0:0:1, 2+2:0:0:0:0, 2+3:0:0:0:0, 2+1:0:0:0:1, 2+1:0:0:0:0, 3+3:0:0:0:1, 3+2:0:0:0:0, 3+3:0:0:0:0, 2+3:0:0:0:0, 3+2:0:0:0:0, 3+1:0:0:0:0, 2+1:0:0:0:0, 3+1:0:0:0:0, 1+3:0:0:0:0, 3+2:0:0:0:0, 2+1:0:0:0:1, 0+0:0:0:0:0, 3+3:0:0:0:1, 2+5:0:0:0:0, 1+7:0:0:0:0, 1+6:0:0:0:0, 1+2:0:0:0:0, 1+2:0:0:0:0, 1+1:0:0:0:0, 1+1:0:0:0:0, 372+333:5:0:0:25
G minor (2b), 2+3:0:0:0:0, 1+1:0:1:0:1, 1+1:0:0:0:0, 3+1:0:0:0:0, 1+0:0:0:0:0, 0+1:0:0:0:0, 1+2:0:0:0:0, 2+2:0:0:0:0, 2+1:0:0:0:1, 1+1:0:0:0:0, 2+3:0:0:0:1, 1+2:0:0:0:0, 0+0:0:0:0:0, 1+2:0:0:0:0, 1+1:0:0:0:0, 1+0:0:0:0:0, 1+3:0:0:0:0, 1+1:0:0:0:0, 1+2:0:0:0:0, 2+1:0:0:0:0, 1+0:0:0:0:0, 1+3:0:0:0:0, 2+3:0:0:0:1, 1+1:0:0:0:0, 0+0:0:0:0:0, 1+2:0:0:0:0, 2+0:0:0:0:0, 1+0:0:0:0:0, 1+3:0:0:0:0, 1+1:0:0:0:0, 2+3:0:0:0:0, 1+2:0:0:0:0, 1+0:0:0:0:0, 1+1:0:0:0:0, 2+3:0:0:0:0, 1+1:0:0:0:0, 1+1:0:0:0:0, 2+2:0:0:0:1, 1+2:0:0:0:0, 1+1:0:0:0:0, 1+3:0:1:0:1, 2+1:0:0:0:1, 1+2:0:0:0:0, 2+3:0:0:0:0, 1+1:0:0:0:0, 1+0:0:0:0:0, 0+0:0:0:0:0, 2+0:0:0:0:0, 2+3:0:0:0:0, 1+3:0:0:0:0, 1+3:0:0:0:0, 1+1:0:0:0:0, 1+3:0:0:0:0, 3+1:0:0:0:0, 2+3:0:0:0:0, 1+1:0:1:0:1, 2+2:0:0:0:2, 1+0:0:0:0:0, 2+3:0:0:0:0, 1+2:0:0:0:0, 1+3:0:0:0:0, 2+3:0:0:0:1, 2+3:0:0:0:1, 1+3:0:0:0:0, 1+3:0:0:0:0, 1+1:0:0:0:0, 2+3:0:0:0:0, 2+3:0:0:0:0, 2+1:0:0:0:0, 1+0:0:0:0:0, 0+0:0:0:0:0, 0+0:0:0:0:0, 1+1:0:0:0:0, 1+1:0:0:0:0, 2+3:0:0:0:1, 1+2:0:0:0:0, 1+0:0:0:0:0, 0+1:0:0:0:0, 1+2:0:0:0:0, 1+2:0:0:0:0, 1+0:0:0:0:0, 1+1:0:0:0:0, 1+4:0:0:0:1, 1+1:0:0:0:0, 1+2:0:0:0:0, 0+1:0:0:0:0, 1+1:0:0:0:0, 1+1:0:0:0:0, 1+3:0:0:0:0, 1+2:0:0:0:0, 2+3:0:0:0:1, 1+1:0:0:0:0, 1+0:0:0:0:0, 1+1:0:0:0:0, 2+4:0:0:0:1, 1+2:0:0:0:0, 0+3:0:0:0:0, 2+3:0:0:0:1, 1+2:0:0:0:0, 1+0:0:0:0:0, 1+3:0:0:0:0, 1+1:0:0:0:0, 2+1:0:0:0:0, 3+1:0:0:0:0, 2+1:0:0:0:1, 1+1:0:0:0:0, 2+3:0:0:0:0, 1+2:0:0:0:0, 0+3:0:0:0:0, 2+3:0:0:0:1, 1+2:0:0:0:0, 1+0:0:0:0:0, 1+3:0:0:0:0, 1+1:0:0:0:0, 2+1:0:0:0:0, 3+1:0:0:0:0, 2+1:0:0:0:1, 1+1:0:0:0:0, 2+3:0:0:0:0, 1+2:0:0:0:0, 0+3:0:0:0:0, 2+2:0:0:0:0, 0+0:0:0:0:0, 1+2:0:0:0:0, 1+3:0:0:0:0, 1+1:0:0:0:0, 2+3:0:0:0:0, 1+2:0:0:0:0, 1+0:0:0:0:0, 1+2:0:0:0:0, 2+3:0:0:0:0, 1+1:0:0:0:0, 1+1:0:0:0:0, 1+2:0:0:0:0, 1+2:0:0:0:0, 1+2:0:0:0:0, 1+3:0:0:0:0, 1+1:0:0:0:0, 2+3:0:0:0:0, 1+2:0:0:0:0, 1+0:0:0:0:0, 1+1:0:0:0:0, 2+3:0:0:0:1, 1+2:0:0:0:0, 1+2:0:0:0:0, 1+3:0:0:0:0, 1+2:0:0:0:0, 0+0:0:0:0:0, 0+2:0:0:0:0, 1+3:0:0:0:0, 0+0:0:0:0:0, 2+3:0:0:0:0, 2+1:0:0:0:1, 1+1:0:0:0:0, 2+3:0:0:0:1, 1+2:0:0:0:0, 2+3:0:0:0:0, 1+3:0:0:0:0, 1+2:0:0:0:0, 1+1:0:0:0:0, 1+1:0:0:0:0, 1+1:0:0:0:0, 1+3:0:0:0:0, 2+2:0:0:0:0, 2+1:0:0:0:1, 0+0:0:0:0:0, 2+3:0:0:0:1, 1+5:0:0:0:0, 0+0:0:0:0:0, 0+0:0:0:0:0, 0+0:0:0:0:0, 0+0:0:0:0:0, 0+0:0:0:0:0, 0+0:0:0:0:0, 205+287:0:3:0:25
B minor (2#), 2+2:0:0:0:0, 2+1:1:0:0:1, 2+2:0:0:0:0, 2+1:0:0:0:0, 1+1:0:0:0:0, 3+1:0:0:0:0, 1+2:0:0:0:0, 3+2:0:0:0:0, 2+1:0:0:0:1, 2+1:0:0:0:0, 3+3:0:0:0:1, 3+2:0:0:0:0, 2+2:0:0:0:0, 2+3:0:0:0:2, 2+1:0:0:0:0, 2+3:1:0:0:0, 2+1:0:0:0:0, 3+1:0:0:0:0, 2+0:0:0:0:0, 1+1:0:0:0:0, 1+0:0:0:0:0, 0+2:0:0:0:0, 2+0:0:0:0:0, 2+2:0:0:0:0, 1+0:0:0:0:0, 3+1:0:0:0:1, 1+0:0:0:0:0, 1+1:0:0:0:0, 2+1:0:0:0:0, 3+1:0:0:0:0, 3+3:0:0:0:0, 2+2:0:0:0:0, 0+0:0:0:0:0, 1+1:0:0:0:0, 2+3:0:0:0:0, 2+2:0:0:0:0, 2+1:0:0:0:0, 3+2:0:0:0:0, 2+2:0:0:0:0, 2+0:0:0:0:0, 3+1:0:0:0:0, 2+1:0:0:0:0, 3+2:0:0:0:0, 3+3:0:0:0:0, 2+1:0:0:0:0, 0+2:0:0:0:0, 2+1:0:0:0:0, 1+2:0:0:0:0, 2+1:0:0:0:0, 2+1:0:0:0:0, 2+1:0:0:0:0, 2+0:0:0:0:0, 3+1:0:0:0:0, 2+1:0:0:0:0, 3+3:0:0:0:0, 2+3:0:0:0:0, 1+2:0:0:0:0, 0+2:0:0:0:0, 2+1:0:0:0:0, 3+2:0:0:0:0, 3+3:0:0:0:0, 3+3:0:0:0:1, 3+1:0:0:0:0, 1+1:0:0:0:0, 2+1:0:0:0:0, 3+1:0:0:0:0, 3+3:0:0:0:0, 3+1:0:0:0:1, 2+1:0:0:0:0, 1+3:0:0:0:0, 3+3:0:0:0:0, 1+1:0:0:0:0, 2+1:0:0:0:0, 2+1:0:0:0:0, 3+1:0:0:0:0, 1+1:0:0:0:0, 1+0:0:0:0:0, 3+1:0:0:0:0, 1+2:0:0:0:0, 3+2:0:0:0:0, 1+0:0:0:0:0, 2+1:0:0:0:0, 3+4:0:0:0:1, 2+2:0:0:0:0, 1+1:0:0:0:0, 2+0:0:0:0:0, 2+2:0:0:0:0, 2+1:0:0:0:0, 2+1:0:0:0:0, 2+1:0:0:0:0, 3+1:0:0:0:0, 4+3:0:0:0:1, 1+0:0:0:0:0, 2+1:0:0:0:0, 2+0:0:0:0:0, 2+1:0:0:0:0, 1+0:0:0:0:0, 3+1:0:0:0:0, 2+1:0:0:0:0, 1+0:0:0:0:0, 2+1:0:0:0:0, 2+2:0:0:0:1, 2+1:0:0:0:0, 2+2:0:0:0:0, 2+1:0:0:0:0, 2+1:0:0:0:0, 2+3:0:0:0:0, 2+1:0:0:0:0, 1+0:0:0:0:0, 3+1:0:0:0:0, 2+1:0:0:0:0, 1+0:0:0:0:0, 2+1:0:0:0:0, 2+2:0:0:0:1, 2+1:0:0:0:0, 2+2:0:0:0:0, 2+1:0:0:0:0, 2+1:0:0:0:0, 2+3:0:0:0:0, 2+1:0:0:0:0, 2+3:0:0:0:0, 3+2:0:0:0:0, 1+2:0:0:0:0, 2+3:0:0:0:0, 2+1:0:0:0:0, 3+1:0:0:0:0, 3+3:0:0:0:0, 2+2:0:0:0:0, 1+0:0:0:0:0, 0+0:0:0:0:0, 2+3:0:0:0:0, 2+2:0:0:0:0, 2+1:0:0:0:0, 2+2:0:0:0:0, 2+0:0:0:0:0, 2+2:0:0:0:0, 2+1:0:0:0:0, 3+1:0:0:0:0, 3+3:0:0:0:0, 2+2:0:0:0:0, 1+3:0:0:0:0, 1+1:0:0:0:0, 3+2:0:0:0:2, 2+1:0:0:0:0, 1+2:0:0:0:0, 2+2:0:0:0:0, 1+2:0:0:0:0, 2+3:0:0:0:0, 2+1:0:0:0:0, 2+2:0:0:0:1, 2+2:0:0:0:0, 2+3:0:0:0:0, 2+1:0:0:0:1, 2+1:0:0:0:0, 3+3:0:0:0:1, 3+2:0:0:0:0, 3+3:0:0:0:0, 2+0:0:0:0:0, 2+2:0:0:0:0, 2+1:0:0:0:0, 2+0:0:0:0:0, 3+1:0:0:0:0, 1+3:0:0:0:0, 3+2:0:0:0:0, 2+1:0:0:0:1, 0+0:0:0:0:0, 3+3:0:0:0:1, 2+1:0:0:0:0, 1+0:0:0:0:0, 1+0:0:0:0:0, 1+0:0:0:0:0, 1+0:0:0:0:0, 1+0:0:0:0:0, 1+0:0:0:0:0, 343+246:2:0:0:19
Eb major (3b), 2+1:0:0:0:0, 3+1:0:0:0:0, 1+0:0:0:0:0, 3+1:0:0:0:0, 1+0:0:0:0:0, 1+0:0:0:0:0, 1+0:0:0:0:0, 2+1:0:0:0:0, 2+1:0:0:0:0, 2+1:0:0:0:0, 2+1:0:0:0:0, 2+1:0:0:0:0, 0+0:0:0:0:0, 2+2:0:0:0:0, 1+0:0:0:0:0, 2+1:0:0:0:0, 1+1:0:0:0:0, 1+1:0:0:0:1, 1+0:0:0:0:0, 2+0:0:0:0:0, 2+0:0:0:0:0, 1+0:0:0:0:0, 3+1:0:0:0:0, 1+0:0:0:0:0, 0+0:0:0:0:0, 1+0:0:0:0:0, 2+1:0:0:0:0, 1+0:0:0:0:0, 1+1:0:0:0:0, 1+1:0:0:0:1, 2+1:0:0:0:0, 2+0:0:0:0:0, 2+0:0:0:0:0, 1+0:0:0:0:0, 3+1:0:0:0:0, 1+0:0:0:0:0, 1+1:0:0:0:0, 2+1:0:0:0:0, 1+1:0:0:0:0, 1+1:0:0:0:0, 1+1:0:1:0:0, 3+1:0:0:0:0, 2+1:0:0:0:0, 2+1:0:0:0:0, 2+1:0:0:0:0, 1+0:0:0:0:0, 1+1:0:0:0:0, 2+1:0:0:0:0, 2+1:0:0:0:0, 1+1:0:0:0:0, 1+1:0:0:0:0, 1+1:0:0:0:0, 1+1:0:0:0:0, 3+1:0:0:0:0, 2+1:0:0:0:0, 3+2:0:0:0:0, 2+2:0:0:0:0, 1+0:0:0:0:0, 3+1:0:0:0:0, 1+1:0:0:0:0, 1+1:0:0:0:0, 3+1:0:0:0:0, 2+1:0:0:0:0, 1+0:0:0:0:0, 1+1:0:0:0:0, 1+1:0:0:0:1, 2+1:0:0:0:0, 2+1:0:0:0:0, 1+1:0:0:0:0, 1+0:0:0:0:0, 1+0:0:0:0:0, 0+0:0:0:0:0, 1+1:0:0:0:0, 1+0:0:0:0:0, 2+1:0:0:0:0, 1+0:0:0:0:0, 1+0:0:0:0:0, 0+0:0:0:0:0, 2+0:0:0:0:0, 2+1:0:0:0:0, 2+0:0:0:0:0, 2+1:0:0:0:0, 2+1:0:0:0:0, 1+0:0:0:0:0, 1+0:0:0:0:0, 1+0:0:0:0:0, 2+1:0:0:0:0, 1+1:0:0:0:0, 2+1:0:0:0:0, 2+0:0:0:0:0, 2+1:0:0:0:0, 0+1:0:0:0:0, 2+0:0:0:0:0, 2+1:0:0:0:0, 3+1:0:0:0:0, 2+1:0:0:0:0, 0+0:0:0:0:0, 2+1:0:0:0:0, 2+1:0:0:0:0, 1+1:0:0:0:0, 1+1:0:0:0:0, 1+1:0:0:0:1, 1+1:0:0:0:1, 3+1:0:0:0:0, 2+1:0:0:0:0, 2+1:0:0:0:0, 3+1:0:0:0:0, 1+0:0:0:0:0, 0+0:0:0:0:0, 2+1:0:0:0:0, 2+1:0:0:0:0, 1+1:0:0:0:0, 1+1:0:0:0:0, 1+1:0:0:0:1, 1+1:0:0:0:1, 3+1:0:0:0:0, 2+1:0:0:0:0, 2+1:0:0:0:0, 3+1:0:0:0:0, 1+1:0:0:0:0, 0+0:0:0:0:0, 2+1:0:0:0:0, 0+0:0:0:0:0, 1+2:0:0:0:0, 1+1:0:0:0:0, 1+1:0:0:0:1, 2+1:0:0:0:0, 2+0:0:0:0:0, 2+0:0:0:0:0, 1+0:0:0:0:0, 3+1:0:0:0:0, 1+0:0:0:0:0, 1+1:0:0:0:0, 2+1:0:0:0:1, 1+0:0:0:0:0, 1+0:0:0:0:0, 1+1:0:0:0:0, 1+1:0:0:0:1, 2+1:0:0:0:0, 1+0:0:0:0:0, 1+0:0:0:0:0, 2+1:0:0:0:0, 3+2:0:0:0:0, 2+1:0:0:0:1, 1+0:0:0:0:0, 2+1:0:0:0:0, 1+0:0:0:0:0, 1+0:0:0:0:0, 1+0:0:0:0:0, 1+1:0:0:0:1, 1+0:0:0:0:0, 2+1:0:0:0:0, 2+1:0:0:0:0, 2+1:0:0:0:0, 2+1:0:0:0:0, 2+1:0:0:0:0, 2+1:0:0:0:0, 1+0:0:0:0:0, 2+1:0:0:0:0, 1+1:0:0:0:0, 2+0:0:0:0:0, 2+1:0:0:0:0, 1+0:0:0:0:0, 2+1:0:0:0:0, 2+1:0:0:0:0, 0+0:0:0:0:0, 2+1:0:0:0:0, 2+0:0:0:0:0, 0+0:0:0:0:0, 0+0:0:0:0:0, 0+0:0:0:0:0, 0+0:0:0:0:0, 0+0:0:0:0:0, 0+0:0:0:0:0, 258+115:0:1:0:12
A major (3#), 2+1:0:0:0:1, 2+1:0:0:0:0, 3+2:0:0:0:0, 2+1:0:0:0:0, 2+1:0:0:0:0, 3+1:0:0:0:0, 2+1:0:0:0:0, 4+2:0:0:0:0, 2+1:0:0:0:0, 2+3:0:0:0:1, 3+1:0:0:0:0, 3+2:0:0:0:1, 3+2:0:0:0:0, 1+0:0:0:0:0, 3+1:0:0:0:0, 2+3:1:0:0:0, 2+1:0:0:0:0, 3+2:0:0:0:1, 2+0:0:0:0:0, 2+1:0:0:0:0, 1+0:0:0:0:0, 1+3:0:0:0:0, 1+0:0:0:0:0, 3+2:0:0:0:0, 2+3:0:0:0:0, 3+1:0:0:0:1, 1+1:0:0:0:0, 2+1:0:0:0:0, 2+1:0:0:0:0, 3+2:0:0:0:1, 3+3:0:0:0:0, 2+2:0:0:0:0, 1+1:0:0:0:0, 2+2:0:0:0:0, 2+1:0:0:0:0, 3+2:0:0:0:0, 2+1:0:0:0:0, 4+2:0:0:0:0, 3+2:0:0:0:1, 3+2:0:0:0:0, 3+1:0:0:0:0, 2+1:0:0:0:0, 3+2:0:0:0:1, 3+1:0:0:0:0, 2+1:0:0:0:0, 1+3:0:0:0:0, 2+1:0:0:0:0, 2+2:0:0:0:0, 3+3:0:0:0:0, 4+3:0:0:0:0, 4+3:0:0:0:0, 3+2:0:0:0:0, 3+1:0:0:0:0, 2+1:0:0:0:0, 3+2:0:0:0:1, 3+3:0:0:0:0, 1+2:0:0:0:0, 1+2:0:0:0:0, 2+1:0:0:0:0, 3+2:0:0:0:1, 3+2:0:0:0:1, 3+1:0:0:0:0, 3+1:0:0:0:0, 2+1:0:0:0:0, 2+1:0:0:0:0, 3+2:0:0:0:1, 3+3:0:0:0:0, 3+1:0:0:0:1, 1+1:0:0:0:0, 2+3:0:0:0:0, 3+3:0:0:0:0, 2+2:0:0:0:0, 3+2:0:0:0:0, 3+1:0:0:0:0, 3+1:0:0:0:0, 2+1:0:0:0:0, 1+0:0:0:0:0, 4+1:0:0:0:0, 2+1:0:0:0:0, 3+2:0:0:0:0, 1+0:0:0:0:0, 2+5:0:0:0:1, 2+4:1:0:0:0, 3+2:0:0:0:0, 2+1:0:0:0:0, 2+0:0:0:0:0, 3+2:0:0:0:0, 2+1:0:0:0:0, 2+1:0:0:0:0, 3+1:0:0:0:0, 3+1:0:0:0:0, 5+1:0:0:0:0, 1+0:0:0:0:0, 2+3:0:0:0:1, 1+0:0:0:0:0, 3+2:0:0:0:1, 2+2:0:0:0:0, 3+1:0:0:0:0, 3+2:0:0:0:1, 2+2:0:0:0:0, 2+1:0:0:0:0, 3+2:0:0:0:1, 3+3:1:0:0:0, 2+1:0:0:0:0, 2+1:0:0:0:0, 2+3:0:0:0:1, 2+1:0:0:0:0, 3+1:0:0:0:0, 2+2:0:0:0:0, 3+1:0:0:0:0, 3+2:0:0:0:1, 2+2:0:0:0:0, 2+1:0:0:0:0, 3+2:0:0:0:1, 3+3:1:0:0:0, 2+1:0:0:0:0, 2+1:0:0:0:0, 2+3:0:0:0:1, 2+1:0:0:0:0, 3+1:0:0:0:0, 3+3:0:0:0:0, 4+2:0:0:0:0, 1+0:0:0:0:0, 2+3:0:0:0:0, 2+1:0:0:0:0, 3+2:0:0:0:1, 3+3:0:0:0:0, 2+0:0:0:0:0, 2+1:0:0:0:0, 1+2:0:0:0:0, 2+1:0:0:0:0, 3+2:0:0:0:0, 3+2:0:0:0:0, 3+2:0:0:0:1, 2+0:0:0:0:0, 3+2:0:0:0:0, 2+1:0:0:0:0, 3+2:0:0:0:1, 3+3:0:0:0:0, 3+2:0:0:0:0, 1+0:0:0:0:0, 2+3:0:0:0:1, 2+1:0:0:0:0, 3+2:0:0:0:1, 2+1:0:0:0:0, 2+1:0:0:0:1, 2+1:0:0:0:0, 2+3:0:0:0:0, 3+1:0:0:0:0, 3+2:0:0:0:1, 2+2:0:0:0:0, 3+2:0:0:0:0, 2+1:0:0:0:0, 2+3:0:0:0:1, 3+1:0:0:0:0, 3+2:0:0:0:1, 3+3:0:0:0:0, 2+0:0:0:0:0, 3+2:0:0:0:1, 2+1:0:0:0:0, 2+0:0:0:0:0, 2+1:0:0:0:1, 1+0:0:0:0:0, 4+2:0:0:0:0, 2+1:0:0:0:0, 1+6:0:0:0:0, 3+1:0:0:0:0, 3+1:0:0:0:0, 1+0:0:0:0:0, 1+0:0:0:0:0, 1+0:0:0:0:0, 1+0:0:0:0:0, 1+0:0:0:0:0, 1+0:0:0:0:0, 409+268:4:0:0:33
C minor (3b), 2+1:0:0:0:0, 3+1:0:0:0:0, 1+0:0:0:0:0, 3+1:0:0:0:0, 1+0:0:0:0:0, 1+2:0:0:0:0, 1+0:0:0:0:0, 2+1:0:0:0:0, 2+1:0:0:0:0, 2+1:0:0:0:0, 2+1:0:0:0:0, 2+1:0:0:0:0, 0+2:0:0:0:0, 2+2:0:0:0:0, 1+0:0:0:0:0, 2+0:0:0:0:0, 1+3:0:0:0:0, 1+1:0:0:0:0, 1+0:0:0:0:0, 2+0:0:0:0:0, 2+0:0:0:0:0, 1+0:0:0:0:0, 3+1:0:0:0:0, 1+0:0:0:0:0, 0+0:0:0:0:0, 1+1:0:0:0:0, 2+1:0:0:0:0, 1+0:0:0:0:0, 1+1:0:0:0:0, 1+1:0:0:0:0, 2+1:0:0:0:0, 2+0:0:0:0:0, 2+0:0:0:0:0, 1+0:0:0:0:0, 3+1:0:0:0:0, 1+0:0:0:0:0, 1+1:0:0:0:0, 2+1:0:0:0:0, 1+1:0:0:0:0, 1+1:0:0:0:0, 2+1:0:0:0:0, 3+1:0:0:0:0, 2+1:0:0:0:0, 2+1:0:0:0:0, 2+1:0:0:0:0, 1+0:0:0:0:0, 1+1:0:0:0:0, 2+1:0:0:0:0, 2+1:0:0:0:0, 1+1:0:0:0:0, 1+3:0:0:0:0, 1+1:0:0:0:0, 1+3:0:0:0:0, 3+1:0:0:0:0, 2+1:0:0:0:0, 3+2:0:0:0:0, 2+2:0:0:0:0, 1+0:0:0:0:0, 3+1:0:0:0:0, 1+1:0:0:0:0, 1+1:0:0:0:0, 3+1:0:0:0:0, 2+1:0:0:0:0, 1+0:0:0:0:0, 1+1:0:0:0:0, 1+1:0:0:0:0, 2+1:0:0:0:0, 2+1:0:0:0:0, 1+1:0:0:0:0, 1+0:0:0:0:0, 1+2:0:0:0:0, 0+0:0:0:0:0, 1+1:0:0:0:0, 1+0:0:0:0:0, 2+1:0:0:0:0, 1+0:0:0:0:0, 1+0:0:0:0:0, 0+1:0:0:0:0, 2+0:0:0:0:0, 2+1:0:0:0:0, 2+0:0:0:0:0, 2+1:0:0:0:0, 2+1:0:0:0:0, 1+0:0:0:0:0, 1+0:0:0:0:0, 1+0:0:0:0:0, 2+1:0:0:0:0, 1+1:0:0:0:0, 2+1:0:0:0:0, 2+0:0:0:0:0, 2+1:0:0:0:0, 0+1:0:0:0:0, 2+0:0:0:0:0, 2+1:0:0:0:0, 3+1:0:0:0:0, 2+1:0:0:0:0, 0+0:0:0:0:0, 2+1:0:0:0:0, 2+1:0:0:0:0, 1+1:0:0:0:1, 1+3:0:0:0:0, 1+1:0:0:0:0, 1+1:0:0:0:1, 3+1:0:0:0:0, 2+1:0:0:0:0, 2+1:0:0:0:0, 3+1:0:0:0:0, 1+0:0:0:0:0, 0+0:0:0:0:0, 2+1:0:0:0:0, 2+1:0:0:0:0, 1+1:0:0:0:1, 1+3:0:0:0:0, 1+1:0:0:0:0, 1+1:0:0:0:1, 3+1:0:0:0:0, 2+1:0:0:0:0, 2+1:0:0:0:0, 3+1:0:0:0:0, 1+0:0:0:0:0, 0+1:0:0:0:0, 2+1:0:0:0:0, 0+0:0:0:0:0, 1+2:0:0:0:0, 1+3:0:0:0:0, 1+1:0:0:0:0, 2+1:0:0:0:0, 2+0:0:0:0:0, 2+0:0:0:0:0, 1+0:0:0:0:0, 3+1:0:0:0:0, 1+0:0:0:0:0, 1+1:0:0:0:0, 2+1:0:0:0:0, 1+0:0:0:0:0, 1+1:0:0:0:0, 1+1:0:0:0:0, 1+1:0:0:0:0, 2+1:0:0:0:0, 1+0:0:0:0:0, 1+0:0:0:0:0, 2+1:0:0:0:0, 3+2:0:0:0:0, 2+1:0:0:0:0, 1+0:0:0:0:0, 2+1:0:0:0:0, 1+0:0:0:0:0, 1+0:0:0:0:0, 1+0:0:0:0:0, 1+1:0:0:0:0, 1+0:0:0:0:0, 2+1:0:0:0:0, 2+1:0:0:0:0, 2+1:0:0:0:0, 2+1:0:0:0:0, 2+1:0:0:0:0, 2+1:0:0:0:0, 1+0:0:0:0:0, 2+1:0:0:0:0, 1+1:0:0:0:0, 2+0:0:0:0:0, 2+1:0:0:0:0, 1+0:0:0:0:0, 2+1:0:0:0:0, 2+1:0:0:0:0, 0+0:0:0:0:0, 2+1:0:0:0:0, 2+0:0:0:0:0, 0+0:0:0:0:0, 0+0:0:0:0:0, 0+0:0:0:0:0, 0+0:0:0:0:0, 0+0:0:0:0:0, 0+0:0:0:0:0, 259+135:0:0:0:4
F# minor (3#), 2+1:0:0:0:1, 2+1:0:0:0:0, 3+2:0:0:0:0, 2+1:0:0:0:0, 2+1:0:0:0:0, 3+2:0:0:0:1, 2+1:0:0:0:0, 4+2:0:0:0:0, 2+1:0:0:0:0, 2+3:0:0:0:1, 3+1:0:0:0:0, 3+2:0:0:0:1, 3+2:0:0:0:0, 1+0:0:0:0:0, 3+1:0:0:0:0, 2+3:1:0:0:0, 2+1:0:0:0:0, 3+2:0:0:0:1, 2+0:0:0:0:0, 2+1:0:0:0:0, 1+0:0:0:0:0, 1+3:0:0:0:0, 1+2:0:0:0:0, 3+2:0:0:0:0, 2+3:0:0:0:0, 3+1:0:0:0:1, 1+0:0:0:0:0, 2+1:0:0:0:0, 2+1:0:0:0:0, 3+2:0:0:0:1, 2+1:0:0:0:1, 2+2:0:0:0:0, 1+1:0:0:0:0, 2+2:0:0:0:0, 2+1:0:0:0:0, 3+2:0:0:0:0, 2+1:0:0:0:0, 4+2:0:0:0:0, 3+2:0:0:0:1, 3+2:0:0:0:0, 3+1:0:0:0:0, 2+1:0:0:0:0, 3+2:0:0:0:1, 3+1:0:0:0:0, 2+1:0:0:0:0, 1+3:0:0:0:0, 2+1:0:0:0:0, 2+2:0:0:0:0, 2+1:0:0:0:0, 3+1:0:0:0:0, 3+1:0:0:0:0, 3+0:0:0:0:0, 3+1:0:0:0:0, 2+1:0:0:0:0, 3+2:0:0:0:1, 3+3:0:0:0:0, 1+2:0:0:0:0, 1+2:0:0:0:0, 2+1:0:0:0:0, 3+2:0:0:0:1, 3+2:0:0:0:1, 3+1:0:0:0:0, 3+1:0:0:0:0, 2+1:0:0:0:0, 2+1:0:0:0:0, 3+2:0:0:0:1, 2+1:0:0:0:1, 3+1:0:0:0:1, 1+1:0:0:0:0, 2+3:0:0:0:0, 3+3:0:0:0:0, 2+2:0:0:0:0, 3+2:0:0:0:0, 3+1:0:0:0:0, 3+1:0:0:0:0, 2+1:0:0:0:0, 1+0:0:0:0:0, 4+3:0:0:0:1, 2+1:0:0:0:0, 3+2:0:0:0:0, 1+0:0:0:0:0, 2+5:0:0:0:1, 2+1:0:0:0:0, 3+2:0:0:0:0, 2+1:0:0:0:0, 2+0:0:0:0:0, 3+2:0:0:0:0, 2+1:0:0:0:0, 2+1:0:0:0:0, 3+1:0:0:0:0, 3+1:0:0:0:0, 5+1:0:0:0:0, 1+0:0:0:0:0, 2+3:0:0:0:1, 1+3:0:0:0:0, 3+2:0:0:0:1, 2+2:0:0:0:0, 3+1:0:0:0:0, 3+2:0:0:0:1, 2+0:0:0:0:0, 2+1:0:0:0:0, 3+2:0:0:0:1, 3+1:0:0:0:0, 2+2:0:0:0:0, 2+1:0:0:0:0, 2+3:0:0:0:1, 2+1:0:0:0:0, 3+1:0:0:0:0, 2+2:0:0:0:0, 3+1:0:0:0:0, 3+2:0:0:0:1, 2+0:0:0:0:0, 2+1:0:0:0:0, 3+2:0:0:0:1, 3+1:0:0:0:0, 2+2:0:0:0:0, 2+1:0:0:0:0, 2+3:0:0:0:1, 2+1:0:0:0:0, 3+1:0:0:0:0, 3+3:0:0:0:0, 3+2:0:0:0:1, 1+2:0:0:0:0, 2+3:0:0:0:0, 2+1:0:0:0:0, 3+2:0:0:0:1, 2+1:0:0:0:1, 2+0:0:0:0:0, 2+1:0:0:0:0, 1+2:0:0:0:0, 2+1:0:0:0:0, 3+2:0:0:0:0, 3+2:0:0:0:0, 3+2:0:0:0:1, 2+0:0:0:0:0, 3+2:0:0:0:0, 2+1:0:0:0:0, 3+2:0:0:0:1, 2+1:0:0:0:1, 3+2:0:0:0:0, 1+0:0:0:0:0, 2+3:0:0:0:1, 2+2:0:0:0:0, 3+2:0:0:0:1, 2+1:0:0:0:0, 2+1:0:0:0:1, 2+1:0:0:0:0, 2+1:0:0:0:0, 3+1:0:0:0:0, 3+2:0:0:0:1, 2+1:0:0:0:0, 3+2:0:0:0:0, 2+1:0:0:0:0, 2+3:0:0:0:1, 3+1:0:0:0:0, 3+2:0:0:0:1, 2+1:0:0:0:1, 2+0:0:0:0:0, 3+2:0:0:0:1, 2+1:0:0:0:0, 2+0:0:0:0:0, 2+1:0:0:0:1, 1+0:0:0:0:0, 4+2:0:0:0:0, 2+1:0:0:0:0, 1+6:0:0:0:0, 3+1:0:0:0:0, 3+1:0:0:0:0, 1+0:0:0:0:0, 1+0:0:0:0:0, 1+0:0:0:0:0, 1+0:0:0:0:0, 1+0:0:0:0:0, 1+0:0:0:0:0, 400+248:1:0:0:41
Ab major (4b), 2+1:0:0:0:0, 2+1:0:1:0:0, 2+0:0:0:0:0, 3+1:0:0:0:0, 2+0:0:0:0:0, 2+0:0:0:0:0, 2+0:0:0:0:0, 2+1:0:0:0:0, 3+1:0:0:0:0, 3+1:0:0:0:0, 2+1:0:0:0:0, 2+1:0:0:0:0, 0+0:0:0:0:0, 2+2:0:0:0:0, 2+0:0:0:0:0, 3+1:0:0:0:0, 2+1:0:0:0:0, 2+1:0:0:0:0, 2+0:0:0:0:0, 3+1:0:0:0:0, 3+0:0:0:0:0, 2+0:0:0:0:0, 3+1:0:0:0:0, 1+0:0:0:0:0, 0+0:0:0:0:0, 2+1:0:0:0:1, 2+1:0:0:0:0, 2+0:0:0:0:0, 2+1:0:0:0:0, 2+1:0:0:0:0, 2+1:0:0:0:0, 2+0:0:0:0:0, 3+0:0:0:0:0, 2+1:0:0:0:0, 3+1:0:0:0:0, 2+0:0:0:0:0, 2+1:0:0:0:0, 2+1:0:0:0:0, 2+1:0:0:0:0, 1+1:0:0:0:0, 2+1:0:1:0:0, 3+1:0:0:0:0, 2+1:0:0:0:0, 2+1:0:0:0:0, 3+1:0:0:0:0, 2+0:0:0:0:0, 2+1:0:0:0:0, 3+1:0:0:0:0, 2+1:0:0:0:0, 1+1:0:0:0:0, 1+1:0:0:0:0, 1+1:0:0:0:0, 1+1:0:0:0:0, 3+1:0:0:0:0, 2+1:0:0:0:0, 3+2:0:0:0:0, 3+2:0:0:0:0, 2+0:0:0:0:0, 3+1:0:0:0:0, 2+1:0:0:0:0, 2+1:0:0:0:0, 3+1:0:0:0:0, 2+1:0:0:0:0, 2+0:0:0:0:0, 2+1:0:0:0:0, 2+1:0:0:0:0, 2+1:0:0:0:0, 3+1:0:0:0:0, 2+1:0:0:0:0, 2+0:0:0:0:0, 1+0:0:0:0:0, 1+0:0:0:0:0, 2+1:0:0:0:0, 2+0:0:0:0:0, 2+1:0:0:0:0, 2+0:0:0:0:0, 2+0:0:0:0:0, 1+0:0:0:0:0, 2+0:0:0:0:0, 3+1:0:0:0:0, 3+0:0:0:0:0, 2+1:0:0:0:0, 2+1:0:0:0:0, 2+0:0:0:0:0, 2+0:0:0:0:0, 2+0:0:0:0:0, 3+0:0:0:0:0, 2+1:0:0:0:0, 2+1:0:0:0:1, 3+1:0:0:0:0, 2+1:0:0:0:0, 0+1:0:0:0:0, 3+0:0:0:0:0, 2+1:0:0:0:0, 3+1:0:0:0:0, 2+1:0:0:0:0, 0+0:0:0:0:0, 2+1:0:0:0:0, 2+1:0:0:0:0, 1+1:0:0:0:0, 2+1:0:0:0:0, 2+1:0:0:0:0, 1+1:0:0:0:0, 4+2:0:0:0:0, 3+1:0:0:0:0, 3+1:0:0:0:0, 3+1:0:0:0:0, 2+1:0:0:0:0, 0+0:0:0:0:0, 2+1:0:0:0:0, 2+1:0:0:0:0, 1+1:0:0:0:0, 2+1:0:0:0:0, 2+1:0:0:0:0, 1+1:0:0:0:0, 4+2:0:0:0:0, 3+1:0:0:0:0, 3+1:0:0:0:0, 3+1:0:0:0:0, 2+1:0:0:0:0, 0+0:0:0:0:0, 3+1:0:0:0:0, 1+0:0:0:0:0, 1+2:0:0:0:0, 2+1:0:0:0:0, 2+1:0:0:0:0, 2+1:0:0:0:0, 3+0:0:0:0:0, 3+0:0:0:0:0, 2+0:0:0:0:0, 3+1:0:0:0:0, 2+0:0:0:0:0, 2+1:0:0:0:0, 3+1:0:0:0:0, 2+0:0:0:0:0, 2+0:0:0:0:0, 2+1:0:0:0:0, 2+1:0:0:0:0, 2+1:0:0:0:0, 1+0:0:0:0:0, 2+1:0:0:0:0, 3+1:0:0:0:0, 4+2:0:0:0:0, 2+1:0:0:0:0, 2+0:0:0:0:0, 3+1:0:0:0:0, 2+0:0:0:0:0, 2+0:0:0:0:0, 1+0:0:0:0:0, 2+1:0:0:0:1, 2+0:0:0:0:0, 3+1:0:0:0:0, 3+1:0:0:0:0, 2+1:0:0:0:0, 2+1:0:0:0:0, 2+1:0:0:0:0, 2+1:0:0:0:0, 1+0:0:0:0:0, 3+1:0:0:0:0, 2+1:0:0:0:0, 3+0:0:0:0:0, 2+1:0:0:0:0, 2+0:0:0:0:0, 3+1:0:0:0:0, 3+1:0:0:0:0, 1+0:0:0:0:0, 2+1:0:0:0:0, 2+1:0:0:0:0, 0+0:0:0:0:0, 0+0:0:0:0:0, 0+0:0:0:0:0, 0+0:0:0:0:0, 0+0:0:0:0:0, 0+0:0:0:0:0, 354+123:0:2:0:3
E major (4#), 2+2:0:0:0:0, 2+1:1:0:0:1, 4+2:0:0:0:0, 2+1:0:0:0:0, 3+1:0:0:0:0, 3+2:0:0:0:0, 3+1:0:0:0:0, 3+2:0:0:0:0, 3+1:0:0:0:0, 3+2:0:0:0:0, 3+1:0:0:0:0, 3+2:0:0:0:1, 3+2:0:0:0:0, 1+0:0:0:0:0, 4+1:0:0:0:0, 3+2:1:0:0:1, 3+1:0:0:0:0, 4+2:0:0:0:1, 3+0:0:0:0:0, 3+1:0:0:0:0, 2+0:0:0:0:0, 2+2:0:0:0:0, 1+2:0:0:0:0, 3+2:0:0:0:0, 2+0:0:0:0:0, 3+1:0:0:0:0, 1+0:0:0:0:0, 3+1:0:0:0:0, 3+1:0:0:0:0, 4+2:0:0:0:1, 2+1:0:0:0:0, 2+2:0:0:0:0, 2+3:0:0:0:0, 3+2:0:0:0:0, 1+2:0:0:0:0, 4+4:0:0:0:0, 3+1:0:0:0:0, 4+2:0:0:0:0, 4+2:0:0:0:0, 2+0:0:0:0:0, 4+1:0:0:0:0, 2+1:0:0:0:0, 3+1:0:0:0:0, 2+1:0:0:0:0, 3+1:0:0:0:0, 2+2:0:0:0:0, 3+1:0:0:0:0, 3+2:0:0:0:0, 2+1:0:0:0:0, 3+1:0:0:0:0, 3+1:0:0:0:0, 2+0:0:0:0:0, 2+1:0:0:0:0, 1+1:0:0:0:0, 3+1:0:0:0:0, 3+3:0:0:0:0, 2+2:0:0:0:0, 2+2:0:0:0:0, 1+2:0:0:0:0, 4+3:0:0:0:0, 4+2:0:0:0:0, 3+1:0:0:0:0, 3+1:0:0:0:0, 3+1:0:0:0:0, 3+1:0:0:0:0, 4+2:0:0:0:1, 2+1:0:0:0:0, 3+1:0:0:0:0, 2+1:0:0:0:0, 3+3:0:0:0:0, 2+3:1:0:0:1, 3+1:0:0:0:0, 4+1:0:0:0:0, 4+1:0:0:0:0, 3+1:0:0:0:0, 3+1:0:0:0:0, 2+0:0:0:0:0, 4+3:0:0:0:0, 2+0:0:0:0:0, 4+2:0:0:0:0, 2+0:0:0:0:0, 2+1:0:0:0:0, 2+1:0:0:0:0, 4+2:0:0:0:0, 3+1:0:0:0:0, 3+0:0:0:0:0, 4+2:0:0:0:0, 3+1:0:0:0:0, 1+2:0:0:0:0, 4+2:0:0:0:0, 3+1:0:0:0:0, 5+1:0:0:0:0, 2+0:0:0:0:0, 2+1:0:0:0:0, 1+3:0:0:0:0, 3+1:0:0:0:0, 2+0:0:0:0:0, 3+1:0:0:0:0, 3+1:0:0:0:0, 2+0:0:0:0:0, 3+1:0:0:0:0, 4+2:0:0:0:1, 3+1:0:0:0:0, 3+2:0:0:0:0, 3+1:0:0:0:0, 3+2:0:0:0:0, 1+2:0:0:0:0, 4+2:0:0:0:0, 2+0:0:0:0:0, 3+1:0:0:0:0, 3+1:0:0:0:0, 2+0:0:0:0:0, 3+1:0:0:0:0, 4+2:0:0:0:1, 3+1:0:0:0:0, 3+2:0:0:0:0, 3+1:0:0:0:0, 3+2:0:0:0:0, 1+2:0:0:0:0, 4+2:0:0:0:0, 3+3:0:0:0:0, 4+2:0:0:0:0, 2+2:0:0:0:0, 1+3:0:0:0:0, 3+1:0:0:0:0, 4+2:0:0:0:1, 2+1:0:0:0:0, 3+0:0:0:0:0, 3+1:0:0:0:0, 2+2:0:0:0:0, 1+2:0:0:0:0, 4+4:0:0:0:0, 4+1:0:0:0:0, 4+2:0:0:0:0, 3+0:0:0:0:0, 4+2:0:0:0:0, 3+1:0:0:0:0, 4+2:0:0:0:1, 2+1:0:0:0:0, 3+2:0:0:0:0, 2+3:0:0:0:0, 3+2:0:0:0:0, 3+1:0:0:0:0, 3+1:0:0:0:0, 3+2:0:0:0:0, 3+2:0:0:0:0, 3+2:0:0:0:0, 3+1:0:0:0:0, 3+1:0:0:0:0, 3+2:0:0:0:0, 3+1:0:0:0:0, 4+2:0:0:0:0, 3+1:0:0:0:0, 2+1:0:0:0:0, 3+1:0:0:0:0, 3+1:0:0:0:0, 2+1:0:0:0:0, 2+0:0:0:0:0, 4+2:0:0:0:0, 3+1:0:0:0:0, 3+0:0:0:0:0, 2+1:0:0:0:1, 2+1:0:0:0:0, 5+2:0:0:0:0, 3+1:0:0:0:0, 2+2:0:0:0:0, 3+1:0:0:0:0, 3+1:0:0:0:0, 1+0:0:0:0:0, 1+0:0:0:0:0, 1+0:0:0:0:0, 1+0:0:0:0:0, 1+0:0:0:0:0, 1+0:0:0:0:0, 478+232:3:0:0:12
F minor (4b), 2+1:0:0:0:0, 3+1:0:0:0:0, 2+0:0:0:0:0, 3+1:0:0:0:0, 2+0:0:0:0:0, 2+1:0:0:0:0, 2+0:0:0:0:0, 2+1:0:0:0:0, 3+1:0:0:0:0, 3+1:0:0:0:0, 2+1:0:0:0:0, 2+1:0:0:0:0, 0+0:0:0:0:0, 2+2:0:0:0:0, 2+0:0:0:0:0, 3+1:0:0:0:0, 2+1:0:0:0:0, 2+1:0:0:0:0, 2+0:0:0:0:0, 3+0:0:0:0:0, 3+0:0:0:0:0, 2+0:0:0:0:0, 3+1:0:0:0:0, 1+0:0:0:0:0, 0+0:0:0:0:0, 2+1:0:0:0:0, 2+1:0:0:0:0, 2+0:0:0:0:0, 2+1:0:0:0:0, 2+1:0:0:0:0, 2+1:0:0:0:0, 2+0:0:0:0:0, 3+0:0:0:0:0, 2+1:0:0:0:0, 3+1:0:0:0:0, 2+0:0:0:0:0, 2+1:0:0:0:0, 2+1:0:0:0:0, 2+1:0:0:0:0, 1+1:0:0:0:0, 3+1:0:0:0:0, 3+1:0:0:0:0, 2+1:0:0:0:0, 2+1:0:0:0:0, 3+1:0:0:0:0, 2+0:0:0:0:0, 2+1:0:0:0:0, 3+1:0:0:0:0, 2+1:0:0:0:0, 1+1:0:0:0:0, 1+1:0:0:0:0, 1+1:0:0:0:0, 1+1:0:0:0:0, 3+1:0:0:0:0, 2+1:0:0:0:0, 3+2:0:0:0:0, 3+2:0:0:0:0, 2+0:0:0:0:0, 3+1:0:0:0:0, 2+1:0:0:0:0, 2+1:0:0:0:0, 3+1:0:0:0:0, 2+1:0:0:0:0, 2+0:0:0:0:0, 2+1:0:0:0:0, 2+1:0:0:0:0, 2+1:0:0:0:0, 3+1:0:0:0:0, 2+1:0:0:0:0, 2+0:0:0:0:0, 1+1:0:0:0:0, 1+0:0:0:0:0, 2+1:0:0:0:0, 2+0:0:0:0:0, 2+1:0:0:0:0, 2+0:0:0:0:0, 2+0:0:0:0:0, 1+0:0:0:0:0, 2+0:0:0:0:0, 3+1:0:0:0:0, 3+0:0:0:0:0, 2+1:0:0:0:0, 2+1:0:0:0:0, 2+0:0:0:0:0, 2+0:0:0:0:0, 2+0:0:0:0:0, 3+0:0:0:0:0, 2+1:0:0:0:0, 2+1:0:0:0:0, 3+0:0:0:0:0, 2+1:0:0:0:0, 0+1:0:0:0:0, 3+0:0:0:0:0, 2+1:0:0:0:0, 3+1:0:0:0:0, 2+1:0:0:0:0, 0+0:0:0:0:0, 2+1:0:0:0:0, 2+1:0:0:0:0, 1+1:0:0:0:0, 2+1:0:0:0:0, 2+1:0:0:0:0, 1+1:0:0:0:0, 4+1:0:0:0:0, 3+1:0:0:0:0, 3+1:0:0:0:0, 3+1:0:0:0:0, 2+1:0:0:0:0, 0+0:0:0:0:0, 2+1:0:0:0:0, 2+1:0:0:0:0, 1+1:0:0:0:0, 2+1:0:0:0:0, 2+1:0:0:0:0, 1+1:0:0:0:0, 4+1:0:0:0:0, 3+1:0:0:0:0, 3+1:0:0:0:0, 3+1:0:0:0:0, 2+1:0:0:0:0, 0+0:0:0:0:0, 3+1:0:0:0:0, 1+0:0:0:0:0, 1+2:0:0:0:0, 2+1:0:0:0:0, 2+1:0:0:0:0, 2+1:0:0:0:0, 3+0:0:0:0:0, 3+0:0:0:0:0, 2+0:0:0:0:0, 3+1:0:0:0:0, 2+0:0:0:0:0, 2+1:0:0:0:0, 3+1:0:0:0:0, 2+0:0:0:0:0, 2+0:0:0:0:0, 2+1:0:0:0:0, 2+1:0:0:0:0, 2+1:0:0:0:0, 1+0:0:0:0:0, 2+0:0:0:0:0, 3+1:0:0:0:0, 4+2:0:0:0:0, 2+1:0:0:0:0, 2+0:0:0:0:0, 3+1:0:0:0:0, 2+0:0:0:0:0, 2+0:0:0:0:0, 1+0:0:0:0:0, 2+1:0:0:0:0, 2+0:0:0:0:0, 3+1:0:0:0:0, 3+1:0:0:0:0, 2+1:0:0:0:0, 2+1:0:0:0:0, 2+1:0:0:0:0, 2+1:0:0:0:0, 1+0:0:0:0:0, 3+1:0:0:0:0, 2+1:0:0:0:0, 3+0:0:0:0:0, 2+1:0:0:0:0, 2+0:0:0:0:0, 3+1:0:0:0:0, 3+1:0:0:0:0, 1+0:0:0:0:0, 2+1:0:0:0:0, 2+1:0:0:0:0, 0+0:0:0:0:0, 0+0:0:0:0:0, 0+0:0:0:0:0, 0+0:0:0:0:0, 0+0:0:0:0:0, 0+0:0:0:0:0, 356+120:0:0:0:0
C# minor (4#), 2+2:0:0:0:2, 2+1:1:0:0:1, 4+2:0:0:0:0, 2+1:0:0:0:0, 3+1:0:0:0:0, 3+1:1:0:0:1, 3+1:0:0:0:0, 3+2:0:0:0:0, 3+1:0:0:0:0, 3+2:0:0:0:0, 3+1:0:0:0:0, 3+1:0:0:0:0, 3+2:0:0:0:0, 1+1:0:0:0:0, 4+1:0:0:0:0, 3+2:1:0:0:1, 3+1:0:0:0:0, 4+2:0:0:0:1, 3+0:0:0:0:0, 3+1:0:0:0:0, 2+3:0:0:0:0, 2+2:0:0:0:0, 1+2:0:0:0:0, 3+2:0:0:0:0, 2+0:0:0:0:0, 3+1:0:0:0:0, 1+0:0:0:0:0, 3+1:0:0:0:0, 3+1:0:0:0:0, 4+2:0:0:0:1, 2+1:0:0:0:0, 2+2:2:0:0:2, 2+3:0:0:0:0, 3+2:0:0:0:0, 1+2:0:0:0:0, 4+4:0:0:0:0, 3+1:0:0:0:0, 4+2:0:0:0:0, 4+2:0:0:0:0, 2+0:0:0:0:0, 4+1:0:0:0:0, 2+1:0:0:0:0, 3+1:0:0:0:0, 2+1:0:0:0:0, 3+1:0:0:0:0, 2+2:0:0:0:0, 3+1:0:0:0:0, 3+2:0:0:0:0, 2+1:0:0:0:0, 3+1:0:0:0:0, 3+1:0:0:0:0, 2+0:0:0:0:0, 2+1:0:0:0:0, 1+2:0:0:0:0, 3+1:0:0:0:0, 3+3:0:0:0:0, 2+2:0:0:0:0, 2+2:0:0:0:0, 1+2:0:0:0:0, 4+3:0:0:0:0, 4+2:0:0:0:0, 3+1:0:0:0:0, 3+1:0:0:0:0, 3+1:0:0:0:0, 3+1:0:0:0:0, 4+2:0:0:0:1, 2+1:0:0:0:0, 3+1:0:0:0:0, 2+1:0:0:0:0, 3+3:0:0:0:0, 2+3:1:0:0:1, 3+1:0:0:0:0, 4+1:0:0:0:0, 4+1:0:0:0:0, 3+1:0:0:0:0, 3+1:0:0:0:0, 2+0:0:0:0:0, 5+1:0:0:0:0, 2+0:0:0:0:0, 4+3:1:0:0:1, 2+4:0:0:0:0, 2+1:0:0:0:0, 3+4:0:0:0:0, 4+2:0:0:0:0, 3+1:0:0:0:0, 3+0:0:0:0:0, 4+2:0:0:0:0, 3+1:0:0:0:0, 1+2:0:0:0:0, 4+2:0:0:0:0, 3+1:0:0:0:0, 5+1:0:0:0:0, 2+0:0:0:0:0, 2+1:0:0:0:0, 1+3:0:0:0:0, 3+1:0:0:0:0, 2+0:0:0:0:0, 3+1:0:0:0:0, 3+1:0:0:0:0, 2+0:0:0:0:0, 3+1:0:0:0:0, 4+2:0:0:0:1, 3+1:0:0:0:0, 3+2:0:0:0:0, 2+3:0:1:0:1, 3+2:0:0:0:0, 1+2:0:0:0:0, 4+2:0:0:0:0, 2+0:0:0:0:0, 3+1:0:0:0:0, 3+1:0:0:0:0, 2+0:0:0:0:0, 3+1:0:0:0:0, 4+2:0:0:0:1, 3+1:0:0:0:0, 3+2:0:0:0:0, 2+3:0:1:0:1, 3+2:0:0:0:0, 1+2:0:0:0:0, 4+2:0:0:0:0, 3+3:0:0:0:0, 4+2:0:0:0:0, 2+2:0:0:0:0, 1+3:0:0:0:0, 3+1:0:0:0:0, 4+2:0:0:0:1, 2+1:0:0:0:0, 3+0:0:0:0:0, 3+1:0:0:0:0, 2+2:0:0:0:0, 1+2:0:0:0:0, 4+4:0:0:0:0, 4+1:0:0:0:0, 4+2:0:0:0:0, 3+0:0:0:0:0, 4+2:0:0:0:0, 3+1:0:0:0:0, 4+2:0:0:0:1, 2+1:0:0:0:0, 3+1:0:0:0:0, 2+3:0:0:0:0, 3+1:0:0:0:0, 3+2:0:0:0:2, 3+1:0:0:0:0, 3+2:0:0:0:0, 3+2:0:0:0:0, 3+2:0:0:0:0, 3+3:0:0:0:0, 3+1:0:0:0:0, 3+2:0:0:0:0, 3+2:0:0:0:0, 4+2:0:0:0:0, 3+1:0:0:0:0, 2+1:0:0:0:0, 3+1:0:0:0:0, 3+1:0:0:0:0, 2+1:0:0:0:0, 2+1:0:0:0:0, 4+2:0:0:0:0, 3+1:0:0:0:0, 3+0:0:0:0:0, 2+1:0:0:0:1, 2+1:0:0:0:0, 5+2:0:0:0:0, 3+1:0:0:0:0, 2+2:0:0:0:0, 3+1:0:0:0:0, 3+1:0:0:0:0, 1+0:0:0:0:0, 1+0:0:0:0:0, 1+0:0:0:0:0, 1+0:0:0:0:0, 1+0:0:0:0:0, 1+0:0:0:0:0, 478+248:7:2:0:21
Db major (5b), 2+1:0:0:0:0, 2+1:0:1:0:0, 3+0:0:0:0:0, 3+1:0:0:0:0, 3+0:0:0:0:0, 2+0:0:0:0:0, 3+0:0:0:0:0, 3+1:0:0:0:0, 2+1:0:0:0:0, 4+1:0:0:0:1, 1+1:0:0:0:0, 3+1:0:0:0:1, 1+0:0:0:0:0, 2+2:0:0:0:0, 3+0:0:0:0:0, 2+1:0:0:0:0, 2+1:0:0:0:0, 3+1:0:0:0:1, 2+0:0:0:0:0, 4+0:0:0:0:0, 3+0:0:0:0:0, 3+0:0:0:0:0, 3+1:0:0:0:0, 2+0:0:0:0:0, 1+0:0:0:0:0, 2+1:0:0:0:1, 1+1:0:0:0:0, 3+0:0:0:0:0, 2+1:0:0:0:0, 3+1:0:0:0:1, 2+1:0:0:0:0, 2+1:0:0:0:0, 4+0:0:0:0:0, 3+1:0:0:0:0, 3+1:0:0:0:0, 3+0:0:0:0:0, 2+1:0:0:0:0, 3+1:0:0:0:0, 3+1:0:0:0:1, 2+1:0:0:0:0, 2+1:0:1:0:0, 2+1:0:0:0:0, 3+1:0:0:0:1, 1+1:0:1:0:1, 2+1:0:0:0:0, 3+0:0:0:0:0, 2+0:0:0:0:0, 4+0:0:0:0:0, 2+1:0:0:0:0, 2+1:0:0:0:1, 2+1:0:0:0:1, 2+1:0:0:0:0, 1+1:0:0:0:0, 3+1:0:0:0:0, 3+1:0:0:0:0, 3+1:0:1:0:0, 3+2:0:0:0:0, 3+0:0:0:0:0, 3+1:0:0:0:0, 3+1:0:0:0:1, 3+1:0:0:0:1, 2+1:0:0:0:0, 1+1:0:0:0:0, 3+0:0:0:0:0, 2+1:0:0:0:0, 3+1:0:0:0:1, 2+1:0:0:0:0, 3+1:0:0:0:0, 2+1:0:0:0:0, 3+1:0:0:0:0, 1+0:0:0:0:0, 2+0:0:0:0:0, 3+1:0:0:0:0, 3+0:0:0:0:0, 1+1:0:0:0:0, 3+0:0:0:0:0, 2+0:0:0:0:0, 2+0:0:0:0:0, 3+0:0:0:0:0, 3+1:0:0:0:0, 3+0:0:0:0:0, 3+1:0:0:0:1, 2+1:0:0:0:0, 3+0:0:0:0:0, 3+0:0:0:0:0, 2+0:0:0:0:0, 4+1:0:0:0:0, 2+1:0:0:0:0, 2+1:0:0:0:1, 4+1:0:0:0:0, 1+1:0:0:0:0, 1+1:0:0:0:0, 3+0:0:0:0:0, 3+1:0:0:0:1, 3+1:0:0:0:0, 3+1:0:0:0:1, 1+0:0:0:0:0, 1+1:0:0:0:0, 3+1:0:0:0:1, 2+1:0:0:0:0, 2+1:0:0:0:0, 3+1:0:0:0:1, 2+1:0:0:0:0, 4+1:0:0:0:0, 2+1:0:0:0:0, 4+1:0:0:0:1, 3+1:0:0:0:0, 3+1:0:0:0:0, 1+0:0:0:0:0, 1+1:0:0:0:0, 3+1:0:0:0:1, 2+1:0:0:0:0, 2+1:0:0:0:0, 3+1:0:0:0:1, 2+1:0:0:0:0, 4+1:0:0:0:0, 2+1:0:0:0:0, 4+1:0:0:0:1, 3+1:0:0:0:0, 3+1:0:0:0:0, 1+0:0:0:0:0, 4+1:0:0:0:0, 1+0:0:0:0:0, 1+2:0:0:0:0, 2+1:0:0:0:0, 3+1:0:0:0:1, 2+1:0:0:0:0, 3+0:0:0:0:0, 4+0:0:0:0:0, 3+0:0:0:0:0, 3+1:0:0:0:0, 3+0:0:0:0:0, 3+1:0:0:0:0, 4+1:0:0:0:1, 2+0:0:0:0:0, 3+1:0:0:0:0, 2+1:0:0:0:0, 3+1:0:0:0:1, 2+1:0:0:0:0, 2+0:0:0:0:0, 2+0:0:0:0:0, 4+1:0:0:0:0, 4+2:0:0:0:0, 3+1:0:0:0:1, 3+0:0:0:0:0, 3+1:0:0:0:1, 3+0:0:0:0:0, 2+0:0:0:0:0, 2+0:0:0:0:0, 3+1:0:0:0:1, 2+0:0:0:0:0, 4+1:0:0:0:0, 2+1:0:0:0:0, 3+1:0:0:0:1, 1+1:0:0:0:0, 3+1:0:0:0:1, 2+1:0:0:0:0, 1+0:0:0:0:0, 4+1:0:0:0:1, 2+1:0:0:0:0, 3+0:0:0:0:0, 2+1:0:0:0:1, 2+0:0:0:0:0, 4+1:0:0:0:0, 2+1:0:0:0:0, 2+0:0:0:0:0, 1+1:0:0:0:0, 3+1:0:0:0:1, 0+0:0:0:0:0, 0+0:0:0:0:0, 0+0:0:0:0:0, 0+0:0:0:0:0, 0+0:0:0:0:0, 0+0:0:0:0:0, 421+120:0:4:0:34
B major (5#), 1+2:0:0:0:0, 2+1:0:0:0:0, 4+2:0:0:0:0, 1+2:0:0:0:0, 3+3:0:0:0:3, 4+1:1:0:0:1, 3+1:0:0:0:0, 3+2:0:0:0:0, 3+1:0:0:0:0, 4+2:0:0:0:0, 3+1:0:0:0:0, 5+2:0:0:0:0, 3+2:0:0:0:0, 2+1:0:0:0:0, 4+1:0:0:0:0, 4+3:1:0:0:0, 3+1:0:0:0:0, 3+2:1:0:0:1, 3+0:0:0:0:0, 3+1:0:0:0:0, 3+3:0:0:0:1, 2+0:0:0:0:0, 2+2:0:0:0:0, 3+2:0:0:0:0, 2+0:0:0:0:0, 3+1:0:0:0:0, 1+0:0:0:0:0, 3+1:0:0:0:0, 3+1:0:0:0:0, 3+2:0:0:0:2, 1+2:0:0:0:0, 2+3:0:0:0:0, 3+1:0:0:0:0, 3+1:0:0:0:1, 2+2:0:0:0:0, 4+4:0:0:0:0, 3+1:0:0:0:0, 4+2:0:0:0:0, 3+2:0:0:0:0, 2+0:0:0:0:0, 3+1:0:0:0:1, 3+1:0:0:0:0, 4+1:0:0:0:0, 2+1:0:0:0:0, 4+1:0:0:0:0, 2+2:0:0:0:0, 4+1:0:0:0:0, 3+2:0:0:0:0, 1+2:0:0:0:0, 2+1:0:0:0:0, 2+1:0:0:0:0, 2+0:0:0:0:0, 2+1:0:0:0:0, 1+2:0:0:0:0, 2+1:0:0:0:0, 3+3:0:0:0:2, 2+2:0:0:0:0, 2+0:0:0:0:0, 2+2:0:0:0:0, 3+3:0:0:0:0, 3+2:0:0:0:0, 4+1:0:0:0:0, 3+1:0:0:0:0, 3+1:0:0:0:0, 3+1:0:0:0:0, 3+2:1:0:0:1, 1+4:1:0:0:1, 3+1:0:0:0:0, 2+1:0:0:0:0, 3+3:0:0:0:0, 3+3:1:0:0:1, 3+1:0:0:0:0, 4+1:0:0:0:0, 4+1:0:0:0:0, 3+1:0:0:0:0, 3+1:0:0:0:0, 2+0:0:0:0:0, 4+1:1:0:0:1, 3+2:0:0:0:0, 5+2:0:0:0:0, 3+2:0:0:0:1, 3+1:0:0:0:0, 2+4:0:0:0:0, 4+2:0:0:0:0, 3+1:0:0:0:0, 4+0:0:0:0:0, 5+2:0:0:0:0, 3+1:0:0:0:0, 2+2:0:0:0:0, 5+2:0:0:0:0, 3+1:0:0:0:0, 5+1:0:0:0:0, 3+0:0:0:0:0, 3+1:0:0:0:0, 2+3:0:0:0:0, 4+1:0:0:0:0, 2+0:0:0:0:0, 3+1:0:0:0:0, 4+1:0:0:0:0, 2+0:0:0:0:0, 3+1:0:0:0:0, 3+2:0:0:0:1, 3+1:0:0:0:0, 3+2:0:0:0:0, 2+1:0:1:0:0, 4+1:0:0:0:0, 2+2:0:0:0:0, 4+2:0:0:0:0, 2+0:0:0:0:0, 3+1:0:0:0:0, 4+1:0:0:0:0, 2+0:0:0:0:0, 3+1:0:0:0:0, 3+2:0:0:0:1, 3+1:0:0:0:0, 3+2:0:0:0:0, 2+1:0:1:0:0, 4+1:0:0:0:0, 2+2:0:0:0:0, 4+2:0:0:0:0, 3+3:0:0:0:0, 3+2:0:0:0:0, 2+2:0:0:0:0, 1+3:0:0:0:0, 3+3:0:0:0:2, 3+2:0:0:0:2, 1+2:0:0:0:0, 4+4:0:0:0:1, 4+2:0:0:0:1, 2+0:0:0:0:0, 2+2:0:0:0:0, 4+4:0:0:0:0, 4+1:0:0:0:0, 5+2:0:0:0:0, 3+0:0:0:0:0, 4+2:0:0:0:0, 3+1:0:0:0:0, 3+2:1:0:0:1, 1+4:1:0:0:1, 3+2:0:0:0:0, 2+3:0:0:0:0, 4+1:0:0:0:0, 4+2:0:0:0:2, 4+1:0:0:0:0, 3+2:0:0:0:0, 4+2:0:0:0:0, 3+2:0:0:0:0, 4+3:0:0:0:0, 4+1:0:0:0:0, 3+2:0:0:0:0, 4+2:0:0:0:0, 4+3:0:0:0:0, 2+1:0:1:0:0, 3+1:0:0:0:0, 3+1:0:0:0:0, 4+1:0:0:0:0, 1+2:0:0:0:0, 2+1:0:0:0:0, 5+2:0:0:0:0, 3+1:0:0:0:0, 4+0:0:0:0:0, 3+1:0:0:0:1, 2+1:0:0:0:0, 5+2:0:0:0:0, 3+1:0:0:0:0, 2+2:0:0:0:0, 3+1:0:0:0:0, 4+1:0:0:0:0, 1+0:0:0:0:0, 1+0:0:0:0:0, 1+0:0:0:0:0, 1+0:0:0:0:0, 1+0:0:0:0:0, 1+0:0:0:0:0, 504+257:9:3:0:30
Bb minor (5b), 2+1:0:0:0:0, 2+1:0:1:0:0, 3+0:0:0:0:0, 3+1:0:0:0:0, 3+0:0:0:0:0, 2+0:0:0:0:0, 3+0:0:0:0:0, 3+1:0:0:0:0, 2+1:0:0:0:0, 4+1:0:0:0:0, 1+1:0:0:0:0, 3+1:0:0:0:0, 1+0:0:0:0:0, 2+2:0:0:0:0, 3+0:0:0:0:0, 2+1:0:0:0:0, 2+1:0:0:0:0, 3+1:0:0:0:1, 2+0:0:0:0:0, 4+1:0:0:0:0, 3+0:0:0:0:0, 3+0:0:0:0:0, 3+1:0:0:0:0, 2+0:0:0:0:0, 1+0:0:0:0:0, 2+1:0:0:0:1, 1+1:0:0:0:0, 3+0:0:0:0:0, 2+1:0:0:0:0, 3+1:0:0:0:1, 2+1:0:0:0:0, 2+0:0:0:0:0, 4+0:0:0:0:0, 3+1:0:0:0:0, 3+1:0:0:0:0, 3+0:0:0:0:0, 2+1:0:0:0:0, 3+1:0:0:0:0, 3+1:0:0:0:0, 2+1:0:0:0:0, 2+1:0:1:0:0, 2+1:0:0:0:0, 3+1:0:0:0:0, 2+1:0:0:0:0, 2+1:0:0:0:0, 3+0:0:0:0:0, 2+0:0:0:0:0, 4+0:0:0:0:0, 2+1:0:0:0:0, 2+1:0:0:0:0, 2+1:0:0:0:0, 2+1:0:0:0:0, 1+1:0:0:0:0, 3+1:0:0:0:0, 3+1:0:0:0:0, 3+1:0:1:0:0, 3+2:0:0:0:0, 3+0:0:0:0:0, 3+1:0:0:0:0, 3+1:0:0:0:0, 3+1:0:0:0:0, 2+1:0:0:0:0, 1+1:0:0:0:0, 3+0:0:0:0:0, 2+1:0:0:0:0, 3+1:0:0:0:1, 2+1:0:0:0:0, 3+1:0:0:0:0, 2+1:0:0:0:0, 3+1:0:0:0:0, 1+0:0:0:0:0, 2+0:0:0:0:0, 3+1:0:0:0:0, 3+0:0:0:0:0, 1+1:0:0:0:0, 3+0:0:0:0:0, 2+0:0:0:0:0, 2+0:0:0:0:0, 3+0:0:0:0:0, 3+1:0:0:0:0, 3+0:0:0:0:0, 3+1:0:0:0:0, 2+1:0:0:0:0, 3+0:0:0:0:0, 3+0:0:0:0:0, 2+0:0:0:0:0, 4+1:0:0:0:0, 2+1:0:0:0:0, 2+1:0:0:0:1, 4+1:0:0:0:0, 1+1:0:0:0:0, 1+1:0:0:0:0, 3+0:0:0:0:0, 3+1:0:0:0:0, 3+1:0:0:0:0, 3+1:0:0:0:0, 1+0:0:0:0:0, 1+1:0:0:0:0, 3+1:0:0:0:0, 2+1:0:0:0:0, 2+1:0:0:0:0, 3+1:0:0:0:1, 2+1:0:0:0:0, 4+2:0:0:0:0, 2+1:0:0:0:0, 4+1:0:0:0:0, 3+1:0:0:0:0, 3+1:0:0:0:0, 1+0:0:0:0:0, 1+1:0:0:0:0, 3+1:0:0:0:0, 2+1:0:0:0:0, 2+1:0:0:0:0, 3+1:0:0:0:1, 2+1:0:0:0:0, 4+2:0:0:0:0, 2+1:0:0:0:0, 4+1:0:0:0:0, 3+1:0:0:0:0, 3+1:0:0:0:0, 1+0:0:0:0:0, 4+1:0:0:0:0, 1+0:0:0:0:0, 1+2:0:0:0:0, 2+1:0:0:0:0, 3+1:0:0:0:1, 2+1:0:0:0:0, 3+0:0:0:0:0, 4+0:0:0:0:0, 3+0:0:0:0:0, 3+1:0:0:0:0, 3+0:0:0:0:0, 3+1:0:0:0:0, 4+1:0:0:0:1, 2+0:0:0:0:0, 3+0:0:0:0:0, 2+1:0:0:0:0, 3+1:0:0:0:1, 2+1:0:0:0:0, 2+0:0:0:0:0, 2+1:0:0:0:0, 4+1:0:0:0:0, 4+2:0:0:0:0, 3+1:0:0:0:1, 3+0:0:0:0:0, 3+1:0:0:0:0, 3+0:0:0:0:0, 2+0:0:0:0:0, 2+0:0:0:0:0, 3+1:0:0:0:1, 2+0:0:0:0:0, 4+1:0:0:0:0, 2+1:0:0:0:0, 3+1:0:0:0:0, 1+1:0:0:0:0, 3+1:0:0:0:0, 2+1:0:0:0:0, 1+0:0:0:0:0, 4+1:0:0:0:0, 2+1:0:0:0:0, 3+0:0:0:0:0, 2+1:0:0:0:0, 2+0:0:0:0:0, 4+1:0:0:0:0, 2+1:0:0:0:0, 2+0:0:0:0:0, 1+1:0:0:0:0, 3+1:0:0:0:0, 0+0:0:0:0:0, 0+0:0:0:0:0, 0+0:0:0:0:0, 0+0:0:0:0:0, 0+0:0:0:0:0, 0+0:0:0:0:0, 422+122:0:3:0:12
G# minor (5#), 1+2:0:0:0:0, 2+1:0:0:0:0, 4+2:0:0:0:0, 1+1:0:0:0:1, 3+1:0:0:0:0, 4+1:1:0:0:1, 3+2:0:0:0:0, 3+2:1:0:0:1, 3+1:0:0:0:1, 5+1:0:0:0:0, 3+3:0:0:0:1, 5+2:0:0:0:0, 3+2:0:0:0:0, 2+3:2:0:0:0, 4+1:0:0:0:0, 4+3:1:0:0:0, 4+3:0:0:0:0, 3+2:1:0:0:1, 3+0:0:0:0:0, 3+1:0:0:0:0, 3+3:0:0:0:1, 2+0:0:0:0:0, 2+3:0:0:0:2, 3+2:0:0:0:0, 2+0:0:0:0:0, 3+1:0:0:0:0, 1+0:0:0:0:0, 3+1:0:0:0:0, 3+1:0:0:0:0, 3+2:1:0:0:1, 1+4:1:0:0:1, 3+2:0:0:0:0, 3+1:0:0:0:0, 3+1:0:0:0:1, 2+2:0:0:0:0, 4+2:0:0:0:0, 3+1:0:0:0:0, 4+2:0:0:0:0, 3+2:0:0:0:0, 2+0:0:0:0:0, 3+1:0:0:0:1, 3+1:0:0:0:0, 5+2:0:0:0:0, 2+3:1:0:0:1, 4+1:0:0:0:1, 2+0:0:0:0:0, 4+3:0:0:0:0, 3+1:0:0:0:0, 1+2:0:0:0:0, 2+1:0:0:0:0, 2+1:0:0:0:0, 2+0:0:0:0:0, 2+1:0:0:0:0, 1+2:0:0:0:0, 2+1:0:0:0:0, 3+3:0:0:0:2, 2+3:0:0:0:0, 2+0:0:0:0:0, 2+2:0:0:0:0, 3+3:0:0:0:0, 3+2:0:0:0:0, 4+1:0:0:0:0, 3+1:0:0:0:0, 3+1:0:0:0:0, 3+1:0:0:0:0, 3+2:1:0:0:1, 1+4:1:0:0:1, 3+1:0:0:0:0, 2+1:0:0:0:0, 3+3:0:0:0:0, 3+3:1:0:0:1, 3+2:0:0:0:0, 4+1:0:0:0:0, 4+1:0:0:0:0, 3+1:0:0:0:0, 3+1:0:0:0:0, 2+0:0:0:0:0, 5+1:0:0:0:0, 3+2:0:0:0:0, 5+2:0:0:0:0, 3+0:0:0:0:0, 4+1:0:0:0:0, 3+4:1:0:0:0, 4+1:0:0:0:0, 3+2:0:0:0:0, 4+1:0:0:0:0, 5+1:0:0:0:0, 3+1:0:0:0:0, 2+2:0:0:0:0, 5+2:0:0:0:0, 3+1:0:0:0:0, 5+1:0:0:0:0, 3+0:0:0:0:0, 3+1:0:0:0:0, 2+3:0:0:0:0, 4+1:0:0:0:0, 2+0:0:0:0:0, 3+1:0:0:0:0, 4+1:0:0:0:0, 2+0:0:0:0:0, 3+1:0:0:0:0, 3+2:0:0:0:1, 3+1:0:0:0:0, 3+2:0:0:0:0, 2+1:0:1:0:0, 4+1:0:0:0:0, 2+2:0:0:0:0, 4+2:0:0:0:0, 2+0:0:0:0:0, 3+1:0:0:0:0, 4+1:0:0:0:0, 2+0:0:0:0:0, 3+1:0:0:0:0, 3+2:0:0:0:1, 3+1:0:0:0:0, 3+2:0:0:0:0, 2+1:0:1:0:0, 4+1:0:0:0:0, 2+2:0:0:0:0, 4+1:0:0:0:0, 3+3:0:0:0:0, 3+3:1:0:0:1, 2+2:0:0:0:0, 2+1:0:0:0:1, 3+4:0:0:0:2, 3+2:0:0:0:2, 1+2:0:0:0:0, 4+4:0:0:0:1, 4+2:0:0:0:1, 2+0:0:0:0:0, 2+2:0:0:0:0, 4+2:0:0:0:0, 4+1:0:0:0:0, 5+2:0:0:0:0, 3+0:0:0:0:0, 4+2:0:0:0:0, 4+3:0:0:0:0, 3+2:1:0:0:1, 1+4:1:0:0:1, 3+2:0:0:0:0, 2+3:0:0:0:0, 4+1:0:0:0:0, 4+2:0:0:0:2, 4+1:0:0:0:0, 3+2:0:0:0:0, 4+2:0:0:0:0, 3+2:0:0:0:0, 4+3:0:0:0:0, 4+1:0:0:0:0, 3+2:0:0:0:0, 4+2:0:0:0:0, 4+3:0:0:0:0, 3+1:0:0:0:1, 4+1:0:0:0:0, 3+3:0:0:0:1, 5+2:0:0:0:0, 1+4:1:0:0:1, 2+3:0:0:0:0, 6+2:0:0:0:0, 4+1:0:0:0:0, 4+1:0:0:0:0, 4+1:0:0:0:0, 2+3:0:0:0:0, 5+2:0:0:0:0, 3+1:0:0:0:1, 2+0:0:0:0:0, 3+3:0:0:0:1, 4+1:0:0:0:0, 1+0:0:0:0:0, 1+0:0:0:0:0, 1+0:0:0:0:0, 1+0:0:0:0:0, 1+0:0:0:0:0, 1+0:0:0:0:0, 519+271:17:2:0:39
Gb major (6b), 3+1:0:0:0:0, 4+1:0:0:0:0, 4+0:0:0:0:0, 4+1:0:0:0:0, 3+0:0:0:0:0, 2+0:0:0:0:0, 4+0:0:0:0:0, 4+1:0:0:0:0, 2+1:0:0:0:0, 3+1:0:1:0:1, 2+1:0:0:0:0, 4+1:0:0:0:1, 2+0:0:0:0:0, 3+2:0:0:0:0, 4+0:0:0:0:0, 3+1:0:0:0:0, 2+1:0:0:0:0, 2+1:0:1:0:1, 3+0:0:0:0:0, 5+0:0:0:0:0, 3+0:0:0:0:0, 3+0:0:0:0:0, 4+1:0:0:0:0, 3+0:0:0:0:0, 2+0:0:0:0:0, 3+1:0:0:0:0, 2+1:0:0:0:1, 4+0:0:0:0:0, 2+1:0:0:0:0, 2+1:0:1:0:1, 3+1:0:0:0:0, 3+0:0:0:0:0, 4+0:0:0:0:0, 3+0:0:0:0:0, 4+1:0:0:0:0, 4+0:0:0:0:0, 3+1:0:0:0:0, 4+1:0:0:0:0, 4+1:0:0:0:0, 3+1:0:0:0:0, 3+1:0:1:0:0, 2+1:0:0:0:0, 4+1:0:0:0:0, 3+1:0:0:0:0, 2+1:0:0:0:0, 3+0:0:0:0:0, 3+1:0:0:0:0, 4+1:0:0:0:1, 3+1:0:0:0:0, 3+1:0:0:0:1, 3+1:0:0:0:1, 3+1:0:0:0:1, 2+1:0:0:0:1, 3+1:0:0:0:0, 4+1:0:0:0:0, 5+2:0:0:0:0, 3+2:0:0:0:0, 3+0:0:0:0:0, 4+1:0:0:0:0, 4+1:0:0:0:0, 4+1:0:0:0:0, 3+1:0:0:0:0, 2+1:0:0:0:0, 4+0:0:0:0:0, 2+1:0:0:0:0, 2+1:0:1:0:1, 3+1:0:0:0:0, 4+1:0:0:0:0, 3+1:0:0:0:0, 3+0:0:0:0:0, 2+0:0:0:0:0, 3+0:0:0:0:0, 4+1:0:0:0:0, 4+0:0:0:0:0, 2+1:0:0:0:0, 4+0:0:0:0:0, 2+0:0:0:0:0, 2+0:0:0:0:0, 4+0:0:0:0:0, 4+1:0:0:0:0, 3+0:0:0:0:0, 2+1:0:1:0:1, 3+1:0:0:0:0, 4+0:0:0:0:0, 4+0:0:0:0:0, 3+0:0:0:0:0, 5+1:0:0:0:0, 3+1:0:0:0:0, 2+1:0:0:0:0, 5+0:0:0:0:0, 2+1:0:0:0:1, 2+1:0:0:0:0, 3+0:0:0:0:0, 2+1:0:1:0:1, 4+1:0:0:0:0, 4+1:0:0:0:0, 2+0:0:0:0:0, 2+1:0:0:0:0, 4+1:0:0:0:1, 3+1:0:0:0:0, 2+1:0:0:0:1, 2+1:0:1:0:0, 3+1:0:0:0:0, 5+1:0:0:0:0, 2+1:0:0:0:1, 3+1:0:1:0:1, 4+1:0:0:0:0, 4+0:0:0:0:0, 2+0:0:0:0:0, 2+1:0:0:0:0, 4+1:0:0:0:1, 3+1:0:0:0:0, 2+1:0:0:0:1, 2+1:0:1:0:0, 3+1:0:0:0:0, 5+1:0:0:0:0, 2+1:0:0:0:1, 3+1:0:1:0:1, 4+1:0:0:0:0, 4+0:0:0:0:0, 2+0:0:0:0:0, 5+1:0:0:0:0, 2+0:0:0:0:0, 2+2:0:0:0:0, 2+1:0:0:0:0, 2+1:0:1:0:1, 3+1:0:0:0:0, 4+0:0:0:0:0, 4+0:0:0:0:0, 3+0:0:0:0:0, 4+1:0:0:0:0, 4+0:0:0:0:0, 4+1:0:0:0:0, 5+1:0:0:0:0, 3+0:0:0:0:0, 4+0:0:0:0:0, 2+1:0:0:0:0, 2+1:0:1:0:1, 3+1:0:0:0:0, 3+0:0:0:0:0, 3+0:0:0:0:0, 3+1:0:1:0:1, 5+2:0:0:0:0, 4+1:0:0:0:0, 4+0:0:0:0:0, 4+1:0:0:0:0, 4+0:0:0:0:0, 3+0:0:0:0:0, 3+0:0:0:0:0, 2+1:0:1:0:0, 3+0:0:0:0:0, 5+1:0:0:0:0, 2+1:0:0:0:0, 2+1:0:1:0:1, 2+1:0:0:0:0, 4+1:0:0:0:0, 3+1:0:0:0:0, 2+0:0:0:0:0, 5+1:0:0:0:0, 3+1:0:0:0:0, 4+0:0:0:0:0, 1+1:0:1:0:1, 3+0:0:0:0:0, 5+1:0:0:0:0, 2+1:0:0:0:0, 2+0:0:0:0:0, 2+1:0:0:0:0, 4+1:0:0:0:0, 1+0:0:0:0:0, 1+0:0:0:0:0, 1+0:0:0:0:0, 1+0:0:0:0:0, 1+0:0:0:0:0, 1+0:0:0:0:0, 532+116:0:17:0:27
F# major (6#), 2+2:0:0:0:0, 2+1:0:0:0:0, 5+2:0:0:0:0, 2+1:0:0:0:1, 4+1:0:0:0:0, 4+1:1:0:0:1, 4+1:0:0:0:0, 4+2:0:0:0:0, 4+1:0:0:0:0, 4+3:0:0:0:1, 4+1:0:0:0:0, 5+2:0:0:0:0, 3+2:0:0:0:0, 2+1:0:0:0:0, 5+1:0:0:0:0, 4+3:1:0:0:0, 4+1:0:0:0:0, 3+2:0:0:0:1, 4+0:0:0:0:0, 4+1:0:0:0:0, 3+1:1:1:0:1, 2+0:0:0:0:0, 3+3:0:0:0:2, 4+2:0:0:0:0, 2+3:0:0:0:0, 3+1:0:0:0:0, 2+3:0:0:0:0, 4+1:0:0:0:0, 4+1:0:0:0:0, 3+2:0:0:0:2, 2+2:0:0:0:0, 3+3:0:0:0:0, 4+1:0:0:0:0, 2+1:0:1:0:0, 3+2:0:0:0:0, 5+2:0:0:0:0, 4+1:0:0:0:0, 5+2:0:0:0:0, 3+2:0:0:0:1, 3+2:0:0:0:0, 3+1:0:0:0:1, 4+1:0:0:0:0, 4+2:0:0:0:1, 3+1:0:0:0:0, 2+2:0:1:0:1, 2+3:0:0:0:0, 4+1:0:0:0:0, 3+1:0:0:0:0, 2+2:0:0:0:0, 2+1:0:0:0:0, 2+1:0:0:0:0, 3+0:0:0:0:0, 3+1:0:0:0:0, 2+1:0:0:0:0, 3+2:0:0:0:1, 3+3:0:0:0:2, 3+3:0:0:0:0, 2+0:0:0:0:0, 3+2:0:0:0:0, 3+3:0:0:0:0, 3+2:0:0:0:0, 5+1:0:0:0:0, 4+1:0:0:0:0, 4+1:0:0:0:0, 4+1:0:0:0:0, 3+2:1:0:0:1, 2+4:1:0:0:1, 4+1:0:0:0:0, 2+1:0:0:0:0, 4+3:0:0:0:0, 3+3:1:0:0:1, 3+2:0:0:0:0, 5+2:0:0:0:0, 5+1:0:0:0:0, 4+1:0:0:0:0, 4+1:0:0:0:0, 3+0:0:0:0:0, 4+1:1:0:0:1, 4+1:0:0:0:0, 5+2:0:0:0:0, 4+0:0:0:0:0, 4+1:0:0:0:0, 3+4:1:0:0:0, 5+2:0:0:0:0, 4+1:0:0:0:0, 4+0:0:0:0:0, 6+2:0:0:0:0, 4+1:0:0:0:0, 2+1:0:0:0:0, 5+1:0:0:0:0, 4+1:0:0:0:0, 5+1:0:0:0:0, 4+0:0:0:0:0, 3+1:0:0:0:0, 3+4:0:0:0:3, 4+2:0:0:0:1, 2+2:0:0:0:0, 4+1:0:0:0:0, 4+2:0:0:0:1, 2+0:0:0:0:0, 4+1:0:0:0:0, 3+2:0:0:0:1, 2+1:0:1:0:1, 4+3:0:0:0:2, 3+1:0:0:0:0, 4+1:0:0:0:0, 3+2:0:0:0:0, 4+1:0:0:0:0, 2+2:0:0:0:0, 4+1:0:0:0:0, 4+2:0:0:0:1, 2+0:0:0:0:0, 4+1:0:0:0:0, 3+2:0:0:0:1, 2+1:0:1:0:1, 4+3:0:0:0:2, 3+1:0:0:0:0, 4+1:0:0:0:0, 3+2:0:0:0:0, 4+1:0:0:0:0, 3+3:0:0:0:0, 4+2:0:0:0:1, 2+2:0:0:0:0, 2+3:0:0:0:0, 4+1:0:0:0:0, 3+2:1:0:0:1, 2+4:1:0:0:1, 5+0:0:0:0:0, 5+1:0:0:0:0, 2+2:0:0:0:0, 3+1:0:0:0:0, 5+2:0:0:0:0, 5+2:0:0:0:0, 5+2:0:0:0:1, 4+0:0:0:0:0, 4+2:0:0:0:1, 4+1:0:0:0:0, 3+2:1:0:0:1, 2+4:1:0:0:1, 3+2:0:0:0:1, 2+3:0:0:0:0, 4+1:0:0:0:0, 4+2:0:0:0:2, 4+2:0:0:0:1, 4+1:0:0:0:0, 4+1:0:0:0:1, 4+1:0:0:0:0, 4+3:0:0:0:0, 4+1:0:0:0:0, 3+2:0:0:0:0, 4+2:0:0:0:0, 5+2:0:0:0:0, 4+1:0:0:0:0, 3+3:0:0:0:1, 4+1:0:0:0:0, 5+2:0:0:0:0, 2+4:1:0:0:1, 3+0:0:0:0:0, 5+2:0:0:0:1, 4+1:0:0:0:0, 5+0:0:0:0:0, 3+1:0:0:0:1, 3+0:0:0:0:0, 6+2:0:0:0:0, 4+1:0:0:0:0, 2+6:0:0:0:0, 4+1:0:0:0:0, 4+1:0:0:0:0, 1+0:0:0:0:0, 1+0:0:0:0:0, 1+0:0:0:0:0, 1+0:0:0:0:0, 1+0:0:0:0:0, 1+0:0:0:0:0, 593+267:13:5:0:50
Eb minor (6b), 3+1:0:0:0:0, 3+1:0:1:0:0, 4+0:0:0:0:0, 4+1:0:0:0:0, 3+0:0:0:0:0, 2+0:0:0:0:0, 4+0:0:0:0:0, 4+1:0:0:0:0, 2+1:0:0:0:0, 3+1:0:1:0:0, 2+1:0:0:0:0, 4+1:0:0:0:1, 2+0:0:0:0:0, 3+2:0:0:0:0, 4+0:0:0:0:0, 3+1:0:0:0:0, 2+1:0:0:0:0, 2+1:0:1:0:0, 3+0:0:0:0:0, 5+0:0:0:0:0, 3+0:0:0:0:0, 3+0:0:0:0:0, 4+1:0:0:0:0, 3+0:0:0:0:0, 2+0:0:0:0:0, 3+1:0:0:0:1, 2+1:0:0:0:0, 4+0:0:0:0:0, 2+1:0:0:0:0, 2+1:0:1:0:0, 3+1:0:0:0:0, 3+1:0:0:0:0, 4+0:0:0:0:0, 3+0:0:0:0:0, 4+1:0:0:0:0, 4+0:0:0:0:0, 3+1:0:0:0:0, 4+2:0:0:0:0, 4+1:0:0:0:1, 3+1:0:0:0:1, 3+1:0:1:0:0, 2+2:0:0:0:0, 4+1:0:0:0:1, 2+1:0:1:0:0, 2+1:0:0:0:0, 3+0:0:0:0:0, 3+1:0:0:0:0, 4+1:0:0:0:1, 3+1:0:0:0:0, 3+1:0:0:0:1, 3+1:0:0:0:1, 3+1:0:0:0:1, 2+1:0:0:0:1, 3+1:0:0:0:0, 4+1:0:0:0:0, 5+2:0:0:0:0, 3+2:0:0:0:0, 3+0:0:0:0:0, 4+1:0:0:0:0, 4+1:0:0:0:1, 4+1:0:0:0:1, 3+1:0:0:0:0, 2+1:0:0:0:0, 4+0:0:0:0:0, 2+1:0:0:0:0, 2+1:0:1:0:0, 3+1:0:0:0:0, 3+1:0:1:0:0, 3+1:0:0:0:0, 3+1:0:0:0:0, 2+0:0:0:0:0, 3+0:0:0:0:0, 4+1:0:0:0:0, 4+0:0:0:0:0, 2+1:0:0:0:0, 4+0:0:0:0:0, 2+0:0:0:0:0, 2+0:0:0:0:0, 4+0:0:0:0:0, 4+1:0:0:0:0, 3+0:0:0:0:0, 2+1:0:1:0:0, 3+1:0:0:0:0, 4+0:0:0:0:0, 4+0:0:0:0:0, 3+0:0:0:0:0, 5+1:0:0:0:0, 3+1:0:0:0:0, 2+1:0:0:0:0, 5+0:0:0:0:0, 2+1:0:0:0:0, 2+1:0:0:0:0, 3+0:0:0:0:0, 2+1:0:1:0:0, 4+1:0:0:0:0, 4+1:0:0:0:1, 2+0:0:0:0:0, 2+1:0:0:0:0, 4+1:0:0:0:1, 3+1:0:0:0:0, 2+1:0:0:0:1, 2+1:0:1:0:0, 3+1:0:0:0:0, 5+1:0:0:0:0, 2+1:0:0:0:0, 3+1:0:1:0:0, 4+1:0:0:0:0, 4+1:0:0:0:0, 2+0:0:0:0:0, 2+1:0:0:0:0, 4+1:0:0:0:1, 3+1:0:0:0:0, 2+1:0:0:0:1, 2+1:0:1:0:0, 3+1:0:0:0:0, 5+1:0:0:0:0, 2+1:0:0:0:0, 3+1:0:1:0:0, 4+1:0:0:0:0, 4+0:0:0:0:0, 2+0:0:0:0:0, 5+2:0:0:0:1, 2+0:0:0:0:0, 2+2:0:0:0:0, 2+1:0:0:0:0, 2+1:0:1:0:0, 3+1:0:0:0:0, 4+0:0:0:0:0, 4+0:0:0:0:0, 3+0:0:0:0:0, 4+1:0:0:0:0, 4+0:0:0:0:0, 4+1:0:0:0:0, 5+1:0:0:0:1, 3+0:0:0:0:0, 4+1:0:0:0:0, 2+1:0:0:0:0, 2+1:0:1:0:0, 3+1:0:0:0:0, 3+0:0:0:0:0, 3+0:0:0:0:0, 3+1:0:1:0:1, 5+2:0:0:0:0, 4+1:0:0:0:1, 4+0:0:0:0:0, 4+1:0:0:0:1, 4+0:0:0:0:0, 3+0:0:0:0:0, 3+0:0:0:0:0, 2+1:0:1:0:0, 3+0:0:0:0:0, 5+1:0:0:0:0, 2+1:0:0:0:0, 2+1:0:1:0:0, 2+1:0:0:0:0, 4+1:0:0:0:1, 3+1:0:0:0:0, 2+0:0:0:0:0, 5+1:0:0:0:1, 3+1:0:0:0:0, 4+0:0:0:0:0, 1+1:0:1:0:0, 3+0:0:0:0:0, 5+1:0:0:0:0, 2+1:0:0:0:0, 2+0:0:0:0:0, 2+1:0:0:0:0, 4+0:0:0:0:0, 1+0:0:0:0:0, 1+0:0:0:0:0, 1+0:0:0:0:0, 1+0:0:0:0:0, 1+0:0:0:0:0, 1+0:0:0:0:0, 529+122:0:20:0:24
D# minor (6#), 2+2:0:0:0:2, 2+1:0:0:0:1, 5+2:0:0:0:0, 2+1:0:0:0:1, 4+1:0:0:0:0, 4+1:1:0:0:1, 4+1:0:0:0:0, 4+2:0:0:0:0, 4+1:0:0:0:0, 4+3:0:0:0:1, 4+1:0:0:0:0, 5+2:0:0:0:0, 3+2:0:0:0:0, 2+0:0:0:0:0, 5+1:0:0:0:0, 4+3:1:0:0:0, 4+1:0:0:0:0, 3+2:0:0:0:1, 4+0:0:0:0:0, 4+1:0:0:0:0, 4+0:0:0:0:0, 2+3:0:0:0:0, 3+2:0:0:0:0, 4+2:0:0:0:0, 2+3:0:0:0:0, 3+1:0:0:0:0, 2+0:0:0:0:0, 4+1:0:0:0:0, 4+1:0:0:0:0, 3+2:1:0:0:1, 2+4:1:0:0:1, 4+2:0:0:0:0, 4+1:0:0:0:0, 3+2:0:0:0:0, 3+1:0:0:0:0, 5+2:0:0:0:0, 4+1:0:0:0:0, 5+2:0:0:0:0, 3+2:0:0:0:1, 3+2:0:0:0:0, 3+1:0:0:0:1, 4+1:0:0:0:0, 4+2:0:0:0:1, 3+1:0:0:0:0, 2+2:0:1:0:1, 2+3:0:0:0:0, 4+1:0:0:0:0, 3+2:0:0:0:0, 2+2:0:0:0:0, 2+1:0:0:0:0, 2+1:0:0:0:0, 3+0:0:0:0:0, 3+1:0:0:0:0, 2+1:0:0:0:0, 3+2:0:0:0:1, 3+3:0:0:0:2, 3+2:0:0:0:0, 2+2:0:0:0:0, 3+1:0:0:0:0, 3+3:1:0:0:1, 3+4:1:0:0:1, 5+1:0:0:0:0, 4+1:0:0:0:0, 4+1:0:0:0:0, 4+1:0:0:0:0, 3+2:1:0:0:1, 2+4:1:0:0:1, 4+1:0:0:0:0, 2+1:0:0:0:0, 4+3:0:0:0:0, 3+3:1:0:0:1, 3+2:0:0:0:0, 5+2:0:0:0:0, 5+1:0:0:0:0, 4+1:0:0:0:0, 4+1:0:0:0:0, 3+0:0:0:0:0, 4+1:1:0:0:1, 4+1:0:0:0:0, 5+2:0:0:0:0, 4+0:0:0:0:0, 4+1:0:0:0:0, 3+4:1:0:0:0, 5+2:0:0:0:0, 4+1:0:0:0:0, 4+0:0:0:0:0, 6+2:0:0:0:0, 4+1:0:0:0:0, 2+1:0:0:0:0, 5+1:0:0:0:0, 4+1:0:0:0:0, 5+1:0:0:0:0, 4+0:0:0:0:0, 3+3:0:0:0:1, 3+3:0:0:0:0, 4+2:0:0:0:1, 2+2:0:0:0:0, 4+1:0:0:0:0, 4+2:0:0:0:1, 2+0:0:0:0:0, 4+1:0:0:0:0, 3+2:0:0:0:1, 2+1:0:1:0:1, 4+2:0:0:0:0, 4+1:0:0:0:0, 4+3:0:0:0:1, 3+1:0:0:0:0, 4+1:0:0:0:0, 2+2:0:0:0:0, 4+1:0:0:0:0, 4+2:0:0:0:1, 2+0:0:0:0:0, 4+1:0:0:0:0, 3+2:0:0:0:1, 2+1:0:1:0:1, 4+2:0:0:0:0, 4+1:0:0:0:0, 4+3:0:0:0:1, 3+1:0:0:0:0, 4+1:0:0:0:0, 3+3:0:0:0:0, 4+2:0:0:0:1, 2+2:0:0:0:0, 2+3:0:0:0:0, 4+1:0:0:0:0, 3+2:1:0:0:1, 2+4:1:0:0:1, 5+0:0:0:0:0, 5+1:0:0:0:0, 2+2:0:0:0:0, 3+1:0:0:0:0, 5+2:0:0:0:0, 5+2:0:0:0:0, 5+2:0:0:0:1, 4+0:0:0:0:0, 4+2:0:0:0:1, 4+1:0:0:0:0, 3+2:1:0:0:1, 2+4:1:0:0:1, 3+2:0:0:0:1, 2+3:0:0:0:0, 4+1:0:0:0:0, 4+2:0:0:0:2, 4+2:0:0:0:1, 4+1:0:0:0:0, 4+1:0:0:0:1, 4+1:0:0:0:0, 4+3:0:0:0:0, 4+1:0:0:0:0, 3+2:0:0:0:0, 4+2:0:0:0:0, 5+2:0:0:0:0, 4+1:0:0:0:0, 3+3:0:0:0:1, 4+1:0:0:0:0, 5+2:0:0:0:0, 2+4:1:0:0:1, 3+0:0:0:0:0, 5+2:0:0:0:1, 4+1:0:0:0:0, 5+0:0:0:0:0, 3+1:0:0:0:1, 3+0:0:0:0:0, 6+2:0:0:0:0, 4+1:0:0:0:0, 2+6:0:0:0:0, 4+1:0:0:0:0, 4+1:0:0:0:0, 1+0:0:0:0:0, 1+0:0:0:0:0, 1+0:0:0:0:0, 1+0:0:0:0:0, 1+0:0:0:0:0, 1+0:0:0:0:0, 598+269:16:3:0:48
Cb major (7b), 3+1:0:0:0:0, 4+1:0:0:0:0, 5+0:0:0:0:0, 4+1:0:0:0:0, 4+0:0:0:0:0, 3+0:0:0:0:0, 4+0:0:0:0:0, 5+1:0:0:0:0, 3+1:0:0:0:0, 3+1:0:1:0:1, 3+1:0:0:0:0, 4+1:0:0:0:0, 2+0:0:0:0:0, 3+2:0:0:0:0, 5+0:0:0:0:0, 3+1:0:0:0:0, 3+1:0:0:0:0, 3+1:0:1:0:1, 4+0:0:0:0:0, 5+0:0:0:0:0, 4+0:0:0:0:0, 3+0:0:0:0:0, 4+1:0:0:0:0, 4+0:0:0:0:0, 2+0:0:0:0:0, 4+1:0:0:0:0, 2+1:0:0:0:0, 4+0:0:0:0:0, 3+1:0:0:0:0, 3+1:0:1:0:1, 3+1:0:0:0:0, 3+0:0:0:0:0, 4+0:0:0:0:0, 3+1:0:1:0:1, 2+2:0:1:0:1, 5+0:0:0:0:0, 2+1:0:1:0:1, 5+1:0:0:0:0, 4+1:0:0:0:0, 2+1:0:1:0:1, 4+1:0:1:0:0, 3+1:0:0:0:0, 4+1:0:0:0:0, 4+1:0:0:0:0, 3+1:0:0:0:0, 3+0:0:0:0:0, 3+1:0:0:0:0, 4+1:0:0:0:1, 3+1:0:0:0:0, 3+1:0:0:0:0, 3+1:0:0:0:0, 2+1:0:1:0:1, 3+1:0:0:0:0, 4+1:0:0:0:0, 4+1:0:0:0:0, 5+2:0:0:0:0, 1+3:0:1:0:1, 3+0:0:0:0:0, 2+2:0:1:0:1, 4+1:0:0:0:0, 4+1:0:0:0:0, 4+1:0:0:0:0, 3+1:0:0:0:0, 4+0:0:0:0:0, 3+1:0:0:0:0, 3+1:0:1:0:1, 3+1:0:0:0:0, 5+1:0:0:0:0, 3+1:0:0:0:0, 4+0:0:0:0:0, 2+0:0:0:0:0, 3+0:0:0:0:0, 3+1:0:1:0:1, 5+0:0:0:0:0, 3+1:0:0:0:0, 4+0:0:0:0:0, 3+0:0:0:0:0, 3+0:0:0:0:0, 4+0:0:0:0:0, 4+1:0:0:0:0, 4+0:0:0:0:0, 2+1:0:1:0:1, 3+1:0:0:0:0, 5+0:0:0:0:0, 4+0:0:0:0:0, 4+0:0:0:0:0, 5+0:0:0:0:0, 2+1:0:1:0:1, 3+1:0:0:0:0, 6+0:0:0:0:0, 3+1:0:0:0:0, 2+1:0:0:0:0, 4+0:0:0:0:0, 2+1:0:1:0:1, 4+1:0:0:0:0, 4+1:0:0:0:0, 2+0:0:0:0:0, 3+1:0:0:0:0, 4+1:0:0:0:0, 3+1:0:0:0:0, 3+1:0:0:0:0, 3+1:0:1:0:1, 4+1:0:0:0:0, 5+1:0:0:0:0, 3+1:0:0:0:0, 3+1:0:1:0:1, 2+2:0:1:0:1, 5+1:0:0:0:0, 2+0:0:0:0:0, 3+1:0:0:0:0, 4+1:0:0:0:0, 3+1:0:0:0:0, 3+1:0:0:0:0, 3+1:0:1:0:1, 4+1:0:0:0:0, 5+1:0:0:0:0, 3+1:0:0:0:0, 3+1:0:1:0:1, 2+2:0:1:0:1, 5+1:0:0:0:0, 2+0:0:0:0:0, 5+1:0:0:0:0, 2+0:0:0:0:0, 1+2:0:2:0:2, 3+1:0:0:0:0, 3+1:0:1:0:1, 3+1:0:0:0:0, 5+0:0:0:0:0, 5+0:0:0:0:0, 3+0:0:0:0:0, 2+2:0:1:0:1, 5+0:0:0:0:0, 3+1:0:1:0:1, 5+1:0:0:0:0, 4+0:0:0:0:0, 4+0:0:0:0:0, 3+1:0:0:0:0, 3+1:0:1:0:1, 3+1:0:0:0:0, 3+0:0:0:0:0, 3+0:0:0:0:0, 3+1:0:1:0:1, 5+2:0:0:0:0, 4+1:0:0:0:0, 4+0:0:0:0:0, 4+1:0:0:0:0, 4+0:0:0:0:0, 3+0:0:0:0:0, 4+0:0:0:0:0, 3+1:0:1:0:0, 3+0:0:0:0:0, 3+2:0:1:0:1, 3+1:0:0:0:0, 2+1:0:1:0:1, 3+1:0:0:0:0, 4+1:0:0:0:0, 3+1:0:0:0:0, 3+0:0:0:0:0, 5+1:0:0:0:0, 2+1:0:1:0:1, 5+0:0:0:0:0, 2+1:0:1:0:1, 3+0:0:0:0:0, 6+1:0:0:0:0, 3+1:0:0:0:0, 2+0:0:0:0:0, 3+1:0:0:0:0, 5+1:0:0:0:0, 1+0:0:0:0:0, 1+0:0:0:0:0, 1+0:0:0:0:0, 1+0:0:0:0:0, 1+0:0:0:0:0, 1+0:0:0:0:0, 581+125:0:34:0:33
C# major (7#), 3+2:0:0:0:0, 3+1:0:0:0:0, 5+2:0:0:0:0, 3+1:0:0:0:1, 4+1:0:0:0:0, 4+1:1:0:0:1, 4+1:0:0:0:0, 4+2:0:0:0:0, 4+1:0:0:0:0, 5+2:0:0:0:0, 4+1:0:0:0:0, 5+2:0:0:0:0, 3+2:0:0:0:0, 2+0:0:0:0:0, 5+1:0:0:0:0, 4+3:1:0:0:0, 4+3:0:0:0:0, 5+1:0:0:0:0, 4+0:0:0:0:0, 5+1:0:0:0:0, 4+0:0:0:0:0, 3+2:0:0:0:0, 3+2:0:0:0:0, 4+2:0:0:0:0, 2+0:0:0:0:0, 4+1:0:0:0:0, 2+0:0:0:0:0, 4+1:0:0:0:0, 4+1:0:0:0:0, 5+1:0:0:0:0, 4+3:0:0:0:0, 3+2:0:0:0:2, 4+3:0:0:0:0, 3+2:0:1:0:1, 3+2:0:0:0:0, 5+2:0:0:0:0, 4+1:0:0:0:0, 5+2:0:0:0:0, 4+2:0:0:0:0, 3+0:0:0:0:0, 4+1:0:0:0:1, 4+1:0:0:0:0, 5+1:0:0:0:0, 3+1:0:0:0:0, 2+2:0:1:0:1, 3+2:0:0:0:0, 4+1:0:0:0:0, 4+2:0:0:0:0, 3+2:0:0:0:0, 3+1:0:0:0:0, 3+1:0:0:0:0, 3+0:0:0:0:0, 3+1:0:0:0:0, 3+2:0:0:0:0, 4+1:0:0:0:0, 4+3:0:0:0:2, 3+3:0:0:0:0, 3+0:0:0:0:0, 3+2:0:0:0:0, 4+3:0:0:0:0, 4+2:0:0:0:0, 5+1:0:0:0:0, 4+1:0:0:0:0, 4+1:0:0:0:0, 4+1:0:0:0:0, 5+1:0:0:0:0, 4+3:0:0:0:0, 4+1:0:0:0:0, 1+1:0:1:0:1, 4+3:0:0:0:0, 3+3:1:0:0:1, 3+2:0:0:0:0, 5+1:0:0:0:0, 5+1:0:0:0:0, 4+1:0:0:0:0, 4+1:0:0:0:0, 3+0:0:0:0:0, 5+1:0:0:0:0, 4+2:0:0:0:0, 5+2:0:0:0:0, 4+0:0:0:0:0, 4+1:0:0:0:0, 3+4:1:0:0:0, 5+2:0:0:0:0, 4+1:0:0:0:0, 4+0:0:0:0:0, 6+2:0:0:0:0, 4+1:0:0:0:0, 3+2:0:0:0:0, 6+2:0:0:0:0, 4+1:0:0:0:0, 5+1:0:0:0:0, 4+0:0:0:0:0, 4+1:0:0:0:0, 3+3:0:0:0:0, 5+1:0:0:0:0, 2+0:0:0:0:0, 4+1:0:0:0:0, 5+1:0:0:0:0, 2+0:0:0:0:0, 4+1:0:0:0:0, 4+2:0:0:0:1, 2+1:0:1:0:1, 5+2:0:0:0:0, 4+1:0:0:0:0, 5+2:0:0:0:0, 3+2:0:0:0:0, 4+2:0:1:0:1, 2+0:0:0:0:0, 4+1:0:0:0:0, 5+1:0:0:0:0, 2+0:0:0:0:0, 4+1:0:0:0:0, 4+2:0:0:0:1, 2+1:0:1:0:1, 5+2:0:0:0:0, 4+1:0:0:0:0, 5+2:0:0:0:0, 3+2:0:0:0:0, 5+1:0:0:0:0, 3+3:0:0:0:0, 5+2:0:0:0:1, 2+2:0:0:0:0, 2+3:0:0:0:0, 4+1:0:0:0:0, 5+1:0:0:0:0, 4+3:0:0:0:0, 5+0:0:0:0:0, 5+1:0:0:0:0, 3+2:0:0:0:0, 3+2:0:0:0:0, 5+2:0:0:0:0, 5+1:0:0:0:0, 6+2:0:0:0:0, 4+0:0:0:0:0, 4+2:0:0:0:1, 4+1:0:0:0:0, 5+1:0:0:0:0, 4+3:0:0:0:0, 3+2:0:0:0:1, 3+3:0:0:0:0, 5+1:0:0:0:0, 4+2:0:0:0:2, 5+1:0:0:0:0, 4+2:0:0:0:0, 5+2:0:0:0:0, 4+2:0:0:0:0, 4+3:0:0:0:0, 4+1:0:0:0:0, 4+2:0:0:0:0, 4+2:0:0:0:0, 5+2:0:0:0:0, 4+1:0:0:0:0, 4+1:0:0:0:0, 4+1:0:0:0:0, 5+2:0:0:0:0, 4+3:0:0:0:0, 3+0:0:0:0:0, 6+2:0:0:0:0, 4+1:0:0:0:0, 5+0:0:0:0:0, 4+1:0:0:0:0, 3+1:0:0:0:0, 6+2:0:0:0:0, 4+1:0:0:0:0, 2+2:0:0:0:0, 4+1:0:0:0:0, 5+1:0:0:0:0, 1+0:0:0:0:0, 1+0:0:0:0:0, 1+0:0:0:0:0, 1+0:0:0:0:0, 0+0:0:0:0:0, 0+0:0:0:0:0, 661+244:4:6:0:21
Ab minor (7b), 3+1:0:0:0:0, 4+1:0:0:0:0, 5+0:0:0:0:0, 4+1:0:0:0:0, 4+0:0:0:0:0, 3+0:0:0:0:0, 4+0:0:0:0:0, 5+1:0:0:0:0, 3+1:0:0:0:0, 3+1:0:1:0:1, 3+1:0:0:0:0, 4+1:0:0:0:0, 2+0:0:0:0:0, 3+2:0:0:0:0, 5+0:0:0:0:0, 3+1:0:0:0:0, 3+1:0:0:0:0, 3+1:0:1:0:1, 4+0:0:0:0:0, 5+0:0:0:0:0, 4+0:0:0:0:0, 3+0:0:0:0:0, 4+1:0:0:0:0, 4+0:0:0:0:0, 2+0:0:0:0:0, 4+1:0:0:0:1, 2+1:0:0:0:0, 4+0:0:0:0:0, 3+1:0:0:0:0, 3+1:0:1:0:1, 3+1:0:0:0:0, 3+0:0:0:0:0, 4+0:0:0:0:0, 3+1:0:1:0:1, 2+2:0:1:0:1, 5+0:0:0:0:0, 2+1:0:1:0:1, 5+1:0:0:0:0, 4+1:0:0:0:0, 2+1:0:1:0:1, 4+1:0:1:0:0, 3+1:0:0:0:0, 4+1:0:0:0:0, 4+1:0:0:0:0, 3+1:0:0:0:0, 3+0:0:0:0:0, 3+1:0:0:0:0, 4+1:0:0:0:1, 3+1:0:0:0:0, 3+1:0:0:0:0, 3+1:0:0:0:1, 2+1:0:1:0:0, 3+1:0:0:0:1, 4+1:0:0:0:0, 4+1:0:0:0:0, 5+2:0:0:0:0, 1+3:0:1:0:1, 3+0:0:0:0:0, 2+2:0:1:0:1, 4+1:0:0:0:0, 4+1:0:0:0:0, 4+1:0:0:0:0, 3+1:0:0:0:0, 4+0:0:0:0:0, 3+1:0:0:0:0, 3+1:0:1:0:1, 3+1:0:0:0:0, 5+1:0:0:0:0, 3+1:0:0:0:0, 4+0:0:0:0:0, 2+0:0:0:0:0, 3+0:0:0:0:0, 3+1:0:1:0:1, 5+0:0:0:0:0, 3+1:0:0:0:0, 4+0:0:0:0:0, 3+0:0:0:0:0, 3+0:0:0:0:0, 4+0:0:0:0:0, 4+1:0:0:0:0, 4+0:0:0:0:0, 2+1:0:1:0:1, 3+1:0:0:0:0, 5+0:0:0:0:0, 4+0:0:0:0:0, 4+0:0:0:0:0, 5+0:0:0:0:0, 2+1:0:1:0:1, 3+1:0:0:0:0, 6+0:0:0:0:0, 3+1:0:0:0:0, 2+1:0:0:0:0, 4+0:0:0:0:0, 2+1:0:1:0:1, 4+1:0:0:0:0, 4+1:0:0:0:0, 2+0:0:0:0:0, 3+1:0:0:0:0, 4+1:0:0:0:0, 3+1:0:0:0:0, 3+1:0:0:0:1, 3+1:0:1:0:0, 4+1:0:0:0:0, 5+1:0:0:0:0, 3+1:0:0:0:0, 3+1:0:1:0:1, 2+2:0:1:0:1, 5+1:0:0:0:0, 2+0:0:0:0:0, 3+1:0:0:0:0, 4+1:0:0:0:0, 3+1:0:0:0:0, 3+1:0:0:0:1, 3+1:0:1:0:0, 4+1:0:0:0:0, 5+1:0:0:0:0, 3+1:0:0:0:0, 3+1:0:1:0:1, 2+2:0:1:0:1, 5+1:0:0:0:0, 2+0:0:0:0:0, 5+1:0:0:0:0, 2+0:0:0:0:0, 1+2:0:2:0:2, 3+1:0:0:0:0, 3+1:0:1:0:1, 3+1:0:0:0:0, 5+0:0:0:0:0, 5+0:0:0:0:0, 3+0:0:0:0:0, 2+2:0:1:0:1, 5+0:0:0:0:0, 3+1:0:1:0:1, 5+1:0:0:0:0, 4+0:0:0:0:0, 4+0:0:0:0:0, 3+1:0:0:0:0, 3+1:0:1:0:1, 3+1:0:0:0:0, 3+0:0:0:0:0, 3+0:0:0:0:0, 3+1:0:1:0:1, 5+2:0:0:0:0, 4+1:0:0:0:0, 4+0:0:0:0:0, 4+1:0:0:0:0, 4+0:0:0:0:0, 3+0:0:0:0:0, 4+0:0:0:0:0, 3+1:0:1:0:0, 3+0:0:0:0:0, 3+2:0:1:0:1, 3+1:0:0:0:0, 2+1:0:1:0:1, 3+1:0:0:0:0, 4+1:0:0:0:0, 3+1:0:0:0:0, 3+0:0:0:0:0, 5+1:0:0:0:0, 2+1:0:1:0:1, 5+0:0:0:0:0, 2+1:0:1:0:1, 3+0:0:0:0:0, 6+1:0:0:0:0, 3+1:0:0:0:0, 2+0:0:0:0:0, 3+1:0:0:0:0, 5+1:0:0:0:0, 1+0:0:0:0:0, 1+0:0:0:0:0, 1+0:0:0:0:0, 1+0:0:0:0:0, 1+0:0:0:0:0, 1+0:0:0:0:0, 581+125:0:34:0:35
A# minor (7#), 3+2:0:0:0:2, 3+1:0:0:0:0, 5+2:0:0:0:0, 3+1:0:0:0:1, 4+1:0:0:0:0, 4+1:1:0:0:1, 4+1:0:0:0:0, 4+2:0:0:0:0, 4+1:0:0:0:0, 5+2:0:0:0:0, 4+1:0:0:0:0, 5+2:0:0:0:0, 3+2:0:0:0:0, 2+0:0:0:0:0, 5+1:0:0:0:0, 4+3:1:0:0:0, 4+3:0:0:0:0, 5+1:0:0:0:0, 4+0:0:0:0:0, 5+1:0:0:0:0, 4+0:0:0:0:0, 3+2:0:0:0:0, 3+2:0:0:0:0, 4+2:0:0:0:0, 2+0:0:0:0:0, 4+1:0:0:0:0, 2+0:0:0:0:0, 4+1:0:0:0:0, 4+1:0:0:0:0, 5+1:0:0:0:0, 4+3:0:0:0:0, 3+2:0:0:0:2, 4+3:0:0:0:0, 3+2:0:1:0:1, 3+2:0:0:0:0, 5+2:0:0:0:0, 4+1:0:0:0:0, 5+2:0:0:0:0, 4+2:0:0:0:0, 3+0:0:0:0:0, 4+1:0:0:0:1, 4+1:0:0:0:0, 5+1:0:0:0:0, 3+1:0:0:0:0, 2+2:0:1:0:1, 3+2:0:0:0:0, 4+1:0:0:0:0, 4+2:0:0:0:0, 3+2:0:0:0:0, 3+1:0:0:0:0, 3+1:0:0:0:0, 3+0:0:0:0:0, 3+1:0:0:0:0, 3+2:0:0:0:0, 4+1:0:0:0:0, 4+3:0:0:0:2, 3+2:0:0:0:0, 3+2:0:0:0:0, 3+2:0:0:0:0, 4+3:0:0:0:0, 4+2:0:0:0:0, 5+1:0:0:0:0, 4+1:0:0:0:0, 4+1:0:0:0:0, 4+1:0:0:0:0, 5+1:0:0:0:0, 4+3:0:0:0:0, 4+1:0:0:0:0, 1+1:0:1:0:1, 4+3:0:0:0:0, 3+3:1:0:0:1, 3+2:0:0:0:0, 5+1:0:0:0:0, 5+1:0:0:0:0, 4+1:0:0:0:0, 4+1:0:0:0:0, 3+0:0:0:0:0, 5+1:0:0:0:0, 4+2:0:0:0:0, 5+2:0:0:0:0, 4+0:0:0:0:0, 4+1:0:0:0:0, 3+4:1:0:0:0, 5+2:0:0:0:0, 4+1:0:0:0:0, 4+0:0:0:0:0, 6+2:0:0:0:0, 4+1:0:0:0:0, 3+2:0:0:0:0, 6+2:0:0:0:0, 4+1:0:0:0:0, 5+1:0:0:0:0, 4+0:0:0:0:0, 4+1:0:0:0:0, 3+3:0:0:0:0, 5+1:0:0:0:0, 2+0:0:0:0:0, 4+1:0:0:0:0, 5+1:0:0:0:0, 2+0:0:0:0:0, 4+1:0:0:0:0, 4+2:0:0:0:1, 2+1:0:1:0:1, 5+2:0:0:0:0, 4+1:0:0:0:0, 5+2:0:0:0:0, 3+2:0:0:0:0, 4+2:0:1:0:1, 2+0:0:0:0:0, 4+1:0:0:0:0, 5+1:0:0:0:0, 2+0:0:0:0:0, 4+1:0:0:0:0, 4+2:0:0:0:1, 2+1:0:1:0:1, 5+2:0:0:0:0, 4+1:0:0:0:0, 5+2:0:0:0:0, 3+2:0:0:0:0, 5+1:0:0:0:0, 3+3:0:0:0:0, 5+2:0:0:0:1, 2+2:0:0:0:0, 2+3:0:0:0:0, 4+1:0:0:0:0, 5+1:0:0:0:0, 4+3:0:0:0:0, 5+0:0:0:0:0, 5+1:0:0:0:0, 3+2:0:0:0:0, 3+2:0:0:0:0, 5+2:0:0:0:0, 5+1:0:0:0:0, 6+2:0:0:0:0, 4+0:0:0:0:0, 4+2:0:0:0:1, 4+1:0:0:0:0, 5+1:0:0:0:0, 4+3:0:0:0:0, 3+2:0:0:0:1, 3+3:0:0:0:0, 5+1:0:0:0:0, 4+2:0:0:0:2, 5+1:0:0:0:0, 4+2:0:0:0:0, 5+2:0:0:0:0, 4+2:0:0:0:0, 4+3:0:0:0:0, 4+1:0:0:0:0, 4+2:0:0:0:0, 4+2:0:0:0:0, 5+2:0:0:0:0, 4+1:0:0:0:0, 4+1:0:0:0:0, 4+1:0:0:0:0, 5+2:0:0:0:0, 4+3:0:0:0:0, 3+0:0:0:0:0, 6+2:0:0:0:0, 4+1:0:0:0:0, 5+0:0:0:0:0, 4+1:0:0:0:0, 3+1:0:0:0:0, 6+2:0:0:0:0, 4+1:0:0:0:0, 2+2:0:0:0:0, 4+1:0:0:0:0, 5+1:0:0:0:0, 1+0:0:0:0:0, 1+0:0:0:0:0, 1+0:0:0:0:0, 1+0:0:0:0:0, 0+0:0:0:0:0, 0+0:0:0:0:0, 661+245:4:6:0:23
