 , 0, 1, 2, 3, 4, 5, 6, 7, 8, 9, 10, 11, 12, 13, 14, 15, 16, 17, 18, 19, 20, 21, 22, 23, 24, 25, 26, 27, 28, 29, 30, 31, 32, 33, 34, 35, 36, 37, 38, 39, 40, 41, 42, 43, 44, 45, 46, 47, 48, 49, 50, 51, 52, 53, 54, 55, 56, 57, 58, 59, 60, 61, 62, 63, 64, 65, 66, 67, 68, 69, 70, 71, 72, 73, 74, 75, 76, 77, 78, 79, 80, 81, 82, 83, 84, 85, 86, 87, 88, 89, 90, 91, 92, 93, 94, 95, 96, 97, 98, 99, 100, 101, 102, 103, 104, 105, 106, 107, 108, 109, 110, 111, 112, 113, 114, 115, 116, 117, 118, 119, 120, 121, 122, 123, 124, 125, 126, 127, 128, 129, 130, 131, 132, 133, 134, 135, 136, 137, 138, 139, 140, 141, 142, 143, 144, 145, 146, 147, 148, 149, 150, 151, 152, 153, 154, 155, 156, 157, 158, 159, 160, 161, 162, 163, 164, 165, 166, rowcost
C major (0), 2:0:0:0:2, 6:0:1:0:2, 1:0:0:0:1, 1:0:0:0:1, 2:0:0:0:2, 6:0:1:0:2, 1:0:0:0:1, 1:0:0:0:1, 2:0:1:0:1, 1:0:0:0:0, 2:0:0:0:0, 0:0:0:0:0, 3:0:0:0:1, 2:0:0:0:1, 1:0:0:0:2, 1:0:0:0:1, 2:0:0:0:0, 6:0:1:0:2, 3:0:0:0:1, 1:0:0:0:1, 2:0:0:0:2, 1:0:0:0:0, 3:0:0:0:0, 1:0:0:0:0, 1:0:0:0:0, 3:0:0:0:0, 3:0:0:0:2, 3:0:0:0:1, 0:0:0:0:0, 4:0:0:0:2, 1:0:0:0:0, 1:0:0:0:1, 2:0:0:0:3, 5:0:1:0:2, 1:0:0:0:1, 4:0:0:0:3, 3:0:0:0:1, 8:0:2:0:3, 3:0:0:0:1, 4:0:1:0:3, 2:0:0:0:1, 5:0:0:0:0, 2:0:0:0:0, 2:0:0:0:1, 4:0:0:0:2, 3:0:0:0:1, 2:0:0:0:1, 1:0:0:0:4, 2:0:1:0:1, 5:0:1:0:2, 1:0:0:0:2, 2:0:0:0:1, 3:0:0:0:0, 3:0:0:0:0, 1:0:0:0:0, 1:0:0:0:0, 2:0:0:0:0, 2:0:0:0:0, 5:0:1:0:3, 5:0:0:0:2, 0:0:0:0:0, 3:0:0:0:3, 5:0:0:0:0, 1:0:0:0:1, 2:0:0:0:1, 6:0:1:0:3, 1:0:0:0:1, 1:0:0:0:1, 2:0:0:0:0, 6:0:1:0:2, 1:0:0:0:1, 1:0:0:0:1, 2:0:0:0:2, 2:0:1:0:1, 1:0:0:0:0, 2:0:0:0:0, 2:0:0:0:3, 6:0:1:0:4, 2:0:0:0:1, 1:0:0:0:1, 2:0:0:0:2, 6:0:1:0:3, 3:0:0:0:1, 2:0:0:0:1, 1:0:0:0:0, 1:0:0:0:0, 1:0:0:0:0, 1:0:0:0:0, 3:0:0:0:2, 2:0:0:0:0, 5:0:0:0:3, 6:0:0:0:1, 0:0:0:0:0, 3:0:0:0:3, 2:0:0:0:0, 2:0:0:0:2, 1:0:0:0:0, 6:0:1:0:2, 2:0:0:0:1, 1:0:0:0:1, 3:0:0:0:2, 5:0:1:0:3, 3:0:0:0:2, 2:0:0:0:1, 2:0:0:0:1, 4:0:0:0:0, 1:0:0:0:0, 2:0:0:0:0, 3:0:0:0:4, 3:0:0:0:4, 3:0:0:0:4, 2:0:0:0:1, 2:0:0:0:0, 7:0:1:0:2, 3:0:0:0:1, 1:0:0:0:1, 2:0:0:0:0, 2:0:0:0:0, 1:0:0:0:0, 1:0:0:0:0, 1:0:0:0:0, 2:0:0:0:0, 2:0:0:0:4, 3:0:0:0:2, 1:0:0:0:0, 6:0:1:0:5, 2:0:0:0:2, 2:0:0:0:3, 1:0:0:0:0, 6:0:1:0:3, 2:0:0:0:1, 3:0:0:0:2, 2:0:1:0:1, 10:0:3:0:5, 3:0:0:0:2, 4:0:0:0:3, 1:0:0:0:0, 4:0:0:0:1, 1:0:0:0:0, 1:0:0:0:0, 3:0:0:0:2, 4:0:0:0:7, 4:0:0:0:3, 4:0:0:0:3, 3:0:0:0:0, 8:0:1:0:2, 3:0:0:0:2, 4:0:0:0:3, 1:0:0:0:0, 1:0:0:0:0, 1:0:0:0:0, 1:0:0:0:0, 6:0:1:0:1, 4:0:0:0:2, 2:0:0:0:1, 5:0:0:0:1, 0:0:0:0:0, 6:0:0:0:3, 1:0:0:0:0, 1:0:0:0:0, 1:0:0:0:0, 0:0:0:0:0, 2:0:0:0:0, 2:0:0:0:0, 3:0:0:0:3, 0:0:0:0:0, 0:0:0:0:0, 426:0:27:0:209
A minor (0), 2:0:0:0:2, 6:0:1:0:2, 1:0:0:0:1, 1:0:0:0:1, 2:0:0:0:2, 6:0:1:0:2, 1:0:0:0:1, 1:0:0:0:1, 2:0:1:0:1, 1:0:0:0:0, 2:0:0:0:0, 0:0:0:0:0, 3:0:0:0:1, 2:0:0:0:1, 1:0:0:0:2, 1:0:0:0:1, 2:0:0:0:0, 6:0:1:0:2, 3:0:0:0:1, 1:0:0:0:1, 2:0:0:0:2, 1:0:0:0:0, 3:0:0:0:0, 1:0:0:0:0, 1:0:0:0:0, 3:0:0:0:0, 3:0:0:0:2, 3:0:0:0:1, 0:0:0:0:0, 4:0:0:0:2, 1:0:0:0:0, 1:0:0:0:1, 2:0:0:0:3, 5:0:1:0:2, 1:0:0:0:1, 4:0:0:0:3, 3:0:0:0:1, 8:0:2:0:3, 3:0:0:0:1, 4:0:1:0:3, 2:0:0:0:1, 5:0:0:0:0, 2:0:0:0:0, 2:0:0:0:1, 4:0:0:0:2, 3:0:0:0:1, 2:0:0:0:1, 1:0:0:0:4, 2:0:1:0:1, 5:0:1:0:2, 1:0:0:0:2, 2:0:0:0:1, 3:0:0:0:0, 3:0:0:0:0, 1:0:0:0:0, 1:0:0:0:0, 2:0:0:0:0, 2:0:0:0:0, 5:0:1:0:3, 5:0:0:0:2, 0:0:0:0:0, 3:0:0:0:3, 5:0:0:0:0, 1:0:0:0:1, 2:0:0:0:1, 6:0:1:0:3, 1:0:0:0:1, 1:0:0:0:1, 2:0:0:0:0, 6:0:1:0:2, 1:0:0:0:1, 1:0:0:0:1, 2:0:0:0:2, 2:0:1:0:1, 1:0:0:0:0, 2:0:0:0:0, 2:0:0:0:3, 6:0:1:0:4, 2:0:0:0:1, 1:0:0:0:1, 2:0:0:0:2, 6:0:1:0:3, 3:0:0:0:1, 2:0:0:0:1, 1:0:0:0:0, 1:0:0:0:0, 1:0:0:0:0, 1:0:0:0:0, 3:0:0:0:2, 2:0:0:0:0, 5:0:0:0:3, 6:0:0:0:1, 0:0:0:0:0, 3:0:0:0:3, 2:0:0:0:0, 2:0:0:0:2, 1:0:0:0:0, 6:0:1:0:2, 2:0:0:0:1, 1:0:0:0:1, 3:0:0:0:2, 5:0:1:0:3, 3:0:0:0:2, 2:0:0:0:1, 2:0:0:0:1, 4:0:0:0:0, 1:0:0:0:0, 2:0:0:0:0, 3:0:0:0:4, 3:0:0:0:4, 3:0:0:0:4, 2:0:0:0:1, 2:0:0:0:0, 7:0:1:0:2, 3:0:0:0:1, 1:0:0:0:1, 2:0:0:0:0, 2:0:0:0:0, 1:0:0:0:0, 1:0:0:0:0, 1:0:0:0:0, 2:0:0:0:0, 2:0:0:0:4, 3:0:0:0:2, 1:0:0:0:0, 6:0:1:0:5, 2:0:0:0:2, 2:0:0:0:3, 1:0:0:0:0, 6:0:1:0:3, 2:0:0:0:1, 3:0:0:0:2, 2:0:1:0:1, 10:0:3:0:5, 3:0:0:0:2, 4:0:0:0:3, 1:0:0:0:0, 4:0:0:0:1, 1:0:0:0:0, 1:0:0:0:0, 3:0:0:0:2, 4:0:0:0:7, 4:0:0:0:3, 4:0:0:0:3, 3:0:0:0:0, 8:0:1:0:2, 3:0:0:0:2, 4:0:0:0:3, 1:0:0:0:0, 1:0:0:0:0, 1:0:0:0:0, 1:0:0:0:0, 6:0:1:0:1, 4:0:0:0:2, 2:0:0:0:1, 5:0:0:0:1, 0:0:0:0:0, 6:0:0:0:3, 1:0:0:0:0, 1:0:0:0:0, 1:0:0:0:0, 0:0:0:0:0, 2:0:0:0:0, 2:0:0:0:0, 3:0:0:0:3, 0:0:0:0:0, 0:0:0:0:0, 426:0:27:0:209
F major (1b), 3:3:0:0:3, 6:2:1:0:3, 2:1:0:0:1, 2:1:0:0:1, 3:3:0:0:3, 6:2:1:0:3, 2:1:0:0:1, 2:1:0:0:1, 2:3:1:0:3, 1:1:0:0:1, 3:1:0:0:1, 1:0:0:0:0, 4:1:0:0:1, 3:4:0:0:4, 2:2:0:0:2, 2:1:0:0:1, 3:1:0:0:1, 6:2:1:0:3, 4:1:0:0:1, 2:1:0:0:1, 2:3:0:0:3, 1:1:0:0:1, 4:1:0:0:1, 1:1:0:0:1, 2:2:0:0:2, 2:4:0:0:4, 3:3:0:0:3, 4:2:0:0:2, 1:0:0:0:0, 5:2:0:0:2, 2:1:0:0:1, 2:1:0:0:1, 3:4:0:0:4, 5:2:1:0:3, 2:1:0:0:1, 5:5:0:0:5, 4:3:0:0:3, 8:6:2:0:7, 4:1:0:0:1, 5:3:1:0:3, 2:1:0:0:1, 6:2:0:0:2, 3:3:0:0:3, 2:0:0:0:0, 5:4:0:0:4, 4:4:0:0:4, 3:1:0:0:1, 2:4:0:0:4, 3:3:1:0:3, 5:2:2:0:4, 2:2:0:0:2, 3:1:0:0:1, 3:1:0:0:1, 2:2:0:0:2, 2:3:0:0:3, 2:2:0:0:2, 3:1:0:0:1, 1:1:0:0:1, 6:5:1:0:5, 6:3:0:0:3, 1:0:0:0:0, 4:3:0:0:3, 6:1:0:0:1, 2:1:0:0:1, 3:2:0:0:2, 5:2:2:0:4, 2:1:0:0:1, 2:1:0:0:1, 3:1:0:0:1, 6:2:1:0:3, 2:1:0:0:1, 2:1:0:0:1, 2:3:0:0:3, 2:3:1:0:3, 2:4:0:0:4, 3:1:0:0:1, 3:3:0:0:3, 7:6:1:0:6, 3:1:0:0:1, 1:1:0:0:1, 3:3:0:0:3, 6:3:1:0:4, 4:1:0:0:1, 3:2:0:0:2, 1:2:0:0:2, 1:1:0:0:1, 2:3:0:0:3, 2:1:0:0:1, 4:3:0:0:3, 1:3:0:0:3, 5:6:0:0:6, 7:2:0:0:2, 1:0:0:0:0, 4:3:0:0:3, 3:3:0:0:3, 3:2:0:0:2, 2:1:0:0:1, 6:2:1:0:3, 3:1:0:0:1, 2:1:0:0:1, 4:5:0:0:5, 5:4:2:0:6, 4:2:0:0:2, 3:2:0:0:2, 2:3:0:0:3, 5:1:0:0:1, 2:1:0:0:1, 1:0:0:0:0, 4:5:0:0:5, 4:7:0:0:7, 4:4:0:0:4, 2:4:0:0:4, 3:2:0:0:2, 7:4:1:0:5, 4:2:0:0:2, 2:1:0:0:1, 3:1:0:0:1, 3:2:0:0:2, 2:2:0:0:2, 2:1:0:0:1, 2:1:0:0:1, 1:2:0:0:2, 3:6:0:0:6, 4:3:0:0:3, 2:0:0:0:0, 7:4:1:0:5, 3:3:0:0:3, 3:3:0:0:3, 2:2:0:0:2, 6:3:1:0:4, 3:1:0:0:1, 4:2:0:0:2, 3:3:1:0:3, 10:4:1:2:7, 4:2:0:0:2, 5:3:0:0:3, 1:1:0:0:1, 5:3:0:0:3, 2:3:0:0:3, 2:0:0:0:0, 4:2:0:0:2, 5:10:0:0:10, 5:5:0:0:5, 3:3:0:0:3, 4:3:0:0:3, 7:2:1:0:3, 4:4:0:0:4, 5:3:0:0:3, 2:1:0:0:1, 2:3:0:0:3, 2:3:0:0:3, 1:1:0:0:1, 7:1:1:0:2, 3:5:0:0:5, 2:2:0:0:2, 6:2:0:0:2, 1:0:0:0:0, 7:3:0:0:3, 2:2:0:0:2, 2:2:0:0:2, 2:1:0:0:1, 1:0:0:0:0, 3:2:0:0:2, 3:0:0:0:0, 4:5:0:0:5, 0:0:0:0:0, 0:0:0:0:0, 538:371:28:2:393
G major (1#), 1:0:0:0:0, 5:2:1:0:1, 1:0:0:0:0, 1:0:0:0:0, 1:0:0:0:0, 5:2:1:0:1, 1:0:0:0:0, 1:0:0:0:0, 1:0:1:0:1, 0:0:0:0:0, 1:0:0:0:1, 0:0:0:0:0, 3:0:0:0:2, 1:0:0:0:1, 1:0:0:0:0, 1:0:0:0:0, 1:0:0:0:0, 5:2:1:0:1, 3:0:0:0:1, 1:0:0:0:0, 1:0:0:0:0, 0:0:0:0:0, 2:0:0:0:0, 0:0:0:0:0, 0:0:0:0:0, 2:1:0:0:0, 2:1:0:0:0, 2:2:0:0:3, 0:0:0:0:0, 3:0:0:0:1, 0:0:0:0:0, 1:0:0:0:0, 1:0:0:0:3, 4:3:1:0:1, 1:0:0:0:0, 3:0:0:0:1, 2:0:0:0:1, 7:2:2:0:2, 3:0:0:0:0, 4:0:1:0:2, 1:0:0:0:1, 4:1:0:0:1, 1:1:0:0:0, 2:0:0:0:0, 3:0:0:0:2, 2:0:0:0:1, 1:0:0:0:0, 2:0:0:0:0, 1:0:1:0:1, 4:2:1:0:1, 1:0:0:0:0, 3:0:0:0:0, 2:1:0:0:0, 2:2:0:0:0, 0:0:0:0:0, 0:0:0:0:0, 1:0:0:0:0, 1:2:0:0:0, 4:1:1:0:1, 4:0:0:0:2, 0:0:0:0:0, 4:0:0:0:1, 4:0:0:0:1, 1:0:0:0:0, 1:0:0:0:0, 5:2:1:0:2, 1:0:0:0:0, 1:0:0:0:0, 1:0:0:0:0, 5:2:1:0:1, 1:0:0:0:0, 1:0:0:0:0, 1:0:0:0:2, 1:0:1:0:1, 0:0:0:0:0, 1:1:0:0:0, 1:0:0:0:3, 5:0:1:0:3, 1:0:0:0:0, 1:0:0:0:0, 1:0:0:0:0, 5:2:1:0:1, 3:1:0:0:1, 1:0:0:0:0, 0:0:0:0:0, 0:0:0:0:0, 0:0:0:0:0, 0:0:0:0:0, 2:0:0:0:2, 1:2:0:0:0, 4:0:0:0:3, 5:0:0:0:4, 0:0:0:0:0, 3:0:0:0:1, 1:0:0:0:0, 1:0:0:0:0, 0:0:0:0:0, 5:3:1:0:1, 1:0:0:0:0, 1:0:0:0:0, 2:0:0:0:2, 4:2:1:0:1, 3:0:0:0:1, 1:0:0:0:0, 1:0:0:0:0, 3:0:0:0:1, 0:0:0:0:0, 1:0:0:0:1, 2:0:0:0:4, 2:0:0:0:4, 3:0:0:0:2, 1:0:0:0:0, 1:0:0:0:0, 6:3:1:0:1, 2:1:0:0:0, 1:0:0:0:0, 1:2:0:0:2, 1:1:0:0:0, 0:0:0:0:0, 0:0:0:0:0, 0:0:0:0:0, 1:1:0:0:0, 1:0:0:0:0, 2:0:0:0:2, 1:0:0:0:0, 6:4:1:0:5, 1:0:0:0:0, 1:0:0:0:0, 0:0:0:0:0, 5:3:1:0:1, 1:0:0:0:0, 3:0:0:0:1, 1:0:1:0:1, 9:2:3:0:6, 3:0:1:0:2, 3:0:0:0:1, 0:0:0:0:0, 3:0:0:0:2, 0:0:0:0:0, 2:0:0:0:0, 3:0:0:0:4, 3:0:0:0:6, 3:1:0:0:1, 3:0:0:0:2, 2:1:0:0:0, 7:4:1:0:1, 2:2:0:0:0, 5:0:0:0:0, 0:0:0:0:0, 0:0:0:0:0, 0:0:0:0:0, 0:0:0:0:0, 5:4:1:0:2, 3:2:0:0:2, 1:0:0:0:0, 4:0:0:0:2, 0:0:0:0:0, 6:1:0:0:2, 0:0:0:0:0, 0:0:0:0:0, 0:0:0:0:0, 0:0:0:0:0, 1:0:0:0:0, 1:0:0:0:0, 2:0:0:0:1, 0:0:0:0:0, 0:0:0:0:0, 310:72:28:0:123
D minor (1b), 3:3:0:0:3, 6:2:1:0:3, 2:1:0:0:1, 2:1:0:0:1, 3:3:0:0:3, 6:2:1:0:3, 2:1:0:0:1, 2:1:0:0:1, 2:3:1:0:3, 1:1:0:0:1, 3:1:0:0:1, 1:0:0:0:0, 4:1:0:0:1, 3:4:0:0:4, 2:2:0:0:2, 2:1:0:0:1, 3:1:0:0:1, 6:2:1:0:3, 4:1:0:0:1, 2:1:0:0:1, 2:3:0:0:3, 1:1:0:0:1, 4:1:0:0:1, 1:1:0:0:1, 2:2:0:0:2, 2:4:0:0:4, 3:3:0:0:3, 4:2:0:0:2, 1:0:0:0:0, 5:2:0:0:2, 2:1:0:0:1, 2:1:0:0:1, 3:4:0:0:4, 5:2:1:0:3, 2:1:0:0:1, 5:5:0:0:5, 4:3:0:0:3, 8:6:2:0:7, 4:1:0:0:1, 5:3:1:0:3, 2:1:0:0:1, 6:2:0:0:2, 3:3:0:0:3, 2:0:0:0:0, 5:4:0:0:4, 4:4:0:0:4, 3:1:0:0:1, 2:4:0:0:4, 3:3:1:0:3, 5:2:2:0:4, 2:2:0:0:2, 3:1:0:0:1, 3:1:0:0:1, 2:2:0:0:2, 2:3:0:0:3, 2:2:0:0:2, 3:1:0:0:1, 1:1:0:0:1, 6:5:1:0:5, 6:3:0:0:3, 1:0:0:0:0, 4:3:0:0:3, 6:1:0:0:1, 2:1:0:0:1, 3:2:0:0:2, 5:2:2:0:4, 2:1:0:0:1, 2:1:0:0:1, 3:1:0:0:1, 6:2:1:0:3, 2:1:0:0:1, 2:1:0:0:1, 2:3:0:0:3, 2:3:1:0:3, 2:4:0:0:4, 3:1:0:0:1, 3:3:0:0:3, 7:6:1:0:6, 3:1:0:0:1, 1:1:0:0:1, 3:3:0:0:3, 6:3:1:0:4, 4:1:0:0:1, 3:2:0:0:2, 1:2:0:0:2, 1:1:0:0:1, 2:3:0:0:3, 2:1:0:0:1, 4:3:0:0:3, 1:3:0:0:3, 5:6:0:0:6, 7:2:0:0:2, 1:0:0:0:0, 4:3:0:0:3, 3:3:0:0:3, 3:2:0:0:2, 2:1:0:0:1, 6:2:1:0:3, 3:1:0:0:1, 2:1:0:0:1, 4:5:0:0:5, 5:4:2:0:6, 4:2:0:0:2, 3:2:0:0:2, 2:3:0:0:3, 5:1:0:0:1, 2:1:0:0:1, 1:0:0:0:0, 4:5:0:0:5, 4:7:0:0:7, 4:4:0:0:4, 2:4:0:0:4, 3:2:0:0:2, 7:4:1:0:5, 4:2:0:0:2, 2:1:0:0:1, 3:1:0:0:1, 3:2:0:0:2, 2:2:0:0:2, 2:1:0:0:1, 2:1:0:0:1, 1:2:0:0:2, 3:6:0:0:6, 4:3:0:0:3, 2:0:0:0:0, 7:4:1:0:5, 3:3:0:0:3, 3:3:0:0:3, 2:2:0:0:2, 6:3:1:0:4, 3:1:0:0:1, 4:2:0:0:2, 3:3:1:0:3, 10:4:1:2:7, 4:2:0:0:2, 5:3:0:0:3, 1:1:0:0:1, 5:3:0:0:3, 2:3:0:0:3, 2:0:0:0:0, 4:2:0:0:2, 5:10:0:0:10, 5:5:0:0:5, 3:3:0:0:3, 4:3:0:0:3, 7:2:1:0:3, 4:4:0:0:4, 5:3:0:0:3, 2:1:0:0:1, 2:3:0:0:3, 2:3:0:0:3, 1:1:0:0:1, 7:1:1:0:2, 3:5:0:0:5, 2:2:0:0:2, 6:2:0:0:2, 1:0:0:0:0, 7:3:0:0:3, 2:2:0:0:2, 2:2:0:0:2, 2:1:0:0:1, 1:0:0:0:0, 3:2:0:0:2, 3:0:0:0:0, 4:5:0:0:5, 0:0:0:0:0, 0:0:0:0:0, 538:371:28:2:393
E minor (1#), 1:0:0:0:0, 5:2:1:0:1, 1:0:0:0:0, 1:0:0:0:0, 1:0:0:0:0, 5:2:1:0:1, 1:0:0:0:0, 1:0:0:0:0, 1:0:1:0:1, 0:0:0:0:0, 1:0:0:0:1, 0:0:0:0:0, 3:0:0:0:2, 1:0:0:0:1, 1:0:0:0:0, 1:0:0:0:0, 1:0:0:0:0, 5:2:1:0:1, 3:0:0:0:1, 1:0:0:0:0, 1:0:0:0:0, 0:0:0:0:0, 2:0:0:0:0, 0:0:0:0:0, 0:0:0:0:0, 2:1:0:0:0, 2:1:0:0:0, 2:2:0:0:3, 0:0:0:0:0, 3:0:0:0:1, 0:0:0:0:0, 1:0:0:0:0, 1:0:0:0:3, 4:3:1:0:1, 1:0:0:0:0, 3:0:0:0:1, 2:0:0:0:1, 7:2:2:0:2, 3:0:0:0:0, 4:0:1:0:2, 1:0:0:0:1, 4:1:0:0:1, 1:1:0:0:0, 2:0:0:0:0, 3:0:0:0:2, 2:0:0:0:1, 1:0:0:0:0, 2:0:0:0:0, 1:0:1:0:1, 4:2:1:0:1, 1:0:0:0:0, 3:0:0:0:0, 2:1:0:0:0, 2:2:0:0:0, 0:0:0:0:0, 0:0:0:0:0, 1:0:0:0:0, 1:2:0:0:0, 4:1:1:0:1, 4:0:0:0:2, 0:0:0:0:0, 4:0:0:0:1, 4:0:0:0:1, 1:0:0:0:0, 1:0:0:0:0, 5:2:1:0:2, 1:0:0:0:0, 1:0:0:0:0, 1:0:0:0:0, 5:2:1:0:1, 1:0:0:0:0, 1:0:0:0:0, 1:0:0:0:2, 1:0:1:0:1, 0:0:0:0:0, 1:1:0:0:0, 1:0:0:0:3, 5:0:1:0:3, 1:0:0:0:0, 1:0:0:0:0, 1:0:0:0:0, 5:2:1:0:1, 3:1:0:0:1, 1:0:0:0:0, 0:0:0:0:0, 0:0:0:0:0, 0:0:0:0:0, 0:0:0:0:0, 2:0:0:0:2, 1:2:0:0:0, 4:0:0:0:3, 5:0:0:0:4, 0:0:0:0:0, 3:0:0:0:1, 1:0:0:0:0, 1:0:0:0:0, 0:0:0:0:0, 5:3:1:0:1, 1:0:0:0:0, 1:0:0:0:0, 2:0:0:0:2, 4:2:1:0:1, 3:0:0:0:1, 1:0:0:0:0, 1:0:0:0:0, 3:0:0:0:1, 0:0:0:0:0, 1:0:0:0:1, 2:0:0:0:4, 2:0:0:0:4, 3:0:0:0:2, 1:0:0:0:0, 1:0:0:0:0, 6:3:1:0:1, 2:1:0:0:0, 1:0:0:0:0, 1:2:0:0:2, 1:1:0:0:0, 0:0:0:0:0, 0:0:0:0:0, 0:0:0:0:0, 1:1:0:0:0, 1:0:0:0:0, 2:0:0:0:2, 1:0:0:0:0, 6:4:1:0:5, 1:0:0:0:0, 1:0:0:0:0, 0:0:0:0:0, 5:3:1:0:1, 1:0:0:0:0, 3:0:0:0:1, 1:0:1:0:1, 9:2:3:0:6, 3:0:1:0:2, 3:0:0:0:1, 0:0:0:0:0, 3:0:0:0:2, 0:0:0:0:0, 2:0:0:0:0, 3:0:0:0:4, 3:0:0:0:6, 3:1:0:0:1, 3:0:0:0:2, 2:1:0:0:0, 7:4:1:0:1, 2:2:0:0:0, 5:0:0:0:0, 0:0:0:0:0, 0:0:0:0:0, 0:0:0:0:0, 0:0:0:0:0, 5:4:1:0:2, 3:2:0:0:2, 1:0:0:0:0, 4:0:0:0:2, 0:0:0:0:0, 6:1:0:0:2, 0:0:0:0:0, 0:0:0:0:0, 0:0:0:0:0, 0:0:0:0:0, 1:0:0:0:0, 1:0:0:0:0, 2:0:0:0:1, 0:0:0:0:0, 0:0:0:0:0, 310:72:28:0:123
Bb major (2b), 4:3:0:0:4, 7:2:1:0:2, 3:1:0:0:7, 3:1:0:0:2, 4:3:0:0:4, 7:2:1:0:2, 3:1:0:0:7, 3:1:0:0:2, 2:3:1:0:3, 2:1:0:0:1, 3:1:0:0:4, 1:0:0:0:2, 5:1:0:0:3, 4:4:0:0:6, 3:2:0:0:4, 3:1:0:0:3, 4:1:0:0:2, 7:2:1:0:2, 5:1:0:0:7, 3:1:0:0:2, 2:3:0:0:3, 2:1:0:0:1, 4:7:1:0:8, 2:1:0:0:1, 2:2:0:0:4, 3:4:0:0:4, 4:3:0:0:3, 4:2:0:0:3, 2:0:0:0:4, 6:2:0:0:3, 3:1:0:0:2, 3:1:0:0:2, 4:4:0:0:5, 6:2:1:0:2, 3:1:0:0:2, 6:5:0:0:6, 5:3:0:0:4, 9:6:2:0:6, 5:1:0:0:3, 6:3:1:0:5, 3:1:0:0:2, 7:2:0:0:3, 3:3:0:0:4, 3:0:0:0:0, 6:4:0:0:6, 5:4:0:0:7, 4:1:0:0:2, 3:4:0:0:6, 4:3:1:0:5, 6:2:2:0:2, 3:2:0:0:4, 4:1:0:0:2, 3:1:0:0:1, 3:2:0:0:2, 2:3:0:0:5, 3:2:0:0:3, 4:1:0:0:2, 2:1:0:0:1, 7:5:1:0:6, 6:3:1:0:5, 2:0:0:0:1, 5:3:0:0:4, 7:1:0:0:2, 3:1:0:0:2, 4:2:0:0:3, 6:2:2:0:2, 3:1:0:0:6, 3:1:0:0:2, 4:1:0:0:2, 7:2:1:0:2, 3:1:0:0:7, 3:1:0:0:3, 2:1:0:0:1, 3:3:1:0:3, 2:4:0:0:5, 3:1:1:0:4, 4:3:0:0:5, 6:6:1:0:9, 4:1:0:0:3, 2:1:0:0:1, 4:3:0:0:4, 7:3:1:0:3, 5:1:0:0:4, 4:2:0:0:3, 1:2:0:0:2, 2:1:0:0:1, 3:3:0:0:5, 3:1:0:0:2, 4:3:0:0:4, 2:3:0:0:3, 6:6:0:0:6, 6:2:0:0:3, 2:0:0:0:3, 5:3:0:0:5, 4:3:0:0:4, 4:2:0:0:4, 3:1:0:0:2, 7:2:1:0:2, 4:1:0:0:2, 3:1:0:0:2, 5:5:0:0:6, 6:4:2:0:4, 5:2:0:0:5, 4:2:0:0:4, 2:3:0:0:3, 6:1:0:0:2, 2:1:0:0:4, 1:0:0:0:0, 5:5:0:0:8, 5:7:0:0:10, 5:4:0:0:6, 3:4:0:0:4, 4:2:0:0:3, 8:4:1:0:4, 5:2:0:0:4, 3:1:0:0:2, 3:1:0:0:2, 4:2:0:0:3, 3:2:0:0:5, 3:1:0:0:3, 2:1:0:0:4, 2:2:0:0:2, 4:6:0:0:7, 4:2:0:0:5, 3:0:0:0:4, 8:4:1:0:5, 4:3:0:0:7, 4:3:0:0:5, 3:2:0:0:3, 7:3:1:0:3, 4:1:0:0:2, 5:2:0:0:3, 4:3:1:0:4, 11:4:1:2:6, 5:2:0:0:5, 6:3:0:0:6, 2:1:0:0:1, 6:3:0:0:4, 3:3:0:0:7, 3:0:0:0:2, 5:2:0:0:3, 6:10:0:0:12, 6:5:0:0:6, 4:3:0:0:3, 5:3:0:0:4, 8:2:1:0:2, 5:4:0:0:5, 6:3:0:0:4, 2:1:0:0:4, 3:3:0:0:5, 2:3:0:0:5, 2:1:0:0:1, 6:1:2:0:4, 4:5:0:0:5, 3:2:0:0:2, 6:2:0:0:4, 2:0:0:0:2, 8:3:0:0:4, 3:2:0:0:3, 3:2:0:0:3, 3:1:0:0:2, 2:0:0:0:1, 4:2:0:0:4, 4:0:0:0:1, 5:5:0:0:6, 0:0:0:0:0, 0:0:0:0:0, 672:374:32:2:601
D major (2#), 0:0:0:0:0, 4:2:1:0:2, 0:0:0:0:0, 0:0:0:0:0, 0:0:0:0:0, 4:2:1:0:2, 0:0:0:0:0, 0:0:0:0:0, 2:0:1:0:1, 1:0:0:0:0, 1:0:0:0:1, 0:0:0:0:0, 3:0:0:0:0, 1:0:0:0:0, 0:0:0:0:0, 0:0:0:0:0, 1:0:1:0:1, 4:2:1:0:2, 2:0:0:0:1, 0:0:0:0:0, 2:0:0:0:0, 1:0:0:0:0, 2:0:0:0:0, 1:0:0:0:0, 0:0:0:0:0, 3:1:0:0:0, 1:1:0:0:0, 2:0:2:0:3, 0:0:0:0:0, 2:0:0:0:0, 0:0:0:0:0, 0:0:0:0:0, 1:0:0:0:0, 3:3:1:0:3, 0:0:0:0:0, 2:0:0:0:1, 1:0:0:0:0, 6:2:2:0:3, 2:0:0:0:0, 3:0:1:0:2, 2:0:0:0:1, 5:1:0:0:0, 1:1:0:0:1, 1:0:0:0:0, 2:0:0:0:0, 3:0:0:0:0, 0:0:0:0:0, 1:0:0:0:0, 1:0:1:0:1, 3:2:1:0:2, 0:0:0:0:0, 2:0:0:0:0, 3:1:0:0:1, 3:2:0:0:0, 0:0:0:0:0, 1:0:0:0:0, 2:0:0:0:0, 2:2:0:0:0, 3:1:1:0:1, 3:0:0:0:2, 0:0:0:0:0, 3:0:0:0:0, 4:0:2:0:2, 0:0:0:0:0, 0:0:0:0:0, 4:2:1:0:3, 0:0:0:0:0, 0:0:0:0:0, 0:0:0:0:0, 4:2:1:0:2, 0:0:0:0:0, 0:0:0:0:0, 2:0:0:0:2, 2:0:1:0:1, 0:0:0:0:0, 1:1:0:0:0, 1:0:0:0:0, 4:0:1:0:2, 0:0:0:0:0, 0:0:0:0:0, 0:0:0:0:0, 4:2:1:0:2, 2:1:0:0:1, 0:0:0:0:0, 1:0:0:0:0, 1:0:0:0:0, 1:0:0:0:0, 1:0:0:0:0, 2:0:0:0:0, 2:2:0:0:0, 3:0:0:0:1, 4:0:0:0:4, 0:0:0:0:0, 2:0:0:0:0, 0:0:0:0:0, 0:0:0:0:0, 0:0:0:0:0, 4:3:1:0:3, 0:0:0:0:0, 0:0:0:0:0, 2:0:0:0:0, 3:2:1:0:2, 2:0:0:0:1, 0:0:0:0:0, 2:0:0:0:0, 4:0:0:0:1, 0:0:0:0:0, 1:0:0:0:1, 2:0:0:0:1, 2:0:0:0:2, 2:0:0:0:2, 0:0:0:0:0, 1:0:0:0:0, 5:3:1:0:3, 1:1:0:0:0, 0:0:0:0:0, 2:2:0:0:2, 2:1:0:0:0, 1:0:0:0:0, 1:0:0:0:0, 0:0:0:0:0, 2:1:0:0:0, 0:0:0:0:0, 1:0:0:0:2, 0:0:0:0:0, 7:1:1:0:3, 0:0:0:0:0, 0:0:0:0:0, 0:0:0:0:0, 4:3:1:0:3, 0:0:0:0:0, 2:0:0:0:0, 1:0:1:0:1, 8:2:3:0:6, 2:0:1:0:1, 2:0:0:0:1, 1:0:0:0:0, 4:0:0:0:1, 1:0:0:0:0, 2:0:0:0:0, 2:0:0:0:2, 2:0:0:0:2, 2:1:0:0:2, 2:0:0:0:2, 1:1:0:0:0, 6:4:1:0:3, 1:2:0:0:0, 4:0:0:0:0, 1:0:0:0:0, 1:0:0:0:0, 0:0:0:0:0, 1:0:0:0:0, 5:4:1:0:2, 4:2:0:0:0, 0:0:0:0:0, 5:0:0:0:2, 0:0:0:0:0, 6:1:1:0:1, 0:0:0:0:0, 0:0:0:0:0, 0:0:0:0:0, 0:0:0:0:0, 0:0:0:0:0, 0:0:0:0:0, 1:0:0:0:0, 0:0:0:0:0, 0:0:0:0:0, 259:67:34:0:103
G minor (2b), 4:3:0:0:4, 7:2:1:0:2, 3:1:0:0:7, 3:1:0:0:2, 4:3:0:0:4, 7:2:1:0:2, 3:1:0:0:7, 3:1:0:0:2, 2:3:1:0:3, 2:1:0:0:1, 3:1:0:0:4, 1:0:0:0:2, 5:1:0:0:3, 4:4:0:0:6, 3:2:0:0:4, 3:1:0:0:3, 4:1:0:0:2, 7:2:1:0:2, 5:1:0:0:7, 3:1:0:0:2, 2:3:0:0:3, 2:1:0:0:1, 4:7:1:0:8, 2:1:0:0:1, 2:2:0:0:4, 3:4:0:0:4, 4:3:0:0:3, 4:2:0:0:3, 2:0:0:0:4, 6:2:0:0:3, 3:1:0:0:2, 3:1:0:0:2, 4:4:0:0:5, 6:2:1:0:2, 3:1:0:0:2, 6:5:0:0:6, 5:3:0:0:4, 9:6:2:0:6, 5:1:0:0:3, 6:3:1:0:5, 3:1:0:0:2, 7:2:0:0:3, 3:3:0:0:4, 3:0:0:0:0, 6:4:0:0:6, 5:4:0:0:7, 4:1:0:0:2, 3:4:0:0:6, 4:3:1:0:5, 6:2:2:0:2, 3:2:0:0:4, 4:1:0:0:2, 3:1:0:0:1, 3:2:0:0:2, 2:3:0:0:5, 3:2:0:0:3, 4:1:0:0:2, 2:1:0:0:1, 7:5:1:0:6, 6:3:1:0:5, 2:0:0:0:1, 5:3:0:0:4, 7:1:0:0:2, 3:1:0:0:2, 4:2:0:0:3, 6:2:2:0:2, 3:1:0:0:6, 3:1:0:0:2, 4:1:0:0:2, 7:2:1:0:2, 3:1:0:0:7, 3:1:0:0:3, 2:1:0:0:1, 3:3:1:0:3, 2:4:0:0:5, 3:1:1:0:4, 4:3:0:0:5, 6:6:1:0:9, 4:1:0:0:3, 2:1:0:0:1, 4:3:0:0:4, 7:3:1:0:3, 5:1:0:0:4, 4:2:0:0:3, 1:2:0:0:2, 2:1:0:0:1, 3:3:0:0:5, 3:1:0:0:2, 4:3:0:0:4, 2:3:0:0:3, 6:6:0:0:6, 6:2:0:0:3, 2:0:0:0:3, 5:3:0:0:5, 4:3:0:0:4, 4:2:0:0:4, 3:1:0:0:2, 7:2:1:0:2, 4:1:0:0:2, 3:1:0:0:2, 5:5:0:0:6, 6:4:2:0:4, 5:2:0:0:5, 4:2:0:0:4, 2:3:0:0:3, 6:1:0:0:2, 2:1:0:0:4, 1:0:0:0:0, 5:5:0:0:8, 5:7:0:0:10, 5:4:0:0:6, 3:4:0:0:4, 4:2:0:0:3, 8:4:1:0:4, 5:2:0:0:4, 3:1:0:0:2, 3:1:0:0:2, 4:2:0:0:3, 3:2:0:0:5, 3:1:0:0:3, 2:1:0:0:4, 2:2:0:0:2, 4:6:0:0:7, 4:2:0:0:5, 3:0:0:0:4, 8:4:1:0:5, 4:3:0:0:7, 4:3:0:0:5, 3:2:0:0:3, 7:3:1:0:3, 4:1:0:0:2, 5:2:0:0:3, 4:3:1:0:4, 11:4:1:2:6, 5:2:0:0:5, 6:3:0:0:6, 2:1:0:0:1, 6:3:0:0:4, 3:3:0:0:7, 3:0:0:0:2, 5:2:0:0:3, 6:10:0:0:12, 6:5:0:0:6, 4:3:0:0:3, 5:3:0:0:4, 8:2:1:0:2, 5:4:0:0:5, 6:3:0:0:4, 2:1:0:0:4, 3:3:0:0:5, 2:3:0:0:5, 2:1:0:0:1, 6:1:2:0:4, 4:5:0:0:5, 3:2:0:0:2, 6:2:0:0:4, 2:0:0:0:2, 8:3:0:0:4, 3:2:0:0:3, 3:2:0:0:3, 3:1:0:0:2, 2:0:0:0:1, 4:2:0:0:4, 4:0:0:0:1, 5:5:0:0:6, 0:0:0:0:0, 0:0:0:0:0, 672:374:32:2:601
B minor (2#), 0:0:0:0:0, 4:2:1:0:2, 0:0:0:0:0, 0:0:0:0:0, 0:0:0:0:0, 4:2:1:0:2, 0:0:0:0:0, 0:0:0:0:0, 2:0:1:0:1, 1:0:0:0:0, 1:0:0:0:1, 0:0:0:0:0, 3:0:0:0:0, 1:0:0:0:0, 0:0:0:0:0, 0:0:0:0:0, 1:0:1:0:1, 4:2:1:0:2, 2:0:0:0:1, 0:0:0:0:0, 2:0:0:0:0, 1:0:0:0:0, 2:0:0:0:0, 1:0:0:0:0, 0:0:0:0:0, 3:1:0:0:0, 1:1:0:0:0, 2:0:2:0:3, 0:0:0:0:0, 2:0:0:0:0, 0:0:0:0:0, 0:0:0:0:0, 1:0:0:0:0, 3:3:1:0:3, 0:0:0:0:0, 2:0:0:0:1, 1:0:0:0:0, 6:2:2:0:3, 2:0:0:0:0, 3:0:1:0:2, 2:0:0:0:1, 5:1:0:0:0, 1:1:0:0:1, 1:0:0:0:0, 2:0:0:0:0, 3:0:0:0:0, 0:0:0:0:0, 1:0:0:0:0, 1:0:1:0:1, 3:2:1:0:2, 0:0:0:0:0, 2:0:0:0:0, 3:1:0:0:1, 3:2:0:0:0, 0:0:0:0:0, 1:0:0:0:0, 2:0:0:0:0, 2:2:0:0:0, 3:1:1:0:1, 3:0:0:0:2, 0:0:0:0:0, 3:0:0:0:0, 4:0:2:0:2, 0:0:0:0:0, 0:0:0:0:0, 4:2:1:0:3, 0:0:0:0:0, 0:0:0:0:0, 0:0:0:0:0, 4:2:1:0:2, 0:0:0:0:0, 0:0:0:0:0, 2:0:0:0:2, 2:0:1:0:1, 0:0:0:0:0, 1:1:0:0:0, 1:0:0:0:0, 4:0:1:0:2, 0:0:0:0:0, 0:0:0:0:0, 0:0:0:0:0, 4:2:1:0:2, 2:1:0:0:1, 0:0:0:0:0, 1:0:0:0:0, 1:0:0:0:0, 1:0:0:0:0, 1:0:0:0:0, 2:0:0:0:0, 2:2:0:0:0, 3:0:0:0:1, 4:0:0:0:4, 0:0:0:0:0, 2:0:0:0:0, 0:0:0:0:0, 0:0:0:0:0, 0:0:0:0:0, 4:3:1:0:3, 0:0:0:0:0, 0:0:0:0:0, 2:0:0:0:0, 3:2:1:0:2, 2:0:0:0:1, 0:0:0:0:0, 2:0:0:0:0, 4:0:0:0:1, 0:0:0:0:0, 1:0:0:0:1, 2:0:0:0:1, 2:0:0:0:2, 2:0:0:0:2, 0:0:0:0:0, 1:0:0:0:0, 5:3:1:0:3, 1:1:0:0:0, 0:0:0:0:0, 2:2:0:0:2, 2:1:0:0:0, 1:0:0:0:0, 1:0:0:0:0, 0:0:0:0:0, 2:1:0:0:0, 0:0:0:0:0, 1:0:0:0:2, 0:0:0:0:0, 7:1:1:0:3, 0:0:0:0:0, 0:0:0:0:0, 0:0:0:0:0, 4:3:1:0:3, 0:0:0:0:0, 2:0:0:0:0, 1:0:1:0:1, 8:2:3:0:6, 2:0:1:0:1, 2:0:0:0:1, 1:0:0:0:0, 4:0:0:0:1, 1:0:0:0:0, 2:0:0:0:0, 2:0:0:0:2, 2:0:0:0:2, 2:1:0:0:2, 2:0:0:0:2, 1:1:0:0:0, 6:4:1:0:3, 1:2:0:0:0, 4:0:0:0:0, 1:0:0:0:0, 1:0:0:0:0, 0:0:0:0:0, 1:0:0:0:0, 5:4:1:0:2, 4:2:0:0:0, 0:0:0:0:0, 5:0:0:0:2, 0:0:0:0:0, 6:1:1:0:1, 0:0:0:0:0, 0:0:0:0:0, 0:0:0:0:0, 0:0:0:0:0, 0:0:0:0:0, 0:0:0:0:0, 1:0:0:0:0, 0:0:0:0:0, 0:0:0:0:0, 259:67:34:0:103
Eb major (3b), 5:3:0:0:5, 8:2:1:0:5, 4:1:0:0:9, 4:1:0:0:4, 5:3:0:0:5, 8:2:1:0:5, 4:1:0:0:9, 4:1:0:0:4, 3:3:1:0:3, 3:1:0:0:4, 4:1:0:0:4, 1:0:0:0:2, 4:1:0:0:4, 5:4:0:0:8, 4:2:0:0:7, 4:1:0:0:4, 5:1:0:0:3, 8:2:1:0:5, 5:2:0:0:10, 4:1:0:0:4, 3:3:0:0:3, 3:1:0:0:4, 4:7:1:0:9, 3:1:0:0:3, 2:2:0:0:4, 3:4:0:0:5, 5:3:0:0:7, 5:2:0:0:3, 2:0:0:0:5, 7:2:0:0:6, 4:1:0:0:3, 4:1:0:0:4, 5:4:0:0:6, 7:2:1:0:3, 4:1:0:0:4, 7:5:0:0:9, 6:3:0:0:5, 10:6:2:0:7, 6:1:0:0:6, 7:3:1:0:9, 4:1:0:0:3, 8:2:0:0:5, 4:3:0:0:4, 3:0:0:0:2, 7:3:0:0:8, 6:4:0:0:10, 5:1:0:0:4, 4:4:0:0:7, 5:3:1:0:6, 7:2:2:0:3, 4:2:0:0:6, 5:1:0:0:4, 4:1:0:0:1, 4:2:0:0:3, 3:3:0:0:5, 4:2:0:0:5, 5:1:0:0:3, 2:1:0:0:4, 8:5:1:0:7, 7:3:1:0:4, 2:0:0:0:2, 6:3:0:0:6, 8:1:0:0:3, 4:1:0:0:4, 5:2:0:0:4, 7:2:2:0:3, 4:1:0:0:8, 4:1:0:0:4, 5:1:0:0:5, 8:2:1:0:4, 4:1:0:0:9, 4:1:0:0:5, 3:1:0:0:2, 4:3:1:0:6, 3:4:0:0:5, 4:1:1:0:3, 4:1:0:0:4, 7:6:1:0:12, 5:1:0:0:5, 3:1:0:0:2, 5:3:0:0:7, 8:3:1:0:6, 6:1:0:0:7, 5:2:0:0:6, 2:2:0:0:2, 3:1:0:0:2, 3:3:0:0:7, 4:1:0:0:3, 4:1:0:0:2, 3:3:0:0:4, 7:6:0:0:8, 7:2:0:0:3, 3:0:0:0:4, 6:3:0:0:8, 5:3:0:0:6, 5:2:0:0:8, 4:1:0:0:3, 8:2:1:0:3, 5:1:0:0:4, 4:1:0:0:4, 6:5:0:0:7, 7:4:2:0:6, 5:3:0:0:9, 5:2:0:0:6, 3:3:0:0:3, 7:1:0:0:4, 3:1:0:0:4, 1:0:0:0:0, 5:4:0:0:10, 6:7:0:0:12, 6:4:0:0:9, 4:4:0:0:6, 5:2:0:0:4, 9:4:1:0:5, 6:2:0:0:7, 4:1:0:0:4, 4:1:0:0:2, 5:2:0:0:5, 4:2:0:0:7, 4:1:0:0:4, 3:1:0:0:4, 2:2:0:0:5, 5:6:0:0:9, 5:2:0:0:5, 4:0:0:0:5, 9:2:1:0:5, 5:3:0:0:8, 5:3:0:0:9, 4:2:0:0:4, 8:3:1:0:4, 5:1:0:0:4, 6:2:0:0:6, 5:3:1:0:6, 12:4:1:2:8, 6:2:0:0:9, 7:3:0:0:10, 3:1:0:0:2, 7:3:0:0:6, 4:3:0:0:8, 4:0:0:0:3, 5:1:0:0:3, 7:10:0:0:13, 7:5:0:0:10, 5:3:0:0:4, 6:3:0:0:5, 9:2:1:0:3, 6:4:0:0:7, 7:3:0:0:7, 3:1:0:0:4, 4:3:0:0:6, 3:3:0:0:5, 3:1:0:0:2, 5:1:2:2:4, 4:3:0:0:4, 4:2:0:0:3, 7:2:0:0:4, 3:0:0:0:4, 9:3:0:0:7, 4:2:0:0:4, 4:2:0:0:5, 4:1:0:0:3, 3:0:0:0:2, 5:2:0:0:6, 5:0:0:0:4, 6:5:0:0:9, 1:0:0:0:0, 1:0:0:0:0, 817:365:32:4:858
A major (3#), 0:0:0:0:0, 4:2:1:0:2, 1:0:0:0:0, 1:0:0:0:0, 0:0:0:0:0, 4:2:1:0:2, 1:0:0:0:0, 1:0:0:0:0, 2:0:1:0:1, 2:0:0:0:0, 2:0:0:0:1, 0:0:0:0:0, 2:0:0:0:0, 0:0:0:0:0, 1:0:0:0:0, 1:0:0:0:0, 1:0:1:0:1, 4:2:1:0:2, 3:0:0:0:1, 1:0:0:0:0, 2:0:0:0:0, 2:0:0:0:0, 3:0:0:0:0, 2:0:0:0:0, 1:0:0:0:0, 4:1:0:0:0, 1:1:0:0:1, 2:0:2:0:2, 1:0:0:0:0, 1:0:0:0:0, 0:0:0:0:0, 1:0:0:0:0, 0:0:0:0:0, 3:2:1:0:2, 1:0:0:0:0, 3:0:0:0:0, 2:0:0:0:0, 7:2:2:0:3, 3:0:0:0:0, 4:0:1:0:1, 2:0:0:0:1, 6:1:0:0:0, 2:1:0:0:1, 1:0:0:0:0, 1:0:0:0:0, 3:4:0:2:2, 1:0:0:0:0, 2:0:0:0:0, 1:0:1:0:1, 3:2:1:0:2, 1:0:0:0:0, 3:0:0:0:0, 4:1:0:0:1, 4:2:0:0:1, 1:0:0:0:0, 2:0:0:0:0, 3:0:0:0:0, 3:2:0:0:0, 4:1:1:0:2, 3:0:0:0:0, 1:0:0:0:0, 2:0:0:0:0, 4:0:4:3:7, 1:0:0:0:0, 0:0:0:0:0, 4:2:1:0:3, 1:0:0:0:0, 1:0:0:0:0, 0:0:0:0:0, 4:2:1:0:2, 1:0:0:0:0, 1:0:0:0:0, 2:0:0:0:0, 3:0:1:0:1, 1:0:0:0:0, 2:1:0:0:1, 0:0:0:0:0, 3:0:1:0:1, 1:0:0:0:0, 1:0:0:0:0, 0:0:0:0:0, 4:2:1:0:2, 3:1:0:0:1, 1:0:0:0:0, 2:0:0:0:0, 2:0:0:0:0, 2:0:0:0:0, 2:0:0:0:0, 3:0:0:0:0, 3:2:0:0:0, 4:0:0:0:0, 4:0:0:0:1, 1:0:0:0:0, 1:0:0:0:0, 0:0:0:0:0, 1:0:0:0:0, 0:0:0:0:0, 4:2:1:0:2, 1:0:0:0:0, 1:0:0:0:0, 1:0:0:0:0, 3:2:1:0:2, 3:0:0:0:1, 1:0:0:0:0, 3:0:0:0:0, 5:0:0:0:0, 1:0:0:0:0, 1:0:0:0:1, 1:0:0:0:1, 1:0:0:0:2, 3:0:0:0:0, 1:0:0:0:0, 1:0:0:0:0, 6:3:1:0:3, 2:1:0:0:0, 1:0:0:0:0, 2:2:0:0:2, 3:1:0:0:1, 2:0:0:0:0, 2:0:0:0:0, 1:0:0:0:0, 3:1:0:0:0, 0:0:0:0:0, 1:0:0:0:0, 1:0:0:0:0, 6:1:1:0:3, 1:0:0:0:0, 1:0:0:0:0, 0:0:0:0:0, 4:2:1:0:2, 1:0:0:0:0, 3:0:0:0:0, 1:0:1:0:1, 9:2:3:0:5, 3:0:1:0:1, 3:0:0:0:1, 2:0:0:0:0, 5:0:0:0:0, 2:0:0:0:0, 2:0:0:0:0, 1:0:0:0:2, 1:0:0:0:2, 3:1:0:0:1, 3:0:0:0:1, 1:1:0:0:0, 7:4:1:0:3, 2:2:0:0:0, 5:0:0:0:0, 1:0:0:0:0, 2:0:0:0:0, 1:0:0:0:0, 2:0:0:0:0, 6:4:1:0:4, 5:2:0:0:0, 0:0:0:0:0, 5:0:0:0:1, 1:0:0:0:0, 5:1:1:0:1, 1:0:0:0:0, 1:0:0:0:0, 0:0:0:0:0, 1:0:0:0:0, 1:0:0:0:0, 1:0:0:0:0, 0:0:0:0:0, 0:0:0:0:0, 0:0:0:0:0, 344:68:36:5:92
C minor (3b), 5:3:0:0:5, 8:2:1:0:5, 4:1:0:0:9, 4:1:0:0:4, 5:3:0:0:5, 8:2:1:0:5, 4:1:0:0:9, 4:1:0:0:4, 3:3:1:0:3, 3:1:0:0:4, 4:1:0:0:4, 1:0:0:0:2, 4:1:0:0:4, 5:4:0:0:8, 4:2:0:0:7, 4:1:0:0:4, 5:1:0:0:3, 8:2:1:0:5, 5:2:0:0:10, 4:1:0:0:4, 3:3:0:0:3, 3:1:0:0:4, 4:7:1:0:9, 3:1:0:0:3, 2:2:0:0:4, 3:4:0:0:5, 5:3:0:0:7, 5:2:0:0:3, 2:0:0:0:5, 7:2:0:0:6, 4:1:0:0:3, 4:1:0:0:4, 5:4:0:0:6, 7:2:1:0:3, 4:1:0:0:4, 7:5:0:0:9, 6:3:0:0:5, 10:6:2:0:7, 6:1:0:0:6, 7:3:1:0:9, 4:1:0:0:3, 8:2:0:0:5, 4:3:0:0:4, 3:0:0:0:2, 7:3:0:0:8, 6:4:0:0:10, 5:1:0:0:4, 4:4:0:0:7, 5:3:1:0:6, 7:2:2:0:3, 4:2:0:0:6, 5:1:0:0:4, 4:1:0:0:1, 4:2:0:0:3, 3:3:0:0:5, 4:2:0:0:5, 5:1:0:0:3, 2:1:0:0:4, 8:5:1:0:7, 7:3:1:0:4, 2:0:0:0:2, 6:3:0:0:6, 8:1:0:0:3, 4:1:0:0:4, 5:2:0:0:4, 7:2:2:0:3, 4:1:0:0:8, 4:1:0:0:4, 5:1:0:0:5, 8:2:1:0:4, 4:1:0:0:9, 4:1:0:0:5, 3:1:0:0:2, 4:3:1:0:6, 3:4:0:0:5, 4:1:1:0:3, 4:1:0:0:4, 7:6:1:0:12, 5:1:0:0:5, 3:1:0:0:2, 5:3:0:0:7, 8:3:1:0:6, 6:1:0:0:7, 5:2:0:0:6, 2:2:0:0:2, 3:1:0:0:2, 3:3:0:0:7, 4:1:0:0:3, 4:1:0:0:2, 3:3:0:0:4, 7:6:0:0:8, 7:2:0:0:3, 3:0:0:0:4, 6:3:0:0:8, 5:3:0:0:6, 5:2:0:0:8, 4:1:0:0:3, 8:2:1:0:3, 5:1:0:0:4, 4:1:0:0:4, 6:5:0:0:7, 7:4:2:0:6, 5:3:0:0:9, 5:2:0:0:6, 3:3:0:0:3, 7:1:0:0:4, 3:1:0:0:4, 1:0:0:0:0, 5:4:0:0:10, 6:7:0:0:12, 6:4:0:0:9, 4:4:0:0:6, 5:2:0:0:4, 9:4:1:0:5, 6:2:0:0:7, 4:1:0:0:4, 4:1:0:0:2, 5:2:0:0:5, 4:2:0:0:7, 4:1:0:0:4, 3:1:0:0:4, 2:2:0:0:5, 5:6:0:0:9, 5:2:0:0:5, 4:0:0:0:5, 9:2:1:0:5, 5:3:0:0:8, 5:3:0:0:9, 4:2:0:0:4, 8:3:1:0:4, 5:1:0:0:4, 6:2:0:0:6, 5:3:1:0:6, 12:4:1:2:8, 6:2:0:0:9, 7:3:0:0:10, 3:1:0:0:2, 7:3:0:0:6, 4:3:0:0:8, 4:0:0:0:3, 5:1:0:0:3, 7:10:0:0:13, 7:5:0:0:10, 5:3:0:0:4, 6:3:0:0:5, 9:2:1:0:3, 6:4:0:0:7, 7:3:0:0:7, 3:1:0:0:4, 4:3:0:0:6, 3:3:0:0:5, 3:1:0:0:2, 5:1:2:2:4, 4:3:0:0:4, 4:2:0:0:3, 7:2:0:0:4, 3:0:0:0:4, 9:3:0:0:7, 4:2:0:0:4, 4:2:0:0:5, 4:1:0:0:3, 3:0:0:0:2, 5:2:0:0:6, 5:0:0:0:4, 6:5:0:0:9, 1:0:0:0:0, 1:0:0:0:0, 817:365:32:4:858
F# minor (3#), 0:0:0:0:0, 4:2:1:0:2, 1:0:0:0:0, 1:0:0:0:0, 0:0:0:0:0, 4:2:1:0:2, 1:0:0:0:0, 1:0:0:0:0, 2:0:1:0:1, 2:0:0:0:0, 2:0:0:0:1, 0:0:0:0:0, 2:0:0:0:0, 0:0:0:0:0, 1:0:0:0:0, 1:0:0:0:0, 1:0:1:0:1, 4:2:1:0:2, 3:0:0:0:1, 1:0:0:0:0, 2:0:0:0:0, 2:0:0:0:0, 3:0:0:0:0, 2:0:0:0:0, 1:0:0:0:0, 4:1:0:0:0, 1:1:0:0:1, 2:0:2:0:2, 1:0:0:0:0, 1:0:0:0:0, 0:0:0:0:0, 1:0:0:0:0, 0:0:0:0:0, 3:2:1:0:2, 1:0:0:0:0, 3:0:0:0:0, 2:0:0:0:0, 7:2:2:0:3, 3:0:0:0:0, 4:0:1:0:1, 2:0:0:0:1, 6:1:0:0:0, 2:1:0:0:1, 1:0:0:0:0, 1:0:0:0:0, 3:4:0:2:2, 1:0:0:0:0, 2:0:0:0:0, 1:0:1:0:1, 3:2:1:0:2, 1:0:0:0:0, 3:0:0:0:0, 4:1:0:0:1, 4:2:0:0:1, 1:0:0:0:0, 2:0:0:0:0, 3:0:0:0:0, 3:2:0:0:0, 4:1:1:0:2, 3:0:0:0:0, 1:0:0:0:0, 2:0:0:0:0, 4:0:4:3:7, 1:0:0:0:0, 0:0:0:0:0, 4:2:1:0:3, 1:0:0:0:0, 1:0:0:0:0, 0:0:0:0:0, 4:2:1:0:2, 1:0:0:0:0, 1:0:0:0:0, 2:0:0:0:0, 3:0:1:0:1, 1:0:0:0:0, 2:1:0:0:1, 0:0:0:0:0, 3:0:1:0:1, 1:0:0:0:0, 1:0:0:0:0, 0:0:0:0:0, 4:2:1:0:2, 3:1:0:0:1, 1:0:0:0:0, 2:0:0:0:0, 2:0:0:0:0, 2:0:0:0:0, 2:0:0:0:0, 3:0:0:0:0, 3:2:0:0:0, 4:0:0:0:0, 4:0:0:0:1, 1:0:0:0:0, 1:0:0:0:0, 0:0:0:0:0, 1:0:0:0:0, 0:0:0:0:0, 4:2:1:0:2, 1:0:0:0:0, 1:0:0:0:0, 1:0:0:0:0, 3:2:1:0:2, 3:0:0:0:1, 1:0:0:0:0, 3:0:0:0:0, 5:0:0:0:0, 1:0:0:0:0, 1:0:0:0:1, 1:0:0:0:1, 1:0:0:0:2, 3:0:0:0:0, 1:0:0:0:0, 1:0:0:0:0, 6:3:1:0:3, 2:1:0:0:0, 1:0:0:0:0, 2:2:0:0:2, 3:1:0:0:1, 2:0:0:0:0, 2:0:0:0:0, 1:0:0:0:0, 3:1:0:0:0, 0:0:0:0:0, 1:0:0:0:0, 1:0:0:0:0, 6:1:1:0:3, 1:0:0:0:0, 1:0:0:0:0, 0:0:0:0:0, 4:2:1:0:2, 1:0:0:0:0, 3:0:0:0:0, 1:0:1:0:1, 9:2:3:0:5, 3:0:1:0:1, 3:0:0:0:1, 2:0:0:0:0, 5:0:0:0:0, 2:0:0:0:0, 2:0:0:0:0, 1:0:0:0:2, 1:0:0:0:2, 3:1:0:0:1, 3:0:0:0:1, 1:1:0:0:0, 7:4:1:0:3, 2:2:0:0:0, 5:0:0:0:0, 1:0:0:0:0, 2:0:0:0:0, 1:0:0:0:0, 2:0:0:0:0, 6:4:1:0:4, 5:2:0:0:0, 0:0:0:0:0, 5:0:0:0:1, 1:0:0:0:0, 5:1:1:0:1, 1:0:0:0:0, 1:0:0:0:0, 0:0:0:0:0, 1:0:0:0:0, 1:0:0:0:0, 1:0:0:0:0, 0:0:0:0:0, 0:0:0:0:0, 0:0:0:0:0, 344:68:36:5:92
Ab major (4b), 6:3:0:0:6, 7:2:1:0:6, 5:1:0:0:12, 5:1:0:0:7, 6:3:0:0:6, 7:2:1:0:6, 5:1:0:0:12, 5:1:0:0:7, 4:3:1:0:5, 4:1:0:0:6, 5:1:0:0:5, 1:0:0:0:2, 5:1:0:0:4, 6:4:0:0:9, 5:1:0:0:7, 4:1:0:0:5, 6:1:0:0:4, 7:2:1:0:6, 6:2:0:0:12, 5:1:0:0:6, 4:3:0:0:4, 4:1:0:0:6, 5:7:1:0:9, 4:1:0:0:5, 3:2:0:0:4, 3:4:0:0:5, 6:3:0:0:8, 5:2:0:0:4, 3:0:0:0:5, 8:2:0:0:7, 5:1:0:0:4, 5:1:0:0:5, 6:4:0:0:8, 7:2:1:0:6, 5:1:0:0:8, 8:5:0:0:11, 7:3:0:0:7, 11:6:2:0:11, 7:1:0:0:7, 8:3:1:0:10, 5:1:0:0:5, 9:2:0:0:9, 5:3:0:0:5, 2:0:0:0:2, 8:3:0:0:9, 7:4:0:0:11, 6:1:0:0:6, 4:1:0:0:6, 6:3:1:0:8, 8:2:2:0:4, 5:2:0:0:7, 6:1:0:0:6, 5:1:0:0:2, 5:2:0:0:6, 4:3:0:0:7, 5:2:0:0:7, 6:1:0:0:5, 3:1:0:0:4, 9:5:1:0:9, 7:3:1:0:5, 3:0:0:0:2, 7:3:0:0:7, 9:1:0:0:5, 5:1:0:0:5, 6:2:0:0:5, 7:2:2:0:4, 5:1:0:0:9, 5:1:0:0:5, 6:1:0:0:6, 7:2:1:0:5, 5:1:0:0:10, 5:1:0:0:8, 4:1:0:0:3, 5:3:1:0:8, 4:4:0:0:7, 5:1:1:0:4, 5:1:0:0:4, 8:6:1:0:13, 6:1:0:0:8, 3:1:0:0:3, 6:3:0:0:8, 9:3:1:0:7, 7:1:0:0:8, 6:2:0:0:10, 3:2:0:0:4, 4:1:0:0:7, 4:3:0:0:7, 5:1:0:0:7, 5:1:0:0:3, 4:3:0:0:6, 7:6:0:0:10, 7:2:0:0:4, 4:0:0:0:6, 7:3:0:0:10, 6:3:0:0:9, 6:2:0:0:10, 5:1:0:0:6, 8:2:1:0:5, 6:1:0:0:8, 5:1:0:0:5, 7:5:0:0:10, 7:3:2:0:6, 6:3:0:0:10, 6:2:0:0:11, 4:3:0:0:5, 8:1:0:0:6, 4:1:0:0:7, 2:0:0:0:0, 6:4:0:0:10, 7:7:0:0:13, 6:4:0:0:11, 5:4:0:0:9, 6:2:0:0:6, 10:4:1:0:8, 7:2:0:0:11, 5:1:0:0:6, 5:1:0:0:3, 6:2:0:0:9, 5:2:0:0:9, 5:1:0:0:7, 4:1:0:0:6, 3:2:0:0:5, 5:3:0:0:8, 5:2:0:0:6, 5:0:0:0:8, 10:2:1:0:6, 6:3:0:0:11, 6:3:0:0:10, 5:2:0:0:8, 9:2:1:0:5, 6:1:0:0:7, 7:2:0:0:9, 6:3:1:0:10, 12:3:1:0:7, 7:2:0:0:12, 8:3:0:0:14, 4:1:0:0:3, 7:4:0:0:9, 5:3:0:0:9, 4:0:0:0:4, 6:1:0:0:3, 8:10:0:0:14, 8:5:0:0:11, 5:1:0:0:5, 7:3:0:0:8, 9:2:1:0:6, 7:4:0:0:9, 8:3:0:0:9, 4:1:0:0:5, 5:3:0:0:11, 4:3:0:0:7, 4:1:0:0:4, 6:1:2:2:2, 5:3:0:0:5, 4:2:0:0:5, 7:2:0:0:6, 4:0:0:0:5, 10:3:0:0:11, 5:2:0:0:6, 5:2:0:0:7, 5:1:0:0:6, 4:0:0:0:3, 6:2:0:0:8, 6:0:0:0:8, 7:5:0:0:11, 1:0:0:0:1, 1:0:0:0:1, 949:354:32:2:1142
E major (4#), 1:0:0:0:0, 4:2:1:0:2, 2:0:0:0:0, 2:0:0:0:0, 1:0:0:0:0, 4:2:1:0:2, 2:0:0:0:0, 2:0:0:0:0, 3:0:1:0:1, 3:0:0:0:0, 3:0:0:0:0, 0:0:0:0:0, 3:0:0:0:0, 1:0:0:0:0, 2:0:0:0:0, 1:0:0:0:0, 2:0:1:0:1, 4:2:1:0:2, 4:0:0:0:0, 2:0:0:0:0, 3:0:0:0:0, 3:0:0:0:0, 4:0:0:0:0, 3:0:0:0:0, 2:0:0:0:0, 4:1:0:0:1, 1:0:0:0:0, 1:0:2:0:2, 2:0:0:0:0, 2:0:0:0:0, 1:0:0:0:0, 2:0:0:0:0, 1:0:0:0:0, 3:2:1:0:2, 2:0:0:0:0, 4:0:0:0:0, 3:0:0:0:0, 8:2:2:0:3, 4:0:0:0:0, 5:0:1:0:1, 3:0:0:0:0, 7:1:0:0:1, 3:1:0:0:1, 1:0:0:0:0, 2:0:0:0:0, 4:4:0:2:2, 2:0:0:0:0, 2:0:0:0:0, 2:0:1:0:1, 4:2:1:0:2, 2:0:0:0:0, 4:0:0:0:0, 5:1:0:0:1, 4:1:0:0:1, 2:0:0:0:0, 3:0:0:0:0, 4:0:0:0:0, 4:2:0:0:2, 5:1:1:0:2, 2:0:0:0:0, 2:0:0:0:0, 3:0:0:0:0, 5:0:4:3:7, 2:0:0:0:0, 1:0:0:0:0, 4:2:1:0:2, 2:0:0:0:0, 2:0:0:0:0, 1:0:0:0:0, 4:2:1:0:2, 2:0:0:0:0, 2:0:0:0:0, 3:0:0:0:0, 4:0:1:0:1, 2:0:0:0:0, 2:0:0:0:0, 1:0:0:0:0, 4:0:1:0:1, 2:0:0:0:0, 1:0:0:0:0, 1:0:0:0:0, 5:2:1:0:2, 4:1:0:0:1, 2:0:0:0:0, 3:0:0:0:0, 3:0:0:0:0, 3:0:0:0:0, 3:0:0:0:0, 4:0:0:0:0, 4:2:0:0:2, 3:0:0:0:0, 3:0:0:0:0, 2:0:0:0:0, 2:0:0:0:0, 1:0:0:0:0, 2:0:0:0:0, 1:0:0:0:0, 4:2:1:0:2, 2:0:0:0:0, 2:0:0:0:0, 2:0:0:0:0, 3:2:1:0:2, 4:0:0:0:0, 2:0:0:0:0, 4:0:0:0:0, 6:0:0:0:0, 2:0:0:0:0, 2:0:0:0:0, 2:0:0:0:0, 2:0:0:0:0, 2:0:0:0:0, 2:0:0:0:0, 2:0:0:0:0, 7:3:1:0:3, 3:1:0:0:1, 2:0:0:0:0, 3:2:0:0:2, 4:1:0:0:1, 3:0:0:0:0, 3:0:0:0:0, 2:0:0:0:0, 4:1:0:0:1, 0:0:0:0:0, 0:0:0:0:0, 2:0:0:0:0, 7:1:1:0:2, 2:0:0:0:0, 2:0:0:0:0, 1:0:0:0:0, 5:2:1:0:2, 2:0:0:0:0, 4:0:0:0:0, 2:0:1:0:1, 8:2:3:0:4, 4:0:1:0:1, 4:0:0:0:0, 3:0:0:0:0, 4:0:0:0:0, 3:0:0:0:0, 2:0:0:0:0, 2:0:0:0:0, 2:0:0:0:0, 4:1:0:0:1, 2:0:0:0:0, 2:1:0:0:1, 7:4:1:0:4, 3:2:0:0:2, 6:0:0:0:0, 2:0:0:0:0, 3:0:0:0:0, 2:0:0:0:0, 3:0:0:0:0, 7:4:1:0:4, 6:2:0:0:2, 0:0:0:0:0, 4:0:0:0:0, 2:0:0:0:0, 6:1:1:0:2, 2:0:0:0:0, 2:0:0:0:0, 1:0:0:0:0, 2:0:0:0:0, 2:0:0:0:0, 2:0:0:0:0, 1:0:0:0:0, 0:0:0:0:0, 0:0:0:0:0, 468:65:36:5:86
F minor (4b), 6:3:0:0:6, 7:2:1:0:6, 5:1:0:0:12, 5:1:0:0:7, 6:3:0:0:6, 7:2:1:0:6, 5:1:0:0:12, 5:1:0:0:7, 4:3:1:0:5, 4:1:0:0:6, 5:1:0:0:5, 1:0:0:0:2, 5:1:0:0:4, 6:4:0:0:9, 5:1:0:0:7, 4:1:0:0:5, 6:1:0:0:4, 7:2:1:0:6, 6:2:0:0:12, 5:1:0:0:6, 4:3:0:0:4, 4:1:0:0:6, 5:7:1:0:9, 4:1:0:0:5, 3:2:0:0:4, 3:4:0:0:5, 6:3:0:0:8, 5:2:0:0:4, 3:0:0:0:5, 8:2:0:0:7, 5:1:0:0:4, 5:1:0:0:5, 6:4:0:0:8, 7:2:1:0:6, 5:1:0:0:8, 8:5:0:0:11, 7:3:0:0:7, 11:6:2:0:11, 7:1:0:0:7, 8:3:1:0:10, 5:1:0:0:5, 9:2:0:0:9, 5:3:0:0:5, 2:0:0:0:2, 8:3:0:0:9, 7:4:0:0:11, 6:1:0:0:6, 4:1:0:0:6, 6:3:1:0:8, 8:2:2:0:4, 5:2:0:0:7, 6:1:0:0:6, 5:1:0:0:2, 5:2:0:0:6, 4:3:0:0:7, 5:2:0:0:7, 6:1:0:0:5, 3:1:0:0:4, 9:5:1:0:9, 7:3:1:0:5, 3:0:0:0:2, 7:3:0:0:7, 9:1:0:0:5, 5:1:0:0:5, 6:2:0:0:5, 7:2:2:0:4, 5:1:0:0:9, 5:1:0:0:5, 6:1:0:0:6, 7:2:1:0:5, 5:1:0:0:10, 5:1:0:0:8, 4:1:0:0:3, 5:3:1:0:8, 4:4:0:0:7, 5:1:1:0:4, 5:1:0:0:4, 8:6:1:0:13, 6:1:0:0:8, 3:1:0:0:3, 6:3:0:0:8, 9:3:1:0:7, 7:1:0:0:8, 6:2:0:0:10, 3:2:0:0:4, 4:1:0:0:7, 4:3:0:0:7, 5:1:0:0:7, 5:1:0:0:3, 4:3:0:0:6, 7:6:0:0:10, 7:2:0:0:4, 4:0:0:0:6, 7:3:0:0:10, 6:3:0:0:9, 6:2:0:0:10, 5:1:0:0:6, 8:2:1:0:5, 6:1:0:0:8, 5:1:0:0:5, 7:5:0:0:10, 7:3:2:0:6, 6:3:0:0:10, 6:2:0:0:11, 4:3:0:0:5, 8:1:0:0:6, 4:1:0:0:7, 2:0:0:0:0, 6:4:0:0:10, 7:7:0:0:13, 6:4:0:0:11, 5:4:0:0:9, 6:2:0:0:6, 10:4:1:0:8, 7:2:0:0:11, 5:1:0:0:6, 5:1:0:0:3, 6:2:0:0:9, 5:2:0:0:9, 5:1:0:0:7, 4:1:0:0:6, 3:2:0:0:5, 5:3:0:0:8, 5:2:0:0:6, 5:0:0:0:8, 10:2:1:0:6, 6:3:0:0:11, 6:3:0:0:10, 5:2:0:0:8, 9:2:1:0:5, 6:1:0:0:7, 7:2:0:0:9, 6:3:1:0:10, 12:3:1:0:7, 7:2:0:0:12, 8:3:0:0:14, 4:1:0:0:3, 7:4:0:0:9, 5:3:0:0:9, 4:0:0:0:4, 6:1:0:0:3, 8:10:0:0:14, 8:5:0:0:11, 5:1:0:0:5, 7:3:0:0:8, 9:2:1:0:6, 7:4:0:0:9, 8:3:0:0:9, 4:1:0:0:5, 5:3:0:0:11, 4:3:0:0:7, 4:1:0:0:4, 6:1:2:2:2, 5:3:0:0:5, 4:2:0:0:5, 7:2:0:0:6, 4:0:0:0:5, 10:3:0:0:11, 5:2:0:0:6, 5:2:0:0:7, 5:1:0:0:6, 4:0:0:0:3, 6:2:0:0:8, 6:0:0:0:8, 7:5:0:0:11, 1:0:0:0:1, 1:0:0:0:1, 949:354:32:2:1142
C# minor (4#), 1:0:0:0:0, 4:2:1:0:2, 2:0:0:0:0, 2:0:0:0:0, 1:0:0:0:0, 4:2:1:0:2, 2:0:0:0:0, 2:0:0:0:0, 3:0:1:0:1, 3:0:0:0:0, 3:0:0:0:0, 0:0:0:0:0, 3:0:0:0:0, 1:0:0:0:0, 2:0:0:0:0, 1:0:0:0:0, 2:0:1:0:1, 4:2:1:0:2, 4:0:0:0:0, 2:0:0:0:0, 3:0:0:0:0, 3:0:0:0:0, 4:0:0:0:0, 3:0:0:0:0, 2:0:0:0:0, 4:1:0:0:1, 1:0:0:0:0, 1:0:2:0:2, 2:0:0:0:0, 2:0:0:0:0, 1:0:0:0:0, 2:0:0:0:0, 1:0:0:0:0, 3:2:1:0:2, 2:0:0:0:0, 4:0:0:0:0, 3:0:0:0:0, 8:2:2:0:3, 4:0:0:0:0, 5:0:1:0:1, 3:0:0:0:0, 7:1:0:0:1, 3:1:0:0:1, 1:0:0:0:0, 2:0:0:0:0, 4:4:0:2:2, 2:0:0:0:0, 2:0:0:0:0, 2:0:1:0:1, 4:2:1:0:2, 2:0:0:0:0, 4:0:0:0:0, 5:1:0:0:1, 4:1:0:0:1, 2:0:0:0:0, 3:0:0:0:0, 4:0:0:0:0, 4:2:0:0:2, 5:1:1:0:2, 2:0:0:0:0, 2:0:0:0:0, 3:0:0:0:0, 5:0:4:3:7, 2:0:0:0:0, 1:0:0:0:0, 4:2:1:0:2, 2:0:0:0:0, 2:0:0:0:0, 1:0:0:0:0, 4:2:1:0:2, 2:0:0:0:0, 2:0:0:0:0, 3:0:0:0:0, 4:0:1:0:1, 2:0:0:0:0, 2:0:0:0:0, 1:0:0:0:0, 4:0:1:0:1, 2:0:0:0:0, 1:0:0:0:0, 1:0:0:0:0, 5:2:1:0:2, 4:1:0:0:1, 2:0:0:0:0, 3:0:0:0:0, 3:0:0:0:0, 3:0:0:0:0, 3:0:0:0:0, 4:0:0:0:0, 4:2:0:0:2, 3:0:0:0:0, 3:0:0:0:0, 2:0:0:0:0, 2:0:0:0:0, 1:0:0:0:0, 2:0:0:0:0, 1:0:0:0:0, 4:2:1:0:2, 2:0:0:0:0, 2:0:0:0:0, 2:0:0:0:0, 3:2:1:0:2, 4:0:0:0:0, 2:0:0:0:0, 4:0:0:0:0, 6:0:0:0:0, 2:0:0:0:0, 2:0:0:0:0, 2:0:0:0:0, 2:0:0:0:0, 2:0:0:0:0, 2:0:0:0:0, 2:0:0:0:0, 7:3:1:0:3, 3:1:0:0:1, 2:0:0:0:0, 3:2:0:0:2, 4:1:0:0:1, 3:0:0:0:0, 3:0:0:0:0, 2:0:0:0:0, 4:1:0:0:1, 0:0:0:0:0, 0:0:0:0:0, 2:0:0:0:0, 7:1:1:0:2, 2:0:0:0:0, 2:0:0:0:0, 1:0:0:0:0, 5:2:1:0:2, 2:0:0:0:0, 4:0:0:0:0, 2:0:1:0:1, 8:2:3:0:4, 4:0:1:0:1, 4:0:0:0:0, 3:0:0:0:0, 4:0:0:0:0, 3:0:0:0:0, 2:0:0:0:0, 2:0:0:0:0, 2:0:0:0:0, 4:1:0:0:1, 2:0:0:0:0, 2:1:0:0:1, 7:4:1:0:4, 3:2:0:0:2, 6:0:0:0:0, 2:0:0:0:0, 3:0:0:0:0, 2:0:0:0:0, 3:0:0:0:0, 7:4:1:0:4, 6:2:0:0:2, 0:0:0:0:0, 4:0:0:0:0, 2:0:0:0:0, 6:1:1:0:2, 2:0:0:0:0, 2:0:0:0:0, 1:0:0:0:0, 2:0:0:0:0, 2:0:0:0:0, 2:0:0:0:0, 1:0:0:0:0, 0:0:0:0:0, 0:0:0:0:0, 468:65:36:5:86
Db major (5b), 6:3:0:0:10, 7:2:1:0:6, 6:1:0:0:13, 6:1:0:0:8, 6:3:0:0:10, 7:2:1:0:6, 6:1:0:0:13, 6:1:0:0:8, 4:1:0:0:4, 5:1:0:0:8, 6:1:0:0:6, 1:0:0:0:2, 5:1:0:0:6, 6:2:0:0:10, 6:1:0:0:8, 5:1:0:0:5, 6:1:0:0:8, 7:2:1:0:6, 7:2:0:0:13, 6:1:0:0:7, 4:3:0:0:8, 5:1:0:0:8, 6:7:1:0:10, 5:1:0:0:6, 4:2:0:0:6, 4:4:0:0:5, 6:3:0:0:9, 5:2:0:0:4, 4:0:0:0:8, 8:2:0:0:8, 5:1:0:0:6, 6:1:0:0:6, 6:4:0:0:9, 7:2:1:0:6, 6:1:0:0:9, 9:5:0:0:12, 8:2:0:0:7, 11:3:1:0:9, 8:1:0:0:8, 9:3:1:0:13, 5:1:0:0:6, 10:2:0:0:10, 6:3:0:0:7, 1:0:0:0:2, 8:3:0:0:10, 8:4:0:0:13, 7:1:0:0:7, 5:1:0:0:6, 6:1:0:0:8, 8:2:2:0:9, 6:2:0:0:9, 7:1:0:0:9, 6:1:0:0:5, 6:2:0:0:7, 5:3:0:0:10, 6:2:0:0:10, 7:1:0:0:8, 4:1:0:0:5, 10:5:1:0:11, 7:3:1:0:7, 4:0:0:0:3, 7:3:0:0:9, 10:1:0:0:7, 6:1:0:0:7, 6:2:0:0:10, 7:2:2:0:4, 6:1:0:0:10, 6:1:0:0:6, 6:1:0:0:11, 7:2:1:0:5, 6:1:0:0:11, 6:1:0:0:9, 4:1:0:0:7, 6:3:1:0:9, 5:4:0:0:8, 5:0:1:0:4, 5:1:0:0:6, 8:6:1:0:17, 7:1:0:0:9, 4:1:0:0:3, 6:3:0:0:12, 9:3:1:0:11, 8:1:0:0:10, 7:2:0:0:12, 4:2:0:0:5, 5:1:0:0:8, 5:3:0:0:11, 6:1:0:0:10, 6:1:0:0:4, 5:3:0:0:7, 8:5:0:0:9, 7:2:0:0:5, 5:0:0:0:8, 7:3:0:0:11, 6:1:0:0:9, 7:2:0:0:11, 5:1:0:0:9, 8:2:1:0:5, 7:1:0:0:10, 6:1:0:0:6, 7:5:0:0:12, 7:2:2:0:5, 7:3:0:0:12, 7:2:0:0:12, 5:2:0:0:6, 9:1:0:0:8, 5:1:0:0:10, 1:0:0:0:1, 6:4:0:0:12, 7:6:0:0:16, 7:4:0:0:13, 6:4:0:0:10, 6:1:0:0:8, 11:3:1:0:8, 8:2:0:0:13, 6:1:0:0:7, 5:1:0:0:4, 7:2:0:0:11, 6:2:0:0:11, 6:1:0:0:8, 5:1:0:0:10, 4:2:0:0:8, 5:2:0:0:7, 5:2:0:0:6, 6:0:0:0:9, 10:2:1:0:7, 7:3:0:0:13, 7:3:0:0:14, 5:1:0:0:10, 9:2:1:0:6, 7:1:0:0:8, 8:2:0:0:11, 6:1:0:0:10, 13:3:1:0:7, 8:2:0:0:15, 9:3:0:0:17, 5:1:0:0:5, 8:4:0:0:13, 6:3:0:0:12, 3:0:0:0:4, 6:1:0:0:4, 8:10:0:0:16, 9:5:0:0:12, 6:1:0:0:5, 7:1:0:0:9, 10:2:1:0:6, 8:4:0:0:10, 9:3:0:0:10, 4:1:0:0:6, 6:3:0:0:13, 5:3:0:0:10, 5:1:0:0:5, 7:1:2:2:4, 6:3:0:0:7, 4:2:0:0:5, 7:2:0:0:7, 5:0:0:0:7, 10:3:0:0:12, 6:1:0:0:8, 6:2:0:0:8, 5:1:0:0:7, 5:0:0:0:4, 7:1:0:0:8, 7:0:0:0:9, 7:4:0:0:11, 1:0:0:0:1, 1:0:0:0:1, 1048:326:28:2:1385
B major (5#), 2:0:0:0:0, 5:2:1:0:3, 3:0:0:0:0, 3:0:0:0:0, 2:0:0:0:0, 5:2:1:0:3, 3:0:0:0:0, 3:0:0:0:0, 4:0:1:0:0, 4:0:0:0:0, 4:0:0:0:0, 0:0:0:0:0, 3:0:0:0:0, 2:0:0:0:0, 3:0:0:0:0, 2:0:0:0:0, 3:0:1:0:1, 5:2:1:0:3, 3:0:0:0:0, 3:0:0:0:0, 4:0:0:0:0, 4:0:0:0:0, 4:0:0:0:1, 4:0:0:0:0, 2:0:0:0:0, 4:1:0:0:2, 2:0:0:0:0, 2:0:2:0:2, 2:0:0:0:0, 3:0:0:0:0, 2:0:0:0:0, 3:0:0:0:0, 2:0:0:0:0, 4:2:1:0:3, 3:0:0:0:0, 5:0:0:0:1, 4:0:0:0:0, 9:2:2:0:3, 5:0:0:0:0, 6:0:1:0:1, 4:0:0:0:0, 8:1:0:0:2, 4:1:0:0:1, 1:0:0:0:1, 3:0:0:0:0, 5:4:0:2:2, 3:0:0:0:0, 3:0:0:0:1, 3:0:1:0:0, 5:2:1:0:3, 3:0:0:0:0, 5:0:0:0:1, 6:1:0:0:3, 5:1:0:0:1, 3:0:0:0:0, 4:0:0:0:0, 5:0:0:0:1, 4:1:0:0:1, 6:1:1:0:1, 3:0:0:0:0, 2:0:0:0:0, 4:0:0:0:1, 6:0:4:3:5, 3:0:0:0:0, 2:0:0:0:0, 5:2:1:0:3, 3:0:0:0:0, 3:0:0:0:0, 2:0:0:0:0, 5:2:1:0:3, 3:0:0:0:0, 3:0:0:0:0, 4:0:0:0:0, 5:0:1:0:0, 3:0:0:0:0, 3:0:0:0:0, 1:0:0:0:0, 5:0:1:0:0, 3:0:0:0:0, 2:0:0:0:0, 2:0:0:0:0, 6:2:1:0:3, 5:1:0:0:1, 3:0:0:0:0, 4:0:0:0:0, 4:0:0:0:0, 3:0:0:0:0, 4:0:0:0:0, 5:0:0:0:0, 5:1:0:0:1, 4:0:0:0:0, 4:0:0:0:0, 3:0:0:0:0, 3:0:0:0:0, 2:0:0:0:0, 3:0:0:0:0, 2:0:0:0:0, 5:2:1:0:3, 3:0:0:0:0, 3:0:0:0:0, 3:0:0:0:0, 4:2:1:0:4, 3:0:0:0:0, 3:0:0:0:0, 5:0:0:0:0, 7:0:0:0:0, 3:0:0:0:0, 1:0:0:0:0, 1:0:0:0:0, 3:0:0:0:0, 3:0:0:0:0, 3:0:0:0:0, 3:0:0:0:1, 8:3:1:0:4, 4:1:0:0:1, 3:0:0:0:0, 4:2:0:0:2, 5:1:0:0:1, 4:0:0:0:0, 4:0:0:0:0, 3:0:0:0:0, 4:1:0:0:1, 1:0:0:0:0, 1:0:0:0:0, 3:0:0:0:0, 7:0:0:0:0, 3:0:0:0:0, 3:0:0:0:0, 2:0:0:0:0, 6:2:1:0:3, 3:0:0:0:0, 5:0:0:0:0, 3:0:1:0:0, 9:2:3:0:5, 5:0:1:0:0, 5:0:0:0:0, 4:0:0:0:0, 5:0:0:0:0, 4:0:0:0:0, 3:0:0:0:1, 1:0:0:0:0, 3:0:0:0:0, 5:1:0:0:1, 3:0:0:0:0, 3:1:0:0:1, 8:4:1:0:5, 4:0:0:0:0, 7:0:0:0:3, 3:0:0:0:0, 4:0:0:0:0, 3:0:0:0:0, 4:0:0:0:0, 7:9:1:2:7, 7:2:0:0:2, 1:0:0:0:0, 5:0:0:0:0, 3:0:0:0:0, 7:1:1:0:2, 3:0:0:0:0, 3:0:0:0:0, 2:0:0:0:0, 3:0:0:0:0, 3:0:0:0:0, 3:0:0:0:0, 2:0:0:0:0, 1:0:0:0:0, 1:0:0:0:0, 611:65:35:7:105
Bb minor (5b), 6:3:0:0:10, 7:2:1:0:6, 6:1:0:0:13, 6:1:0:0:8, 6:3:0:0:10, 7:2:1:0:6, 6:1:0:0:13, 6:1:0:0:8, 4:1:0:0:4, 5:1:0:0:8, 6:1:0:0:6, 1:0:0:0:2, 5:1:0:0:6, 6:2:0:0:10, 6:1:0:0:8, 5:1:0:0:5, 6:1:0:0:8, 7:2:1:0:6, 7:2:0:0:13, 6:1:0:0:7, 4:3:0:0:8, 5:1:0:0:8, 6:7:1:0:10, 5:1:0:0:6, 4:2:0:0:6, 4:4:0:0:5, 6:3:0:0:9, 5:2:0:0:4, 4:0:0:0:8, 8:2:0:0:8, 5:1:0:0:6, 6:1:0:0:6, 6:4:0:0:9, 7:2:1:0:6, 6:1:0:0:9, 9:5:0:0:12, 8:2:0:0:7, 11:3:1:0:9, 8:1:0:0:8, 9:3:1:0:13, 5:1:0:0:6, 10:2:0:0:10, 6:3:0:0:7, 1:0:0:0:2, 8:3:0:0:10, 8:4:0:0:13, 7:1:0:0:7, 5:1:0:0:6, 6:1:0:0:8, 8:2:2:0:9, 6:2:0:0:9, 7:1:0:0:9, 6:1:0:0:5, 6:2:0:0:7, 5:3:0:0:10, 6:2:0:0:10, 7:1:0:0:8, 4:1:0:0:5, 10:5:1:0:11, 7:3:1:0:7, 4:0:0:0:3, 7:3:0:0:9, 10:1:0:0:7, 6:1:0:0:7, 6:2:0:0:10, 7:2:2:0:4, 6:1:0:0:10, 6:1:0:0:6, 6:1:0:0:11, 7:2:1:0:5, 6:1:0:0:11, 6:1:0:0:9, 4:1:0:0:7, 6:3:1:0:9, 5:4:0:0:8, 5:0:1:0:4, 5:1:0:0:6, 8:6:1:0:17, 7:1:0:0:9, 4:1:0:0:3, 6:3:0:0:12, 9:3:1:0:11, 8:1:0:0:10, 7:2:0:0:12, 4:2:0:0:5, 5:1:0:0:8, 5:3:0:0:11, 6:1:0:0:10, 6:1:0:0:4, 5:3:0:0:7, 8:5:0:0:9, 7:2:0:0:5, 5:0:0:0:8, 7:3:0:0:11, 6:1:0:0:9, 7:2:0:0:11, 5:1:0:0:9, 8:2:1:0:5, 7:1:0:0:10, 6:1:0:0:6, 7:5:0:0:12, 7:2:2:0:5, 7:3:0:0:12, 7:2:0:0:12, 5:2:0:0:6, 9:1:0:0:8, 5:1:0:0:10, 1:0:0:0:1, 6:4:0:0:12, 7:6:0:0:16, 7:4:0:0:13, 6:4:0:0:10, 6:1:0:0:8, 11:3:1:0:8, 8:2:0:0:13, 6:1:0:0:7, 5:1:0:0:4, 7:2:0:0:11, 6:2:0:0:11, 6:1:0:0:8, 5:1:0:0:10, 4:2:0:0:8, 5:2:0:0:7, 5:2:0:0:6, 6:0:0:0:9, 10:2:1:0:7, 7:3:0:0:13, 7:3:0:0:14, 5:1:0:0:10, 9:2:1:0:6, 7:1:0:0:8, 8:2:0:0:11, 6:1:0:0:10, 13:3:1:0:7, 8:2:0:0:15, 9:3:0:0:17, 5:1:0:0:5, 8:4:0:0:13, 6:3:0:0:12, 3:0:0:0:4, 6:1:0:0:4, 8:10:0:0:16, 9:5:0:0:12, 6:1:0:0:5, 7:1:0:0:9, 10:2:1:0:6, 8:4:0:0:10, 9:3:0:0:10, 4:1:0:0:6, 6:3:0:0:13, 5:3:0:0:10, 5:1:0:0:5, 7:1:2:2:4, 6:3:0:0:7, 4:2:0:0:5, 7:2:0:0:7, 5:0:0:0:7, 10:3:0:0:12, 6:1:0:0:8, 6:2:0:0:8, 5:1:0:0:7, 5:0:0:0:4, 7:1:0:0:8, 7:0:0:0:9, 7:4:0:0:11, 1:0:0:0:1, 1:0:0:0:1, 1048:326:28:2:1385
G# minor (5#), 2:0:0:0:0, 5:2:1:0:3, 3:0:0:0:0, 3:0:0:0:0, 2:0:0:0:0, 5:2:1:0:3, 3:0:0:0:0, 3:0:0:0:0, 4:0:1:0:0, 4:0:0:0:0, 4:0:0:0:0, 0:0:0:0:0, 3:0:0:0:0, 2:0:0:0:0, 3:0:0:0:0, 2:0:0:0:0, 3:0:1:0:1, 5:2:1:0:3, 3:0:0:0:0, 3:0:0:0:0, 4:0:0:0:0, 4:0:0:0:0, 4:0:0:0:1, 4:0:0:0:0, 2:0:0:0:0, 4:1:0:0:2, 2:0:0:0:0, 2:0:2:0:2, 2:0:0:0:0, 3:0:0:0:0, 2:0:0:0:0, 3:0:0:0:0, 2:0:0:0:0, 4:2:1:0:3, 3:0:0:0:0, 5:0:0:0:1, 4:0:0:0:0, 9:2:2:0:3, 5:0:0:0:0, 6:0:1:0:1, 4:0:0:0:0, 8:1:0:0:2, 4:1:0:0:1, 1:0:0:0:1, 3:0:0:0:0, 5:4:0:2:2, 3:0:0:0:0, 3:0:0:0:1, 3:0:1:0:0, 5:2:1:0:3, 3:0:0:0:0, 5:0:0:0:1, 6:1:0:0:3, 5:1:0:0:1, 3:0:0:0:0, 4:0:0:0:0, 5:0:0:0:1, 4:1:0:0:1, 6:1:1:0:1, 3:0:0:0:0, 2:0:0:0:0, 4:0:0:0:1, 6:0:4:3:5, 3:0:0:0:0, 2:0:0:0:0, 5:2:1:0:3, 3:0:0:0:0, 3:0:0:0:0, 2:0:0:0:0, 5:2:1:0:3, 3:0:0:0:0, 3:0:0:0:0, 4:0:0:0:0, 5:0:1:0:0, 3:0:0:0:0, 3:0:0:0:0, 1:0:0:0:0, 5:0:1:0:0, 3:0:0:0:0, 2:0:0:0:0, 2:0:0:0:0, 6:2:1:0:3, 5:1:0:0:1, 3:0:0:0:0, 4:0:0:0:0, 4:0:0:0:0, 3:0:0:0:0, 4:0:0:0:0, 5:0:0:0:0, 5:1:0:0:1, 4:0:0:0:0, 4:0:0:0:0, 3:0:0:0:0, 3:0:0:0:0, 2:0:0:0:0, 3:0:0:0:0, 2:0:0:0:0, 5:2:1:0:3, 3:0:0:0:0, 3:0:0:0:0, 3:0:0:0:0, 4:2:1:0:4, 3:0:0:0:0, 3:0:0:0:0, 5:0:0:0:0, 7:0:0:0:0, 3:0:0:0:0, 1:0:0:0:0, 1:0:0:0:0, 3:0:0:0:0, 3:0:0:0:0, 3:0:0:0:0, 3:0:0:0:1, 8:3:1:0:4, 4:1:0:0:1, 3:0:0:0:0, 4:2:0:0:2, 5:1:0:0:1, 4:0:0:0:0, 4:0:0:0:0, 3:0:0:0:0, 4:1:0:0:1, 1:0:0:0:0, 1:0:0:0:0, 3:0:0:0:0, 7:0:0:0:0, 3:0:0:0:0, 3:0:0:0:0, 2:0:0:0:0, 6:2:1:0:3, 3:0:0:0:0, 5:0:0:0:0, 3:0:1:0:0, 9:2:3:0:5, 5:0:1:0:0, 5:0:0:0:0, 4:0:0:0:0, 5:0:0:0:0, 4:0:0:0:0, 3:0:0:0:1, 1:0:0:0:0, 3:0:0:0:0, 5:1:0:0:1, 3:0:0:0:0, 3:1:0:0:1, 8:4:1:0:5, 4:0:0:0:0, 7:0:0:0:3, 3:0:0:0:0, 4:0:0:0:0, 3:0:0:0:0, 4:0:0:0:0, 7:9:1:2:7, 7:2:0:0:2, 1:0:0:0:0, 5:0:0:0:0, 3:0:0:0:0, 7:1:1:0:2, 3:0:0:0:0, 3:0:0:0:0, 2:0:0:0:0, 3:0:0:0:0, 3:0:0:0:0, 3:0:0:0:0, 2:0:0:0:0, 1:0:0:0:0, 1:0:0:0:0, 611:65:35:7:105
Gb major (6b), 6:3:0:0:10, 7:2:0:0:6, 6:1:0:0:11, 6:1:0:0:10, 6:3:0:0:10, 7:2:0:0:6, 6:1:0:0:11, 6:1:0:0:10, 5:1:0:0:4, 6:1:0:0:9, 6:1:0:0:5, 0:0:0:0:0, 5:1:0:0:6, 6:2:0:0:10, 6:1:0:0:11, 5:1:0:0:4, 7:1:0:0:8, 7:2:0:0:6, 7:2:0:0:11, 6:1:0:0:9, 5:3:0:0:8, 6:1:0:0:9, 6:7:1:0:11, 6:1:0:0:7, 4:2:0:0:7, 5:4:0:0:6, 6:3:0:0:9, 6:2:0:0:4, 4:0:0:0:7, 8:2:0:0:9, 5:1:0:0:6, 6:1:0:0:8, 6:4:0:0:9, 7:2:0:0:6, 6:1:0:0:12, 9:5:0:0:15, 8:2:0:0:8, 11:3:0:0:11, 8:1:0:0:12, 9:3:1:0:16, 6:1:0:0:5, 11:2:0:0:11, 6:3:0:0:9, 1:0:0:0:2, 8:3:0:0:11, 9:4:0:0:15, 7:1:0:0:9, 5:1:0:0:5, 6:1:0:0:7, 8:2:0:0:9, 6:2:0:0:11, 7:1:0:0:11, 7:1:0:0:8, 7:2:0:0:8, 5:3:0:0:12, 7:2:0:0:11, 8:1:0:0:11, 5:1:0:0:6, 10:5:1:0:12, 7:3:1:0:7, 4:0:0:0:4, 7:3:0:0:11, 11:1:0:0:10, 6:1:0:0:9, 6:2:0:0:10, 7:2:0:0:4, 6:1:0:0:10, 6:1:0:0:8, 6:1:0:0:11, 7:2:0:0:5, 6:1:0:0:12, 6:1:0:0:10, 5:1:0:0:7, 7:3:1:0:10, 5:4:0:0:12, 4:0:1:0:3, 5:1:0:0:5, 8:6:1:0:17, 7:1:0:0:11, 4:1:0:0:4, 6:3:0:0:12, 9:3:0:0:11, 8:1:0:0:12, 7:2:0:0:14, 5:2:0:0:6, 6:1:0:0:12, 6:3:0:0:11, 7:1:0:0:14, 6:1:0:0:7, 6:3:0:0:9, 8:5:0:0:11, 8:2:0:0:5, 5:0:0:0:8, 7:3:0:0:14, 6:1:0:0:9, 7:2:0:0:14, 5:1:0:0:9, 8:2:0:0:5, 7:1:0:0:14, 6:1:0:0:9, 7:5:0:0:13, 7:2:0:0:5, 7:3:0:0:16, 7:2:0:0:16, 6:2:0:0:7, 10:1:0:0:9, 5:1:0:0:10, 1:0:0:0:1, 6:1:0:0:7, 7:6:0:0:15, 7:4:0:0:15, 6:4:0:0:15, 6:1:0:0:8, 11:3:0:0:11, 8:2:0:0:14, 6:1:0:0:9, 6:1:0:0:3, 8:2:0:0:13, 7:2:0:0:12, 7:1:0:0:9, 5:1:0:0:9, 5:2:0:0:9, 5:2:0:0:6, 5:2:0:0:4, 6:0:0:0:7, 11:2:0:0:8, 7:3:0:0:12, 7:3:0:0:15, 5:1:0:0:10, 9:2:0:0:6, 7:1:0:0:12, 8:2:0:0:14, 6:1:0:0:10, 13:3:0:0:8, 8:2:0:0:19, 9:3:0:0:20, 6:1:0:0:6, 9:4:0:0:13, 7:3:0:0:11, 2:0:0:0:2, 6:1:0:0:4, 8:10:0:0:16, 9:5:0:0:14, 6:1:0:0:6, 7:1:0:0:9, 10:2:0:0:7, 8:4:0:0:14, 9:3:0:0:12, 5:1:0:0:6, 7:3:0:0:15, 5:3:0:0:10, 6:1:0:0:6, 7:1:2:2:7, 7:3:0:0:9, 4:2:0:0:5, 7:3:1:0:7, 5:0:0:0:10, 11:3:0:0:15, 6:1:0:0:9, 6:2:0:0:10, 5:1:0:0:7, 5:0:0:0:5, 7:1:0:0:8, 7:0:0:0:11, 7:4:0:0:11, 1:0:0:0:1, 1:0:0:0:1, 1086:324:10:2:1540
F# major (6#), 3:0:0:0:0, 6:2:1:0:3, 4:0:0:0:0, 4:0:0:0:0, 3:0:0:0:0, 6:2:1:0:3, 4:0:0:0:0, 4:0:0:0:0, 3:0:0:0:2, 5:0:0:0:3, 4:0:0:0:0, 0:0:0:0:0, 4:0:0:0:0, 3:0:0:0:0, 4:0:0:0:0, 3:0:0:0:0, 4:0:1:0:0, 6:2:1:0:3, 4:0:0:0:0, 4:0:0:0:0, 4:0:0:0:1, 5:0:0:0:2, 3:0:0:0:0, 5:0:0:0:2, 2:0:0:0:0, 5:1:0:0:2, 3:0:0:0:0, 2:0:2:0:0, 3:0:0:0:0, 4:0:0:0:0, 3:0:0:0:0, 4:0:0:0:0, 3:0:0:0:0, 5:2:1:0:3, 4:0:0:0:0, 6:0:0:0:1, 5:0:0:0:0, 10:2:1:0:3, 6:0:0:0:1, 7:0:1:0:0, 5:0:0:0:2, 9:1:0:0:4, 4:1:0:0:1, 1:0:0:0:0, 4:0:0:0:0, 6:4:0:2:4, 4:0:0:0:0, 4:0:0:0:0, 4:0:0:0:0, 6:2:1:0:3, 4:0:0:0:0, 6:0:0:0:1, 5:1:0:0:3, 6:1:0:0:5, 3:0:0:0:0, 5:0:0:0:2, 5:1:1:0:3, 5:1:0:0:2, 7:1:0:0:2, 4:0:0:0:0, 3:0:0:0:0, 5:0:0:0:0, 7:0:2:3:3, 4:0:0:0:0, 3:0:0:0:0, 6:2:1:0:3, 4:0:0:0:0, 4:0:0:0:0, 3:0:0:0:0, 6:2:1:0:3, 4:0:0:0:0, 4:0:0:0:0, 5:0:0:0:1, 6:0:0:0:2, 3:0:0:0:0, 4:0:0:0:0, 2:0:0:0:0, 5:1:0:0:1, 4:0:0:0:0, 3:0:0:0:0, 3:0:0:0:0, 7:2:1:0:3, 6:1:0:0:3, 4:0:0:0:0, 4:0:0:0:1, 5:0:0:0:2, 4:0:0:0:1, 5:0:0:0:2, 5:0:0:0:0, 6:1:0:0:2, 5:0:0:0:0, 4:0:0:0:1, 4:0:0:0:0, 4:0:0:0:0, 3:0:0:0:0, 4:0:0:0:0, 3:0:0:0:0, 6:2:1:0:3, 4:0:0:0:0, 4:0:0:0:0, 4:0:0:0:0, 5:2:1:0:4, 4:0:0:0:0, 4:0:0:0:0, 5:0:0:0:1, 8:0:0:0:3, 3:0:0:0:0, 1:0:0:0:0, 2:0:0:0:0, 4:0:0:0:0, 4:0:0:0:0, 4:0:0:0:0, 4:0:0:0:0, 9:3:1:0:4, 5:1:0:0:1, 4:0:0:0:0, 4:2:0:0:4, 6:1:0:0:4, 5:0:0:0:1, 5:0:0:0:2, 3:0:0:0:0, 5:1:0:0:2, 2:0:0:0:0, 1:0:0:0:0, 4:0:0:0:0, 8:0:0:0:1, 4:0:0:0:0, 4:0:0:0:0, 3:0:0:0:0, 7:2:1:0:3, 4:0:0:0:0, 6:0:0:0:0, 4:0:0:0:0, 10:2:3:0:3, 6:0:0:0:0, 6:0:0:0:0, 5:0:0:0:3, 6:0:0:0:3, 5:0:0:0:1, 2:0:0:0:0, 2:0:0:0:0, 4:0:0:0:0, 6:1:0:0:1, 4:0:0:0:0, 4:1:0:0:1, 9:4:1:0:5, 5:0:0:0:0, 8:0:0:0:2, 3:0:0:0:4, 5:0:0:0:2, 3:0:0:0:0, 5:0:0:0:2, 7:10:2:2:8, 8:2:0:0:3, 2:0:0:0:0, 5:0:0:0:1, 4:0:0:0:0, 8:1:1:0:1, 4:0:0:0:0, 4:0:0:0:0, 3:0:0:0:0, 4:0:0:0:0, 4:0:0:0:0, 4:0:0:0:0, 3:0:0:0:0, 1:0:0:0:0, 1:0:0:0:0, 744:68:27:7:162
Eb minor (6b), 6:3:0:0:10, 7:2:0:0:6, 6:1:0:0:11, 6:1:0:0:10, 6:3:0:0:10, 7:2:0:0:6, 6:1:0:0:11, 6:1:0:0:10, 5:1:0:0:4, 6:1:0:0:9, 6:1:0:0:5, 0:0:0:0:0, 5:1:0:0:6, 6:2:0:0:10, 6:1:0:0:11, 5:1:0:0:4, 7:1:0:0:8, 7:2:0:0:6, 7:2:0:0:11, 6:1:0:0:9, 5:3:0:0:8, 6:1:0:0:9, 6:7:1:0:11, 6:1:0:0:7, 4:2:0:0:7, 5:4:0:0:6, 6:3:0:0:9, 6:2:0:0:4, 4:0:0:0:7, 8:2:0:0:9, 5:1:0:0:6, 6:1:0:0:8, 6:4:0:0:9, 7:2:0:0:6, 6:1:0:0:12, 9:5:0:0:15, 8:2:0:0:8, 11:3:0:0:11, 8:1:0:0:12, 9:3:1:0:16, 6:1:0:0:5, 11:2:0:0:11, 6:3:0:0:9, 1:0:0:0:2, 8:3:0:0:11, 9:4:0:0:15, 7:1:0:0:9, 5:1:0:0:5, 6:1:0:0:7, 8:2:0:0:9, 6:2:0:0:11, 7:1:0:0:11, 7:1:0:0:8, 7:2:0:0:8, 5:3:0:0:12, 7:2:0:0:11, 8:1:0:0:11, 5:1:0:0:6, 10:5:1:0:12, 7:3:1:0:7, 4:0:0:0:4, 7:3:0:0:11, 11:1:0:0:10, 6:1:0:0:9, 6:2:0:0:10, 7:2:0:0:4, 6:1:0:0:10, 6:1:0:0:8, 6:1:0:0:11, 7:2:0:0:5, 6:1:0:0:12, 6:1:0:0:10, 5:1:0:0:7, 7:3:1:0:10, 5:4:0:0:12, 4:0:1:0:3, 5:1:0:0:5, 8:6:1:0:17, 7:1:0:0:11, 4:1:0:0:4, 6:3:0:0:12, 9:3:0:0:11, 8:1:0:0:12, 7:2:0:0:14, 5:2:0:0:6, 6:1:0:0:12, 6:3:0:0:11, 7:1:0:0:14, 6:1:0:0:7, 6:3:0:0:9, 8:5:0:0:11, 8:2:0:0:5, 5:0:0:0:8, 7:3:0:0:14, 6:1:0:0:9, 7:2:0:0:14, 5:1:0:0:9, 8:2:0:0:5, 7:1:0:0:14, 6:1:0:0:9, 7:5:0:0:13, 7:2:0:0:5, 7:3:0:0:16, 7:2:0:0:16, 6:2:0:0:7, 10:1:0:0:9, 5:1:0:0:10, 1:0:0:0:1, 6:1:0:0:7, 7:6:0:0:15, 7:4:0:0:15, 6:4:0:0:15, 6:1:0:0:8, 11:3:0:0:11, 8:2:0:0:14, 6:1:0:0:9, 6:1:0:0:3, 8:2:0:0:13, 7:2:0:0:12, 7:1:0:0:9, 5:1:0:0:9, 5:2:0:0:9, 5:2:0:0:6, 5:2:0:0:4, 6:0:0:0:7, 11:2:0:0:8, 7:3:0:0:12, 7:3:0:0:15, 5:1:0:0:10, 9:2:0:0:6, 7:1:0:0:12, 8:2:0:0:14, 6:1:0:0:10, 13:3:0:0:8, 8:2:0:0:19, 9:3:0:0:20, 6:1:0:0:6, 9:4:0:0:13, 7:3:0:0:11, 2:0:0:0:2, 6:1:0:0:4, 8:10:0:0:16, 9:5:0:0:14, 6:1:0:0:6, 7:1:0:0:9, 10:2:0:0:7, 8:4:0:0:14, 9:3:0:0:12, 5:1:0:0:6, 7:3:0:0:15, 5:3:0:0:10, 6:1:0:0:6, 7:1:2:2:7, 7:3:0:0:9, 4:2:0:0:5, 7:3:1:0:7, 5:0:0:0:10, 11:3:0:0:15, 6:1:0:0:9, 6:2:0:0:10, 5:1:0:0:7, 5:0:0:0:5, 7:1:0:0:8, 7:0:0:0:11, 7:4:0:0:11, 1:0:0:0:1, 1:0:0:0:1, 1086:324:10:2:1540
D# minor (6#), 3:0:0:0:0, 6:2:1:0:3, 4:0:0:0:0, 4:0:0:0:0, 3:0:0:0:0, 6:2:1:0:3, 4:0:0:0:0, 4:0:0:0:0, 3:0:0:0:2, 5:0:0:0:3, 4:0:0:0:0, 0:0:0:0:0, 4:0:0:0:0, 3:0:0:0:0, 4:0:0:0:0, 3:0:0:0:0, 4:0:1:0:0, 6:2:1:0:3, 4:0:0:0:0, 4:0:0:0:0, 4:0:0:0:1, 5:0:0:0:2, 3:0:0:0:0, 5:0:0:0:2, 2:0:0:0:0, 5:1:0:0:2, 3:0:0:0:0, 2:0:2:0:0, 3:0:0:0:0, 4:0:0:0:0, 3:0:0:0:0, 4:0:0:0:0, 3:0:0:0:0, 5:2:1:0:3, 4:0:0:0:0, 6:0:0:0:1, 5:0:0:0:0, 10:2:1:0:3, 6:0:0:0:1, 7:0:1:0:0, 5:0:0:0:2, 9:1:0:0:4, 4:1:0:0:1, 1:0:0:0:0, 4:0:0:0:0, 6:4:0:2:4, 4:0:0:0:0, 4:0:0:0:0, 4:0:0:0:0, 6:2:1:0:3, 4:0:0:0:0, 6:0:0:0:1, 5:1:0:0:3, 6:1:0:0:5, 3:0:0:0:0, 5:0:0:0:2, 5:1:1:0:3, 5:1:0:0:2, 7:1:0:0:2, 4:0:0:0:0, 3:0:0:0:0, 5:0:0:0:0, 7:0:2:3:3, 4:0:0:0:0, 3:0:0:0:0, 6:2:1:0:3, 4:0:0:0:0, 4:0:0:0:0, 3:0:0:0:0, 6:2:1:0:3, 4:0:0:0:0, 4:0:0:0:0, 5:0:0:0:1, 6:0:0:0:2, 3:0:0:0:0, 4:0:0:0:0, 2:0:0:0:0, 5:1:0:0:1, 4:0:0:0:0, 3:0:0:0:0, 3:0:0:0:0, 7:2:1:0:3, 6:1:0:0:3, 4:0:0:0:0, 4:0:0:0:1, 5:0:0:0:2, 4:0:0:0:1, 5:0:0:0:2, 5:0:0:0:0, 6:1:0:0:2, 5:0:0:0:0, 4:0:0:0:1, 4:0:0:0:0, 4:0:0:0:0, 3:0:0:0:0, 4:0:0:0:0, 3:0:0:0:0, 6:2:1:0:3, 4:0:0:0:0, 4:0:0:0:0, 4:0:0:0:0, 5:2:1:0:4, 4:0:0:0:0, 4:0:0:0:0, 5:0:0:0:1, 8:0:0:0:3, 3:0:0:0:0, 1:0:0:0:0, 2:0:0:0:0, 4:0:0:0:0, 4:0:0:0:0, 4:0:0:0:0, 4:0:0:0:0, 9:3:1:0:4, 5:1:0:0:1, 4:0:0:0:0, 4:2:0:0:4, 6:1:0:0:4, 5:0:0:0:1, 5:0:0:0:2, 3:0:0:0:0, 5:1:0:0:2, 2:0:0:0:0, 1:0:0:0:0, 4:0:0:0:0, 8:0:0:0:1, 4:0:0:0:0, 4:0:0:0:0, 3:0:0:0:0, 7:2:1:0:3, 4:0:0:0:0, 6:0:0:0:0, 4:0:0:0:0, 10:2:3:0:3, 6:0:0:0:0, 6:0:0:0:0, 5:0:0:0:3, 6:0:0:0:3, 5:0:0:0:1, 2:0:0:0:0, 2:0:0:0:0, 4:0:0:0:0, 6:1:0:0:1, 4:0:0:0:0, 4:1:0:0:1, 9:4:1:0:5, 5:0:0:0:0, 8:0:0:0:2, 3:0:0:0:4, 5:0:0:0:2, 3:0:0:0:0, 5:0:0:0:2, 7:10:2:2:8, 8:2:0:0:3, 2:0:0:0:0, 5:0:0:0:1, 4:0:0:0:0, 8:1:1:0:1, 4:0:0:0:0, 4:0:0:0:0, 3:0:0:0:0, 4:0:0:0:0, 4:0:0:0:0, 4:0:0:0:0, 3:0:0:0:0, 1:0:0:0:0, 1:0:0:0:0, 744:68:27:7:162
Cb major (7b), 6:3:0:0:10, 7:2:0:0:6, 6:1:0:0:11, 6:1:0:0:10, 6:3:0:0:10, 7:2:0:0:6, 6:1:0:0:11, 6:1:0:0:10, 5:1:0:0:6, 6:1:0:0:10, 6:1:0:0:5, 0:0:0:0:0, 5:1:0:0:6, 6:2:0:0:10, 6:1:0:0:10, 5:1:0:0:4, 7:1:0:0:9, 7:2:0:0:6, 7:2:0:0:11, 6:1:0:0:9, 5:3:0:0:9, 6:1:0:0:9, 6:7:1:0:10, 6:1:0:0:8, 4:2:0:0:7, 5:4:0:0:7, 6:3:0:0:9, 6:2:0:0:6, 4:0:0:0:7, 8:2:0:0:8, 5:1:0:0:6, 6:1:0:0:8, 6:4:0:0:9, 7:2:0:0:6, 6:1:0:0:12, 9:5:0:0:15, 8:2:0:0:8, 11:3:0:0:11, 8:1:0:0:12, 9:3:1:0:14, 6:1:0:0:6, 11:2:0:0:13, 6:3:0:0:9, 1:1:1:0:1, 8:3:0:0:11, 9:4:0:0:17, 7:1:0:0:9, 6:1:0:0:5, 6:1:0:0:7, 8:2:0:0:9, 6:2:0:0:11, 8:1:0:0:12, 7:1:0:0:10, 7:2:0:0:12, 5:3:0:0:12, 7:2:0:0:12, 8:1:0:0:12, 5:1:0:0:7, 10:5:1:0:13, 7:3:0:0:7, 4:0:0:0:4, 8:3:0:0:11, 11:1:0:0:12, 6:1:0:0:9, 6:2:0:0:10, 7:2:0:0:4, 6:1:0:0:10, 6:1:0:0:8, 6:1:0:0:11, 7:2:0:0:5, 6:1:0:0:12, 6:1:0:0:10, 5:1:0:0:7, 7:3:1:0:11, 5:4:0:0:12, 3:0:0:0:3, 5:1:0:0:5, 8:6:1:0:17, 7:1:0:0:11, 4:1:0:0:4, 6:3:0:0:12, 9:3:0:0:11, 8:1:0:0:13, 7:2:0:0:14, 5:2:0:0:7, 6:1:0:0:14, 6:3:0:0:12, 7:1:0:0:16, 6:1:0:0:7, 6:3:0:0:10, 8:5:0:0:11, 8:2:0:0:6, 5:0:0:0:8, 7:3:0:0:13, 6:1:0:0:9, 7:2:0:0:12, 5:1:0:0:9, 8:2:0:0:5, 7:1:0:0:14, 6:1:0:0:9, 7:5:0:0:13, 7:2:0:0:5, 7:3:0:0:15, 7:2:0:0:16, 6:2:0:0:8, 9:1:0:0:11, 5:1:0:0:10, 1:0:0:0:1, 6:1:0:0:5, 7:6:0:0:15, 7:4:0:0:14, 6:4:0:0:15, 6:1:0:0:8, 11:3:0:0:11, 8:2:0:0:14, 6:1:0:0:9, 6:1:0:0:5, 8:2:0:0:16, 7:2:0:0:13, 7:1:0:0:11, 5:1:0:0:9, 5:2:0:0:10, 5:2:0:0:6, 5:2:0:0:4, 6:0:0:0:7, 11:2:0:0:9, 7:3:0:0:12, 7:3:0:0:13, 5:1:0:0:10, 9:2:0:0:6, 7:1:0:0:12, 8:2:0:0:13, 6:1:0:0:10, 13:3:0:0:10, 9:2:0:0:17, 9:3:0:0:18, 6:1:0:0:8, 9:4:0:0:16, 7:3:0:0:12, 2:1:1:0:2, 6:1:0:0:4, 8:10:0:0:16, 9:5:0:0:12, 6:1:0:0:6, 7:1:0:0:9, 10:2:0:0:7, 8:4:0:0:14, 10:3:0:0:12, 5:1:0:0:10, 7:3:0:0:17, 5:3:0:0:10, 6:1:0:0:8, 7:1:0:2:7, 7:3:0:0:10, 4:2:0:0:5, 7:3:1:0:7, 5:0:0:0:9, 11:3:0:0:15, 6:1:0:0:9, 6:2:0:0:10, 5:1:0:0:7, 5:0:0:0:5, 7:1:0:0:8, 7:0:0:0:9, 7:4:0:0:8, 1:0:0:0:1, 1:0:0:0:1, 1089:326:8:2:1579
C# major (7#), 4:0:0:0:0, 6:2:1:0:3, 5:0:0:0:2, 5:0:0:0:2, 4:0:0:0:0, 6:2:1:0:3, 5:0:0:0:2, 5:0:0:0:2, 3:0:0:0:1, 5:0:0:0:3, 5:0:0:0:1, 1:0:0:0:0, 5:0:0:0:1, 4:0:0:0:0, 5:0:0:0:3, 4:0:0:0:1, 5:0:0:0:0, 6:2:1:0:3, 5:0:0:0:2, 5:0:0:0:2, 4:0:0:0:1, 5:0:0:0:3, 4:0:0:0:1, 5:0:0:0:3, 3:0:0:0:2, 5:1:0:0:3, 3:0:0:0:0, 3:0:0:0:0, 4:0:0:0:2, 5:0:0:0:1, 4:0:0:0:0, 5:0:0:0:2, 4:0:0:0:0, 5:2:1:0:3, 5:0:0:0:3, 7:0:0:0:4, 6:0:0:0:1, 10:2:1:0:5, 7:0:0:0:4, 8:0:0:0:3, 6:0:0:0:1, 10:1:0:0:6, 5:1:0:0:3, 1:0:0:0:0, 5:0:0:0:2, 7:4:0:2:4, 5:0:0:0:2, 5:0:0:0:1, 5:0:0:0:0, 6:3:2:0:4, 5:0:0:0:2, 7:0:0:0:2, 5:1:0:0:5, 6:1:0:0:6, 4:0:0:0:3, 6:0:0:0:3, 6:1:1:0:4, 5:1:0:0:3, 8:1:0:0:2, 5:0:0:0:0, 4:0:0:0:1, 6:0:0:0:2, 8:0:0:3:0, 5:0:0:0:2, 4:0:0:0:0, 6:3:2:0:4, 5:0:0:0:3, 5:0:0:0:2, 4:0:0:0:0, 6:2:1:0:3, 5:0:0:0:4, 5:0:0:0:2, 5:0:0:0:1, 6:0:0:0:3, 4:0:0:0:4, 5:0:0:0:1, 3:0:0:0:0, 6:1:0:0:1, 5:0:0:0:2, 3:0:0:0:1, 4:0:0:0:0, 7:2:1:0:3, 7:0:0:0:3, 5:0:0:0:2, 4:0:0:0:2, 5:0:0:0:6, 5:0:0:0:1, 6:0:0:0:6, 6:0:0:0:3, 6:1:0:0:4, 5:0:0:0:2, 5:0:0:0:0, 5:0:0:0:2, 5:0:0:0:3, 4:0:0:0:0, 5:0:0:0:4, 4:0:0:0:0, 6:2:1:0:3, 5:0:0:0:4, 5:0:0:0:3, 5:0:0:0:1, 5:3:2:0:5, 5:0:0:0:4, 5:0:0:0:5, 5:0:0:0:2, 9:0:0:0:4, 4:0:0:0:2, 1:0:0:0:0, 3:0:0:0:0, 5:0:0:0:0, 5:0:0:0:2, 4:0:0:0:5, 5:0:0:0:0, 9:3:1:0:7, 6:1:0:0:3, 5:0:0:0:2, 5:0:0:0:1, 7:1:0:0:6, 6:0:0:0:3, 6:0:0:0:3, 4:0:0:0:1, 5:1:0:0:3, 3:0:0:0:0, 2:0:0:0:0, 5:0:0:0:1, 9:0:0:0:1, 5:0:0:0:1, 5:0:0:0:2, 4:0:0:0:0, 7:2:1:0:3, 5:0:0:0:4, 7:0:0:0:3, 5:0:0:0:0, 9:2:1:0:4, 7:0:0:0:5, 7:0:0:0:4, 5:0:0:0:2, 7:0:0:0:3, 6:0:0:0:2, 3:0:0:0:0, 3:0:0:0:0, 5:0:0:0:0, 7:1:0:0:3, 4:0:0:0:1, 5:1:0:0:1, 9:4:1:0:6, 6:0:0:0:4, 9:0:0:0:4, 4:0:0:0:4, 6:0:0:0:4, 4:0:0:0:1, 5:0:0:0:3, 8:10:2:2:11, 8:2:0:0:5, 2:0:0:0:0, 6:0:0:0:1, 5:0:0:0:4, 9:1:0:0:4, 5:0:0:0:1, 5:0:0:0:2, 4:0:0:0:0, 5:0:0:0:1, 5:0:0:0:1, 5:0:0:0:2, 4:0:0:0:0, 1:0:0:0:0, 1:0:0:0:0, 866:68:21:7:369
Ab minor (7b), 6:3:0:0:10, 7:2:0:0:6, 6:1:0:0:11, 6:1:0:0:10, 6:3:0:0:10, 7:2:0:0:6, 6:1:0:0:11, 6:1:0:0:10, 5:1:0:0:6, 6:1:0:0:10, 6:1:0:0:5, 0:0:0:0:0, 5:1:0:0:6, 6:2:0:0:10, 6:1:0:0:10, 5:1:0:0:4, 7:1:0:0:9, 7:2:0:0:6, 7:2:0:0:11, 6:1:0:0:9, 5:3:0:0:9, 6:1:0:0:9, 6:7:1:0:10, 6:1:0:0:8, 4:2:0:0:7, 5:4:0:0:7, 6:3:0:0:9, 6:2:0:0:6, 4:0:0:0:7, 8:2:0:0:8, 5:1:0:0:6, 6:1:0:0:8, 6:4:0:0:9, 7:2:0:0:6, 6:1:0:0:12, 9:5:0:0:15, 8:2:0:0:8, 11:3:0:0:11, 8:1:0:0:12, 9:3:1:0:14, 6:1:0:0:6, 11:2:0:0:13, 6:3:0:0:9, 1:1:1:0:1, 8:3:0:0:11, 9:4:0:0:17, 7:1:0:0:9, 6:1:0:0:5, 6:1:0:0:7, 8:2:0:0:9, 6:2:0:0:11, 8:1:0:0:12, 7:1:0:0:10, 7:2:0:0:12, 5:3:0:0:12, 7:2:0:0:12, 8:1:0:0:12, 5:1:0:0:7, 10:5:1:0:13, 7:3:0:0:7, 4:0:0:0:4, 8:3:0:0:11, 11:1:0:0:12, 6:1:0:0:9, 6:2:0:0:10, 7:2:0:0:4, 6:1:0:0:10, 6:1:0:0:8, 6:1:0:0:11, 7:2:0:0:5, 6:1:0:0:12, 6:1:0:0:10, 5:1:0:0:7, 7:3:1:0:11, 5:4:0:0:12, 3:0:0:0:3, 5:1:0:0:5, 8:6:1:0:17, 7:1:0:0:11, 4:1:0:0:4, 6:3:0:0:12, 9:3:0:0:11, 8:1:0:0:13, 7:2:0:0:14, 5:2:0:0:7, 6:1:0:0:14, 6:3:0:0:12, 7:1:0:0:16, 6:1:0:0:7, 6:3:0:0:10, 8:5:0:0:11, 8:2:0:0:6, 5:0:0:0:8, 7:3:0:0:13, 6:1:0:0:9, 7:2:0:0:12, 5:1:0:0:9, 8:2:0:0:5, 7:1:0:0:14, 6:1:0:0:9, 7:5:0:0:13, 7:2:0:0:5, 7:3:0:0:15, 7:2:0:0:16, 6:2:0:0:8, 9:1:0:0:11, 5:1:0:0:10, 1:0:0:0:1, 6:1:0:0:5, 7:6:0:0:15, 7:4:0:0:14, 6:4:0:0:15, 6:1:0:0:8, 11:3:0:0:11, 8:2:0:0:14, 6:1:0:0:9, 6:1:0:0:5, 8:2:0:0:16, 7:2:0:0:13, 7:1:0:0:11, 5:1:0:0:9, 5:2:0:0:10, 5:2:0:0:6, 5:2:0:0:4, 6:0:0:0:7, 11:2:0:0:9, 7:3:0:0:12, 7:3:0:0:13, 5:1:0:0:10, 9:2:0:0:6, 7:1:0:0:12, 8:2:0:0:13, 6:1:0:0:10, 13:3:0:0:10, 9:2:0:0:17, 9:3:0:0:18, 6:1:0:0:8, 9:4:0:0:16, 7:3:0:0:12, 2:1:1:0:2, 6:1:0:0:4, 8:10:0:0:16, 9:5:0:0:12, 6:1:0:0:6, 7:1:0:0:9, 10:2:0:0:7, 8:4:0:0:14, 10:3:0:0:12, 5:1:0:0:10, 7:3:0:0:17, 5:3:0:0:10, 6:1:0:0:8, 7:1:0:2:7, 7:3:0:0:10, 4:2:0:0:5, 7:3:1:0:7, 5:0:0:0:9, 11:3:0:0:15, 6:1:0:0:9, 6:2:0:0:10, 5:1:0:0:7, 5:0:0:0:5, 7:1:0:0:8, 7:0:0:0:9, 7:4:0:0:8, 1:0:0:0:1, 1:0:0:0:1, 1089:326:8:2:1579
A# minor (7#), 4:0:0:0:0, 6:2:1:0:3, 5:0:0:0:2, 5:0:0:0:2, 4:0:0:0:0, 6:2:1:0:3, 5:0:0:0:2, 5:0:0:0:2, 3:0:0:0:1, 5:0:0:0:3, 5:0:0:0:1, 1:0:0:0:0, 5:0:0:0:1, 4:0:0:0:0, 5:0:0:0:3, 4:0:0:0:1, 5:0:0:0:0, 6:2:1:0:3, 5:0:0:0:2, 5:0:0:0:2, 4:0:0:0:1, 5:0:0:0:3, 4:0:0:0:1, 5:0:0:0:3, 3:0:0:0:2, 5:1:0:0:3, 3:0:0:0:0, 3:0:0:0:0, 4:0:0:0:2, 5:0:0:0:1, 4:0:0:0:0, 5:0:0:0:2, 4:0:0:0:0, 5:2:1:0:3, 5:0:0:0:3, 7:0:0:0:4, 6:0:0:0:1, 10:2:1:0:5, 7:0:0:0:4, 8:0:0:0:3, 6:0:0:0:1, 10:1:0:0:6, 5:1:0:0:3, 1:0:0:0:0, 5:0:0:0:2, 7:4:0:2:4, 5:0:0:0:2, 5:0:0:0:1, 5:0:0:0:0, 6:3:2:0:4, 5:0:0:0:2, 7:0:0:0:2, 5:1:0:0:5, 6:1:0:0:6, 4:0:0:0:3, 6:0:0:0:3, 6:1:1:0:4, 5:1:0:0:3, 8:1:0:0:2, 5:0:0:0:0, 4:0:0:0:1, 6:0:0:0:2, 8:0:0:3:0, 5:0:0:0:2, 4:0:0:0:0, 6:3:2:0:4, 5:0:0:0:3, 5:0:0:0:2, 4:0:0:0:0, 6:2:1:0:3, 5:0:0:0:4, 5:0:0:0:2, 5:0:0:0:1, 6:0:0:0:3, 4:0:0:0:4, 5:0:0:0:1, 3:0:0:0:0, 6:1:0:0:1, 5:0:0:0:2, 3:0:0:0:1, 4:0:0:0:0, 7:2:1:0:3, 7:0:0:0:3, 5:0:0:0:2, 4:0:0:0:2, 5:0:0:0:6, 5:0:0:0:1, 6:0:0:0:6, 6:0:0:0:3, 6:1:0:0:4, 5:0:0:0:2, 5:0:0:0:0, 5:0:0:0:2, 5:0:0:0:3, 4:0:0:0:0, 5:0:0:0:4, 4:0:0:0:0, 6:2:1:0:3, 5:0:0:0:4, 5:0:0:0:3, 5:0:0:0:1, 5:3:2:0:5, 5:0:0:0:4, 5:0:0:0:5, 5:0:0:0:2, 9:0:0:0:4, 4:0:0:0:2, 1:0:0:0:0, 3:0:0:0:0, 5:0:0:0:0, 5:0:0:0:2, 4:0:0:0:5, 5:0:0:0:0, 9:3:1:0:7, 6:1:0:0:3, 5:0:0:0:2, 5:0:0:0:1, 7:1:0:0:6, 6:0:0:0:3, 6:0:0:0:3, 4:0:0:0:1, 5:1:0:0:3, 3:0:0:0:0, 2:0:0:0:0, 5:0:0:0:1, 9:0:0:0:1, 5:0:0:0:1, 5:0:0:0:2, 4:0:0:0:0, 7:2:1:0:3, 5:0:0:0:4, 7:0:0:0:3, 5:0:0:0:0, 9:2:1:0:4, 7:0:0:0:5, 7:0:0:0:4, 5:0:0:0:2, 7:0:0:0:3, 6:0:0:0:2, 3:0:0:0:0, 3:0:0:0:0, 5:0:0:0:0, 7:1:0:0:3, 4:0:0:0:1, 5:1:0:0:1, 9:4:1:0:6, 6:0:0:0:4, 9:0:0:0:4, 4:0:0:0:4, 6:0:0:0:4, 4:0:0:0:1, 5:0:0:0:3, 8:10:2:2:11, 8:2:0:0:5, 2:0:0:0:0, 6:0:0:0:1, 5:0:0:0:4, 9:1:0:0:4, 5:0:0:0:1, 5:0:0:0:2, 4:0:0:0:0, 5:0:0:0:1, 5:0:0:0:1, 5:0:0:0:2, 4:0:0:0:0, 1:0:0:0:0, 1:0:0:0:0, 866:68:21:7:369
