 , 0, 1, 2, 3, 4, 5, 6, 7, 8, 9, 10, 11, 12, 13, 14, 15, 16, 17, 18, 19, 20, 21, 22, 23, 24, 25, 26, 27, 28, 29, 30, 31, 32, 33, 34, 35, 36, 37, 38, 39, 40, 41, 42, 43, 44, 45, 46, 47, 48, 49, 50, 51, 52, 53, 54, 55, 56, 57, 58, 59, 60, 61, 62, 63, 64, 65, rowcost
C major (0), 0, 0, 0, 1, 1, 3, 1, 1, 2, 2, 1, 2, 1, 0,  ,  , 0, 0, 0, 1, 1, 3, 1, 1, 2, 2, 1, 1, 1, 1, 1, 1, 0, 2, 1, 1,  , 1, 2, 2,  , 4, 2, 2, 3, 1, 3, 2, 3, 1, 0, 1, 0, 2, 1, 1, 3, 3, 2, 1, 0, 4, 1, 2, 0, 0, 83
A minor (0), 0, 0, 0, 1, 1, 2, 1, 2, 3, 3, 1, 3, 1, 0,  ,  , 0, 0, 0, 1, 1, 2, 1, 2, 3, 3, 1, 2, 1, 1, 1, 1, 0, 2, 1, 1,  , 1, 3, 3,  , 4, 2, 3, 3, 1, 3, 2, 3, 1, 0, 1, 0, 3, 1, 1, 5, 5, 2, 2, 0, 4, 2, 2, 0, 0, 99
A minor mel (0), 0, 0, 0, 1, 1, 2, 1, 2, 3, 3, 1, 3, 1, 0,  ,  , 0, 0, 0, 1, 1, 2, 1, 2, 3, 3, 1, 2, 1, 1, 1, 1, 0, 2, 1, 1,  , 1, 3, 3,  , 4, 2, 3, 3, 1, 3, 2, 3, 1, 0, 1, 0, 3, 1, 1, 5, 5, 2, 2, 0, 4, 2, 2, 0, 0, 99
C major blues (0), 0, 0, 0, 1, 1, 3, 1, 1, 2, 2, 1, 2, 1, 0,  ,  , 0, 0, 0, 1, 1, 3, 1, 1, 2, 2, 1, 1, 1, 1, 1, 1, 0, 2, 1, 1,  , 1, 2, 2,  , 4, 2, 2, 3, 1, 3, 2, 3, 1, 0, 1, 0, 2, 1, 1, 3, 3, 2, 1, 0, 4, 1, 2, 0, 0, 83
A minor blues (0), 0, 0, 0, 1, 1, 2, 1, 2, 3, 3, 1, 3, 1, 0,  ,  , 0, 0, 0, 1, 1, 2, 1, 2, 3, 3, 1, 2, 1, 1, 1, 1, 0, 2, 1, 1,  , 1, 3, 3,  , 4, 2, 3, 3, 1, 3, 2, 3, 1, 0, 1, 0, 3, 1, 1, 5, 5, 2, 2, 0, 4, 2, 2, 0, 0, 99
C dorian (0), 0, 0, 0, 1, 1, 3, 1, 1, 2, 2, 1, 2, 1, 0,  ,  , 0, 0, 0, 1, 1, 3, 1, 1, 2, 2, 1, 1, 1, 1, 1, 1, 0, 2, 1, 1,  , 1, 2, 2,  , 4, 2, 2, 3, 1, 3, 2, 3, 1, 0, 1, 0, 2, 1, 1, 3, 3, 2, 1, 0, 4, 1, 2, 0, 0, 83
C phrygian (0), 0, 0, 0, 1, 1, 3, 1, 1, 2, 2, 1, 2, 1, 0,  ,  , 0, 0, 0, 1, 1, 3, 1, 1, 2, 2, 1, 1, 1, 1, 1, 1, 0, 2, 1, 1,  , 1, 2, 2,  , 4, 2, 2, 3, 1, 3, 2, 3, 1, 0, 1, 0, 2, 1, 1, 3, 3, 2, 1, 0, 4, 1, 2, 0, 0, 83
C lydian (0), 0, 0, 0, 1, 1, 3, 1, 1, 2, 2, 1, 2, 1, 0,  ,  , 0, 0, 0, 1, 1, 3, 1, 1, 2, 2, 1, 1, 1, 1, 1, 1, 0, 2, 1, 1,  , 1, 2, 2,  , 4, 2, 2, 3, 1, 3, 2, 3, 1, 0, 1, 0, 2, 1, 1, 3, 3, 2, 1, 0, 4, 1, 2, 0, 0, 83
C mixolydian (0), 0, 0, 0, 1, 1, 3, 1, 1, 2, 2, 1, 2, 1, 0,  ,  , 0, 0, 0, 1, 1, 3, 1, 1, 2, 2, 1, 1, 1, 1, 1, 1, 0, 2, 1, 1,  , 1, 2, 2,  , 4, 2, 2, 3, 1, 3, 2, 3, 1, 0, 1, 0, 2, 1, 1, 3, 3, 2, 1, 0, 4, 1, 2, 0, 0, 83
C aeolian (0), 0, 0, 0, 1, 1, 3, 1, 1, 2, 2, 1, 2, 1, 0,  ,  , 0, 0, 0, 1, 1, 3, 1, 1, 2, 2, 1, 1, 1, 1, 1, 1, 0, 2, 1, 1,  , 1, 2, 2,  , 4, 2, 2, 3, 1, 3, 2, 3, 1, 0, 1, 0, 2, 1, 1, 3, 3, 2, 1, 0, 4, 1, 2, 0, 0, 83
C locrian (0), 0, 0, 0, 1, 1, 3, 1, 1, 2, 2, 1, 2, 1, 0,  ,  , 0, 0, 0, 1, 1, 3, 1, 1, 2, 2, 1, 1, 1, 1, 1, 1, 0, 2, 1, 1,  , 1, 2, 2,  , 4, 2, 2, 3, 1, 3, 2, 3, 1, 0, 1, 0, 2, 1, 1, 3, 3, 2, 1, 0, 4, 1, 2, 0, 0, 83
F major (1b), 0, 1, 1, 0, 0, 2, 1, 1, 2, 1, 1, 1, 6, 0,  ,  , 0, 1, 1, 0, 0, 2, 1, 1, 2, 1, 1, 2, 6, 6, 6, 6, 0, 4, 3, 0,  , 0, 1, 2,  , 3, 1, 1, 2, 1, 3, 3, 3, 4, 0, 0, 0, 2, 0, 1, 2, 2, 1, 2, 0, 4, 1, 3, 1, 0, 103
G major (1#), 0, 0, 0, 2, 1, 4, 1, 2, 3, 3, 0, 3, 0, 0,  ,  , 0, 0, 0, 2, 1, 4, 1, 2, 3, 3, 0, 2, 0, 0, 0, 0, 0, 1, 0, 1,  , 2, 4, 3,  , 4, 1, 2, 2, 0, 2, 2, 2, 0, 0, 2, 0, 3, 2, 1, 3, 4, 1, 1, 0, 5, 1, 3, 0, 0, 89
D minor (1b), 0, 1, 1, 0, 0, 1, 1, 2, 2, 2, 1, 1, 1, 0,  ,  , 0, 1, 1, 0, 0, 1, 1, 2, 2, 2, 1, 2, 1, 1, 1, 1, 0, 3, 2, 0,  , 0, 2, 3,  , 2, 1, 1, 2, 1, 3, 3, 3, 2, 0, 0, 0, 2, 0, 1, 2, 4, 1, 2, 0, 3, 1, 3, 1, 0, 78
E minor (1#), 0, 0, 0, 2, 1, 4, 1, 3, 4, 5, 0, 4, 0, 0,  ,  , 0, 0, 0, 2, 1, 4, 1, 3, 4, 5, 0, 3, 0, 0, 0, 0, 0, 1, 0, 2,  , 3, 5, 4,  , 5, 2, 4, 4, 0, 2, 3, 2, 0, 0, 4, 0, 4, 3, 1, 5, 5, 4, 2, 0, 5, 2, 3, 0, 0, 122
D minor mel (1b), 0, 0, 0, 1, 1, 3, 1, 1, 2, 2, 1, 2, 1, 0,  ,  , 0, 0, 0, 1, 1, 3, 1, 1, 2, 2, 1, 1, 1, 1, 1, 1, 0, 2, 1, 1,  , 1, 2, 2,  , 4, 2, 2, 3, 1, 3, 2, 3, 1, 0, 1, 0, 2, 1, 1, 3, 3, 2, 1, 0, 4, 1, 2, 0, 0, 83
E minor mel (1#), 0, 0, 0, 1, 1, 2, 1, 2, 3, 3, 1, 3, 1, 0,  ,  , 0, 0, 0, 1, 1, 2, 1, 2, 3, 3, 1, 2, 1, 1, 1, 1, 0, 2, 1, 1,  , 1, 3, 3,  , 4, 2, 3, 3, 1, 3, 2, 3, 1, 0, 1, 0, 3, 1, 1, 5, 5, 2, 2, 0, 4, 2, 2, 0, 0, 99
F major blues (1b), 0, 0, 0, 1, 1, 2, 1, 2, 3, 3, 1, 3, 1, 0,  ,  , 0, 0, 0, 1, 1, 2, 1, 2, 3, 3, 1, 2, 1, 1, 1, 1, 0, 2, 1, 1,  , 1, 3, 3,  , 4, 2, 3, 3, 1, 3, 2, 3, 1, 0, 1, 0, 3, 1, 1, 5, 5, 2, 2, 0, 4, 2, 2, 0, 0, 99
G major blues (1#), 0, 0, 0, 1, 1, 3, 1, 1, 2, 2, 1, 2, 1, 0,  ,  , 0, 0, 0, 1, 1, 3, 1, 1, 2, 2, 1, 1, 1, 1, 1, 1, 0, 2, 1, 1,  , 1, 2, 2,  , 4, 2, 2, 3, 1, 3, 2, 3, 1, 0, 1, 0, 2, 1, 1, 3, 3, 2, 1, 0, 4, 1, 2, 0, 0, 83
D minor blues (1b), 0, 0, 0, 1, 1, 2, 1, 2, 3, 3, 1, 3, 1, 0,  ,  , 0, 0, 0, 1, 1, 2, 1, 2, 3, 3, 1, 2, 1, 1, 1, 1, 0, 2, 1, 1,  , 1, 3, 3,  , 4, 2, 3, 3, 1, 3, 2, 3, 1, 0, 1, 0, 3, 1, 1, 5, 5, 2, 2, 0, 4, 2, 2, 0, 0, 99
E minor blues (1#), 0, 0, 0, 1, 1, 3, 1, 1, 2, 2, 1, 2, 1, 0,  ,  , 0, 0, 0, 1, 1, 3, 1, 1, 2, 2, 1, 1, 1, 1, 1, 1, 0, 2, 1, 1,  , 1, 2, 2,  , 4, 2, 2, 3, 1, 3, 2, 3, 1, 0, 1, 0, 2, 1, 1, 3, 3, 2, 1, 0, 4, 1, 2, 0, 0, 83
F dorian (1b), 0, 0, 0, 1, 1, 3, 1, 1, 2, 2, 1, 2, 1, 0,  ,  , 0, 0, 0, 1, 1, 3, 1, 1, 2, 2, 1, 1, 1, 1, 1, 1, 0, 2, 1, 1,  , 1, 2, 2,  , 4, 2, 2, 3, 1, 3, 2, 3, 1, 0, 1, 0, 2, 1, 1, 3, 3, 2, 1, 0, 4, 1, 2, 0, 0, 83
G dorian (1#), 0, 0, 0, 1, 1, 3, 1, 1, 2, 2, 1, 2, 1, 0,  ,  , 0, 0, 0, 1, 1, 3, 1, 1, 2, 2, 1, 1, 1, 1, 1, 1, 0, 2, 1, 1,  , 1, 2, 2,  , 4, 2, 2, 3, 1, 3, 2, 3, 1, 0, 1, 0, 2, 1, 1, 3, 3, 2, 1, 0, 4, 1, 2, 0, 0, 83
F phrygian (1b), 0, 0, 0, 1, 1, 3, 1, 1, 2, 2, 1, 2, 1, 0,  ,  , 0, 0, 0, 1, 1, 3, 1, 1, 2, 2, 1, 1, 1, 1, 1, 1, 0, 2, 1, 1,  , 1, 2, 2,  , 4, 2, 2, 3, 1, 3, 2, 3, 1, 0, 1, 0, 2, 1, 1, 3, 3, 2, 1, 0, 4, 1, 2, 0, 0, 83
G phrygian (1#), 0, 0, 0, 1, 1, 3, 1, 1, 2, 2, 1, 2, 1, 0,  ,  , 0, 0, 0, 1, 1, 3, 1, 1, 2, 2, 1, 1, 1, 1, 1, 1, 0, 2, 1, 1,  , 1, 2, 2,  , 4, 2, 2, 3, 1, 3, 2, 3, 1, 0, 1, 0, 2, 1, 1, 3, 3, 2, 1, 0, 4, 1, 2, 0, 0, 83
F lydian (1b), 0, 0, 0, 1, 1, 3, 1, 1, 2, 2, 1, 2, 1, 0,  ,  , 0, 0, 0, 1, 1, 3, 1, 1, 2, 2, 1, 1, 1, 1, 1, 1, 0, 2, 1, 1,  , 1, 2, 2,  , 4, 2, 2, 3, 1, 3, 2, 3, 1, 0, 1, 0, 2, 1, 1, 3, 3, 2, 1, 0, 4, 1, 2, 0, 0, 83
G lydian (1#), 0, 1, 1, 0, 0, 2, 1, 1, 2, 1, 1, 1, 6, 0,  ,  , 0, 1, 1, 0, 0, 2, 1, 1, 2, 1, 1, 2, 6, 6, 6, 6, 0, 4, 3, 0,  , 0, 1, 2,  , 3, 1, 1, 2, 1, 3, 3, 3, 4, 0, 0, 0, 2, 0, 1, 2, 2, 1, 2, 0, 4, 1, 3, 1, 0, 103
F mixolydian (1b), 0, 0, 0, 2, 1, 4, 1, 2, 3, 3, 0, 3, 0, 0,  ,  , 0, 0, 0, 2, 1, 4, 1, 2, 3, 3, 0, 2, 0, 0, 0, 0, 0, 1, 0, 1,  , 2, 4, 3,  , 4, 1, 2, 2, 0, 2, 2, 2, 0, 0, 2, 0, 3, 2, 1, 3, 4, 1, 1, 0, 5, 1, 3, 0, 0, 89
G mixolydian (1#), 0, 1, 1, 0, 0, 1, 1, 2, 2, 2, 1, 1, 1, 0,  ,  , 0, 1, 1, 0, 0, 1, 1, 2, 2, 2, 1, 2, 1, 1, 1, 1, 0, 3, 2, 0,  , 0, 2, 3,  , 2, 1, 1, 2, 1, 3, 3, 3, 2, 0, 0, 0, 2, 0, 1, 2, 4, 1, 2, 0, 3, 1, 3, 1, 0, 78
F aeolian (1b), 0, 0, 0, 2, 1, 4, 1, 3, 4, 5, 0, 4, 0, 0,  ,  , 0, 0, 0, 2, 1, 4, 1, 3, 4, 5, 0, 3, 0, 0, 0, 0, 0, 1, 0, 2,  , 3, 5, 4,  , 5, 2, 4, 4, 0, 2, 3, 2, 0, 0, 4, 0, 4, 3, 1, 5, 5, 4, 2, 0, 5, 2, 3, 0, 0, 122
G aeolian (1#), 0, 0, 0, 1, 1, 3, 1, 1, 2, 2, 1, 2, 1, 0,  ,  , 0, 0, 0, 1, 1, 3, 1, 1, 2, 2, 1, 1, 1, 1, 1, 1, 0, 2, 1, 1,  , 1, 2, 2,  , 4, 2, 2, 3, 1, 3, 2, 3, 1, 0, 1, 0, 2, 1, 1, 3, 3, 2, 1, 0, 4, 1, 2, 0, 0, 83
F locrian (1b), 0, 0, 0, 1, 1, 2, 1, 2, 3, 3, 1, 3, 1, 0,  ,  , 0, 0, 0, 1, 1, 2, 1, 2, 3, 3, 1, 2, 1, 1, 1, 1, 0, 2, 1, 1,  , 1, 3, 3,  , 4, 2, 3, 3, 1, 3, 2, 3, 1, 0, 1, 0, 3, 1, 1, 5, 5, 2, 2, 0, 4, 2, 2, 0, 0, 99
G locrian (1#), 0, 0, 0, 1, 1, 2, 1, 2, 3, 3, 1, 3, 1, 0,  ,  , 0, 0, 0, 1, 1, 2, 1, 2, 3, 3, 1, 2, 1, 1, 1, 1, 0, 2, 1, 1,  , 1, 3, 3,  , 4, 2, 3, 3, 1, 3, 2, 3, 1, 0, 1, 0, 3, 1, 1, 5, 5, 2, 2, 0, 4, 2, 2, 0, 0, 99
Bb major (2b), 0, 0, 0, 1, 1, 3, 1, 1, 2, 2, 1, 2, 1, 0,  ,  , 0, 0, 0, 1, 1, 3, 1, 1, 2, 2, 1, 1, 1, 1, 1, 1, 0, 2, 1, 1,  , 1, 2, 2,  , 4, 2, 2, 3, 1, 3, 2, 3, 1, 0, 1, 0, 2, 1, 1, 3, 3, 2, 1, 0, 4, 1, 2, 0, 0, 83
D major (2#), 0, 0, 0, 1, 1, 2, 1, 2, 3, 3, 1, 3, 1, 0,  ,  , 0, 0, 0, 1, 1, 2, 1, 2, 3, 3, 1, 2, 1, 1, 1, 1, 0, 2, 1, 1,  , 1, 3, 3,  , 4, 2, 3, 3, 1, 3, 2, 3, 1, 0, 1, 0, 3, 1, 1, 5, 5, 2, 2, 0, 4, 2, 2, 0, 0, 99
G minor (2b), 0, 0, 0, 1, 1, 3, 1, 1, 2, 2, 1, 2, 1, 0,  ,  , 0, 0, 0, 1, 1, 3, 1, 1, 2, 2, 1, 1, 1, 1, 1, 1, 0, 2, 1, 1,  , 1, 2, 2,  , 4, 2, 2, 3, 1, 3, 2, 3, 1, 0, 1, 0, 2, 1, 1, 3, 3, 2, 1, 0, 4, 1, 2, 0, 0, 83
B minor (2#), 0, 0, 0, 1, 1, 3, 1, 1, 2, 2, 1, 2, 1, 0,  ,  , 0, 0, 0, 1, 1, 3, 1, 1, 2, 2, 1, 1, 1, 1, 1, 1, 0, 2, 1, 1,  , 1, 2, 2,  , 4, 2, 2, 3, 1, 3, 2, 3, 1, 0, 1, 0, 2, 1, 1, 3, 3, 2, 1, 0, 4, 1, 2, 0, 0, 83
G minor mel (2b), 0, 0, 0, 1, 1, 3, 1, 1, 2, 2, 1, 2, 1, 0,  ,  , 0, 0, 0, 1, 1, 3, 1, 1, 2, 2, 1, 1, 1, 1, 1, 1, 0, 2, 1, 1,  , 1, 2, 2,  , 4, 2, 2, 3, 1, 3, 2, 3, 1, 0, 1, 0, 2, 1, 1, 3, 3, 2, 1, 0, 4, 1, 2, 0, 0, 83
B minor mel (2#), 0, 0, 0, 1, 1, 3, 1, 1, 2, 2, 1, 2, 1, 0,  ,  , 0, 0, 0, 1, 1, 3, 1, 1, 2, 2, 1, 1, 1, 1, 1, 1, 0, 2, 1, 1,  , 1, 2, 2,  , 4, 2, 2, 3, 1, 3, 2, 3, 1, 0, 1, 0, 2, 1, 1, 3, 3, 2, 1, 0, 4, 1, 2, 0, 0, 83
Bb major blues (2b), 0, 0, 0, 1, 1, 3, 1, 1, 2, 2, 1, 2, 1, 0,  ,  , 0, 0, 0, 1, 1, 3, 1, 1, 2, 2, 1, 1, 1, 1, 1, 1, 0, 2, 1, 1,  , 1, 2, 2,  , 4, 2, 2, 3, 1, 3, 2, 3, 1, 0, 1, 0, 2, 1, 1, 3, 3, 2, 1, 0, 4, 1, 2, 0, 0, 83
D major blues (2#), 0, 0, 0, 1, 1, 3, 1, 1, 2, 2, 1, 2, 1, 0,  ,  , 0, 0, 0, 1, 1, 3, 1, 1, 2, 2, 1, 1, 1, 1, 1, 1, 0, 2, 1, 1,  , 1, 2, 2,  , 4, 2, 2, 3, 1, 3, 2, 3, 1, 0, 1, 0, 2, 1, 1, 3, 3, 2, 1, 0, 4, 1, 2, 0, 0, 83
G minor blues (2b), 0, 1, 1, 0, 0, 2, 1, 1, 2, 1, 1, 1, 6, 0,  ,  , 0, 1, 1, 0, 0, 2, 1, 1, 2, 1, 1, 2, 6, 6, 6, 6, 0, 4, 3, 0,  , 0, 1, 2,  , 3, 1, 1, 2, 1, 3, 3, 3, 4, 0, 0, 0, 2, 0, 1, 2, 2, 1, 2, 0, 4, 1, 3, 1, 0, 103
B minor blues (2#), 0, 0, 0, 2, 1, 4, 1, 2, 3, 3, 0, 3, 0, 0,  ,  , 0, 0, 0, 2, 1, 4, 1, 2, 3, 3, 0, 2, 0, 0, 0, 0, 0, 1, 0, 1,  , 2, 4, 3,  , 4, 1, 2, 2, 0, 2, 2, 2, 0, 0, 2, 0, 3, 2, 1, 3, 4, 1, 1, 0, 5, 1, 3, 0, 0, 89
Bb dorian (2b), 0, 1, 1, 0, 0, 1, 1, 2, 2, 2, 1, 1, 1, 0,  ,  , 0, 1, 1, 0, 0, 1, 1, 2, 2, 2, 1, 2, 1, 1, 1, 1, 0, 3, 2, 0,  , 0, 2, 3,  , 2, 1, 1, 2, 1, 3, 3, 3, 2, 0, 0, 0, 2, 0, 1, 2, 4, 1, 2, 0, 3, 1, 3, 1, 0, 78
D dorian (2#), 0, 0, 0, 2, 1, 4, 1, 3, 4, 5, 0, 4, 0, 0,  ,  , 0, 0, 0, 2, 1, 4, 1, 3, 4, 5, 0, 3, 0, 0, 0, 0, 0, 1, 0, 2,  , 3, 5, 4,  , 5, 2, 4, 4, 0, 2, 3, 2, 0, 0, 4, 0, 4, 3, 1, 5, 5, 4, 2, 0, 5, 2, 3, 0, 0, 122
Bb phrygian (2b), 0, 0, 0, 1, 1, 3, 1, 1, 2, 2, 1, 2, 1, 0,  ,  , 0, 0, 0, 1, 1, 3, 1, 1, 2, 2, 1, 1, 1, 1, 1, 1, 0, 2, 1, 1,  , 1, 2, 2,  , 4, 2, 2, 3, 1, 3, 2, 3, 1, 0, 1, 0, 2, 1, 1, 3, 3, 2, 1, 0, 4, 1, 2, 0, 0, 83
D phrygian (2#), 0, 0, 0, 1, 1, 2, 1, 2, 3, 3, 1, 3, 1, 0,  ,  , 0, 0, 0, 1, 1, 2, 1, 2, 3, 3, 1, 2, 1, 1, 1, 1, 0, 2, 1, 1,  , 1, 3, 3,  , 4, 2, 3, 3, 1, 3, 2, 3, 1, 0, 1, 0, 3, 1, 1, 5, 5, 2, 2, 0, 4, 2, 2, 0, 0, 99
Bb lydian (2b), 0, 0, 0, 1, 1, 2, 1, 2, 3, 3, 1, 3, 1, 0,  ,  , 0, 0, 0, 1, 1, 2, 1, 2, 3, 3, 1, 2, 1, 1, 1, 1, 0, 2, 1, 1,  , 1, 3, 3,  , 4, 2, 3, 3, 1, 3, 2, 3, 1, 0, 1, 0, 3, 1, 1, 5, 5, 2, 2, 0, 4, 2, 2, 0, 0, 99
D lydian (2#), 0, 0, 0, 1, 1, 3, 1, 1, 2, 2, 1, 2, 1, 0,  ,  , 0, 0, 0, 1, 1, 3, 1, 1, 2, 2, 1, 1, 1, 1, 1, 1, 0, 2, 1, 1,  , 1, 2, 2,  , 4, 2, 2, 3, 1, 3, 2, 3, 1, 0, 1, 0, 2, 1, 1, 3, 3, 2, 1, 0, 4, 1, 2, 0, 0, 83
Bb mixolydian (2b), 0, 0, 0, 1, 1, 2, 1, 2, 3, 3, 1, 3, 1, 0,  ,  , 0, 0, 0, 1, 1, 2, 1, 2, 3, 3, 1, 2, 1, 1, 1, 1, 0, 2, 1, 1,  , 1, 3, 3,  , 4, 2, 3, 3, 1, 3, 2, 3, 1, 0, 1, 0, 3, 1, 1, 5, 5, 2, 2, 0, 4, 2, 2, 0, 0, 99
D mixolydian (2#), 0, 0, 0, 1, 1, 3, 1, 1, 2, 2, 1, 2, 1, 0,  ,  , 0, 0, 0, 1, 1, 3, 1, 1, 2, 2, 1, 1, 1, 1, 1, 1, 0, 2, 1, 1,  , 1, 2, 2,  , 4, 2, 2, 3, 1, 3, 2, 3, 1, 0, 1, 0, 2, 1, 1, 3, 3, 2, 1, 0, 4, 1, 2, 0, 0, 83
Bb aeolian (2b), 0, 0, 0, 1, 1, 3, 1, 1, 2, 2, 1, 2, 1, 0,  ,  , 0, 0, 0, 1, 1, 3, 1, 1, 2, 2, 1, 1, 1, 1, 1, 1, 0, 2, 1, 1,  , 1, 2, 2,  , 4, 2, 2, 3, 1, 3, 2, 3, 1, 0, 1, 0, 2, 1, 1, 3, 3, 2, 1, 0, 4, 1, 2, 0, 0, 83
D aeolian (2#), 0, 0, 0, 1, 1, 3, 1, 1, 2, 2, 1, 2, 1, 0,  ,  , 0, 0, 0, 1, 1, 3, 1, 1, 2, 2, 1, 1, 1, 1, 1, 1, 0, 2, 1, 1,  , 1, 2, 2,  , 4, 2, 2, 3, 1, 3, 2, 3, 1, 0, 1, 0, 2, 1, 1, 3, 3, 2, 1, 0, 4, 1, 2, 0, 0, 83
Bb locrian (2b), 0, 0, 0, 1, 1, 3, 1, 1, 2, 2, 1, 2, 1, 0,  ,  , 0, 0, 0, 1, 1, 3, 1, 1, 2, 2, 1, 1, 1, 1, 1, 1, 0, 2, 1, 1,  , 1, 2, 2,  , 4, 2, 2, 3, 1, 3, 2, 3, 1, 0, 1, 0, 2, 1, 1, 3, 3, 2, 1, 0, 4, 1, 2, 0, 0, 83
D locrian (2#), 0, 0, 0, 1, 1, 3, 1, 1, 2, 2, 1, 2, 1, 0,  ,  , 0, 0, 0, 1, 1, 3, 1, 1, 2, 2, 1, 1, 1, 1, 1, 1, 0, 2, 1, 1,  , 1, 2, 2,  , 4, 2, 2, 3, 1, 3, 2, 3, 1, 0, 1, 0, 2, 1, 1, 3, 3, 2, 1, 0, 4, 1, 2, 0, 0, 83
Eb major (3b), 0, 0, 0, 1, 1, 3, 1, 1, 2, 2, 1, 2, 1, 0,  ,  , 0, 0, 0, 1, 1, 3, 1, 1, 2, 2, 1, 1, 1, 1, 1, 1, 0, 2, 1, 1,  , 1, 2, 2,  , 4, 2, 2, 3, 1, 3, 2, 3, 1, 0, 1, 0, 2, 1, 1, 3, 3, 2, 1, 0, 4, 1, 2, 0, 0, 83
A major (3#), 0, 1, 1, 0, 0, 2, 1, 1, 2, 1, 1, 1, 6, 0,  ,  , 0, 1, 1, 0, 0, 2, 1, 1, 2, 1, 1, 2, 6, 6, 6, 6, 0, 4, 3, 0,  , 0, 1, 2,  , 3, 1, 1, 2, 1, 3, 3, 3, 4, 0, 0, 0, 2, 0, 1, 2, 2, 1, 2, 0, 4, 1, 3, 1, 0, 103
C minor (3b), 0, 0, 0, 2, 1, 4, 1, 2, 3, 3, 0, 3, 0, 0,  ,  , 0, 0, 0, 2, 1, 4, 1, 2, 3, 3, 0, 2, 0, 0, 0, 0, 0, 1, 0, 1,  , 2, 4, 3,  , 4, 1, 2, 2, 0, 2, 2, 2, 0, 0, 2, 0, 3, 2, 1, 3, 4, 1, 1, 0, 5, 1, 3, 0, 0, 89
F# minor (3#), 0, 1, 1, 0, 0, 1, 1, 2, 2, 2, 1, 1, 1, 0,  ,  , 0, 1, 1, 0, 0, 1, 1, 2, 2, 2, 1, 2, 1, 1, 1, 1, 0, 3, 2, 0,  , 0, 2, 3,  , 2, 1, 1, 2, 1, 3, 3, 3, 2, 0, 0, 0, 2, 0, 1, 2, 4, 1, 2, 0, 3, 1, 3, 1, 0, 78
C minor mel (3b), 0, 0, 0, 2, 1, 4, 1, 3, 4, 5, 0, 4, 0, 0,  ,  , 0, 0, 0, 2, 1, 4, 1, 3, 4, 5, 0, 3, 0, 0, 0, 0, 0, 1, 0, 2,  , 3, 5, 4,  , 5, 2, 4, 4, 0, 2, 3, 2, 0, 0, 4, 0, 4, 3, 1, 5, 5, 4, 2, 0, 5, 2, 3, 0, 0, 122
F# minor mel (3#), 0, 0, 0, 1, 1, 3, 1, 1, 2, 2, 1, 2, 1, 0,  ,  , 0, 0, 0, 1, 1, 3, 1, 1, 2, 2, 1, 1, 1, 1, 1, 1, 0, 2, 1, 1,  , 1, 2, 2,  , 4, 2, 2, 3, 1, 3, 2, 3, 1, 0, 1, 0, 2, 1, 1, 3, 3, 2, 1, 0, 4, 1, 2, 0, 0, 83
Eb major blues (3b), 0, 0, 0, 1, 1, 2, 1, 2, 3, 3, 1, 3, 1, 0,  ,  , 0, 0, 0, 1, 1, 2, 1, 2, 3, 3, 1, 2, 1, 1, 1, 1, 0, 2, 1, 1,  , 1, 3, 3,  , 4, 2, 3, 3, 1, 3, 2, 3, 1, 0, 1, 0, 3, 1, 1, 5, 5, 2, 2, 0, 4, 2, 2, 0, 0, 99
A major blues (3#), 0, 0, 0, 1, 1, 2, 1, 2, 3, 3, 1, 3, 1, 0,  ,  , 0, 0, 0, 1, 1, 2, 1, 2, 3, 3, 1, 2, 1, 1, 1, 1, 0, 2, 1, 1,  , 1, 3, 3,  , 4, 2, 3, 3, 1, 3, 2, 3, 1, 0, 1, 0, 3, 1, 1, 5, 5, 2, 2, 0, 4, 2, 2, 0, 0, 99
C minor blues (3b), 0, 0, 0, 1, 1, 3, 1, 1, 2, 2, 1, 2, 1, 0,  ,  , 0, 0, 0, 1, 1, 3, 1, 1, 2, 2, 1, 1, 1, 1, 1, 1, 0, 2, 1, 1,  , 1, 2, 2,  , 4, 2, 2, 3, 1, 3, 2, 3, 1, 0, 1, 0, 2, 1, 1, 3, 3, 2, 1, 0, 4, 1, 2, 0, 0, 83
F# minor blues (3#), 0, 0, 0, 1, 1, 2, 1, 2, 3, 3, 1, 3, 1, 0,  ,  , 0, 0, 0, 1, 1, 2, 1, 2, 3, 3, 1, 2, 1, 1, 1, 1, 0, 2, 1, 1,  , 1, 3, 3,  , 4, 2, 3, 3, 1, 3, 2, 3, 1, 0, 1, 0, 3, 1, 1, 5, 5, 2, 2, 0, 4, 2, 2, 0, 0, 99
Eb dorian (3b), 0, 0, 0, 1, 1, 3, 1, 1, 2, 2, 1, 2, 1, 0,  ,  , 0, 0, 0, 1, 1, 3, 1, 1, 2, 2, 1, 1, 1, 1, 1, 1, 0, 2, 1, 1,  , 1, 2, 2,  , 4, 2, 2, 3, 1, 3, 2, 3, 1, 0, 1, 0, 2, 1, 1, 3, 3, 2, 1, 0, 4, 1, 2, 0, 0, 83
A dorian (3#), 0, 0, 0, 1, 1, 3, 1, 1, 2, 2, 1, 2, 1, 0,  ,  , 0, 0, 0, 1, 1, 3, 1, 1, 2, 2, 1, 1, 1, 1, 1, 1, 0, 2, 1, 1,  , 1, 2, 2,  , 4, 2, 2, 3, 1, 3, 2, 3, 1, 0, 1, 0, 2, 1, 1, 3, 3, 2, 1, 0, 4, 1, 2, 0, 0, 83
Eb phrygian (3b), 0, 0, 0, 1, 1, 3, 1, 1, 2, 2, 1, 2, 1, 0,  ,  , 0, 0, 0, 1, 1, 3, 1, 1, 2, 2, 1, 1, 1, 1, 1, 1, 0, 2, 1, 1,  , 1, 2, 2,  , 4, 2, 2, 3, 1, 3, 2, 3, 1, 0, 1, 0, 2, 1, 1, 3, 3, 2, 1, 0, 4, 1, 2, 0, 0, 83
A phrygian (3#), 0, 0, 0, 1, 1, 3, 1, 1, 2, 2, 1, 2, 1, 0,  ,  , 0, 0, 0, 1, 1, 3, 1, 1, 2, 2, 1, 1, 1, 1, 1, 1, 0, 2, 1, 1,  , 1, 2, 2,  , 4, 2, 2, 3, 1, 3, 2, 3, 1, 0, 1, 0, 2, 1, 1, 3, 3, 2, 1, 0, 4, 1, 2, 0, 0, 83
Eb lydian (3b), 0, 0, 0, 1, 1, 3, 1, 1, 2, 2, 1, 2, 1, 0,  ,  , 0, 0, 0, 1, 1, 3, 1, 1, 2, 2, 1, 1, 1, 1, 1, 1, 0, 2, 1, 1,  , 1, 2, 2,  , 4, 2, 2, 3, 1, 3, 2, 3, 1, 0, 1, 0, 2, 1, 1, 3, 3, 2, 1, 0, 4, 1, 2, 0, 0, 83
A lydian (3#), 0, 0, 0, 1, 1, 3, 1, 1, 2, 2, 1, 2, 1, 0,  ,  , 0, 0, 0, 1, 1, 3, 1, 1, 2, 2, 1, 1, 1, 1, 1, 1, 0, 2, 1, 1,  , 1, 2, 2,  , 4, 2, 2, 3, 1, 3, 2, 3, 1, 0, 1, 0, 2, 1, 1, 3, 3, 2, 1, 0, 4, 1, 2, 0, 0, 83
Eb mixolydian (3b), 0, 1, 1, 0, 0, 2, 1, 1, 2, 1, 1, 1, 6, 0,  ,  , 0, 1, 1, 0, 0, 2, 1, 1, 2, 1, 1, 2, 6, 6, 6, 6, 0, 4, 3, 0,  , 0, 1, 2,  , 3, 1, 1, 2, 1, 3, 3, 3, 4, 0, 0, 0, 2, 0, 1, 2, 2, 1, 2, 0, 4, 1, 3, 1, 0, 103
A mixolydian (3#), 0, 0, 0, 2, 1, 4, 1, 2, 3, 3, 0, 3, 0, 0,  ,  , 0, 0, 0, 2, 1, 4, 1, 2, 3, 3, 0, 2, 0, 0, 0, 0, 0, 1, 0, 1,  , 2, 4, 3,  , 4, 1, 2, 2, 0, 2, 2, 2, 0, 0, 2, 0, 3, 2, 1, 3, 4, 1, 1, 0, 5, 1, 3, 0, 0, 89
Eb aeolian (3b), 0, 1, 1, 0, 0, 1, 1, 2, 2, 2, 1, 1, 1, 0,  ,  , 0, 1, 1, 0, 0, 1, 1, 2, 2, 2, 1, 2, 1, 1, 1, 1, 0, 3, 2, 0,  , 0, 2, 3,  , 2, 1, 1, 2, 1, 3, 3, 3, 2, 0, 0, 0, 2, 0, 1, 2, 4, 1, 2, 0, 3, 1, 3, 1, 0, 78
A aeolian (3#), 0, 0, 0, 2, 1, 4, 1, 3, 4, 5, 0, 4, 0, 0,  ,  , 0, 0, 0, 2, 1, 4, 1, 3, 4, 5, 0, 3, 0, 0, 0, 0, 0, 1, 0, 2,  , 3, 5, 4,  , 5, 2, 4, 4, 0, 2, 3, 2, 0, 0, 4, 0, 4, 3, 1, 5, 5, 4, 2, 0, 5, 2, 3, 0, 0, 122
Eb locrian (3b), 0, 0, 0, 1, 1, 3, 1, 1, 2, 2, 1, 2, 1, 0,  ,  , 0, 0, 0, 1, 1, 3, 1, 1, 2, 2, 1, 1, 1, 1, 1, 1, 0, 2, 1, 1,  , 1, 2, 2,  , 4, 2, 2, 3, 1, 3, 2, 3, 1, 0, 1, 0, 2, 1, 1, 3, 3, 2, 1, 0, 4, 1, 2, 0, 0, 83
A locrian (3#), 0, 0, 0, 1, 1, 2, 1, 2, 3, 3, 1, 3, 1, 0,  ,  , 0, 0, 0, 1, 1, 2, 1, 2, 3, 3, 1, 2, 1, 1, 1, 1, 0, 2, 1, 1,  , 1, 3, 3,  , 4, 2, 3, 3, 1, 3, 2, 3, 1, 0, 1, 0, 3, 1, 1, 5, 5, 2, 2, 0, 4, 2, 2, 0, 0, 99
Ab major (4b), 0, 0, 0, 1, 1, 2, 1, 2, 3, 3, 1, 3, 1, 0,  ,  , 0, 0, 0, 1, 1, 2, 1, 2, 3, 3, 1, 2, 1, 1, 1, 1, 0, 2, 1, 1,  , 1, 3, 3,  , 4, 2, 3, 3, 1, 3, 2, 3, 1, 0, 1, 0, 3, 1, 1, 5, 5, 2, 2, 0, 4, 2, 2, 0, 0, 99
E major (4#), 0, 0, 0, 1, 1, 3, 1, 1, 2, 2, 1, 2, 1, 0,  ,  , 0, 0, 0, 1, 1, 3, 1, 1, 2, 2, 1, 1, 1, 1, 1, 1, 0, 2, 1, 1,  , 1, 2, 2,  , 4, 2, 2, 3, 1, 3, 2, 3, 1, 0, 1, 0, 2, 1, 1, 3, 3, 2, 1, 0, 4, 1, 2, 0, 0, 83
F minor (4b), 0, 0, 0, 1, 1, 2, 1, 2, 3, 3, 1, 3, 1, 0,  ,  , 0, 0, 0, 1, 1, 2, 1, 2, 3, 3, 1, 2, 1, 1, 1, 1, 0, 2, 1, 1,  , 1, 3, 3,  , 4, 2, 3, 3, 1, 3, 2, 3, 1, 0, 1, 0, 3, 1, 1, 5, 5, 2, 2, 0, 4, 2, 2, 0, 0, 99
C# minor (4#), 0, 0, 0, 1, 1, 3, 1, 1, 2, 2, 1, 2, 1, 0,  ,  , 0, 0, 0, 1, 1, 3, 1, 1, 2, 2, 1, 1, 1, 1, 1, 1, 0, 2, 1, 1,  , 1, 2, 2,  , 4, 2, 2, 3, 1, 3, 2, 3, 1, 0, 1, 0, 2, 1, 1, 3, 3, 2, 1, 0, 4, 1, 2, 0, 0, 83
F minor mel (4b), 0, 0, 0, 1, 1, 3, 1, 1, 2, 2, 1, 2, 1, 0,  ,  , 0, 0, 0, 1, 1, 3, 1, 1, 2, 2, 1, 1, 1, 1, 1, 1, 0, 2, 1, 1,  , 1, 2, 2,  , 4, 2, 2, 3, 1, 3, 2, 3, 1, 0, 1, 0, 2, 1, 1, 3, 3, 2, 1, 0, 4, 1, 2, 0, 0, 83
C# minor mel (4#), 0, 0, 0, 1, 1, 3, 1, 1, 2, 2, 1, 2, 1, 0,  ,  , 0, 0, 0, 1, 1, 3, 1, 1, 2, 2, 1, 1, 1, 1, 1, 1, 0, 2, 1, 1,  , 1, 2, 2,  , 4, 2, 2, 3, 1, 3, 2, 3, 1, 0, 1, 0, 2, 1, 1, 3, 3, 2, 1, 0, 4, 1, 2, 0, 0, 83
Ab major blues (4b), 0, 0, 0, 1, 1, 3, 1, 1, 2, 2, 1, 2, 1, 0,  ,  , 0, 0, 0, 1, 1, 3, 1, 1, 2, 2, 1, 1, 1, 1, 1, 1, 0, 2, 1, 1,  , 1, 2, 2,  , 4, 2, 2, 3, 1, 3, 2, 3, 1, 0, 1, 0, 2, 1, 1, 3, 3, 2, 1, 0, 4, 1, 2, 0, 0, 83
E major blues (4#), 0, 0, 0, 1, 1, 3, 1, 1, 2, 2, 1, 2, 1, 0,  ,  , 0, 0, 0, 1, 1, 3, 1, 1, 2, 2, 1, 1, 1, 1, 1, 1, 0, 2, 1, 1,  , 1, 2, 2,  , 4, 2, 2, 3, 1, 3, 2, 3, 1, 0, 1, 0, 2, 1, 1, 3, 3, 2, 1, 0, 4, 1, 2, 0, 0, 83
F minor blues (4b), 0, 0, 0, 1, 1, 3, 1, 1, 2, 2, 1, 2, 1, 0,  ,  , 0, 0, 0, 1, 1, 3, 1, 1, 2, 2, 1, 1, 1, 1, 1, 1, 0, 2, 1, 1,  , 1, 2, 2,  , 4, 2, 2, 3, 1, 3, 2, 3, 1, 0, 1, 0, 2, 1, 1, 3, 3, 2, 1, 0, 4, 1, 2, 0, 0, 83
C# minor blues (4#), 0, 1, 1, 0, 0, 2, 1, 1, 2, 1, 1, 1, 6, 0,  ,  , 0, 1, 1, 0, 0, 2, 1, 1, 2, 1, 1, 2, 6, 6, 6, 6, 0, 4, 3, 0,  , 0, 1, 2,  , 3, 1, 1, 2, 1, 3, 3, 3, 4, 0, 0, 0, 2, 0, 1, 2, 2, 1, 2, 0, 4, 1, 3, 1, 0, 103
Ab dorian (4b), 0, 0, 0, 2, 1, 4, 1, 2, 3, 3, 0, 3, 0, 0,  ,  , 0, 0, 0, 2, 1, 4, 1, 2, 3, 3, 0, 2, 0, 0, 0, 0, 0, 1, 0, 1,  , 2, 4, 3,  , 4, 1, 2, 2, 0, 2, 2, 2, 0, 0, 2, 0, 3, 2, 1, 3, 4, 1, 1, 0, 5, 1, 3, 0, 0, 89
E dorian (4#), 0, 1, 1, 0, 0, 1, 1, 2, 2, 2, 1, 1, 1, 0,  ,  , 0, 1, 1, 0, 0, 1, 1, 2, 2, 2, 1, 2, 1, 1, 1, 1, 0, 3, 2, 0,  , 0, 2, 3,  , 2, 1, 1, 2, 1, 3, 3, 3, 2, 0, 0, 0, 2, 0, 1, 2, 4, 1, 2, 0, 3, 1, 3, 1, 0, 78
Ab phrygian (4b), 0, 0, 0, 2, 1, 4, 1, 3, 4, 5, 0, 4, 0, 0,  ,  , 0, 0, 0, 2, 1, 4, 1, 3, 4, 5, 0, 3, 0, 0, 0, 0, 0, 1, 0, 2,  , 3, 5, 4,  , 5, 2, 4, 4, 0, 2, 3, 2, 0, 0, 4, 0, 4, 3, 1, 5, 5, 4, 2, 0, 5, 2, 3, 0, 0, 122
E phrygian (4#), 0, 0, 0, 1, 1, 3, 1, 1, 2, 2, 1, 2, 1, 0,  ,  , 0, 0, 0, 1, 1, 3, 1, 1, 2, 2, 1, 1, 1, 1, 1, 1, 0, 2, 1, 1,  , 1, 2, 2,  , 4, 2, 2, 3, 1, 3, 2, 3, 1, 0, 1, 0, 2, 1, 1, 3, 3, 2, 1, 0, 4, 1, 2, 0, 0, 83
Ab lydian (4b), 0, 0, 0, 1, 1, 2, 1, 2, 3, 3, 1, 3, 1, 0,  ,  , 0, 0, 0, 1, 1, 2, 1, 2, 3, 3, 1, 2, 1, 1, 1, 1, 0, 2, 1, 1,  , 1, 3, 3,  , 4, 2, 3, 3, 1, 3, 2, 3, 1, 0, 1, 0, 3, 1, 1, 5, 5, 2, 2, 0, 4, 2, 2, 0, 0, 99
E lydian (4#), 0, 0, 0, 1, 1, 2, 1, 2, 3, 3, 1, 3, 1, 0,  ,  , 0, 0, 0, 1, 1, 2, 1, 2, 3, 3, 1, 2, 1, 1, 1, 1, 0, 2, 1, 1,  , 1, 3, 3,  , 4, 2, 3, 3, 1, 3, 2, 3, 1, 0, 1, 0, 3, 1, 1, 5, 5, 2, 2, 0, 4, 2, 2, 0, 0, 99
Ab mixolydian (4b), 0, 0, 0, 1, 1, 3, 1, 1, 2, 2, 1, 2, 1, 0,  ,  , 0, 0, 0, 1, 1, 3, 1, 1, 2, 2, 1, 1, 1, 1, 1, 1, 0, 2, 1, 1,  , 1, 2, 2,  , 4, 2, 2, 3, 1, 3, 2, 3, 1, 0, 1, 0, 2, 1, 1, 3, 3, 2, 1, 0, 4, 1, 2, 0, 0, 83
E mixolydian (4#), 0, 0, 0, 1, 1, 2, 1, 2, 3, 3, 1, 3, 1, 0,  ,  , 0, 0, 0, 1, 1, 2, 1, 2, 3, 3, 1, 2, 1, 1, 1, 1, 0, 2, 1, 1,  , 1, 3, 3,  , 4, 2, 3, 3, 1, 3, 2, 3, 1, 0, 1, 0, 3, 1, 1, 5, 5, 2, 2, 0, 4, 2, 2, 0, 0, 99
Ab aeolian (4b), 0, 0, 0, 1, 1, 3, 1, 1, 2, 2, 1, 2, 1, 0,  ,  , 0, 0, 0, 1, 1, 3, 1, 1, 2, 2, 1, 1, 1, 1, 1, 1, 0, 2, 1, 1,  , 1, 2, 2,  , 4, 2, 2, 3, 1, 3, 2, 3, 1, 0, 1, 0, 2, 1, 1, 3, 3, 2, 1, 0, 4, 1, 2, 0, 0, 83
E aeolian (4#), 0, 0, 0, 1, 1, 3, 1, 1, 2, 2, 1, 2, 1, 0,  ,  , 0, 0, 0, 1, 1, 3, 1, 1, 2, 2, 1, 1, 1, 1, 1, 1, 0, 2, 1, 1,  , 1, 2, 2,  , 4, 2, 2, 3, 1, 3, 2, 3, 1, 0, 1, 0, 2, 1, 1, 3, 3, 2, 1, 0, 4, 1, 2, 0, 0, 83
Ab locrian (4b), 0, 0, 0, 1, 1, 3, 1, 1, 2, 2, 1, 2, 1, 0,  ,  , 0, 0, 0, 1, 1, 3, 1, 1, 2, 2, 1, 1, 1, 1, 1, 1, 0, 2, 1, 1,  , 1, 2, 2,  , 4, 2, 2, 3, 1, 3, 2, 3, 1, 0, 1, 0, 2, 1, 1, 3, 3, 2, 1, 0, 4, 1, 2, 0, 0, 83
E locrian (4#), 0, 0, 0, 1, 1, 3, 1, 1, 2, 2, 1, 2, 1, 0,  ,  , 0, 0, 0, 1, 1, 3, 1, 1, 2, 2, 1, 1, 1, 1, 1, 1, 0, 2, 1, 1,  , 1, 2, 2,  , 4, 2, 2, 3, 1, 3, 2, 3, 1, 0, 1, 0, 2, 1, 1, 3, 3, 2, 1, 0, 4, 1, 2, 0, 0, 83
Db major (5b), 0, 0, 0, 1, 1, 3, 1, 1, 2, 2, 1, 2, 1, 0,  ,  , 0, 0, 0, 1, 1, 3, 1, 1, 2, 2, 1, 1, 1, 1, 1, 1, 0, 2, 1, 1,  , 1, 2, 2,  , 4, 2, 2, 3, 1, 3, 2, 3, 1, 0, 1, 0, 2, 1, 1, 3, 3, 2, 1, 0, 4, 1, 2, 0, 0, 83
B major (5#), 0, 0, 0, 1, 1, 3, 1, 1, 2, 2, 1, 2, 1, 0,  ,  , 0, 0, 0, 1, 1, 3, 1, 1, 2, 2, 1, 1, 1, 1, 1, 1, 0, 2, 1, 1,  , 1, 2, 2,  , 4, 2, 2, 3, 1, 3, 2, 3, 1, 0, 1, 0, 2, 1, 1, 3, 3, 2, 1, 0, 4, 1, 2, 0, 0, 83
Bb minor (5b), 0, 1, 1, 0, 0, 2, 1, 1, 2, 1, 1, 1, 6, 0,  ,  , 0, 1, 1, 0, 0, 2, 1, 1, 2, 1, 1, 2, 6, 6, 6, 6, 0, 4, 3, 0,  , 0, 1, 2,  , 3, 1, 1, 2, 1, 3, 3, 3, 4, 0, 0, 0, 2, 0, 1, 2, 2, 1, 2, 0, 4, 1, 3, 1, 0, 103
G# minor (5#), 0, 0, 0, 2, 1, 4, 1, 2, 3, 3, 0, 3, 0, 0,  ,  , 0, 0, 0, 2, 1, 4, 1, 2, 3, 3, 0, 2, 0, 0, 0, 0, 0, 1, 0, 1,  , 2, 4, 3,  , 4, 1, 2, 2, 0, 2, 2, 2, 0, 0, 2, 0, 3, 2, 1, 3, 4, 1, 1, 0, 5, 1, 3, 0, 0, 89
Bb minor mel (5b), 0, 1, 1, 0, 0, 1, 1, 2, 2, 2, 1, 1, 1, 0,  ,  , 0, 1, 1, 0, 0, 1, 1, 2, 2, 2, 1, 2, 1, 1, 1, 1, 0, 3, 2, 0,  , 0, 2, 3,  , 2, 1, 1, 2, 1, 3, 3, 3, 2, 0, 0, 0, 2, 0, 1, 2, 4, 1, 2, 0, 3, 1, 3, 1, 0, 78
G# minor mel (5#), 0, 0, 0, 2, 1, 4, 1, 3, 4, 5, 0, 4, 0, 0,  ,  , 0, 0, 0, 2, 1, 4, 1, 3, 4, 5, 0, 3, 0, 0, 0, 0, 0, 1, 0, 2,  , 3, 5, 4,  , 5, 2, 4, 4, 0, 2, 3, 2, 0, 0, 4, 0, 4, 3, 1, 5, 5, 4, 2, 0, 5, 2, 3, 0, 0, 122
Db major blues (5b), 0, 0, 0, 1, 1, 3, 1, 1, 2, 2, 1, 2, 1, 0,  ,  , 0, 0, 0, 1, 1, 3, 1, 1, 2, 2, 1, 1, 1, 1, 1, 1, 0, 2, 1, 1,  , 1, 2, 2,  , 4, 2, 2, 3, 1, 3, 2, 3, 1, 0, 1, 0, 2, 1, 1, 3, 3, 2, 1, 0, 4, 1, 2, 0, 0, 83
B major blues (5#), 0, 0, 0, 1, 1, 2, 1, 2, 3, 3, 1, 3, 1, 0,  ,  , 0, 0, 0, 1, 1, 2, 1, 2, 3, 3, 1, 2, 1, 1, 1, 1, 0, 2, 1, 1,  , 1, 3, 3,  , 4, 2, 3, 3, 1, 3, 2, 3, 1, 0, 1, 0, 3, 1, 1, 5, 5, 2, 2, 0, 4, 2, 2, 0, 0, 99
Bb minor blues (5b), 0, 0, 0, 1, 1, 2, 1, 2, 3, 3, 1, 3, 1, 0,  ,  , 0, 0, 0, 1, 1, 2, 1, 2, 3, 3, 1, 2, 1, 1, 1, 1, 0, 2, 1, 1,  , 1, 3, 3,  , 4, 2, 3, 3, 1, 3, 2, 3, 1, 0, 1, 0, 3, 1, 1, 5, 5, 2, 2, 0, 4, 2, 2, 0, 0, 99
G# minor blues (5#), 0, 0, 0, 1, 1, 3, 1, 1, 2, 2, 1, 2, 1, 0,  ,  , 0, 0, 0, 1, 1, 3, 1, 1, 2, 2, 1, 1, 1, 1, 1, 1, 0, 2, 1, 1,  , 1, 2, 2,  , 4, 2, 2, 3, 1, 3, 2, 3, 1, 0, 1, 0, 2, 1, 1, 3, 3, 2, 1, 0, 4, 1, 2, 0, 0, 83
Db dorian (5b), 0, 0, 0, 1, 1, 2, 1, 2, 3, 3, 1, 3, 1, 0,  ,  , 0, 0, 0, 1, 1, 2, 1, 2, 3, 3, 1, 2, 1, 1, 1, 1, 0, 2, 1, 1,  , 1, 3, 3,  , 4, 2, 3, 3, 1, 3, 2, 3, 1, 0, 1, 0, 3, 1, 1, 5, 5, 2, 2, 0, 4, 2, 2, 0, 0, 99
B dorian (5#), 0, 0, 0, 1, 1, 3, 1, 1, 2, 2, 1, 2, 1, 0,  ,  , 0, 0, 0, 1, 1, 3, 1, 1, 2, 2, 1, 1, 1, 1, 1, 1, 0, 2, 1, 1,  , 1, 2, 2,  , 4, 2, 2, 3, 1, 3, 2, 3, 1, 0, 1, 0, 2, 1, 1, 3, 3, 2, 1, 0, 4, 1, 2, 0, 0, 83
Db phrygian (5b), 0, 0, 0, 1, 1, 3, 1, 1, 2, 2, 1, 2, 1, 0,  ,  , 0, 0, 0, 1, 1, 3, 1, 1, 2, 2, 1, 1, 1, 1, 1, 1, 0, 2, 1, 1,  , 1, 2, 2,  , 4, 2, 2, 3, 1, 3, 2, 3, 1, 0, 1, 0, 2, 1, 1, 3, 3, 2, 1, 0, 4, 1, 2, 0, 0, 83
B phrygian (5#), 0, 0, 0, 1, 1, 3, 1, 1, 2, 2, 1, 2, 1, 0,  ,  , 0, 0, 0, 1, 1, 3, 1, 1, 2, 2, 1, 1, 1, 1, 1, 1, 0, 2, 1, 1,  , 1, 2, 2,  , 4, 2, 2, 3, 1, 3, 2, 3, 1, 0, 1, 0, 2, 1, 1, 3, 3, 2, 1, 0, 4, 1, 2, 0, 0, 83
Db lydian (5b), 0, 0, 0, 1, 1, 3, 1, 1, 2, 2, 1, 2, 1, 0,  ,  , 0, 0, 0, 1, 1, 3, 1, 1, 2, 2, 1, 1, 1, 1, 1, 1, 0, 2, 1, 1,  , 1, 2, 2,  , 4, 2, 2, 3, 1, 3, 2, 3, 1, 0, 1, 0, 2, 1, 1, 3, 3, 2, 1, 0, 4, 1, 2, 0, 0, 83
B lydian (5#), 0, 0, 0, 1, 1, 3, 1, 1, 2, 2, 1, 2, 1, 0,  ,  , 0, 0, 0, 1, 1, 3, 1, 1, 2, 2, 1, 1, 1, 1, 1, 1, 0, 2, 1, 1,  , 1, 2, 2,  , 4, 2, 2, 3, 1, 3, 2, 3, 1, 0, 1, 0, 2, 1, 1, 3, 3, 2, 1, 0, 4, 1, 2, 0, 0, 83
Db mixolydian (5b), 0, 0, 0, 1, 1, 3, 1, 1, 2, 2, 1, 2, 1, 0,  ,  , 0, 0, 0, 1, 1, 3, 1, 1, 2, 2, 1, 1, 1, 1, 1, 1, 0, 2, 1, 1,  , 1, 2, 2,  , 4, 2, 2, 3, 1, 3, 2, 3, 1, 0, 1, 0, 2, 1, 1, 3, 3, 2, 1, 0, 4, 1, 2, 0, 0, 83
B mixolydian (5#), 0, 1, 1, 0, 0, 2, 1, 1, 2, 1, 1, 1, 6, 0,  ,  , 0, 1, 1, 0, 0, 2, 1, 1, 2, 1, 1, 2, 6, 6, 6, 6, 0, 4, 3, 0,  , 0, 1, 2,  , 3, 1, 1, 2, 1, 3, 3, 3, 4, 0, 0, 0, 2, 0, 1, 2, 2, 1, 2, 0, 4, 1, 3, 1, 0, 103
Db aeolian (5b), 0, 0, 0, 2, 1, 4, 1, 2, 3, 3, 0, 3, 0, 0,  ,  , 0, 0, 0, 2, 1, 4, 1, 2, 3, 3, 0, 2, 0, 0, 0, 0, 0, 1, 0, 1,  , 2, 4, 3,  , 4, 1, 2, 2, 0, 2, 2, 2, 0, 0, 2, 0, 3, 2, 1, 3, 4, 1, 1, 0, 5, 1, 3, 0, 0, 89
B aeolian (5#), 0, 1, 1, 0, 0, 1, 1, 2, 2, 2, 1, 1, 1, 0,  ,  , 0, 1, 1, 0, 0, 1, 1, 2, 2, 2, 1, 2, 1, 1, 1, 1, 0, 3, 2, 0,  , 0, 2, 3,  , 2, 1, 1, 2, 1, 3, 3, 3, 2, 0, 0, 0, 2, 0, 1, 2, 4, 1, 2, 0, 3, 1, 3, 1, 0, 78
Db locrian (5b), 0, 0, 0, 2, 1, 4, 1, 3, 4, 5, 0, 4, 0, 0,  ,  , 0, 0, 0, 2, 1, 4, 1, 3, 4, 5, 0, 3, 0, 0, 0, 0, 0, 1, 0, 2,  , 3, 5, 4,  , 5, 2, 4, 4, 0, 2, 3, 2, 0, 0, 4, 0, 4, 3, 1, 5, 5, 4, 2, 0, 5, 2, 3, 0, 0, 122
B locrian (5#), 0, 0, 0, 1, 1, 3, 1, 1, 2, 2, 1, 2, 1, 0,  ,  , 0, 0, 0, 1, 1, 3, 1, 1, 2, 2, 1, 1, 1, 1, 1, 1, 0, 2, 1, 1,  , 1, 2, 2,  , 4, 2, 2, 3, 1, 3, 2, 3, 1, 0, 1, 0, 2, 1, 1, 3, 3, 2, 1, 0, 4, 1, 2, 0, 0, 83
Gb major (6b), 0, 0, 0, 1, 1, 2, 1, 2, 3, 3, 1, 3, 1, 0,  ,  , 0, 0, 0, 1, 1, 2, 1, 2, 3, 3, 1, 2, 1, 1, 1, 1, 0, 2, 1, 1,  , 1, 3, 3,  , 4, 2, 3, 3, 1, 3, 2, 3, 1, 0, 1, 0, 3, 1, 1, 5, 5, 2, 2, 0, 4, 2, 2, 0, 0, 99
F# major (6#), 0, 0, 0, 1, 1, 2, 1, 2, 3, 3, 1, 3, 1, 0,  ,  , 0, 0, 0, 1, 1, 2, 1, 2, 3, 3, 1, 2, 1, 1, 1, 1, 0, 2, 1, 1,  , 1, 3, 3,  , 4, 2, 3, 3, 1, 3, 2, 3, 1, 0, 1, 0, 3, 1, 1, 5, 5, 2, 2, 0, 4, 2, 2, 0, 0, 99
Eb minor (6b), 0, 0, 0, 1, 1, 3, 1, 1, 2, 2, 1, 2, 1, 0,  ,  , 0, 0, 0, 1, 1, 3, 1, 1, 2, 2, 1, 1, 1, 1, 1, 1, 0, 2, 1, 1,  , 1, 2, 2,  , 4, 2, 2, 3, 1, 3, 2, 3, 1, 0, 1, 0, 2, 1, 1, 3, 3, 2, 1, 0, 4, 1, 2, 0, 0, 83
D# minor (6#), 0, 0, 0, 1, 1, 2, 1, 2, 3, 3, 1, 3, 1, 0,  ,  , 0, 0, 0, 1, 1, 2, 1, 2, 3, 3, 1, 2, 1, 1, 1, 1, 0, 2, 1, 1,  , 1, 3, 3,  , 4, 2, 3, 3, 1, 3, 2, 3, 1, 0, 1, 0, 3, 1, 1, 5, 5, 2, 2, 0, 4, 2, 2, 0, 0, 99
Eb minor mel (6b), 0, 0, 0, 1, 1, 3, 1, 1, 2, 2, 1, 2, 1, 0,  ,  , 0, 0, 0, 1, 1, 3, 1, 1, 2, 2, 1, 1, 1, 1, 1, 1, 0, 2, 1, 1,  , 1, 2, 2,  , 4, 2, 2, 3, 1, 3, 2, 3, 1, 0, 1, 0, 2, 1, 1, 3, 3, 2, 1, 0, 4, 1, 2, 0, 0, 83
D# minor mel (6#), 0, 0, 0, 1, 1, 3, 1, 1, 2, 2, 1, 2, 1, 0,  ,  , 0, 0, 0, 1, 1, 3, 1, 1, 2, 2, 1, 1, 1, 1, 1, 1, 0, 2, 1, 1,  , 1, 2, 2,  , 4, 2, 2, 3, 1, 3, 2, 3, 1, 0, 1, 0, 2, 1, 1, 3, 3, 2, 1, 0, 4, 1, 2, 0, 0, 83
Gb major blues (6b), 0, 0, 0, 1, 1, 3, 1, 1, 2, 2, 1, 2, 1, 0,  ,  , 0, 0, 0, 1, 1, 3, 1, 1, 2, 2, 1, 1, 1, 1, 1, 1, 0, 2, 1, 1,  , 1, 2, 2,  , 4, 2, 2, 3, 1, 3, 2, 3, 1, 0, 1, 0, 2, 1, 1, 3, 3, 2, 1, 0, 4, 1, 2, 0, 0, 83
F# major blues (6#), 0, 0, 0, 1, 1, 3, 1, 1, 2, 2, 1, 2, 1, 0,  ,  , 0, 0, 0, 1, 1, 3, 1, 1, 2, 2, 1, 1, 1, 1, 1, 1, 0, 2, 1, 1,  , 1, 2, 2,  , 4, 2, 2, 3, 1, 3, 2, 3, 1, 0, 1, 0, 2, 1, 1, 3, 3, 2, 1, 0, 4, 1, 2, 0, 0, 83
Eb minor blues (6b), 0, 0, 0, 1, 1, 3, 1, 1, 2, 2, 1, 2, 1, 0,  ,  , 0, 0, 0, 1, 1, 3, 1, 1, 2, 2, 1, 1, 1, 1, 1, 1, 0, 2, 1, 1,  , 1, 2, 2,  , 4, 2, 2, 3, 1, 3, 2, 3, 1, 0, 1, 0, 2, 1, 1, 3, 3, 2, 1, 0, 4, 1, 2, 0, 0, 83
D# minor blues (6#), 0, 0, 0, 1, 1, 3, 1, 1, 2, 2, 1, 2, 1, 0,  ,  , 0, 0, 0, 1, 1, 3, 1, 1, 2, 2, 1, 1, 1, 1, 1, 1, 0, 2, 1, 1,  , 1, 2, 2,  , 4, 2, 2, 3, 1, 3, 2, 3, 1, 0, 1, 0, 2, 1, 1, 3, 3, 2, 1, 0, 4, 1, 2, 0, 0, 83
Gb dorian (6b), 0, 1, 1, 0, 0, 2, 1, 1, 2, 1, 1, 1, 6, 0,  ,  , 0, 1, 1, 0, 0, 2, 1, 1, 2, 1, 1, 2, 6, 6, 6, 6, 0, 4, 3, 0,  , 0, 1, 2,  , 3, 1, 1, 2, 1, 3, 3, 3, 4, 0, 0, 0, 2, 0, 1, 2, 2, 1, 2, 0, 4, 1, 3, 1, 0, 103
F# dorian (6#), 0, 0, 0, 2, 1, 4, 1, 2, 3, 3, 0, 3, 0, 0,  ,  , 0, 0, 0, 2, 1, 4, 1, 2, 3, 3, 0, 2, 0, 0, 0, 0, 0, 1, 0, 1,  , 2, 4, 3,  , 4, 1, 2, 2, 0, 2, 2, 2, 0, 0, 2, 0, 3, 2, 1, 3, 4, 1, 1, 0, 5, 1, 3, 0, 0, 89
Gb phrygian (6b), 0, 1, 1, 0, 0, 1, 1, 2, 2, 2, 1, 1, 1, 0,  ,  , 0, 1, 1, 0, 0, 1, 1, 2, 2, 2, 1, 2, 1, 1, 1, 1, 0, 3, 2, 0,  , 0, 2, 3,  , 2, 1, 1, 2, 1, 3, 3, 3, 2, 0, 0, 0, 2, 0, 1, 2, 4, 1, 2, 0, 3, 1, 3, 1, 0, 78
F# phrygian (6#), 0, 0, 0, 2, 1, 4, 1, 3, 4, 5, 0, 4, 0, 0,  ,  , 0, 0, 0, 2, 1, 4, 1, 3, 4, 5, 0, 3, 0, 0, 0, 0, 0, 1, 0, 2,  , 3, 5, 4,  , 5, 2, 4, 4, 0, 2, 3, 2, 0, 0, 4, 0, 4, 3, 1, 5, 5, 4, 2, 0, 5, 2, 3, 0, 0, 122
Gb lydian (6b), 0, 0, 0, 1, 1, 3, 1, 1, 2, 2, 1, 2, 1, 0,  ,  , 0, 0, 0, 1, 1, 3, 1, 1, 2, 2, 1, 1, 1, 1, 1, 1, 0, 2, 1, 1,  , 1, 2, 2,  , 4, 2, 2, 3, 1, 3, 2, 3, 1, 0, 1, 0, 2, 1, 1, 3, 3, 2, 1, 0, 4, 1, 2, 0, 0, 83
F# lydian (6#), 0, 0, 0, 1, 1, 2, 1, 2, 3, 3, 1, 3, 1, 0,  ,  , 0, 0, 0, 1, 1, 2, 1, 2, 3, 3, 1, 2, 1, 1, 1, 1, 0, 2, 1, 1,  , 1, 3, 3,  , 4, 2, 3, 3, 1, 3, 2, 3, 1, 0, 1, 0, 3, 1, 1, 5, 5, 2, 2, 0, 4, 2, 2, 0, 0, 99
Gb mixolydian (6b), 0, 0, 0, 1, 1, 2, 1, 2, 3, 3, 1, 3, 1, 0,  ,  , 0, 0, 0, 1, 1, 2, 1, 2, 3, 3, 1, 2, 1, 1, 1, 1, 0, 2, 1, 1,  , 1, 3, 3,  , 4, 2, 3, 3, 1, 3, 2, 3, 1, 0, 1, 0, 3, 1, 1, 5, 5, 2, 2, 0, 4, 2, 2, 0, 0, 99
F# mixolydian (6#), 0, 0, 0, 1, 1, 3, 1, 1, 2, 2, 1, 2, 1, 0,  ,  , 0, 0, 0, 1, 1, 3, 1, 1, 2, 2, 1, 1, 1, 1, 1, 1, 0, 2, 1, 1,  , 1, 2, 2,  , 4, 2, 2, 3, 1, 3, 2, 3, 1, 0, 1, 0, 2, 1, 1, 3, 3, 2, 1, 0, 4, 1, 2, 0, 0, 83
Gb aeolian (6b), 0, 0, 0, 1, 1, 2, 1, 2, 3, 3, 1, 3, 1, 0,  ,  , 0, 0, 0, 1, 1, 2, 1, 2, 3, 3, 1, 2, 1, 1, 1, 1, 0, 2, 1, 1,  , 1, 3, 3,  , 4, 2, 3, 3, 1, 3, 2, 3, 1, 0, 1, 0, 3, 1, 1, 5, 5, 2, 2, 0, 4, 2, 2, 0, 0, 99
F# aeolian (6#), 0, 0, 0, 1, 1, 3, 1, 1, 2, 2, 1, 2, 1, 0,  ,  , 0, 0, 0, 1, 1, 3, 1, 1, 2, 2, 1, 1, 1, 1, 1, 1, 0, 2, 1, 1,  , 1, 2, 2,  , 4, 2, 2, 3, 1, 3, 2, 3, 1, 0, 1, 0, 2, 1, 1, 3, 3, 2, 1, 0, 4, 1, 2, 0, 0, 83
Gb locrian (6b), 0, 0, 0, 1, 1, 3, 1, 1, 2, 2, 1, 2, 1, 0,  ,  , 0, 0, 0, 1, 1, 3, 1, 1, 2, 2, 1, 1, 1, 1, 1, 1, 0, 2, 1, 1,  , 1, 2, 2,  , 4, 2, 2, 3, 1, 3, 2, 3, 1, 0, 1, 0, 2, 1, 1, 3, 3, 2, 1, 0, 4, 1, 2, 0, 0, 83
F# locrian (6#), 0, 0, 0, 1, 1, 3, 1, 1, 2, 2, 1, 2, 1, 0,  ,  , 0, 0, 0, 1, 1, 3, 1, 1, 2, 2, 1, 1, 1, 1, 1, 1, 0, 2, 1, 1,  , 1, 2, 2,  , 4, 2, 2, 3, 1, 3, 2, 3, 1, 0, 1, 0, 2, 1, 1, 3, 3, 2, 1, 0, 4, 1, 2, 0, 0, 83
Cb major (7b), 0, 0, 0, 1, 1, 3, 1, 1, 2, 2, 1, 2, 1, 0,  ,  , 0, 0, 0, 1, 1, 3, 1, 1, 2, 2, 1, 1, 1, 1, 1, 1, 0, 2, 1, 1,  , 1, 2, 2,  , 4, 2, 2, 3, 1, 3, 2, 3, 1, 0, 1, 0, 2, 1, 1, 3, 3, 2, 1, 0, 4, 1, 2, 0, 0, 83
C# major (7#), 0, 0, 0, 1, 1, 3, 1, 1, 2, 2, 1, 2, 1, 0,  ,  , 0, 0, 0, 1, 1, 3, 1, 1, 2, 2, 1, 1, 1, 1, 1, 1, 0, 2, 1, 1,  , 1, 2, 2,  , 4, 2, 2, 3, 1, 3, 2, 3, 1, 0, 1, 0, 2, 1, 1, 3, 3, 2, 1, 0, 4, 1, 2, 0, 0, 83
Ab minor (7b), 0, 0, 0, 1, 1, 3, 1, 1, 2, 2, 1, 2, 1, 0,  ,  , 0, 0, 0, 1, 1, 3, 1, 1, 2, 2, 1, 1, 1, 1, 1, 1, 0, 2, 1, 1,  , 1, 2, 2,  , 4, 2, 2, 3, 1, 3, 2, 3, 1, 0, 1, 0, 2, 1, 1, 3, 3, 2, 1, 0, 4, 1, 2, 0, 0, 83
A# minor (7#), 0, 1, 1, 0, 0, 2, 1, 1, 2, 1, 1, 1, 6, 0,  ,  , 0, 1, 1, 0, 0, 2, 1, 1, 2, 1, 1, 2, 6, 6, 6, 6, 0, 4, 3, 0,  , 0, 1, 2,  , 3, 1, 1, 2, 1, 3, 3, 3, 4, 0, 0, 0, 2, 0, 1, 2, 2, 1, 2, 0, 4, 1, 3, 1, 0, 103
Ab minor mel (7b), 0, 0, 0, 2, 1, 4, 1, 2, 3, 3, 0, 3, 0, 0,  ,  , 0, 0, 0, 2, 1, 4, 1, 2, 3, 3, 0, 2, 0, 0, 0, 0, 0, 1, 0, 1,  , 2, 4, 3,  , 4, 1, 2, 2, 0, 2, 2, 2, 0, 0, 2, 0, 3, 2, 1, 3, 4, 1, 1, 0, 5, 1, 3, 0, 0, 89
A# minor mel (7#), 0, 1, 1, 0, 0, 1, 1, 2, 2, 2, 1, 1, 1, 0,  ,  , 0, 1, 1, 0, 0, 1, 1, 2, 2, 2, 1, 2, 1, 1, 1, 1, 0, 3, 2, 0,  , 0, 2, 3,  , 2, 1, 1, 2, 1, 3, 3, 3, 2, 0, 0, 0, 2, 0, 1, 2, 4, 1, 2, 0, 3, 1, 3, 1, 0, 78
Cb major blues (7b), 0, 0, 0, 2, 1, 4, 1, 3, 4, 5, 0, 4, 0, 0,  ,  , 0, 0, 0, 2, 1, 4, 1, 3, 4, 5, 0, 3, 0, 0, 0, 0, 0, 1, 0, 2,  , 3, 5, 4,  , 5, 2, 4, 4, 0, 2, 3, 2, 0, 0, 4, 0, 4, 3, 1, 5, 5, 4, 2, 0, 5, 2, 3, 0, 0, 122
C# major blues (7#), 0, 0, 0, 1, 1, 3, 1, 1, 2, 2, 1, 2, 1, 0,  ,  , 0, 0, 0, 1, 1, 3, 1, 1, 2, 2, 1, 1, 1, 1, 1, 1, 0, 2, 1, 1,  , 1, 2, 2,  , 4, 2, 2, 3, 1, 3, 2, 3, 1, 0, 1, 0, 2, 1, 1, 3, 3, 2, 1, 0, 4, 1, 2, 0, 0, 83
Ab minor blues (7b), 0, 0, 0, 1, 1, 2, 1, 2, 3, 3, 1, 3, 1, 0,  ,  , 0, 0, 0, 1, 1, 2, 1, 2, 3, 3, 1, 2, 1, 1, 1, 1, 0, 2, 1, 1,  , 1, 3, 3,  , 4, 2, 3, 3, 1, 3, 2, 3, 1, 0, 1, 0, 3, 1, 1, 5, 5, 2, 2, 0, 4, 2, 2, 0, 0, 99
A# minor blues (7#), 0, 0, 0, 1, 1, 2, 1, 2, 3, 3, 1, 3, 1, 0,  ,  , 0, 0, 0, 1, 1, 2, 1, 2, 3, 3, 1, 2, 1, 1, 1, 1, 0, 2, 1, 1,  , 1, 3, 3,  , 4, 2, 3, 3, 1, 3, 2, 3, 1, 0, 1, 0, 3, 1, 1, 5, 5, 2, 2, 0, 4, 2, 2, 0, 0, 99
Cb dorian (7b), 0, 0, 0, 1, 1, 3, 1, 1, 2, 2, 1, 2, 1, 0,  ,  , 0, 0, 0, 1, 1, 3, 1, 1, 2, 2, 1, 1, 1, 1, 1, 1, 0, 2, 1, 1,  , 1, 2, 2,  , 4, 2, 2, 3, 1, 3, 2, 3, 1, 0, 1, 0, 2, 1, 1, 3, 3, 2, 1, 0, 4, 1, 2, 0, 0, 83
C# dorian (7#), 0, 0, 0, 1, 1, 2, 1, 2, 3, 3, 1, 3, 1, 0,  ,  , 0, 0, 0, 1, 1, 2, 1, 2, 3, 3, 1, 2, 1, 1, 1, 1, 0, 2, 1, 1,  , 1, 3, 3,  , 4, 2, 3, 3, 1, 3, 2, 3, 1, 0, 1, 0, 3, 1, 1, 5, 5, 2, 2, 0, 4, 2, 2, 0, 0, 99
Cb phrygian (7b), 0, 0, 0, 1, 1, 3, 1, 1, 2, 2, 1, 2, 1, 0,  ,  , 0, 0, 0, 1, 1, 3, 1, 1, 2, 2, 1, 1, 1, 1, 1, 1, 0, 2, 1, 1,  , 1, 2, 2,  , 4, 2, 2, 3, 1, 3, 2, 3, 1, 0, 1, 0, 2, 1, 1, 3, 3, 2, 1, 0, 4, 1, 2, 0, 0, 83
C# phrygian (7#), 0, 0, 0, 1, 1, 3, 1, 1, 2, 2, 1, 2, 1, 0,  ,  , 0, 0, 0, 1, 1, 3, 1, 1, 2, 2, 1, 1, 1, 1, 1, 1, 0, 2, 1, 1,  , 1, 2, 2,  , 4, 2, 2, 3, 1, 3, 2, 3, 1, 0, 1, 0, 2, 1, 1, 3, 3, 2, 1, 0, 4, 1, 2, 0, 0, 83
Cb lydian (7b), 0, 0, 0, 1, 1, 3, 1, 1, 2, 2, 1, 2, 1, 0,  ,  , 0, 0, 0, 1, 1, 3, 1, 1, 2, 2, 1, 1, 1, 1, 1, 1, 0, 2, 1, 1,  , 1, 2, 2,  , 4, 2, 2, 3, 1, 3, 2, 3, 1, 0, 1, 0, 2, 1, 1, 3, 3, 2, 1, 0, 4, 1, 2, 0, 0, 83
C# lydian (7#), 0, 0, 0, 1, 1, 3, 1, 1, 2, 2, 1, 2, 1, 0,  ,  , 0, 0, 0, 1, 1, 3, 1, 1, 2, 2, 1, 1, 1, 1, 1, 1, 0, 2, 1, 1,  , 1, 2, 2,  , 4, 2, 2, 3, 1, 3, 2, 3, 1, 0, 1, 0, 2, 1, 1, 3, 3, 2, 1, 0, 4, 1, 2, 0, 0, 83
Cb mixolydian (7b), 0, 0, 0, 1, 1, 3, 1, 1, 2, 2, 1, 2, 1, 0,  ,  , 0, 0, 0, 1, 1, 3, 1, 1, 2, 2, 1, 1, 1, 1, 1, 1, 0, 2, 1, 1,  , 1, 2, 2,  , 4, 2, 2, 3, 1, 3, 2, 3, 1, 0, 1, 0, 2, 1, 1, 3, 3, 2, 1, 0, 4, 1, 2, 0, 0, 83
C# mixolydian (7#), 0, 0, 0, 1, 1, 3, 1, 1, 2, 2, 1, 2, 1, 0,  ,  , 0, 0, 0, 1, 1, 3, 1, 1, 2, 2, 1, 1, 1, 1, 1, 1, 0, 2, 1, 1,  , 1, 2, 2,  , 4, 2, 2, 3, 1, 3, 2, 3, 1, 0, 1, 0, 2, 1, 1, 3, 3, 2, 1, 0, 4, 1, 2, 0, 0, 83
Cb aeolian (7b), 0, 1, 1, 0, 0, 2, 1, 1, 2, 1, 1, 1, 6, 0,  ,  , 0, 1, 1, 0, 0, 2, 1, 1, 2, 1, 1, 2, 6, 6, 6, 6, 0, 4, 3, 0,  , 0, 1, 2,  , 3, 1, 1, 2, 1, 3, 3, 3, 4, 0, 0, 0, 2, 0, 1, 2, 2, 1, 2, 0, 4, 1, 3, 1, 0, 103
C# aeolian (7#), 0, 0, 0, 2, 1, 4, 1, 2, 3, 3, 0, 3, 0, 0,  ,  , 0, 0, 0, 2, 1, 4, 1, 2, 3, 3, 0, 2, 0, 0, 0, 0, 0, 1, 0, 1,  , 2, 4, 3,  , 4, 1, 2, 2, 0, 2, 2, 2, 0, 0, 2, 0, 3, 2, 1, 3, 4, 1, 1, 0, 5, 1, 3, 0, 0, 89
Cb locrian (7b), 0, 1, 1, 0, 0, 1, 1, 2, 2, 2, 1, 1, 1, 0,  ,  , 0, 1, 1, 0, 0, 1, 1, 2, 2, 2, 1, 2, 1, 1, 1, 1, 0, 3, 2, 0,  , 0, 2, 3,  , 2, 1, 1, 2, 1, 3, 3, 3, 2, 0, 0, 0, 2, 0, 1, 2, 4, 1, 2, 0, 3, 1, 3, 1, 0, 78
C# locrian (7#), 0, 0, 0, 2, 1, 4, 1, 3, 4, 5, 0, 4, 0, 0,  ,  , 0, 0, 0, 2, 1, 4, 1, 3, 4, 5, 0, 3, 0, 0, 0, 0, 0, 1, 0, 2,  , 3, 5, 4,  , 5, 2, 4, 4, 0, 2, 3, 2, 0, 0, 4, 0, 4, 3, 1, 5, 5, 4, 2, 0, 5, 2, 3, 0, 0, 122
