 , 0, 1, 2, 3, 4, 5, 6, 7, 8, 9, 10, 11, 12, 13, 14, 15, 16, 17, 18, 19, 20, 21, 22, 23, 24, 25, rowcost
C major (0), 1/0, 0/0, 0/0, 0/0, 0/0, 0/0, 0/0, 0/0, 0/0, 0/0, 4/2, 4/2, 0/0, 0/0, 0/0, 1/1, 1/1, 0/0, 1/0, 0/0, 0/0, 0/0, 0/0, 0/0, 0/0, 0/0, 12/6
A minor (0), 1/0, 0/0, 0/0, 0/0, 0/0, 0/0, 0/0, 0/0, 0/0, 0/0, 1/0, 4/2, 0/0, 0/0, 0/0, 1/1, 1/0, 0/0, 1/0, 0/0, 0/0, 0/0, 0/0, 0/0, 0/0, 0/0, 9/3
F major (1b), 0/0, 0/0, 0/0, 0/0, 0/0, 0/0, 1/0, 0/0, 0/0, 0/0, 4/2, 3/2, 0/0, 0/0, 0/0, 2/1, 1/1, 0/0, 0/0, 0/0, 0/0, 0/0, 0/0, 0/0, 0/0, 0/0, 11/6
G major (1#), 1/0, 0/0, 1/0, 0/0, 1/3, 1/0, 0/0, 0/0, 0/0, 0/0, 4/2, 4/2, 0/0, 0/0, 0/0, 0/0, 1/1, 0/0, 1/0, 0/0, 1/0, 0/0, 1/3, 1/0, 0/0, 0/0, 17/11
D minor (1b), 0/0, 0/0, 0/0, 0/0, 0/0, 0/0, 1/0, 0/0, 0/0, 0/0, 1/0, 3/2, 0/0, 0/0, 0/0, 2/1, 1/0, 0/0, 0/0, 0/0, 0/0, 0/0, 0/0, 0/0, 0/0, 0/0, 8/3
E minor (1#), 1/0, 0/0, 1/0, 0/0, 1/0, 1/3, 0/0, 0/0, 0/0, 0/0, 1/0, 1/0, 0/0, 0/0, 0/0, 0/1, 1/0, 0/0, 1/0, 0/0, 1/0, 0/0, 1/0, 1/3, 0/0, 0/0, 11/7
Bb major (2b), 0/0, 0/0, 1/0, 0/0, 1/0, 1/0, 1/1, 0/0, 0/0, 0/0, 4/2, 1/2, 0/0, 0/0, 0/0, 2/2, 1/1, 0/0, 0/0, 0/0, 1/0, 0/0, 1/0, 1/0, 0/0, 0/0, 15/8
D major (2#), 1/0, 0/0, 1/0, 1/0, 1/0, 1/0, 0/0, 0/0, 0/0, 1/0, 1/0, 4/2, 1/0, 1/0, 1/0, 1/0, 1/0, 0/0, 1/0, 0/0, 1/0, 1/0, 1/0, 1/0, 0/0, 1/0, 22/2
G minor (2b), 0/0, 0/0, 1/0, 0/0, 1/0, 1/0, 1/0, 0/0, 0/0, 0/0, 4/2, 3/2, 0/0, 0/0, 0/0, 2/1, 1/1, 0/0, 0/0, 0/0, 1/0, 0/0, 1/0, 1/0, 0/0, 0/0, 17/6
B minor (2#), 1/0, 0/0, 2/3, 1/0, 2/3, 2/1, 0/0, 0/0, 0/0, 1/0, 1/2, 1/0, 1/2, 1/0, 1/0, 1/1, 1/0, 0/0, 1/0, 0/0, 2/3, 1/0, 2/3, 2/1, 0/0, 1/0, 25/19
Eb major (3b), 0/0, 1/0, 1/2, 0/0, 1/1, 1/1, 2/1, 0/0, 1/0, 0/0, 3/2, 1/0, 0/0, 0/0, 0/0, 2/2, 2/1, 0/0, 0/0, 1/0, 1/2, 0/0, 1/1, 1/1, 1/0, 0/0, 20/14
A major (3#), 2/0, 1/0, 1/0, 1/0, 1/0, 2/3, 0/0, 1/0, 0/0, 1/0, 0/0, 4/2, 1/0, 1/0, 1/0, 1/1, 0/0, 1/0, 2/0, 1/0, 1/0, 1/0, 1/0, 2/3, 0/0, 1/0, 28/9
C minor (3b), 0/0, 1/0, 1/0, 0/0, 1/1, 1/0, 2/0, 0/0, 1/0, 0/0, 3/2, 3/2, 0/0, 0/0, 0/0, 2/1, 2/1, 0/0, 0/0, 1/0, 1/0, 0/0, 1/0, 1/0, 1/0, 0/0, 22/7
F# minor (3#), 2/0, 1/0, 2/3, 1/1, 2/3, 3/4, 0/0, 1/0, 0/0, 1/1, 0/0, 1/0, 1/2, 1/1, 1/2, 2/1, 0/0, 1/0, 2/0, 1/0, 2/3, 1/1, 2/3, 3/4, 0/0, 1/1, 32/30
Ab major (4b), 0/0, 2/2, 1/2, 1/0, 2/1, 1/1, 3/3, 0/0, 2/4, 0/0, 2/4, 1/0, 1/0, 0/0, 1/0, 3/2, 2/3, 0/0, 0/0, 2/2, 1/2, 1/0, 2/1, 1/1, 2/4, 0/0, 31/32
E major (4#), 2/0, 1/0, 1/0, 2/0, 2/0, 2/1, 0/0, 1/0, 0/0, 1/0, 0/0, 1/0, 2/2, 1/0, 2/0, 2/1, 0/0, 1/0, 2/0, 1/0, 1/0, 2/0, 2/0, 2/1, 0/0, 1/0, 32/5
F minor (4b), 0/0, 1/0, 1/0, 1/0, 2/0, 1/0, 2/0, 0/0, 1/0, 0/0, 3/2, 3/2, 1/0, 0/0, 1/0, 3/1, 2/1, 0/0, 0/0, 1/0, 1/0, 1/0, 2/0, 1/0, 1/0, 0/0, 29/6
C# minor (4#), 3/0, 2/1, 2/2, 2/1, 3/1, 4/7, 0/0, 2/2, 0/0, 1/0, 0/0, 1/0, 2/1, 1/0, 2/1, 3/2, 0/0, 2/0, 3/0, 2/1, 2/2, 2/1, 3/1, 4/7, 0/0, 1/0, 47/30
Db major (5b), 1/0, 3/2, 1/2, 2/2, 3/3, 2/1, 3/3, 1/0, 2/4, 0/0, 2/4, 1/0, 2/2, 0/0, 2/2, 3/4, 2/3, 1/0, 1/0, 3/2, 1/2, 2/2, 3/3, 2/1, 2/4, 0/0, 45/46
B major (5#), 1/0, 2/0, 2/3, 2/1, 3/3, 3/1, 1/0, 1/0, 1/0, 1/0, 1/0, 0/0, 2/2, 1/0, 2/2, 2/1, 1/0, 1/0, 1/0, 2/0, 2/3, 2/1, 3/3, 3/1, 1/0, 1/0, 42/21
Bb minor (5b), 1/0, 2/0, 1/0, 1/0, 2/1, 2/1, 2/1, 1/0, 1/0, 0/0, 3/2, 1/0, 1/0, 0/0, 1/0, 2/2, 2/1, 1/0, 1/0, 2/0, 1/0, 1/0, 2/1, 2/1, 1/0, 0/0, 34/10
G# minor (5#), 2/0, 3/1, 2/2, 3/1, 4/1, 4/1, 1/0, 2/2, 1/0, 1/0, 1/0, 0/0, 3/2, 1/0, 3/2, 4/3, 1/0, 2/2, 2/2, 3/2, 2/3, 3/2, 4/3, 4/7, 1/0, 1/0, 58/36
Gb major (6b), 2/2, 4/4, 1/2, 3/2, 3/3, 3/7, 2/2, 2/2, 2/4, 1/0, 2/4, 0/0, 3/2, 1/0, 3/2, 4/4, 2/3, 2/2, 2/2, 4/4, 1/2, 3/2, 3/3, 3/7, 2/4, 1/0, 59/69
F# major (6#), 1/0, 2/1, 1/2, 2/1, 2/1, 2/4, 1/0, 1/0, 1/0, 1/0, 1/0, 0/0, 2/2, 1/0, 2/2, 3/1, 1/0, 1/0, 1/0, 2/1, 1/2, 2/1, 2/1, 2/4, 1/0, 1/0, 37/23
Eb minor (6b), 1/0, 2/0, 1/2, 2/0, 2/1, 2/1, 1/1, 1/0, 1/0, 1/0, 3/2, 0/0, 2/0, 1/0, 2/0, 3/2, 2/1, 1/0, 1/0, 2/0, 1/2, 2/0, 2/1, 2/1, 1/0, 1/0, 40/14
D# minor (6#), 2/0, 4/2, 1/2, 3/1, 3/1, 3/1, 2/2, 2/0, 2/4, 1/0, 5/4, 0/0, 3/2, 1/0, 3/2, 4/1, 3/2, 2/0, 2/0, 4/2, 1/2, 3/1, 3/1, 3/1, 2/4, 1/0, 63/35
Cb major (7b), 2/2, 4/4, 2/2, 4/4, 4/3, 4/7, 2/3, 2/2, 2/4, 2/2, 2/4, 0/0, 4/6, 2/2, 4/6, 4/6, 2/3, 2/2, 2/2, 4/4, 2/2, 4/4, 4/3, 4/7, 2/4, 2/2, 72/90
C# major (7#), 2/0, 3/1, 1/2, 1/1, 2/1, 3/7, 2/0, 2/0, 1/0, 0/0, 1/0, 1/0, 1/1, 0/0, 1/1, 2/2, 1/0, 2/0, 2/0, 3/1, 1/2, 1/1, 2/1, 3/7, 1/0, 0/0, 39/28
Ab minor (7b), 1/0, 3/2, 2/2, 2/0, 3/1, 3/1, 2/3, 1/0, 2/4, 1/0, 2/4, 0/0, 2/0, 1/0, 2/0, 3/2, 2/3, 1/0, 1/0, 3/2, 2/2, 2/0, 3/1, 3/1, 2/4, 1/0, 50/32
A# minor (7#), 2/0, 4/2, 2/4, 2/1, 4/2, 4/3, 3/2, 2/0, 2/4, 0/0, 5/4, 1/0, 2/2, 0/0, 2/2, 3/1, 3/1, 2/0, 2/0, 4/2, 2/4, 2/1, 4/2, 4/3, 2/4, 0/0, 63/44
