 , 0, 1, 2, 3, 4, 5, 6, 7, 8, 9, 10, 11, 12, 13, 14, 15, 16, 17, 18, 19, 20, 21, 22, 23, 24, 25, 26, 27, 28, 29, 30, 31, 32, 33, 34, 35, 36, 37, 38, 39, 40, 41, 42, 43, 44, 45, 46, 47, 48, 49, 50, 51, 52, 53, 54, 55, 56, 57, 58, 59, 60, 61, 62, 63, 64, 65, 66, 67, 68, 69, 70, 71, 72, 73, 74, 75, 76, 77, 78, 79, 80, 81, 82, 83, 84, 85, 86, 87, 88, 89, 90, 91, 92, 93, 94, 95, 96, 97, 98, 99, 100, 101, 102, 103, 104, 105, 106, 107, 108, 109, 110, 111, 112, 113, 114, 115, 116, 117, 118, 119, 120, 121, 122, 123, 124, 125, 126, 127, 128, 129, 130, 131, 132, 133, 134, 135, 136, 137, 138, 139, 140, 141, 142, 143, 144, 145, 146, 147, 148, 149, 150, 151, 152, 153, 154, 155, 156, 157, 158, 159, 160, 161, 162, 163, 164, 165, 166, 167, 168, 169, 170, 171, 172, 173, 174, 175, 176, 177, 178, 179, 180, 181, 182, 183, 184, 185, 186, 187, 188, 189, 190, 191, 192, rowcost
C major (0), 4+2:1:0:0:0, 0+0:0:0:0:0, 1+1:0:0:0:1, 1+1:0:0:0:1, 2+3:0:0:0:3, 3+1:0:0:0:1, 1+1:0:0:0:1, 1+1:0:0:0:0, 1+1:0:0:0:1, 2+1:0:0:0:0, 1+1:0:0:0:1, 0+0:0:0:0:0, 2+1:1:0:0:0, 2+1:0:0:0:1, 1+0:0:0:0:0, 0+0:0:0:0:0, 4+2:1:0:0:0, 1+0:0:0:0:0, 0+0:0:0:0:0, 1+1:0:0:0:1, 2+3:0:0:0:3, 3+1:0:0:0:1, 0+0:0:0:0:0, 1+0:0:0:0:0, 1+1:0:0:0:1, 2+1:0:0:0:0, 3+2:0:0:0:1, 2+3:0:0:0:0, 4+2:1:0:0:0, 2+1:0:0:0:1, 0+0:0:0:0:0, 0+0:0:0:0:0, 4+2:1:0:0:0, 1+1:0:0:0:0, 0+0:0:0:0:0, 1+1:0:0:0:1, 2+3:0:0:0:3, 3+1:0:0:0:1, 0+0:0:0:0:0, 1+1:0:0:0:0, 1+1:0:0:0:1, 0+0:0:0:0:0, 1+2:0:0:0:2, 2+1:0:0:0:0, 5+2:1:0:0:1, 4+2:0:0:0:2, 1+0:0:0:0:0, 2+1:0:0:0:0, 4+3:0:0:0:0, 2+1:0:0:0:0, 2+1:0:0:0:0, 1+1:0:0:0:1, 2+4:0:0:0:4, 4+2:0:0:0:2, 0+0:0:0:0:0, 1+0:0:0:0:0, 2+2:0:0:0:2, 2+1:0:0:0:0, 1+1:0:0:0:1, 3+1:0:0:0:0, 2+1:0:0:0:0, 2+1:0:0:0:1, 0+0:0:0:0:0, 1+1:0:0:0:0, 1+1:0:0:0:0, 1+0:0:0:0:0, 0+0:0:0:0:0, 3+2:0:0:0:1, 1+1:0:0:0:1, 1+1:0:0:0:0, 2+2:0:0:0:0, 1+2:0:0:0:0, 0+0:0:0:0:0, 0+0:0:0:0:0, 3+4:0:0:0:3, 1+1:0:0:0:0, 2+1:1:0:0:0, 5+3:1:0:0:1, 1+0:0:0:0:0, 3+2:0:0:0:1, 4+2:1:0:0:0, 1+0:0:0:0:0, 2+2:0:0:0:2, 1+1:0:0:0:1, 1+1:0:0:0:1, 1+0:0:0:0:0, 0+0:0:0:0:0, 1+0:0:0:0:0, 0+0:0:0:0:0, 2+1:0:0:0:0, 3+2:0:0:0:1, 2+1:0:0:0:0, 1+1:0:0:0:0, 5+3:0:0:0:1, 0+0:0:0:0:0, 2+1:0:0:0:0, 1+1:0:0:0:0, 1+1:0:0:0:1, 2+2:0:0:0:1, 1+1:0:0:0:1, 1+1:0:0:0:1, 1+0:0:0:0:0, 1+1:0:0:0:0, 1+1:0:0:0:0, 2+1:0:0:0:0, 0+0:0:0:0:0, 1+1:0:0:0:1, 1+1:0:0:0:0, 5+3:1:0:0:2, 2+1:0:0:0:1, 2+1:0:0:0:1, 0+0:0:0:0:0, 4+2:1:0:0:0, 3+2:0:0:0:1, 2+2:0:0:0:1, 1+1:0:0:0:1, 1+1:0:0:0:1, 1+0:0:0:0:0, 0+0:0:0:0:0, 1+0:0:0:0:0, 0+0:0:0:0:0, 0+0:0:0:0:0, 2+3:0:0:0:2, 4+2:0:1:0:1, 1+1:0:0:0:0, 4+3:0:0:0:3, 1+1:0:0:0:0, 0+0:0:0:0:0, 2+2:0:0:0:1, 0+0:0:0:0:0, 2+1:0:0:0:0, 2+2:0:0:0:2, 3+2:0:0:0:1, 4+2:0:0:0:2, 1+2:0:0:0:0, 1+2:0:0:0:0, 0+0:0:0:0:0, 0+0:0:0:0:0, 1+1:0:0:0:1, 2+1:0:0:0:0, 3+1:1:0:0:0, 4+2:0:0:0:2, 3+1:0:0:0:1, 1+1:0:0:0:0, 1+1:0:0:0:0, 0+0:0:0:0:0, 0+0:0:0:0:0, 1+1:0:0:0:1, 1+1:0:0:0:1, 4+2:0:0:0:2, 2+1:0:0:0:0, 3+6:0:0:0:0, 1+1:0:0:0:0, 1+1:0:0:0:1, 2+2:0:0:0:2, 2+2:0:0:0:0, 1+1:0:0:0:0, 2+1:0:0:0:1, 3+2:0:0:0:0, 0+0:0:0:0:0, 2+1:0:0:0:0, 0+0:0:0:0:0, 3+2:0:0:0:1, 1+2:0:0:0:2, 3+3:0:0:0:2, 3+1:0:0:0:1, 4+3:0:0:0:0, 2+1:1:0:0:0, 2+1:0:0:0:0, 0+0:0:0:0:0, 3+3:0:0:0:3, 0+0:0:0:0:0, 3+3:2:0:0:1, 3+3:0:0:0:3, 1+0:0:0:0:0, 0+0:0:0:0:0, 3+2:1:0:0:0, 1+0:0:0:0:0, 1+1:0:0:0:1, 3+3:0:0:0:1, 2+2:0:0:0:2, 3+1:0:0:0:0, 1+1:0:0:0:1, 1+0:0:0:0:0, 0+0:0:0:0:0, 1+1:0:0:0:0, 1+1:0:0:0:1, 4+3:0:0:0:0, 2+1:0:0:0:0, 3+2:0:0:0:1, 0+0:0:0:0:0, 0+0:0:0:0:0, 1+1:0:0:0:0, 313+223:16:1:0:110
A minor (0), 4+2:1:0:0:1, 0+4:0:0:0:0, 1+2:0:0:0:0, 1+2:0:0:0:0, 2+3:0:0:0:0, 3+2:0:0:0:0, 1+2:0:0:0:0, 1+3:0:0:0:0, 1+0:0:0:0:0, 2+3:0:0:0:0, 1+0:0:0:0:0, 0+1:0:0:0:0, 2+3:1:0:0:1, 2+4:0:0:0:0, 1+1:0:0:0:0, 0+2:0:0:0:0, 4+2:1:0:0:1, 1+2:0:0:0:0, 0+1:0:0:0:0, 1+2:0:0:0:0, 2+3:0:0:0:0, 3+2:0:0:0:0, 0+2:0:0:0:0, 1+1:0:0:0:0, 1+0:0:0:0:0, 2+3:0:0:0:0, 3+1:0:0:0:0, 3+4:0:0:0:1, 4+2:1:0:0:1, 2+3:0:0:0:0, 0+1:0:0:0:0, 0+2:0:0:0:0, 4+2:1:0:0:1, 1+5:0:0:0:0, 0+2:0:0:0:0, 1+1:0:0:0:0, 2+3:0:0:0:0, 3+2:0:0:0:0, 0+2:0:0:0:0, 1+3:0:0:0:0, 1+0:0:0:0:0, 0+2:0:0:0:0, 1+0:0:0:0:0, 2+2:0:0:0:0, 5+4:1:0:0:1, 4+3:0:0:0:0, 1+1:0:0:0:0, 2+6:0:0:0:0, 5+8:0:0:0:1, 2+3:0:0:0:0, 2+4:0:0:0:0, 1+1:0:0:0:0, 2+4:0:0:0:0, 4+1:0:0:0:0, 0+1:0:0:0:0, 1+2:0:0:0:0, 2+1:0:0:0:0, 2+3:0:0:0:0, 1+0:0:0:0:0, 3+4:0:0:0:1, 2+2:0:0:0:1, 2+3:0:0:0:0, 0+1:0:0:0:0, 1+5:0:0:0:0, 1+6:0:0:0:1, 1+1:0:0:0:0, 0+4:0:0:0:0, 3+4:0:0:0:0, 1+1:0:0:0:0, 1+2:0:0:0:0, 2+3:0:0:0:0, 1+5:0:0:0:0, 0+1:0:0:0:0, 0+2:0:0:0:0, 3+3:0:0:0:0, 1+1:0:0:0:0, 2+2:1:0:0:1, 5+6:1:0:0:1, 1+3:0:0:0:0, 3+4:0:0:0:0, 4+3:1:0:0:1, 1+1:0:0:0:0, 2+5:0:0:0:1, 1+1:0:0:0:0, 1+1:0:0:0:0, 1+1:0:0:0:0, 0+2:0:0:0:0, 1+1:0:0:0:0, 0+0:0:0:0:0, 2+4:0:0:0:0, 3+1:0:0:0:0, 2+3:0:0:0:1, 1+2:0:0:0:1, 5+5:0:0:0:0, 0+2:0:0:0:0, 2+4:0:0:0:0, 1+6:0:0:0:1, 1+3:0:0:0:0, 2+3:0:0:0:0, 1+3:0:0:0:0, 1+1:0:0:0:0, 1+3:0:0:0:0, 1+2:0:0:0:0, 1+5:0:0:0:0, 2+1:0:0:0:0, 0+2:0:0:0:0, 1+2:0:0:0:0, 1+1:0:0:0:0, 5+4:1:0:0:1, 2+4:0:0:0:0, 2+3:0:0:0:0, 0+2:0:0:0:0, 4+2:1:0:0:1, 3+3:0:0:0:0, 2+3:0:0:0:0, 1+2:0:0:0:0, 1+1:0:0:0:0, 1+1:0:0:0:0, 0+1:0:0:0:0, 1+2:0:0:0:0, 0+1:0:0:0:0, 0+3:0:0:0:0, 2+1:0:0:0:0, 4+4:0:1:0:2, 1+3:0:0:0:1, 4+5:0:0:0:2, 1+3:0:0:0:0, 0+3:0:0:0:0, 2+3:0:0:0:1, 0+4:0:0:0:0, 2+4:0:0:0:0, 2+3:0:0:0:1, 3+2:0:0:0:0, 4+2:0:0:0:0, 3+3:0:0:0:0, 1+5:0:0:0:0, 0+1:0:0:0:0, 0+2:0:0:0:0, 1+1:0:0:0:0, 2+2:0:0:0:0, 3+2:1:0:0:1, 4+5:0:0:0:0, 3+3:0:0:0:0, 1+2:0:0:0:0, 1+3:0:0:0:1, 0+3:0:0:0:0, 0+1:0:0:0:0, 1+1:0:0:0:0, 1+1:0:0:0:0, 4+3:0:0:0:0, 2+3:0:0:0:0, 3+2:0:0:0:0, 1+3:0:0:0:0, 1+2:0:0:0:0, 2+1:0:0:0:1, 2+3:0:0:0:1, 1+3:0:0:0:1, 2+2:0:0:0:0, 3+4:0:0:0:0, 0+2:0:0:0:0, 2+4:0:0:0:1, 0+3:0:0:0:0, 3+5:0:0:0:1, 1+2:0:0:0:0, 3+2:0:0:0:0, 3+1:0:0:0:0, 4+3:0:0:0:0, 2+1:1:0:0:1, 2+4:0:0:0:0, 0+1:0:0:0:0, 3+3:0:0:0:0, 0+1:0:0:0:0, 4+4:1:0:0:1, 3+7:0:0:0:0, 1+1:0:0:0:0, 0+2:0:0:0:0, 3+2:1:0:0:1, 1+1:0:0:0:0, 1+2:0:0:0:0, 3+2:0:0:0:0, 2+2:0:0:0:0, 3+2:0:0:0:0, 1+2:0:0:0:1, 1+3:0:0:0:0, 0+2:0:0:0:0, 2+2:0:0:0:0, 1+0:0:0:0:0, 4+5:0:0:0:1, 2+3:0:0:0:1, 3+4:0:0:0:0, 0+1:0:0:0:0, 0+3:0:0:0:0, 1+3:0:0:0:0, 319+477:15:1:0:40
F major (1b), 5+3:0:0:0:0, 1+0:0:0:0:0, 2+1:0:0:0:1, 2+1:0:0:0:1, 2+3:0:0:0:3, 2+2:1:0:0:1, 2+1:0:0:0:1, 2+1:0:0:0:0, 2+1:0:0:0:1, 3+1:0:0:0:0, 2+1:0:0:0:1, 0+0:0:0:0:0, 3+1:1:0:0:0, 3+1:0:0:0:0, 2+0:0:0:0:0, 1+0:0:0:0:0, 5+3:0:0:0:0, 2+1:0:0:0:0, 1+0:0:0:0:0, 2+1:0:0:0:1, 2+3:0:0:0:3, 2+2:1:0:0:1, 1+0:0:0:0:0, 0+0:0:0:0:0, 2+1:0:0:0:1, 3+1:0:0:0:0, 4+2:0:0:0:1, 1+2:0:0:0:0, 5+3:0:0:0:0, 3+1:0:0:0:1, 1+0:0:0:0:0, 1+0:0:0:0:0, 5+4:0:0:0:0, 2+1:0:0:0:0, 1+0:0:0:0:0, 2+1:0:0:0:1, 2+3:0:0:0:3, 4+3:0:0:0:0, 1+0:0:0:0:0, 2+1:0:0:0:0, 2+1:0:0:0:1, 1+0:0:0:0:0, 2+2:0:0:0:2, 3+1:0:0:0:0, 4+2:2:0:0:0, 5+2:0:0:0:1, 1+0:0:0:0:0, 3+1:0:0:0:0, 5+3:0:0:0:0, 3+1:0:0:0:0, 3+1:0:0:0:0, 2+1:0:0:0:1, 2+4:0:0:0:4, 4+2:0:0:0:2, 1+0:0:0:0:0, 0+0:0:0:0:0, 3+2:0:0:0:2, 3+1:0:0:0:0, 2+1:0:0:0:1, 2+1:0:0:0:0, 3+1:0:0:0:0, 3+1:0:0:0:1, 1+0:0:0:0:0, 2+1:0:0:0:0, 2+1:0:0:0:0, 2+1:0:0:0:0, 1+0:0:0:0:0, 4+2:0:0:0:1, 1+1:0:0:0:1, 1+1:0:0:0:0, 1+2:0:0:0:0, 2+2:0:0:0:0, 0+0:0:0:0:0, 1+0:0:0:0:0, 4+4:0:0:0:3, 2+1:0:0:0:0, 3+2:0:0:0:0, 6+3:1:0:0:1, 2+0:0:0:0:0, 4+2:0:0:0:1, 5+3:0:0:0:0, 2+1:0:0:0:0, 2+2:0:0:0:1, 2+1:0:0:0:1, 2+1:0:0:0:1, 2+1:0:0:0:0, 1+0:0:0:0:0, 0+0:0:0:0:0, 1+0:0:0:0:0, 3+1:0:0:0:0, 4+2:0:0:0:1, 1+1:0:0:0:0, 2+1:0:0:0:0, 6+3:0:0:0:1, 1+0:0:0:0:0, 3+1:0:0:0:0, 2+1:0:0:0:0, 2+1:0:0:0:1, 3+2:0:0:0:1, 2+1:0:0:0:1, 2+1:0:0:0:1, 2+2:0:0:0:0, 2+1:0:0:0:0, 2+1:0:0:0:0, 2+1:0:0:0:0, 1+0:0:0:0:0, 2+1:0:0:0:1, 2+1:0:0:0:0, 4+3:2:0:0:1, 3+1:0:0:0:0, 3+1:0:0:0:1, 1+0:0:0:0:0, 5+3:0:0:0:0, 4+4:0:0:0:0, 3+2:0:0:0:1, 2+1:0:0:0:1, 2+1:0:0:0:1, 2+1:0:0:0:0, 1+0:0:0:0:0, 0+0:0:0:0:0, 0+0:0:0:0:0, 1+0:0:0:0:0, 3+3:0:0:0:2, 3+2:0:1:0:1, 2+1:0:0:0:0, 5+3:0:0:0:3, 2+1:0:0:0:0, 1+0:0:0:0:0, 3+2:0:0:0:1, 1+0:0:0:0:0, 3+1:0:0:0:0, 3+2:0:0:0:2, 4+2:0:0:0:1, 3+3:2:0:0:2, 2+2:0:0:0:0, 2+2:0:0:0:0, 0+0:0:0:0:0, 1+0:0:0:0:0, 2+1:0:0:0:1, 1+2:0:0:0:0, 4+2:0:0:0:0, 5+2:0:0:0:2, 2+1:1:0:0:0, 2+1:0:0:0:0, 2+1:0:0:0:0, 1+0:0:0:0:0, 1+0:0:0:0:0, 2+1:0:0:0:1, 2+1:0:0:0:1, 5+3:0:0:0:0, 3+1:0:0:0:0, 2+3:0:0:0:0, 0+0:0:0:0:0, 2+1:0:0:0:1, 3+2:0:0:0:2, 3+2:0:0:0:0, 2+1:0:0:0:0, 3+1:0:0:0:1, 4+2:0:0:0:0, 1+0:0:0:0:0, 3+1:0:0:0:0, 1+0:0:0:0:0, 4+2:0:0:0:1, 2+2:0:0:0:2, 2+3:2:0:0:2, 4+3:0:0:0:0, 5+3:0:0:0:0, 3+2:0:0:0:0, 2+1:0:0:0:0, 1+0:0:0:0:0, 4+3:0:0:0:3, 1+0:0:0:0:0, 2+3:1:0:0:1, 4+4:0:0:0:3, 2+1:0:0:0:0, 1+0:0:0:0:0, 4+2:0:0:0:0, 2+1:0:0:0:0, 2+1:0:0:0:1, 4+3:0:0:0:1, 2+2:0:0:0:2, 2+3:0:0:0:1, 2+1:0:0:0:1, 0+0:0:0:0:0, 0+0:0:0:0:0, 2+1:0:0:0:0, 2+1:0:0:0:1, 3+3:0:0:0:0, 3+1:0:0:0:0, 4+2:0:0:0:1, 1+0:0:0:0:0, 1+0:0:0:0:0, 2+1:0:0:0:0, 443+251:14:1:0:99
G major (1#), 3+2:1:0:0:0, 0+0:0:0:0:0, 2+1:0:0:0:1, 2+1:0:0:0:1, 2+3:0:0:0:3, 2+1:0:0:0:1, 2+1:0:0:0:1, 1+1:0:0:0:0, 2+1:0:0:0:1, 3+1:0:0:0:0, 2+1:0:0:0:1, 0+0:0:0:0:0, 1+1:1:0:0:0, 1+1:0:0:0:0, 0+0:0:0:0:0, 1+0:0:0:0:0, 3+2:1:0:0:0, 0+0:0:0:0:0, 1+0:0:0:0:0, 2+1:0:0:0:1, 2+3:0:0:0:3, 2+1:0:0:0:1, 1+0:0:0:0:0, 2+2:0:0:0:0, 2+1:0:0:0:1, 3+1:0:0:0:0, 4+2:0:0:0:1, 3+3:0:0:0:0, 3+2:1:0:0:0, 3+1:0:0:0:1, 1+0:0:0:0:0, 1+0:0:0:0:0, 3+2:1:0:0:0, 1+1:0:0:0:0, 1+0:0:0:0:0, 2+1:0:0:0:1, 2+3:0:0:0:3, 2+1:0:0:0:1, 1+0:0:0:0:0, 1+1:0:0:0:0, 2+1:0:0:0:1, 1+0:0:0:0:0, 2+2:0:0:0:2, 2+1:0:0:0:0, 4+2:1:0:0:1, 3+2:0:0:0:1, 0+0:0:0:0:0, 3+1:0:0:0:0, 5+3:0:0:0:0, 3+1:0:0:0:0, 3+1:0:0:0:0, 2+1:0:0:0:1, 2+4:0:0:0:4, 3+2:0:0:0:2, 1+0:0:0:0:0, 2+2:0:0:0:0, 3+2:0:0:0:2, 3+1:0:0:0:0, 2+1:0:0:0:1, 4+3:0:0:0:0, 3+1:0:0:0:0, 3+1:0:0:0:1, 1+0:0:0:0:0, 2+1:0:0:0:0, 2+1:0:0:0:0, 0+0:0:0:0:0, 1+0:0:0:0:0, 4+2:0:0:0:1, 2+1:0:0:0:1, 0+0:0:0:0:0, 2+1:0:0:0:1, 1+2:0:0:0:0, 1+0:0:0:0:0, 1+0:0:0:0:0, 4+4:0:0:0:3, 1+1:0:0:0:0, 1+1:1:0:0:0, 4+3:1:0:0:1, 0+0:0:0:0:0, 4+2:0:0:0:1, 3+2:1:0:0:0, 0+0:0:0:0:0, 5+6:0:0:0:0, 2+2:0:0:0:1, 1+1:0:0:0:1, 0+0:0:0:0:0, 1+0:0:0:0:0, 2+3:0:0:0:0, 1+0:0:0:0:0, 3+1:0:0:0:0, 4+2:0:0:0:1, 3+2:0:0:0:0, 2+1:0:0:0:0, 6+3:0:0:0:1, 1+0:0:0:0:0, 3+1:0:0:0:0, 2+1:0:0:0:0, 2+1:0:0:0:1, 3+2:0:0:0:1, 2+1:0:0:0:1, 1+1:0:0:0:1, 0+0:0:0:0:0, 2+1:0:0:0:0, 1+1:0:0:0:0, 3+1:0:0:0:0, 1+0:0:0:0:0, 2+1:0:0:0:1, 1+1:0:0:0:0, 4+3:1:0:0:2, 1+1:0:0:0:0, 1+1:0:0:0:1, 1+0:0:0:0:0, 3+2:1:0:0:0, 2+2:0:0:0:1, 3+2:0:0:0:1, 2+1:0:0:0:1, 1+1:0:0:0:1, 0+0:0:0:0:0, 1+0:0:0:0:0, 2+2:0:0:0:0, 1+0:0:0:0:0, 1+0:0:0:0:0, 3+3:0:0:0:2, 5+3:0:0:0:1, 2+1:0:0:0:0, 5+3:0:0:0:3, 2+1:0:0:0:0, 1+0:0:0:0:0, 3+2:0:0:0:1, 1+0:0:0:0:0, 3+1:0:0:0:0, 3+2:0:0:0:2, 3+2:0:0:0:1, 3+2:0:0:0:2, 2+2:0:0:0:0, 1+2:0:0:0:0, 1+0:0:0:0:0, 1+0:0:0:0:0, 2+1:0:0:0:1, 2+1:0:0:0:0, 2+1:1:0:0:0, 3+2:0:0:0:2, 2+1:0:0:0:1, 2+1:0:0:0:0, 2+1:0:0:0:0, 0+0:0:0:0:0, 1+0:0:0:0:0, 2+1:0:0:0:1, 1+1:0:0:0:1, 3+2:0:0:0:2, 3+3:0:0:0:0, 4+5:0:0:0:0, 2+4:0:0:0:0, 2+4:0:0:0:0, 3+2:0:0:0:2, 3+2:0:0:0:0, 2+1:0:0:0:0, 3+1:0:0:0:1, 4+2:0:0:0:0, 1+0:0:0:0:0, 3+1:0:0:0:0, 0+0:0:0:0:0, 4+2:0:0:0:1, 2+2:0:0:0:2, 3+3:0:0:0:2, 2+1:0:0:0:1, 5+3:0:0:0:0, 1+1:1:0:0:0, 3+1:0:0:0:0, 1+0:0:0:0:0, 4+4:0:0:0:0, 0+0:0:0:0:0, 2+3:2:0:0:1, 2+3:0:0:0:3, 0+0:0:0:0:0, 1+0:0:0:0:0, 2+2:1:0:0:0, 0+0:0:0:0:0, 2+1:0:0:0:1, 4+3:0:0:0:1, 2+2:0:0:0:2, 2+1:0:0:0:0, 2+1:0:0:0:1, 2+4:0:0:0:0, 1+0:0:0:0:0, 2+1:0:0:0:0, 2+1:0:0:0:1, 4+3:0:0:0:1, 3+1:0:0:0:0, 4+2:0:0:0:1, 1+0:0:0:0:0, 0+0:0:0:0:0, 1+1:0:0:0:0, 392+251:16:0:0:103
D minor (1b), 5+6:0:0:0:1, 1+4:0:0:0:0, 2+2:0:0:0:0, 2+2:0:0:0:0, 2+3:0:0:0:0, 2+4:1:0:0:0, 2+2:0:0:0:0, 2+3:0:0:0:0, 2+0:0:0:0:0, 3+3:0:0:0:0, 2+0:0:0:0:0, 0+1:0:0:0:0, 3+3:1:0:0:1, 3+1:0:0:0:0, 2+1:0:0:0:0, 1+2:0:0:0:0, 5+6:0:0:0:1, 2+5:0:0:0:0, 1+1:0:0:0:0, 2+2:0:0:0:0, 2+3:0:0:0:0, 2+4:1:0:0:0, 1+2:0:0:0:0, 0+1:0:0:0:0, 2+0:0:0:0:0, 3+3:0:0:0:0, 4+1:0:0:0:0, 1+4:0:0:0:2, 5+6:0:0:0:1, 3+3:0:0:0:0, 1+1:0:0:0:0, 1+2:0:0:0:0, 5+10:0:0:0:1, 2+5:0:0:0:0, 1+2:0:0:0:0, 2+1:0:0:0:0, 2+3:0:0:0:0, 4+4:0:0:0:0, 1+2:0:0:0:0, 2+3:0:0:0:0, 2+0:0:0:0:0, 1+2:0:0:0:0, 2+0:0:0:0:0, 3+2:0:0:0:0, 4+8:2:0:0:0, 5+2:0:0:0:1, 1+2:0:0:0:0, 3+5:0:0:0:1, 6+8:0:0:0:1, 3+3:0:0:0:0, 3+4:0:0:0:0, 2+1:0:0:0:0, 2+4:0:0:0:0, 4+1:0:0:0:0, 1+1:0:0:0:0, 0+2:0:0:0:0, 3+1:0:0:0:0, 3+3:0:0:0:0, 2+0:0:0:0:0, 2+4:0:0:0:1, 3+2:0:0:0:1, 3+3:0:0:0:0, 1+1:0:0:0:0, 2+5:0:0:0:0, 2+6:0:0:0:1, 2+8:0:0:0:0, 1+4:0:0:0:0, 4+4:0:0:0:0, 1+1:0:0:0:0, 1+2:0:0:0:0, 1+3:0:0:0:0, 2+5:0:0:0:0, 0+1:0:0:0:0, 1+2:0:0:0:0, 4+1:0:0:0:0, 2+1:0:0:0:0, 3+3:0:0:0:1, 6+6:1:0:0:1, 2+3:0:0:0:0, 4+4:0:0:0:0, 5+7:0:0:0:1, 2+6:0:0:0:0, 2+5:0:0:0:0, 2+1:0:0:0:0, 2+1:0:0:0:0, 2+2:0:0:0:0, 1+2:0:0:0:0, 0+1:0:0:0:0, 1+0:0:0:0:0, 3+4:0:0:0:0, 4+1:0:0:0:0, 1+3:0:0:0:1, 2+2:0:0:0:1, 6+5:0:0:0:0, 1+2:0:0:0:0, 3+4:0:0:0:0, 2+6:0:0:0:1, 2+3:0:0:0:0, 3+3:0:0:0:0, 2+3:0:0:0:0, 2+1:0:0:0:0, 2+4:0:0:0:0, 2+2:0:0:0:0, 2+5:0:0:0:0, 2+1:0:0:0:0, 1+2:0:0:0:0, 2+0:0:0:0:0, 2+1:0:0:0:0, 4+7:2:0:0:0, 3+1:0:0:0:0, 3+4:0:0:0:1, 1+2:0:0:0:0, 5+7:0:0:0:1, 4+9:0:0:0:0, 3+3:0:0:0:0, 2+2:0:0:0:0, 2+1:0:0:0:0, 2+2:0:0:0:0, 1+1:0:0:0:0, 0+2:0:0:0:0, 0+2:0:0:0:0, 1+3:0:0:0:0, 3+1:0:0:0:0, 3+4:0:1:0:2, 2+3:0:0:0:1, 5+5:0:0:0:2, 2+3:0:0:0:0, 1+3:0:0:0:0, 3+3:0:0:0:1, 1+4:0:0:0:0, 3+4:0:0:0:0, 3+3:0:0:0:1, 4+2:0:0:0:0, 3+7:2:0:0:1, 4+3:0:0:0:0, 2+5:0:0:0:0, 0+1:0:0:0:0, 1+2:0:0:0:0, 2+1:0:0:0:0, 1+4:0:0:0:0, 4+4:0:0:0:1, 5+5:0:0:0:0, 2+3:1:0:0:1, 2+2:0:0:0:0, 2+3:0:0:0:1, 1+3:0:0:0:0, 1+1:0:0:0:0, 2+1:0:0:0:0, 2+1:0:0:0:0, 5+4:0:0:0:0, 3+3:0:0:0:0, 2+5:0:0:0:0, 0+3:0:0:0:0, 2+2:0:0:0:0, 3+1:0:0:0:1, 3+3:0:0:0:1, 2+3:0:0:0:1, 3+2:0:0:0:0, 4+4:0:0:0:0, 1+2:0:0:0:0, 3+4:0:0:0:1, 1+3:0:0:0:0, 4+5:0:0:0:1, 2+2:0:0:0:0, 2+6:2:0:0:0, 4+4:0:0:0:0, 5+3:0:0:0:0, 3+7:0:0:0:0, 2+4:0:0:0:0, 1+1:0:0:0:0, 4+3:0:0:0:0, 1+1:0:0:0:0, 2+6:1:0:0:0, 4+3:0:0:0:1, 2+2:0:0:0:0, 1+2:0:0:0:0, 4+5:0:0:0:1, 2+6:0:0:0:0, 2+2:0:0:0:0, 4+2:0:0:0:0, 2+2:0:0:0:0, 2+4:0:0:0:1, 2+2:0:0:0:1, 0+3:0:0:0:0, 0+2:0:0:0:0, 3+2:0:0:0:0, 2+0:0:0:0:0, 3+5:0:0:0:1, 3+3:0:0:0:1, 4+4:0:0:0:0, 1+1:0:0:0:0, 1+3:0:0:0:0, 2+3:0:0:0:0, 447+570:14:1:0:43
E minor (1#), 3+2:1:0:0:1, 0+2:0:0:0:0, 2+2:0:0:0:0, 2+2:0:0:0:0, 2+1:0:0:0:0, 2+2:0:0:0:0, 2+2:0:0:0:0, 1+3:0:0:0:0, 2+0:0:0:0:0, 3+3:0:0:0:0, 2+0:0:0:0:0, 0+0:0:0:0:0, 1+3:1:0:0:1, 1+1:0:0:0:0, 0+1:0:0:0:0, 1+2:0:0:0:0, 3+2:1:0:0:1, 0+2:0:0:0:0, 1+1:0:0:0:0, 2+2:0:0:0:0, 2+1:0:0:0:0, 2+2:0:0:0:0, 1+2:0:0:0:0, 2+5:0:0:0:0, 2+0:0:0:0:0, 3+3:0:0:0:0, 4+1:0:0:0:0, 4+4:0:0:0:1, 3+2:1:0:0:1, 3+3:0:0:0:0, 1+1:0:0:0:0, 1+2:0:0:0:0, 3+2:1:0:0:1, 1+5:0:0:0:0, 1+2:0:0:0:0, 2+1:0:0:0:0, 2+1:0:0:0:0, 2+2:0:0:0:0, 1+2:0:0:0:0, 1+3:0:0:0:0, 2+0:0:0:0:0, 1+2:0:0:0:0, 2+0:0:0:0:0, 2+2:0:0:0:0, 4+4:1:0:0:1, 3+4:0:0:0:0, 0+1:0:0:0:0, 3+6:0:0:0:0, 6+8:0:0:0:1, 3+3:0:0:0:0, 3+4:0:0:0:0, 2+1:0:0:0:0, 2+1:0:0:0:0, 3+1:0:0:0:0, 1+1:0:0:0:0, 2+5:0:0:0:0, 3+1:0:0:0:0, 3+3:0:0:0:0, 2+0:0:0:0:0, 4+6:0:0:0:1, 3+2:0:0:0:1, 3+3:0:0:0:0, 1+1:0:0:0:0, 2+5:0:0:0:0, 2+6:0:0:0:1, 0+1:0:0:0:0, 1+4:0:0:0:0, 4+4:0:0:0:0, 2+1:0:0:0:0, 0+3:0:0:0:0, 2+4:0:0:0:1, 1+5:0:0:0:0, 1+1:0:0:0:0, 1+2:0:0:0:0, 4+1:0:0:0:0, 1+1:0:0:0:0, 1+2:1:0:0:1, 4+6:1:0:0:1, 0+3:0:0:0:0, 4+4:0:0:0:0, 3+3:1:0:0:1, 0+1:0:0:0:0, 3+5:0:0:0:1, 2+1:0:0:0:0, 1+2:0:0:0:0, 0+1:0:0:0:0, 1+2:0:0:0:0, 2+6:0:0:0:0, 1+0:0:0:0:0, 3+4:0:0:0:0, 4+1:0:0:0:0, 3+4:0:0:0:1, 2+2:0:0:0:1, 6+5:0:0:0:0, 1+2:0:0:0:0, 3+4:0:0:0:0, 2+6:0:0:0:1, 2+3:0:0:0:0, 3+3:0:0:0:0, 2+3:0:0:0:0, 1+1:0:0:0:0, 0+3:0:0:0:0, 2+2:0:0:0:0, 1+5:0:0:0:0, 3+1:0:0:0:0, 1+2:0:0:0:0, 2+0:0:0:0:0, 1+1:0:0:0:0, 4+4:1:0:0:1, 1+1:0:0:0:0, 1+3:0:0:0:0, 1+2:0:0:0:0, 3+2:1:0:0:1, 2+3:0:0:0:0, 3+3:0:0:0:0, 2+2:0:0:0:0, 1+1:0:0:0:0, 0+1:0:0:0:0, 1+1:0:0:0:0, 2+6:0:0:0:0, 1+1:0:0:0:0, 1+3:0:0:0:0, 3+1:0:0:0:0, 5+5:0:0:0:2, 2+3:0:0:0:1, 5+5:0:0:0:2, 2+3:0:0:0:0, 1+3:0:0:0:0, 3+3:0:0:0:1, 1+4:0:0:0:0, 3+4:0:0:0:0, 3+3:0:0:0:1, 3+2:0:0:0:0, 3+2:0:0:0:0, 4+3:0:0:0:0, 1+5:0:0:0:0, 1+1:0:0:0:0, 1+2:0:0:0:0, 2+1:0:0:0:0, 2+2:0:0:0:0, 2+2:1:0:0:1, 3+5:0:0:0:0, 2+3:0:0:0:0, 2+2:0:0:0:0, 2+3:0:0:0:1, 0+3:0:0:0:0, 1+1:0:0:0:0, 2+1:0:0:0:0, 1+2:0:0:0:0, 3+3:0:0:0:0, 3+3:0:0:0:0, 4+5:0:0:0:0, 2+3:0:0:0:0, 2+2:0:0:0:0, 3+1:0:0:0:1, 3+3:0:0:0:1, 2+3:0:0:0:1, 3+2:0:0:0:0, 4+4:0:0:0:0, 1+2:0:0:0:0, 3+4:0:0:0:1, 0+3:0:0:0:0, 4+5:0:0:0:1, 2+2:0:0:0:0, 3+2:0:0:0:0, 2+1:0:0:0:0, 5+3:0:0:0:0, 1+1:1:0:0:1, 3+4:0:0:0:0, 1+1:0:0:0:0, 4+3:0:0:0:0, 0+1:0:0:0:0, 3+4:1:0:0:1, 2+7:0:0:0:0, 0+1:0:0:0:0, 1+2:0:0:0:0, 2+2:1:0:0:1, 0+1:0:0:0:0, 2+2:0:0:0:0, 4+2:0:0:0:0, 2+1:0:0:0:0, 2+2:0:0:0:0, 2+2:0:0:0:1, 2+7:0:0:0:0, 1+2:0:0:0:0, 3+2:0:0:0:0, 2+0:0:0:0:0, 4+4:0:0:0:2, 3+3:0:0:0:1, 4+4:0:0:0:0, 1+1:0:0:0:0, 0+4:0:0:0:0, 1+2:0:0:0:0, 396+485:15:0:0:42
Bb major (2b), 6+2:1:0:0:0, 2+0:0:0:0:0, 2+1:0:0:0:1, 3+1:0:0:0:1, 3+3:0:0:0:3, 3+2:1:0:0:1, 3+1:0:0:0:1, 3+1:0:0:0:0, 3+1:0:0:0:1, 2+1:0:0:0:0, 3+1:0:0:0:1, 1+0:0:0:0:0, 4+1:1:0:0:0, 4+1:0:0:0:1, 3+0:0:0:0:0, 1+0:0:0:0:0, 6+2:1:0:0:0, 3+0:0:0:0:0, 1+0:0:0:0:0, 3+1:0:0:0:1, 3+3:0:0:0:3, 3+2:1:0:0:1, 1+1:0:0:0:0, 1+0:0:0:0:0, 3+1:0:0:0:1, 2+1:0:0:0:0, 3+2:0:0:0:1, 2+2:0:0:0:0, 6+3:0:0:0:0, 4+1:0:0:0:1, 1+0:0:0:0:0, 2+0:0:0:0:0, 6+2:1:0:0:0, 3+1:0:0:0:0, 1+0:0:0:0:0, 3+1:0:0:0:1, 3+3:0:0:0:3, 5+1:0:0:0:1, 1+0:0:0:0:0, 3+1:0:0:0:0, 3+1:0:0:0:1, 2+0:0:0:0:0, 3+2:0:0:0:2, 4+1:0:0:0:0, 5+2:2:0:0:0, 6+2:0:0:0:2, 2+0:0:0:0:0, 4+1:0:0:0:0, 6+3:0:0:0:0, 4+1:0:0:0:0, 4+1:0:0:0:0, 3+1:0:0:0:1, 3+4:0:0:0:4, 5+2:0:0:0:2, 1+0:0:0:0:0, 1+0:0:0:0:0, 4+2:0:0:0:2, 2+1:0:0:0:0, 3+1:0:0:0:1, 3+1:0:0:0:0, 4+2:0:0:0:0, 4+1:0:0:0:1, 1+0:0:0:0:0, 3+1:0:0:0:0, 3+1:0:0:0:0, 3+0:0:0:0:0, 1+0:0:0:0:0, 5+2:0:0:0:1, 2+1:0:0:0:1, 2+1:0:0:0:0, 2+2:0:0:0:0, 3+2:0:0:0:0, 1+0:0:0:0:0, 1+1:0:0:0:0, 3+4:0:0:0:3, 3+1:0:0:0:0, 4+1:1:0:0:0, 7+3:1:0:0:1, 3+0:0:0:0:0, 4+2:0:0:0:0, 6+2:1:0:0:0, 3+0:0:0:0:0, 2+6:0:0:0:0, 3+2:0:0:0:1, 3+1:0:0:0:1, 3+0:0:0:0:0, 2+0:0:0:0:0, 1+0:0:0:0:0, 2+1:0:0:0:0, 2+1:0:0:0:0, 5+2:0:0:0:1, 2+1:0:0:0:0, 3+4:0:0:0:0, 7+3:0:0:0:1, 2+0:0:0:0:0, 4+1:0:0:0:0, 3+1:0:0:0:0, 3+1:0:0:0:1, 3+2:0:0:0:1, 3+1:0:0:0:1, 3+1:0:0:0:1, 3+0:0:0:0:0, 2+1:0:0:0:0, 3+1:0:0:0:0, 3+1:0:0:0:0, 2+1:0:0:0:0, 3+1:0:0:0:1, 3+1:0:0:0:0, 5+3:2:0:0:1, 4+1:0:0:0:1, 4+1:0:0:0:1, 1+0:0:0:0:0, 6+2:1:0:0:0, 5+2:0:0:0:1, 4+2:0:0:0:1, 3+1:0:0:0:1, 3+1:0:0:0:1, 3+0:0:0:0:0, 1+0:0:0:0:0, 1+0:0:0:0:0, 1+0:0:0:0:0, 2+1:0:0:0:0, 4+3:0:0:0:2, 4+2:0:1:0:1, 3+3:0:0:0:0, 6+3:0:0:0:3, 3+1:0:0:0:0, 2+0:0:0:0:0, 4+2:0:0:0:1, 2+0:0:0:0:0, 3+1:0:0:0:0, 4+2:0:0:0:2, 5+2:0:0:0:1, 4+3:2:0:0:2, 3+4:0:0:0:0, 3+2:0:0:0:0, 1+0:0:0:0:0, 2+2:0:0:0:0, 3+1:0:0:0:1, 2+2:0:0:0:0, 5+1:1:0:0:0, 6+2:0:0:0:2, 3+1:1:0:0:0, 3+1:0:0:0:0, 3+1:0:0:0:0, 2+0:0:0:0:0, 1+0:0:0:0:0, 3+1:0:0:0:1, 3+1:0:0:0:1, 6+3:0:0:0:0, 4+2:0:0:0:0, 1+3:0:0:0:0, 1+0:0:0:0:0, 3+1:0:0:0:1, 4+2:0:0:0:2, 4+2:0:0:0:0, 3+1:0:0:0:0, 4+1:0:0:0:1, 3+2:0:0:0:0, 2+0:0:0:0:0, 4+1:0:0:0:0, 2+0:0:0:0:0, 3+2:0:0:0:1, 3+2:0:0:0:2, 3+3:2:0:0:2, 5+3:0:0:0:0, 6+3:0:0:0:0, 4+2:0:0:0:0, 3+1:0:0:0:0, 2+1:0:0:0:0, 5+3:0:0:0:3, 2+0:0:0:0:0, 3+3:1:0:0:1, 5+3:0:0:0:3, 3+0:0:0:0:0, 2+0:0:0:0:0, 5+2:1:0:0:0, 3+0:0:0:0:0, 3+1:0:0:0:1, 5+3:0:0:0:1, 3+2:0:0:0:2, 4+1:0:0:0:0, 3+1:0:0:0:1, 1+0:0:0:0:0, 1+0:0:0:0:0, 3+2:0:0:0:0, 3+1:0:0:0:1, 4+3:0:0:0:0, 4+3:0:0:0:0, 5+2:0:0:0:1, 2+0:0:0:0:0, 2+0:0:0:0:0, 3+1:0:0:0:0, 600+252:22:1:0:101
D major (2#), 4+2:1:0:0:0, 1+0:0:0:0:0, 3+4:0:0:0:1, 3+2:0:0:0:1, 3+3:0:0:0:3, 3+1:0:0:0:1, 3+4:0:0:0:0, 2+1:1:0:0:0, 3+1:0:0:0:1, 4+1:0:0:0:0, 3+1:0:0:0:1, 1+0:0:0:0:0, 2+1:1:0:0:0, 1+1:0:0:0:0, 1+0:0:0:0:0, 2+2:0:0:0:0, 4+2:1:0:0:0, 1+0:0:0:0:0, 2+3:0:0:0:0, 3+2:0:0:0:1, 3+3:0:0:0:3, 3+1:0:0:0:1, 2+2:0:0:0:0, 3+1:0:0:0:0, 3+0:0:0:0:0, 4+3:0:0:0:0, 5+1:0:0:0:0, 4+4:0:0:0:2, 4+2:1:0:0:0, 4+2:0:0:0:1, 2+2:0:0:0:0, 2+1:0:0:0:0, 4+2:1:0:0:0, 2+1:0:0:0:1, 2+2:0:0:0:0, 3+2:0:0:0:1, 3+3:0:0:0:3, 3+1:0:0:0:1, 2+2:0:0:0:0, 2+1:1:0:0:0, 3+1:0:0:0:1, 2+0:0:0:0:0, 3+2:0:0:0:2, 3+1:0:0:0:0, 5+2:1:0:0:1, 3+2:0:0:0:1, 1+0:0:0:0:0, 4+3:0:0:0:0, 6+3:0:0:0:0, 4+1:0:0:0:0, 4+1:0:0:0:0, 3+1:0:0:0:1, 3+4:0:0:0:4, 4+2:0:0:0:2, 2+3:0:0:0:0, 3+2:0:0:0:0, 4+1:0:0:0:0, 4+3:0:0:0:0, 3+0:0:0:0:0, 5+4:0:0:0:1, 4+4:0:0:0:0, 4+3:0:0:0:0, 2+1:0:0:0:0, 3+5:0:0:0:0, 3+1:0:0:0:0, 1+0:0:0:0:0, 2+2:0:0:0:0, 5+2:0:0:0:1, 3+1:0:0:0:1, 1+0:0:0:0:0, 4+3:0:0:0:0, 2+5:0:0:0:0, 2+5:0:0:0:0, 2+2:0:0:0:0, 4+3:0:0:0:0, 2+3:0:0:0:0, 2+1:1:0:0:0, 4+3:1:0:0:1, 1+0:0:0:0:0, 5+4:0:0:0:1, 4+2:1:0:0:0, 1+0:0:0:0:0, 6+6:0:0:0:0, 3+2:0:0:0:1, 2+1:0:0:0:1, 1+0:0:0:0:0, 2+3:0:0:0:0, 3+1:0:0:0:0, 2+4:0:0:0:0, 4+4:0:0:0:0, 4+3:0:0:0:0, 4+3:0:0:0:1, 3+7:0:0:0:0, 7+5:0:0:0:0, 2+2:0:0:0:0, 4+4:0:0:0:0, 3+6:0:0:0:1, 3+3:0:0:0:0, 4+3:0:0:0:0, 3+1:0:0:0:1, 2+1:0:0:0:1, 1+0:0:0:0:0, 3+1:0:0:0:0, 2+5:0:0:0:0, 4+3:0:0:0:1, 2+2:0:0:0:0, 2+2:0:0:0:0, 2+3:0:0:0:0, 5+3:1:0:0:2, 1+1:0:0:0:0, 2+1:0:0:0:1, 2+2:0:0:0:0, 4+2:1:0:0:0, 3+2:0:0:0:1, 4+5:0:0:0:1, 3+2:0:0:0:1, 2+1:0:0:0:1, 1+0:0:0:0:0, 2+2:0:0:0:0, 3+2:0:0:0:0, 2+2:0:0:0:0, 2+3:0:0:0:0, 4+1:0:0:0:0, 6+4:0:1:0:2, 3+8:0:0:0:0, 6+5:0:0:0:2, 3+3:0:0:0:0, 2+3:0:0:0:0, 4+3:0:0:0:1, 2+4:0:0:0:0, 4+4:0:0:0:0, 4+3:0:0:0:1, 4+2:0:0:0:1, 4+2:0:0:0:2, 3+2:0:0:0:0, 2+5:0:0:0:0, 2+3:0:0:0:0, 2+5:0:0:0:0, 3+1:0:0:0:0, 3+4:0:0:0:0, 3+1:1:0:0:0, 4+2:0:0:0:2, 3+1:0:0:0:1, 3+1:0:0:0:0, 3+1:0:0:0:0, 1+0:0:0:0:0, 2+7:0:0:0:0, 3+2:0:0:0:1, 2+1:0:0:0:1, 4+2:0:0:0:2, 4+3:0:0:0:0, 5+5:0:0:0:0, 3+3:0:0:0:0, 3+2:0:0:0:0, 4+1:0:0:0:1, 4+3:0:0:0:1, 3+3:0:0:0:1, 4+2:0:0:0:0, 5+4:0:0:0:0, 2+2:0:0:0:0, 4+1:0:0:0:0, 1+0:0:0:0:0, 5+2:0:0:0:1, 3+2:0:0:0:0, 4+6:2:0:0:0, 3+1:0:0:0:1, 6+3:0:0:0:0, 2+1:1:0:0:0, 4+2:0:0:0:1, 2+2:0:0:0:0, 3+4:0:0:0:0, 1+0:0:0:0:0, 3+3:2:0:0:1, 3+3:0:0:0:3, 1+0:0:0:0:0, 2+3:0:0:0:0, 3+2:1:0:0:0, 1+0:0:0:0:0, 3+5:0:0:0:1, 5+4:0:0:0:3, 3+2:0:0:0:2, 3+1:0:0:0:0, 3+5:0:0:0:1, 3+3:0:0:0:0, 2+2:0:0:0:0, 4+2:0:0:0:0, 2+2:0:0:0:0, 6+5:0:0:0:1, 4+6:0:0:0:0, 5+4:0:0:0:0, 2+0:0:0:0:0, 1+0:0:0:0:0, 2+1:0:0:0:0, 578+441:20:1:0:87
G minor (2b), 6+2:1:0:0:0, 2+0:0:0:0:0, 2+4:0:0:0:1, 3+2:0:0:0:1, 3+3:0:0:0:3, 3+1:1:0:0:0, 3+4:0:0:0:0, 3+1:1:0:0:0, 3+1:0:0:0:1, 2+1:0:0:0:0, 3+1:0:0:0:1, 1+0:0:0:0:0, 4+1:1:0:0:0, 4+1:0:0:0:1, 3+0:0:0:0:0, 1+2:0:0:0:0, 6+2:1:0:0:0, 3+0:0:0:0:0, 1+3:0:0:0:0, 3+2:0:0:0:1, 3+3:0:0:0:3, 3+1:1:0:0:0, 1+2:0:0:0:0, 1+1:0:0:0:0, 3+0:0:0:0:0, 2+3:0:0:0:1, 3+1:0:0:0:1, 2+4:0:0:0:2, 6+2:1:0:0:0, 4+2:0:0:0:1, 1+2:0:0:0:0, 2+1:0:0:0:0, 6+2:1:0:0:0, 3+1:0:0:0:1, 1+2:0:0:0:0, 3+2:0:0:0:1, 3+3:0:0:0:3, 5+1:0:0:0:1, 1+2:0:0:0:0, 3+1:1:0:0:0, 3+1:0:0:0:1, 2+0:0:0:0:0, 3+2:0:0:0:2, 4+1:0:0:0:0, 5+2:2:0:0:0, 6+2:0:0:0:2, 2+0:0:0:0:0, 4+3:0:0:0:0, 6+3:0:0:0:0, 4+1:0:0:0:0, 4+1:0:0:0:0, 3+1:0:0:0:1, 3+4:0:0:0:4, 5+2:0:0:0:2, 1+3:0:0:0:0, 1+2:0:0:0:0, 4+1:0:0:0:0, 2+3:0:0:0:1, 3+0:0:0:0:0, 3+4:0:0:0:1, 4+4:0:0:0:0, 4+3:0:0:0:0, 1+1:0:0:0:0, 3+5:0:0:0:0, 3+1:0:0:0:0, 3+0:0:0:0:0, 1+2:0:0:0:0, 5+2:0:0:0:1, 2+1:0:0:0:1, 2+0:0:0:0:0, 2+3:0:0:0:0, 3+5:0:0:0:0, 1+5:0:0:0:0, 1+4:0:0:0:0, 3+9:3:0:0:3, 3+1:0:0:0:1, 4+1:1:0:0:0, 7+3:1:0:0:1, 3+0:0:0:0:0, 4+4:1:0:0:0, 6+2:1:0:0:0, 3+0:0:0:0:0, 2+6:0:0:0:0, 3+2:0:0:0:1, 3+1:0:0:0:1, 3+0:0:0:0:0, 2+3:0:0:0:0, 1+4:0:0:0:0, 2+4:0:0:0:0, 2+4:0:0:0:1, 5+1:0:0:0:0, 2+3:0:0:0:1, 3+7:0:0:0:0, 7+5:0:0:0:0, 2+2:0:0:0:0, 4+4:0:0:0:0, 3+6:0:0:0:1, 3+3:0:0:0:0, 3+3:0:0:0:0, 3+1:0:0:0:1, 3+1:0:0:0:1, 3+0:0:0:0:0, 2+1:0:0:0:0, 3+5:0:0:0:0, 3+3:0:0:0:1, 2+3:0:0:0:0, 3+0:0:0:0:0, 3+1:0:0:0:0, 5+3:2:0:0:1, 4+1:0:0:0:1, 4+1:0:0:0:1, 1+2:0:0:0:0, 6+2:1:0:0:0, 5+2:0:0:0:1, 4+5:0:0:0:1, 3+2:0:0:0:1, 3+1:0:0:0:1, 3+0:0:0:0:0, 1+2:0:0:0:0, 1+2:0:0:0:0, 1+2:0:0:0:0, 2+3:0:0:0:0, 4+1:0:0:0:0, 4+4:0:1:0:2, 3+8:0:0:0:0, 6+5:0:0:0:2, 3+3:0:0:0:0, 2+3:0:0:0:0, 4+3:0:0:0:1, 2+4:0:0:0:0, 3+4:0:0:0:0, 4+3:0:0:0:1, 5+2:0:0:0:1, 4+2:1:0:0:1, 3+2:0:0:0:0, 3+5:0:0:0:0, 1+3:0:0:0:0, 2+5:0:0:0:0, 3+1:0:0:0:0, 2+4:0:0:0:0, 5+1:1:0:0:0, 6+2:0:0:0:2, 3+1:1:0:0:0, 3+1:0:0:0:0, 3+1:0:0:0:0, 2+0:0:0:0:0, 1+7:0:0:0:0, 3+2:0:0:0:1, 3+1:0:0:0:1, 6+2:0:0:0:2, 4+3:0:0:0:0, 1+5:0:0:0:0, 1+3:0:0:0:0, 3+2:0:0:0:0, 4+1:0:0:0:1, 4+3:0:0:0:1, 3+3:0:0:0:1, 4+2:0:0:0:0, 3+4:0:0:0:1, 2+2:0:0:0:0, 4+1:0:0:0:0, 2+0:0:0:0:0, 3+2:0:0:0:1, 3+2:0:0:0:0, 3+6:2:0:0:0, 5+1:0:0:0:1, 6+3:0:0:0:0, 4+1:1:0:0:0, 3+2:0:0:0:1, 2+2:0:0:0:0, 5+4:0:0:0:0, 2+0:0:0:0:0, 3+3:3:0:0:0, 5+3:0:0:0:3, 3+0:0:0:0:0, 2+3:0:0:0:0, 5+2:1:0:0:0, 3+0:0:0:0:0, 3+5:0:0:0:1, 5+4:0:0:0:3, 3+2:0:0:0:2, 4+1:0:0:0:0, 3+5:0:0:0:1, 1+4:0:0:0:0, 1+2:0:0:0:0, 3+3:0:0:0:1, 3+0:0:0:0:0, 4+5:0:0:0:1, 4+6:0:0:0:0, 5+4:0:0:0:0, 2+0:0:0:0:0, 2+0:0:0:0:0, 3+1:0:0:0:0, 600+445:31:1:0:92
B minor (2#), 4+2:1:0:0:1, 1+2:0:0:0:0, 3+6:0:0:0:0, 3+3:0:0:0:0, 3+1:0:0:0:0, 3+2:0:0:0:0, 3+7:0:0:0:0, 2+1:1:0:0:1, 3+0:0:0:0:0, 4+3:0:0:0:0, 3+0:0:0:0:0, 1+0:0:0:0:0, 2+3:1:0:0:1, 1+1:0:0:0:0, 1+1:0:0:0:0, 2+4:0:0:0:0, 4+2:1:0:0:1, 1+2:0:0:0:0, 2+5:0:0:0:0, 3+3:0:0:0:0, 3+1:0:0:0:0, 3+2:0:0:0:0, 2+2:0:0:0:0, 3+1:0:0:0:0, 3+0:0:0:0:0, 4+3:0:0:0:0, 5+1:0:0:0:0, 5+4:0:0:0:1, 4+2:1:0:0:1, 4+5:0:0:0:0, 2+5:0:0:0:0, 2+3:0:0:0:0, 4+2:1:0:0:1, 2+3:0:0:0:0, 2+4:0:0:0:0, 3+3:0:0:0:0, 3+1:0:0:0:0, 3+2:0:0:0:0, 2+4:0:0:0:0, 2+1:1:0:0:1, 3+0:0:0:0:0, 2+2:0:0:0:0, 3+0:0:0:0:0, 3+2:0:0:0:0, 5+4:1:0:0:1, 3+4:0:0:0:0, 1+1:0:0:0:0, 4+5:0:0:0:0, 7+8:0:0:0:1, 4+3:0:0:0:0, 4+4:0:0:0:0, 3+1:0:0:0:0, 3+1:0:0:0:0, 4+1:0:0:0:0, 2+1:0:0:0:0, 3+2:0:0:0:0, 4+1:0:0:0:0, 4+3:0:0:0:0, 3+0:0:0:0:0, 5+4:0:0:0:1, 4+2:0:0:0:1, 4+3:0:0:0:0, 2+1:0:0:0:0, 3+5:0:0:0:0, 3+6:0:0:0:1, 1+1:0:0:0:0, 2+4:0:0:0:0, 5+3:0:0:0:0, 3+1:0:0:0:0, 1+3:0:0:0:0, 3+7:0:0:0:0, 2+2:2:0:0:2, 2+1:0:0:0:0, 2+2:0:0:0:0, 4+3:0:0:0:0, 2+1:0:0:0:0, 2+2:1:0:0:1, 4+6:1:0:0:1, 1+3:0:0:0:0, 5+5:0:0:0:0, 4+3:1:0:0:1, 1+1:0:0:0:0, 4+5:0:0:0:1, 3+1:0:0:0:0, 2+2:0:0:0:0, 1+1:0:0:0:0, 2+2:0:0:0:0, 3+1:0:0:0:0, 2+0:0:0:0:0, 4+4:0:0:0:0, 4+1:0:0:0:0, 4+3:0:0:0:1, 3+2:0:0:0:1, 7+5:0:0:0:0, 2+2:0:0:0:0, 4+4:0:0:0:0, 3+6:0:0:0:1, 3+3:0:0:0:0, 4+3:0:0:0:0, 3+3:0:0:0:0, 2+1:0:0:0:0, 1+3:0:0:0:0, 3+2:0:0:0:0, 2+5:0:0:0:0, 4+1:0:0:0:0, 2+2:0:0:0:0, 2+2:0:0:0:0, 2+1:0:0:0:0, 5+4:1:0:0:1, 1+1:0:0:0:0, 2+3:0:0:0:0, 2+4:0:0:0:0, 4+2:1:0:0:1, 3+3:0:0:0:0, 4+7:0:0:0:0, 3+5:0:0:0:0, 2+1:0:0:0:0, 1+1:0:0:0:0, 2+1:0:0:0:0, 3+2:0:0:0:0, 2+2:0:0:0:0, 2+3:0:0:0:0, 4+1:0:0:0:0, 6+4:0:1:0:2, 3+3:0:0:0:1, 6+5:0:0:0:2, 3+3:0:0:0:0, 2+3:0:0:0:0, 4+3:0:0:0:1, 2+4:0:0:0:0, 4+4:0:0:0:0, 4+3:0:0:0:1, 4+2:0:0:0:0, 4+2:0:0:0:0, 5+3:0:0:0:0, 2+5:0:0:0:0, 2+1:0:0:0:0, 2+2:0:0:0:0, 3+1:0:0:0:0, 3+2:0:0:0:0, 3+2:1:0:0:1, 4+5:0:0:0:0, 3+3:0:0:0:0, 3+2:0:0:0:0, 3+3:0:0:0:1, 1+1:0:0:0:0, 2+9:0:0:0:0, 3+3:0:0:0:0, 2+2:0:0:0:0, 4+3:0:0:0:0, 4+3:0:0:0:0, 5+2:0:0:0:0, 3+3:0:0:0:0, 3+2:0:0:0:0, 4+1:0:0:0:1, 4+3:0:0:0:1, 3+3:0:0:0:1, 4+2:0:0:0:0, 5+4:0:0:0:0, 2+2:0:0:0:0, 4+4:0:0:0:1, 1+2:0:0:0:0, 5+5:0:0:0:1, 3+2:0:0:0:0, 4+2:0:0:0:0, 3+1:0:0:0:0, 6+3:0:0:0:0, 2+1:1:0:0:1, 4+4:0:0:0:0, 2+9:0:0:0:0, 3+5:0:0:0:2, 1+1:0:0:0:0, 4+4:1:0:0:1, 3+7:0:0:0:0, 1+1:0:0:0:0, 2+6:0:0:0:0, 3+2:1:0:0:1, 1+1:0:0:0:0, 3+6:0:0:0:0, 5+6:0:0:0:0, 3+1:0:0:0:0, 3+2:0:0:0:0, 3+2:0:0:0:1, 3+3:0:0:0:0, 2+2:0:0:0:0, 4+2:0:0:0:0, 2+0:0:0:0:0, 6+5:0:0:0:1, 4+3:0:0:0:1, 5+4:0:0:0:0, 2+1:0:0:0:0, 1+4:0:0:0:0, 2+2:0:0:0:0, 580+525:19:1:0:46
Eb major (3b), 7+3:0:0:0:0, 3+0:0:0:0:0, 3+1:0:0:0:1, 3+1:0:0:0:1, 4+3:0:0:0:3, 4+2:1:0:0:1, 4+1:0:0:0:1, 3+1:0:0:0:0, 4+1:0:0:0:1, 3+1:0:0:0:0, 4+1:0:0:0:1, 2+0:0:0:0:0, 5+2:0:0:0:0, 4+2:0:0:0:1, 4+2:0:0:0:0, 2+0:0:0:0:0, 7+3:0:0:0:0, 4+1:0:0:0:0, 2+0:0:0:0:0, 3+1:0:0:0:1, 4+3:0:0:0:3, 4+2:1:0:0:1, 2+0:0:0:0:0, 1+0:0:0:0:0, 4+1:0:0:0:1, 3+1:0:0:0:0, 4+2:0:0:0:1, 3+2:0:0:0:0, 7+3:0:0:0:0, 5+1:0:0:0:1, 2+0:0:0:0:0, 3+0:0:0:0:0, 7+4:0:0:0:0, 4+1:0:0:0:0, 2+0:0:0:0:0, 3+1:0:0:0:1, 4+3:0:0:0:3, 6+3:0:0:0:0, 2+0:0:0:0:0, 3+1:0:0:0:0, 4+1:0:0:0:1, 3+0:0:0:0:0, 4+2:0:0:0:2, 5+1:0:0:0:0, 6+4:2:0:0:2, 7+6:0:0:0:1, 3+1:0:0:0:0, 5+1:0:0:0:0, 7+3:0:0:0:0, 3+1:0:0:0:0, 5+1:0:0:0:0, 3+1:0:0:0:1, 4+4:0:0:0:4, 6+3:0:0:0:1, 2+0:0:0:0:0, 2+0:0:0:0:0, 5+2:0:0:0:2, 3+1:0:0:0:0, 4+1:0:0:0:1, 4+1:0:0:0:0, 5+1:0:0:0:0, 5+1:0:0:0:1, 2+0:0:0:0:0, 4+1:0:0:0:0, 4+1:0:0:0:0, 4+1:0:0:0:0, 2+0:0:0:0:0, 5+2:0:0:0:1, 3+1:0:0:0:1, 3+1:0:0:0:0, 3+2:0:0:0:0, 4+2:0:0:0:0, 2+0:0:0:0:0, 2+0:0:0:0:0, 4+4:0:0:0:3, 4+1:0:0:0:0, 5+2:0:0:0:0, 6+3:0:0:0:1, 4+1:0:0:0:0, 5+2:0:0:0:0, 7+3:0:0:0:0, 4+1:0:0:0:0, 3+2:0:0:0:0, 3+1:0:0:0:1, 4+1:0:0:0:1, 4+1:0:0:0:0, 3+0:0:0:0:0, 2+0:0:0:0:0, 3+0:0:0:0:0, 3+1:0:0:0:0, 6+2:0:0:0:1, 3+1:0:0:0:0, 4+1:0:0:0:0, 8+3:0:0:0:1, 3+0:0:0:0:0, 5+1:0:0:0:0, 4+1:0:0:0:0, 4+1:0:0:0:1, 4+2:0:0:0:1, 4+1:0:0:0:1, 4+1:0:0:0:1, 4+2:0:0:0:0, 3+1:0:0:0:0, 3+1:0:0:0:0, 4+1:0:0:0:0, 3+0:0:0:0:0, 4+1:0:0:0:1, 4+1:0:0:0:0, 6+4:2:0:0:2, 4+4:0:0:0:1, 5+2:0:0:0:1, 2+0:0:0:0:0, 7+3:0:0:0:0, 6+4:0:0:0:0, 5+2:0:0:0:1, 4+1:0:0:0:1, 4+1:0:0:0:1, 4+1:0:0:0:0, 2+0:0:0:0:0, 2+0:0:0:0:0, 2+0:0:0:0:0, 3+0:0:0:0:0, 5+3:0:0:0:2, 5+2:0:1:0:1, 4+1:0:0:0:0, 6+3:0:0:0:3, 4+1:0:0:0:0, 3+0:0:0:0:0, 5+2:0:0:0:1, 3+0:0:0:0:0, 4+1:0:0:0:0, 4+2:0:0:0:2, 6+2:0:0:0:1, 5+3:2:0:0:2, 4+2:0:0:0:0, 4+2:0:0:0:0, 2+0:0:0:0:0, 3+0:0:0:0:0, 4+1:0:0:0:1, 3+2:0:0:0:0, 6+2:0:0:0:0, 5+4:0:0:0:1, 4+3:1:0:0:1, 4+1:0:0:0:0, 4+1:0:0:0:0, 3+0:0:0:0:0, 2+0:0:0:0:0, 4+1:0:0:0:1, 4+1:0:0:0:1, 7+3:0:0:0:0, 5+1:0:0:0:0, 1+3:0:0:0:0, 2+0:0:0:0:0, 4+1:0:0:0:1, 5+2:0:0:0:2, 5+2:0:0:0:0, 4+1:0:0:0:0, 5+1:0:0:0:1, 4+2:0:0:0:0, 3+0:0:0:0:0, 5+1:0:0:0:0, 3+0:0:0:0:0, 4+2:0:0:0:1, 3+2:0:0:0:1, 4+3:2:0:0:2, 6+3:0:0:0:0, 7+3:0:0:0:0, 5+2:0:0:0:0, 4+1:0:0:0:0, 3+0:0:0:0:0, 6+3:0:0:0:3, 3+0:0:0:0:0, 4+3:1:0:0:1, 5+4:0:0:0:3, 4+1:0:0:0:0, 3+0:0:0:0:0, 6+2:0:0:0:0, 4+1:0:0:0:0, 4+1:0:0:0:1, 4+3:0:0:0:1, 4+2:0:0:0:2, 4+3:0:0:0:1, 4+1:0:0:0:1, 2+0:0:0:0:0, 2+0:0:0:0:0, 4+1:0:0:0:0, 4+1:0:0:0:1, 5+3:0:0:0:0, 5+1:0:0:0:0, 6+2:0:0:0:1, 3+0:0:0:0:0, 3+0:0:0:0:0, 4+1:0:0:0:0, 767+273:12:1:0:100
A major (3#), 5+6:0:0:0:1, 2+4:0:0:0:0, 4+2:0:0:0:0, 4+2:0:0:0:0, 4+3:0:0:0:0, 4+2:0:0:0:0, 4+2:0:0:0:0, 3+3:0:0:0:0, 2+0:0:0:0:0, 5+3:0:0:0:0, 2+0:0:0:0:0, 2+1:0:0:0:0, 3+3:1:0:0:1, 2+1:0:0:0:0, 2+1:0:0:0:0, 3+2:0:0:0:0, 5+6:0:0:0:1, 2+5:0:0:0:0, 3+1:0:0:0:0, 4+2:0:0:0:0, 4+3:0:0:0:0, 4+2:0:0:0:0, 3+2:0:0:0:0, 4+5:0:0:0:0, 2+0:0:0:0:0, 5+3:0:0:0:0, 4+1:0:0:0:0, 6+4:0:0:0:1, 5+6:0:0:0:1, 5+3:0:0:0:0, 3+1:0:0:0:0, 3+2:0:0:0:0, 5+10:0:0:0:1, 3+5:0:0:0:0, 3+2:0:0:0:0, 4+1:0:0:0:0, 4+3:0:0:0:0, 4+4:0:0:0:0, 3+2:0:0:0:0, 3+3:0:0:0:0, 2+0:0:0:0:0, 3+2:0:0:0:0, 2+0:0:0:0:0, 4+2:0:0:0:0, 6+4:1:0:0:1, 4+4:0:0:0:0, 2+1:0:0:0:0, 5+6:0:0:0:0, 8+8:0:0:0:1, 5+3:0:0:0:0, 5+4:0:0:0:0, 4+1:0:0:0:0, 4+4:0:0:0:0, 5+1:0:0:0:0, 3+1:0:0:0:0, 4+5:0:0:0:0, 3+1:0:0:0:0, 5+3:0:0:0:0, 2+0:0:0:0:0, 6+6:0:0:0:1, 5+2:0:0:0:1, 5+3:0:0:0:0, 3+1:0:0:0:0, 4+5:0:0:0:0, 4+6:0:0:0:1, 2+8:0:0:0:0, 3+4:0:0:0:0, 6+4:0:0:0:0, 4+1:0:0:0:0, 2+2:0:0:0:0, 4+4:0:0:0:1, 3+5:0:0:0:0, 3+1:0:0:0:0, 3+2:0:0:0:0, 3+3:0:0:0:0, 3+1:0:0:0:0, 3+3:0:0:0:1, 5+6:1:0:0:1, 2+3:0:0:0:0, 6+4:0:0:0:0, 5+7:0:0:0:1, 2+6:0:0:0:0, 5+5:0:0:0:1, 4+1:0:0:0:0, 3+1:0:0:0:0, 2+2:0:0:0:0, 3+2:0:0:0:0, 4+6:0:0:0:0, 2+0:0:0:0:0, 5+4:0:0:0:0, 3+3:0:0:0:0, 5+4:0:0:0:1, 4+2:0:0:0:1, 8+5:0:0:0:0, 3+2:0:0:0:0, 5+4:0:0:0:0, 4+6:0:0:0:1, 4+3:0:0:0:0, 5+3:0:0:0:0, 4+3:0:0:0:0, 3+1:0:0:0:0, 2+4:0:0:0:0, 4+2:0:0:0:0, 3+5:0:0:0:0, 3+1:0:0:0:0, 3+2:0:0:0:0, 1+2:0:0:0:0, 3+1:0:0:0:0, 6+4:1:0:0:1, 2+1:0:0:0:0, 3+3:0:0:0:0, 3+2:0:0:0:0, 5+7:0:0:0:1, 4+9:0:0:0:0, 5+3:0:0:0:0, 4+2:0:0:0:0, 3+1:0:0:0:0, 2+2:0:0:0:0, 3+1:0:0:0:0, 4+6:0:0:0:0, 3+1:0:0:0:0, 3+3:0:0:0:0, 3+1:0:0:0:0, 7+5:0:0:0:2, 4+3:0:0:0:1, 7+5:0:0:0:2, 4+3:0:0:0:0, 3+3:0:0:0:0, 5+3:0:0:0:1, 3+4:0:0:0:0, 4+4:0:0:0:1, 5+3:0:0:0:1, 5+2:0:0:0:0, 5+2:0:0:0:0, 6+3:0:0:0:0, 3+5:0:0:0:0, 3+1:0:0:0:0, 3+2:0:0:0:0, 4+1:0:0:0:0, 4+2:0:0:0:0, 4+4:0:0:0:1, 5+5:0:0:0:0, 4+3:0:0:0:0, 4+2:0:0:0:0, 4+3:0:0:0:1, 2+3:0:0:0:0, 3+1:0:0:0:0, 4+1:0:0:0:0, 3+1:0:0:0:0, 5+4:0:0:0:0, 4+3:0:0:0:1, 6+2:0:0:0:0, 4+3:0:0:0:0, 4+2:0:0:0:0, 3+1:0:0:0:1, 5+3:0:0:0:1, 4+3:0:0:0:1, 5+2:0:0:0:0, 6+4:0:0:0:0, 3+2:0:0:0:0, 5+4:0:0:0:1, 2+3:0:0:0:0, 6+5:0:0:0:1, 4+2:0:0:0:0, 5+2:0:0:0:0, 4+4:0:0:0:0, 7+3:0:0:0:0, 3+7:0:0:0:0, 4+4:0:0:0:1, 3+1:0:0:0:0, 2+3:0:0:0:0, 2+1:0:0:0:0, 4+6:0:0:0:2, 4+7:0:0:0:0, 2+1:0:0:0:0, 3+2:0:0:0:0, 4+5:0:0:0:1, 2+6:0:0:0:0, 4+2:0:0:0:0, 6+2:0:0:0:0, 4+2:0:0:0:0, 4+4:0:0:0:0, 4+2:0:0:0:1, 4+7:0:0:0:0, 3+2:0:0:0:0, 5+2:0:0:0:0, 1+2:0:0:0:0, 6+4:0:0:0:2, 5+3:0:0:0:1, 6+4:0:0:0:0, 3+1:0:0:0:0, 2+3:0:0:0:0, 3+3:0:0:0:0, 735+580:4:0:0:45
C minor (3b), 7+3:0:0:0:0, 3+0:0:0:0:0, 3+1:0:0:0:1, 3+1:0:0:0:1, 4+3:0:0:0:3, 4+1:1:0:0:0, 4+1:0:0:0:1, 3+1:0:0:0:0, 4+1:0:0:0:1, 3+1:0:0:0:0, 4+1:0:0:0:1, 2+0:0:0:0:0, 5+2:0:0:0:0, 4+1:0:0:0:1, 4+0:0:0:0:0, 2+0:0:0:0:0, 7+3:0:0:0:0, 4+1:0:0:0:0, 2+0:0:0:0:0, 3+1:0:0:0:1, 4+3:0:0:0:3, 4+1:1:0:0:0, 2+0:0:0:0:0, 1+2:0:0:0:0, 4+1:0:0:0:1, 3+1:0:0:0:0, 4+2:0:0:0:1, 3+3:0:0:0:0, 7+3:0:0:0:0, 5+1:0:0:0:1, 2+0:0:0:0:0, 3+0:0:0:0:0, 7+4:0:0:0:0, 4+1:0:0:0:0, 2+0:0:0:0:0, 3+1:0:0:0:1, 4+3:0:0:0:3, 6+3:0:0:0:0, 2+0:0:0:0:0, 3+1:0:0:0:0, 4+1:0:0:0:1, 3+0:0:0:0:0, 4+2:0:0:0:2, 5+1:0:0:0:0, 6+2:2:0:0:0, 7+2:0:0:0:2, 3+0:0:0:0:0, 5+1:0:0:0:0, 7+3:0:0:0:0, 3+1:0:0:0:0, 5+1:0:0:0:0, 3+1:0:0:0:1, 4+4:0:0:0:4, 6+2:0:0:0:2, 2+0:0:0:0:0, 2+2:0:0:0:0, 5+2:0:0:0:2, 3+1:0:0:0:0, 4+1:0:0:0:1, 4+3:0:0:0:0, 5+1:0:0:0:0, 5+1:0:0:0:1, 2+0:0:0:0:0, 4+1:0:0:0:0, 4+1:0:0:0:0, 4+1:0:0:0:0, 2+0:0:0:0:0, 5+2:0:0:0:1, 3+1:0:0:0:1, 3+1:0:0:0:0, 3+1:0:0:0:0, 4+2:0:0:0:0, 2+0:0:0:0:0, 2+0:0:0:0:0, 4+4:0:0:0:3, 4+1:0:0:0:0, 5+2:0:0:0:0, 6+3:1:0:0:1, 4+0:0:0:0:0, 5+2:0:0:0:0, 7+3:0:0:0:0, 4+1:0:0:0:0, 3+2:0:0:0:0, 3+1:0:0:0:1, 4+1:0:0:0:1, 4+1:0:0:0:0, 3+0:0:0:0:0, 2+3:0:0:0:0, 3+0:0:0:0:0, 3+1:0:0:0:0, 6+2:0:0:0:1, 3+2:0:0:0:0, 4+1:0:0:0:0, 8+3:0:0:0:1, 3+0:0:0:0:0, 5+1:0:0:0:0, 4+1:0:0:0:0, 4+1:0:0:0:1, 4+2:0:0:0:1, 4+1:0:0:0:1, 4+1:0:0:0:1, 4+2:0:0:0:0, 3+1:0:0:0:0, 3+1:0:0:0:0, 4+1:0:0:0:0, 3+0:0:0:0:0, 4+1:0:0:0:1, 4+1:0:0:0:0, 6+3:2:0:0:1, 4+1:0:0:0:1, 5+1:0:0:0:1, 2+0:0:0:0:0, 7+3:0:0:0:0, 6+4:0:0:0:0, 5+2:0:0:0:1, 4+1:0:0:0:1, 4+1:0:0:0:1, 4+1:0:0:0:0, 2+0:0:0:0:0, 2+2:0:0:0:0, 2+0:0:0:0:0, 3+0:0:0:0:0, 5+3:0:0:0:2, 6+3:0:0:0:0, 4+1:0:0:0:0, 6+3:0:0:0:3, 4+1:0:0:0:0, 3+0:0:0:0:0, 5+2:0:0:0:1, 3+0:0:0:0:0, 4+1:0:0:0:0, 4+2:0:0:0:2, 6+2:0:0:0:1, 5+2:1:0:0:1, 4+2:0:0:0:0, 4+2:0:0:0:0, 2+0:0:0:0:0, 3+0:0:0:0:0, 4+1:0:0:0:1, 3+1:0:0:0:0, 6+2:0:0:0:0, 5+2:1:0:0:1, 4+1:1:0:0:0, 4+1:0:0:0:0, 4+1:0:0:0:0, 3+0:0:0:0:0, 2+0:0:0:0:0, 4+1:0:0:0:1, 4+1:0:0:0:1, 7+3:0:0:0:0, 5+1:0:0:0:0, 1+6:0:0:0:0, 2+1:0:0:0:0, 4+1:0:0:0:1, 5+2:0:0:0:2, 5+2:0:0:0:0, 4+1:0:0:0:0, 5+1:0:0:0:1, 4+2:0:0:0:0, 3+0:0:0:0:0, 5+1:0:0:0:0, 3+0:0:0:0:0, 4+2:0:0:0:1, 3+2:0:0:0:1, 4+3:0:0:0:2, 6+3:0:0:0:0, 7+3:0:0:0:0, 5+2:0:0:0:0, 4+1:0:0:0:0, 3+0:0:0:0:0, 6+3:0:0:0:3, 3+0:0:0:0:0, 4+4:0:0:0:0, 5+3:0:0:0:3, 4+0:0:0:0:0, 3+0:0:0:0:0, 6+2:0:0:0:0, 4+1:0:0:0:0, 4+1:0:0:0:1, 4+3:0:0:0:1, 4+2:0:0:0:2, 4+3:0:0:0:1, 4+1:0:0:0:1, 2+4:0:0:0:0, 2+0:0:0:0:0, 4+1:0:0:0:0, 4+1:0:0:0:1, 5+3:0:0:0:0, 5+1:0:0:0:0, 6+2:0:0:0:1, 3+0:0:0:0:0, 3+0:0:0:0:0, 4+1:0:0:0:0, 768+268:10:0:0:93
F# minor (3#), 5+2:1:0:0:1, 2+2:0:0:0:0, 4+2:0:0:0:0, 4+2:0:0:0:0, 4+3:0:0:0:0, 4+2:0:0:0:0, 4+2:0:0:0:0, 3+3:0:0:0:0, 2+0:0:0:0:0, 5+3:0:0:0:0, 2+0:0:0:0:0, 2+1:0:0:0:0, 3+3:1:0:0:1, 2+1:0:0:0:0, 2+1:0:0:0:0, 3+2:0:0:0:0, 5+2:1:0:0:1, 2+2:0:0:0:0, 3+1:0:0:0:0, 4+2:0:0:0:0, 4+3:0:0:0:0, 4+2:0:0:0:0, 3+2:0:0:0:0, 4+5:0:0:0:0, 2+0:0:0:0:0, 5+3:0:0:0:0, 4+1:0:0:0:0, 6+4:0:0:0:1, 5+2:1:0:0:1, 5+3:0:0:0:0, 3+1:0:0:0:0, 3+2:0:0:0:0, 5+2:1:0:0:1, 3+5:0:0:0:0, 3+2:0:0:0:0, 4+1:0:0:0:0, 4+3:0:0:0:0, 4+2:0:0:0:0, 3+2:0:0:0:0, 3+3:0:0:0:0, 2+0:0:0:0:0, 3+2:0:0:0:0, 2+0:0:0:0:0, 4+2:0:0:0:0, 6+4:1:0:0:1, 4+4:0:0:0:0, 2+1:0:0:0:0, 5+6:0:0:0:0, 8+8:0:0:0:1, 5+3:0:0:0:0, 5+4:0:0:0:0, 4+1:0:0:0:0, 4+4:0:0:0:0, 5+1:0:0:0:0, 3+1:0:0:0:0, 4+5:0:0:0:0, 3+1:0:0:0:0, 5+3:0:0:0:0, 2+0:0:0:0:0, 6+6:0:0:0:1, 5+2:0:0:0:1, 5+3:0:0:0:0, 3+1:0:0:0:0, 4+5:0:0:0:0, 4+6:0:0:0:1, 2+1:0:0:0:0, 3+4:0:0:0:0, 6+4:0:0:0:0, 4+1:0:0:0:0, 2+3:0:0:0:0, 4+4:0:0:0:1, 3+5:0:0:0:0, 3+1:0:0:0:0, 3+2:0:0:0:0, 3+3:0:0:0:0, 3+1:0:0:0:0, 3+2:1:0:0:1, 5+3:1:0:0:2, 2+3:0:0:0:0, 6+4:0:0:0:0, 5+3:1:0:0:1, 2+1:0:0:0:0, 5+5:0:0:0:1, 4+1:0:0:0:0, 3+1:0:0:0:0, 2+1:0:0:0:0, 3+2:0:0:0:0, 4+6:0:0:0:0, 2+0:0:0:0:0, 5+4:0:0:0:0, 3+3:0:0:0:0, 5+4:0:0:0:1, 4+2:0:0:0:1, 8+5:0:0:0:0, 3+2:0:0:0:0, 5+4:0:0:0:0, 4+6:0:0:0:1, 4+3:0:0:0:0, 5+3:0:0:0:0, 4+3:0:0:0:0, 3+1:0:0:0:0, 2+3:0:0:0:0, 4+2:0:0:0:0, 3+5:0:0:0:0, 3+1:0:0:0:0, 3+2:0:0:0:0, 1+2:0:0:0:0, 3+1:0:0:0:0, 6+4:1:0:0:1, 2+1:0:0:0:0, 3+3:0:0:0:0, 3+2:0:0:0:0, 5+2:1:0:0:1, 4+3:0:0:0:0, 5+3:0:0:0:0, 4+2:0:0:0:0, 3+1:0:0:0:0, 2+1:0:0:0:0, 3+1:0:0:0:0, 4+6:0:0:0:0, 3+1:0:0:0:0, 3+3:0:0:0:0, 3+1:0:0:0:0, 7+5:0:0:0:2, 4+3:0:0:0:1, 7+5:0:0:0:2, 4+3:0:0:0:0, 3+3:0:0:0:0, 5+3:0:0:0:1, 3+4:0:0:0:0, 4+4:0:0:0:1, 5+3:0:0:0:1, 5+2:0:0:0:0, 5+2:0:0:0:0, 6+3:0:0:0:0, 3+5:0:0:0:0, 3+1:0:0:0:0, 3+2:0:0:0:0, 4+1:0:0:0:0, 4+2:0:0:0:0, 4+2:1:0:0:1, 5+5:0:0:0:0, 4+3:0:0:0:0, 4+2:0:0:0:0, 4+3:0:0:0:1, 2+3:0:0:0:0, 3+1:0:0:0:0, 4+1:0:0:0:0, 3+1:0:0:0:0, 5+3:0:0:0:0, 4+3:0:0:0:1, 6+7:0:0:0:0, 4+2:0:0:0:0, 4+2:0:0:0:0, 3+1:0:0:0:1, 5+3:0:0:0:1, 4+3:0:0:0:1, 5+2:0:0:0:0, 6+4:0:0:0:0, 3+2:0:0:0:0, 5+4:0:0:0:1, 2+3:0:0:0:0, 6+5:0:0:0:1, 4+2:0:0:0:0, 5+2:0:0:0:0, 4+1:0:0:0:0, 7+3:0:0:0:0, 3+1:1:0:0:1, 4+4:0:0:0:1, 3+1:0:0:0:0, 2+3:0:0:0:0, 2+1:0:0:0:0, 5+4:1:0:0:1, 4+7:0:0:0:0, 2+1:0:0:0:0, 3+2:0:0:0:0, 4+2:1:0:0:1, 2+1:0:0:0:0, 4+2:0:0:0:0, 6+2:0:0:0:0, 4+2:0:0:0:0, 4+2:0:0:0:0, 4+2:0:0:0:1, 4+7:0:0:0:0, 3+2:0:0:0:0, 5+2:0:0:0:0, 1+2:0:0:0:0, 6+4:0:0:0:2, 5+3:0:0:0:1, 6+4:0:0:0:0, 3+1:0:0:0:0, 2+3:0:0:0:0, 3+3:0:0:0:0, 736+500:15:0:0:46
Ab major (4b), 7+4:0:0:0:0, 4+0:0:0:0:0, 4+1:0:0:0:1, 4+1:0:0:0:1, 4+3:0:0:0:3, 5+2:1:0:0:1, 5+1:0:0:0:1, 3+1:0:0:0:0, 4+1:0:0:0:1, 4+1:0:0:0:0, 5+1:0:0:0:1, 2+0:0:0:0:0, 6+2:0:0:0:0, 5+1:0:0:0:1, 5+2:0:0:0:0, 3+1:0:0:0:0, 7+3:0:0:0:0, 5+1:0:0:0:0, 3+1:0:0:0:0, 4+1:0:0:0:1, 4+3:0:0:0:3, 5+2:1:0:0:1, 3+1:0:0:0:0, 2+0:0:0:0:0, 4+1:0:0:0:1, 4+3:0:0:0:2, 5+6:1:0:0:4, 4+2:0:0:0:0, 7+3:0:0:0:0, 6+1:0:0:0:1, 3+2:0:0:0:0, 4+1:0:0:0:0, 7+4:0:0:0:0, 5+1:0:0:0:0, 3+1:0:0:0:0, 4+1:0:0:0:1, 4+3:0:0:0:3, 7+3:0:0:0:0, 3+1:0:0:0:0, 3+1:0:0:0:0, 4+1:0:0:0:1, 4+2:0:0:0:0, 5+2:0:0:0:2, 5+1:0:0:0:0, 7+4:2:0:0:2, 8+2:0:0:0:1, 4+0:0:0:0:0, 6+1:0:0:0:0, 7+5:0:0:0:0, 4+3:0:0:0:0, 6+3:0:0:0:0, 4+1:0:0:0:1, 4+4:0:0:0:4, 6+2:0:0:0:2, 3+0:0:0:0:0, 3+0:0:0:0:0, 5+2:0:0:0:2, 4+1:0:0:0:0, 5+1:0:0:0:1, 5+1:0:0:0:0, 6+2:0:0:0:0, 6+3:1:0:0:1, 3+1:0:0:0:0, 5+3:1:0:0:1, 4+3:0:0:0:0, 5+1:0:0:0:0, 3+2:0:0:0:0, 6+4:1:0:0:1, 3+1:1:0:0:1, 4+1:1:0:0:1, 4+2:0:0:0:0, 4+1:0:0:0:0, 2+0:0:0:0:0, 3+1:0:0:0:0, 5+4:0:0:0:3, 5+1:0:0:0:0, 6+1:1:0:0:0, 7+3:1:0:0:1, 5+0:0:0:0:0, 6+2:0:0:0:0, 8+2:1:0:0:0, 5+0:0:0:0:0, 4+2:0:0:0:1, 4+3:1:0:0:1, 5+1:0:0:0:1, 5+1:0:0:0:0, 4+2:0:0:0:0, 3+0:0:0:0:0, 4+1:0:0:0:0, 4+1:0:0:0:0, 7+2:0:0:0:1, 4+1:0:0:0:0, 4+4:0:0:0:0, 9+5:2:0:0:2, 4+1:0:0:0:0, 6+2:0:0:0:0, 4+2:0:0:0:0, 5+1:0:0:0:1, 5+2:0:0:0:1, 5+1:0:0:0:1, 4+1:0:0:0:1, 5+2:0:0:0:0, 4+1:0:0:0:0, 4+1:0:0:0:0, 4+1:0:0:0:0, 4+1:0:0:0:0, 5+1:0:0:0:1, 5+1:0:0:0:0, 7+4:2:0:0:2, 5+1:0:0:0:0, 6+1:0:0:0:1, 3+0:0:0:0:0, 7+2:1:0:0:0, 7+2:0:0:0:1, 6+2:0:0:0:1, 5+1:0:0:0:1, 4+1:0:0:0:1, 5+1:0:0:0:0, 3+3:0:0:0:0, 3+0:0:0:0:0, 2+0:0:0:0:0, 4+1:0:0:0:0, 6+3:0:0:0:2, 6+2:0:1:0:1, 4+3:0:0:0:0, 9+4:1:0:0:1, 5+3:0:0:0:0, 4+2:0:0:0:0, 5+3:1:0:0:1, 4+1:0:0:0:0, 5+2:0:0:0:0, 5+2:0:0:0:2, 6+2:0:0:0:2, 6+3:2:0:0:2, 5+4:0:0:0:0, 5+1:0:0:0:0, 2+0:0:0:0:0, 4+2:0:0:0:0, 5+3:1:0:0:1, 4+2:0:0:0:0, 7+2:0:0:0:0, 6+2:1:0:0:1, 5+3:1:0:0:1, 5+4:0:0:0:0, 5+2:0:0:0:0, 4+3:0:0:0:0, 3+1:0:0:0:0, 5+1:0:0:0:1, 5+1:0:0:0:1, 8+3:0:0:0:0, 6+2:0:0:0:0, 2+3:0:0:0:0, 3+0:0:0:0:0, 5+1:0:0:0:1, 6+2:0:0:0:2, 6+2:0:0:0:0, 4+2:0:0:0:0, 6+4:1:0:0:1, 5+3:1:0:0:2, 4+1:0:0:0:0, 5+2:0:0:0:0, 4+3:0:0:0:0, 6+3:0:0:0:2, 4+6:1:0:0:1, 5+3:2:0:0:2, 6+3:0:0:0:1, 8+3:0:0:0:0, 5+2:0:0:0:0, 4+1:0:0:0:0, 4+1:0:0:0:0, 7+3:0:0:0:3, 4+0:0:0:0:0, 5+3:1:0:0:1, 6+3:0:0:0:3, 5+0:0:0:0:0, 4+0:0:0:0:0, 6+2:1:0:0:0, 5+0:0:0:0:0, 5+1:0:0:0:1, 5+3:0:0:0:1, 4+2:0:0:0:2, 5+3:1:0:0:1, 6+3:0:0:0:0, 3+0:0:0:0:0, 2+0:0:0:0:0, 5+2:0:0:0:0, 5+1:0:0:0:1, 6+3:0:0:0:0, 5+3:0:0:0:0, 7+4:1:0:0:1, 4+2:0:0:0:0, 4+0:0:0:0:0, 5+1:0:0:0:0, 922+352:35:1:0:112
E major (4#), 5+2:1:0:0:1, 3+2:0:0:0:0, 5+6:0:0:0:0, 5+3:0:0:0:0, 3+1:0:0:0:0, 5+2:0:0:0:0, 5+7:0:0:0:0, 3+1:1:0:0:1, 2+0:0:0:0:0, 6+3:0:0:0:0, 3+0:0:0:0:0, 2+0:0:0:0:0, 4+3:1:0:0:1, 3+4:0:0:0:0, 3+1:0:0:0:0, 4+4:0:0:0:0, 5+2:1:0:0:1, 3+2:0:0:0:0, 4+5:0:0:0:0, 5+3:0:0:0:0, 3+1:0:0:0:0, 5+2:0:0:0:0, 4+5:0:0:0:0, 5+5:0:0:0:0, 2+0:0:0:0:0, 6+3:0:0:0:0, 5+1:0:0:0:0, 7+4:0:0:0:1, 5+2:1:0:0:1, 6+5:0:0:0:0, 4+5:0:0:0:0, 4+3:0:0:0:0, 5+2:1:0:0:1, 4+3:0:0:0:0, 4+4:0:0:0:0, 5+3:0:0:0:0, 3+1:0:0:0:0, 5+2:0:0:0:0, 4+4:0:0:0:0, 3+1:1:0:0:1, 2+0:0:0:0:0, 4+2:0:0:0:0, 3+0:0:0:0:0, 4+2:0:0:0:0, 7+4:1:0:0:1, 5+3:0:0:0:0, 3+1:0:0:0:0, 6+5:0:0:0:0, 7+8:0:0:0:1, 6+3:0:0:0:0, 6+4:0:0:0:0, 5+1:0:0:0:0, 3+1:0:0:0:0, 4+1:0:0:0:0, 4+7:0:0:0:0, 5+5:0:0:0:0, 2+1:0:0:0:0, 6+3:0:0:0:0, 3+0:0:0:0:0, 7+6:0:0:0:1, 6+2:0:0:0:1, 6+3:0:0:0:0, 4+1:0:0:0:0, 5+5:0:0:0:0, 4+6:0:0:0:1, 3+1:0:0:0:0, 4+4:0:0:0:0, 7+3:0:0:0:0, 4+1:0:0:0:0, 3+3:0:0:0:0, 5+7:0:0:0:0, 3+2:2:0:0:2, 3+1:0:0:0:0, 4+2:0:0:0:0, 4+3:0:0:0:0, 4+1:0:0:0:0, 4+2:1:0:0:1, 6+6:1:0:0:1, 3+3:0:0:0:0, 7+5:0:0:0:0, 6+3:1:0:0:1, 3+1:0:0:0:0, 6+5:0:0:0:1, 5+1:0:0:0:0, 4+2:0:0:0:0, 3+1:0:0:0:0, 4+7:0:0:0:0, 5+6:0:0:0:0, 3+0:0:0:0:0, 6+4:0:0:0:0, 4+3:0:0:0:0, 6+4:0:0:0:1, 4+2:0:0:0:1, 9+5:0:0:0:0, 4+2:0:0:0:0, 6+4:0:0:0:0, 4+6:0:0:0:1, 5+3:0:0:0:0, 6+3:0:0:0:0, 5+3:0:0:0:0, 3+1:0:0:0:0, 3+3:0:0:0:0, 5+2:0:0:0:0, 4+5:0:0:0:0, 3+1:0:0:0:0, 4+2:0:0:0:0, 2+2:0:0:0:0, 4+1:0:0:0:0, 7+4:1:0:0:1, 3+4:0:0:0:0, 4+3:0:0:0:0, 4+4:0:0:0:0, 5+2:1:0:0:1, 5+3:0:0:0:0, 6+7:0:0:0:0, 5+5:0:0:0:0, 3+1:0:0:0:0, 3+1:0:0:0:0, 4+5:0:0:0:0, 5+6:0:0:0:0, 3+1:0:0:0:0, 4+3:0:0:0:0, 4+1:0:0:0:0, 8+5:0:0:0:2, 4+3:0:0:0:1, 8+5:0:0:0:2, 5+3:0:0:0:0, 4+3:0:0:0:0, 5+3:0:0:0:1, 4+4:0:0:0:0, 5+4:0:0:0:1, 6+3:0:0:0:1, 4+2:0:0:0:0, 6+2:0:0:0:0, 7+3:0:0:0:0, 4+5:0:0:0:0, 3+1:0:0:0:0, 4+2:0:0:0:0, 5+1:0:0:0:0, 5+2:0:0:0:0, 5+2:1:0:0:1, 6+5:0:0:0:0, 5+3:0:0:0:0, 5+2:0:0:0:0, 5+3:0:0:0:1, 3+1:0:0:0:0, 4+9:0:0:0:0, 5+3:0:0:0:0, 4+2:0:0:0:0, 6+3:0:0:0:0, 6+5:0:0:0:0, 7+7:0:0:0:0, 5+2:0:0:0:0, 5+2:0:0:0:0, 4+1:0:0:0:1, 6+3:0:0:0:1, 4+3:0:0:0:1, 6+2:0:0:0:0, 7+4:0:0:0:0, 4+2:0:0:0:0, 5+4:0:0:0:1, 3+2:0:0:0:0, 7+5:0:0:0:1, 5+2:0:0:0:0, 6+2:0:0:0:0, 3+1:0:0:0:0, 8+3:0:0:0:0, 3+1:1:0:0:1, 4+4:0:0:0:1, 4+1:0:0:0:0, 3+3:0:0:0:0, 3+1:0:0:0:0, 6+4:1:0:0:1, 5+7:0:0:0:0, 3+1:0:0:0:0, 4+6:0:0:0:0, 4+2:1:0:0:1, 3+1:0:0:0:0, 5+6:0:0:0:0, 7+6:0:0:0:0, 3+1:0:0:0:0, 5+2:0:0:0:0, 5+8:0:0:0:0, 5+7:0:0:0:0, 3+2:0:0:0:0, 6+2:0:0:0:0, 2+2:0:0:0:0, 7+4:0:0:0:2, 5+3:0:0:0:1, 7+4:0:0:0:0, 4+1:0:0:0:0, 3+4:0:0:0:0, 4+2:0:0:0:0, 878+576:19:0:0:46
F minor (4b), 7+3:0:0:0:0, 4+0:0:0:0:0, 4+1:0:0:0:1, 4+1:0:0:0:1, 4+3:0:0:0:3, 5+2:1:0:0:1, 5+1:0:0:0:1, 3+1:0:0:0:0, 4+1:0:0:0:1, 4+1:0:0:0:0, 5+1:0:0:0:1, 2+0:0:0:0:0, 6+2:0:0:0:0, 5+2:0:0:0:1, 5+2:0:0:0:0, 3+0:0:0:0:0, 7+3:0:0:0:0, 5+1:0:0:0:0, 3+0:0:0:0:0, 4+1:0:0:0:1, 4+3:0:0:0:3, 5+2:1:0:0:1, 3+1:0:0:0:0, 2+0:0:0:0:0, 4+1:0:0:0:1, 4+1:0:0:0:0, 5+2:0:0:0:1, 4+2:0:0:0:0, 7+3:0:0:0:0, 6+1:0:0:0:1, 3+0:0:0:0:0, 4+0:0:0:0:0, 7+4:0:0:0:0, 5+1:0:0:0:0, 3+0:0:0:0:0, 4+1:0:0:0:1, 4+3:0:0:0:3, 7+3:0:0:0:0, 3+0:0:0:0:0, 3+1:0:0:0:0, 4+1:0:0:0:1, 4+0:0:0:0:0, 5+2:0:0:0:2, 5+1:0:0:0:0, 7+4:2:0:0:2, 8+6:0:0:0:1, 4+1:0:0:0:0, 6+1:0:0:0:0, 7+3:0:0:0:0, 4+1:0:0:0:0, 6+1:0:0:0:0, 4+1:0:0:0:1, 4+4:0:0:0:4, 6+3:0:0:0:2, 3+0:0:0:0:0, 3+0:0:0:0:0, 5+2:0:0:0:2, 4+1:0:0:0:0, 5+1:0:0:0:1, 5+1:0:0:0:0, 6+2:0:0:0:0, 6+1:0:0:0:1, 3+0:0:0:0:0, 5+1:0:0:0:0, 4+1:0:0:0:0, 5+1:0:0:0:0, 3+0:0:0:0:0, 6+2:0:0:0:1, 3+1:0:0:0:1, 4+1:0:0:0:0, 4+2:0:0:0:0, 4+2:0:0:0:0, 2+0:0:0:0:0, 3+1:0:0:0:0, 5+4:0:0:0:3, 5+1:0:0:0:0, 6+2:0:0:0:0, 7+3:0:0:0:1, 5+1:0:0:0:0, 6+2:0:0:0:0, 8+3:0:0:0:0, 5+1:0:0:0:0, 4+2:0:0:0:0, 4+1:0:0:0:1, 5+1:0:0:0:1, 5+1:0:0:0:0, 4+0:0:0:0:0, 3+0:0:0:0:0, 4+1:0:0:0:0, 4+1:0:0:0:0, 7+2:0:0:0:1, 4+1:0:0:0:0, 4+4:0:0:0:0, 9+3:0:0:0:1, 4+0:0:0:0:0, 6+1:0:0:0:0, 4+1:0:0:0:0, 5+1:0:0:0:1, 5+2:0:0:0:1, 5+1:0:0:0:1, 4+1:0:0:0:1, 5+2:0:0:0:0, 4+1:0:0:0:0, 4+1:0:0:0:0, 4+1:0:0:0:0, 4+1:0:0:0:0, 5+1:0:0:0:1, 5+1:0:0:0:0, 7+4:2:0:0:2, 5+4:0:0:0:1, 6+2:0:0:0:1, 3+0:0:0:0:0, 7+3:0:0:0:0, 7+4:0:0:0:0, 6+2:0:0:0:1, 5+1:0:0:0:1, 4+1:0:0:0:1, 5+1:0:0:0:0, 3+0:0:0:0:0, 3+0:0:0:0:0, 2+0:0:0:0:0, 4+1:0:0:0:0, 6+3:0:0:0:2, 6+2:0:1:0:1, 4+3:0:0:0:0, 7+3:0:0:0:3, 5+1:0:0:0:0, 4+0:0:0:0:0, 5+2:0:0:0:1, 4+0:0:0:0:0, 5+1:0:0:0:0, 5+2:0:0:0:2, 6+2:0:0:0:2, 6+3:2:0:0:2, 5+4:0:0:0:0, 5+2:0:0:0:0, 2+0:0:0:0:0, 4+2:0:0:0:0, 5+1:0:0:0:1, 4+2:0:0:0:0, 7+2:0:0:0:0, 6+4:0:0:0:1, 5+3:1:0:0:1, 5+4:0:0:0:0, 5+2:0:0:0:0, 4+0:0:0:0:0, 3+0:0:0:0:0, 5+1:0:0:0:1, 5+1:0:0:0:1, 8+3:0:0:0:0, 6+2:0:0:0:0, 2+3:0:0:0:0, 3+0:0:0:0:0, 5+1:0:0:0:1, 6+2:0:0:0:2, 6+2:0:0:0:0, 4+1:0:0:0:0, 6+1:0:0:0:1, 5+2:0:0:0:0, 4+0:0:0:0:0, 5+1:0:0:0:0, 4+0:0:0:0:0, 5+2:0:0:0:1, 4+2:0:0:0:1, 5+3:2:0:0:2, 6+3:0:0:0:1, 8+3:0:0:0:0, 5+2:0:0:0:0, 4+1:0:0:0:0, 4+1:0:0:0:0, 7+3:0:0:0:3, 4+0:0:0:0:0, 5+3:1:0:0:1, 6+4:0:0:0:3, 5+1:0:0:0:0, 4+0:0:0:0:0, 6+2:0:0:0:0, 5+1:0:0:0:0, 5+1:0:0:0:1, 5+3:0:0:0:1, 4+2:0:0:0:2, 5+3:0:0:0:1, 5+1:0:0:0:1, 3+0:0:0:0:0, 2+0:0:0:0:0, 5+2:0:0:0:0, 5+1:0:0:0:1, 6+3:0:0:0:0, 5+3:0:0:0:0, 7+2:0:0:0:1, 4+0:0:0:0:0, 4+0:0:0:0:0, 5+1:0:0:0:0, 918+297:12:1:0:103
C# minor (4#), 5+2:1:0:0:1, 3+2:0:0:0:0, 5+6:0:0:0:0, 5+3:0:0:0:0, 3+1:0:0:0:0, 5+2:0:0:0:0, 5+7:0:0:0:0, 3+1:1:0:0:1, 2+3:0:0:0:0, 6+3:0:0:0:0, 3+0:0:0:0:0, 2+0:0:0:0:0, 4+3:1:0:0:1, 3+1:0:0:0:0, 3+1:0:0:0:0, 4+4:0:0:0:0, 5+2:1:0:0:1, 3+2:0:0:0:0, 4+5:0:0:0:0, 5+3:0:0:0:0, 3+1:0:0:0:0, 5+2:0:0:0:0, 4+5:0:0:0:0, 5+5:0:0:0:0, 2+3:0:0:0:0, 6+3:0:0:0:0, 5+1:0:0:0:0, 7+4:0:0:0:1, 5+2:1:0:0:1, 6+5:0:0:0:0, 4+5:0:0:0:0, 4+3:0:0:0:0, 5+2:1:0:0:1, 4+3:0:0:0:0, 4+4:0:0:0:0, 5+3:0:0:0:0, 3+1:0:0:0:0, 5+2:0:0:0:0, 4+4:0:0:0:0, 3+1:1:0:0:1, 2+4:0:0:0:0, 4+6:0:0:0:0, 3+9:0:0:0:0, 4+1:0:0:0:0, 7+4:1:0:0:1, 5+4:0:0:0:0, 3+1:0:0:0:0, 6+5:0:0:0:0, 7+8:0:0:0:1, 6+3:0:0:0:0, 6+7:0:0:0:0, 5+3:0:0:0:0, 3+1:0:0:0:0, 4+1:0:0:0:0, 4+7:0:0:0:0, 5+5:0:0:0:0, 2+4:0:0:0:0, 6+3:0:0:0:0, 3+5:0:0:0:0, 7+6:0:0:0:1, 6+2:0:0:0:1, 6+4:0:0:0:0, 4+4:0:0:0:0, 5+3:0:0:0:0, 4+2:1:0:0:1, 3+1:0:0:0:0, 4+4:0:0:0:0, 7+3:0:0:0:0, 4+2:0:0:0:0, 3+3:0:0:0:0, 5+7:0:0:0:0, 3+2:2:0:0:2, 3+2:0:0:0:0, 4+5:0:0:0:0, 4+5:0:0:0:2, 4+3:0:0:0:0, 4+2:1:0:0:1, 6+6:1:0:0:1, 3+3:0:0:0:0, 7+5:0:0:0:0, 6+3:1:0:0:1, 3+1:0:0:0:0, 6+7:0:0:0:0, 5+3:0:0:0:0, 4+2:0:0:0:0, 3+1:0:0:0:0, 4+7:0:0:0:0, 5+6:0:0:0:0, 3+3:0:0:0:0, 6+4:0:0:0:0, 4+3:0:0:0:0, 6+4:0:0:0:1, 4+2:0:0:0:1, 9+4:0:0:0:0, 4+5:0:0:0:0, 6+4:0:0:0:0, 4+2:1:0:0:1, 5+2:0:0:0:0, 6+5:0:0:0:0, 5+5:0:0:0:0, 3+1:0:0:0:0, 3+3:0:0:0:0, 5+2:0:0:0:0, 4+2:1:0:0:1, 3+5:0:0:0:0, 4+6:0:0:0:0, 2+4:0:0:0:2, 4+3:0:0:0:0, 7+4:1:0:0:1, 3+1:0:0:0:0, 4+3:0:0:0:0, 4+4:0:0:0:0, 5+2:1:0:0:1, 5+3:0:0:0:0, 6+7:0:0:0:0, 5+5:0:0:0:0, 3+1:0:0:0:0, 3+1:0:0:0:0, 4+5:0:0:0:0, 5+6:0:0:0:0, 3+1:0:0:0:0, 4+3:0:0:0:0, 4+5:0:0:0:0, 8+5:0:0:0:2, 4+3:0:0:0:1, 8+6:0:0:0:0, 5+7:0:0:0:0, 4+4:0:0:0:0, 5+3:1:0:0:1, 4+3:0:0:0:0, 6+8:0:0:0:0, 6+5:0:0:0:0, 4+2:0:0:0:0, 6+2:0:0:0:0, 5+7:2:0:0:2, 4+4:2:0:0:2, 3+1:0:0:0:0, 4+4:0:0:0:0, 5+7:0:0:0:0, 5+2:0:0:0:0, 5+2:1:0:0:1, 6+5:0:0:0:0, 5+3:0:0:0:0, 5+2:0:0:0:0, 5+3:0:0:0:1, 3+1:0:0:0:0, 4+9:0:0:0:0, 5+3:0:0:0:0, 4+2:0:0:0:0, 6+3:0:0:0:0, 6+5:0:0:0:0, 7+5:0:0:0:0, 5+3:0:0:0:0, 5+2:0:0:0:0, 4+4:0:0:0:1, 6+3:0:0:0:1, 4+3:0:0:0:1, 6+4:0:0:0:0, 7+5:0:0:0:0, 4+3:0:0:0:0, 5+2:1:0:0:1, 3+2:0:0:0:0, 7+7:0:0:0:0, 5+5:0:0:0:0, 6+4:0:0:0:0, 3+1:0:0:0:0, 8+11:0:0:0:0, 3+1:1:0:0:1, 5+4:0:0:0:0, 4+9:0:0:0:0, 3+7:0:0:0:0, 3+1:0:0:0:0, 6+4:1:0:0:1, 5+7:0:0:0:0, 3+1:0:0:0:0, 4+6:0:0:0:0, 4+2:1:0:0:1, 3+1:0:0:0:0, 5+6:0:0:0:0, 7+6:0:0:0:0, 3+1:0:0:0:0, 5+2:0:0:0:0, 5+8:0:0:0:0, 5+7:0:0:0:0, 3+2:0:0:0:0, 6+2:0:0:0:0, 2+2:0:0:0:0, 7+4:0:0:0:2, 5+3:0:0:0:1, 7+5:0:0:0:0, 4+6:0:0:0:0, 3+4:0:0:0:0, 4+2:0:0:0:0, 878+693:28:0:0:48
Db major (5b), 8+2:1:0:0:0, 5+0:0:0:0:0, 5+1:0:0:0:1, 5+1:0:0:0:1, 5+3:0:0:0:3, 6+1:1:0:0:0, 6+1:0:0:0:1, 4+1:0:0:0:0, 4+1:0:0:0:1, 5+1:0:0:0:0, 5+1:0:0:0:1, 3+0:0:0:0:0, 7+1:1:0:0:0, 6+1:0:0:0:1, 6+0:0:0:0:0, 4+0:0:0:0:0, 8+2:1:0:0:0, 6+0:0:0:0:0, 4+0:0:0:0:0, 5+1:0:0:0:1, 5+3:0:0:0:3, 6+1:1:0:0:0, 4+0:0:0:0:0, 3+0:0:0:0:0, 4+1:0:0:0:1, 5+3:0:0:0:2, 5+6:1:0:0:4, 5+3:0:0:0:0, 8+2:1:0:0:0, 7+1:0:0:0:1, 4+0:0:0:0:0, 5+0:0:0:0:0, 8+2:1:0:0:0, 6+1:0:0:0:0, 4+0:0:0:0:0, 5+1:0:0:0:1, 5+3:0:0:0:3, 8+1:0:0:0:1, 4+0:0:0:0:0, 4+1:0:0:0:0, 4+1:0:0:0:1, 5+0:0:0:0:0, 5+2:0:0:0:2, 6+1:0:0:0:0, 8+2:2:0:0:0, 9+2:0:0:0:2, 5+0:0:0:0:0, 7+1:0:0:0:0, 8+3:0:0:0:0, 5+1:0:0:0:0, 7+1:0:0:0:0, 5+1:0:0:0:1, 5+4:0:0:0:4, 7+2:0:0:0:2, 4+0:0:0:0:0, 4+0:0:0:0:0, 5+2:0:0:0:2, 5+1:0:0:0:0, 5+1:0:0:0:1, 6+1:0:0:0:0, 7+1:0:0:0:0, 7+1:0:0:0:1, 4+0:0:0:0:0, 6+1:0:0:0:0, 5+1:0:0:0:0, 6+0:0:0:0:0, 4+0:0:0:0:0, 7+2:0:0:0:1, 4+1:0:0:0:1, 5+1:0:0:0:0, 5+2:0:0:0:0, 5+2:0:0:0:0, 3+0:0:0:0:0, 4+0:0:0:0:0, 5+4:0:0:0:3, 6+1:0:0:0:0, 7+1:1:0:0:0, 8+3:1:0:0:1, 6+0:0:0:0:0, 7+2:0:0:0:0, 9+2:1:0:0:0, 6+0:0:0:0:0, 5+2:0:0:0:1, 5+1:0:0:0:1, 6+1:0:0:0:1, 6+0:0:0:0:0, 5+0:0:0:0:0, 4+0:0:0:0:0, 4+0:0:0:0:0, 5+1:0:0:0:0, 7+2:0:0:0:1, 5+1:0:0:0:0, 5+1:0:0:0:0, 10+3:0:0:0:1, 5+0:0:0:0:0, 7+1:0:0:0:0, 5+1:0:0:0:0, 6+1:0:0:0:1, 6+2:0:0:0:1, 6+1:0:0:0:1, 5+1:0:0:0:1, 6+0:0:0:0:0, 5+1:0:0:0:0, 5+1:0:0:0:0, 4+1:1:0:0:1, 5+0:0:0:0:0, 5+1:0:0:0:1, 6+1:0:0:0:0, 8+3:2:0:0:1, 6+1:0:0:0:1, 7+1:0:0:0:1, 4+0:0:0:0:0, 8+2:1:0:0:0, 8+2:0:0:0:1, 7+2:0:0:0:1, 6+1:0:0:0:1, 5+1:0:0:0:1, 6+0:0:0:0:0, 4+0:0:0:0:0, 4+0:0:0:0:0, 3+0:0:0:0:0, 5+0:0:0:0:0, 6+3:0:0:0:2, 7+2:0:1:0:1, 5+1:0:0:0:0, 8+3:0:0:0:3, 6+1:0:0:0:0, 5+0:0:0:0:0, 6+2:0:0:0:1, 5+0:0:0:0:0, 4+1:0:0:0:1, 6+2:0:0:0:2, 7+2:0:0:0:2, 7+2:1:0:0:1, 6+2:0:0:0:0, 6+2:0:0:0:0, 3+0:0:0:0:0, 5+0:0:0:0:0, 6+1:0:0:0:1, 5+2:0:0:0:0, 8+1:1:0:0:0, 7+2:1:0:0:1, 6+1:1:0:0:0, 6+1:0:0:0:0, 6+1:0:0:0:0, 5+0:0:0:0:0, 4+0:0:0:0:0, 6+1:0:0:0:1, 6+1:0:0:0:1, 9+2:0:0:0:2, 5+1:0:0:0:1, 3+3:0:0:0:0, 4+0:0:0:0:0, 6+1:0:0:0:1, 6+2:0:0:0:2, 7+2:0:0:0:0, 5+1:0:0:0:0, 7+1:0:0:0:1, 6+2:0:0:0:0, 5+0:0:0:0:0, 6+1:0:0:0:0, 5+0:0:0:0:0, 6+2:0:0:0:1, 5+2:0:0:0:1, 6+3:2:0:0:2, 7+3:0:0:0:1, 9+3:0:0:0:0, 6+1:1:0:0:0, 3+1:0:0:0:1, 5+0:0:0:0:0, 7+3:0:0:0:3, 5+0:0:0:0:0, 6+3:1:0:0:1, 7+3:0:0:0:3, 6+0:0:0:0:0, 5+0:0:0:0:0, 7+2:1:0:0:0, 6+0:0:0:0:0, 6+1:0:0:0:1, 6+3:0:0:0:1, 5+2:0:0:0:2, 7+1:0:0:0:0, 6+1:0:0:0:1, 4+0:0:0:0:0, 3+0:0:0:0:0, 6+1:0:0:0:0, 5+1:0:0:0:1, 7+3:0:0:0:0, 6+1:0:0:0:0, 8+2:0:0:0:1, 5+0:0:0:0:0, 5+0:0:0:0:0, 6+1:0:0:0:0, 1089+228:26:1:0:110
B major (5#), 6+2:1:0:0:1, 4+2:0:0:0:0, 6+6:0:0:0:0, 5+3:0:0:0:0, 4+1:0:0:0:0, 6+2:0:0:0:0, 6+7:0:0:0:0, 3+1:1:0:0:1, 3+3:0:0:0:0, 7+3:0:0:0:0, 4+0:0:0:0:0, 3+0:0:0:0:0, 5+3:1:0:0:1, 3+1:0:0:0:0, 4+6:0:0:0:0, 5+4:0:0:0:0, 6+2:1:0:0:1, 4+2:0:0:0:0, 5+5:0:0:0:0, 5+3:0:0:0:0, 4+1:0:0:0:0, 6+2:0:0:0:0, 5+5:0:0:0:0, 5+5:0:0:0:0, 3+3:0:0:0:0, 7+3:0:0:0:0, 6+1:0:0:0:0, 8+4:0:0:0:1, 6+2:1:0:0:1, 7+5:0:0:0:0, 5+5:0:0:0:0, 5+3:0:0:0:0, 6+2:1:0:0:1, 5+3:0:0:0:0, 5+4:0:0:0:0, 5+3:0:0:0:0, 4+1:0:0:0:0, 6+2:0:0:0:0, 5+4:0:0:0:0, 3+1:1:0:0:1, 3+4:0:0:0:0, 5+6:0:0:0:0, 4+9:0:0:0:0, 5+1:0:0:0:0, 8+4:1:0:0:1, 6+4:0:0:0:0, 4+4:0:0:0:0, 7+5:0:0:0:0, 8+8:0:0:0:1, 7+3:0:0:0:0, 7+7:0:0:0:0, 5+3:0:0:0:0, 4+1:0:0:0:0, 5+1:0:0:0:0, 5+7:0:0:0:0, 6+5:0:0:0:0, 3+4:0:0:0:0, 7+3:0:0:0:0, 4+0:0:0:0:0, 8+4:0:0:0:1, 7+2:0:0:0:1, 7+4:0:0:0:0, 5+4:0:0:0:0, 6+3:0:0:0:0, 5+2:1:0:0:1, 4+1:0:0:0:0, 5+4:0:0:0:0, 7+3:0:0:0:0, 5+2:0:0:0:0, 4+3:0:0:0:0, 6+7:0:0:0:0, 4+2:1:0:0:1, 4+2:0:0:0:0, 5+5:0:0:0:0, 5+5:0:0:0:2, 5+5:0:0:0:0, 5+2:1:0:0:1, 6+3:1:0:0:2, 4+5:0:0:0:0, 8+5:0:0:0:0, 7+3:1:0:0:1, 4+1:0:0:0:0, 7+7:0:0:0:0, 5+3:0:0:0:0, 5+2:0:0:0:0, 4+1:0:0:0:0, 5+7:0:0:0:0, 6+6:0:0:0:0, 4+3:0:0:0:0, 7+4:0:0:0:0, 5+3:0:0:0:0, 7+4:0:0:0:1, 5+2:0:0:0:1, 10+4:0:0:0:0, 5+5:0:0:0:0, 7+4:0:0:0:0, 5+2:1:0:0:1, 6+2:0:0:0:0, 7+5:0:0:0:0, 6+5:0:0:0:0, 4+1:0:0:0:0, 4+3:0:0:0:0, 6+2:0:0:0:0, 4+2:1:0:0:1, 4+5:0:0:0:0, 5+6:0:0:0:0, 3+4:0:0:0:2, 5+4:0:0:0:0, 8+4:1:0:0:1, 3+1:0:0:0:0, 5+5:0:0:0:0, 5+4:0:0:0:0, 6+2:1:0:0:1, 6+3:0:0:0:0, 7+7:0:0:0:0, 6+5:0:0:0:0, 4+1:0:0:0:0, 4+1:0:0:0:0, 5+5:0:0:0:0, 6+6:0:0:0:0, 4+1:0:0:0:0, 5+6:0:0:0:0, 5+1:0:0:0:0, 9+4:0:1:0:2, 5+3:0:0:0:1, 7+6:0:0:0:0, 6+7:0:0:0:0, 5+4:0:0:0:0, 6+3:1:0:0:1, 5+3:0:0:0:0, 7+8:0:0:0:0, 5+5:0:0:0:0, 5+2:0:0:0:0, 7+2:0:0:0:0, 6+7:2:0:0:2, 5+4:2:0:0:2, 4+1:0:0:0:0, 5+4:0:0:0:0, 6+7:0:0:0:0, 6+2:0:0:0:0, 6+2:1:0:0:1, 6+5:1:0:0:1, 6+3:0:0:0:0, 6+2:0:0:0:0, 6+3:0:0:0:1, 4+1:0:0:0:0, 5+9:0:0:0:0, 6+3:0:0:0:0, 5+2:0:0:0:0, 7+3:0:0:0:0, 7+5:0:0:0:0, 7+5:0:0:0:0, 6+3:0:0:0:0, 6+2:0:0:0:0, 5+4:0:0:0:1, 7+3:0:0:0:1, 5+3:0:0:0:1, 7+4:0:0:0:0, 8+5:0:0:0:0, 5+3:0:0:0:0, 6+2:1:0:0:1, 4+2:0:0:0:0, 8+7:0:0:0:0, 5+5:0:0:0:0, 7+4:0:0:0:0, 4+1:0:0:0:0, 9+11:0:0:0:0, 4+1:1:0:0:1, 6+4:0:0:0:0, 5+9:0:0:0:0, 4+5:0:0:0:2, 4+1:0:0:0:0, 7+4:1:0:0:1, 4+7:0:0:0:0, 4+1:0:0:0:0, 5+6:0:0:0:0, 5+2:1:0:0:1, 4+1:0:0:0:0, 6+6:0:0:0:0, 7+6:0:0:0:0, 4+1:0:0:0:0, 6+2:0:0:0:0, 6+8:0:0:0:0, 6+7:0:0:0:0, 4+2:0:0:0:0, 7+2:0:0:0:0, 3+2:0:0:0:0, 8+4:0:0:0:2, 6+3:0:0:0:1, 8+5:0:0:0:0, 5+6:0:0:0:0, 4+4:0:0:0:0, 5+2:0:0:0:0, 1048+694:28:1:0:51
Bb minor (5b), 8+4:0:0:0:0, 5+0:0:0:0:0, 5+1:0:0:0:1, 5+1:0:0:0:1, 5+3:0:0:0:3, 6+2:1:0:0:1, 6+1:0:0:0:1, 4+1:0:0:0:0, 4+1:0:0:0:1, 5+1:0:0:0:0, 5+1:0:0:0:1, 3+0:0:0:0:0, 7+1:1:0:0:0, 6+1:0:0:0:1, 6+0:0:0:0:0, 4+0:0:0:0:0, 8+2:1:0:0:0, 6+0:0:0:0:0, 4+0:0:0:0:0, 5+1:0:0:0:1, 5+3:0:0:0:3, 6+2:1:0:0:1, 4+1:0:0:0:0, 3+0:0:0:0:0, 4+1:0:0:0:1, 5+3:0:0:0:2, 5+6:1:0:0:4, 5+3:0:0:0:0, 8+2:1:0:0:0, 7+1:0:0:0:1, 4+2:0:0:0:0, 5+1:0:0:0:0, 8+4:0:0:0:0, 6+1:0:0:0:0, 4+1:0:0:0:0, 5+1:0:0:0:1, 5+3:0:0:0:3, 8+1:0:0:0:1, 4+0:0:0:0:0, 4+1:0:0:0:0, 4+1:0:0:0:1, 5+2:0:0:0:0, 5+2:0:0:0:2, 6+1:0:0:0:0, 8+2:2:0:0:0, 9+2:0:0:0:2, 5+0:0:0:0:0, 7+1:0:0:0:0, 8+5:0:0:0:0, 5+3:0:0:0:0, 7+3:0:0:0:0, 5+1:0:0:0:1, 5+4:0:0:0:4, 7+2:0:0:0:2, 4+0:0:0:0:0, 4+0:0:0:0:0, 5+2:0:0:0:2, 5+1:0:0:0:0, 5+1:0:0:0:1, 6+1:0:0:0:0, 7+2:0:0:0:0, 7+3:1:0:0:1, 4+1:0:0:0:0, 6+3:1:0:0:1, 5+3:0:0:0:0, 6+1:0:0:0:0, 4+2:0:0:0:0, 7+4:1:0:0:1, 4+1:1:0:0:1, 5+1:1:0:0:1, 5+2:0:0:0:0, 5+1:0:0:0:0, 3+0:0:0:0:0, 4+1:0:0:0:0, 5+7:3:0:0:5, 6+1:0:0:0:0, 7+1:1:0:0:0, 8+3:1:0:0:1, 6+0:0:0:0:0, 7+2:0:0:0:0, 9+2:1:0:0:0, 6+0:0:0:0:0, 5+2:0:0:0:1, 5+3:1:0:0:1, 6+1:0:0:0:1, 6+1:0:0:0:0, 5+2:0:0:0:0, 4+0:0:0:0:0, 4+1:0:0:0:0, 5+2:0:0:0:1, 7+2:0:0:0:1, 5+1:0:0:0:0, 5+4:0:0:0:0, 10+5:2:0:0:2, 5+1:0:0:0:0, 7+2:0:0:0:0, 5+2:0:0:0:0, 6+1:0:0:0:1, 6+2:0:0:0:1, 6+1:0:0:0:1, 5+1:0:0:0:1, 6+0:0:0:0:0, 5+1:0:0:0:0, 5+1:0:0:0:0, 4+1:1:0:0:1, 5+1:0:0:0:0, 5+1:0:0:0:1, 6+1:0:0:0:0, 8+3:2:0:0:1, 6+1:0:0:0:1, 7+1:0:0:0:1, 4+0:0:0:0:0, 8+2:1:0:0:0, 8+2:0:0:0:1, 7+2:0:0:0:1, 6+1:0:0:0:1, 5+1:0:0:0:1, 6+1:0:0:0:0, 4+3:0:0:0:0, 4+0:0:0:0:0, 3+0:0:0:0:0, 5+1:0:0:0:0, 6+3:0:0:0:2, 7+2:0:1:0:1, 5+3:0:0:0:0, 10+4:1:0:0:1, 6+3:0:0:0:0, 5+2:0:0:0:0, 6+3:1:0:0:1, 5+1:0:0:0:0, 4+2:0:0:0:0, 6+2:0:0:0:2, 7+2:0:0:0:2, 7+3:2:0:0:2, 6+4:0:0:0:0, 6+1:0:0:0:0, 3+0:0:0:0:0, 5+2:0:0:0:0, 6+3:1:0:0:1, 5+2:0:0:0:0, 8+1:1:0:0:0, 7+2:1:0:0:1, 6+3:1:0:0:1, 6+4:0:0:0:0, 6+2:0:0:0:0, 5+3:0:0:0:0, 4+1:0:0:0:0, 6+1:0:0:0:1, 6+1:0:0:0:1, 9+3:0:0:0:0, 5+2:0:0:0:0, 3+3:0:0:0:0, 4+0:0:0:0:0, 6+1:0:0:0:1, 6+2:0:0:0:2, 7+2:0:0:0:0, 5+2:0:0:0:0, 7+4:1:0:0:1, 6+3:1:0:0:2, 5+1:0:0:0:0, 6+2:0:0:0:0, 5+3:0:0:0:0, 7+3:0:0:0:2, 5+6:1:0:0:1, 6+3:2:0:0:2, 7+3:0:0:0:1, 9+3:0:0:0:0, 6+2:0:0:0:0, 3+1:0:0:0:0, 5+1:0:0:0:0, 7+3:0:0:0:3, 5+0:0:0:0:0, 6+3:1:0:0:1, 7+3:0:0:0:3, 6+0:0:0:0:0, 5+0:0:0:0:0, 7+2:1:0:0:0, 6+0:0:0:0:0, 6+1:0:0:0:1, 6+3:0:0:0:1, 5+2:0:0:0:2, 7+1:0:0:0:0, 6+1:0:0:0:1, 4+0:0:0:0:0, 3+0:0:0:0:0, 6+2:0:0:0:0, 5+1:0:0:0:1, 7+3:0:0:0:0, 6+3:0:0:0:0, 8+4:1:0:0:1, 5+2:0:0:0:0, 5+0:0:0:0:0, 6+1:0:0:0:0, 1092+336:42:1:0:116
G# minor (5#), 6+5:1:0:0:2, 4+2:0:0:0:0, 6+2:0:0:0:0, 5+2:0:0:0:0, 4+1:0:0:0:0, 6+2:0:0:0:0, 6+2:0:0:0:0, 3+3:0:0:0:0, 3+0:0:0:0:0, 7+3:0:0:0:0, 4+0:0:0:0:0, 3+0:0:0:0:0, 5+3:1:0:0:1, 3+1:0:0:0:0, 4+6:0:0:0:0, 5+4:0:0:0:0, 6+2:1:0:0:1, 4+2:0:0:0:0, 5+1:0:0:0:0, 5+2:0:0:0:0, 4+1:0:0:0:0, 6+2:0:0:0:0, 5+2:0:0:0:0, 5+1:0:0:0:0, 3+0:0:0:0:0, 7+3:0:0:0:0, 6+1:0:0:0:0, 8+4:0:0:0:1, 6+2:1:0:0:1, 7+3:0:0:0:0, 5+1:0:0:0:0, 5+2:0:0:0:0, 6+2:1:0:0:1, 5+5:0:0:0:0, 5+2:0:0:0:0, 5+1:0:0:0:0, 4+1:0:0:0:0, 6+2:0:0:0:0, 5+4:0:0:0:0, 3+1:1:0:0:1, 3+4:0:0:0:0, 5+6:0:0:0:0, 4+0:0:0:0:0, 5+2:0:0:0:0, 8+4:1:0:0:1, 6+4:0:0:0:0, 4+4:0:0:0:0, 7+5:0:0:0:0, 8+8:0:0:0:1, 7+3:0:0:0:0, 7+4:0:0:0:0, 5+1:0:0:0:0, 4+1:0:0:0:0, 5+1:0:0:0:0, 5+1:0:0:0:0, 6+5:0:0:0:0, 3+4:0:0:0:0, 7+3:0:0:0:0, 4+0:0:0:0:0, 8+4:0:0:0:1, 7+2:0:0:0:1, 7+3:0:0:0:0, 5+1:0:0:0:0, 6+5:0:0:0:0, 5+6:0:0:0:1, 4+1:0:0:0:0, 5+4:0:0:0:0, 7+4:0:0:0:0, 5+1:0:0:0:0, 4+3:0:0:0:0, 6+4:0:0:0:1, 4+5:0:0:0:0, 4+1:0:0:0:0, 5+2:0:0:0:0, 5+5:0:0:0:2, 5+5:0:0:0:0, 5+2:1:0:0:1, 6+3:1:0:0:2, 4+5:0:0:0:0, 8+5:0:0:0:0, 7+3:1:0:0:1, 4+1:0:0:0:0, 7+5:0:0:0:1, 5+1:0:0:0:0, 5+2:0:0:0:0, 4+1:0:0:0:0, 5+2:0:0:0:0, 6+1:0:0:0:0, 4+0:0:0:0:0, 7+4:0:0:0:0, 5+3:0:0:0:0, 7+4:0:0:0:1, 5+2:0:0:0:1, 10+5:0:0:0:0, 5+2:0:0:0:0, 7+4:0:0:0:0, 5+6:0:0:0:1, 6+3:0:0:0:0, 7+3:0:0:0:0, 6+3:0:0:0:0, 4+1:0:0:0:0, 4+3:0:0:0:0, 6+2:0:0:0:0, 4+5:0:0:0:0, 4+1:0:0:0:0, 5+2:0:0:0:0, 3+4:0:0:0:2, 5+4:0:0:0:0, 8+4:1:0:0:1, 3+1:0:0:0:0, 5+5:0:0:0:0, 5+4:0:0:0:0, 6+2:1:0:0:1, 6+3:0:0:0:0, 7+3:0:0:0:0, 6+2:0:0:0:0, 4+1:0:0:0:0, 4+1:0:0:0:0, 5+1:0:0:0:0, 6+2:0:0:0:0, 4+2:0:0:0:0, 5+3:0:0:0:0, 5+1:0:0:0:0, 9+4:0:1:0:2, 5+3:0:0:0:1, 7+5:0:0:0:2, 6+3:0:0:0:0, 5+3:0:0:0:0, 6+3:0:0:0:1, 5+4:0:0:0:0, 6+4:0:0:0:1, 5+3:0:0:0:1, 5+2:0:0:0:0, 7+2:0:0:0:0, 8+3:0:0:0:0, 5+5:0:0:0:0, 4+1:0:0:0:0, 5+2:0:0:0:0, 6+1:0:0:0:0, 6+2:0:0:0:0, 6+2:1:0:0:1, 6+4:1:0:0:1, 6+3:0:0:0:0, 6+2:0:0:0:0, 6+3:0:0:0:1, 4+1:0:0:0:0, 5+1:0:0:0:0, 6+1:0:0:0:0, 5+2:0:0:0:0, 7+3:0:0:0:0, 6+3:0:0:0:1, 7+5:0:0:0:0, 6+3:0:0:0:0, 6+2:0:0:0:0, 5+1:0:0:0:1, 7+3:0:0:0:1, 5+3:0:0:0:1, 7+2:0:0:0:0, 8+4:0:0:0:0, 5+2:0:0:0:0, 6+4:0:0:0:1, 4+2:0:0:0:0, 8+5:0:0:0:1, 5+2:0:0:0:0, 7+2:0:0:0:0, 4+1:0:0:0:0, 9+3:0:0:0:0, 4+1:1:0:0:1, 5+4:0:0:0:1, 5+9:0:0:0:0, 4+5:0:0:0:2, 4+1:0:0:0:0, 7+4:1:0:0:1, 4+3:0:0:0:0, 4+7:0:0:0:0, 5+6:0:0:0:0, 5+2:1:0:0:1, 4+1:0:0:0:0, 6+2:0:0:0:0, 7+2:0:0:0:0, 4+1:0:0:0:0, 6+2:0:0:0:0, 6+2:0:0:0:1, 6+3:0:0:0:0, 4+2:0:0:0:0, 7+2:0:0:0:0, 3+2:0:0:0:0, 8+4:0:0:0:2, 6+3:0:0:0:1, 8+4:0:0:0:0, 5+1:0:0:0:0, 4+4:0:0:0:0, 5+2:0:0:0:0, 1047+524:17:1:0:55
Gb major (6b), 9+3:0:0:0:0, 6+0:0:0:0:0, 6+1:0:0:0:1, 6+1:0:0:0:1, 6+3:0:0:0:3, 7+1:1:0:0:0, 7+1:0:0:0:1, 5+1:0:0:0:0, 5+1:0:0:0:1, 6+1:0:0:0:0, 6+1:0:0:0:1, 4+0:0:0:0:0, 8+1:1:0:0:0, 6+1:0:0:0:1, 7+0:0:0:0:0, 5+0:0:0:0:0, 9+2:1:0:0:0, 7+0:0:0:0:0, 5+0:0:0:0:0, 6+1:0:0:0:1, 6+3:0:0:0:3, 7+1:1:0:0:0, 5+0:0:0:0:0, 4+0:0:0:0:0, 5+1:0:0:0:1, 6+1:0:0:0:0, 6+2:0:0:0:1, 6+2:0:0:0:0, 9+3:0:0:0:0, 8+1:0:0:0:1, 5+0:0:0:0:0, 6+0:0:0:0:0, 9+4:0:0:0:0, 7+1:0:0:0:0, 5+0:0:0:0:0, 6+1:0:0:0:1, 6+3:0:0:0:3, 9+3:0:0:0:0, 5+0:0:0:0:0, 5+1:0:0:0:0, 5+1:0:0:0:1, 6+0:0:0:0:0, 6+2:0:0:0:2, 7+1:0:0:0:0, 9+2:2:0:0:0, 9+2:0:0:0:2, 6+0:0:0:0:0, 8+1:0:0:0:0, 9+3:0:0:0:0, 6+1:0:0:0:0, 8+1:0:0:0:0, 6+1:0:0:0:1, 6+4:0:0:0:4, 8+2:0:0:0:2, 5+0:0:0:0:0, 5+0:0:0:0:0, 6+2:0:0:0:2, 6+1:0:0:0:0, 6+1:0:0:0:1, 7+1:0:0:0:0, 8+1:0:0:0:0, 8+1:0:0:0:1, 5+0:0:0:0:0, 7+1:0:0:0:0, 6+1:0:0:0:0, 7+1:0:0:0:0, 5+0:0:0:0:0, 8+2:0:0:0:1, 5+1:0:0:0:1, 6+1:0:0:0:0, 6+2:0:0:0:0, 6+2:0:0:0:0, 4+0:0:0:0:0, 5+0:0:0:0:0, 5+4:0:0:0:3, 7+1:0:0:0:0, 8+1:1:0:0:0, 8+3:1:0:0:1, 7+0:0:0:0:0, 8+2:0:0:0:0, 10+2:1:0:0:0, 7+0:0:0:0:0, 6+2:0:0:0:0, 6+1:0:0:0:1, 7+1:0:0:0:1, 7+1:0:0:0:0, 6+0:0:0:0:0, 5+0:0:0:0:0, 5+0:0:0:0:0, 6+1:0:0:0:0, 7+2:0:0:0:1, 6+1:0:0:0:0, 6+1:0:0:0:0, 11+3:0:0:0:1, 6+0:0:0:0:0, 8+1:0:0:0:0, 6+1:0:0:0:0, 7+1:0:0:0:1, 7+2:0:0:0:1, 7+1:0:0:0:1, 6+1:0:0:0:1, 7+2:0:0:0:0, 6+1:0:0:0:0, 6+1:0:0:0:0, 5+1:0:0:0:1, 6+0:0:0:0:0, 5+1:0:0:0:1, 7+1:0:0:0:0, 9+3:2:0:0:1, 6+1:0:0:0:1, 8+1:0:0:0:1, 5+0:0:0:0:0, 9+2:1:0:0:0, 9+2:0:0:0:1, 8+2:0:0:0:1, 7+1:0:0:0:1, 6+1:0:0:0:1, 7+1:0:0:0:0, 5+0:0:0:0:0, 5+0:0:0:0:0, 4+0:0:0:0:0, 6+0:0:0:0:0, 7+3:0:0:0:2, 8+2:0:1:0:1, 6+1:0:0:0:0, 9+3:0:0:0:3, 7+1:0:0:0:0, 6+0:0:0:0:0, 7+2:0:0:0:1, 6+0:0:0:0:0, 5+1:0:0:0:1, 7+2:0:0:0:2, 8+2:0:0:0:2, 8+2:1:0:0:1, 7+2:0:0:0:0, 7+2:0:0:0:0, 4+0:0:0:0:0, 6+0:0:0:0:0, 7+1:0:0:0:1, 6+2:0:0:0:0, 9+2:0:0:0:0, 8+2:1:0:0:1, 7+1:1:0:0:0, 7+1:0:0:0:0, 7+1:0:0:0:0, 6+0:0:0:0:0, 5+0:0:0:0:0, 7+1:0:0:0:1, 7+1:0:0:0:1, 10+3:0:0:0:0, 6+1:0:0:0:1, 4+3:0:0:0:0, 5+0:0:0:0:0, 7+1:0:0:0:1, 7+2:0:0:0:2, 8+2:0:0:0:0, 6+1:0:0:0:0, 8+1:0:0:0:1, 7+2:0:0:0:0, 6+0:0:0:0:0, 7+1:0:0:0:0, 6+0:0:0:0:0, 7+2:0:0:0:1, 6+2:0:0:0:1, 7+3:2:0:0:2, 8+3:0:0:0:1, 10+3:0:0:0:0, 7+2:0:0:0:0, 4+1:0:0:0:1, 6+0:0:0:0:0, 7+3:0:0:0:3, 6+0:0:0:0:0, 7+3:1:0:0:1, 8+3:0:0:0:3, 7+0:0:0:0:0, 6+0:0:0:0:0, 8+2:1:0:0:0, 7+0:0:0:0:0, 7+1:0:0:0:1, 7+3:0:0:0:1, 6+2:0:0:0:2, 7+3:0:0:0:1, 7+1:0:0:0:1, 5+0:0:0:0:0, 4+0:0:0:0:0, 7+1:0:0:0:0, 5+1:0:0:0:1, 8+3:0:0:0:0, 7+1:0:0:0:0, 9+2:0:0:0:1, 6+0:0:0:0:0, 6+0:0:0:0:0, 7+1:0:0:0:0, 1272+237:19:1:0:102
F# major (6#), 7+5:1:0:0:2, 5+2:0:0:0:0, 6+2:0:0:0:0, 6+2:0:0:0:0, 5+3:0:0:0:0, 7+2:0:0:0:0, 7+2:0:0:0:0, 4+3:0:0:0:0, 4+3:0:0:0:0, 7+3:0:0:0:1, 5+3:0:0:0:0, 4+1:0:0:0:0, 6+3:1:0:0:1, 4+1:0:0:0:0, 5+1:0:0:0:0, 5+2:0:0:0:0, 7+2:1:0:0:1, 5+2:0:0:0:0, 5+1:0:0:0:0, 6+2:0:0:0:0, 5+3:0:0:0:0, 7+2:0:0:0:0, 5+2:0:0:0:0, 6+5:0:0:0:0, 4+3:0:0:0:0, 7+3:0:0:0:1, 6+1:0:0:0:1, 9+4:0:0:0:1, 7+2:1:0:0:1, 8+3:0:0:0:0, 5+1:0:0:0:0, 6+2:0:0:0:0, 7+2:1:0:0:1, 6+5:0:0:0:0, 5+2:0:0:0:0, 6+1:0:0:0:0, 5+3:0:0:0:0, 7+2:0:0:0:0, 5+2:0:0:0:0, 4+3:0:0:0:0, 4+4:0:0:0:0, 6+2:0:0:0:0, 5+4:0:0:0:0, 6+2:0:0:0:0, 9+4:1:0:0:1, 7+4:0:0:0:0, 5+1:0:0:0:0, 8+6:0:0:0:0, 9+8:0:0:0:1, 8+3:0:0:0:0, 8+4:0:0:0:0, 6+1:0:0:0:0, 5+4:0:0:0:0, 6+1:0:0:0:0, 5+1:0:0:0:0, 7+5:0:0:0:0, 4+4:0:0:0:0, 7+3:0:0:0:1, 5+5:0:0:0:0, 9+6:0:0:0:1, 8+2:0:0:0:1, 8+3:0:0:0:0, 5+1:0:0:0:0, 7+5:0:0:0:0, 6+6:0:0:0:1, 5+1:0:0:0:0, 5+4:0:0:0:0, 8+4:0:0:0:0, 6+1:0:0:0:0, 5+3:0:0:0:0, 7+4:0:0:0:1, 5+5:0:0:0:0, 5+1:0:0:0:0, 5+2:0:0:0:0, 5+3:1:0:0:1, 6+1:0:0:0:0, 6+2:1:0:0:1, 7+3:1:0:0:2, 5+3:0:0:0:0, 9+4:0:0:0:0, 8+3:1:0:0:1, 5+1:0:0:0:0, 8+5:0:0:0:1, 6+1:0:0:0:0, 6+1:0:0:0:0, 5+1:0:0:0:0, 6+2:0:0:0:0, 7+6:0:0:0:0, 5+0:0:0:0:0, 7+4:0:0:0:1, 6+3:0:0:0:0, 8+4:0:0:0:1, 6+2:0:0:0:1, 11+5:0:0:0:0, 6+2:0:0:0:0, 8+4:0:0:0:0, 6+6:0:0:0:1, 7+3:0:0:0:0, 7+3:0:0:0:0, 7+3:0:0:0:0, 5+1:0:0:0:0, 5+3:0:0:0:0, 6+2:0:0:0:0, 5+5:0:0:0:0, 5+1:0:0:0:0, 6+2:0:0:0:0, 4+2:0:0:0:0, 6+1:0:0:0:0, 9+4:1:0:0:1, 4+1:0:0:0:0, 6+3:0:0:0:0, 5+2:0:0:0:0, 7+2:1:0:0:1, 7+3:0:0:0:0, 8+3:0:0:0:0, 7+2:0:0:0:0, 5+1:0:0:0:0, 5+1:0:0:0:0, 5+1:0:0:0:0, 7+6:0:0:0:0, 5+1:0:0:0:0, 6+3:0:0:0:0, 6+5:0:0:0:0, 10+5:0:0:0:2, 6+3:0:0:0:1, 8+5:0:0:0:2, 7+3:0:0:0:0, 6+3:0:0:0:0, 7+3:0:0:0:1, 6+4:0:0:0:0, 6+4:0:0:0:1, 6+3:0:0:0:1, 6+2:0:0:0:0, 8+2:0:0:0:0, 9+3:0:0:0:0, 6+5:0:0:0:0, 5+1:0:0:0:0, 6+2:0:0:0:0, 7+1:0:0:0:0, 7+2:0:0:0:0, 7+2:1:0:0:1, 7+4:1:0:0:1, 7+3:0:0:0:0, 7+2:0:0:0:0, 7+3:0:0:0:1, 5+3:0:0:0:0, 5+1:0:0:0:0, 7+1:0:0:0:0, 6+1:0:0:0:0, 8+3:0:0:0:0, 7+3:0:0:0:1, 7+5:0:0:0:0, 7+3:0:0:0:0, 7+2:0:0:0:0, 6+4:0:0:0:1, 8+3:0:0:0:1, 6+3:0:0:0:1, 8+2:0:0:0:0, 8+4:0:0:0:1, 6+2:0:0:0:0, 7+4:0:0:0:1, 5+3:0:0:0:0, 8+5:0:0:0:2, 6+2:0:0:0:0, 8+2:0:0:0:0, 5+1:0:0:0:0, 10+3:0:0:0:0, 5+1:1:0:0:1, 6+4:0:0:0:1, 6+1:0:0:0:0, 5+3:0:0:0:0, 5+1:0:0:0:0, 8+4:1:0:0:1, 5+3:0:0:0:0, 5+1:0:0:0:0, 6+2:0:0:0:0, 6+2:1:0:0:1, 5+1:0:0:0:0, 7+2:0:0:0:0, 8+2:0:0:0:0, 5+2:0:0:0:0, 7+2:0:0:0:0, 7+2:0:0:0:1, 7+7:0:0:0:0, 5+2:0:0:0:0, 8+2:0:0:0:0, 4+2:0:0:0:0, 9+4:0:0:0:2, 7+3:0:0:0:1, 9+4:0:0:0:0, 6+1:0:0:0:0, 5+3:0:0:0:0, 6+3:0:0:0:0, 1214+529:17:0:0:56
Eb minor (6b), 9+3:0:0:0:0, 6+0:0:0:0:0, 6+1:0:0:0:1, 6+1:0:0:0:1, 6+3:0:0:0:3, 7+1:1:0:0:0, 7+1:0:0:0:1, 5+1:0:0:0:0, 5+1:0:0:0:1, 6+1:0:0:0:0, 6+1:0:0:0:1, 4+0:0:0:0:0, 8+1:1:0:0:0, 6+1:0:0:0:1, 7+0:0:0:0:0, 5+0:0:0:0:0, 9+2:1:0:0:0, 7+0:0:0:0:0, 5+0:0:0:0:0, 6+1:0:0:0:1, 6+3:0:0:0:3, 7+1:1:0:0:0, 5+0:0:0:0:0, 4+0:0:0:0:0, 5+1:0:0:0:1, 6+1:0:0:0:0, 6+2:0:0:0:1, 6+2:0:0:0:0, 9+3:0:0:0:0, 8+1:0:0:0:1, 5+0:0:0:0:0, 6+0:0:0:0:0, 9+4:0:0:0:0, 7+1:0:0:0:0, 5+0:0:0:0:0, 6+1:0:0:0:1, 6+3:0:0:0:3, 9+3:0:0:0:0, 5+0:0:0:0:0, 5+1:0:0:0:0, 5+1:0:0:0:1, 6+0:0:0:0:0, 6+2:0:0:0:2, 7+1:0:0:0:0, 9+2:2:0:0:0, 9+2:0:0:0:2, 6+0:0:0:0:0, 8+1:0:0:0:0, 9+3:0:0:0:0, 6+1:0:0:0:0, 8+1:0:0:0:0, 6+1:0:0:0:1, 6+4:0:0:0:4, 8+2:0:0:0:2, 5+0:0:0:0:0, 5+0:0:0:0:0, 6+2:0:0:0:2, 6+1:0:0:0:0, 6+1:0:0:0:1, 7+1:0:0:0:0, 8+1:0:0:0:0, 8+1:0:0:0:1, 5+0:0:0:0:0, 7+1:0:0:0:0, 6+1:0:0:0:0, 7+1:0:0:0:0, 5+0:0:0:0:0, 8+2:0:0:0:1, 5+1:0:0:0:1, 6+1:0:0:0:0, 6+2:0:0:0:0, 6+2:0:0:0:0, 4+0:0:0:0:0, 5+0:0:0:0:0, 5+4:0:0:0:3, 7+1:0:0:0:0, 8+1:1:0:0:0, 8+3:1:0:0:1, 7+0:0:0:0:0, 8+2:0:0:0:0, 10+2:1:0:0:0, 7+0:0:0:0:0, 6+2:0:0:0:1, 6+1:0:0:0:1, 7+1:0:0:0:1, 7+1:0:0:0:0, 6+0:0:0:0:0, 5+0:0:0:0:0, 5+0:0:0:0:0, 6+1:0:0:0:0, 7+2:0:0:0:1, 6+1:0:0:0:0, 6+1:0:0:0:0, 11+3:0:0:0:1, 6+0:0:0:0:0, 8+1:0:0:0:0, 6+1:0:0:0:0, 7+1:0:0:0:1, 7+2:0:0:0:1, 7+1:0:0:0:1, 6+1:0:0:0:1, 7+2:0:0:0:0, 6+1:0:0:0:0, 6+1:0:0:0:0, 5+1:0:0:0:1, 6+0:0:0:0:0, 5+1:0:0:0:1, 7+1:0:0:0:0, 9+3:2:0:0:1, 6+1:0:0:0:1, 8+1:0:0:0:1, 5+0:0:0:0:0, 9+2:1:0:0:0, 9+2:0:0:0:1, 8+2:0:0:0:1, 7+1:0:0:0:1, 6+1:0:0:0:1, 7+1:0:0:0:0, 5+0:0:0:0:0, 5+0:0:0:0:0, 4+0:0:0:0:0, 6+0:0:0:0:0, 7+3:0:0:0:2, 8+2:0:1:0:1, 6+1:0:0:0:0, 9+3:0:0:0:3, 7+1:0:0:0:0, 6+0:0:0:0:0, 7+2:0:0:0:1, 6+0:0:0:0:0, 5+1:0:0:0:1, 7+2:0:0:0:2, 8+2:0:0:0:2, 8+2:1:0:0:1, 7+2:0:0:0:0, 7+2:0:0:0:0, 4+0:0:0:0:0, 6+0:0:0:0:0, 7+1:0:0:0:1, 6+2:0:0:0:0, 9+2:0:0:0:0, 8+2:1:0:0:1, 7+1:1:0:0:0, 7+1:0:0:0:0, 7+1:0:0:0:0, 6+0:0:0:0:0, 5+0:0:0:0:0, 7+1:0:0:0:1, 7+1:0:0:0:1, 10+3:0:0:0:0, 6+1:0:0:0:1, 4+3:0:0:0:0, 5+0:0:0:0:0, 7+1:0:0:0:1, 7+2:0:0:0:2, 8+2:0:0:0:0, 6+1:0:0:0:0, 8+1:0:0:0:1, 7+2:0:0:0:0, 6+0:0:0:0:0, 7+1:0:0:0:0, 6+0:0:0:0:0, 7+2:0:0:0:1, 6+2:0:0:0:1, 7+3:2:0:0:2, 8+3:0:0:0:1, 10+3:0:0:0:0, 7+2:0:0:0:0, 4+1:0:0:0:1, 6+0:0:0:0:0, 7+3:0:0:0:3, 6+0:0:0:0:0, 7+3:1:0:0:1, 8+3:0:0:0:3, 7+0:0:0:0:0, 6+0:0:0:0:0, 8+2:1:0:0:0, 7+0:0:0:0:0, 7+1:0:0:0:1, 7+3:0:0:0:1, 6+2:0:0:0:2, 7+3:0:0:0:1, 7+1:0:0:0:1, 5+0:0:0:0:0, 4+0:0:0:0:0, 7+1:0:0:0:0, 5+1:0:0:0:1, 8+3:0:0:0:0, 7+1:0:0:0:0, 9+2:0:0:0:1, 6+0:0:0:0:0, 6+0:0:0:0:0, 7+1:0:0:0:0, 1272+237:19:1:0:103
D# minor (6#), 7+2:1:0:0:1, 5+2:0:0:0:0, 6+2:0:0:0:0, 6+2:0:0:0:0, 5+3:0:0:0:0, 7+2:0:0:0:0, 7+2:0:0:0:0, 4+3:0:0:0:0, 4+0:0:0:0:0, 7+3:0:0:0:1, 5+0:0:0:0:0, 4+1:0:0:0:0, 6+3:1:0:0:1, 4+1:0:0:0:0, 5+1:0:0:0:0, 5+2:0:0:0:0, 7+2:1:0:0:1, 5+2:0:0:0:0, 5+1:0:0:0:0, 6+2:0:0:0:0, 5+3:0:0:0:0, 7+2:0:0:0:0, 5+2:0:0:0:0, 6+5:0:0:0:0, 4+0:0:0:0:0, 7+3:0:0:0:1, 6+1:0:0:0:1, 9+4:0:0:0:1, 7+2:1:0:0:1, 8+3:0:0:0:0, 5+1:0:0:0:0, 6+2:0:0:0:0, 7+2:1:0:0:1, 6+5:0:0:0:0, 5+2:0:0:0:0, 6+1:0:0:0:0, 5+3:0:0:0:0, 7+2:0:0:0:0, 5+2:0:0:0:0, 4+3:0:0:0:0, 4+0:0:0:0:0, 6+2:0:0:0:0, 5+0:0:0:0:0, 6+2:0:0:0:0, 9+4:1:0:0:1, 7+4:0:0:0:0, 5+1:0:0:0:0, 8+6:0:0:0:0, 9+8:0:0:0:1, 8+3:0:0:0:0, 8+4:0:0:0:0, 6+1:0:0:0:0, 5+4:0:0:0:0, 6+1:0:0:0:0, 5+1:0:0:0:0, 7+5:0:0:0:0, 4+1:0:0:0:0, 7+3:0:0:0:1, 5+0:0:0:0:0, 9+6:0:0:0:1, 8+2:0:0:0:1, 8+3:0:0:0:0, 5+1:0:0:0:0, 7+5:0:0:0:0, 6+6:0:0:0:1, 5+1:0:0:0:0, 5+4:0:0:0:0, 8+4:0:0:0:0, 6+1:0:0:0:0, 5+3:0:0:0:0, 7+4:0:0:0:1, 5+5:0:0:0:0, 5+1:0:0:0:0, 5+2:0:0:0:0, 5+3:1:0:0:1, 6+1:0:0:0:0, 6+2:1:0:0:1, 7+3:1:0:0:2, 5+3:0:0:0:0, 9+4:0:0:0:0, 8+3:1:0:0:1, 5+1:0:0:0:0, 8+5:0:0:0:1, 6+1:0:0:0:0, 6+1:0:0:0:0, 5+1:0:0:0:0, 6+2:0:0:0:0, 7+6:0:0:0:0, 5+0:0:0:0:0, 7+4:0:0:0:1, 6+3:0:0:0:0, 8+4:0:0:0:1, 6+2:0:0:0:1, 11+5:0:0:0:0, 6+2:0:0:0:0, 8+4:0:0:0:0, 6+6:0:0:0:1, 7+3:0:0:0:0, 7+3:0:0:0:0, 7+3:0:0:0:0, 5+1:0:0:0:0, 5+3:0:0:0:0, 6+2:0:0:0:0, 5+5:0:0:0:0, 5+1:0:0:0:0, 6+2:0:0:0:0, 4+2:0:0:0:0, 6+1:0:0:0:0, 9+4:1:0:0:1, 4+1:0:0:0:0, 6+3:0:0:0:0, 5+2:0:0:0:0, 7+2:1:0:0:1, 7+3:0:0:0:0, 8+3:0:0:0:0, 7+2:0:0:0:0, 5+1:0:0:0:0, 5+1:0:0:0:0, 5+1:0:0:0:0, 7+6:0:0:0:0, 5+1:0:0:0:0, 6+3:0:0:0:0, 6+1:0:0:0:0, 10+5:0:0:0:2, 6+3:0:0:0:1, 8+5:0:0:0:2, 7+3:0:0:0:0, 6+3:0:0:0:0, 7+3:0:0:0:1, 6+4:0:0:0:0, 6+4:0:0:0:1, 6+3:0:0:0:1, 6+2:0:0:0:0, 8+2:0:0:0:0, 9+3:0:0:0:0, 6+5:0:0:0:0, 5+1:0:0:0:0, 6+2:0:0:0:0, 7+1:0:0:0:0, 7+2:0:0:0:0, 7+2:1:0:0:1, 7+5:1:0:0:1, 7+3:0:0:0:0, 7+2:0:0:0:0, 7+3:0:0:0:1, 5+3:0:0:0:0, 5+1:0:0:0:0, 7+1:0:0:0:0, 6+1:0:0:0:0, 8+3:0:0:0:0, 7+3:0:0:0:1, 7+5:0:0:0:0, 7+3:0:0:0:0, 7+2:0:0:0:0, 6+1:0:0:0:1, 8+3:0:0:0:1, 6+3:0:0:0:1, 8+2:0:0:0:0, 8+4:0:0:0:1, 6+2:0:0:0:0, 7+4:0:0:0:1, 5+3:0:0:0:0, 8+5:0:0:0:2, 6+2:0:0:0:0, 8+2:0:0:0:0, 5+1:0:0:0:0, 10+3:0:0:0:0, 5+1:1:0:0:1, 6+4:0:0:0:1, 6+1:0:0:0:0, 5+3:0:0:0:0, 5+1:0:0:0:0, 8+4:1:0:0:1, 5+7:0:0:0:0, 5+1:0:0:0:0, 6+2:0:0:0:0, 6+2:1:0:0:1, 5+1:0:0:0:0, 7+2:0:0:0:0, 8+2:0:0:0:0, 5+2:0:0:0:0, 7+2:0:0:0:0, 7+2:0:0:0:1, 7+7:0:0:0:0, 5+2:0:0:0:0, 8+2:0:0:0:0, 4+2:0:0:0:0, 9+4:0:0:0:2, 7+3:0:0:0:1, 9+4:0:0:0:0, 6+1:0:0:0:0, 5+3:0:0:0:0, 6+3:0:0:0:0, 1214+499:17:0:0:55
Cb major (7b), 9+3:0:0:0:0, 6+0:0:0:0:0, 7+1:0:0:0:1, 7+1:0:0:0:1, 6+3:0:0:0:3, 7+2:1:0:0:1, 8+1:0:0:0:1, 5+1:0:0:0:0, 6+1:0:0:0:1, 7+1:0:0:0:0, 7+1:0:0:0:1, 4+0:0:0:0:0, 8+1:1:0:0:0, 6+1:0:0:0:0, 7+0:0:0:0:0, 6+0:0:0:0:0, 9+2:1:0:0:0, 7+0:0:0:0:0, 6+0:0:0:0:0, 7+1:0:0:0:1, 6+3:0:0:0:3, 7+2:1:0:0:1, 6+1:0:0:0:0, 5+0:0:0:0:0, 6+1:0:0:0:1, 7+1:0:0:0:0, 7+2:0:0:0:1, 7+2:0:0:0:0, 9+3:0:0:0:0, 9+1:0:0:0:1, 6+0:0:0:0:0, 7+0:0:0:0:0, 9+4:0:0:0:0, 7+1:0:0:0:0, 6+0:0:0:0:0, 7+1:0:0:0:1, 6+3:0:0:0:3, 9+3:0:0:0:0, 6+0:0:0:0:0, 5+1:0:0:0:0, 6+1:0:0:0:1, 7+0:0:0:0:0, 7+2:0:0:0:2, 7+1:0:0:0:0, 9+2:2:0:0:0, 9+2:0:0:0:1, 6+0:0:0:0:0, 9+1:0:0:0:0, 10+3:0:0:0:0, 7+1:0:0:0:0, 9+1:0:0:0:0, 7+1:0:0:0:1, 6+4:0:0:0:4, 8+2:0:0:0:2, 6+0:0:0:0:0, 6+0:0:0:0:0, 7+2:0:0:0:2, 7+1:0:0:0:0, 7+1:0:0:0:1, 8+1:0:0:0:0, 9+1:0:0:0:0, 9+1:0:0:0:1, 6+0:0:0:0:0, 8+1:0:0:0:0, 7+1:0:0:0:0, 7+1:0:0:0:0, 6+0:0:0:0:0, 9+2:0:0:0:1, 6+1:0:0:0:1, 6+1:0:0:0:0, 7+2:0:0:0:0, 6+2:0:0:0:0, 5+0:0:0:0:0, 6+0:0:0:0:0, 6+4:0:0:0:3, 7+1:0:0:0:0, 8+1:1:0:0:0, 8+3:1:0:0:1, 7+0:0:0:0:0, 9+2:0:0:0:0, 10+2:1:0:0:0, 7+0:0:0:0:0, 7+2:0:0:0:0, 7+1:0:0:0:1, 7+1:0:0:0:1, 7+1:0:0:0:0, 7+0:0:0:0:0, 6+0:0:0:0:0, 6+0:0:0:0:0, 7+1:0:0:0:0, 8+2:0:0:0:1, 7+1:0:0:0:0, 7+1:0:0:0:0, 12+3:0:0:0:1, 7+0:0:0:0:0, 9+1:0:0:0:0, 7+1:0:0:0:0, 8+1:0:0:0:1, 8+2:0:0:0:1, 8+1:0:0:0:1, 6+1:0:0:0:1, 7+2:0:0:0:0, 7+1:0:0:0:0, 6+1:0:0:0:0, 6+1:1:0:0:1, 7+0:0:0:0:0, 6+1:0:0:0:1, 7+1:0:0:0:0, 9+3:2:0:0:1, 6+1:0:0:0:0, 8+1:0:0:0:1, 6+0:0:0:0:0, 9+2:1:0:0:0, 9+2:0:0:0:1, 9+2:0:0:0:1, 8+1:0:0:0:1, 6+1:0:0:0:1, 7+1:0:0:0:0, 6+0:0:0:0:0, 6+0:0:0:0:0, 5+0:0:0:0:0, 7+0:0:0:0:0, 8+3:0:0:0:2, 9+2:0:1:0:1, 7+1:0:0:0:0, 10+3:0:0:0:3, 8+1:0:0:0:0, 7+0:0:0:0:0, 8+2:0:0:0:1, 7+0:0:0:0:0, 6+1:0:0:0:1, 8+2:0:0:0:2, 8+2:0:0:0:2, 8+3:2:0:0:2, 8+2:0:0:0:0, 7+2:0:0:0:0, 5+0:0:0:0:0, 7+0:0:0:0:0, 8+1:0:0:0:1, 6+2:0:0:0:0, 9+2:0:0:0:0, 8+2:1:0:0:1, 7+1:1:0:0:0, 8+1:0:0:0:0, 8+1:0:0:0:0, 6+0:0:0:0:0, 6+0:0:0:0:0, 8+1:0:0:0:1, 7+1:0:0:0:1, 10+3:0:0:0:0, 7+2:0:0:0:0, 5+3:0:0:0:0, 6+0:0:0:0:0, 8+1:0:0:0:1, 8+2:0:0:0:2, 9+2:0:0:0:0, 7+1:0:0:0:0, 9+1:0:0:0:1, 8+2:0:0:0:0, 7+0:0:0:0:0, 8+1:0:0:0:0, 6+0:0:0:0:0, 8+2:0:0:0:1, 7+2:0:0:0:1, 7+3:2:0:0:2, 8+3:0:0:0:1, 11+3:0:0:0:0, 7+2:0:0:0:0, 5+1:0:0:0:0, 7+0:0:0:0:0, 8+3:0:0:0:3, 6+0:0:0:0:0, 7+3:1:0:0:1, 8+3:0:0:0:3, 7+0:0:0:0:0, 7+0:0:0:0:0, 8+2:1:0:0:0, 7+0:0:0:0:0, 8+1:0:0:0:1, 8+3:0:0:0:1, 6+2:0:0:0:2, 8+3:0:0:0:0, 8+1:0:0:0:1, 6+0:0:0:0:0, 5+0:0:0:0:0, 8+1:0:0:0:0, 6+1:0:0:0:1, 9+3:0:0:0:0, 8+1:0:0:0:0, 10+2:0:0:0:1, 7+0:0:0:0:0, 6+0:0:0:0:0, 7+1:0:0:0:0, 1395+242:21:1:0:99
C# major (7#), 8+2:1:0:0:1, 6+2:0:0:0:0, 7+2:0:0:0:0, 7+2:0:0:0:0, 5+1:0:0:0:0, 7+2:1:0:0:1, 8+2:0:0:0:0, 5+3:0:0:0:0, 5+0:0:0:0:0, 8+3:0:0:0:1, 6+0:0:0:0:0, 4+0:0:0:0:0, 7+3:1:0:0:1, 5+1:0:0:0:0, 6+1:0:0:0:0, 6+4:0:0:0:0, 8+2:1:0:0:1, 6+2:0:0:0:0, 6+1:0:0:0:0, 7+2:0:0:0:0, 5+1:0:0:0:0, 7+2:1:0:0:1, 6+2:0:0:0:0, 6+5:0:0:0:0, 5+0:0:0:0:0, 8+3:0:0:0:1, 7+1:0:0:0:1, 9+4:0:0:0:1, 8+2:1:0:0:1, 9+3:0:0:0:0, 6+1:0:0:0:0, 7+2:0:0:0:0, 8+2:1:0:0:1, 7+5:0:0:0:0, 6+2:0:0:0:0, 7+1:0:0:0:0, 5+1:0:0:0:0, 8+2:0:0:0:0, 6+2:0:0:0:0, 5+3:0:0:0:0, 5+0:0:0:0:0, 7+2:0:0:0:0, 6+0:0:0:0:0, 7+2:0:0:0:0, 9+4:2:0:0:2, 8+4:0:0:0:0, 5+1:0:0:0:0, 9+6:0:0:0:0, 10+8:0:0:0:1, 9+3:0:0:0:0, 9+4:0:0:0:0, 7+1:0:0:0:0, 5+1:0:0:0:0, 6+1:0:0:0:0, 6+1:0:0:0:0, 7+5:0:0:0:0, 5+4:0:0:0:0, 8+3:0:0:0:1, 6+0:0:0:0:0, 9+6:0:0:0:1, 9+2:0:0:0:1, 9+3:0:0:0:0, 6+1:0:0:0:0, 8+5:0:0:0:0, 7+6:0:0:0:1, 6+1:0:0:0:0, 6+4:0:0:0:0, 9+4:0:0:0:0, 6+1:0:0:0:0, 5+3:0:0:0:0, 8+4:0:0:0:0, 6+5:0:0:0:0, 5+1:0:0:0:0, 6+2:0:0:0:0, 6+3:1:0:0:1, 7+1:0:0:0:0, 7+2:1:0:0:1, 8+6:1:0:0:1, 6+3:0:0:0:0, 10+5:0:0:0:0, 9+3:1:0:0:1, 6+1:0:0:0:0, 9+5:0:0:0:0, 7+1:0:0:0:0, 7+2:0:0:0:0, 6+1:0:0:0:0, 7+2:0:0:0:0, 7+6:0:0:0:0, 6+0:0:0:0:0, 8+4:0:0:0:1, 7+3:0:0:0:0, 8+4:0:0:0:1, 7+2:0:0:0:1, 12+5:0:0:0:0, 7+2:0:0:0:0, 9+4:0:0:0:0, 7+6:0:0:0:1, 8+3:0:0:0:0, 8+3:0:0:0:0, 8+3:0:0:0:0, 6+1:0:0:0:0, 6+3:0:0:0:0, 7+2:0:0:0:0, 6+5:0:0:0:0, 5+1:0:0:0:0, 7+2:0:0:0:0, 5+2:0:0:0:0, 7+1:0:0:0:0, 9+4:2:0:0:2, 5+1:0:0:0:0, 7+3:0:0:0:0, 6+4:0:0:0:0, 8+2:1:0:0:1, 8+3:0:0:0:0, 9+3:0:0:0:0, 8+2:0:0:0:0, 6+1:0:0:0:0, 6+1:0:0:0:0, 6+1:0:0:0:0, 7+6:0:0:0:0, 5+1:0:0:0:0, 7+3:0:0:0:0, 7+1:0:0:0:0, 11+5:0:0:0:1, 7+3:0:0:0:1, 9+5:0:0:0:2, 8+3:0:0:0:0, 7+3:0:0:0:0, 8+3:0:0:0:1, 7+4:0:0:0:0, 7+4:0:0:0:1, 7+3:0:0:0:1, 7+2:0:0:0:0, 8+2:1:0:0:1, 10+3:0:0:0:0, 7+5:0:0:0:0, 5+1:0:0:0:0, 7+2:0:0:0:0, 8+1:0:0:0:0, 7+2:0:0:0:0, 8+2:1:0:0:1, 8+5:1:0:0:1, 7+3:1:0:0:1, 8+2:0:0:0:0, 8+3:0:0:0:1, 6+1:0:0:0:0, 6+1:0:0:0:0, 8+1:0:0:0:0, 7+2:0:0:0:0, 9+3:0:0:0:0, 8+3:0:0:0:1, 7+5:0:0:0:0, 7+3:0:0:0:0, 8+2:0:0:0:0, 7+1:0:0:0:1, 9+3:0:0:0:1, 7+3:0:0:0:1, 9+2:0:0:0:0, 9+4:0:0:0:1, 7+2:0:0:0:0, 8+4:0:0:0:1, 6+2:0:0:0:0, 9+5:0:0:0:2, 7+2:0:0:0:0, 8+2:0:0:0:0, 6+1:0:0:0:0, 11+3:0:0:0:0, 6+1:1:0:0:1, 6+4:0:0:0:1, 7+9:0:0:0:0, 6+7:0:0:0:0, 6+1:0:0:0:0, 8+4:1:0:0:1, 6+7:0:0:0:0, 6+1:0:0:0:0, 7+6:0:0:0:0, 7+2:1:0:0:1, 6+1:0:0:0:0, 8+2:0:0:0:0, 9+2:0:0:0:0, 5+1:0:0:0:0, 7+2:0:0:0:0, 8+2:0:0:0:1, 7+7:0:0:0:0, 5+2:0:0:0:0, 9+2:0:0:0:0, 5+2:0:0:0:0, 10+4:0:0:0:1, 8+3:0:0:0:1, 10+4:0:0:0:0, 7+1:0:0:0:0, 6+4:0:0:0:0, 7+2:0:0:0:0, 1371+514:23:0:0:56
Ab minor (7b), 9+3:0:0:0:0, 6+0:0:0:0:0, 7+1:0:0:0:1, 7+1:0:0:0:1, 6+3:0:0:0:3, 7+2:1:0:0:1, 8+1:0:0:0:1, 5+1:0:0:0:0, 6+1:0:0:0:1, 7+1:0:0:0:0, 7+1:0:0:0:1, 4+0:0:0:0:0, 8+1:1:0:0:0, 6+1:0:0:0:0, 7+0:0:0:0:0, 6+0:0:0:0:0, 9+2:1:0:0:0, 7+0:0:0:0:0, 6+0:0:0:0:0, 7+1:0:0:0:1, 6+3:0:0:0:3, 7+2:1:0:0:1, 6+1:0:0:0:0, 5+0:0:0:0:0, 6+1:0:0:0:1, 7+1:0:0:0:0, 7+2:0:0:0:1, 7+2:0:0:0:0, 9+3:0:0:0:0, 9+1:0:0:0:1, 6+0:0:0:0:0, 7+0:0:0:0:0, 9+4:0:0:0:0, 7+1:0:0:0:0, 6+0:0:0:0:0, 7+1:0:0:0:1, 6+3:0:0:0:3, 9+3:0:0:0:0, 6+0:0:0:0:0, 5+1:0:0:0:0, 6+1:0:0:0:1, 7+0:0:0:0:0, 7+2:0:0:0:2, 7+1:0:0:0:0, 9+2:2:0:0:0, 9+2:0:0:0:1, 6+0:0:0:0:0, 9+1:0:0:0:0, 10+3:0:0:0:0, 7+1:0:0:0:0, 9+1:0:0:0:0, 7+1:0:0:0:1, 6+4:0:0:0:4, 8+2:0:0:0:2, 6+0:0:0:0:0, 6+0:0:0:0:0, 7+2:0:0:0:2, 7+1:0:0:0:0, 7+1:0:0:0:1, 8+1:0:0:0:0, 9+1:0:0:0:0, 9+1:0:0:0:1, 6+0:0:0:0:0, 8+1:0:0:0:0, 7+1:0:0:0:0, 7+1:0:0:0:0, 6+0:0:0:0:0, 9+2:0:0:0:1, 6+1:0:0:0:1, 6+1:0:0:0:0, 7+2:0:0:0:0, 6+2:0:0:0:0, 5+0:0:0:0:0, 6+0:0:0:0:0, 6+4:0:0:0:3, 7+1:0:0:0:0, 8+1:1:0:0:0, 8+3:1:0:0:1, 7+0:0:0:0:0, 9+2:0:0:0:0, 10+2:1:0:0:0, 7+0:0:0:0:0, 7+2:0:0:0:0, 7+1:0:0:0:1, 7+1:0:0:0:1, 7+1:0:0:0:0, 7+0:0:0:0:0, 6+0:0:0:0:0, 6+0:0:0:0:0, 7+1:0:0:0:0, 8+2:0:0:0:1, 7+1:0:0:0:0, 7+1:0:0:0:0, 12+3:0:0:0:1, 7+0:0:0:0:0, 9+1:0:0:0:0, 7+1:0:0:0:0, 8+1:0:0:0:1, 8+2:0:0:0:1, 8+1:0:0:0:1, 6+1:0:0:0:1, 7+2:0:0:0:0, 7+1:0:0:0:0, 6+1:0:0:0:0, 6+1:1:0:0:1, 7+0:0:0:0:0, 6+1:0:0:0:1, 7+1:0:0:0:0, 9+3:2:0:0:1, 6+1:0:0:0:0, 8+1:0:0:0:1, 6+0:0:0:0:0, 9+2:1:0:0:0, 9+2:0:0:0:1, 9+2:0:0:0:1, 8+1:0:0:0:1, 6+1:0:0:0:1, 7+1:0:0:0:0, 6+0:0:0:0:0, 6+0:0:0:0:0, 5+0:0:0:0:0, 7+0:0:0:0:0, 8+3:0:0:0:2, 9+2:0:1:0:1, 7+1:0:0:0:0, 10+3:0:0:0:3, 8+1:0:0:0:0, 7+0:0:0:0:0, 8+2:0:0:0:1, 7+0:0:0:0:0, 6+1:0:0:0:1, 8+2:0:0:0:2, 8+2:0:0:0:2, 8+3:2:0:0:2, 8+2:0:0:0:0, 7+2:0:0:0:0, 5+0:0:0:0:0, 7+0:0:0:0:0, 8+1:0:0:0:1, 6+2:0:0:0:0, 9+2:0:0:0:0, 8+2:1:0:0:1, 7+1:1:0:0:0, 8+1:0:0:0:0, 8+1:0:0:0:0, 6+0:0:0:0:0, 6+0:0:0:0:0, 8+1:0:0:0:1, 7+1:0:0:0:1, 10+3:0:0:0:0, 7+2:0:0:0:0, 5+3:0:0:0:0, 6+0:0:0:0:0, 8+1:0:0:0:1, 8+2:0:0:0:2, 9+2:0:0:0:0, 7+1:0:0:0:0, 9+1:0:0:0:1, 8+2:0:0:0:0, 7+0:0:0:0:0, 8+1:0:0:0:0, 6+0:0:0:0:0, 8+2:0:0:0:1, 7+2:0:0:0:1, 7+3:2:0:0:2, 8+3:0:0:0:1, 11+3:0:0:0:0, 7+2:0:0:0:0, 5+1:0:0:0:0, 7+0:0:0:0:0, 8+3:0:0:0:3, 6+0:0:0:0:0, 7+3:1:0:0:1, 8+3:0:0:0:3, 7+0:0:0:0:0, 7+0:0:0:0:0, 8+2:1:0:0:0, 7+0:0:0:0:0, 8+1:0:0:0:1, 8+3:0:0:0:1, 6+2:0:0:0:2, 8+3:0:0:0:0, 8+1:0:0:0:1, 6+0:0:0:0:0, 5+0:0:0:0:0, 8+1:0:0:0:0, 6+1:0:0:0:1, 9+3:0:0:0:0, 8+1:0:0:0:0, 10+2:0:0:0:1, 7+0:0:0:0:0, 6+0:0:0:0:0, 7+1:0:0:0:0, 1395+242:21:1:0:99
A# minor (7#), 8+2:1:0:0:1, 6+2:0:0:0:0, 7+2:0:0:0:0, 7+2:0:0:0:0, 5+1:0:0:0:0, 7+2:1:0:0:1, 8+2:0:0:0:0, 5+3:0:0:0:0, 5+0:0:0:0:0, 8+3:0:0:0:1, 6+0:0:0:0:0, 4+0:0:0:0:0, 7+3:1:0:0:1, 5+1:0:0:0:0, 6+1:0:0:0:0, 6+4:0:0:0:0, 8+2:1:0:0:1, 6+2:0:0:0:0, 6+1:0:0:0:0, 7+2:0:0:0:0, 5+1:0:0:0:0, 7+2:1:0:0:1, 6+2:0:0:0:0, 6+5:0:0:0:0, 5+0:0:0:0:0, 8+3:0:0:0:1, 7+1:0:0:0:1, 9+4:0:0:0:1, 8+2:1:0:0:1, 9+3:0:0:0:0, 6+1:0:0:0:0, 7+2:0:0:0:0, 8+2:1:0:0:1, 7+5:0:0:0:0, 6+2:0:0:0:0, 7+1:0:0:0:0, 5+1:0:0:0:0, 8+2:0:0:0:0, 6+2:0:0:0:0, 5+3:0:0:0:0, 5+0:0:0:0:0, 7+2:0:0:0:0, 6+0:0:0:0:0, 7+2:0:0:0:0, 9+4:2:0:0:2, 8+4:0:0:0:0, 5+1:0:0:0:0, 9+6:0:0:0:0, 10+8:0:0:0:1, 9+3:0:0:0:0, 9+4:0:0:0:0, 7+1:0:0:0:0, 5+1:0:0:0:0, 6+1:0:0:0:0, 6+1:0:0:0:0, 7+5:0:0:0:0, 5+4:0:0:0:0, 8+3:0:0:0:1, 6+0:0:0:0:0, 9+6:0:0:0:1, 9+2:0:0:0:1, 9+3:0:0:0:0, 6+1:0:0:0:0, 8+5:0:0:0:0, 7+6:0:0:0:1, 6+1:0:0:0:0, 6+4:0:0:0:0, 9+4:0:0:0:0, 6+1:0:0:0:0, 5+3:0:0:0:0, 8+4:0:0:0:0, 6+5:0:0:0:0, 5+1:0:0:0:0, 6+2:0:0:0:0, 6+3:1:0:0:1, 7+1:0:0:0:0, 7+2:1:0:0:1, 8+6:1:0:0:1, 6+3:0:0:0:0, 10+5:0:0:0:0, 9+3:1:0:0:1, 6+1:0:0:0:0, 9+5:0:0:0:0, 7+1:0:0:0:0, 7+2:0:0:0:0, 6+1:0:0:0:0, 7+2:0:0:0:0, 7+6:0:0:0:0, 6+0:0:0:0:0, 8+4:0:0:0:1, 7+3:0:0:0:0, 8+4:0:0:0:1, 7+2:0:0:0:1, 12+5:0:0:0:0, 7+2:0:0:0:0, 9+4:0:0:0:0, 7+6:0:0:0:1, 8+3:0:0:0:0, 8+3:0:0:0:0, 8+3:0:0:0:0, 6+1:0:0:0:0, 6+3:0:0:0:0, 7+2:0:0:0:0, 6+5:0:0:0:0, 5+1:0:0:0:0, 7+2:0:0:0:0, 5+2:0:0:0:0, 7+1:0:0:0:0, 9+4:2:0:0:2, 5+1:0:0:0:0, 7+3:0:0:0:0, 6+4:0:0:0:0, 8+2:1:0:0:1, 8+3:0:0:0:0, 9+3:0:0:0:0, 8+2:0:0:0:0, 6+1:0:0:0:0, 6+1:0:0:0:0, 6+1:0:0:0:0, 7+6:0:0:0:0, 5+1:0:0:0:0, 7+3:0:0:0:0, 7+1:0:0:0:0, 11+5:0:0:0:1, 7+3:0:0:0:1, 9+5:0:0:0:2, 8+3:0:0:0:0, 7+3:0:0:0:0, 8+3:0:0:0:1, 7+4:0:0:0:0, 7+4:0:0:0:1, 7+3:0:0:0:1, 7+2:0:0:0:0, 8+2:1:0:0:1, 10+3:0:0:0:0, 7+5:0:0:0:0, 5+1:0:0:0:0, 7+2:0:0:0:0, 8+1:0:0:0:0, 7+2:0:0:0:0, 8+2:1:0:0:1, 8+5:1:0:0:1, 7+3:1:0:0:1, 8+2:0:0:0:0, 8+3:0:0:0:1, 6+1:0:0:0:0, 6+1:0:0:0:0, 8+1:0:0:0:0, 7+2:0:0:0:0, 9+3:0:0:0:0, 8+3:0:0:0:1, 7+5:0:0:0:0, 7+3:0:0:0:0, 8+2:0:0:0:0, 7+1:0:0:0:1, 9+3:0:0:0:1, 7+3:0:0:0:1, 9+2:0:0:0:0, 9+4:0:0:0:1, 7+2:0:0:0:0, 8+4:0:0:0:1, 6+2:0:0:0:0, 9+5:0:0:0:2, 7+2:0:0:0:0, 8+2:0:0:0:0, 6+1:0:0:0:0, 11+3:0:0:0:0, 6+1:1:0:0:1, 6+4:0:0:0:1, 7+9:0:0:0:0, 6+7:0:0:0:0, 6+1:0:0:0:0, 8+4:1:0:0:1, 6+7:0:0:0:0, 6+1:0:0:0:0, 7+6:0:0:0:0, 7+2:1:0:0:1, 6+1:0:0:0:0, 8+2:0:0:0:0, 9+2:0:0:0:0, 5+1:0:0:0:0, 7+2:0:0:0:0, 8+2:0:0:0:1, 7+7:0:0:0:0, 5+2:0:0:0:0, 9+2:0:0:0:0, 5+2:0:0:0:0, 10+4:0:0:0:1, 8+3:0:0:0:1, 10+4:0:0:0:0, 7+1:0:0:0:0, 6+4:0:0:0:0, 7+2:0:0:0:0, 1371+514:23:0:0:56
