 , 0, 1, 2, 3, 4, 5, 6, 7, 8, 9, 10, 11, 12, 13, 14, 15, 16, 17, 18, 19, 20, 21, 22, 23, 24, 25, 26, 27, 28, 29, 30, 31, 32, 33, 34, 35, 36, 37, 38, 39, 40, 41, 42, 43, 44, 45, 46, 47, 48, 49, 50, 51, 52, 53, 54, 55, 56, 57, 58, 59, 60, 61, 62, 63, 64, 65, 66, 67, 68, 69, 70, 71, 72, 73, 74, 75, 76, 77, 78, 79, 80, 81, 82, 83, 84, 85, 86, 87, 88, 89, 90, 91, 92, 93, 94, 95, 96, 97, 98, 99, 100, 101, 102, 103, 104, 105, 106, 107, 108, 109, 110, 111, 112, 113, 114, 115, 116, 117, 118, 119, 120, 121, 122, 123, 124, 125, 126, 127, 128, 129, 130, 131, 132, 133, 134, 135, 136, 137, 138, 139, 140, 141, 142, 143, 144, 145, 146, 147, 148, 149, 150, 151, 152, 153, 154, 155, 156, 157, 158, 159, 160, 161, 162, 163, 164, 165, 166, 167, 168, 169, 170, 171, 172, 173, 174, 175, 176, 177, 178, rowcost
C major (0), 1+1:0:0:0:0, 2+1:0:0:0:0, 0+0:0:0:0:0, 2+1:0:0:0:0, 3+3:0:0:0:1, 2+1:0:0:0:0, 3+3:0:0:0:1, 3+3:0:0:0:0, 3+1:0:0:0:0, 2+2:2:0:0:2, 4+2:1:0:0:0, 3+1:0:0:0:0, 3+1:0:0:0:0, 4+3:0:0:0:0, 4+2:0:0:0:0, 1+1:0:0:0:0, 1+1:0:0:0:0, 1+0:0:0:0:0, 2+1:0:0:0:0, 0+0:0:0:0:0, 3+3:0:0:0:0, 3+2:0:0:0:0, 3+3:0:0:0:1, 1+2:0:0:0:0, 1+0:0:0:0:0, 1+1:0:0:0:0, 2+2:0:0:0:0, 2+2:0:0:0:0, 1+2:0:0:0:0, 2+3:0:0:0:0, 2+3:0:0:0:0, 1+0:0:0:0:0, 2+1:0:0:0:0, 1+1:0:0:0:1, 1+1:0:0:0:1, 2+1:0:0:0:0, 2+1:0:0:0:0, 2+1:0:0:0:0, 3+3:0:0:0:1, 2+1:0:0:0:0, 2+3:0:0:0:1, 3+3:0:0:0:2, 2+4:0:0:0:0, 2+2:0:0:0:0, 2+0:0:0:0:0, 3+2:0:0:0:0, 1+0:0:0:0:0, 0+0:0:0:0:0, 0+0:0:0:0:0, 0+0:0:0:0:0, 0+0:0:0:0:0, 2+1:0:0:0:0, 2+1:0:0:0:0, 2+0:0:0:0:0, 1+0:0:0:0:0, 2+1:0:0:0:0, 2+1:0:0:0:0, 2+1:0:0:0:0, 1+1:0:0:0:0, 3+4:0:0:0:0, 1+2:0:0:0:0, 5+4:1:0:0:1, 2+0:0:0:0:0, 1+3:0:0:0:0, 1+1:0:0:0:0, 1+0:0:0:0:0, 0+0:0:0:0:0, 1+1:0:0:0:1, 1+0:0:0:0:0, 3+2:0:0:0:0, 3+2:0:0:0:0, 2+2:0:0:0:0, 2+2:0:0:0:0, 3+1:0:0:0:0, 3+3:1:0:0:1, 2+2:0:0:0:0, 2+0:0:0:0:0, 4+2:1:0:0:1, 5+2:0:0:0:0, 0+0:0:0:0:0, 1+1:0:0:0:0, 1+0:0:0:0:0, 1+1:0:0:0:0, 2+2:0:0:0:0, 3+3:0:0:0:1, 2+1:0:0:0:0, 3+3:0:0:0:1, 1+2:0:0:0:0, 1+0:0:0:0:0, 1+1:0:0:0:0, 1+1:0:0:0:0, 3+2:0:0:0:0, 1+2:0:0:0:0, 2+2:0:0:0:0, 2+3:0:0:0:0, 2+2:0:0:0:0, 2+1:0:0:0:0, 1+1:0:0:0:1, 2+1:0:0:0:0, 2+1:0:0:0:1, 2+2:0:0:0:0, 3+4:0:0:0:1, 3+2:0:0:0:0, 3+3:0:0:0:0, 4+2:0:0:0:0, 2+1:1:0:0:1, 3+1:0:0:0:0, 2+3:0:0:0:0, 3+2:0:0:0:0, 4+2:0:0:0:0, 3+1:0:0:0:0, 1+1:0:0:0:0, 0+0:0:0:0:0, 0+0:0:0:0:0, 0+0:0:0:0:0, 2+1:0:0:0:0, 2+1:0:0:0:0, 2+0:0:0:0:0, 1+0:0:0:0:0, 1+0:0:0:0:0, 2+0:0:0:0:0, 1+1:0:0:0:0, 1+1:0:0:0:0, 2+3:0:0:0:0, 3+1:0:0:0:1, 2+3:0:0:0:2, 2+4:0:0:0:0, 2+1:0:0:0:1, 0+0:0:0:0:0, 0+0:0:0:0:0, 0+0:0:0:0:0, 2+1:0:0:0:0, 2+5:0:0:0:0, 4+2:0:0:0:0, 4+4:0:0:0:1, 1+0:0:0:0:0, 2+3:0:0:0:0, 3+1:0:0:0:0, 3+1:0:0:0:0, 2+3:0:0:0:0, 2+0:0:0:0:0, 3+2:0:0:0:0, 2+0:0:0:0:0, 0+0:0:0:0:0, 0+0:0:0:0:0, 0+0:0:0:0:0, 2+1:0:0:0:0, 1+0:0:0:0:0, 3+3:0:0:0:1, 3+2:0:0:0:0, 3+3:0:0:0:0, 1+1:0:0:0:0, 3+2:0:0:0:0, 1+1:0:0:0:0, 1+1:0:0:0:1, 2+2:0:0:0:0, 1+2:0:0:0:0, 3+3:0:0:0:0, 3+2:0:0:0:0, 3+2:0:0:0:0, 2+0:0:0:0:0, 2+3:0:0:0:3, 2+2:0:0:0:0, 3+3:0:0:0:0, 3+1:1:0:0:0, 2+2:0:0:0:2, 3+3:0:0:0:0, 1+2:0:0:0:0, 2+0:0:0:0:0, 3+1:0:0:0:0, 3+3:0:0:0:0, 1+1:0:0:0:1, 3+3:0:0:0:0, 1+0:0:0:0:0, 1+0:0:0:0:0, 1+0:0:0:0:0, 1+0:0:0:0:0, 1+0:0:0:0:0, 1+0:0:0:0:0, 341+255:8:0:0:34
A minor (0), 1+1:0:0:0:0, 2+2:0:0:0:1, 0+1:0:0:0:0, 1+1:0:0:0:1, 3+3:0:0:0:1, 2+1:0:0:0:0, 3+3:0:0:0:1, 3+3:0:0:0:0, 3+1:0:0:0:0, 2+2:2:0:0:2, 4+2:1:0:0:0, 3+1:0:0:0:0, 3+1:0:0:0:0, 4+3:0:0:0:0, 4+2:0:0:0:0, 1+1:0:0:0:0, 1+1:0:0:0:1, 1+1:0:0:0:0, 2+1:0:0:0:0, 0+2:0:0:0:0, 3+1:0:0:0:0, 3+2:0:0:0:0, 3+3:0:0:0:1, 1+1:0:0:0:0, 1+1:0:0:0:0, 1+4:0:0:0:0, 1+3:0:0:0:0, 2+2:0:0:0:0, 1+4:0:0:0:2, 2+2:0:0:0:2, 2+0:0:0:0:0, 1+0:0:0:0:0, 2+1:0:0:0:0, 1+1:0:0:0:1, 1+2:0:0:0:0, 1+1:0:0:0:0, 2+1:0:0:0:1, 2+1:0:0:0:0, 3+2:0:0:0:2, 2+1:0:0:0:0, 2+3:0:0:0:2, 3+4:0:0:0:3, 2+2:0:0:0:0, 2+1:0:0:0:0, 2+0:0:0:0:0, 3+2:0:0:0:0, 1+3:0:0:0:0, 0+3:0:0:0:0, 0+1:0:0:0:0, 0+1:0:0:0:0, 0+0:0:0:0:0, 2+2:0:0:0:0, 2+1:0:0:0:1, 2+2:0:0:0:0, 1+0:0:0:0:0, 2+1:0:0:0:1, 2+2:0:0:0:1, 2+4:0:0:0:0, 1+1:0:0:0:0, 3+1:0:0:0:0, 1+5:0:0:0:2, 5+5:1:0:0:1, 2+3:0:0:0:0, 2+1:0:0:0:1, 1+1:0:0:0:0, 1+3:0:0:0:0, 0+2:0:0:0:0, 1+1:0:0:0:0, 1+0:0:0:0:0, 3+2:0:0:0:2, 2+1:1:0:0:0, 2+2:0:0:0:0, 2+1:0:0:0:0, 3+1:0:0:0:0, 3+3:1:0:0:1, 2+2:0:0:0:0, 2+0:0:0:0:0, 4+2:1:0:0:1, 5+2:0:0:0:0, 0+0:0:0:0:0, 1+1:0:0:0:1, 1+1:0:0:0:0, 1+1:0:0:0:1, 2+2:0:0:0:0, 3+3:0:0:0:1, 2+1:0:0:0:0, 3+3:0:0:0:1, 1+2:0:0:0:0, 1+1:0:0:0:0, 1+2:0:0:0:0, 1+2:0:0:0:0, 3+2:0:0:0:0, 1+4:0:0:0:2, 2+4:0:0:0:2, 2+3:0:0:0:0, 3+1:0:0:0:1, 2+1:0:0:0:0, 2+2:0:0:0:0, 2+3:0:0:0:1, 2+4:0:0:0:2, 2+2:0:0:0:1, 3+2:0:0:0:2, 2+1:1:0:0:0, 3+2:0:0:0:0, 4+2:0:0:0:0, 2+1:1:0:0:1, 3+1:0:0:0:0, 2+0:0:0:0:0, 3+2:0:0:0:0, 4+2:0:0:0:0, 3+1:0:0:0:0, 1+1:0:0:0:0, 0+1:0:0:0:0, 0+0:0:0:0:0, 0+2:0:0:0:0, 2+3:0:0:0:0, 2+1:0:0:0:1, 2+2:0:0:0:0, 1+1:0:0:0:0, 1+1:0:0:0:0, 2+0:0:0:0:0, 1+1:0:0:0:0, 1+1:0:0:0:0, 2+3:0:0:0:0, 3+1:0:0:0:1, 2+3:0:0:0:2, 2+1:0:0:0:0, 2+1:0:0:0:1, 0+0:0:0:0:0, 0+1:0:0:0:0, 0+0:0:0:0:0, 2+1:0:0:0:0, 2+5:0:0:0:0, 4+2:0:0:0:0, 4+4:0:0:0:1, 1+0:0:0:0:0, 2+3:0:0:0:3, 3+1:0:0:0:0, 3+1:0:0:0:0, 2+1:0:0:0:0, 2+0:0:0:0:0, 3+2:0:0:0:0, 2+0:0:0:0:0, 0+0:0:0:0:0, 0+0:0:0:0:0, 0+1:0:0:0:0, 2+1:0:0:0:0, 1+2:0:0:0:0, 3+3:0:0:0:1, 3+2:0:0:0:0, 3+1:0:0:0:0, 1+2:0:0:0:0, 3+4:0:0:0:0, 2+1:0:0:0:0, 1+1:0:0:0:0, 2+2:0:0:0:0, 1+3:0:0:0:2, 3+3:0:0:0:2, 3+2:0:0:0:0, 3+2:0:0:0:0, 2+0:0:0:0:0, 2+3:0:0:0:2, 2+2:0:0:0:0, 3+3:0:0:0:0, 3+1:1:0:0:0, 2+3:0:0:0:2, 3+1:0:0:0:0, 1+0:0:0:0:0, 2+0:0:0:0:0, 3+1:0:0:0:0, 3+3:0:0:0:0, 2+5:0:0:0:0, 3+1:0:0:0:0, 1+0:0:0:0:0, 1+0:0:0:0:0, 1+0:0:0:0:0, 1+0:0:0:0:0, 1+0:0:0:0:0, 1+0:0:0:0:0, 341+293:10:0:0:66
F major (1b), 1+0:0:0:0:0, 2+1:0:0:0:0, 0+0:0:0:0:0, 2+1:0:0:0:0, 2+1:0:0:0:0, 1+1:0:0:0:0, 2+1:0:0:0:0, 1+1:0:1:0:1, 3+3:0:0:0:0, 3+1:0:0:0:1, 4+1:0:0:0:0, 2+1:0:0:0:0, 3+3:0:0:0:0, 3+1:0:0:0:0, 3+2:0:0:0:0, 2+1:0:0:0:0, 1+1:0:0:0:0, 0+0:0:0:0:0, 1+1:0:0:0:0, 1+1:0:0:0:0, 2+1:0:0:0:0, 1+1:1:0:0:1, 2+1:0:0:0:0, 0+0:0:0:0:0, 1+1:0:0:0:0, 1+0:0:0:0:0, 2+2:0:0:0:0, 1+2:0:0:0:0, 2+2:0:0:0:0, 2+3:0:0:0:0, 1+0:0:0:0:0, 1+0:0:0:0:0, 2+1:0:0:0:0, 1+1:0:0:0:0, 2+1:0:0:0:0, 2+1:0:0:0:0, 1+1:0:0:0:0, 1+0:0:0:0:0, 2+1:0:0:0:0, 1+1:0:0:0:0, 2+1:1:0:0:1, 4+2:0:0:0:1, 1+0:0:0:0:0, 1+0:0:0:0:0, 3+1:0:0:0:1, 2+1:0:0:0:0, 1+3:0:0:0:0, 0+0:0:0:0:0, 0+0:0:0:0:0, 0+0:0:0:0:0, 0+0:0:0:0:0, 2+1:0:0:0:0, 1+1:0:0:0:0, 1+0:0:0:0:0, 0+0:0:0:0:0, 1+1:0:0:0:0, 1+1:0:0:0:0, 3+1:0:0:0:0, 2+1:0:0:0:0, 2+1:0:0:0:0, 2+2:0:0:0:0, 5+3:1:0:0:1, 1+3:0:0:0:0, 1+3:0:0:0:0, 1+0:0:0:0:0, 1+0:0:0:0:0, 0+0:0:0:0:0, 1+1:0:0:0:1, 0+0:0:0:0:0, 2+2:0:0:0:0, 2+1:0:0:0:0, 1+1:0:0:0:0, 1+0:0:0:0:0, 2+1:1:0:0:1, 2+1:1:0:0:1, 2+1:0:0:0:0, 3+1:0:0:0:1, 4+2:0:0:0:1, 4+4:0:0:0:0, 0+0:0:0:0:0, 1+1:0:0:0:0, 0+0:0:0:0:0, 1+1:0:0:0:0, 3+2:0:0:0:0, 2+3:0:0:0:1, 1+1:0:0:0:0, 2+1:0:0:0:0, 0+0:0:0:0:0, 1+1:0:0:0:0, 2+1:0:0:0:0, 1+1:0:0:0:0, 2+2:0:0:0:0, 2+1:0:0:0:0, 2+2:0:0:0:0, 1+3:0:0:0:0, 3+2:0:0:0:0, 1+1:0:0:0:0, 2+1:0:0:0:0, 2+1:0:0:0:0, 2+2:0:0:0:0, 1+1:0:0:0:0, 2+2:0:0:0:0, 2+1:0:0:0:0, 2+1:0:0:0:0, 4+3:0:0:0:0, 2+1:0:0:0:1, 3+1:0:0:0:0, 1+0:0:0:0:0, 3+2:0:0:0:0, 3+1:0:0:0:0, 3+1:0:0:0:0, 2+1:0:0:0:0, 0+0:0:0:0:0, 0+0:0:0:0:0, 0+0:0:0:0:0, 2+1:0:0:0:0, 1+1:0:0:0:0, 1+0:0:0:0:0, 0+0:0:0:0:0, 0+0:0:0:0:0, 2+2:0:0:0:0, 1+0:0:0:0:0, 2+1:0:0:0:0, 1+0:0:0:0:0, 3+4:0:0:0:0, 2+3:0:0:0:0, 1+2:0:0:0:0, 2+1:0:0:0:0, 0+0:0:0:0:0, 0+0:0:0:0:0, 0+0:0:0:0:0, 2+1:0:0:0:0, 1+0:0:0:0:0, 2+1:1:0:0:1, 3+2:0:0:0:0, 0+0:0:0:0:0, 3+3:0:0:0:0, 2+1:0:0:0:0, 3+1:0:0:0:0, 1+0:0:0:0:0, 3+2:0:0:0:0, 2+2:0:0:0:0, 2+1:0:0:0:0, 0+0:0:0:0:0, 0+0:0:0:0:0, 0+0:0:0:0:0, 1+1:0:0:0:0, 0+0:0:0:0:0, 2+1:0:0:0:0, 2+1:0:0:0:0, 2+1:0:0:0:0, 0+0:0:0:0:0, 3+2:0:0:0:0, 1+1:0:0:0:0, 1+1:0:0:0:1, 1+2:0:0:0:0, 1+2:0:0:0:0, 2+3:0:0:0:0, 2+1:0:0:0:0, 2+2:0:0:0:0, 3+2:0:0:0:0, 3+3:0:0:0:3, 1+2:0:0:0:0, 2+2:0:0:0:0, 3+2:1:0:0:1, 2+2:0:0:0:0, 2+1:0:0:0:0, 0+0:0:0:0:0, 2+2:0:0:0:0, 2+1:0:0:0:0, 3+3:0:0:0:0, 1+3:0:0:0:0, 2+3:0:0:0:0, 1+0:0:0:0:0, 1+0:0:0:0:0, 1+0:0:0:0:0, 1+0:0:0:0:0, 1+0:0:0:0:0, 1+0:0:0:0:0, 280+198:7:1:0:20
G major (1#), 2+2:0:0:0:0, 3+3:0:0:0:1, 1+0:0:0:0:0, 2+1:0:0:0:1, 2+3:1:0:0:0, 3+1:0:0:0:0, 2+3:1:0:0:0, 3+2:0:1:0:1, 3+1:0:0:0:0, 4+1:0:0:0:0, 4+2:2:1:0:1, 3+1:0:0:0:0, 3+3:0:0:0:0, 4+3:0:0:0:0, 4+2:0:0:0:0, 1+1:0:0:0:0, 2+1:0:0:0:0, 2+1:0:0:0:0, 3+3:0:0:0:0, 1+2:0:0:0:0, 3+1:0:0:0:0, 4+2:0:0:0:0, 2+3:1:0:0:0, 2+1:0:0:0:0, 2+4:0:0:0:0, 1+1:0:0:0:1, 3+2:0:0:0:0, 2+2:0:0:0:0, 1+2:0:0:0:0, 3+4:0:0:0:2, 2+0:0:0:0:0, 1+0:0:0:0:0, 3+1:0:0:0:0, 3+3:0:0:0:0, 3+2:0:0:0:0, 3+1:0:0:0:0, 2+1:0:0:0:0, 3+1:0:0:0:0, 2+1:0:0:0:0, 3+1:0:0:0:0, 2+1:1:0:0:1, 5+2:0:0:0:0, 3+1:0:0:0:0, 3+1:0:0:0:0, 2+0:0:0:0:0, 3+2:0:0:0:0, 2+3:0:0:0:0, 0+0:0:0:0:0, 1+3:0:0:0:0, 1+1:0:0:0:0, 1+3:0:0:0:0, 3+3:0:0:0:0, 2+1:0:0:0:0, 3+2:0:0:0:0, 2+1:0:0:0:0, 1+1:1:0:0:0, 3+3:0:0:0:0, 2+1:0:0:0:0, 2+1:0:0:0:0, 3+1:0:0:0:0, 1+2:0:0:0:0, 4+4:1:0:0:1, 2+0:0:0:0:0, 1+5:0:0:0:3, 2+2:0:0:0:0, 2+2:0:0:0:0, 1+0:0:0:0:0, 3+1:0:0:0:0, 2+1:0:0:0:0, 2+4:1:0:0:0, 4+2:0:0:0:0, 2+1:0:0:0:0, 3+1:0:0:0:0, 2+1:1:0:0:1, 3+1:1:0:0:0, 2+1:0:0:0:0, 2+0:0:0:0:0, 4+2:1:0:0:1, 5+2:0:0:0:0, 0+0:0:0:0:0, 2+1:0:0:0:0, 2+1:0:0:0:0, 2+1:0:0:0:0, 3+2:0:0:0:0, 2+3:1:0:0:0, 3+1:0:0:0:0, 2+3:1:0:0:0, 2+2:0:0:0:0, 2+1:0:0:0:0, 1+1:0:0:0:0, 2+1:0:0:0:0, 3+2:0:0:0:0, 1+2:0:0:0:0, 3+3:0:0:0:1, 2+0:0:0:0:0, 3+2:0:0:0:0, 2+1:0:0:0:1, 3+2:0:0:0:0, 3+3:0:0:0:1, 3+3:0:0:0:0, 2+1:0:0:0:0, 2+4:1:0:0:0, 4+2:0:0:0:0, 3+1:0:0:0:0, 4+2:0:0:0:0, 3+1:0:0:0:0, 3+1:0:0:0:0, 2+0:0:0:0:0, 3+2:0:0:0:0, 5+3:0:0:0:0, 3+1:0:0:0:0, 1+1:0:0:0:0, 1+0:0:0:0:0, 1+0:0:0:0:0, 1+0:0:0:0:0, 3+1:0:0:0:0, 2+1:0:0:0:0, 3+2:0:0:0:0, 2+2:0:0:0:0, 1+0:0:0:0:0, 3+0:0:0:0:0, 1+1:0:0:0:0, 2+1:0:0:0:0, 2+3:0:0:0:0, 2+1:1:0:0:0, 3+3:0:0:0:2, 3+1:0:0:0:0, 1+1:1:0:0:0, 1+2:0:0:0:0, 1+1:0:0:0:0, 1+2:0:0:0:0, 3+3:0:0:0:0, 3+1:0:0:0:0, 4+2:1:0:0:1, 3+4:1:0:0:0, 2+1:0:0:0:0, 2+2:0:0:0:1, 4+1:0:0:0:0, 3+1:0:0:0:0, 3+1:0:0:0:0, 2+0:0:0:0:0, 4+2:0:0:0:0, 2+0:0:0:0:0, 0+0:0:0:0:0, 1+0:0:0:0:0, 1+0:0:0:0:0, 2+1:0:0:0:1, 2+2:0:0:0:0, 4+3:0:0:0:1, 4+2:0:0:0:0, 3+1:0:0:0:0, 2+1:0:0:0:0, 4+4:0:0:0:0, 1+1:0:0:0:0, 3+1:0:0:0:0, 2+1:0:0:0:0, 1+2:0:0:0:0, 4+3:0:0:0:2, 4+2:0:0:0:0, 3+2:0:0:0:0, 3+0:0:0:0:0, 3+3:0:0:0:2, 2+4:0:0:0:0, 3+3:0:0:0:0, 2+1:1:0:0:0, 3+4:0:0:0:1, 3+1:0:0:0:0, 2+2:0:0:0:0, 3+0:0:0:0:0, 4+1:0:0:0:0, 2+4:0:0:0:2, 1+1:0:0:0:1, 3+1:0:0:0:0, 1+0:0:0:0:0, 1+0:0:0:0:0, 1+0:0:0:0:0, 1+0:0:0:0:0, 1+0:0:0:0:0, 1+0:0:0:0:0, 422+277:20:2:0:31
D minor (1b), 1+2:0:0:0:0, 2+3:0:0:0:1, 0+2:0:0:0:0, 1+1:0:0:0:0, 2+2:0:0:0:2, 1+1:0:0:0:0, 2+3:0:0:0:1, 1+2:0:1:0:1, 3+1:0:0:0:0, 3+1:0:0:0:0, 3+2:1:0:0:0, 2+1:0:0:0:0, 3+3:0:0:0:0, 3+3:0:0:0:0, 3+2:0:0:0:0, 2+4:0:0:0:0, 1+1:0:0:0:0, 0+1:0:0:0:0, 1+1:0:0:0:0, 1+2:0:0:0:0, 2+1:0:0:0:0, 2+2:0:0:0:0, 2+3:0:0:0:1, 0+1:0:0:0:0, 1+4:0:0:0:0, 1+1:0:0:0:1, 2+2:0:0:0:0, 1+2:0:0:0:0, 2+4:0:0:0:2, 2+2:0:0:0:2, 1+0:0:0:0:0, 1+0:0:0:0:0, 2+1:0:0:0:0, 1+1:0:0:0:0, 2+2:0:0:0:0, 2+1:0:0:0:0, 1+1:0:0:0:0, 1+1:0:0:0:0, 2+2:0:0:0:2, 1+1:0:0:0:0, 2+1:1:0:0:1, 4+2:0:0:0:0, 1+1:0:0:0:0, 1+1:0:0:0:0, 3+0:0:0:0:0, 2+1:0:0:0:0, 1+4:0:0:0:3, 0+1:0:0:0:0, 0+1:0:0:0:0, 0+2:0:0:0:0, 0+2:0:0:0:0, 2+1:0:0:0:1, 1+1:0:0:0:1, 1+2:0:0:0:0, 0+0:0:0:0:0, 1+1:0:0:0:1, 1+2:0:0:0:1, 3+4:0:0:0:0, 2+1:0:0:0:0, 2+1:0:0:0:0, 2+5:0:0:0:2, 5+3:1:0:0:1, 1+3:0:0:0:0, 1+5:0:0:0:3, 1+2:0:0:0:0, 1+2:0:0:0:0, 0+1:0:0:0:0, 1+1:0:0:0:0, 0+0:0:0:0:0, 2+2:0:0:0:2, 1+1:1:0:0:0, 1+2:0:0:0:0, 1+1:0:0:0:0, 2+1:1:0:0:1, 2+1:1:0:0:0, 2+1:0:0:0:0, 3+0:0:0:0:0, 4+2:0:0:0:0, 4+4:0:0:0:0, 0+1:0:0:0:0, 1+1:0:0:0:0, 0+1:0:0:0:0, 1+1:0:0:0:0, 3+2:0:0:0:0, 2+2:0:0:0:2, 1+1:0:0:0:0, 2+2:0:0:0:2, 0+1:0:0:0:0, 1+1:0:0:0:1, 2+2:0:0:0:0, 1+1:1:0:0:0, 2+2:0:0:0:0, 2+0:0:0:0:0, 2+4:0:0:0:2, 1+0:0:0:0:0, 3+5:0:0:0:2, 1+1:0:0:0:0, 2+2:0:0:0:0, 2+3:0:0:0:1, 2+4:0:0:0:2, 1+2:0:0:0:1, 2+2:0:0:0:2, 1+1:1:0:0:0, 2+2:0:0:0:0, 4+2:0:0:0:0, 2+1:0:0:0:0, 3+1:0:0:0:0, 1+0:0:0:0:0, 3+2:0:0:0:0, 3+3:0:0:0:0, 3+3:0:0:0:1, 3+4:0:0:0:0, 0+0:0:0:0:0, 0+1:0:0:0:0, 0+0:0:0:0:0, 2+2:0:0:0:0, 1+1:0:0:0:1, 1+2:0:0:0:0, 0+1:0:0:0:0, 0+1:0:0:0:0, 2+3:0:0:0:0, 2+2:0:0:0:0, 2+0:0:0:0:0, 1+0:0:0:0:0, 3+1:0:0:0:1, 2+3:0:0:0:2, 1+1:0:0:0:0, 2+1:0:0:0:1, 0+2:0:0:0:0, 0+3:0:0:0:0, 0+3:0:0:0:0, 2+1:0:0:0:1, 1+1:0:0:0:0, 2+2:1:0:0:1, 3+4:0:0:0:1, 0+1:0:0:0:0, 3+2:0:0:0:1, 2+1:0:0:0:0, 3+1:0:0:0:0, 1+1:0:0:0:0, 3+0:0:0:0:0, 2+2:0:0:0:0, 2+1:0:0:0:0, 0+0:0:0:0:0, 0+1:0:0:0:0, 0+0:0:0:0:0, 1+1:0:0:0:0, 0+2:0:0:0:0, 2+3:0:0:0:1, 2+2:0:0:0:0, 2+1:0:0:0:0, 0+1:0:0:0:0, 3+4:0:0:0:0, 2+1:0:0:0:0, 1+1:0:0:0:0, 1+2:0:0:0:0, 1+3:0:0:0:2, 2+3:0:0:0:2, 2+2:0:0:0:0, 2+2:0:0:0:0, 3+0:0:0:0:0, 3+3:0:0:0:2, 1+2:0:0:0:0, 2+3:0:0:0:0, 3+2:1:0:0:1, 2+2:0:0:0:0, 2+1:0:0:0:0, 0+0:0:0:0:0, 2+2:0:0:0:0, 2+1:0:0:0:0, 3+3:0:0:0:0, 1+5:0:0:0:0, 2+1:0:0:0:0, 1+0:0:0:0:0, 1+0:0:0:0:0, 1+0:0:0:0:0, 1+0:0:0:0:0, 1+0:0:0:0:0, 1+0:0:0:0:0, 280+294:10:1:0:63
E minor (1#), 2+1:0:0:0:0, 3+2:0:0:0:1, 1+1:0:0:0:0, 2+1:0:0:0:0, 2+2:1:0:0:1, 3+1:0:0:0:0, 2+1:0:0:0:0, 3+2:0:1:0:1, 2+1:1:0:0:1, 4+1:0:0:0:0, 4+2:2:1:0:1, 3+1:0:0:0:0, 3+3:0:0:0:0, 4+1:0:0:0:0, 4+2:0:0:0:0, 1+4:0:0:0:0, 2+1:0:0:0:1, 2+1:0:0:0:0, 3+1:0:0:0:0, 1+2:0:0:0:0, 3+1:0:0:0:0, 3+2:1:0:0:1, 2+1:0:0:0:0, 2+1:0:0:0:0, 2+1:0:0:0:0, 1+4:0:0:0:0, 2+3:0:0:0:0, 2+2:0:0:0:0, 1+4:0:0:0:2, 3+2:0:0:0:2, 2+0:0:0:0:0, 1+0:0:0:0:0, 2+0:0:0:0:0, 2+1:0:0:0:1, 2+2:0:0:0:0, 2+1:0:0:0:0, 2+1:0:0:0:1, 3+1:0:0:0:0, 2+1:0:0:0:0, 3+1:0:0:0:0, 2+1:1:0:0:1, 5+2:0:0:0:0, 3+1:0:0:0:0, 3+1:0:0:0:0, 2+4:0:0:0:0, 3+1:0:0:0:0, 3+1:0:0:0:1, 0+3:0:0:0:0, 1+1:0:0:0:0, 1+1:0:0:0:0, 1+0:0:0:0:0, 3+2:0:0:0:0, 2+1:0:0:0:1, 3+2:0:0:0:0, 2+1:0:0:0:0, 1+1:1:0:0:0, 3+2:0:0:0:1, 2+4:0:0:0:0, 2+1:0:0:0:0, 3+1:0:0:0:0, 1+5:0:0:0:2, 4+5:1:0:0:1, 2+5:0:0:0:3, 2+1:0:0:0:1, 2+1:0:0:0:0, 2+3:0:0:0:0, 1+2:0:0:0:0, 2+1:0:0:0:0, 2+0:0:0:0:0, 2+2:1:0:0:1, 3+1:1:0:0:0, 2+2:0:0:0:0, 3+1:0:0:0:0, 2+1:1:0:0:1, 3+1:1:0:0:0, 2+1:0:0:0:0, 2+0:0:0:0:0, 5+2:0:0:0:0, 5+4:0:0:0:0, 0+1:0:0:0:0, 2+1:0:0:0:1, 2+3:0:0:0:0, 2+1:0:0:0:1, 3+2:0:0:0:0, 2+2:1:0:0:1, 3+1:0:0:0:0, 2+1:0:0:0:0, 2+1:0:0:0:0, 2+1:0:0:0:0, 1+2:0:0:0:0, 2+2:0:0:0:0, 3+1:0:0:0:1, 1+4:0:0:0:2, 3+4:0:0:0:2, 2+3:0:0:0:0, 4+1:0:0:0:1, 2+1:0:0:0:1, 2+2:0:0:0:0, 3+2:0:0:0:1, 3+2:0:0:0:0, 2+2:0:0:0:1, 2+2:1:0:0:1, 3+1:1:0:0:0, 3+2:0:0:0:0, 3+2:1:0:0:1, 3+1:0:0:0:0, 2+1:1:0:0:1, 2+0:0:0:0:0, 3+2:0:0:0:0, 5+3:0:0:0:0, 3+3:0:0:0:1, 2+4:0:0:0:0, 1+1:0:0:0:0, 1+0:0:0:0:0, 1+2:0:0:0:0, 3+3:0:0:0:0, 2+1:0:0:0:1, 3+2:0:0:0:0, 2+2:0:0:0:0, 1+0:0:0:0:0, 3+3:0:0:0:0, 1+4:0:0:0:1, 2+0:0:0:0:0, 2+0:0:0:0:0, 2+1:1:0:0:0, 3+3:0:0:0:2, 3+1:0:0:0:0, 1+3:3:0:0:3, 1+0:0:0:0:0, 1+1:0:0:0:0, 1+0:0:0:0:0, 3+3:0:0:0:0, 3+1:0:0:0:0, 4+2:1:0:0:1, 3+1:0:0:0:0, 2+0:0:0:0:0, 2+3:0:0:0:3, 4+2:0:0:0:0, 2+1:1:0:0:1, 3+1:0:0:0:0, 2+0:0:0:0:0, 4+2:0:0:0:1, 2+4:0:0:0:0, 0+0:0:0:0:0, 1+0:0:0:0:0, 1+1:0:0:0:0, 2+2:0:0:0:1, 2+2:0:0:0:0, 4+2:0:0:0:2, 3+1:1:0:0:0, 3+1:0:0:0:0, 2+1:0:0:0:0, 4+4:0:0:0:0, 1+3:0:0:0:1, 2+1:0:0:0:0, 2+2:0:0:0:0, 1+4:0:0:0:2, 4+3:0:0:0:2, 4+2:0:0:0:0, 3+3:0:0:0:2, 3+5:0:0:0:2, 3+3:0:0:0:1, 2+2:0:0:0:0, 3+3:0:0:0:0, 2+3:0:0:0:0, 3+3:0:0:0:2, 3+1:0:0:0:0, 2+0:0:0:0:0, 3+2:0:0:0:0, 4+2:0:0:0:0, 2+2:0:0:0:2, 1+3:0:0:0:1, 3+3:0:0:0:1, 2+1:0:0:0:1, 1+0:0:0:0:0, 1+0:0:0:0:0, 1+0:0:0:0:0, 1+0:0:0:0:0, 1+0:0:0:0:0, 412+302:24:2:0:75
Bb major (2b), 0+0:0:0:0:0, 1+1:0:0:0:0, 1+0:0:0:0:0, 2+1:0:0:0:0, 2+1:0:0:0:0, 0+0:0:0:0:0, 2+1:0:0:0:0, 1+0:0:0:0:0, 2+1:0:0:0:0, 2+1:0:0:0:1, 3+1:0:0:0:0, 1+1:0:0:0:0, 2+1:0:0:0:0, 2+1:0:0:0:0, 3+1:0:0:0:0, 1+1:0:0:0:1, 2+1:0:0:0:0, 0+0:0:0:0:0, 1+1:0:0:0:0, 2+1:0:0:0:0, 1+1:0:0:0:0, 2+1:0:0:0:0, 2+1:0:0:0:0, 0+0:0:0:0:0, 1+0:0:0:0:0, 1+1:0:0:0:0, 2+2:0:0:0:0, 1+1:0:1:0:0, 2+1:0:0:0:1, 2+0:0:0:0:0, 0+0:0:0:0:0, 1+0:0:0:0:0, 2+1:0:0:0:0, 1+1:0:0:0:1, 1+1:0:0:0:0, 2+1:0:0:0:0, 1+1:0:0:0:0, 0+0:0:0:0:0, 2+1:0:0:0:0, 2+1:0:0:0:0, 1+1:1:0:0:1, 3+2:0:0:0:1, 0+0:0:0:0:0, 0+0:0:0:0:0, 2+1:0:0:0:1, 1+0:0:0:0:0, 1+0:0:0:0:0, 1+0:0:0:0:0, 0+0:0:0:0:0, 0+0:0:0:0:0, 0+0:0:0:0:0, 2+1:0:0:0:0, 1+1:0:0:0:0, 0+0:0:0:0:0, 0+0:0:0:0:0, 2+1:0:0:0:0, 1+1:0:0:0:0, 3+1:0:0:0:0, 3+1:0:0:0:0, 1+1:0:0:0:0, 2+2:0:0:0:0, 6+4:1:0:0:1, 0+0:0:0:0:0, 2+3:0:0:0:0, 0+0:0:0:0:0, 0+0:0:0:0:0, 1+0:0:0:0:0, 2+1:0:0:0:0, 0+0:0:0:0:0, 3+2:0:0:0:1, 2+1:0:0:0:0, 1+1:0:0:0:1, 0+0:0:0:0:0, 2+1:0:0:0:0, 1+1:1:0:0:1, 1+1:0:0:0:0, 2+1:0:0:0:1, 3+2:0:0:0:1, 3+1:0:0:0:0, 1+0:0:0:0:0, 2+1:0:0:0:0, 1+0:0:0:0:0, 2+1:0:0:0:0, 2+2:0:0:0:1, 2+1:0:0:0:0, 0+0:0:0:0:0, 2+1:0:0:0:0, 1+1:0:0:0:0, 1+1:0:0:0:0, 3+2:0:0:0:0, 1+1:1:0:0:1, 1+0:0:0:0:0, 2+1:0:0:0:1, 2+2:0:0:0:0, 0+0:0:0:0:0, 4+3:0:0:0:0, 1+1:0:0:0:0, 1+1:0:0:0:0, 1+1:0:0:0:0, 2+1:0:0:0:0, 1+0:0:0:0:0, 3+2:0:0:0:1, 2+1:0:0:0:0, 2+1:0:0:0:1, 3+2:0:0:0:1, 1+1:0:0:0:1, 2+1:0:0:0:0, 0+0:0:0:0:0, 2+2:0:0:0:0, 2+1:0:0:0:0, 2+1:0:0:0:0, 2+1:0:0:0:0, 0+0:0:0:0:0, 1+0:0:0:0:0, 0+0:0:0:0:0, 3+1:0:0:0:0, 1+1:0:0:0:0, 0+0:0:0:0:0, 0+0:0:0:0:0, 0+0:0:0:0:0, 1+0:0:0:0:0, 1+1:0:0:0:0, 2+1:0:0:0:1, 0+0:0:0:0:0, 3+4:0:0:0:0, 3+3:0:0:0:0, 0+0:0:0:0:0, 2+1:0:0:0:0, 0+0:0:0:0:0, 0+0:0:0:0:0, 0+0:0:0:0:0, 2+1:0:0:0:0, 0+0:0:0:0:0, 2+1:0:0:0:0, 3+2:0:0:0:0, 0+0:0:0:0:0, 2+2:0:0:0:1, 1+0:0:0:0:0, 2+1:0:0:0:0, 0+0:0:0:0:0, 2+1:0:0:0:1, 3+1:0:0:0:1, 1+0:0:0:0:0, 1+0:0:0:0:0, 0+0:0:0:0:0, 1+0:0:0:0:0, 1+1:0:0:0:0, 0+0:0:0:0:0, 2+1:0:0:0:0, 2+1:0:0:0:0, 1+1:0:0:0:0, 0+0:0:0:0:0, 2+2:0:0:0:0, 2+1:0:0:0:0, 1+1:1:0:0:1, 2+2:0:0:0:0, 1+2:0:0:0:0, 3+3:0:0:0:0, 1+1:0:0:0:0, 2+1:0:0:0:0, 2+1:0:0:0:1, 3+2:1:0:0:1, 1+1:0:1:0:1, 2+2:0:0:0:0, 2+1:1:0:0:1, 3+2:0:0:0:0, 1+1:0:0:0:0, 1+1:0:0:0:0, 1+0:0:0:0:0, 1+0:0:0:0:0, 3+3:0:0:0:0, 1+3:0:0:0:0, 1+1:0:0:0:0, 1+0:0:0:0:0, 1+0:0:0:0:0, 1+0:0:0:0:0, 1+0:0:0:0:0, 1+0:0:0:0:0, 1+0:0:0:0:0, 248+152:7:2:0:29
D major (2#), 2+1:0:0:0:0, 2+3:1:0:0:0, 2+2:0:0:0:0, 2+1:0:0:0:0, 2+2:1:0:0:1, 4+1:0:0:0:0, 2+2:1:0:0:1, 3+2:0:1:0:1, 2+1:1:0:0:1, 4+1:0:1:0:1, 3+2:2:1:0:1, 3+1:0:0:0:0, 3+3:0:0:0:0, 4+1:0:0:0:0, 4+2:0:0:0:0, 2+1:0:0:0:0, 2+1:0:0:0:0, 3+1:0:0:0:0, 3+1:0:0:0:0, 2+2:0:0:0:0, 3+1:0:0:0:0, 3+1:1:0:0:0, 2+2:1:0:0:1, 3+1:0:0:0:0, 3+2:0:0:0:1, 2+2:0:0:0:0, 2+3:0:0:0:0, 2+2:0:0:0:0, 2+4:0:0:0:2, 2+2:0:0:0:2, 2+0:0:0:0:0, 1+0:0:0:0:0, 3+1:0:0:0:0, 3+1:0:0:0:0, 4+2:0:0:0:0, 2+1:1:0:0:0, 2+1:0:0:0:1, 4+1:0:0:0:0, 2+2:1:0:0:1, 3+1:0:0:0:0, 2+1:1:0:0:1, 5+2:0:1:0:1, 3+1:0:0:0:0, 3+1:0:0:0:0, 3+4:0:0:0:0, 3+1:0:0:0:0, 3+4:0:0:0:3, 1+1:0:0:0:0, 2+1:0:0:0:0, 2+2:0:0:0:0, 2+2:0:0:0:0, 3+1:0:0:0:1, 2+1:0:0:0:1, 3+2:0:0:0:0, 2+0:0:0:0:0, 1+1:1:0:0:0, 4+2:0:0:0:1, 1+3:0:0:0:0, 2+2:0:0:0:0, 3+1:0:0:0:0, 2+5:0:0:0:2, 3+3:1:0:0:1, 2+3:0:0:0:0, 2+5:0:0:0:3, 3+2:0:0:0:0, 3+2:0:0:0:0, 2+1:0:0:0:0, 2+1:1:0:0:0, 2+0:0:0:0:0, 2+2:1:0:0:1, 3+1:1:0:0:0, 3+2:0:0:0:0, 3+1:0:0:0:0, 2+1:1:0:0:1, 4+1:1:0:0:0, 2+1:0:0:0:0, 3+0:0:0:0:0, 5+2:0:0:0:0, 5+4:0:0:0:0, 1+1:0:0:0:0, 2+1:0:0:0:0, 3+1:0:0:0:0, 2+1:0:0:0:0, 4+2:0:0:0:0, 2+2:1:0:0:1, 4+1:0:0:0:0, 2+2:1:0:0:1, 3+1:0:0:0:0, 2+1:0:0:0:1, 2+2:0:0:0:0, 2+2:0:0:0:0, 2+2:0:0:0:0, 2+4:0:0:0:2, 4+4:0:0:0:2, 2+3:0:0:0:0, 4+5:0:0:0:2, 3+1:0:0:0:0, 4+2:0:0:0:0, 2+3:1:0:0:0, 4+4:0:0:0:2, 3+2:0:0:0:1, 2+2:1:0:0:1, 3+1:1:0:0:0, 3+2:0:1:0:1, 3+2:1:0:0:1, 4+1:0:0:0:0, 2+1:1:0:0:1, 3+0:0:0:0:0, 3+2:0:0:0:0, 5+3:0:0:0:0, 3+3:1:0:0:0, 2+5:0:0:0:1, 1+0:0:0:0:0, 2+1:0:0:0:0, 1+0:0:0:0:0, 2+2:0:0:0:0, 2+1:0:0:0:1, 3+2:0:0:0:0, 3+1:0:0:0:0, 2+1:0:0:0:0, 3+3:0:0:0:0, 1+2:0:0:0:0, 3+0:0:0:0:0, 2+0:0:0:0:0, 2+1:1:0:0:0, 3+3:0:0:0:2, 3+2:0:0:0:0, 2+6:1:0:0:3, 2+3:0:0:0:0, 2+3:0:0:0:0, 2+3:0:0:0:0, 3+1:0:0:0:1, 3+1:0:0:0:0, 4+2:1:0:0:1, 3+2:1:0:0:1, 2+0:0:0:0:0, 2+2:1:0:0:0, 4+2:0:0:0:0, 2+1:1:0:0:1, 3+1:0:0:0:0, 3+0:0:0:0:0, 4+2:0:0:0:1, 2+4:0:0:0:0, 1+1:0:0:0:0, 2+1:0:0:0:0, 1+0:0:0:0:0, 3+1:0:0:0:0, 3+2:0:0:0:0, 4+2:0:0:0:2, 3+1:1:0:0:0, 3+1:0:0:0:0, 3+2:0:0:0:0, 4+4:0:0:0:0, 1+1:0:0:0:0, 2+1:1:0:0:0, 2+2:0:0:0:0, 2+3:0:0:0:2, 4+3:0:0:0:2, 4+2:0:0:0:0, 4+3:0:0:0:2, 3+5:0:0:0:2, 2+3:0:0:0:1, 2+2:0:0:0:0, 3+3:0:0:0:0, 2+3:0:0:0:0, 4+3:0:0:0:2, 3+1:0:0:0:0, 2+0:0:0:0:0, 3+2:0:0:0:0, 4+2:0:0:0:0, 2+3:1:0:0:1, 3+5:0:0:0:0, 3+3:0:0:0:1, 1+2:0:0:0:2, 1+0:0:0:0:0, 1+0:0:0:0:0, 1+0:0:0:0:0, 1+0:0:0:0:0, 1+0:0:0:0:0, 463+319:35:5:0:75
G minor (2b), 0+2:0:0:0:0, 1+3:0:0:0:1, 1+2:0:0:0:0, 2+1:0:0:0:0, 2+3:0:0:0:1, 0+1:0:0:0:0, 2+3:0:0:0:1, 2+3:0:0:0:0, 2+1:0:0:0:0, 2+1:0:0:0:0, 2+2:1:0:0:0, 1+1:0:0:0:0, 2+1:0:0:0:0, 2+3:0:0:0:0, 3+2:0:0:0:0, 1+1:0:0:0:0, 2+1:0:0:0:0, 0+1:0:0:0:0, 1+1:0:0:0:0, 2+2:0:0:0:0, 1+1:0:0:0:0, 2+2:0:0:0:0, 2+3:0:0:0:1, 0+2:0:0:0:0, 1+0:0:0:0:0, 1+1:0:0:0:0, 2+2:0:0:0:0, 2+2:0:0:0:0, 2+4:0:0:0:2, 2+2:0:0:0:2, 0+0:0:0:0:0, 1+0:0:0:0:0, 2+1:0:0:0:0, 1+3:0:0:0:0, 1+2:0:0:0:0, 2+1:0:0:0:0, 1+1:0:0:0:0, 0+1:0:0:0:0, 2+3:0:0:0:1, 2+1:0:0:0:0, 1+1:1:0:0:1, 3+2:0:0:0:0, 0+1:0:0:0:0, 0+1:0:0:0:0, 2+0:0:0:0:0, 1+2:0:0:0:0, 1+0:0:0:0:0, 1+0:0:0:0:0, 0+3:0:0:0:0, 0+1:0:0:0:0, 0+3:0:0:0:0, 2+3:0:0:0:0, 1+1:0:0:0:0, 0+2:0:0:0:0, 0+1:0:0:0:0, 2+1:0:0:0:1, 1+3:0:0:0:0, 3+1:0:0:0:0, 3+1:0:0:0:0, 1+4:0:0:0:0, 2+2:0:0:0:0, 6+4:1:0:0:1, 0+0:0:0:0:0, 2+5:0:0:0:3, 0+2:0:0:0:0, 0+2:0:0:0:0, 1+1:0:0:0:0, 2+1:0:0:0:0, 0+1:0:0:0:0, 3+4:0:0:0:1, 2+2:0:0:0:0, 1+1:0:0:0:0, 0+1:0:0:0:0, 2+1:0:0:0:0, 1+1:1:0:0:0, 1+1:0:0:0:0, 2+0:0:0:0:0, 3+2:0:0:0:0, 3+2:0:0:0:0, 1+1:0:0:0:0, 2+1:0:0:0:0, 1+1:0:0:0:0, 2+1:0:0:0:0, 2+2:0:0:0:0, 2+3:0:0:0:1, 0+1:0:0:0:0, 2+3:0:0:0:1, 1+2:0:0:0:0, 1+0:0:0:0:0, 3+1:0:0:0:0, 1+1:0:0:0:0, 1+2:0:0:0:0, 2+0:0:0:0:0, 2+4:0:0:0:2, 0+0:0:0:0:0, 4+5:0:0:0:2, 1+1:0:0:0:0, 1+2:0:0:0:0, 1+3:0:0:0:1, 2+1:0:0:0:1, 1+2:0:0:0:0, 3+4:0:0:0:1, 2+2:0:0:0:0, 2+3:0:0:0:0, 3+2:0:0:0:0, 1+1:0:0:0:0, 2+1:0:0:0:0, 0+0:0:0:0:0, 2+2:0:0:0:0, 2+2:0:0:0:0, 2+1:0:0:0:0, 2+1:0:0:0:0, 0+2:0:0:0:0, 1+1:0:0:0:0, 0+0:0:0:0:0, 3+2:0:0:0:0, 1+1:0:0:0:0, 0+2:0:0:0:0, 0+2:0:0:0:0, 0+0:0:0:0:0, 1+0:0:0:0:0, 1+1:0:0:0:0, 2+0:0:0:0:0, 0+3:0:0:0:0, 3+1:0:0:0:1, 3+3:0:0:0:2, 0+1:0:0:0:0, 2+1:0:0:0:1, 0+2:0:0:0:0, 0+1:0:0:0:0, 0+2:0:0:0:0, 2+3:0:0:0:0, 0+1:0:0:0:0, 2+2:0:0:0:0, 3+4:0:0:0:1, 0+1:0:0:0:0, 2+2:0:0:0:1, 1+1:0:0:0:0, 2+1:0:0:0:0, 0+1:0:0:0:0, 2+0:0:0:0:0, 3+2:0:0:0:0, 1+0:0:0:0:0, 1+1:0:0:0:0, 0+1:0:0:0:0, 1+0:0:0:0:0, 1+1:0:0:0:0, 0+2:0:0:0:0, 2+3:0:0:0:1, 2+2:0:0:0:0, 1+1:0:0:0:0, 0+1:0:0:0:0, 2+4:0:0:0:0, 3+1:0:0:0:0, 1+1:1:0:0:0, 2+2:0:0:0:0, 1+3:0:0:0:2, 3+3:0:0:0:2, 1+2:0:0:0:0, 2+2:0:0:0:0, 2+0:0:0:0:0, 3+3:0:0:0:3, 1+1:0:1:0:1, 2+3:0:0:0:0, 2+1:1:0:0:0, 3+3:0:0:0:2, 1+1:0:0:0:0, 1+2:0:0:0:0, 1+0:0:0:0:0, 1+1:0:0:0:0, 3+3:0:0:0:0, 1+5:0:0:0:0, 1+1:0:0:0:0, 1+0:0:0:0:0, 1+0:0:0:0:0, 1+0:0:0:0:0, 1+0:0:0:0:0, 1+0:0:0:0:0, 1+0:0:0:0:0, 250+284:6:1:0:42
B minor (2#), 2+1:0:0:0:0, 2+2:0:0:0:1, 2+1:0:0:0:0, 2+1:0:0:0:0, 2+2:1:0:0:1, 4+2:0:0:0:0, 2+2:1:0:0:1, 3+2:0:1:0:1, 3+1:0:0:0:0, 4+1:0:1:0:1, 3+2:2:1:0:1, 3+2:0:0:0:0, 3+3:0:0:0:0, 4+3:0:0:0:0, 4+2:0:0:0:0, 2+4:0:0:0:0, 2+1:0:0:0:1, 3+1:0:0:0:0, 3+1:0:0:0:0, 2+2:0:0:0:0, 3+1:0:0:0:0, 3+1:1:0:0:0, 2+2:1:0:0:1, 3+1:0:0:0:0, 3+2:0:0:0:1, 2+4:0:0:0:0, 2+3:0:0:0:0, 2+2:0:0:0:0, 2+4:0:0:0:2, 2+2:0:0:0:2, 2+2:0:0:0:0, 2+1:0:0:0:1, 2+2:0:0:0:0, 2+1:0:0:0:1, 3+2:0:0:0:0, 2+1:0:0:0:0, 2+1:0:0:0:1, 4+2:0:0:0:0, 2+2:1:0:0:1, 3+1:0:0:0:0, 2+3:0:0:0:2, 4+4:0:0:0:3, 3+2:0:0:0:0, 3+2:0:0:0:0, 5+3:0:0:0:1, 3+2:0:0:0:1, 4+1:0:0:0:1, 1+0:0:0:0:0, 2+1:0:0:0:0, 2+1:0:0:0:0, 2+0:0:0:0:0, 3+2:0:0:0:0, 2+1:0:0:0:1, 3+1:0:0:0:0, 2+0:0:0:0:0, 1+1:1:0:0:0, 4+2:0:0:0:1, 1+3:0:0:0:0, 2+1:0:0:0:0, 3+1:0:0:0:0, 2+5:0:0:0:2, 3+3:1:0:0:1, 2+3:0:0:0:0, 2+5:0:0:0:3, 3+2:0:0:0:0, 3+3:0:0:0:0, 2+1:0:0:0:0, 2+1:0:0:0:0, 2+0:0:0:0:0, 2+2:1:0:0:1, 3+1:1:0:0:0, 3+2:0:0:0:0, 3+2:0:0:0:0, 2+3:0:0:0:2, 3+2:1:1:0:1, 2+2:0:0:0:0, 4+4:0:0:0:2, 5+2:0:0:0:0, 5+4:0:0:0:0, 1+1:0:0:0:0, 2+1:0:0:0:0, 3+1:0:0:0:0, 2+1:0:0:0:0, 4+2:0:0:0:0, 2+2:1:0:0:1, 4+2:0:0:0:0, 2+2:1:0:0:1, 3+1:0:0:0:0, 2+1:0:0:0:1, 2+2:0:0:0:0, 2+2:0:0:0:0, 2+2:0:0:0:0, 2+4:0:0:0:2, 4+4:0:0:0:2, 2+3:0:0:0:0, 5+1:0:0:0:1, 3+1:0:0:0:0, 3+2:0:0:0:0, 2+2:0:0:0:1, 4+2:0:0:0:0, 3+2:0:0:0:1, 2+2:1:0:0:1, 3+1:1:0:0:0, 3+2:0:1:0:1, 3+3:0:0:0:2, 4+3:0:0:0:0, 2+3:0:0:0:2, 3+4:0:0:0:0, 3+4:0:0:0:2, 5+3:0:0:0:0, 3+3:1:0:0:0, 3+4:0:0:0:0, 1+1:0:0:0:0, 2+0:0:0:0:0, 1+0:0:0:0:0, 2+3:0:0:0:0, 2+1:0:0:0:1, 3+1:0:0:0:0, 3+1:0:0:0:0, 2+1:0:0:0:0, 3+3:0:0:0:0, 1+2:0:0:0:0, 3+0:0:0:0:0, 2+2:0:0:0:0, 2+3:2:0:0:2, 3+3:0:0:0:2, 3+2:0:0:0:0, 2+3:3:0:0:3, 2+0:0:0:0:0, 2+1:0:0:0:0, 2+0:0:0:0:0, 3+3:0:0:0:0, 3+1:0:0:0:0, 4+2:1:0:0:0, 3+2:1:0:0:1, 2+0:0:0:0:0, 2+3:0:0:0:2, 4+2:0:0:0:1, 2+3:0:0:0:2, 3+1:0:0:0:0, 4+2:0:0:0:1, 4+2:0:0:0:1, 2+4:0:0:0:0, 1+1:0:0:0:0, 2+1:0:0:0:0, 1+0:0:0:0:0, 3+1:0:0:0:0, 3+2:0:0:0:0, 4+2:0:0:0:2, 3+1:1:0:0:0, 3+1:0:0:0:0, 3+2:0:0:0:0, 4+2:0:0:0:1, 1+1:0:0:0:0, 2+1:0:0:0:0, 2+2:0:0:0:0, 2+3:0:0:0:2, 4+3:0:0:0:2, 4+2:0:0:0:0, 4+3:0:0:0:2, 3+5:0:0:0:2, 2+3:0:0:0:1, 2+2:0:0:0:0, 3+3:0:0:0:0, 2+1:1:0:0:0, 4+3:0:0:0:2, 3+1:0:0:0:0, 2+0:0:0:0:0, 3+2:0:0:0:0, 4+1:0:0:0:0, 2+2:0:0:0:1, 3+5:0:0:0:0, 3+3:0:0:0:1, 2+1:0:0:0:1, 1+0:0:0:0:0, 1+0:0:0:0:0, 1+0:0:0:0:0, 1+0:0:0:0:0, 1+0:0:0:0:0, 467+336:26:5:0:90
Eb major (3b), 1+0:0:0:0:0, 1+1:0:0:0:0, 1+1:0:0:0:0, 1+1:0:0:0:0, 1+1:0:0:0:0, 0+0:0:0:0:0, 1+1:0:0:0:0, 1+0:0:0:0:0, 1+1:0:0:0:0, 2+1:0:0:0:1, 3+2:1:0:0:1, 2+1:0:0:0:0, 1+1:0:0:0:0, 1+1:0:0:0:0, 2+1:0:0:0:0, 1+1:0:0:0:1, 2+1:0:0:0:0, 1+0:0:0:0:0, 2+1:0:0:0:1, 3+1:0:0:0:0, 1+1:0:0:0:0, 1+1:0:0:0:0, 1+1:0:0:0:0, 0+0:0:0:0:0, 0+0:0:0:0:0, 1+0:0:0:0:0, 1+2:0:0:0:0, 1+1:0:1:0:0, 1+1:0:0:0:1, 3+2:0:0:0:0, 0+0:0:0:0:0, 0+0:0:0:0:0, 1+1:0:0:0:0, 2+1:0:0:0:1, 1+1:0:0:0:0, 1+1:0:0:0:0, 2+1:0:0:0:0, 0+0:0:0:0:0, 1+1:0:0:0:0, 2+2:0:0:0:2, 2+1:1:0:0:1, 3+2:0:0:0:1, 1+0:0:0:0:0, 1+0:0:0:0:0, 1+1:0:0:0:1, 0+0:0:0:0:0, 0+0:0:0:0:0, 2+0:0:0:0:0, 0+0:0:0:0:0, 0+0:0:0:0:0, 0+0:0:0:0:0, 3+1:0:0:0:0, 2+1:0:0:0:0, 0+0:0:0:0:0, 1+0:0:0:0:0, 2+1:0:0:0:0, 2+1:0:0:0:0, 3+1:0:0:0:0, 4+1:0:0:0:0, 1+1:0:0:0:0, 1+1:0:0:0:1, 6+4:1:0:0:2, 1+0:0:0:0:0, 1+3:0:0:0:0, 1+0:0:0:0:0, 0+0:0:0:0:0, 1+1:0:0:0:0, 1+1:0:0:0:0, 1+0:0:0:0:0, 2+2:0:0:0:1, 1+1:0:0:0:0, 1+1:0:0:0:1, 0+0:0:0:0:0, 1+1:0:0:0:0, 1+1:1:0:0:1, 2+1:0:0:0:0, 1+1:0:0:0:1, 2+2:0:0:0:1, 2+2:0:0:0:0, 2+0:0:0:0:0, 2+1:0:0:0:0, 2+0:0:0:0:0, 3+1:0:0:0:0, 3+2:0:0:0:1, 1+1:0:0:0:0, 0+0:0:0:0:0, 1+1:0:0:0:0, 1+1:0:0:0:0, 0+0:0:0:0:0, 2+1:0:0:0:0, 2+1:1:0:0:1, 1+0:0:0:0:0, 1+1:0:0:0:1, 3+2:0:0:0:0, 1+0:0:0:0:0, 3+5:0:0:0:2, 2+1:0:0:0:1, 1+1:0:0:0:0, 1+1:0:0:0:0, 1+1:0:0:0:0, 0+0:0:0:0:0, 2+2:0:0:0:1, 1+1:0:0:0:0, 2+1:0:0:0:1, 2+2:0:0:0:1, 1+1:0:0:0:1, 1+1:0:0:0:0, 1+0:0:0:0:0, 1+2:0:0:0:0, 1+1:0:0:0:0, 1+1:0:0:0:0, 3+1:0:0:0:0, 1+0:0:0:0:0, 2+0:0:0:0:0, 1+0:0:0:0:0, 3+1:0:0:0:0, 2+1:0:0:0:0, 0+0:0:0:0:0, 1+0:0:0:0:0, 0+0:0:0:0:0, 0+0:0:0:0:0, 1+0:0:0:0:0, 1+1:0:0:0:1, 0+0:0:0:0:0, 2+1:0:0:0:0, 4+3:0:0:0:0, 1+0:0:0:0:0, 1+1:0:0:0:0, 0+0:0:0:0:0, 0+0:0:0:0:0, 0+0:0:0:0:0, 3+1:0:0:0:0, 0+0:0:0:0:0, 1+1:0:0:0:0, 2+2:0:0:0:0, 1+0:0:0:0:0, 3+2:0:0:0:1, 0+0:0:0:0:0, 1+1:0:0:0:0, 1+0:0:0:0:0, 1+1:0:0:0:1, 2+1:0:0:0:1, 0+0:0:0:0:0, 2+0:0:0:0:0, 1+0:0:0:0:0, 2+0:0:0:0:0, 2+1:0:0:0:0, 1+0:0:0:0:0, 1+1:0:0:0:0, 1+1:0:0:0:0, 1+1:0:0:0:0, 0+0:0:0:0:0, 3+2:0:0:0:0, 3+1:0:0:0:0, 1+1:0:0:0:0, 2+1:0:1:0:1, 0+0:0:0:0:0, 3+3:0:0:0:0, 2+1:0:0:0:0, 1+1:0:0:0:0, 1+1:0:0:0:1, 4+2:1:0:0:1, 2+1:0:1:0:1, 1+2:0:0:0:0, 1+1:1:0:0:1, 4+3:0:0:0:0, 1+1:0:0:0:0, 2+1:0:0:0:0, 0+0:0:0:0:0, 0+0:0:0:0:0, 2+3:0:0:0:0, 1+3:0:0:0:0, 2+1:0:0:0:0, 0+0:0:0:0:0, 0+0:0:0:0:0, 0+0:0:0:0:0, 0+0:0:0:0:0, 0+0:0:0:0:0, 0+0:0:0:0:0, 233+151:7:3:0:38
A major (3#), 2+1:0:0:0:0, 2+2:0:0:0:1, 3+1:0:0:0:0, 3+1:0:0:0:0, 2+2:2:0:0:0, 4+2:0:0:0:0, 2+2:2:0:0:0, 3+2:0:1:0:1, 4+1:0:0:0:0, 3+2:2:0:0:2, 3+2:2:1:0:1, 3+1:0:0:0:0, 3+1:0:0:0:0, 5+3:0:0:0:0, 4+2:0:0:0:0, 3+4:0:0:0:0, 2+1:0:0:0:1, 4+1:0:0:0:0, 3+1:0:0:0:0, 3+2:0:0:0:0, 2+3:0:0:0:0, 4+1:1:0:0:0, 2+2:2:0:0:0, 4+1:0:0:0:0, 4+1:0:0:0:0, 3+4:0:0:0:0, 1+3:0:0:0:0, 3+2:0:0:0:0, 3+3:0:0:0:1, 2+2:0:0:0:2, 3+2:0:0:0:0, 1+1:0:0:0:1, 1+2:0:0:0:0, 2+1:0:0:0:1, 4+2:0:0:0:0, 3+1:0:0:0:0, 2+1:1:0:0:0, 4+2:0:0:0:0, 2+2:2:0:0:0, 3+1:0:0:0:0, 3+3:0:0:0:2, 5+4:0:0:0:3, 4+2:0:0:0:0, 4+2:0:0:0:0, 4+3:0:0:0:1, 4+2:0:0:0:1, 3+1:0:0:0:1, 2+3:0:0:0:0, 3+1:0:0:0:0, 3+1:0:0:0:0, 2+0:0:0:0:0, 3+2:0:0:0:1, 2+1:1:0:0:0, 3+1:0:0:0:0, 3+0:0:0:0:0, 1+1:1:0:0:0, 4+2:1:0:0:0, 2+4:0:0:0:0, 2+1:0:0:0:0, 4+1:0:0:0:0, 3+4:0:0:0:1, 3+5:1:0:0:1, 2+5:0:0:0:3, 2+1:0:0:0:1, 3+1:0:0:0:0, 4+3:0:0:0:0, 3+2:0:0:0:0, 3+1:0:0:0:0, 3+0:0:0:0:0, 2+2:2:0:0:0, 4+1:1:0:0:0, 3+2:0:0:0:0, 3+2:0:0:0:0, 3+3:0:0:0:2, 4+2:1:1:0:1, 3+4:0:0:0:2, 5+3:0:0:0:1, 5+2:1:0:0:1, 5+2:0:0:0:0, 2+3:0:0:0:0, 2+1:0:0:0:1, 4+3:0:0:0:0, 2+1:0:0:0:1, 4+2:0:0:0:0, 2+2:2:0:0:0, 4+2:0:0:0:0, 2+2:2:0:0:0, 4+1:0:0:0:0, 3+1:0:0:0:0, 3+2:0:0:0:0, 3+2:0:0:0:0, 2+2:0:0:0:0, 3+3:0:0:0:1, 4+4:0:0:0:2, 2+3:0:0:0:0, 4+1:0:0:0:1, 2+1:0:0:0:1, 4+2:0:0:0:0, 2+2:0:0:0:1, 5+2:0:0:0:0, 3+2:1:0:0:0, 2+2:2:0:0:0, 4+1:1:0:0:0, 4+2:0:1:0:1, 4+3:0:0:0:2, 3+2:0:0:0:2, 3+3:0:0:0:2, 4+4:0:0:0:0, 4+2:0:0:0:0, 5+2:0:0:0:0, 3+1:1:0:0:1, 4+4:0:0:0:0, 2+1:0:0:0:0, 2+0:0:0:0:0, 2+2:0:0:0:0, 3+3:0:0:0:0, 2+1:1:0:0:0, 3+1:0:0:0:0, 3+1:0:0:0:0, 3+1:0:0:0:0, 2+1:0:0:0:1, 2+4:0:0:0:0, 2+0:0:0:0:0, 2+3:0:0:0:0, 3+1:1:0:0:0, 3+3:0:0:0:2, 4+2:0:0:0:0, 4+3:0:0:0:1, 2+0:0:0:0:0, 3+1:0:0:0:0, 2+0:0:0:0:0, 3+3:0:0:0:1, 4+1:0:0:0:0, 5+3:0:0:0:1, 2+4:2:0:0:0, 3+6:0:0:0:0, 2+3:0:0:0:2, 5+1:0:0:0:0, 4+1:0:0:0:0, 4+1:0:0:0:0, 3+0:0:0:0:0, 4+2:0:0:0:1, 3+0:0:0:0:0, 2+3:0:0:0:0, 2+0:0:0:0:0, 2+1:0:0:0:0, 3+2:0:0:0:1, 4+2:0:0:0:0, 4+2:1:0:0:1, 4+1:1:0:0:0, 3+1:0:0:0:0, 4+2:0:0:0:0, 3+1:0:0:0:0, 2+3:0:0:0:0, 3+1:0:0:0:0, 3+2:0:0:0:0, 3+3:0:0:0:1, 4+3:0:0:0:2, 5+2:0:0:0:0, 4+3:0:0:0:2, 4+4:0:0:0:1, 2+3:0:0:0:1, 2+2:0:0:0:0, 3+3:0:0:0:0, 3+1:1:0:0:0, 4+3:0:0:0:2, 3+1:0:0:0:0, 2+0:0:0:0:0, 4+0:0:0:0:0, 5+1:0:0:0:0, 1+1:1:0:0:1, 3+3:0:0:0:1, 2+3:1:0:0:0, 1+1:0:0:0:1, 0+0:0:0:0:0, 0+0:0:0:0:0, 0+0:0:0:0:0, 0+0:0:0:0:0, 0+0:0:0:0:0, 529+332:41:4:0:72
C minor (3b), 1+2:0:0:0:0, 1+1:0:0:0:0, 1+0:0:0:0:0, 1+1:0:0:0:0, 1+3:0:0:0:1, 0+1:0:0:0:0, 1+3:0:0:0:1, 2+3:0:0:0:0, 1+1:0:0:0:0, 2+2:0:0:0:0, 3+2:1:0:0:0, 2+1:0:0:0:0, 1+1:0:0:0:0, 1+3:0:0:0:0, 2+2:0:0:0:0, 1+1:0:0:0:0, 2+1:0:0:0:0, 1+0:0:0:0:0, 2+1:0:0:0:0, 3+0:0:0:0:0, 1+3:0:0:0:0, 1+2:0:0:0:0, 1+3:0:0:0:1, 0+2:0:0:0:0, 0+0:0:0:0:0, 1+0:0:0:0:0, 1+2:0:0:0:0, 1+3:0:1:0:1, 1+1:0:0:0:1, 3+2:0:0:0:0, 0+0:0:0:0:0, 0+0:0:0:0:0, 1+1:0:0:0:0, 2+3:0:0:0:0, 1+2:0:0:0:0, 1+1:0:0:0:0, 2+1:0:0:0:0, 0+1:0:0:0:0, 1+3:0:0:0:1, 2+1:0:0:0:0, 2+1:1:0:0:1, 3+2:0:0:0:0, 1+1:0:0:0:0, 1+1:0:0:0:0, 1+0:0:0:0:0, 0+2:0:0:0:0, 0+0:0:0:0:0, 2+0:0:0:0:0, 0+0:0:0:0:0, 0+0:0:0:0:0, 0+0:0:0:0:0, 3+3:0:0:0:0, 2+1:0:0:0:0, 0+2:0:0:0:0, 1+1:0:0:0:0, 2+1:0:0:0:1, 2+3:0:0:0:0, 3+1:0:0:0:0, 4+1:0:0:0:0, 1+4:0:0:0:0, 1+2:0:0:0:0, 6+4:1:0:0:1, 1+0:0:0:0:0, 1+5:0:0:0:3, 1+2:0:0:0:0, 0+0:0:0:0:0, 1+0:0:0:0:0, 1+1:0:0:0:0, 1+1:0:0:0:0, 2+4:0:0:0:1, 1+2:0:0:0:0, 1+2:0:0:0:0, 0+2:0:0:0:0, 1+1:0:0:0:0, 1+3:1:0:0:1, 2+1:0:0:0:0, 1+0:0:0:0:0, 2+2:0:0:0:0, 2+2:0:0:0:0, 2+0:0:0:0:0, 2+1:0:0:0:0, 2+1:0:0:0:0, 3+1:0:0:0:0, 3+2:0:0:0:0, 1+3:0:0:0:1, 0+1:0:0:0:0, 1+3:0:0:0:1, 1+2:0:0:0:0, 0+0:0:0:0:0, 2+1:0:0:0:0, 2+1:0:0:0:0, 1+2:0:0:0:0, 1+0:0:0:0:0, 3+4:0:0:0:2, 1+0:0:0:0:0, 3+2:0:0:0:0, 2+1:0:0:0:0, 1+1:0:0:0:0, 1+1:0:0:0:0, 1+1:0:0:0:1, 0+2:0:0:0:0, 2+4:0:0:0:1, 1+2:0:0:0:0, 2+3:0:0:0:0, 2+2:0:0:0:0, 1+1:0:0:0:0, 1+1:0:0:0:0, 1+0:0:0:0:0, 1+2:0:0:0:0, 1+2:0:0:0:0, 1+1:0:0:0:0, 3+1:0:0:0:0, 1+0:0:0:0:0, 2+0:0:0:0:0, 1+0:0:0:0:0, 3+1:0:0:0:0, 2+1:0:0:0:0, 0+2:0:0:0:0, 1+2:0:0:0:0, 0+2:0:0:0:0, 0+0:0:0:0:0, 1+1:0:0:0:0, 1+1:0:0:0:0, 0+3:0:0:0:0, 2+1:0:0:0:1, 4+3:0:0:0:2, 1+1:0:0:0:0, 1+1:0:0:0:1, 0+0:0:0:0:0, 0+0:0:0:0:0, 0+0:0:0:0:0, 3+1:0:0:0:0, 0+5:0:0:0:0, 1+2:0:0:0:0, 2+4:0:0:0:1, 1+1:0:0:0:0, 3+2:0:0:0:1, 0+1:0:0:0:0, 1+1:0:0:0:0, 1+1:0:0:0:0, 1+0:0:0:0:0, 2+2:0:0:0:0, 0+0:0:0:0:0, 2+0:0:0:0:0, 1+0:0:0:0:0, 2+0:0:0:0:0, 2+1:0:0:0:0, 1+2:0:0:0:0, 1+3:0:0:0:1, 1+2:0:0:0:0, 1+1:0:0:0:0, 0+1:0:0:0:0, 3+4:0:0:0:0, 3+1:0:0:0:0, 1+1:0:0:0:0, 2+1:0:1:0:1, 0+0:0:0:0:0, 3+3:0:0:0:2, 2+2:0:0:0:0, 1+2:0:0:0:0, 1+0:0:0:0:0, 4+3:0:0:0:3, 3+4:0:0:0:0, 1+3:0:0:0:0, 1+1:1:0:0:0, 4+5:0:0:0:2, 1+1:0:0:0:0, 2+2:0:0:0:0, 0+0:0:0:0:0, 0+1:0:0:0:0, 2+3:0:0:0:0, 1+1:0:0:0:0, 2+3:0:0:0:0, 0+0:0:0:0:0, 0+0:0:0:0:0, 0+0:0:0:0:0, 0+0:0:0:0:0, 0+0:0:0:0:0, 0+0:0:0:0:0, 235+257:5:2:0:35
F# minor (3#), 2+1:0:0:0:0, 2+2:0:0:0:1, 3+1:0:0:0:0, 3+1:0:0:0:0, 3+3:1:0:0:0, 4+1:0:0:0:0, 3+3:1:0:0:0, 4+3:0:0:0:0, 4+1:0:0:0:0, 3+2:2:0:0:2, 3+2:2:1:0:1, 3+1:0:0:0:0, 3+1:0:0:0:0, 5+3:0:0:0:0, 4+2:0:0:0:0, 3+4:0:0:0:0, 2+1:0:0:0:1, 4+2:0:0:0:0, 2+1:0:0:0:1, 3+2:0:0:0:0, 3+1:0:0:0:0, 5+2:0:0:0:0, 3+3:1:0:0:0, 4+1:0:0:0:0, 4+1:0:0:0:0, 3+4:0:0:0:0, 1+3:0:0:0:0, 3+2:0:0:0:0, 3+3:0:0:0:1, 2+2:0:0:0:2, 3+2:0:0:0:0, 1+1:0:0:0:1, 1+2:0:0:0:0, 2+1:0:0:0:1, 4+2:0:0:0:0, 3+1:0:0:0:0, 2+1:1:0:0:0, 4+1:0:0:0:0, 2+2:2:0:0:0, 3+1:0:0:0:0, 3+3:0:0:0:2, 5+4:0:0:0:3, 4+2:0:0:0:0, 4+2:0:0:0:0, 4+3:0:0:0:1, 4+2:0:0:0:0, 3+1:0:0:0:1, 2+3:0:0:0:0, 3+1:0:0:0:0, 3+1:0:0:0:0, 2+0:0:0:0:0, 3+2:0:0:0:1, 2+1:1:0:0:0, 3+2:0:0:0:0, 3+0:0:0:0:0, 1+1:1:0:0:0, 4+2:0:0:0:0, 2+6:0:0:0:0, 2+1:0:0:0:0, 4+1:0:0:0:0, 3+4:0:0:0:1, 3+5:1:0:0:1, 2+5:0:0:0:3, 2+1:0:0:0:1, 3+1:0:0:0:0, 4+3:0:0:0:0, 3+2:0:0:0:0, 3+1:0:0:0:0, 3+3:0:0:0:0, 2+2:2:0:0:0, 4+1:1:0:0:0, 3+2:0:0:0:0, 3+2:0:0:0:0, 3+3:0:0:0:2, 5+5:0:0:0:1, 3+4:0:0:0:2, 5+3:0:0:0:1, 5+2:1:0:0:1, 5+2:0:0:0:0, 2+3:0:0:0:0, 2+1:0:0:0:1, 4+3:0:0:0:0, 2+1:0:0:0:1, 4+2:0:0:0:0, 3+3:1:0:0:0, 4+1:0:0:0:0, 3+3:1:0:0:0, 4+3:0:0:0:0, 3+1:0:0:0:0, 3+2:0:0:0:0, 3+2:0:0:0:0, 2+2:0:0:0:0, 3+3:0:0:0:1, 4+4:0:0:0:1, 2+5:0:0:0:3, 4+1:0:0:0:1, 2+1:0:0:0:1, 4+2:0:0:0:0, 2+2:0:0:0:1, 5+2:0:0:0:0, 3+2:1:0:0:0, 2+2:2:0:0:0, 4+1:1:0:0:0, 4+2:0:1:0:1, 5+2:0:0:0:0, 3+1:1:0:0:1, 4+1:0:0:0:0, 4+0:0:0:0:0, 4+2:0:0:0:0, 5+2:0:0:0:0, 3+1:1:0:0:1, 4+4:0:0:0:0, 2+1:0:0:0:0, 2+0:0:0:0:0, 2+2:0:0:0:0, 3+3:0:0:0:0, 2+1:1:0:0:0, 3+2:0:0:0:0, 3+1:0:0:0:0, 3+1:0:0:0:0, 2+1:0:0:0:1, 2+4:0:0:0:0, 2+0:0:0:0:0, 2+3:0:0:0:0, 3+1:1:0:0:0, 3+3:0:0:0:2, 4+2:0:0:0:0, 4+3:0:0:0:1, 2+0:0:0:0:0, 3+1:0:0:0:0, 2+0:0:0:0:0, 3+3:0:0:0:1, 4+7:0:0:0:0, 5+3:0:0:0:1, 2+4:2:0:0:0, 3+6:0:0:0:0, 2+3:0:0:0:2, 5+1:0:0:0:0, 4+1:0:0:0:0, 4+1:0:0:0:0, 3+0:0:0:0:0, 4+2:0:0:0:0, 3+0:0:0:0:0, 2+3:0:0:0:0, 2+0:0:0:0:0, 2+1:0:0:0:0, 3+2:0:0:0:1, 4+2:0:0:0:0, 5+3:0:0:0:1, 5+2:0:0:0:0, 3+1:0:0:0:0, 4+2:0:0:0:0, 3+1:0:0:0:0, 2+3:0:0:0:0, 3+1:0:0:0:0, 3+5:0:0:0:2, 3+3:0:0:0:1, 4+3:0:0:0:2, 5+2:0:0:0:0, 4+3:0:0:0:2, 4+4:0:0:0:1, 2+3:0:0:0:1, 2+4:0:0:0:2, 3+3:0:0:0:0, 3+1:1:0:0:0, 4+3:0:0:0:1, 2+3:0:0:0:0, 2+2:0:0:0:0, 4+0:0:0:0:0, 5+1:0:0:0:0, 1+1:1:0:0:1, 3+3:0:0:0:1, 2+4:4:0:0:2, 1+1:0:0:0:1, 0+0:0:0:0:0, 0+0:0:0:0:0, 0+0:0:0:0:0, 0+0:0:0:0:0, 0+0:0:0:0:0, 540+359:35:2:0:72
Ab major (4b), 2+1:0:0:0:0, 2+1:0:0:0:0, 1+0:0:0:0:0, 1+1:0:0:0:0, 1+1:0:0:0:0, 1+0:0:0:0:0, 1+1:0:0:0:0, 1+0:0:0:0:0, 1+1:0:0:0:0, 3+1:0:0:0:1, 3+2:0:0:0:2, 3+1:0:0:0:0, 2+1:0:0:0:0, 1+1:0:0:0:0, 2+1:0:0:0:0, 1+1:0:0:0:1, 3+1:0:0:0:0, 1+0:0:0:0:0, 3+1:0:0:0:0, 3+1:0:0:0:0, 2+1:0:0:0:0, 1+1:0:0:0:0, 1+1:0:0:0:0, 1+0:0:0:0:0, 1+0:0:0:0:0, 0+0:0:0:0:0, 1+2:0:0:0:0, 1+1:0:1:0:0, 2+1:0:0:0:1, 2+2:0:0:0:0, 1+0:0:0:0:0, 0+0:0:0:0:0, 2+1:0:0:0:0, 3+1:0:0:0:1, 2+1:0:0:0:0, 2+1:0:0:0:0, 2+1:0:0:0:0, 1+0:0:0:0:0, 1+1:0:0:0:0, 2+1:0:0:0:0, 2+1:1:0:0:1, 3+2:0:0:0:1, 1+0:0:0:0:0, 2+0:0:0:0:0, 2+1:0:0:0:1, 1+0:0:0:0:0, 1+0:0:0:0:0, 2+0:0:0:0:0, 0+0:0:0:0:0, 1+0:0:0:0:0, 0+0:0:0:0:0, 4+1:0:0:0:0, 2+1:0:0:0:0, 1+0:0:0:0:0, 2+0:0:0:0:0, 3+1:0:0:0:0, 2+1:0:0:0:0, 4+1:0:0:0:0, 4+2:0:0:0:0, 2+1:0:0:0:0, 1+1:0:0:0:1, 6+4:0:0:0:1, 2+1:0:0:0:0, 1+2:0:0:0:2, 2+1:0:0:0:0, 1+0:0:0:0:0, 2+0:0:0:0:0, 2+1:0:0:0:0, 2+0:0:0:0:0, 2+2:0:0:0:1, 1+1:0:0:0:0, 2+1:0:0:0:1, 1+0:0:0:0:0, 2+1:0:0:0:0, 2+1:1:0:0:1, 3+1:0:0:0:0, 1+1:0:0:0:1, 3+2:0:0:0:1, 3+1:0:0:0:0, 3+0:0:0:0:0, 3+1:0:0:0:0, 3+0:0:0:0:0, 4+1:0:0:0:0, 3+2:0:0:0:1, 1+1:0:0:0:0, 1+0:0:0:0:0, 1+1:0:0:0:0, 1+1:0:0:0:0, 1+0:0:0:0:0, 2+1:0:0:0:0, 2+1:1:0:0:1, 0+2:0:0:0:0, 1+1:0:0:0:0, 4+2:0:0:0:0, 2+0:0:0:0:0, 3+3:0:0:0:0, 3+1:0:0:0:0, 2+1:0:0:0:0, 2+1:0:0:0:0, 2+1:0:0:0:0, 1+0:0:0:0:0, 2+2:0:0:0:1, 1+1:0:0:0:0, 3+1:0:0:0:1, 2+2:0:0:0:1, 2+1:0:0:0:1, 1+1:0:0:0:0, 1+1:0:0:0:0, 2+2:0:0:0:0, 2+1:0:0:0:0, 2+1:0:0:0:0, 4+1:0:0:0:0, 2+0:0:0:0:0, 3+0:0:0:0:0, 2+0:0:0:0:0, 4+1:0:0:0:0, 3+1:0:0:0:0, 1+0:0:0:0:0, 1+0:0:0:0:0, 1+0:0:0:0:0, 1+0:0:0:0:0, 0+0:0:0:0:0, 1+1:0:0:0:1, 1+0:0:0:0:0, 2+2:0:0:0:0, 4+5:0:0:0:1, 1+2:0:0:0:0, 1+1:0:0:0:0, 1+0:0:0:0:0, 0+0:0:0:0:0, 1+0:0:0:0:0, 3+1:0:0:0:0, 1+0:0:0:0:0, 2+1:0:0:0:0, 3+2:0:0:0:0, 2+0:0:0:0:0, 2+2:0:0:0:1, 0+0:0:0:0:0, 2+1:0:0:0:0, 1+1:0:0:0:0, 1+1:0:0:0:1, 3+1:0:0:0:1, 0+0:0:0:0:0, 2+0:0:0:0:0, 2+0:0:0:0:0, 3+0:0:0:0:0, 3+1:0:0:0:0, 2+0:0:0:0:0, 1+1:0:0:0:0, 1+1:0:0:0:0, 2+1:0:0:0:1, 1+0:0:0:0:0, 4+2:0:0:0:0, 2+1:0:0:0:0, 2+1:0:0:0:0, 2+1:0:1:0:1, 1+0:0:0:0:0, 4+3:0:0:0:0, 2+1:0:0:0:0, 2+1:0:0:0:0, 1+1:0:0:0:1, 4+2:0:0:0:0, 3+1:0:1:0:1, 1+2:0:0:0:0, 1+1:1:0:0:1, 4+2:0:0:0:0, 2+1:0:0:0:0, 2+0:0:0:0:0, 0+2:0:0:0:0, 0+0:0:0:0:0, 3+3:0:0:0:0, 2+3:0:0:0:0, 3+1:0:0:0:0, 0+0:0:0:0:0, 0+0:0:0:0:0, 0+0:0:0:0:0, 0+0:0:0:0:0, 0+0:0:0:0:0, 0+0:0:0:0:0, 321+157:4:3:0:34
E major (4#), 3+1:0:0:0:0, 2+2:0:0:0:0, 3+1:0:0:0:0, 3+1:0:0:0:0, 2+2:2:0:0:0, 5+1:0:0:0:0, 3+3:1:0:0:0, 3+2:0:1:0:1, 4+1:0:0:0:0, 5+1:0:1:0:1, 4+2:2:1:0:1, 4+1:0:0:0:0, 4+3:0:0:0:0, 5+3:0:0:0:0, 4+2:0:0:0:0, 2+4:0:0:0:0, 2+1:0:0:0:0, 4+2:0:0:0:0, 3+1:0:0:0:1, 3+2:0:0:0:0, 4+1:0:0:0:0, 5+2:0:0:0:0, 3+3:1:0:0:0, 5+1:0:0:0:0, 5+1:0:0:0:0, 3+4:0:0:0:0, 1+3:0:0:0:0, 3+2:0:0:0:0, 4+3:0:0:0:1, 2+2:0:0:0:2, 4+0:0:0:0:0, 1+1:0:0:0:1, 2+2:0:0:0:0, 3+1:0:0:0:1, 5+2:0:0:0:0, 4+1:0:0:0:0, 2+1:1:0:0:0, 5+1:0:0:0:0, 2+1:1:0:0:1, 3+1:0:0:0:0, 3+3:0:0:0:1, 5+4:0:0:0:3, 4+1:0:0:0:0, 5+1:0:0:0:0, 5+3:0:0:0:1, 5+1:0:0:0:0, 4+1:0:0:0:1, 2+0:0:0:0:0, 3+1:0:0:0:0, 4+1:0:0:0:0, 2+0:0:0:0:0, 4+2:0:0:0:1, 2+1:1:0:0:0, 4+2:0:0:0:0, 4+1:0:0:0:0, 2+1:1:0:0:0, 4+2:0:0:0:0, 3+4:0:0:0:0, 1+1:0:0:0:0, 5+1:0:0:0:0, 3+4:0:0:0:1, 4+5:1:0:0:1, 3+5:0:0:0:3, 2+1:0:0:0:1, 4+1:0:0:0:0, 5+3:0:0:0:0, 4+2:0:0:0:0, 4+1:0:0:0:0, 4+3:0:0:0:0, 2+2:2:0:0:0, 4+1:1:0:0:0, 4+2:0:0:0:0, 4+1:0:0:0:0, 4+1:1:0:0:1, 6+1:1:0:0:0, 4+4:0:0:0:1, 4+3:0:0:0:1, 7+2:0:0:0:0, 5+4:1:0:0:1, 3+1:0:0:0:0, 2+1:0:0:0:0, 5+3:0:0:0:0, 2+1:0:0:0:0, 3+2:0:0:0:0, 2+2:2:0:0:0, 5+1:0:0:0:0, 2+2:2:0:0:0, 4+3:0:0:0:0, 4+1:0:0:0:0, 3+2:0:0:0:0, 3+2:0:0:0:0, 2+1:1:0:0:0, 3+3:0:0:0:1, 5+4:0:0:0:1, 3+5:0:0:0:3, 4+1:0:0:0:1, 3+1:0:0:0:1, 5+2:0:0:0:0, 2+2:0:0:0:0, 6+2:0:0:0:0, 4+2:1:0:0:0, 2+2:2:0:0:0, 4+1:1:0:0:0, 5+2:0:1:0:1, 5+2:0:0:0:0, 5+1:0:0:0:0, 4+1:0:0:0:0, 4+0:0:0:0:0, 5+2:0:0:0:0, 6+3:0:0:0:0, 4+3:1:0:0:0, 5+4:0:0:0:0, 3+1:0:0:0:0, 3+0:0:0:0:0, 3+2:0:0:0:0, 4+3:0:0:0:0, 3+1:1:0:0:0, 4+2:0:0:0:0, 3+2:0:0:0:0, 4+0:0:0:0:0, 3+3:1:0:0:1, 2+4:0:0:0:0, 2+0:0:0:0:0, 3+0:0:0:0:0, 3+1:1:0:0:0, 2+3:1:0:0:3, 4+1:0:0:0:0, 3+3:2:0:0:2, 3+0:0:0:0:0, 3+1:0:0:0:0, 3+0:0:0:0:0, 3+3:0:0:0:1, 5+7:0:0:0:0, 5+3:0:0:0:0, 3+4:2:0:0:0, 4+6:0:0:0:0, 2+3:0:0:0:1, 5+1:0:0:0:0, 4+1:1:0:0:1, 4+1:0:0:0:0, 3+0:0:0:0:0, 5+2:0:0:0:1, 3+4:0:0:0:0, 2+0:0:0:0:0, 3+0:0:0:0:0, 3+1:0:0:0:0, 4+2:0:0:0:1, 5+2:0:0:0:0, 5+3:0:0:0:1, 5+2:0:0:0:0, 4+1:0:0:0:0, 5+2:0:0:0:0, 2+1:0:0:0:0, 2+3:0:0:0:0, 4+1:0:0:0:0, 3+5:0:0:0:1, 4+3:0:0:0:1, 5+3:0:0:0:2, 5+2:0:0:0:0, 5+3:0:0:0:2, 3+4:0:0:0:1, 3+3:0:0:0:1, 3+4:0:0:0:2, 3+3:0:0:0:0, 3+1:1:0:0:0, 4+3:0:0:0:1, 3+3:0:0:0:0, 2+2:0:0:0:0, 4+0:0:0:0:0, 5+1:0:0:0:0, 2+1:1:0:0:1, 4+3:0:0:0:1, 3+4:4:0:0:2, 1+1:0:0:0:1, 0+0:0:0:0:0, 0+0:0:0:0:0, 0+0:0:0:0:0, 0+0:0:0:0:0, 0+0:0:0:0:0, 619+340:42:4:0:63
F minor (4b), 2+1:0:0:0:0, 2+1:0:0:0:0, 1+0:0:0:0:0, 1+1:0:0:0:0, 1+3:0:0:0:1, 1+1:0:0:0:0, 1+1:0:0:0:0, 1+1:0:1:0:1, 1+1:0:0:0:0, 3+2:0:0:0:0, 3+1:0:0:0:0, 3+1:0:0:0:0, 2+1:0:0:0:0, 1+3:0:0:0:0, 2+2:0:0:0:0, 1+2:0:0:0:0, 3+1:0:0:0:0, 1+0:0:0:0:0, 3+1:0:0:0:0, 3+0:0:0:0:0, 2+3:0:0:0:0, 1+2:0:0:0:0, 1+3:0:0:0:1, 1+2:0:0:0:0, 1+0:0:0:0:0, 0+0:0:0:0:0, 1+2:0:0:0:0, 1+3:0:1:0:1, 2+0:0:0:0:0, 2+0:0:0:0:0, 1+3:0:0:0:0, 0+0:0:0:0:0, 2+1:0:0:0:0, 3+3:0:0:0:0, 2+2:0:0:0:0, 2+1:0:0:0:0, 2+1:0:0:0:0, 1+1:0:0:0:0, 1+1:0:0:0:0, 2+1:0:0:0:0, 2+1:1:0:0:1, 3+2:0:0:0:1, 1+0:0:0:0:0, 2+1:0:0:0:0, 2+0:0:0:0:0, 1+2:0:0:0:0, 1+0:0:0:0:0, 2+0:0:0:0:0, 0+0:0:0:0:0, 1+0:0:0:0:0, 0+0:0:0:0:0, 4+1:0:0:0:0, 2+1:0:0:0:0, 1+0:0:0:0:0, 2+0:0:0:0:0, 3+1:0:0:0:0, 2+1:0:0:0:0, 4+1:0:0:0:0, 4+1:0:0:0:0, 2+4:0:0:0:0, 1+2:0:0:0:0, 7+3:1:0:0:1, 2+3:0:0:0:0, 1+3:0:0:0:0, 2+1:0:0:0:0, 1+0:0:0:0:0, 2+0:0:0:0:0, 2+1:0:0:0:0, 2+0:0:0:0:0, 2+2:0:0:0:0, 1+1:0:0:0:0, 2+2:0:0:0:0, 1+2:0:0:0:0, 2+1:0:0:0:0, 2+3:1:0:0:1, 3+1:0:0:0:0, 1+0:0:0:0:0, 3+2:0:0:0:0, 3+2:0:0:0:0, 3+0:0:0:0:0, 3+1:0:0:0:0, 3+0:0:0:0:0, 4+1:0:0:0:0, 3+2:0:0:0:0, 1+3:0:0:0:1, 1+1:0:0:0:0, 1+1:0:0:0:0, 1+0:0:0:0:0, 1+1:0:0:0:0, 2+1:0:0:0:0, 2+1:1:0:0:1, 0+2:0:0:0:0, 1+1:0:0:0:0, 4+2:0:0:0:0, 2+3:0:0:0:0, 3+3:0:0:0:0, 3+1:0:0:0:0, 2+1:0:0:0:0, 2+1:0:0:0:0, 2+1:0:0:0:1, 1+2:0:0:0:0, 2+4:0:0:0:1, 1+2:0:0:0:0, 3+3:0:0:0:0, 2+2:0:0:0:0, 2+1:0:0:0:0, 1+1:0:0:0:0, 1+3:0:0:0:0, 2+2:0:0:0:0, 2+2:0:0:0:0, 2+1:0:0:0:0, 4+1:0:0:0:0, 2+0:0:0:0:0, 3+0:0:0:0:0, 2+0:0:0:0:0, 4+1:0:0:0:0, 3+1:0:0:0:0, 1+0:0:0:0:0, 1+0:0:0:0:0, 1+0:0:0:0:0, 1+2:0:0:0:0, 0+0:0:0:0:0, 1+1:0:0:0:0, 1+3:0:0:0:0, 2+1:0:0:0:0, 4+3:0:0:0:0, 1+2:0:0:0:0, 1+1:0:0:0:0, 1+0:0:0:0:0, 0+0:0:0:0:0, 1+0:0:0:0:0, 3+1:0:0:0:0, 1+5:0:0:0:0, 2+2:0:0:0:0, 3+4:0:0:0:1, 2+0:0:0:0:0, 2+3:0:0:0:0, 0+1:0:0:0:0, 2+1:0:0:0:0, 1+3:0:0:0:0, 1+2:0:0:0:0, 3+2:0:0:0:0, 0+1:0:0:0:0, 2+0:0:0:0:0, 2+0:0:0:0:0, 3+0:0:0:0:0, 3+1:0:0:0:0, 2+0:0:0:0:0, 1+1:0:0:0:0, 1+2:0:0:0:0, 2+3:0:0:0:0, 1+1:0:0:0:0, 4+4:0:0:0:0, 2+1:0:0:0:0, 2+1:0:0:0:0, 3+2:0:0:0:0, 1+2:0:0:0:0, 4+3:0:0:0:0, 2+2:0:0:0:0, 2+2:0:0:0:0, 1+0:0:0:0:0, 4+3:0:0:0:2, 4+2:0:0:0:0, 1+2:0:0:0:0, 1+2:1:0:0:1, 4+2:0:0:0:0, 2+1:0:0:0:0, 2+0:0:0:0:0, 0+2:0:0:0:0, 0+1:0:0:0:0, 3+3:0:0:0:0, 2+3:0:0:0:0, 3+3:0:0:0:0, 0+0:0:0:0:0, 0+0:0:0:0:0, 0+0:0:0:0:0, 0+0:0:0:0:0, 0+0:0:0:0:0, 0+0:0:0:0:0, 324+238:5:2:0:16
C# minor (4#), 4+2:0:0:0:1, 2+3:0:0:0:2, 3+1:0:0:0:0, 3+1:0:0:0:0, 3+3:1:0:0:0, 5+1:0:0:0:0, 3+3:1:0:0:0, 3+2:0:1:0:1, 4+1:0:0:0:0, 5+1:0:1:0:1, 4+2:2:1:0:1, 4+1:0:0:0:0, 4+1:0:0:0:0, 5+3:0:0:0:0, 4+2:0:0:0:0, 2+1:0:0:0:1, 2+1:0:0:0:0, 4+1:0:0:0:0, 3+1:0:0:0:1, 3+2:0:0:0:0, 4+1:0:0:0:0, 5+2:0:0:0:0, 3+3:1:0:0:0, 5+1:0:0:0:0, 5+1:0:0:0:0, 3+1:0:0:0:0, 1+3:0:0:0:0, 3+2:0:0:0:0, 4+3:0:0:0:1, 2+2:0:0:0:2, 4+0:0:0:0:0, 1+0:0:0:0:0, 2+2:0:0:0:0, 3+1:0:0:0:1, 5+2:0:0:0:0, 4+1:0:0:0:0, 2+1:1:0:0:0, 5+1:0:0:0:0, 3+3:1:0:0:0, 3+1:0:0:0:0, 3+1:1:0:0:1, 6+2:0:1:0:1, 4+1:0:0:0:0, 5+1:0:0:0:0, 5+0:0:0:0:0, 5+2:0:0:0:0, 4+1:0:0:0:1, 2+0:0:0:0:0, 3+1:0:0:0:0, 4+1:0:0:0:0, 2+0:0:0:0:0, 4+2:0:0:0:1, 2+1:1:0:0:0, 4+2:0:0:0:0, 4+1:0:0:0:0, 2+1:1:0:0:0, 4+2:1:0:0:0, 3+3:0:0:0:0, 1+2:0:0:0:0, 5+1:0:0:0:0, 3+4:0:0:0:1, 4+5:1:0:0:1, 3+3:0:0:0:0, 2+1:0:0:0:1, 4+1:0:0:0:0, 5+3:0:0:0:0, 4+2:0:0:0:0, 4+1:0:0:0:0, 4+0:0:0:0:0, 2+2:2:0:0:0, 4+1:1:0:0:0, 4+2:0:0:0:0, 4+1:0:0:0:0, 4+1:1:0:0:1, 6+1:1:0:0:0, 4+1:0:0:0:0, 4+0:0:0:0:0, 6+2:1:0:0:1, 5+4:1:0:0:1, 3+1:0:0:0:0, 2+1:0:0:0:0, 5+3:0:0:0:0, 2+1:0:0:0:0, 3+2:0:0:0:0, 3+3:1:0:0:0, 5+1:0:0:0:0, 3+3:1:0:0:0, 4+2:0:0:0:0, 4+1:0:0:0:0, 3+1:0:0:0:0, 3+2:0:0:0:0, 2+1:1:0:0:0, 3+3:0:0:0:1, 5+4:0:0:0:2, 3+3:0:0:0:0, 4+1:0:0:0:1, 4+1:0:0:0:0, 6+2:0:0:0:0, 3+3:1:0:0:0, 6+3:0:0:0:0, 4+1:1:0:0:1, 2+2:2:0:0:0, 4+1:1:0:0:0, 5+2:0:1:0:1, 5+2:0:0:0:0, 5+1:0:0:0:0, 4+1:0:0:0:0, 4+0:0:0:0:0, 5+2:0:0:0:0, 6+2:0:0:0:0, 4+1:1:0:0:1, 4+1:0:0:0:0, 3+1:0:0:0:0, 3+0:0:0:0:0, 3+2:0:0:0:0, 4+3:0:0:0:0, 3+1:1:0:0:0, 4+2:0:0:0:0, 3+2:0:0:0:0, 4+0:0:0:0:0, 4+0:0:0:0:0, 2+1:0:0:0:1, 2+0:0:0:0:0, 3+0:0:0:0:0, 3+1:1:0:0:0, 2+3:1:0:0:3, 4+1:0:0:0:0, 3+3:2:0:0:2, 3+0:0:0:0:0, 3+1:0:0:0:0, 3+0:0:0:0:0, 3+3:0:0:0:1, 5+1:0:0:0:0, 7+2:0:0:0:0, 3+5:2:0:0:1, 4+1:0:0:0:0, 2+2:1:0:0:0, 5+1:0:0:0:0, 5+1:0:0:0:0, 4+1:0:0:0:0, 3+0:0:0:0:0, 5+2:0:0:0:1, 3+4:0:0:0:0, 2+0:0:0:0:0, 3+0:0:0:0:0, 3+1:0:0:0:0, 5+1:0:0:0:0, 5+2:0:0:0:0, 5+3:0:0:0:1, 5+2:0:0:0:0, 4+1:0:0:0:0, 5+1:0:0:0:0, 2+3:0:0:0:0, 2+2:0:0:0:0, 4+1:0:0:0:0, 3+2:0:0:0:0, 4+3:0:0:0:1, 5+3:0:0:0:2, 5+2:0:0:0:0, 5+2:0:0:0:0, 4+0:0:0:0:0, 3+3:0:0:0:1, 3+2:0:0:0:0, 3+3:0:0:0:0, 3+1:1:0:0:0, 4+3:0:0:0:2, 4+1:0:0:0:0, 2+2:0:0:0:0, 4+0:0:0:0:0, 5+1:0:0:0:0, 2+1:1:0:0:1, 4+2:0:0:0:0, 3+4:4:0:0:4, 1+1:1:0:0:1, 0+0:0:0:0:0, 0+0:0:0:0:0, 0+0:0:0:0:0, 0+0:0:0:0:0, 0+0:0:0:0:0, 633+279:43:5:0:51
Db major (5b), 2+0:0:0:0:0, 2+1:0:0:0:0, 2+1:0:0:0:0, 2+1:0:0:0:0, 2+1:0:0:0:0, 1+0:0:0:0:0, 2+1:0:0:0:0, 1+0:0:0:0:0, 2+1:0:0:0:0, 3+1:0:0:0:1, 2+1:0:0:0:0, 3+1:0:0:0:0, 2+1:0:0:0:0, 2+1:0:0:0:0, 2+1:0:0:0:0, 2+1:0:0:0:1, 2+1:0:1:0:0, 2+0:0:0:0:0, 3+1:0:0:0:1, 4+1:0:0:0:0, 2+1:0:0:0:0, 2+1:0:0:0:0, 2+1:0:0:0:0, 2+0:0:0:0:0, 2+0:0:0:0:0, 1+0:0:0:0:0, 1+2:0:0:0:0, 2+1:0:1:0:0, 3+1:0:0:0:1, 1+2:0:0:0:0, 2+0:0:0:0:0, 0+0:0:0:0:0, 2+1:0:0:0:0, 3+1:0:0:0:1, 3+1:0:0:0:0, 3+1:0:0:0:0, 3+1:0:0:0:0, 1+0:0:0:0:0, 2+1:0:0:0:0, 2+2:0:0:0:2, 3+1:1:0:0:1, 4+2:0:0:0:1, 2+0:0:0:0:0, 3+0:0:0:0:0, 3+1:0:0:0:1, 2+0:0:0:0:0, 1+0:0:0:0:0, 3+0:0:0:0:0, 1+0:0:0:0:0, 2+0:0:0:0:0, 0+0:0:0:0:0, 3+1:0:0:0:0, 3+1:0:0:0:0, 1+0:0:0:0:0, 3+0:0:0:0:0, 2+1:0:0:0:0, 3+1:0:0:0:0, 5+1:0:0:0:0, 4+1:0:0:0:0, 3+1:0:0:0:0, 2+1:0:0:0:1, 5+4:0:0:0:1, 2+0:0:0:0:0, 1+5:0:0:0:0, 2+0:0:0:0:0, 2+0:0:0:0:0, 3+1:0:0:0:0, 3+1:0:0:0:0, 3+0:0:0:0:0, 3+2:0:0:0:1, 2+1:0:0:0:0, 2+1:0:0:0:1, 1+0:0:0:0:0, 3+1:0:0:0:0, 3+1:1:0:0:1, 4+1:0:0:0:0, 2+1:0:0:0:1, 4+2:0:0:0:1, 3+1:0:0:0:0, 4+0:0:0:0:0, 3+1:0:0:0:0, 4+1:0:0:0:0, 4+1:0:0:0:0, 2+2:0:0:0:1, 2+1:0:0:0:0, 1+0:0:0:0:0, 2+1:0:0:0:0, 2+1:0:0:0:0, 2+0:0:0:0:0, 3+2:0:0:0:2, 2+1:0:0:0:0, 0+0:0:0:0:0, 2+1:0:0:0:1, 3+2:0:0:0:0, 2+0:0:0:0:0, 3+5:0:0:0:2, 3+1:0:0:0:1, 3+1:0:0:0:0, 2+1:0:0:0:0, 3+1:0:0:0:0, 2+0:0:0:0:0, 3+2:0:0:0:1, 2+1:0:0:0:0, 4+1:0:0:0:1, 3+2:0:0:0:1, 2+1:0:0:0:1, 2+1:0:0:0:0, 2+0:0:0:0:0, 3+2:0:0:0:0, 2+1:0:0:0:0, 2+1:0:0:0:0, 5+2:0:0:0:1, 3+0:0:0:0:0, 3+0:0:0:0:0, 3+0:0:0:0:0, 5+1:0:0:0:0, 4+1:0:0:0:0, 1+0:0:0:0:0, 1+0:0:0:0:0, 2+0:0:0:0:0, 1+0:0:0:0:0, 1+0:0:0:0:0, 1+1:0:0:0:1, 1+0:0:0:0:0, 1+4:0:0:0:0, 3+3:0:0:0:0, 2+0:0:0:0:0, 2+1:0:0:0:0, 1+0:0:0:0:0, 1+0:0:0:0:0, 1+0:0:0:0:0, 2+1:0:0:0:0, 2+0:0:0:0:0, 3+1:0:0:0:0, 4+2:0:0:0:0, 3+0:0:0:0:0, 2+2:0:0:0:1, 1+0:0:0:0:0, 3+1:0:0:0:0, 2+0:0:0:0:0, 1+1:0:0:0:1, 3+1:0:0:0:1, 1+0:0:0:0:0, 3+0:0:0:0:0, 2+0:0:0:0:0, 4+0:0:0:0:0, 4+1:0:0:0:1, 3+0:0:0:0:0, 2+1:0:0:0:0, 2+1:0:0:0:0, 2+1:0:0:0:0, 2+0:0:0:0:0, 4+2:0:0:0:0, 3+1:0:0:0:0, 3+1:0:0:0:0, 3+1:0:1:0:1, 2+2:0:0:0:0, 3+3:0:0:0:0, 3+1:0:0:0:0, 2+1:0:0:0:0, 2+1:0:0:0:1, 3+2:0:0:0:0, 3+1:0:1:0:1, 1+2:0:0:0:0, 2+1:1:0:0:1, 3+3:0:0:0:0, 2+1:0:0:0:0, 2+1:0:0:0:0, 1+0:0:0:0:0, 1+0:0:0:0:0, 3+3:0:0:0:0, 3+3:0:0:0:0, 3+1:0:0:0:0, 0+2:0:0:0:0, 0+0:0:0:0:0, 0+0:0:0:0:0, 0+0:0:0:0:0, 0+0:0:0:0:0, 0+0:0:0:0:0, 407+161:3:4:0:38
B major (5#), 4+4:0:0:0:2, 2+3:0:0:0:0, 3+1:0:0:0:0, 4+1:0:0:0:0, 2+2:2:0:0:0, 5+1:0:0:0:0, 3+3:1:0:0:0, 3+2:0:1:0:1, 4+1:0:0:0:0, 4+2:1:0:0:1, 5+2:2:1:0:1, 5+1:0:0:0:0, 4+1:0:0:0:0, 5+3:0:0:0:0, 4+2:0:0:0:0, 2+4:0:0:0:0, 2+1:0:0:0:0, 5+1:0:0:0:0, 5+1:0:0:0:0, 4+2:0:0:0:0, 4+1:0:0:0:0, 5+1:0:0:0:1, 2+2:2:0:0:0, 5+1:0:0:0:0, 5+1:0:0:0:0, 3+1:0:0:0:0, 2+3:0:0:0:0, 3+2:0:0:0:0, 4+3:0:0:0:1, 3+2:0:0:0:2, 4+0:0:0:0:0, 1+0:0:0:0:0, 3+2:0:0:0:0, 4+1:0:0:0:1, 5+2:0:0:0:0, 5+1:0:0:0:0, 3+1:1:0:0:0, 5+1:0:0:0:0, 2+2:2:0:0:0, 3+1:0:0:0:0, 4+1:1:0:0:1, 5+3:1:0:0:1, 5+1:0:0:0:0, 6+1:0:0:0:0, 5+0:0:0:0:0, 5+2:0:0:0:0, 4+1:0:0:0:1, 3+0:0:0:0:0, 3+1:0:0:0:0, 4+1:0:0:0:0, 2+0:0:0:0:0, 5+2:0:0:0:1, 3+1:1:0:0:0, 4+2:0:0:0:0, 5+0:0:0:0:0, 2+1:1:0:0:0, 5+2:1:0:0:0, 3+3:0:0:0:0, 2+1:0:0:0:0, 5+1:0:0:0:0, 3+4:0:0:0:1, 4+3:1:0:0:3, 4+3:0:0:0:0, 2+5:0:0:0:3, 5+2:0:0:0:0, 5+2:0:0:0:0, 4+1:0:0:0:0, 5+1:0:0:0:0, 5+0:0:0:0:0, 2+2:2:0:0:0, 5+1:0:0:0:1, 4+2:0:0:0:0, 4+1:0:0:0:0, 5+1:0:0:0:0, 6+1:1:0:0:0, 5+1:0:0:0:0, 4+0:0:0:0:0, 6+2:1:0:0:1, 5+4:1:0:0:1, 4+1:0:0:0:0, 2+1:0:0:0:0, 6+1:0:0:0:0, 3+1:1:0:0:1, 4+2:0:0:0:0, 2+2:2:0:0:0, 5+1:0:0:0:0, 2+2:2:0:0:0, 4+1:0:0:0:0, 4+1:0:0:0:0, 3+1:0:0:0:0, 4+2:0:0:0:0, 2+2:0:0:0:0, 3+3:0:0:0:1, 6+4:0:0:0:2, 4+3:0:0:0:0, 4+1:0:0:0:1, 5+1:0:0:0:0, 6+2:0:0:0:0, 3+3:1:0:0:0, 6+4:0:0:0:2, 4+2:1:0:0:0, 2+2:2:0:0:0, 5+1:0:0:0:1, 5+2:0:1:0:1, 5+2:0:0:0:0, 3+2:1:0:0:1, 4+1:0:0:0:0, 5+0:0:0:0:0, 5+2:0:0:0:0, 6+2:0:0:0:0, 4+3:1:0:0:0, 5+3:1:0:0:1, 4+1:0:0:0:0, 4+0:0:0:0:0, 4+0:0:0:0:0, 4+3:0:0:0:0, 4+1:1:0:0:0, 4+2:0:0:0:0, 4+1:0:0:0:0, 4+1:0:0:0:0, 3+3:1:0:0:1, 2+2:0:0:0:0, 2+0:0:0:0:0, 3+0:0:0:0:0, 3+1:1:0:0:0, 3+3:1:0:0:3, 5+2:0:0:0:0, 3+3:2:0:0:2, 3+0:0:0:0:0, 3+1:0:0:0:0, 3+0:0:0:0:0, 4+1:0:0:0:1, 5+1:0:0:0:0, 7+2:0:0:0:0, 4+2:2:0:0:0, 5+0:0:0:0:0, 3+3:0:0:0:1, 4+1:1:0:0:1, 5+1:0:0:0:0, 5+1:0:0:0:0, 3+0:0:0:0:0, 5+2:0:0:0:1, 3+4:0:0:0:0, 3+0:0:0:0:0, 4+0:0:0:0:0, 4+1:0:0:0:0, 6+1:0:0:0:0, 6+2:0:0:0:0, 4+2:1:0:0:1, 5+1:0:0:0:1, 4+1:0:0:0:0, 5+2:0:0:0:0, 3+3:0:0:0:0, 3+2:0:0:0:0, 5+4:0:0:0:2, 4+2:0:0:0:0, 4+3:0:0:0:2, 3+4:1:0:0:3, 6+2:0:0:0:0, 5+3:0:0:0:2, 3+4:0:0:0:1, 4+3:0:0:0:1, 4+2:0:0:0:0, 3+3:0:0:0:0, 3+1:1:0:0:0, 5+3:0:0:0:2, 4+1:0:0:0:0, 3+0:0:0:0:0, 4+0:0:0:0:0, 4+1:1:0:0:1, 3+1:1:0:0:1, 3+3:0:0:0:1, 4+4:3:0:0:3, 1+1:1:0:0:1, 0+0:0:0:0:0, 0+0:0:0:0:0, 0+0:0:0:0:0, 0+0:0:0:0:0, 0+0:0:0:0:0, 684+289:52:3:0:67
Bb minor (5b), 2+0:0:0:0:0, 2+1:0:0:0:0, 2+0:0:0:0:0, 2+1:0:0:0:0, 2+1:0:0:0:0, 1+1:0:0:0:0, 2+1:0:0:0:0, 1+0:0:0:0:0, 2+1:0:0:0:0, 3+1:0:0:0:1, 2+1:0:0:0:0, 3+1:0:0:0:0, 2+3:0:0:0:0, 2+1:0:0:0:0, 2+1:0:0:0:0, 2+1:0:0:0:1, 3+1:0:0:0:0, 2+0:0:0:0:0, 3+1:0:0:0:1, 4+1:0:0:0:0, 2+1:0:0:0:0, 2+1:0:0:0:0, 2+1:0:0:0:0, 2+0:0:0:0:0, 2+1:0:0:0:0, 1+1:0:0:0:0, 1+2:0:0:0:0, 2+1:0:1:0:0, 3+1:0:0:0:1, 1+2:0:0:0:0, 2+0:0:0:0:0, 0+0:0:0:0:0, 2+1:0:0:0:0, 3+1:0:0:0:1, 3+1:0:0:0:0, 3+1:0:0:0:0, 3+1:0:0:0:0, 1+0:0:0:0:0, 2+1:0:0:0:0, 2+1:0:0:0:0, 3+1:1:0:0:1, 4+2:0:0:0:1, 2+0:0:0:0:0, 3+0:0:0:0:0, 3+1:0:0:0:1, 2+0:0:0:0:0, 1+3:0:0:0:0, 3+0:0:0:0:0, 1+0:0:0:0:0, 2+0:0:0:0:0, 0+0:0:0:0:0, 3+1:0:0:0:0, 3+1:0:0:0:0, 1+0:0:0:0:0, 3+0:0:0:0:0, 2+1:0:0:0:0, 3+1:0:0:0:0, 5+1:0:0:0:0, 4+2:0:0:0:0, 3+1:0:0:0:0, 2+1:0:0:0:1, 5+4:0:0:0:1, 2+0:0:0:0:0, 1+3:0:0:0:0, 2+0:0:0:0:0, 2+0:0:0:0:0, 3+1:0:0:0:0, 3+1:0:0:0:0, 3+0:0:0:0:0, 3+2:0:0:0:0, 2+1:0:0:0:0, 2+1:0:0:0:0, 1+0:0:0:0:0, 3+1:0:0:0:0, 3+1:1:0:0:1, 4+1:0:0:0:0, 2+1:0:0:0:1, 4+2:0:0:0:1, 3+4:0:0:0:0, 4+0:0:0:0:0, 3+1:0:0:0:0, 4+0:0:0:0:0, 4+1:0:0:0:0, 2+2:0:0:0:1, 2+1:0:0:0:0, 1+0:0:0:0:0, 2+1:0:0:0:0, 2+1:0:0:0:0, 2+1:0:0:0:0, 3+2:0:0:0:0, 2+1:0:0:0:0, 0+0:0:0:0:0, 2+1:0:0:0:0, 3+2:0:0:0:0, 2+0:0:0:0:0, 3+3:0:0:0:0, 3+1:0:0:0:0, 3+1:0:0:0:0, 2+1:0:0:0:0, 3+2:0:0:0:0, 2+1:0:0:0:0, 3+2:0:0:0:1, 2+1:0:0:0:0, 4+1:0:0:0:1, 3+2:0:0:0:1, 2+1:0:0:0:1, 2+1:0:0:0:0, 2+0:0:0:0:0, 3+2:0:0:0:0, 2+1:0:0:0:0, 2+3:0:0:0:0, 5+2:0:0:0:1, 3+0:0:0:0:0, 3+0:0:0:0:0, 3+0:0:0:0:0, 5+1:0:0:0:0, 4+1:0:0:0:0, 1+0:0:0:0:0, 1+0:0:0:0:0, 2+0:0:0:0:0, 1+1:0:0:0:0, 1+3:0:0:0:0, 1+2:0:0:0:1, 1+0:0:0:0:0, 1+4:0:0:0:0, 3+3:0:0:0:0, 2+0:0:0:0:0, 2+1:0:0:0:0, 1+0:0:0:0:0, 1+0:0:0:0:0, 1+0:0:0:0:0, 2+1:0:0:0:0, 2+0:0:0:0:0, 3+1:0:0:0:0, 4+2:0:0:0:0, 3+0:0:0:0:0, 2+2:0:0:0:1, 1+0:0:0:0:0, 3+1:0:0:0:0, 2+0:0:0:0:0, 1+4:0:0:0:1, 3+2:0:0:0:0, 1+1:0:0:0:0, 3+0:0:0:0:0, 2+0:0:0:0:0, 4+0:0:0:0:0, 4+1:0:0:0:0, 3+0:0:0:0:0, 2+1:0:0:0:0, 2+1:0:0:0:0, 2+1:0:0:0:0, 2+0:0:0:0:0, 4+2:0:0:0:0, 3+1:0:0:0:0, 3+1:0:0:0:0, 3+1:0:1:0:1, 2+2:0:0:0:0, 3+3:0:0:0:0, 3+1:0:0:0:0, 2+2:0:0:0:0, 2+1:0:0:0:1, 3+2:0:0:0:0, 3+1:0:1:0:1, 1+2:0:0:0:0, 2+2:1:0:0:1, 3+2:0:0:0:0, 2+1:0:0:0:0, 2+0:0:0:0:0, 1+2:0:0:0:0, 1+1:0:0:0:0, 3+3:0:0:0:0, 3+3:0:0:0:0, 3+1:0:0:0:0, 0+2:0:0:0:0, 0+1:0:0:0:0, 0+1:0:0:0:0, 0+1:0:0:0:0, 0+1:0:0:0:0, 0+1:0:0:0:0, 408+189:3:3:0:26
G# minor (5#), 5+2:0:0:0:1, 2+3:0:0:0:2, 3+1:0:0:0:0, 4+1:0:0:0:0, 2+2:2:0:0:0, 5+1:0:0:0:0, 3+3:1:0:0:0, 3+2:0:1:0:1, 4+1:0:0:0:0, 4+2:1:0:0:1, 5+2:2:1:0:1, 5+1:0:0:0:0, 4+1:0:0:0:0, 5+3:0:0:0:0, 4+2:0:0:0:0, 2+1:0:0:0:1, 2+1:0:0:0:0, 5+1:0:0:0:0, 5+1:0:0:0:0, 4+2:0:0:0:0, 4+1:0:0:0:0, 5+1:0:0:0:1, 2+2:2:0:0:0, 5+1:0:0:0:0, 5+1:0:0:0:0, 3+1:0:0:0:0, 2+3:0:0:0:0, 3+2:0:0:0:0, 4+3:0:0:0:1, 3+2:0:0:0:2, 4+0:0:0:0:0, 1+0:0:0:0:0, 4+1:0:0:0:0, 5+1:0:0:0:0, 5+2:0:0:0:0, 5+1:0:0:0:0, 3+1:1:0:0:0, 5+1:0:0:0:0, 2+2:2:0:0:0, 3+1:0:0:0:0, 4+1:1:0:0:1, 5+3:1:0:0:1, 5+1:0:0:0:0, 6+1:0:0:0:0, 5+0:0:0:0:0, 5+1:0:0:0:0, 4+4:0:0:0:3, 3+1:0:0:0:0, 3+1:0:0:0:0, 4+2:0:0:0:0, 2+2:0:0:0:0, 5+1:0:0:0:1, 3+1:1:0:0:0, 4+2:0:0:0:0, 5+0:0:0:0:0, 2+1:1:0:0:0, 5+2:1:0:0:0, 3+3:0:0:0:0, 2+1:0:0:0:0, 5+1:0:0:0:0, 3+4:0:0:0:1, 4+3:1:0:0:3, 4+3:0:0:0:0, 2+5:0:0:0:3, 5+2:0:0:0:0, 5+2:0:0:0:0, 4+1:0:0:0:0, 5+1:0:0:0:0, 5+0:0:0:0:0, 2+2:2:0:0:0, 5+1:0:0:0:1, 4+2:0:0:0:0, 4+1:0:0:0:0, 5+1:0:0:0:0, 6+1:1:0:0:0, 5+1:0:0:0:0, 4+0:0:0:0:0, 6+2:1:0:0:1, 5+4:1:0:0:1, 4+1:0:0:0:0, 2+1:1:0:0:1, 6+1:0:0:0:0, 3+1:1:0:0:1, 4+2:0:0:0:0, 2+2:2:0:0:0, 5+1:0:0:0:0, 2+2:2:0:0:0, 4+1:0:0:0:0, 4+1:0:0:0:1, 3+2:0:0:0:0, 4+2:0:0:0:0, 2+2:0:0:0:0, 3+3:0:0:0:1, 6+4:0:0:0:2, 4+3:0:0:0:0, 4+1:0:0:0:1, 5+1:0:0:0:0, 6+2:0:0:0:0, 3+3:1:0:0:0, 6+4:0:0:0:2, 4+2:1:0:0:0, 2+2:2:0:0:0, 5+1:0:0:0:1, 5+2:0:1:0:1, 5+2:0:0:0:0, 3+2:1:0:0:1, 4+1:0:0:0:0, 5+0:0:0:0:0, 5+2:0:0:0:0, 6+2:0:0:0:0, 4+1:1:0:0:1, 5+1:0:0:0:0, 4+1:0:0:0:0, 4+0:0:0:0:0, 4+0:0:0:0:0, 4+3:0:0:0:0, 4+1:1:0:0:0, 4+2:0:0:0:0, 4+1:0:0:0:0, 4+1:0:0:0:0, 3+3:1:0:0:1, 2+2:0:0:0:0, 2+0:0:0:0:0, 3+0:0:0:0:0, 3+1:1:0:0:0, 3+3:1:0:0:3, 5+2:0:0:0:0, 3+3:2:0:0:2, 3+0:0:0:0:0, 3+1:0:0:0:0, 3+0:0:0:0:0, 4+1:0:0:0:1, 5+1:0:0:0:0, 7+2:0:0:0:0, 4+2:2:0:0:0, 5+0:0:0:0:0, 3+3:0:0:0:1, 4+1:1:0:0:1, 5+1:0:0:0:0, 5+1:0:0:0:0, 3+0:0:0:0:0, 5+2:0:0:0:1, 3+4:0:0:0:0, 3+1:0:0:0:0, 4+1:0:0:0:0, 4+0:0:0:0:0, 6+1:0:0:0:0, 6+2:0:0:0:0, 4+2:1:0:0:1, 5+1:0:0:0:1, 4+1:0:0:0:0, 5+2:0:0:0:0, 3+3:0:0:0:0, 3+2:0:0:0:0, 5+1:0:0:0:0, 4+2:0:0:0:0, 4+3:0:0:0:2, 3+4:1:0:0:3, 6+2:0:0:0:0, 5+3:0:0:0:2, 3+4:0:0:0:1, 4+3:0:0:0:1, 4+2:0:0:0:0, 3+3:0:0:0:0, 3+1:1:0:0:0, 5+3:0:0:0:2, 4+1:0:0:0:0, 3+0:0:0:0:0, 4+0:0:0:0:0, 4+1:1:0:0:1, 3+1:1:0:0:1, 3+3:0:0:0:1, 4+4:3:0:0:3, 1+1:1:0:0:1, 0+0:0:0:0:0, 0+0:0:0:0:0, 0+0:0:0:0:0, 0+0:0:0:0:0, 0+0:0:0:0:0, 687+283:52:3:0:70
Gb major (6b), 2+1:0:0:0:0, 2+1:0:0:0:0, 3+1:0:0:0:0, 2+1:0:0:0:0, 2+1:0:0:0:0, 2+0:0:0:0:0, 2+1:0:0:0:0, 0+0:0:0:0:0, 2+1:0:0:0:0, 2+1:0:0:0:0, 2+2:0:0:0:0, 3+2:0:0:0:1, 2+1:0:0:0:0, 2+1:0:0:0:0, 2+1:0:0:0:0, 2+1:0:1:0:0, 2+1:0:1:0:0, 3+0:0:0:0:0, 2+1:0:1:0:1, 5+1:0:0:0:0, 2+1:0:0:0:0, 2+1:0:0:0:0, 2+1:0:0:0:0, 3+0:0:0:0:0, 3+0:0:0:0:0, 2+0:0:0:0:0, 1+2:0:0:0:0, 2+1:0:1:0:0, 4+1:0:0:0:1, 1+2:0:0:0:0, 2+0:0:0:0:0, 0+0:0:0:0:0, 2+1:0:0:0:0, 2+1:0:1:0:0, 4+1:0:0:0:0, 3+1:0:0:0:0, 3+1:0:0:0:0, 2+0:0:0:0:0, 2+1:0:0:0:0, 1+2:0:0:0:2, 4+2:0:0:0:0, 3+3:0:0:0:1, 2+2:0:0:0:0, 3+1:0:0:0:0, 4+1:0:0:0:1, 2+0:0:0:0:0, 2+0:0:0:0:0, 4+0:0:0:0:0, 2+0:0:0:0:0, 3+0:0:0:0:0, 1+0:0:0:0:0, 3+1:0:0:0:0, 3+1:0:0:0:0, 1+0:0:0:0:0, 3+0:0:0:0:0, 2+1:0:0:0:0, 4+1:0:0:0:0, 5+1:0:0:0:1, 4+1:0:0:0:0, 3+1:0:0:0:1, 3+1:0:0:0:1, 5+4:0:0:0:1, 2+1:0:0:0:0, 2+2:0:0:0:2, 3+1:0:0:0:0, 3+0:0:0:0:0, 4+1:0:0:0:0, 3+1:0:0:0:0, 3+0:0:0:0:0, 3+2:0:0:0:1, 2+1:0:0:0:0, 2+1:0:1:0:0, 1+0:0:0:0:0, 3+1:0:0:0:0, 4+1:1:0:0:1, 4+1:0:0:0:0, 3+1:0:0:0:1, 3+2:0:1:0:0, 3+1:0:0:0:0, 5+0:0:0:0:0, 3+1:0:0:0:0, 5+0:0:0:0:0, 4+1:0:0:0:0, 3+2:0:0:0:1, 2+1:0:0:0:0, 2+0:0:0:0:0, 2+1:0:0:0:0, 3+1:0:0:0:0, 2+0:0:0:0:0, 4+1:0:0:0:0, 2+1:0:0:0:0, 0+1:0:0:0:0, 3+1:0:0:0:1, 4+2:0:0:0:0, 2+0:0:0:0:0, 3+5:0:1:0:1, 2+1:0:1:0:0, 4+1:0:0:0:0, 2+1:0:0:0:0, 4+1:0:0:0:0, 3+0:0:0:0:0, 3+2:0:0:0:1, 2+1:0:0:0:0, 3+1:0:1:0:0, 3+2:0:0:0:1, 2+1:0:1:0:0, 2+1:0:0:0:0, 3+1:0:0:0:0, 3+2:0:0:0:0, 2+1:0:0:0:0, 3+1:0:0:0:0, 6+1:0:0:0:0, 3+0:0:0:0:0, 4+0:0:0:0:0, 3+0:0:0:0:0, 5+1:1:0:0:1, 4+1:0:0:0:0, 1+0:0:0:0:0, 2+0:0:0:0:0, 3+0:0:0:0:0, 1+0:0:0:0:0, 2+0:0:0:0:0, 2+1:0:0:0:1, 1+0:0:0:0:0, 1+2:0:0:0:0, 3+5:0:0:0:1, 2+2:0:0:0:0, 3+1:0:0:0:0, 2+0:0:0:0:0, 2+0:0:0:0:0, 2+0:0:0:0:0, 2+1:0:0:0:0, 2+0:0:0:0:0, 3+1:0:0:0:0, 4+2:0:0:0:0, 3+0:0:0:0:0, 3+2:0:0:0:1, 1+0:0:0:0:0, 3+1:0:0:0:0, 2+1:0:0:0:0, 2+1:0:0:0:1, 3+1:0:0:0:1, 1+0:0:0:0:0, 4+0:0:0:0:0, 3+0:0:0:0:0, 4+0:0:0:0:0, 3+1:0:1:0:1, 4+0:0:0:0:0, 2+1:0:0:0:0, 2+1:0:0:0:0, 2+1:0:0:0:1, 3+0:0:0:0:0, 4+2:0:0:0:0, 4+1:0:0:0:0, 3+1:0:0:0:0, 3+1:0:1:0:1, 3+0:0:0:0:0, 2+1:0:0:0:1, 3+2:0:0:0:1, 3+1:0:0:0:0, 1+1:0:1:0:0, 2+2:0:0:0:0, 3+1:0:1:0:1, 1+2:0:0:0:0, 2+1:1:0:0:1, 4+2:0:0:0:0, 2+1:0:0:0:0, 2+1:0:0:0:0, 1+0:0:0:0:0, 1+0:0:0:0:0, 3+3:0:0:0:0, 4+3:0:0:0:3, 3+1:0:0:0:0, 0+0:0:0:0:0, 0+0:0:0:0:0, 0+0:0:0:0:0, 0+0:0:0:0:0, 0+0:0:0:0:0, 0+0:0:0:0:0, 453+164:3:15:0:37
F# major (6#), 4+2:0:0:0:1, 2+3:0:0:0:0, 4+1:0:0:0:0, 4+1:0:0:0:0, 3+3:1:0:0:0, 5+1:0:0:0:0, 3+3:1:0:0:0, 3+3:2:0:0:2, 4+1:0:0:0:0, 3+2:2:0:0:2, 5+2:2:1:0:1, 5+1:0:0:0:0, 4+1:0:0:0:0, 5+3:0:0:0:0, 4+2:0:0:0:0, 2+1:0:0:0:1, 3+1:0:0:0:0, 5+1:0:0:0:0, 5+1:0:0:0:0, 5+2:0:0:0:0, 4+1:0:0:0:0, 5+2:0:0:0:0, 3+3:1:0:0:0, 5+1:0:0:0:0, 5+1:0:0:0:0, 3+4:0:0:0:0, 2+3:0:0:0:0, 4+2:0:0:0:0, 4+3:0:0:0:1, 3+2:0:0:0:2, 4+0:0:0:0:0, 1+0:0:0:0:0, 3+2:0:0:0:0, 4+1:0:0:0:1, 6+2:0:0:0:0, 5+1:0:0:0:0, 3+1:1:0:0:0, 4+1:1:1:0:1, 3+3:1:0:0:0, 4+1:0:0:0:0, 4+3:0:0:0:1, 4+4:0:0:0:3, 5+2:0:0:0:0, 6+1:0:0:0:0, 5+0:0:0:0:0, 5+2:0:0:0:0, 4+3:0:0:0:0, 4+3:0:0:0:0, 3+1:0:0:0:0, 4+1:0:0:0:0, 2+0:0:0:0:0, 5+2:0:0:0:1, 3+1:1:0:0:0, 2+3:3:2:0:3, 5+0:0:0:0:0, 3+1:1:0:0:0, 5+2:1:0:0:0, 3+3:0:0:0:0, 3+1:0:0:0:0, 5+1:0:0:0:0, 3+4:0:0:0:1, 5+5:1:0:0:1, 4+3:0:0:0:0, 3+1:0:0:0:1, 5+1:0:0:0:0, 5+3:0:0:0:0, 5+2:0:0:0:0, 5+1:0:0:0:0, 5+0:0:0:0:0, 3+2:2:0:0:0, 5+1:0:0:0:1, 4+2:0:0:0:0, 4+1:0:0:0:0, 5+1:0:0:0:0, 5+3:3:0:0:3, 5+1:0:0:0:0, 4+0:0:0:0:0, 6+2:1:0:0:1, 6+2:0:0:0:0, 5+0:0:0:0:0, 3+1:0:0:0:0, 6+3:0:0:0:1, 4+1:0:0:0:0, 4+2:0:0:0:0, 3+3:1:0:0:0, 5+1:0:0:0:0, 3+3:1:0:0:0, 5+2:0:0:0:0, 4+1:0:0:0:0, 4+2:0:0:0:0, 4+2:0:0:0:0, 2+2:0:0:0:0, 3+3:0:0:0:1, 6+4:0:0:0:2, 4+3:0:0:0:0, 5+1:0:0:0:1, 4+1:0:0:0:1, 6+2:0:0:0:0, 2+2:0:0:0:0, 6+2:0:0:0:0, 4+2:1:0:0:0, 3+2:2:0:0:0, 5+1:0:0:0:1, 5+2:0:1:0:1, 5+2:0:0:0:0, 3+1:1:0:0:1, 4+1:0:0:0:0, 5+0:0:0:0:0, 5+2:0:0:0:0, 6+2:0:0:0:0, 4+1:1:0:0:1, 5+1:0:0:0:0, 4+1:0:0:0:0, 5+0:0:0:0:0, 4+2:0:0:0:0, 5+3:0:0:0:0, 4+1:1:0:0:0, 2+3:3:2:0:3, 4+1:0:0:0:0, 4+1:0:0:0:0, 4+0:0:0:0:0, 2+1:0:0:0:1, 2+1:0:0:0:1, 3+3:0:0:0:0, 3+1:1:0:0:0, 4+3:1:0:0:3, 4+1:1:1:0:1, 3+1:1:0:0:0, 3+0:0:0:0:0, 3+1:0:0:0:0, 3+0:0:0:0:0, 4+3:0:0:0:1, 5+5:0:0:0:0, 7+2:0:0:0:0, 5+4:1:0:0:0, 5+0:0:0:0:0, 3+3:0:0:0:1, 4+1:1:0:0:1, 5+1:0:0:0:0, 5+1:0:0:0:0, 3+0:0:0:0:0, 6+2:0:0:0:0, 3+0:0:0:0:0, 4+0:0:0:0:0, 4+0:0:0:0:0, 5+1:0:0:0:0, 6+1:0:0:0:0, 6+2:0:0:0:0, 3+4:2:1:0:1, 5+2:0:0:0:0, 4+1:0:0:0:0, 5+2:0:0:0:0, 4+3:0:0:0:0, 4+3:0:0:0:0, 5+1:0:0:0:0, 5+2:0:0:0:0, 4+3:0:0:0:1, 4+4:1:0:0:3, 5+2:1:1:0:1, 5+2:0:0:0:0, 4+0:0:0:0:0, 4+3:0:0:0:1, 5+2:0:0:0:0, 3+3:0:0:0:0, 3+1:1:0:0:0, 6+3:0:0:0:2, 4+1:0:0:0:0, 4+0:0:0:0:0, 4+0:0:0:0:0, 4+1:1:0:0:1, 3+1:1:0:0:1, 3+3:0:0:0:1, 4+4:3:0:0:3, 1+1:1:0:0:1, 0+0:0:0:0:0, 0+0:0:0:0:0, 0+0:0:0:0:0, 0+0:0:0:0:0, 0+0:0:0:0:0, 713+298:53:10:0:66
Eb minor (6b), 2+1:0:0:0:0, 2+1:0:0:0:0, 3+1:0:0:0:0, 2+1:0:0:0:0, 2+1:0:0:0:0, 2+0:0:0:0:0, 2+1:0:0:0:0, 0+0:0:0:0:0, 2+1:0:0:0:0, 2+1:0:0:0:0, 2+1:0:0:0:0, 3+1:0:0:0:0, 2+1:0:0:0:0, 2+1:0:0:0:0, 2+1:0:0:0:0, 2+1:0:1:0:0, 2+1:0:1:0:0, 3+0:0:0:0:0, 2+1:0:1:0:0, 5+1:0:0:0:0, 2+1:0:0:0:0, 2+1:0:0:0:0, 2+1:0:0:0:0, 3+0:0:0:0:0, 3+0:0:0:0:0, 2+1:0:0:0:0, 1+2:0:0:0:0, 2+1:0:1:0:0, 4+1:0:0:0:1, 1+2:0:0:0:0, 2+0:0:0:0:0, 0+0:0:0:0:0, 2+1:0:0:0:0, 2+1:0:1:0:0, 4+1:0:0:0:0, 3+1:0:0:0:0, 3+1:0:0:0:0, 2+0:0:0:0:0, 2+1:0:0:0:0, 1+2:0:0:0:2, 4+2:0:0:0:0, 3+2:0:1:0:1, 2+2:0:0:0:0, 3+1:0:0:0:0, 4+1:0:0:0:1, 2+0:0:0:0:0, 2+0:0:0:0:0, 4+2:0:0:0:0, 2+0:0:0:0:0, 3+0:0:0:0:0, 1+0:0:0:0:0, 3+1:0:0:0:0, 3+1:0:0:0:0, 1+0:0:0:0:0, 3+0:0:0:0:0, 2+1:0:0:0:0, 4+1:0:0:0:0, 5+1:0:0:0:1, 4+1:0:0:0:0, 3+1:0:0:0:1, 3+1:0:0:0:1, 5+4:0:0:0:1, 2+1:0:0:0:0, 2+2:0:0:0:2, 3+1:0:0:0:0, 3+0:0:0:0:0, 4+1:0:0:0:0, 3+1:0:0:0:0, 3+0:0:0:0:0, 3+2:0:0:0:1, 2+1:0:0:0:0, 2+1:0:1:0:0, 1+0:0:0:0:0, 3+1:0:0:0:0, 4+1:1:0:0:1, 4+1:0:0:0:0, 3+1:0:0:0:1, 3+2:0:1:0:0, 3+1:0:0:0:0, 5+0:0:0:0:0, 3+1:0:0:0:0, 5+1:0:0:0:0, 4+1:0:0:0:0, 3+2:0:0:0:1, 2+1:0:0:0:0, 2+0:0:0:0:0, 2+1:0:0:0:0, 3+1:0:0:0:0, 2+0:0:0:0:0, 3+2:0:1:0:1, 2+1:0:0:0:0, 0+1:0:0:0:0, 3+1:0:0:0:1, 4+2:0:0:0:0, 2+0:0:0:0:0, 3+5:0:1:0:1, 2+1:0:1:0:0, 4+1:0:0:0:0, 2+1:0:0:0:0, 4+1:0:0:0:0, 3+0:0:0:0:0, 3+2:0:0:0:1, 2+1:0:0:0:0, 3+1:0:1:0:0, 3+2:0:0:0:1, 2+1:0:1:0:0, 2+1:0:0:0:0, 3+1:0:0:0:0, 3+2:0:0:0:0, 2+1:0:0:0:0, 3+1:0:0:0:0, 5+2:0:1:0:0, 3+0:0:0:0:0, 4+0:0:0:0:0, 3+0:0:0:0:0, 5+1:1:0:0:1, 4+1:0:0:0:0, 1+0:0:0:0:0, 2+0:0:0:0:0, 3+0:0:0:0:0, 1+0:0:0:0:0, 2+1:0:0:0:0, 2+1:0:0:0:1, 1+0:0:0:0:0, 1+2:0:0:0:0, 3+5:0:0:0:1, 2+2:0:0:0:0, 3+1:0:0:0:0, 2+0:0:0:0:0, 2+0:0:0:0:0, 2+0:0:0:0:0, 2+1:0:0:0:0, 2+0:0:0:0:0, 3+1:0:0:0:0, 4+2:0:0:0:0, 3+0:0:0:0:0, 3+2:0:0:0:1, 1+0:0:0:0:0, 3+1:0:0:0:0, 2+1:0:0:0:0, 2+1:0:0:0:1, 3+1:0:0:0:1, 1+0:0:0:0:0, 4+0:0:0:0:0, 3+0:0:0:0:0, 4+0:0:0:0:0, 3+1:0:1:0:0, 4+0:0:0:0:0, 2+1:0:0:0:0, 2+1:0:0:0:0, 2+1:0:0:0:1, 3+0:0:0:0:0, 4+2:0:0:0:0, 4+1:0:0:0:0, 3+1:0:0:0:0, 3+1:0:1:0:1, 3+0:0:0:0:0, 2+1:0:0:0:1, 3+2:0:0:0:1, 3+1:0:0:0:0, 1+1:0:1:0:0, 2+2:0:0:0:0, 3+1:0:1:0:1, 1+2:0:0:0:0, 2+1:1:0:0:1, 4+3:0:0:0:0, 2+1:0:0:0:0, 2+1:0:0:0:0, 1+0:0:0:0:0, 1+0:0:0:0:0, 3+3:0:0:0:0, 4+3:0:0:0:3, 3+1:0:0:0:0, 0+0:0:0:0:0, 0+0:0:0:0:0, 0+0:0:0:0:0, 0+0:0:0:0:0, 0+0:0:0:0:0, 0+0:0:0:0:0, 451+169:3:18:0:35
D# minor (6#), 4+1:0:0:0:0, 2+2:0:0:0:0, 4+1:0:0:0:0, 4+1:0:0:0:0, 3+3:1:0:0:0, 5+1:0:0:0:0, 3+3:1:0:0:0, 3+3:2:0:0:2, 4+1:0:0:0:0, 3+2:2:0:0:2, 5+2:2:1:0:1, 5+1:0:0:0:0, 4+1:0:0:0:0, 5+3:0:0:0:0, 4+2:0:0:0:0, 2+1:0:0:0:1, 3+1:0:0:0:0, 5+1:0:0:0:0, 5+1:0:0:0:0, 5+2:0:0:0:0, 4+1:0:0:0:0, 5+2:0:0:0:0, 3+3:1:0:0:0, 5+1:0:0:0:0, 5+1:0:0:0:0, 3+4:0:0:0:0, 2+3:0:0:0:0, 4+2:0:0:0:0, 4+3:0:0:0:1, 3+2:0:0:0:2, 4+0:0:0:0:0, 1+0:0:0:0:0, 4+1:0:0:0:0, 4+1:0:0:0:1, 6+2:0:0:0:0, 5+1:0:0:0:0, 3+1:1:0:0:0, 4+1:1:1:0:1, 3+3:1:0:0:0, 4+1:0:0:0:0, 4+3:0:0:0:1, 4+4:0:0:0:3, 5+2:0:0:0:0, 6+1:0:0:0:0, 5+0:0:0:0:0, 5+2:0:0:0:0, 4+3:0:0:0:0, 4+3:0:0:0:0, 3+1:0:0:0:0, 4+1:0:0:0:0, 2+0:0:0:0:0, 5+2:0:0:0:1, 3+1:1:0:0:0, 2+3:3:2:0:3, 5+0:0:0:0:0, 3+1:1:0:0:0, 5+2:1:0:0:0, 3+4:0:0:0:0, 3+1:0:0:0:0, 5+1:0:0:0:0, 3+4:0:0:0:1, 5+5:1:0:0:1, 4+3:0:0:0:0, 3+1:0:0:0:1, 5+1:0:0:0:0, 5+3:0:0:0:0, 5+2:0:0:0:0, 5+1:0:0:0:0, 5+0:0:0:0:0, 3+2:2:0:0:0, 5+1:0:0:0:1, 4+2:0:0:0:0, 4+1:0:0:0:0, 5+1:0:0:0:0, 5+3:3:0:0:3, 5+1:0:0:0:0, 4+0:0:0:0:0, 6+2:1:0:0:1, 6+2:0:0:0:0, 5+0:0:0:0:0, 3+1:0:0:0:0, 6+3:0:0:0:1, 4+1:0:0:0:0, 4+2:0:0:0:0, 3+3:1:0:0:0, 5+1:0:0:0:0, 3+3:1:0:0:0, 5+2:0:0:0:0, 4+1:0:0:0:0, 4+2:0:0:0:0, 4+2:0:0:0:0, 2+2:0:0:0:0, 3+3:0:0:0:1, 6+4:0:0:0:2, 4+3:0:0:0:0, 5+1:0:0:0:1, 4+1:0:0:0:1, 6+2:0:0:0:0, 2+2:0:0:0:0, 6+2:0:0:0:0, 4+2:1:0:0:0, 3+2:2:0:0:0, 5+1:0:0:0:1, 5+2:0:1:0:1, 5+2:0:0:0:0, 3+1:1:0:0:1, 4+1:0:0:0:0, 5+0:0:0:0:0, 5+2:0:0:0:0, 6+2:0:0:0:0, 4+1:1:0:0:1, 5+1:0:0:0:0, 4+1:0:0:0:0, 5+0:0:0:0:0, 4+2:0:0:0:0, 5+3:0:0:0:0, 4+1:1:0:0:0, 2+3:3:2:0:3, 4+1:0:0:0:0, 4+1:0:0:0:0, 4+0:0:0:0:0, 2+1:0:0:0:1, 2+1:0:0:0:1, 3+3:0:0:0:0, 3+1:1:0:0:0, 4+3:1:0:0:3, 4+1:1:1:0:1, 3+1:1:0:0:0, 3+0:0:0:0:0, 3+1:0:0:0:0, 3+0:0:0:0:0, 4+3:0:0:0:1, 5+5:0:0:0:0, 7+2:0:0:0:0, 5+4:1:0:0:0, 5+0:0:0:0:0, 3+3:0:0:0:1, 4+1:1:0:0:1, 5+1:0:0:0:0, 5+1:0:0:0:0, 3+0:0:0:0:0, 6+2:0:0:0:0, 3+0:0:0:0:0, 4+0:0:0:0:0, 4+0:0:0:0:0, 5+1:0:0:0:0, 6+1:0:0:0:0, 6+2:0:0:0:0, 3+4:2:1:0:1, 5+2:0:0:0:0, 4+1:0:0:0:0, 5+2:0:0:0:0, 4+1:0:0:0:0, 4+3:0:0:0:0, 5+1:0:0:0:0, 5+2:0:0:0:0, 4+3:0:0:0:1, 4+4:1:0:0:3, 5+2:1:1:0:1, 5+2:0:0:0:0, 4+0:0:0:0:0, 4+3:0:0:0:1, 5+2:0:0:0:0, 3+3:0:0:0:0, 3+1:1:0:0:0, 6+3:0:0:0:2, 4+1:0:0:0:0, 4+0:0:0:0:0, 4+0:0:0:0:0, 4+1:1:0:0:1, 3+1:1:0:0:1, 3+3:0:0:0:1, 4+4:3:0:0:3, 1+1:1:0:0:1, 0+0:0:0:0:0, 0+0:0:0:0:0, 0+0:0:0:0:0, 0+0:0:0:0:0, 0+0:0:0:0:0, 714+294:53:10:0:65
Cb major (7b), 3+1:0:0:0:0, 3+1:0:0:0:0, 4+0:0:0:0:0, 3+1:0:0:0:0, 2+1:0:0:0:0, 3+0:0:0:0:0, 2+1:0:0:0:0, 1+0:0:0:0:0, 2+1:0:0:0:0, 2+1:0:0:0:0, 3+2:0:0:0:0, 2+1:0:1:0:1, 2+1:0:0:0:0, 2+1:0:0:0:0, 2+1:0:0:0:0, 2+1:0:1:0:0, 4+1:0:0:0:0, 4+0:0:0:0:0, 3+1:0:1:0:1, 6+1:0:0:0:0, 1+1:0:1:0:1, 3+1:0:0:0:0, 2+1:0:0:0:0, 4+0:0:0:0:0, 4+0:0:0:0:0, 2+0:0:0:0:0, 2+2:0:0:0:0, 1+1:0:1:0:0, 4+1:0:0:0:1, 2+2:0:0:0:0, 2+0:0:0:0:0, 0+0:0:0:0:0, 3+1:0:0:0:0, 3+1:0:1:0:0, 5+1:0:0:0:0, 4+1:0:0:0:0, 3+1:0:0:0:0, 3+0:0:0:0:0, 2+1:0:0:0:0, 2+2:0:0:0:2, 4+2:0:0:0:0, 2+1:0:0:0:0, 3+2:0:0:0:0, 4+1:0:0:0:0, 4+1:0:0:0:1, 2+0:0:0:0:0, 3+0:0:0:0:0, 4+0:0:0:0:0, 3+0:0:0:0:0, 4+0:0:0:0:0, 2+0:0:0:0:0, 4+1:0:0:0:0, 3+1:0:0:0:0, 2+0:0:0:0:0, 4+0:0:0:0:0, 2+1:0:0:0:0, 5+1:0:0:0:0, 5+1:0:0:0:1, 5+1:0:0:0:0, 2+1:0:1:0:1, 3+1:0:0:0:1, 6+4:0:0:0:1, 2+0:0:0:0:0, 2+3:0:0:0:0, 4+0:0:0:0:0, 4+0:0:0:0:0, 5+0:0:0:0:0, 4+1:0:0:0:0, 4+0:0:0:0:0, 2+2:0:1:0:0, 3+1:0:0:0:0, 2+1:0:1:0:0, 2+0:0:0:0:0, 3+1:0:0:0:0, 4+1:1:0:0:1, 3+1:0:1:0:1, 3+1:0:0:0:1, 3+2:0:1:0:0, 3+1:0:0:0:0, 5+0:0:0:0:0, 4+1:0:0:0:0, 6+0:0:0:0:0, 5+1:0:0:0:0, 4+2:0:0:0:1, 2+1:0:0:0:0, 3+0:0:0:0:0, 2+1:0:0:0:0, 4+1:0:0:0:1, 3+0:0:0:0:0, 4+1:0:0:0:0, 3+1:0:0:0:0, 0+2:0:0:0:0, 3+1:0:0:0:0, 5+2:0:0:0:0, 2+0:0:0:0:0, 4+3:0:1:0:1, 3+1:0:1:0:1, 5+1:0:0:0:0, 3+1:0:0:0:0, 5+1:0:0:0:0, 3+0:0:0:0:0, 2+2:0:1:0:0, 3+1:0:0:0:0, 3+1:0:1:0:0, 2+2:0:1:0:0, 2+1:0:1:0:0, 2+1:0:0:0:0, 3+1:0:0:0:0, 3+2:0:0:0:0, 3+1:0:0:0:0, 3+1:0:0:0:0, 6+1:0:0:0:0, 4+0:0:0:0:0, 5+0:0:0:0:0, 4+0:0:0:0:0, 6+1:1:0:0:1, 4+1:0:0:0:0, 2+0:0:0:0:0, 3+0:0:0:0:0, 3+0:0:0:0:0, 2+0:0:0:0:0, 2+0:0:0:0:0, 3+1:0:0:0:1, 1+0:0:0:0:0, 2+2:0:0:0:0, 2+5:0:0:0:1, 3+2:0:0:0:0, 3+1:0:0:0:0, 3+0:0:0:0:0, 3+0:0:0:0:0, 3+0:0:0:0:0, 3+1:0:0:0:0, 3+0:0:0:0:0, 4+1:0:0:0:0, 4+2:0:0:0:0, 4+0:0:0:0:0, 3+2:0:0:0:2, 2+0:0:0:0:0, 3+1:0:0:0:0, 3+1:0:0:0:0, 2+1:0:0:0:1, 4+1:0:0:0:1, 1+0:0:0:0:0, 4+0:0:0:0:0, 4+0:0:0:0:0, 5+0:0:0:0:0, 4+1:0:1:0:1, 5+0:0:0:0:0, 3+1:0:0:0:0, 3+1:0:0:0:0, 1+1:0:1:0:0, 4+0:0:0:0:0, 5+2:0:0:0:0, 4+1:0:0:0:0, 4+1:0:0:0:0, 2+1:0:1:0:1, 3+0:0:0:0:0, 3+3:0:1:0:1, 4+1:0:0:0:0, 3+1:0:0:0:0, 2+1:0:1:0:0, 3+3:0:0:0:3, 2+5:0:0:0:5, 1+2:0:0:0:2, 2+1:1:0:0:1, 5+2:0:0:0:0, 1+1:0:1:0:1, 3+0:0:0:0:0, 2+2:0:0:0:0, 2+0:0:0:0:0, 3+3:0:0:0:0, 4+3:0:0:0:0, 3+1:0:0:0:0, 0+0:0:0:0:0, 0+0:0:0:0:0, 0+0:0:0:0:0, 0+0:0:0:0:0, 0+0:0:0:0:0, 0+0:0:0:0:0, 534+164:3:23:0:40
C# major (7#), 4+2:0:0:0:1, 2+3:0:0:0:2, 4+1:0:0:0:0, 4+1:0:0:0:0, 3+3:1:0:0:0, 4+1:1:1:0:1, 3+3:1:0:0:0, 2+2:1:2:0:2, 4+1:0:0:0:0, 5+1:0:1:0:1, 5+2:2:1:0:1, 5+1:0:0:0:0, 4+1:0:0:0:0, 5+3:0:0:0:0, 4+2:0:0:0:0, 3+1:0:0:0:1, 3+1:0:0:0:0, 4+1:1:1:0:1, 5+1:0:0:0:0, 6+2:0:0:0:0, 4+1:0:0:0:0, 5+2:0:0:0:0, 3+3:1:0:0:0, 4+1:1:1:0:1, 4+2:1:1:0:2, 3+4:0:0:0:0, 2+3:0:0:0:0, 4+2:0:0:0:0, 5+3:0:0:0:1, 3+2:0:0:0:2, 4+0:0:0:0:0, 1+0:0:0:0:0, 4+1:0:0:0:0, 5+1:0:0:0:0, 6+2:0:0:0:0, 5+1:0:0:0:0, 3+1:1:0:0:0, 4+1:1:1:0:1, 3+3:1:0:0:0, 4+1:0:0:0:0, 4+1:1:0:0:1, 6+2:0:1:0:1, 5+1:0:0:0:0, 6+1:0:0:0:0, 6+0:0:0:0:0, 5+2:0:0:0:0, 4+1:0:0:0:1, 4+0:0:0:0:0, 3+1:0:0:0:0, 4+1:0:0:0:0, 2+0:0:0:0:0, 5+2:0:0:0:1, 3+1:1:0:0:0, 2+3:3:2:0:3, 4+1:1:1:0:1, 3+1:1:0:0:0, 4+2:2:1:0:1, 4+4:0:0:0:0, 4+1:0:0:0:0, 5+1:0:0:0:0, 4+4:0:0:0:1, 5+5:1:0:0:1, 4+3:0:0:0:0, 3+1:0:0:0:1, 5+1:0:0:0:0, 5+3:0:0:0:0, 5+2:0:0:0:0, 5+1:0:0:0:0, 5+0:0:0:0:0, 3+2:2:0:0:0, 5+1:0:0:0:1, 4+2:0:0:0:0, 4+1:0:0:0:0, 5+1:0:0:0:0, 6+1:1:0:0:0, 5+1:0:0:0:0, 5+0:0:0:0:0, 7+2:0:0:0:0, 6+2:0:0:0:0, 5+0:0:0:0:0, 3+1:0:0:0:0, 6+3:0:0:0:1, 4+1:0:0:0:0, 5+2:0:0:0:0, 3+3:1:0:0:0, 4+1:1:1:0:1, 3+3:1:0:0:0, 5+2:0:0:0:0, 4+1:0:0:0:0, 5+2:0:0:0:0, 4+1:0:0:0:0, 3+2:0:0:0:0, 4+0:0:0:0:0, 6+3:0:0:0:1, 4+0:0:0:0:0, 6+1:0:0:0:1, 5+1:0:0:0:0, 6+2:0:0:0:0, 3+3:1:0:0:0, 6+3:0:0:0:0, 4+1:1:0:0:1, 3+2:2:0:0:0, 5+1:0:0:0:1, 5+2:0:1:0:1, 5+2:0:0:0:0, 5+1:0:0:0:0, 4+1:0:0:0:0, 5+0:0:0:0:0, 5+2:0:0:0:0, 6+2:0:0:0:0, 4+1:1:0:0:1, 6+1:0:0:0:0, 4+1:0:0:0:0, 5+0:0:0:0:0, 4+2:0:0:0:0, 5+3:0:0:0:0, 4+1:1:0:0:0, 2+3:3:2:0:3, 3+2:2:2:0:2, 4+0:0:0:0:0, 4+0:0:0:0:0, 2+1:0:0:0:1, 3+0:0:0:0:0, 3+0:0:0:0:0, 3+1:1:0:0:0, 4+3:1:0:0:3, 4+1:1:1:0:1, 3+3:2:0:0:2, 3+0:0:0:0:0, 3+1:0:0:0:0, 3+0:0:0:0:0, 4+3:0:0:0:1, 5+1:0:0:0:0, 7+2:0:0:0:0, 5+4:1:0:0:0, 4+1:1:1:0:1, 4+2:1:0:0:0, 4+1:1:0:0:1, 5+1:0:0:0:0, 5+1:0:0:0:0, 4+0:0:0:0:0, 6+2:0:0:0:0, 3+0:0:0:0:0, 4+0:0:0:0:0, 4+0:0:0:0:0, 5+1:0:0:0:0, 6+1:0:0:0:0, 6+2:0:0:0:0, 3+4:2:1:0:1, 5+2:0:0:0:0, 4+1:0:0:0:0, 4+1:1:1:0:1, 5+4:1:0:0:1, 4+1:0:0:0:0, 5+1:0:0:0:0, 5+2:0:0:0:0, 4+3:0:0:0:1, 6+3:0:0:0:2, 5+2:1:1:0:1, 5+2:0:0:0:0, 5+0:0:0:0:0, 5+3:0:0:0:1, 5+2:0:0:0:0, 3+3:0:0:0:0, 3+1:1:0:0:0, 5+3:1:1:0:3, 4+1:0:0:0:0, 3+2:1:1:0:1, 4+0:0:0:0:0, 4+1:1:0:0:1, 3+1:1:0:0:1, 4+3:0:0:0:1, 4+4:3:0:0:3, 1+1:1:0:0:1, 0+0:0:0:0:0, 0+0:0:0:0:0, 0+0:0:0:0:0, 0+0:0:0:0:0, 0+0:0:0:0:0, 735+272:63:27:0:72
Ab minor (7b), 3+1:0:0:0:0, 3+1:0:0:0:0, 4+1:0:0:0:1, 3+1:0:0:0:1, 2+1:0:0:0:0, 3+0:0:0:0:0, 2+1:0:0:0:0, 1+0:0:0:0:0, 2+1:0:0:0:0, 2+1:0:0:0:0, 3+2:0:0:0:0, 2+2:0:1:0:0, 2+1:0:0:0:0, 2+1:0:0:0:0, 2+1:0:0:0:0, 2+1:0:1:0:0, 4+1:0:0:0:0, 4+0:0:0:0:0, 3+1:0:1:0:1, 6+1:0:0:0:0, 1+1:0:1:0:1, 3+1:0:0:0:0, 2+1:0:0:0:0, 4+0:0:0:0:0, 4+0:0:0:0:0, 2+0:0:0:0:0, 2+2:0:0:0:0, 1+1:0:1:0:0, 4+1:0:0:0:1, 2+2:0:0:0:0, 2+0:0:0:0:0, 0+0:0:0:0:0, 3+1:0:0:0:0, 3+1:0:1:0:0, 5+1:0:0:0:1, 4+1:0:0:0:0, 3+1:0:0:0:0, 3+0:0:0:0:0, 2+1:0:0:0:0, 2+2:0:0:0:2, 4+2:0:0:0:0, 2+1:0:0:0:0, 3+2:0:0:0:0, 4+1:0:0:0:0, 4+1:0:0:0:1, 2+0:0:0:0:0, 3+0:0:0:0:0, 4+0:0:0:0:0, 3+0:0:0:0:0, 4+0:0:0:0:0, 2+0:0:0:0:0, 4+1:0:0:0:0, 3+1:0:0:0:0, 2+0:0:0:0:0, 4+0:0:0:0:0, 2+1:0:0:0:0, 5+1:0:0:0:0, 5+1:0:0:0:1, 5+1:0:0:0:0, 2+1:0:1:0:0, 3+1:0:0:0:1, 6+4:0:0:0:1, 2+1:0:0:0:0, 1+2:0:2:0:0, 4+1:0:0:0:0, 4+0:0:0:0:0, 5+0:0:0:0:0, 4+1:0:0:0:0, 4+1:0:0:0:0, 2+2:0:1:0:0, 3+1:0:0:0:0, 2+1:0:1:0:0, 2+0:0:0:0:0, 3+1:0:0:0:0, 4+1:1:0:0:1, 3+1:0:1:0:1, 3+1:0:0:0:1, 3+2:0:1:0:0, 3+1:0:0:0:0, 5+0:0:0:0:0, 4+1:0:0:0:0, 6+0:0:0:0:0, 5+1:0:0:0:0, 4+2:0:0:0:1, 2+1:0:0:0:0, 3+0:0:0:0:0, 2+1:0:0:0:0, 4+1:0:0:0:1, 3+0:0:0:0:0, 4+1:0:0:0:0, 3+1:0:0:0:0, 0+2:0:0:0:0, 3+1:0:0:0:0, 5+2:0:0:0:0, 2+0:0:0:0:0, 4+3:0:1:0:1, 3+1:0:1:0:1, 5+1:0:0:0:0, 3+1:0:0:0:0, 5+1:0:0:0:0, 3+0:0:0:0:0, 2+2:0:1:0:0, 3+1:0:0:0:0, 3+1:0:1:0:0, 2+2:0:1:0:0, 2+1:0:1:0:0, 2+1:0:0:0:0, 3+1:0:0:0:0, 3+2:0:0:0:0, 3+1:0:0:0:0, 3+1:0:0:0:0, 6+1:0:0:0:0, 4+0:0:0:0:0, 5+0:0:0:0:0, 4+0:0:0:0:0, 6+1:1:0:0:1, 4+1:0:0:0:0, 2+0:0:0:0:0, 3+0:0:0:0:0, 3+0:0:0:0:0, 2+0:0:0:0:0, 2+0:0:0:0:0, 3+1:0:0:0:1, 1+0:0:0:0:0, 2+2:0:0:0:0, 2+5:0:0:0:1, 3+2:0:0:0:0, 3+1:0:0:0:0, 3+0:0:0:0:0, 3+0:0:0:0:0, 3+0:0:0:0:0, 3+1:0:0:0:0, 3+0:0:0:0:0, 4+1:0:0:0:0, 4+2:0:0:0:0, 4+1:0:0:0:0, 3+2:0:0:0:2, 2+0:0:0:0:0, 3+1:0:0:0:0, 3+1:0:0:0:0, 2+1:0:0:0:1, 4+1:0:0:0:1, 1+0:0:0:0:0, 4+0:0:0:0:0, 4+0:0:0:0:0, 5+0:0:0:0:0, 4+1:0:1:0:1, 5+0:0:0:0:0, 3+1:0:0:0:0, 3+1:0:0:0:0, 1+1:0:1:0:0, 4+0:0:0:0:0, 5+2:0:0:0:0, 4+1:0:0:0:0, 4+1:0:0:0:0, 2+1:0:1:0:1, 3+0:0:0:0:0, 2+1:0:1:0:0, 4+2:0:0:0:1, 3+1:0:0:0:0, 2+1:0:1:0:0, 3+2:0:0:0:0, 2+5:0:0:0:3, 1+2:0:0:0:2, 2+1:1:0:0:1, 5+2:0:0:0:0, 1+1:0:1:0:1, 3+0:0:0:0:0, 2+2:0:0:0:0, 2+0:0:0:0:0, 3+3:0:0:0:0, 4+3:0:0:0:3, 3+1:0:0:0:0, 0+0:0:0:0:0, 0+0:0:0:0:0, 0+0:0:0:0:0, 0+0:0:0:0:0, 0+0:0:0:0:0, 0+0:0:0:0:0, 532+167:3:25:0:39
A# minor (7#), 4+1:0:0:0:0, 2+2:0:0:0:0, 4+1:0:0:0:0, 4+1:0:0:0:0, 3+3:1:0:0:0, 4+1:1:1:0:1, 3+3:1:0:0:0, 2+2:1:2:0:2, 4+1:0:0:0:0, 5+1:0:1:0:1, 5+2:2:1:0:1, 5+1:0:0:0:0, 4+1:0:0:0:0, 5+3:0:0:0:0, 4+2:0:0:0:0, 3+1:0:0:0:1, 3+1:0:0:0:0, 4+1:1:1:0:1, 5+1:0:0:0:0, 6+2:0:0:0:0, 4+1:0:0:0:0, 5+2:0:0:0:0, 3+3:1:0:0:0, 4+1:1:1:0:1, 4+2:1:1:0:2, 3+4:0:0:0:0, 2+3:0:0:0:0, 4+2:0:0:0:0, 5+3:0:0:0:1, 3+2:0:0:0:2, 4+0:0:0:0:0, 1+0:0:0:0:0, 4+1:0:0:0:0, 5+1:0:0:0:0, 6+2:0:0:0:0, 5+1:0:0:0:0, 3+1:1:0:0:0, 4+1:1:1:0:1, 3+3:1:0:0:0, 4+1:0:0:0:0, 4+1:1:0:0:1, 6+2:0:1:0:1, 5+1:0:0:0:0, 6+1:0:0:0:0, 6+0:0:0:0:0, 5+2:0:0:0:0, 4+1:0:0:0:1, 4+0:0:0:0:0, 3+1:0:0:0:0, 4+1:0:0:0:0, 2+0:0:0:0:0, 5+2:0:0:0:1, 3+1:1:0:0:0, 2+3:3:2:0:3, 4+1:1:1:0:1, 3+1:1:0:0:0, 4+2:2:1:0:1, 4+4:0:0:0:0, 4+1:0:0:0:0, 5+1:0:0:0:0, 4+4:0:0:0:1, 5+5:1:0:0:1, 4+3:0:0:0:0, 3+1:0:0:0:1, 5+1:0:0:0:0, 5+3:0:0:0:0, 5+2:0:0:0:0, 5+1:0:0:0:0, 5+0:0:0:0:0, 3+2:2:0:0:0, 5+1:0:0:0:1, 4+2:0:0:0:0, 4+1:0:0:0:0, 5+1:0:0:0:0, 6+1:1:0:0:0, 5+1:0:0:0:0, 5+0:0:0:0:0, 7+2:0:0:0:0, 6+2:0:0:0:0, 5+0:0:0:0:0, 3+1:0:0:0:0, 6+3:0:0:0:1, 4+1:0:0:0:0, 5+2:0:0:0:0, 3+3:1:0:0:0, 4+1:1:1:0:1, 3+3:1:0:0:0, 5+2:0:0:0:0, 4+1:0:0:0:0, 5+2:0:0:0:0, 4+1:0:0:0:0, 3+2:0:0:0:0, 4+0:0:0:0:0, 6+3:0:0:0:1, 4+0:0:0:0:0, 6+1:0:0:0:1, 5+1:0:0:0:0, 6+2:0:0:0:0, 3+3:1:0:0:0, 6+3:0:0:0:0, 4+1:1:0:0:1, 3+2:2:0:0:0, 5+1:0:0:0:1, 5+2:0:1:0:1, 5+2:0:0:0:0, 5+1:0:0:0:0, 4+1:0:0:0:0, 5+0:0:0:0:0, 5+2:0:0:0:0, 6+2:0:0:0:0, 4+1:1:0:0:1, 6+1:0:0:0:0, 4+1:0:0:0:0, 5+0:0:0:0:0, 4+2:0:0:0:0, 5+3:0:0:0:0, 4+1:1:0:0:0, 2+3:3:2:0:3, 3+2:2:2:0:2, 4+0:0:0:0:0, 4+0:0:0:0:0, 2+1:0:0:0:1, 3+0:0:0:0:0, 3+0:0:0:0:0, 3+1:1:0:0:0, 4+3:1:0:0:3, 4+1:1:1:0:1, 3+3:2:0:0:2, 3+0:0:0:0:0, 3+1:0:0:0:0, 3+0:0:0:0:0, 4+3:0:0:0:1, 5+1:0:0:0:0, 7+2:0:0:0:0, 5+4:1:0:0:0, 4+1:1:1:0:1, 4+2:1:0:0:0, 4+1:1:0:0:1, 5+1:0:0:0:0, 5+1:0:0:0:0, 4+0:0:0:0:0, 6+2:0:0:0:0, 3+0:0:0:0:0, 4+0:0:0:0:0, 4+0:0:0:0:0, 5+1:0:0:0:0, 6+1:0:0:0:0, 6+2:0:0:0:0, 3+4:2:1:0:1, 5+2:0:0:0:0, 4+1:0:0:0:0, 4+1:1:1:0:1, 5+4:1:0:0:1, 4+1:0:0:0:0, 5+1:0:0:0:0, 5+2:0:0:0:0, 4+3:0:0:0:1, 6+3:0:0:0:2, 5+2:1:1:0:1, 5+2:0:0:0:0, 5+0:0:0:0:0, 5+3:0:0:0:1, 5+2:0:0:0:0, 3+3:0:0:0:0, 3+1:1:0:0:0, 5+3:1:1:0:3, 4+1:0:0:0:0, 3+2:1:1:0:1, 4+0:0:0:0:0, 4+1:1:0:0:1, 3+1:1:0:0:1, 4+3:0:0:0:1, 4+4:3:0:0:3, 1+1:1:0:0:1, 0+0:0:0:0:0, 0+1:0:0:0:0, 0+1:0:0:0:0, 0+1:0:0:0:0, 0+1:0:0:0:0, 735+274:63:27:0:69
