 , 0, 1, 2, 3, 4, 5, 6, 7, 8, 9, 10, 11, 12, 13, 14, 15, 16, 17, 18, 19, 20, 21, 22, 23, 24, 25, 26, 27, 28, 29, 30, 31, 32, 33, 34, 35, 36, 37, 38, 39, 40, 41, 42, 43, 44, 45, 46, 47, 48, 49, 50, 51, 52, 53, 54, 55, 56, 57, 58, 59, 60, 61, 62, 63, 64, 65, 66, 67, 68, 69, 70, 71, 72, 73, 74, 75, 76, 77, 78, 79, 80, 81, 82, 83, 84, 85, 86, 87, 88, 89, 90, 91, 92, 93, 94, 95, 96, 97, 98, 99, 100, 101, 102, 103, 104, 105, 106, 107, 108, 109, 110, 111, 112, 113, 114, 115, 116, 117, 118, 119, 120, 121, 122, 123, 124, 125, 126, 127, 128, 129, 130, 131, 132, 133, 134, 135, 136, 137, 138, 139, 140, 141, 142, 143, 144, 145, 146, 147, 148, 149, 150, 151, 152, 153, 154, 155, 156, 157, 158, 159, 160, 161, 162, 163, 164, 165, 166, 167, 168, rowcost
C major (0), 1+0:0:0:0:0, 0+0:0:0:0:0, 0+0:0:0:0:0, 0+0:0:0:0:0, 0+0:0:0:0:0, 0+0:0:0:0:0, 3+1:0:0:0:1, 0+0:0:0:0:0, 3+3:0:0:0:0, 1+2:0:0:0:0, 3+3:0:0:0:0, 1+1:0:0:0:0, 3+4:0:0:0:1, 2+1:0:0:0:0, 1+0:0:0:0:0, 0+0:0:0:0:0, 1+0:0:0:0:0, 1+1:0:0:0:1, 0+0:0:0:0:0, 2+2:0:0:0:0, 0+0:0:0:0:0, 0+0:0:0:0:0, 1+0:0:0:0:0, 0+0:0:0:0:0, 3+3:0:0:0:0, 1+2:0:0:0:0, 3+3:0:0:0:0, 1+1:0:0:0:0, 2+3:0:0:0:0, 2+1:0:0:0:0, 1+0:0:0:0:0, 1+1:0:0:0:1, 2+1:0:0:0:0, 0+0:0:0:0:0, 1+0:0:0:0:0, 2+2:0:0:0:0, 0+0:0:0:0:0, 2+1:0:0:0:0, 1+0:0:0:0:0, 2+0:0:0:0:0, 2+2:0:0:0:0, 3+3:2:0:0:2, 3+3:0:0:0:0, 3+2:2:0:0:2, 6+3:0:0:0:0, 3+2:1:0:0:1, 1+1:0:0:0:0, 0+0:0:0:0:0, 1+0:0:0:0:0, 0+0:0:0:0:0, 0+0:0:0:0:0, 1+0:0:0:0:0, 0+0:0:0:0:0, 0+0:0:0:0:0, 1+0:0:0:0:0, 1+0:0:0:0:0, 2+2:0:0:0:0, 4+4:0:0:0:3, 2+1:0:0:0:0, 3+3:0:0:0:1, 10+6:1:0:0:0, 6+3:1:0:0:1, 1+0:0:0:0:0, 0+0:0:0:0:0, 1+0:0:0:0:0, 1+0:0:0:0:0, 0+0:0:0:0:0, 0+0:0:0:0:0, 0+0:0:0:0:0, 0+0:0:0:0:0, 1+0:0:0:0:0, 0+0:0:0:0:0, 2+1:0:0:0:0, 1+1:0:0:0:0, 2+1:0:0:0:0, 1+1:0:0:0:0, 2+1:0:0:0:0, 1+1:0:0:0:0, 1+0:0:0:0:0, 0+0:0:0:0:0, 1+0:0:0:0:0, 0+0:0:0:0:0, 1+0:0:0:0:0, 3+2:1:0:0:1, 1+1:0:0:0:1, 2+4:0:0:0:0, 1+0:0:0:0:0, 2+1:1:0:0:0, 3+7:0:0:0:0, 3+2:0:0:0:0, 5+4:0:0:0:1, 1+2:0:0:0:0, 5+5:0:0:0:0, 2+2:0:0:0:0, 2+1:0:1:0:1, 0+0:0:0:0:0, 2+2:0:0:0:0, 5+2:0:0:0:1, 1+1:0:0:0:0, 4+1:0:0:0:1, 1+1:0:0:0:1, 0+0:0:0:0:0, 1+0:0:0:0:0, 6+7:1:0:0:0, 3+1:0:0:0:0, 2+1:0:0:0:0, 5+6:0:0:0:1, 3+2:0:0:0:0, 4+2:0:0:0:0, 6+4:0:0:0:1, 2+1:0:0:0:0, 0+0:0:0:0:0, 1+0:0:0:0:0, 2+2:0:0:0:1, 1+1:0:0:0:0, 5+4:0:0:0:0, 0+0:0:0:0:0, 4+3:0:0:0:0, 3+4:2:0:0:4, 2+1:1:0:0:0, 3+1:0:0:0:0, 1+1:0:0:0:0, 4+3:0:0:0:0, 6+2:0:0:0:1, 5+2:0:0:0:2, 5+5:2:0:0:1, 2+3:0:3:0:3, 2+2:0:1:0:1, 2+1:0:1:0:1, 0+0:0:0:0:0, 0+0:0:0:0:0, 3+3:0:0:0:2, 2+1:0:0:0:0, 2+2:0:0:0:0, 2+4:0:0:0:1, 1+0:0:0:0:0, 2+3:0:0:0:0, 2+1:0:0:0:0, 5+5:2:0:0:0, 4+5:0:0:0:4, 2+1:0:0:0:0, 3+4:0:0:0:1, 2+2:0:0:0:2, 2+1:0:0:0:0, 2+1:0:0:0:1, 3+2:0:0:0:2, 3+3:0:0:0:0, 1+2:0:0:0:0, 1+1:0:0:0:0, 1+1:0:0:0:0, 3+2:0:0:0:0,  , 2+1:0:0:0:0, 4+2:1:0:0:0, 3+1:0:0:0:0, 5+3:0:0:0:2, 5+4:0:0:0:0, 4+3:2:0:0:0, 2+1:1:0:0:0, 0+0:0:0:0:0, 1+0:0:0:0:0, 5+2:0:0:0:0, 4+4:0:0:0:0, 2+1:0:0:0:1, 0+0:0:0:0:0, 0+0:0:0:0:0, 1+0:0:0:0:0, 2+1:0:0:0:0, 0+0:0:0:0:0, 324+241:21:6:0:53
A minor (0), 1+1:0:0:0:0, 0+0:0:0:0:0, 0+0:0:0:0:0, 0+0:0:0:0:0, 0+1:0:0:0:0, 0+0:0:0:0:0, 3+2:0:0:0:0, 0+0:0:0:0:0, 3+2:0:0:0:2, 1+0:0:0:0:0, 3+2:0:0:0:2, 1+0:0:0:0:0, 3+2:0:0:0:2, 2+2:0:0:0:0, 1+1:0:0:0:0, 0+0:0:0:0:0, 1+1:0:0:0:0, 1+1:0:0:0:1, 0+0:0:0:0:0, 2+3:0:0:0:0, 0+1:0:0:0:0, 0+0:0:0:0:0, 1+1:0:0:0:0, 0+0:0:0:0:0, 3+2:0:0:0:2, 1+0:0:0:0:0, 3+2:0:0:0:2, 1+0:0:0:0:0, 2+1:0:0:0:1, 2+1:0:0:0:0, 1+1:0:0:0:0, 1+2:0:0:0:0, 2+4:0:0:0:0, 0+1:0:0:0:0, 1+0:0:0:0:0, 2+4:0:0:0:0, 0+3:0:0:0:0, 2+4:0:0:0:0, 1+1:0:0:0:0, 2+0:0:0:0:0, 2+2:0:0:0:2, 3+1:0:0:0:1, 3+3:0:0:0:2, 3+1:0:0:0:1, 6+3:0:0:0:3, 3+1:0:0:0:1, 1+1:0:0:0:0, 0+0:0:0:0:0, 1+2:0:0:0:0, 0+0:0:0:0:0, 0+0:0:0:0:0, 1+2:0:0:0:0, 0+3:0:0:0:0, 0+1:0:0:0:0, 1+1:0:0:0:0, 1+2:0:0:0:0, 2+3:0:0:0:3, 4+5:0:0:0:1, 2+3:0:0:0:2, 3+1:0:0:0:1, 10+7:0:0:0:1, 6+3:1:0:0:1, 1+2:0:0:0:0, 0+1:0:0:0:0, 1+1:0:0:0:0, 1+0:0:0:0:0, 0+0:0:0:0:0, 0+0:0:0:0:0, 0+1:0:0:0:0, 0+0:0:0:0:0, 1+1:0:0:0:0, 0+0:0:0:0:0, 2+2:0:0:0:2, 1+0:0:0:0:0, 2+2:0:0:0:2, 1+0:0:0:0:0, 2+2:0:0:0:2, 1+1:0:0:0:0, 1+1:0:0:0:0, 0+0:0:0:0:0, 1+1:0:0:0:0, 0+0:0:0:0:0, 1+3:0:0:0:0, 3+2:1:0:0:1, 1+4:0:0:0:1, 2+5:0:0:0:0, 1+2:0:0:0:0, 2+1:1:0:0:1, 3+5:0:0:0:4, 3+1:0:0:0:0, 5+6:0:0:0:5, 1+0:0:0:0:0, 6+6:0:0:0:2, 2+3:0:0:0:0, 2+2:0:1:0:1, 0+0:0:0:0:0, 2+1:0:0:0:0, 6+4:0:0:0:1, 1+1:0:0:0:0, 4+1:0:0:0:1, 1+4:0:0:0:1, 0+3:0:0:0:0, 1+9:0:0:0:0, 6+7:1:0:0:0, 3+2:0:0:0:1, 2+0:0:0:0:0, 5+6:0:0:0:4, 3+1:0:0:0:0, 5+4:0:0:0:2, 6+4:1:1:0:1, 2+4:0:0:0:0, 0+1:0:0:0:0, 1+1:0:0:0:0, 2+1:0:0:0:1, 1+1:0:0:0:1, 5+6:0:0:0:1, 0+1:0:0:0:0, 4+4:0:0:0:0, 3+5:2:0:0:2, 2+1:1:0:0:1, 3+4:0:0:0:0, 1+0:0:0:0:0, 4+4:0:0:0:2, 6+2:0:0:0:1, 5+2:0:0:0:2, 5+3:1:0:0:1, 3+4:0:0:0:3, 2+2:0:1:0:1, 2+2:0:1:0:1, 0+2:0:0:0:0, 0+0:0:0:0:0, 3+3:0:0:0:1, 2+2:0:0:0:0, 2+4:0:0:0:0, 2+2:0:0:0:0, 1+4:0:0:0:2, 2+6:0:0:0:4, 2+0:0:0:0:0, 6+8:2:0:0:3, 4+7:0:0:0:1, 2+2:0:0:0:1, 3+3:0:0:0:3, 2+1:0:0:0:0, 2+2:0:0:0:0, 2+2:0:0:0:0, 3+3:0:0:0:0, 4+6:0:0:0:0, 1+6:0:0:0:2, 2+5:0:0:0:0, 1+3:0:0:0:0, 3+3:0:0:0:0,  , 2+1:0:0:0:1, 4+2:1:0:0:0, 3+6:0:0:0:0, 5+3:0:0:0:2, 5+8:0:0:0:2, 4+2:0:0:0:1, 2+3:1:0:0:0, 0+0:0:0:0:0, 1+1:0:0:0:0, 5+2:0:0:0:0, 4+4:0:0:0:0, 2+1:0:0:0:1, 0+0:0:0:0:0, 0+0:0:0:0:0, 1+2:0:0:0:0, 2+1:0:0:0:0, 0+0:0:0:0:0, 331+351:13:4:0:104
F major (1b), 2+1:0:0:0:0, 1+0:0:0:0:0, 1+0:0:0:0:0, 1+0:0:0:0:0, 1+0:0:0:0:0, 0+0:0:0:0:0, 2+2:1:0:0:1, 0+0:0:0:0:0, 2+2:0:0:0:2, 2+0:0:0:0:0, 2+2:0:0:0:2, 2+0:0:0:0:0, 2+2:0:0:0:2, 3+0:0:0:0:0, 2+0:0:0:0:0, 0+0:0:0:0:0, 2+1:0:0:0:0, 2+1:0:0:0:1, 1+0:0:0:0:0, 1+2:0:0:0:0, 1+0:0:0:0:0, 0+0:0:0:0:0, 2+1:0:0:0:0, 0+0:0:0:0:0, 2+2:0:0:0:2, 2+0:0:0:0:0, 2+2:0:0:0:2, 2+0:0:0:0:0, 1+1:0:0:0:1, 2+0:0:0:0:0, 2+0:0:0:0:0, 1+1:0:0:0:1, 3+1:0:0:0:0, 1+0:0:0:0:0, 1+0:0:0:0:0, 3+2:0:0:0:0, 1+0:0:0:0:0, 2+1:0:0:0:0, 2+0:0:0:0:0, 2+0:0:0:0:0, 1+2:0:0:0:2, 2+1:0:0:0:1, 2+3:0:0:0:2, 2+1:1:0:0:0, 5+3:0:0:0:3, 2+2:1:0:0:1, 2+1:0:0:0:0, 1+0:0:0:0:0, 1+1:0:0:0:0, 1+0:0:0:0:0, 1+0:0:0:0:0, 2+1:0:0:0:0, 1+0:0:0:0:0, 0+0:0:0:0:0, 2+0:0:0:0:0, 1+0:0:0:0:0, 1+3:0:0:0:3, 4+3:1:0:0:0, 1+3:0:0:0:2, 4+1:0:0:0:1, 9+7:0:0:0:1, 7+3:1:0:0:1, 2+0:0:0:0:0, 1+0:0:0:0:0, 1+2:0:0:0:0, 1+0:0:0:0:0, 0+0:0:0:0:0, 0+0:0:0:0:0, 1+0:0:0:0:0, 1+0:0:0:0:0, 1+1:0:0:0:0, 0+0:0:0:0:0, 1+2:0:0:0:2, 1+0:0:0:0:0, 1+2:0:0:0:2, 1+0:0:0:0:0, 1+2:0:0:0:2, 1+0:0:0:0:0, 1+0:0:0:0:0, 0+0:0:0:0:0, 1+2:0:0:0:0, 0+0:0:0:0:0, 2+1:0:0:0:0, 4+3:0:0:0:0, 2+1:0:0:0:1, 2+4:0:0:0:0, 2+2:0:0:0:0, 3+3:0:0:0:0, 2+4:0:0:0:0, 4+1:0:0:0:0, 4+6:0:0:0:5, 1+0:0:0:0:0, 5+6:0:0:0:2, 2+0:0:0:0:0, 2+1:0:1:0:1, 1+0:0:0:0:0, 3+1:0:0:0:0, 4+3:0:0:0:0, 2+1:0:0:0:0, 3+2:0:0:0:0, 2+1:0:0:0:1, 0+0:0:0:0:0, 1+4:0:0:0:0, 5+7:4:0:0:4, 2+2:0:0:0:1, 3+0:0:0:0:0, 4+6:0:0:0:4, 3+1:0:1:0:1, 4+4:0:0:0:2, 4+4:1:2:0:3, 2+5:0:0:0:1, 0+0:0:0:0:0, 2+2:0:0:0:0, 3+2:0:0:0:1, 1+1:0:0:0:0, 4+4:0:0:0:0, 1+0:0:0:0:0, 5+3:0:0:0:0, 4+6:0:0:0:2, 2+1:1:0:0:0, 2+4:0:0:0:0, 2+0:0:0:0:0, 3+4:0:0:0:2, 5+2:1:0:0:0, 4+2:0:0:0:2, 4+3:2:0:0:2, 3+4:0:0:0:3, 2+2:0:1:0:1, 3+2:0:0:0:0, 0+0:0:0:0:0, 0+0:0:0:0:0, 4+3:0:0:0:2, 3+1:0:0:0:0, 1+2:0:0:0:0, 2+4:0:0:0:1, 1+0:0:0:0:0, 1+4:0:0:0:0, 3+1:0:0:0:0, 4+5:2:0:0:0, 5+5:0:0:0:4, 1+1:0:0:0:0, 4+4:0:0:0:1, 2+2:0:0:0:2, 2+1:0:0:0:0, 2+1:0:0:0:1, 3+2:0:0:0:2, 3+3:0:0:0:0, 1+2:0:0:0:0, 2+1:0:0:0:0, 1+1:0:0:0:0, 3+2:0:0:0:0,  , 1+1:0:0:0:0, 5+2:1:0:0:0, 2+3:0:0:0:0, 4+6:5:0:0:5, 4+5:0:0:0:0, 3+2:1:0:0:1, 1+1:1:0:0:1, 0+0:0:0:0:0, 2+1:0:0:0:0, 6+2:0:0:0:0, 3+4:0:0:0:0, 3+1:0:0:0:1, 1+0:0:0:0:0, 1+0:0:0:0:0, 2+3:0:0:0:3, 3+1:0:0:0:1, 1+0:0:0:0:0, 347+262:24:5:0:101
G major (1#), 0+0:0:0:0:0, 0+0:0:0:0:0, 0+0:0:0:0:0, 0+0:0:0:0:0, 1+0:0:0:0:0, 1+0:0:0:0:0, 2+1:0:0:0:1, 0+0:0:0:0:0, 4+3:0:0:0:0, 0+0:0:0:0:0, 4+3:0:0:0:0, 0+0:0:0:0:0, 4+4:0:0:0:1, 1+1:0:0:0:0, 0+0:0:0:0:0, 0+0:0:0:0:0, 0+0:0:0:0:0, 1+1:0:0:0:1, 0+0:0:0:0:0, 2+2:0:0:0:0, 1+0:0:0:0:0, 1+0:0:0:0:0, 0+0:0:0:0:0, 0+0:0:0:0:0, 4+3:0:0:0:0, 0+0:0:0:0:0, 4+3:0:0:0:0, 0+0:0:0:0:0, 3+2:0:0:0:0, 1+1:0:0:0:0, 0+0:0:0:0:0, 2+1:0:0:0:0, 1+1:0:0:0:0, 0+0:0:0:0:0, 0+0:0:0:0:0, 1+2:0:0:0:0, 1+0:0:0:0:0, 3+1:0:0:0:0, 0+0:0:0:0:0, 1+0:0:0:0:0, 3+2:0:0:0:2, 3+2:0:0:0:1, 4+3:0:0:0:2, 2+1:0:0:0:1, 7+3:0:0:0:3, 3+2:1:1:0:1, 0+0:0:0:0:0, 0+0:0:0:0:0, 0+0:0:0:0:0, 0+0:0:0:0:0, 0+0:0:0:0:0, 0+0:0:0:0:0, 1+0:0:0:0:0, 1+0:0:0:0:0, 0+0:0:0:0:0, 0+0:0:0:0:0, 3+5:0:0:0:0, 5+3:0:0:0:1, 3+4:0:0:0:0, 2+3:0:0:0:1, 11+7:0:0:0:1, 5+3:1:0:0:1, 0+0:0:0:0:0, 0+0:0:0:0:0, 0+0:0:0:0:0, 0+0:0:0:0:0, 0+0:0:0:0:0, 0+0:0:0:0:0, 1+0:0:0:0:0, 0+0:0:0:0:0, 0+0:0:0:0:0, 0+0:0:0:0:0, 3+3:0:0:0:0, 1+1:0:0:0:0, 3+3:0:0:0:0, 1+1:0:0:0:0, 3+3:0:0:0:0, 1+1:0:0:0:0, 0+0:0:0:0:0, 0+0:0:0:0:0, 0+0:0:0:0:0, 0+0:0:0:0:0, 0+0:0:0:0:0, 2+2:1:0:0:1, 2+1:0:0:0:1, 3+4:0:0:0:0, 0+0:0:0:0:0, 1+1:1:0:0:0, 4+7:0:0:0:0, 2+2:0:0:0:0, 6+7:0:0:0:0, 1+2:0:0:0:0, 6+8:0:0:0:1, 1+2:0:0:0:0, 1+1:0:1:0:1, 1+0:0:0:0:0, 1+2:0:0:0:0, 4+2:0:0:0:1, 1+1:0:1:0:1, 3+1:0:0:0:1, 2+3:0:0:0:1, 1+0:0:0:0:0, 0+0:0:0:0:0, 7+3:1:0:0:1, 4+4:0:0:0:0, 1+1:0:0:0:0, 6+5:0:0:0:0, 3+2:0:0:0:0, 5+7:0:0:0:1, 6+4:1:1:0:1, 1+1:0:0:0:0, 0+0:0:0:0:0, 0+0:0:0:0:0, 2+2:0:0:0:1, 1+0:0:0:0:0, 6+2:0:0:0:1, 1+1:0:0:0:0, 5+3:0:0:0:0, 2+4:2:0:0:4, 1+1:1:0:0:0, 4+4:0:0:0:0, 1+0:0:0:0:0, 5+4:0:0:0:2, 5+2:0:0:0:1, 6+2:0:0:0:2, 5+5:2:0:0:1, 1+3:0:3:0:3, 1+2:0:2:0:2, 1+1:0:1:0:1, 1+0:0:0:0:0, 0+0:0:0:0:0, 4+3:0:0:0:2, 3+1:0:0:0:0, 3+1:0:0:0:0, 1+1:0:0:0:1, 2+4:0:0:0:0, 3+6:0:0:0:4, 1+0:0:0:0:0, 6+7:0:0:0:1, 5+5:0:0:0:4, 3+1:0:0:0:0, 3+4:0:0:0:1, 1+2:0:0:0:2, 1+1:0:0:0:0, 1+1:0:0:0:1, 2+2:0:0:0:0, 3+2:1:1:0:2, 1+2:0:0:0:0, 2+1:0:0:0:0, 2+1:0:0:0:0, 1+1:0:1:0:1,  , 3+2:0:0:0:0, 3+2:1:0:0:0, 4+6:0:0:0:0, 4+3:0:0:0:2, 6+8:0:0:0:2, 3+3:2:0:0:0, 1+1:1:0:0:0, 0+0:0:0:0:0, 0+1:0:0:0:0, 4+1:0:0:0:0, 4+4:0:0:0:0, 2+1:0:0:0:1, 0+0:0:0:0:0, 0+0:0:0:0:0, 1+4:0:0:0:0, 1+1:0:0:0:0, 0+0:0:0:0:0, 316+271:16:12:0:70
D minor (1b), 2+1:0:0:0:0, 1+0:0:0:0:0, 1+0:0:0:0:0, 1+0:0:0:0:0, 1+1:0:0:0:0, 0+0:0:0:0:0, 2+4:1:0:0:0, 0+0:0:0:0:0, 2+2:0:0:0:2, 2+0:0:0:0:0, 2+2:0:0:0:2, 2+0:0:0:0:0, 2+2:0:0:0:2, 3+0:0:0:0:0, 2+2:0:0:0:0, 0+0:0:0:0:0, 2+1:0:0:0:0, 2+1:0:0:0:1, 1+0:0:0:0:0, 1+3:0:0:0:0, 1+1:0:0:0:0, 0+0:0:0:0:0, 2+1:0:0:0:0, 0+0:0:0:0:0, 2+2:0:0:0:2, 2+0:0:0:0:0, 2+2:0:0:0:2, 2+0:0:0:0:0, 1+1:0:0:0:1, 2+0:0:0:0:0, 2+2:0:0:0:0, 1+1:0:0:0:0, 3+3:0:0:0:0, 1+0:0:0:0:0, 1+0:0:0:0:0, 3+0:0:0:0:0, 1+1:0:0:0:0, 2+1:0:0:0:1, 2+1:0:0:0:0, 2+0:0:0:0:0, 1+2:0:0:0:2, 2+2:1:0:0:0, 2+3:0:0:0:2, 2+1:1:0:0:0, 5+3:0:0:0:3, 2+1:0:0:0:1, 2+1:0:0:0:0, 1+0:0:0:0:0, 1+1:0:0:0:0, 1+0:0:0:0:0, 1+0:0:0:0:0, 2+2:0:0:0:0, 1+3:0:0:0:0, 0+0:0:0:0:0, 2+2:0:0:0:0, 1+0:0:0:0:0, 1+3:0:0:0:3, 4+3:1:0:0:0, 1+3:0:0:0:2, 4+1:0:0:0:1, 9+7:0:0:0:1, 7+3:1:0:0:1, 2+1:0:0:0:0, 1+0:0:0:0:0, 1+1:0:0:0:0, 1+0:0:0:0:0, 0+1:0:0:0:0, 0+1:0:0:0:0, 1+1:0:0:0:0, 1+0:0:0:0:0, 1+1:0:0:0:0, 0+1:0:0:0:0, 1+2:0:0:0:2, 1+0:0:0:0:0, 1+2:0:0:0:2, 1+0:0:0:0:0, 1+2:0:0:0:2, 1+0:0:0:0:0, 1+1:0:0:0:0, 0+0:0:0:0:0, 1+2:0:0:0:0, 0+1:0:0:0:0, 2+3:0:0:0:0, 4+3:0:0:0:0, 2+4:0:0:0:1, 2+5:0:0:0:0, 2+3:0:0:0:0, 3+4:0:0:0:0, 2+5:0:0:0:4, 4+1:0:0:0:0, 4+6:0:0:0:5, 1+0:0:0:0:0, 5+6:0:0:0:2, 2+0:0:0:0:0, 2+2:0:1:0:1, 1+2:0:0:0:0, 3+3:0:0:0:0, 5+4:0:0:0:1, 2+1:0:0:0:0, 3+1:0:0:0:1, 2+4:0:0:0:1, 0+3:0:0:0:0, 1+9:0:0:0:0, 5+7:1:0:0:0, 2+2:0:0:0:1, 3+0:0:0:0:0, 4+6:0:0:0:4, 3+1:0:1:0:1, 3+7:0:0:0:1, 5+4:1:1:0:1, 2+1:0:0:0:0, 0+0:0:0:0:0, 2+2:0:0:0:0, 3+1:0:0:0:1, 1+3:0:0:0:0, 4+6:0:0:0:1, 1+1:0:0:0:0, 5+4:0:0:0:0, 5+2:0:1:0:1, 2+1:1:0:0:1, 2+3:0:0:0:1, 2+0:0:0:0:0, 3+4:0:0:0:2, 5+2:1:0:0:0, 4+2:0:0:0:2, 4+5:2:0:0:1, 2+4:0:3:0:3, 2+2:0:1:0:1, 2+2:0:1:0:1, 0+1:0:0:0:0, 0+2:0:0:0:0, 4+3:0:0:0:1, 3+2:0:0:0:0, 1+4:0:0:0:0, 2+4:0:0:0:0, 1+4:0:0:0:2, 1+6:0:0:0:4, 3+0:0:0:0:0, 5+8:2:0:0:3, 5+7:0:0:0:1, 1+2:0:0:0:1, 4+3:0:0:0:3, 2+1:0:0:0:0, 2+2:0:0:0:0, 2+2:0:0:0:0, 3+2:0:0:0:0, 3+2:1:0:0:1, 1+3:0:0:0:2, 3+5:0:0:0:0, 1+3:0:0:0:0, 3+3:0:0:0:0,  , 1+1:0:0:0:1, 5+2:1:0:0:0, 2+6:0:0:0:0, 4+3:2:0:0:0, 4+8:0:0:0:2, 3+2:0:0:0:1, 1+3:1:0:0:0, 0+0:0:0:0:0, 2+1:0:0:0:0, 6+2:0:0:0:0, 3+4:0:0:0:0, 3+1:0:0:0:1, 1+0:0:0:0:0, 1+0:0:0:0:0, 2+0:0:0:0:0, 3+1:0:0:0:0, 1+0:0:0:0:0, 349+337:18:9:0:97
E minor (1#), 0+1:0:0:0:0, 0+0:0:0:0:0, 0+0:0:0:0:0, 0+0:0:0:0:0, 1+1:0:0:0:0, 1+0:0:0:0:0, 2+2:0:0:0:0, 0+0:0:0:0:0, 4+3:0:0:0:0, 0+0:0:0:0:0, 4+3:0:0:0:0, 0+0:0:0:0:0, 4+2:0:0:0:0, 1+1:0:0:0:0, 0+1:0:0:0:0, 0+0:0:0:0:0, 0+1:0:0:0:0, 1+1:0:0:0:0, 0+0:0:0:0:0, 2+3:0:0:0:0, 1+1:0:0:0:0, 1+0:0:0:0:0, 0+1:0:0:0:0, 0+0:0:0:0:0, 4+3:0:0:0:0, 0+0:0:0:0:0, 4+3:0:0:0:0, 0+0:0:0:0:0, 3+2:0:0:0:0, 1+1:0:0:0:0, 0+1:0:0:0:0, 2+3:0:0:0:1, 1+4:0:0:0:0, 0+1:0:0:0:0, 0+0:0:0:0:0, 1+4:0:0:0:0, 1+3:0:0:0:0, 3+4:0:0:0:0, 0+1:0:0:0:0, 1+0:0:0:0:0, 3+2:0:0:0:2, 3+2:0:0:0:1, 4+3:0:0:0:2, 2+1:0:0:0:1, 7+3:0:0:0:3, 4+1:0:0:0:1, 0+2:0:0:0:0, 0+3:0:0:0:0, 0+2:0:0:0:0, 0+4:0:0:0:0, 0+0:0:0:0:0, 0+2:0:0:0:0, 1+3:0:0:0:0, 1+1:0:0:0:0, 0+1:0:0:0:0, 0+2:0:0:0:0, 3+3:0:0:0:3, 5+5:0:0:0:1, 3+3:0:0:0:2, 2+1:0:0:0:1, 11+7:0:0:0:1, 5+3:1:0:0:1, 0+0:0:0:0:0, 0+1:0:0:0:0, 0+1:0:0:0:0, 0+0:0:0:0:0, 0+0:0:0:0:0, 0+0:0:0:0:0, 1+1:0:0:0:0, 0+0:0:0:0:0, 0+1:0:0:0:0, 0+0:0:0:0:0, 3+3:0:0:0:0, 1+1:0:0:0:0, 3+3:0:0:0:0, 1+1:0:0:0:0, 3+3:0:0:0:0, 1+1:0:0:0:0, 0+1:0:0:0:0, 0+0:0:0:0:0, 0+1:0:0:0:0, 0+0:0:0:0:0, 0+3:0:0:0:0, 2+2:1:0:0:1, 2+4:0:0:0:1, 3+5:0:0:0:0, 0+2:0:0:0:0, 1+1:1:0:0:1, 5+6:0:0:0:1, 2+3:0:0:0:0, 6+7:0:0:0:0, 1+2:0:0:0:0, 6+8:0:0:0:1, 1+2:0:0:0:0, 1+2:0:1:0:1, 1+2:0:0:0:0, 1+2:0:0:0:0, 4+2:0:0:0:1, 1+1:0:1:0:1, 3+1:0:0:0:1, 2+4:0:0:0:1, 1+3:0:0:0:0, 0+4:0:0:0:0, 7+3:1:0:0:1, 4+4:0:0:0:0, 1+1:0:0:0:0, 6+5:0:0:0:0, 3+2:0:0:0:0, 5+7:0:0:0:1, 6+4:1:1:0:1, 1+4:0:0:0:0, 0+1:0:0:0:0, 0+1:0:0:0:0, 2+1:0:0:0:1, 1+1:0:0:0:1, 6+6:0:0:0:1, 1+1:0:0:0:0, 5+4:0:0:0:0, 2+5:2:0:0:2, 1+1:1:0:0:0, 4+4:0:0:0:0, 1+1:0:0:0:0, 5+4:0:0:0:2, 5+2:0:0:0:1, 6+2:0:0:0:2, 5+6:0:2:0:2, 1+4:0:3:0:3, 1+2:0:2:0:2, 1+2:0:1:0:1, 1+2:0:0:0:0, 0+0:0:0:0:0, 4+3:0:0:0:1, 3+2:0:0:0:0, 3+2:0:0:0:0, 1+2:0:0:0:0, 2+4:0:0:0:2, 3+6:0:0:0:4, 1+0:0:0:0:0, 6+7:0:0:0:1, 5+7:0:0:0:1, 3+2:0:0:0:1, 3+3:0:0:0:0, 1+4:0:0:0:0, 1+2:0:0:0:0, 1+2:0:0:0:0, 2+3:0:0:0:0, 3+2:1:1:0:1, 1+6:0:0:0:2, 3+5:0:0:0:0, 2+3:0:0:0:0, 1+2:0:1:0:1,  , 3+2:0:0:0:0, 3+2:1:0:0:0, 4+6:0:0:0:0, 4+3:0:0:0:2, 6+8:0:0:0:2, 3+3:2:0:0:0, 1+3:1:0:0:1, 0+0:0:0:0:0, 0+1:0:0:0:0, 4+1:0:0:0:0, 5+5:0:0:0:0, 2+1:0:0:0:0, 0+0:0:0:0:0, 0+0:0:0:0:0, 1+4:0:0:0:0, 1+1:0:0:0:0, 0+0:0:0:0:0, 320+376:13:13:0:70
Bb major (2b), 2+0:0:0:0:0, 1+0:0:0:0:0, 1+0:0:0:0:0, 1+0:0:0:0:0, 2+0:0:0:0:0, 1+0:0:0:0:0, 2+2:1:0:0:1, 0+0:0:0:0:0, 2+3:0:0:0:0, 3+0:0:0:0:0, 2+3:0:0:0:0, 3+0:0:0:0:0, 2+4:0:0:0:1, 4+1:0:0:0:0, 2+0:0:0:0:0, 0+0:0:0:0:0, 2+0:0:0:0:0, 2+1:0:0:0:1, 1+0:0:0:0:0, 1+2:0:0:0:0, 2+1:0:0:0:0, 1+0:0:0:0:0, 2+0:0:0:0:0, 0+0:0:0:0:0, 2+3:0:0:0:0, 3+0:0:0:0:0, 2+3:0:0:0:0, 3+0:0:0:0:0, 1+2:0:0:0:0, 3+1:0:0:0:0, 2+0:0:0:0:0, 2+1:0:0:0:1, 4+1:0:0:0:0, 1+0:0:0:0:0, 2+0:0:0:0:0, 3+2:0:0:0:0, 1+0:0:0:0:0, 2+1:0:0:0:0, 3+0:0:0:0:0, 3+1:0:0:0:0, 1+2:0:0:0:0, 3+3:2:0:0:2, 2+3:0:0:0:0, 3+2:2:0:0:2, 5+3:0:0:0:0, 3+2:1:0:0:1, 3+0:0:0:0:0, 2+0:0:0:0:0, 1+0:0:0:0:0, 2+0:0:0:0:0, 2+0:0:0:0:0, 3+0:0:0:0:0, 1+0:0:0:0:0, 0+0:0:0:0:0, 2+0:0:0:0:0, 1+0:0:0:0:0, 1+5:0:0:0:0, 5+3:0:0:0:0, 1+4:0:0:0:0, 5+3:0:0:0:1, 8+7:0:0:0:1, 8+3:1:0:0:1, 2+0:0:0:0:0, 1+0:0:0:0:0, 1+0:0:0:0:0, 1+0:0:0:0:0, 0+0:0:0:0:0, 0+0:0:0:0:0, 1+2:0:0:0:0, 1+0:0:0:0:0, 1+0:0:0:0:0, 0+0:0:0:0:0, 1+3:0:0:0:0, 2+1:0:0:0:0, 1+3:0:0:0:0, 2+1:0:0:0:0, 1+3:0:0:0:0, 2+1:0:0:0:0, 1+0:0:0:0:0, 1+0:0:0:0:0, 2+0:0:0:0:0, 1+0:0:0:0:0, 3+0:0:0:0:0, 5+2:1:0:0:1, 2+1:0:0:0:1, 3+4:0:0:0:0, 3+0:0:0:0:0, 4+1:1:0:0:0, 3+4:0:0:0:0, 5+2:0:0:0:0, 4+7:0:0:0:0, 2+2:0:0:0:0, 3+8:0:0:0:1, 3+2:0:0:0:0, 2+1:0:1:0:1, 2+0:0:0:0:0, 4+2:0:0:0:0, 3+2:0:0:0:1, 2+2:0:0:0:1, 2+2:0:0:0:0, 3+2:0:0:0:0, 0+0:0:0:0:0, 1+4:4:0:0:4, 6+3:0:1:0:1, 1+1:0:0:0:0, 4+1:0:0:0:0, 4+5:0:0:0:0, 5+2:0:0:0:0, 2+3:0:0:0:0, 5+4:1:2:0:3, 2+1:0:0:0:0, 0+0:0:0:0:0, 2+0:0:0:0:0, 2+2:0:0:0:1, 0+0:0:0:0:0, 3+2:0:0:0:0, 1+2:0:0:0:0, 6+3:0:0:0:0, 5+4:2:0:0:4, 3+1:1:0:0:0, 1+4:0:0:0:0, 3+1:0:0:0:0, 4+3:0:0:0:0, 6+5:1:0:0:1, 5+3:0:0:0:0, 5+3:2:0:0:2, 2+3:0:3:0:3, 2+2:0:1:0:1, 2+1:0:1:0:1, 0+2:0:0:0:0, 0+0:0:0:0:0, 5+4:2:0:0:2, 3+2:0:0:0:0, 1+2:0:0:0:0, 2+4:3:0:0:3, 1+0:0:0:0:0, 2+4:0:0:0:0, 4+1:0:0:0:0, 3+7:0:0:0:1, 6+5:0:0:0:4, 1+1:0:0:0:0, 5+4:0:0:0:1, 2+2:0:0:0:2, 2+1:0:0:0:0, 2+1:0:0:0:1, 3+2:0:0:0:2, 4+3:0:0:0:0, 1+2:0:0:0:0, 2+1:0:0:0:0, 1+1:0:0:0:0, 2+1:0:1:0:1,  , 1+2:0:0:0:0, 6+2:1:0:0:0, 1+6:0:0:0:0, 5+3:2:0:0:0, 3+5:0:0:0:0, 4+2:1:0:0:1, 1+1:1:0:0:1, 0+0:0:0:0:0, 2+0:0:0:0:0, 6+1:0:0:0:0, 3+4:0:0:0:0, 3+1:0:0:0:1, 1+0:0:0:0:0, 2+0:0:0:0:0, 3+3:0:0:0:3, 4+1:0:0:0:1, 1+0:0:0:0:0, 398+274:30:10:0:63
D major (2#), 1+0:0:0:0:0, 0+0:0:0:0:0, 0+0:0:0:0:0, 1+0:0:0:0:0, 1+1:0:0:0:0, 1+0:0:0:0:0, 3+4:1:0:0:0, 0+0:0:0:0:0, 4+2:0:0:0:2, 0+0:0:0:0:0, 4+2:0:0:0:2, 0+0:0:0:0:0, 4+2:0:0:0:2, 0+0:0:0:0:0, 1+0:0:0:0:0, 0+0:0:0:0:0, 1+0:0:0:0:0, 1+1:0:0:0:1, 0+0:0:0:0:0, 3+3:0:0:0:0, 1+1:0:0:0:0, 1+0:0:0:0:0, 1+2:0:0:0:0, 0+0:0:0:0:0, 4+2:0:0:0:2, 0+0:0:0:0:0, 4+2:0:0:0:2, 0+0:0:0:0:0, 3+1:0:0:0:1, 0+0:0:0:0:0, 1+0:0:0:0:0, 1+1:0:0:0:0, 2+1:0:0:0:0, 1+0:0:0:0:0, 0+0:0:0:0:0, 0+0:0:0:0:0, 1+2:0:0:0:0, 3+1:0:0:0:1, 1+1:0:0:0:0, 0+0:0:0:0:0, 3+2:0:0:0:2, 2+2:0:0:0:1, 4+3:0:0:0:2, 1+1:0:0:0:1, 7+3:0:0:0:3, 3+1:0:0:0:1, 1+2:0:0:0:0, 0+0:0:0:0:0, 1+0:0:0:0:0, 0+0:0:0:0:0, 1+0:0:0:0:0, 1+0:0:0:0:0, 1+1:0:0:0:0, 1+0:0:0:0:0, 1+2:0:0:0:0, 0+0:0:0:0:0, 3+3:0:0:0:3, 4+3:0:0:0:1, 4+3:0:0:0:2, 1+1:0:0:0:1, 10+7:1:0:0:0, 4+3:1:0:0:1, 1+0:0:0:0:0, 0+0:0:0:0:0, 1+0:0:0:0:0, 0+0:0:0:0:0, 1+0:0:0:0:0, 1+0:0:0:0:0, 1+1:0:0:0:0, 0+0:0:0:0:0, 1+2:0:0:0:0, 1+1:0:0:0:0, 3+2:0:0:0:2, 0+0:0:0:0:0, 3+2:0:0:0:2, 0+0:0:0:0:0, 3+2:0:0:0:2, 0+0:0:0:0:0, 1+0:0:0:0:0, 0+0:0:0:0:0, 1+0:0:0:0:0, 1+0:0:0:0:0, 1+0:0:0:0:0, 3+2:1:0:0:1, 2+1:0:0:0:1, 2+4:0:0:0:3, 1+0:0:0:0:0, 2+1:1:0:0:0, 5+5:0:0:0:4, 1+1:0:0:0:0, 7+6:0:0:0:5, 0+0:0:0:0:0, 8+6:0:0:0:2, 0+0:0:0:0:0, 2+1:0:1:0:1, 1+2:0:0:0:0, 2+2:0:0:0:0, 4+2:1:0:0:0, 2+1:0:1:0:1, 3+1:1:0:0:0, 4+3:0:0:0:0, 1+0:0:0:0:0, 1+1:0:0:0:0, 6+7:1:0:0:0, 4+2:0:0:0:1, 0+0:0:0:0:0, 7+6:0:0:0:4, 2+1:0:0:0:0, 5+4:0:0:0:2, 5+4:1:1:0:1, 2+1:0:0:0:0, 0+0:0:0:0:0, 1+0:0:0:0:0, 3+2:1:0:0:1, 2+0:0:0:0:0, 6+6:1:1:0:2, 1+1:0:0:0:0, 4+4:0:0:0:1, 3+4:2:0:0:4, 1+1:1:0:0:0, 5+4:0:0:0:0, 0+0:0:0:0:0, 6+4:0:0:0:2, 4+2:0:0:0:1, 5+2:0:0:0:2, 4+5:2:0:0:1, 2+3:0:3:0:3, 1+2:0:2:0:2, 2+2:0:1:0:1, 2+1:0:0:0:0, 1+2:0:0:0:0, 5+3:0:0:0:1, 4+2:0:0:0:0, 4+4:0:0:0:0, 2+2:0:0:0:1, 3+4:0:0:0:2, 4+6:0:0:0:4, 0+0:0:0:0:0, 6+8:4:2:0:5, 5+3:0:0:0:0, 4+2:0:0:0:1, 2+3:0:0:0:3, 2+1:0:0:0:0, 1+2:0:2:0:2, 2+2:0:0:0:0, 2+2:0:0:0:0, 2+2:1:1:0:2, 2+3:0:0:0:2, 3+5:0:0:0:0, 2+1:1:0:0:0, 2+3:0:1:0:1,  , 3+1:0:0:0:1, 2+2:1:0:0:0, 5+6:0:0:0:0, 3+3:0:0:0:2, 5+5:0:0:0:3, 2+3:2:0:0:0, 2+1:1:0:0:0, 0+0:0:0:0:0, 1+1:0:0:0:0, 3+2:0:0:0:0, 3+4:2:2:0:2, 1+1:0:0:0:1, 0+0:0:0:0:0, 1+0:0:0:0:0, 2+2:0:0:0:0, 2+1:0:0:0:0, 0+0:0:0:0:0, 349+275:28:18:0:116
G minor (2b), 2+0:0:0:0:0, 1+0:0:0:0:0, 1+0:0:0:0:0, 1+0:0:0:0:0, 2+1:0:0:0:0, 1+0:0:0:0:0, 2+1:1:0:0:0, 0+0:0:0:0:0, 2+3:0:0:0:0, 3+0:0:0:0:0, 2+3:0:0:0:0, 3+0:0:0:0:0, 2+4:0:0:0:1, 4+1:0:0:0:0, 2+0:0:0:0:0, 0+0:0:0:0:0, 2+0:0:0:0:0, 2+1:0:0:0:1, 1+0:0:0:0:0, 1+2:0:0:0:0, 2+1:0:0:0:0, 1+0:0:0:0:0, 2+0:0:0:0:0, 0+0:0:0:0:0, 2+3:0:0:0:0, 3+0:0:0:0:0, 2+3:0:0:0:0, 3+0:0:0:0:0, 1+2:0:0:0:0, 3+1:0:0:0:0, 2+0:0:0:0:0, 2+1:0:0:0:0, 4+1:0:0:0:0, 1+0:0:0:0:0, 2+0:0:0:0:0, 3+2:0:0:0:0, 1+2:0:0:0:0, 2+3:0:0:0:0, 3+0:0:0:0:0, 3+0:0:0:0:0, 1+2:0:0:0:2, 3+1:0:0:0:1, 2+3:0:0:0:2, 3+1:1:0:0:0, 5+3:0:0:0:3, 3+1:0:0:0:1, 3+0:0:0:0:0, 2+0:0:0:0:0, 1+0:0:0:0:0, 2+0:0:0:0:0, 2+0:0:0:0:0, 3+0:0:0:0:0, 1+1:0:0:0:0, 0+3:0:0:0:0, 2+0:0:0:0:0, 1+0:0:0:0:0, 1+5:0:0:0:0, 5+3:0:0:0:0, 1+4:0:0:0:0, 5+3:0:0:0:1, 8+7:0:0:0:1, 8+3:1:0:0:1, 2+0:0:0:0:0, 1+0:0:0:0:0, 1+0:0:0:0:0, 1+0:0:0:0:0, 0+0:0:0:0:0, 0+0:0:0:0:0, 1+1:0:0:0:0, 1+0:0:0:0:0, 1+0:0:0:0:0, 0+0:0:0:0:0, 1+3:0:0:0:0, 2+1:0:0:0:0, 1+3:0:0:0:0, 2+1:0:0:0:0, 1+3:0:0:0:0, 2+1:0:0:0:0, 1+0:0:0:0:0, 1+0:0:0:0:0, 2+0:0:0:0:0, 1+0:0:0:0:0, 3+0:0:0:0:0, 5+2:1:0:0:1, 2+1:0:0:0:1, 3+4:0:0:0:0, 3+0:0:0:0:0, 4+1:1:0:0:0, 3+6:0:0:0:0, 5+2:0:0:0:0, 4+7:0:0:0:0, 2+2:0:0:0:0, 3+8:0:0:0:1, 3+2:0:0:0:0, 2+1:0:1:0:1, 2+2:0:0:0:0, 4+2:0:0:0:0, 3+2:0:0:0:1, 2+1:0:0:0:0, 2+1:0:0:0:1, 2+3:0:0:0:1, 0+1:0:0:0:0, 1+0:0:0:0:0, 6+3:1:0:0:1, 1+4:0:0:0:0, 4+1:0:0:0:0, 4+5:0:0:0:0, 5+2:0:0:0:0, 2+7:0:0:0:1, 6+4:1:1:0:1, 2+1:0:0:0:0, 0+0:0:0:0:0, 2+0:0:0:0:0, 3+3:0:0:0:0, 0+0:0:0:0:0, 3+2:0:0:0:1, 1+1:0:0:0:0, 6+3:0:0:0:0, 5+4:2:0:0:4, 3+1:1:0:0:0, 1+4:0:0:0:0, 3+1:0:0:0:0, 4+4:0:0:0:2, 6+2:1:0:0:0, 5+2:0:0:0:2, 5+5:2:0:0:1, 2+3:0:3:0:3, 2+2:0:1:0:1, 2+1:0:1:0:1, 0+2:0:0:0:0, 0+2:0:0:0:0, 5+3:0:0:0:1, 3+2:0:0:0:0, 1+4:0:0:0:0, 2+1:1:0:0:0, 1+4:0:0:0:0, 2+6:0:0:0:4, 4+0:0:0:0:0, 3+7:0:0:0:1, 6+7:0:0:0:1, 1+2:0:0:0:1, 5+3:0:0:0:3, 2+2:0:0:0:2, 2+1:0:0:0:0, 2+1:0:0:0:1, 3+2:0:0:0:2, 4+2:1:0:0:1, 1+3:0:0:0:2, 3+5:0:0:0:0, 1+1:0:0:0:0, 2+1:0:1:0:1,  , 1+2:0:0:0:0, 6+2:1:0:0:0, 1+6:0:0:0:0, 5+3:2:0:0:0, 3+8:0:0:0:2, 4+2:0:0:0:1, 1+0:0:0:0:0, 0+0:0:0:0:0, 2+0:0:0:0:0, 6+1:0:0:0:0, 3+4:0:0:0:0, 3+1:0:0:0:1, 1+0:0:0:0:0, 2+0:0:0:0:0, 3+3:0:0:0:3, 4+1:0:0:0:1, 1+0:0:0:0:0, 400+295:18:8:0:67
B minor (2#), 1+1:0:0:0:0, 0+1:0:0:0:0, 0+3:0:0:0:0, 1+0:0:0:0:0, 1+5:0:0:0:0, 1+0:0:0:0:0, 3+2:0:0:0:0, 0+0:0:0:0:0, 4+2:0:0:0:2, 0+0:0:0:0:0, 4+2:0:0:0:2, 0+0:0:0:0:0, 4+2:0:0:0:2, 0+0:0:0:0:0, 1+5:0:0:0:0, 0+2:0:0:0:0, 1+1:0:0:0:0, 1+1:0:0:0:0, 0+0:0:0:0:0, 3+3:0:0:0:0, 1+1:0:0:0:0, 1+0:0:0:0:0, 1+1:0:0:0:0, 0+0:0:0:0:0, 4+2:0:0:0:2, 0+0:0:0:0:0, 4+2:0:0:0:2, 0+0:0:0:0:0, 3+1:0:0:0:1, 0+0:0:0:0:0, 1+5:0:0:0:0, 1+3:0:0:0:1, 2+4:0:0:0:0, 1+1:0:0:0:0, 0+0:0:0:0:0, 0+1:0:0:0:0, 1+4:0:0:0:2, 3+4:0:0:0:0, 1+3:0:0:0:0, 0+0:0:0:0:0, 3+2:0:0:0:2, 2+2:0:0:0:1, 4+3:0:0:0:2, 1+1:0:0:0:1, 7+3:0:0:0:3, 2+2:1:1:0:1, 1+4:0:0:0:0, 0+1:0:0:0:0, 1+2:0:0:0:0, 0+4:0:0:0:0, 1+0:0:0:0:0, 1+2:0:0:0:0, 1+4:0:0:0:0, 1+1:0:0:0:0, 1+1:0:0:0:0, 0+2:0:0:0:0, 3+3:0:0:0:3, 4+3:0:0:0:1, 4+3:0:0:0:2, 1+1:0:0:0:1, 11+8:3:0:0:4, 5+7:0:0:0:0, 1+2:0:0:0:0, 0+1:0:0:0:0, 1+1:0:0:0:0, 0+0:0:0:0:0, 1+0:0:0:0:0, 1+0:0:0:0:0, 1+1:0:0:0:1, 0+0:0:0:0:0, 1+1:0:0:0:0, 1+0:0:0:0:0, 3+2:0:0:0:2, 0+0:0:0:0:0, 3+2:0:0:0:2, 0+0:0:0:0:0, 3+2:0:0:0:2, 0+0:0:0:0:0, 1+2:0:0:0:0, 0+0:0:0:0:0, 1+1:0:0:0:0, 1+0:0:0:0:0, 1+3:0:0:0:0, 3+2:1:0:0:1, 2+4:0:0:0:1, 2+5:0:0:0:0, 1+2:0:0:0:0, 2+1:1:0:0:1, 5+5:0:0:0:4, 1+1:0:0:0:0, 7+6:0:0:0:5, 0+0:0:0:0:0, 8+6:0:0:0:2, 0+0:0:0:0:0, 2+4:0:1:0:0, 1+3:0:0:0:2, 2+3:0:0:0:0, 5+6:0:0:0:0, 2+2:0:1:0:1, 4+3:0:0:0:0, 3+5:0:0:0:0, 1+3:0:0:0:0, 1+4:0:0:0:0, 6+3:1:0:0:1, 4+2:0:0:0:1, 0+0:0:0:0:0, 7+6:0:0:0:4, 2+1:0:0:0:0, 5+4:0:0:0:2, 5+4:1:1:0:2, 2+2:0:0:0:0, 0+0:0:0:0:0, 1+1:0:0:0:0, 3+1:0:0:0:1, 2+1:0:0:0:1, 6+6:1:1:0:2, 1+1:0:0:0:0, 4+4:0:0:0:0, 3+5:2:0:0:2, 1+1:1:0:0:1, 5+3:0:0:0:1, 0+0:0:0:0:0, 6+4:0:0:0:2, 4+2:0:0:0:1, 5+2:0:0:0:2, 4+5:2:0:0:1, 2+7:0:3:0:0, 1+3:0:2:0:0, 2+2:0:1:0:1, 2+2:0:0:0:0, 1+1:0:0:0:0, 6+6:0:0:0:0, 4+2:0:0:0:0, 4+4:0:0:0:0, 2+2:0:0:0:0, 3+4:0:0:0:2, 4+6:0:0:0:4, 0+0:0:0:0:0, 6+8:4:2:0:5, 4+7:0:0:0:1, 4+2:0:0:0:1, 2+3:0:0:0:0, 2+1:0:0:0:1, 1+3:0:2:0:2, 2+2:0:0:0:2, 2+3:0:0:0:0, 2+2:1:1:0:2, 2+3:0:0:0:2, 3+5:0:0:0:0, 2+3:0:0:0:0, 2+2:0:1:0:1,  , 3+1:0:0:0:1, 2+2:1:0:0:0, 5+10:0:0:0:3, 3+3:0:0:0:2, 5+5:0:0:0:3, 3+7:0:0:0:0, 2+3:1:0:0:1, 0+0:0:0:0:0, 1+1:0:0:0:0, 3+1:0:0:0:0, 3+4:2:2:0:2, 1+1:0:0:0:1, 0+3:0:0:0:0, 1+0:0:0:0:0, 2+3:0:0:0:2, 2+2:0:0:0:1, 0+0:0:0:0:0, 352+391:23:19:0:123
Eb major (3b), 3+1:0:0:0:0, 2+0:0:0:0:0, 2+0:0:0:0:0, 2+0:0:0:0:0, 2+0:0:0:0:0, 1+0:0:0:0:0, 3+2:1:0:0:1, 1+0:0:0:0:0, 1+1:0:0:0:0, 4+2:0:0:0:0, 1+3:0:0:0:0, 4+1:0:0:0:0, 1+4:0:0:0:1, 5+2:0:0:0:1, 3+1:0:0:0:0, 1+0:0:0:0:0, 3+1:0:0:0:0, 3+1:0:0:0:1, 2+0:0:0:0:0, 2+2:0:0:0:0, 2+0:0:0:0:0, 1+0:0:0:0:0, 3+1:0:0:0:0, 1+0:0:0:0:0, 1+3:0:0:0:0, 4+2:0:0:0:0, 1+3:0:0:0:0, 4+1:0:0:0:0, 0+3:0:0:0:0, 4+1:0:0:0:0, 3+1:0:0:0:0, 3+1:0:0:0:1, 5+1:0:0:0:0, 2+0:0:0:0:0, 2+0:0:0:0:0, 4+2:0:0:0:0, 2+0:0:0:0:0, 1+4:0:0:0:0, 4+1:0:0:0:0, 3+1:0:0:0:0, 0+2:0:0:0:0, 4+3:2:0:0:2, 1+3:0:0:0:0, 4+2:2:0:0:2, 4+3:0:0:0:0, 4+2:1:0:0:1, 4+1:0:0:0:0, 3+0:0:0:0:0, 2+1:0:0:0:0, 2+0:0:0:0:0, 2+0:0:0:0:0, 4+1:0:0:0:0, 2+0:0:0:0:0, 0+0:0:0:0:0, 3+1:0:0:0:0, 2+1:0:0:0:0, 0+2:0:0:0:0, 6+4:0:0:0:2, 0+1:0:0:0:0, 6+4:0:0:0:2, 7+6:1:0:0:0, 9+6:0:0:0:2, 3+3:0:0:0:0, 2+0:0:0:0:0, 2+2:0:0:0:0, 1+0:0:0:0:0, 0+0:0:0:0:0, 0+0:0:0:0:0, 1+0:0:0:0:0, 1+0:0:0:0:0, 2+1:0:0:0:0, 0+0:0:0:0:0, 0+1:0:0:0:0, 3+1:0:0:0:1, 0+1:0:0:0:0, 3+1:0:0:0:1, 0+1:0:0:0:0, 3+1:0:0:0:1, 2+2:0:0:0:0, 1+0:0:0:0:0, 3+2:0:0:0:0, 2+0:0:0:0:0, 4+1:0:0:0:0, 6+3:0:0:0:0, 2+1:0:0:0:1, 3+4:0:0:0:0, 4+2:0:0:0:0, 5+3:0:0:0:0, 2+4:0:0:0:0, 5+2:0:0:0:2, 3+4:0:0:0:1, 3+2:0:0:0:2, 2+5:0:0:0:0, 4+3:0:0:0:2, 4+3:0:0:0:0, 3+0:0:0:0:0, 5+1:0:0:0:0, 4+3:0:0:0:0, 3+2:0:0:0:1, 3+2:0:0:0:0, 3+2:0:0:0:2, 1+0:0:0:0:0, 2+4:4:0:0:4, 7+3:0:1:0:1, 0+1:0:0:0:0, 5+1:0:0:0:0, 3+6:0:0:0:1, 6+2:0:0:0:1, 1+2:0:0:0:0, 6+4:1:2:0:3, 3+5:0:0:0:1, 0+0:0:0:0:0, 3+2:0:0:0:0, 2+4:0:0:0:1, 1+0:0:0:0:0, 4+2:0:0:0:0, 1+0:0:0:0:0, 7+3:0:0:0:0, 6+6:0:0:0:2, 4+3:0:0:0:0, 0+1:0:0:0:0, 4+1:0:0:0:1, 2+3:0:1:0:2, 7+5:1:0:0:1, 4+3:0:0:0:0, 6+3:2:0:0:2, 4+4:0:0:0:3, 3+2:0:1:0:1, 4+2:0:0:0:0, 1+0:0:0:0:0, 1+0:0:0:0:0, 5+3:0:0:0:0, 4+1:0:0:0:0, 2+2:0:0:0:0, 3+4:0:0:0:0, 0+0:0:0:0:0, 1+3:0:0:0:0, 5+1:0:0:0:0, 2+5:2:0:0:0, 7+5:0:0:0:4, 0+1:0:0:0:0, 6+4:0:0:0:1, 3+2:0:0:0:2, 3+1:0:0:0:0, 3+1:0:0:0:1, 3+6:0:0:0:0, 3+1:1:0:0:1, 2+2:0:0:0:0, 1+1:0:0:0:0, 2+1:0:0:0:0, 4+2:0:0:0:0,  , 0+1:0:0:0:0, 7+4:0:0:0:1, 0+1:0:0:0:0, 6+6:5:0:0:5, 2+5:0:0:0:0, 5+2:1:0:0:1, 2+1:1:0:0:1, 1+0:0:0:0:0, 3+1:0:0:0:0, 5+3:0:0:0:0, 3+3:0:0:0:2, 3+2:0:0:0:0, 2+0:0:0:0:0, 3+0:0:0:0:0, 4+3:0:0:0:3, 3+2:0:0:0:0, 1+0:0:0:0:0, 469+304:25:5:0:76
A major (3#), 1+1:0:0:0:0, 0+0:0:0:0:0, 0+0:0:0:0:0, 1+0:0:0:0:0, 2+1:0:0:0:0, 1+0:0:0:0:0, 3+2:0:0:0:0, 0+0:0:0:0:0, 5+2:0:0:0:2, 1+0:0:0:0:0, 5+2:0:0:0:2, 1+0:0:0:0:0, 4+2:0:0:0:2, 1+0:0:0:0:0, 1+2:0:0:0:0, 0+0:0:0:0:0, 1+1:0:0:0:0, 1+1:0:0:0:1, 0+0:0:0:0:0, 3+3:0:0:0:0, 2+1:0:0:0:0, 1+0:0:0:0:0, 1+1:0:0:0:0, 0+0:0:0:0:0, 5+2:0:0:0:2, 1+0:0:0:0:0, 5+2:0:0:0:2, 1+0:0:0:0:0, 3+1:0:0:0:1, 1+0:0:0:0:0, 1+2:0:0:0:0, 2+1:0:0:0:0, 2+3:0:0:0:0, 2+1:0:0:0:0, 0+0:0:0:0:0, 1+1:0:0:0:0, 2+3:0:0:0:0, 2+6:0:0:0:0, 1+1:0:0:0:0, 0+0:0:0:0:0, 4+2:0:0:0:2, 3+2:0:0:0:1, 5+3:0:0:0:2, 2+1:0:0:0:1, 6+3:1:0:0:2, 3+2:1:1:0:1, 1+2:0:0:0:0, 0+0:0:0:0:0, 1+1:0:0:0:0, 0+0:0:0:0:0, 1+0:0:0:0:0, 2+2:0:0:0:0, 2+3:0:0:0:0, 2+1:0:0:0:0, 1+2:0:0:0:0, 1+0:0:0:0:0, 4+3:0:0:0:3, 5+3:0:0:0:1, 5+3:0:0:0:2, 2+1:0:0:0:1, 9+7:2:0:0:2, 5+3:1:0:0:1, 2+1:0:0:0:0, 1+0:0:0:0:0, 1+1:0:0:0:0, 0+0:0:0:0:0, 1+0:0:0:0:0, 1+0:0:0:0:0, 2+1:0:0:0:0, 0+0:0:0:0:0, 1+2:0:0:0:0, 1+0:0:0:0:0, 3+2:0:0:0:2, 1+0:0:0:0:0, 3+2:0:0:0:2, 1+0:0:0:0:0, 3+2:0:0:0:2, 1+0:0:0:0:0, 1+1:0:0:0:0, 0+0:0:0:0:0, 2+3:0:0:0:0, 1+0:0:0:0:0, 2+3:0:0:0:0, 3+3:0:0:0:0, 3+4:0:0:0:1, 3+5:0:0:0:0, 2+3:0:0:0:0, 3+4:0:0:0:0, 6+5:0:0:0:4, 2+1:0:0:0:0, 6+6:1:0:0:4, 1+0:0:0:0:0, 9+6:0:0:0:2, 1+0:0:0:0:0, 2+2:0:1:0:1, 1+0:0:0:0:0, 2+1:0:0:0:0, 5+4:1:0:0:0, 3+1:0:0:0:0, 3+1:1:0:0:0, 4+4:0:0:0:1, 2+3:0:0:0:0, 2+9:0:0:0:0, 5+7:1:0:0:0, 5+2:0:0:0:1, 1+0:0:0:0:0, 8+6:0:0:0:4, 3+1:0:0:0:0, 6+4:0:0:0:2, 6+4:1:1:0:1, 3+1:0:0:0:0, 0+0:0:0:0:0, 1+2:0:0:0:0, 2+1:0:0:0:1, 2+1:0:0:0:1, 7+6:1:1:0:2, 2+1:0:0:0:0, 5+4:0:0:0:0, 4+2:0:0:0:0, 2+1:1:0:0:1, 6+3:0:0:0:1, 1+0:0:0:0:0, 7+4:0:0:0:2, 5+2:0:0:0:1, 5+2:1:0:0:1, 5+5:2:0:0:1, 2+4:0:3:0:3, 2+2:0:2:0:2, 2+2:0:1:0:1, 3+2:0:0:0:0, 1+0:0:0:0:0, 6+3:0:0:0:1, 5+2:0:0:0:0, 5+2:0:0:0:0, 2+2:0:0:0:0, 5+2:0:0:0:0, 5+6:0:0:0:4, 1+0:0:0:0:0, 7+8:4:2:0:5, 5+7:0:0:0:1, 4+2:0:0:0:1, 3+3:0:0:0:3, 1+1:0:0:0:0, 2+2:0:2:0:2, 1+2:0:0:0:0, 3+2:0:0:0:0, 3+2:1:1:0:2, 3+6:0:0:0:2, 4+5:0:0:0:0, 3+3:0:0:0:0, 4+3:0:0:0:0,  , 3+1:0:0:0:1, 3+2:1:0:0:0, 5+10:0:0:0:3, 4+3:0:0:0:2, 6+5:0:0:0:3, 3+3:2:0:0:0, 2+1:1:0:0:0, 0+0:0:0:0:0, 1+1:0:0:0:0, 2+2:0:0:0:0, 3+4:2:2:0:2, 1+1:0:0:0:1, 0+0:0:0:0:0, 1+0:0:0:0:0, 1+2:0:0:0:0, 1+1:0:0:0:0, 0+0:0:0:0:0, 428+334:26:17:0:108
C minor (3b), 3+1:0:0:0:0, 2+0:0:0:0:0, 2+0:0:0:0:0, 2+0:0:0:0:0, 2+0:0:0:0:0, 1+0:0:0:0:0, 3+1:1:0:0:0, 1+0:0:0:0:0, 1+3:0:0:0:0, 4+2:0:0:0:0, 1+3:0:0:0:0, 4+1:0:0:0:0, 1+4:0:0:0:1, 5+1:0:0:0:0, 3+0:0:0:0:0, 1+0:0:0:0:0, 3+1:0:0:0:0, 3+1:0:0:0:1, 2+0:0:0:0:0, 2+2:0:0:0:0, 2+0:0:0:0:0, 1+0:0:0:0:0, 3+1:0:0:0:0, 1+0:0:0:0:0, 1+3:0:0:0:0, 4+2:0:0:0:0, 1+3:0:0:0:0, 4+1:0:0:0:0, 0+3:0:0:0:0, 4+1:0:0:0:0, 3+0:0:0:0:0, 3+1:0:0:0:1, 5+1:0:0:0:0, 2+0:0:0:0:0, 2+0:0:0:0:0, 4+2:0:0:0:0, 2+0:0:0:0:0, 1+4:0:0:0:0, 4+1:0:0:0:0, 3+1:0:0:0:0, 0+4:0:0:0:0, 4+1:0:0:0:1, 1+1:0:0:0:0, 4+2:1:0:0:0, 4+6:0:0:0:0, 4+3:0:0:0:1, 4+1:0:0:0:0, 3+0:0:0:0:0, 2+1:0:0:0:0, 2+0:0:0:0:0, 2+0:0:0:0:0, 4+1:0:0:0:0, 2+0:0:0:0:0, 0+0:0:0:0:0, 3+1:0:0:0:0, 2+1:0:0:0:0, 0+2:0:0:0:0, 6+4:0:0:0:2, 0+1:0:0:0:0, 6+3:0:0:0:1, 7+6:1:0:0:0, 9+6:0:0:0:2, 3+3:0:0:0:0, 2+0:0:0:0:0, 2+2:0:0:0:0, 1+0:0:0:0:0, 0+0:0:0:0:0, 0+0:0:0:0:0, 1+0:0:0:0:0, 1+0:0:0:0:0, 2+1:0:0:0:0, 0+0:0:0:0:0, 0+1:0:0:0:0, 3+1:0:0:0:0, 0+3:0:0:0:0, 3+1:0:0:0:0, 0+3:0:0:0:0, 3+1:0:0:0:0, 2+0:0:0:0:0, 1+0:0:0:0:0, 3+2:0:0:0:0, 2+0:0:0:0:0, 4+1:0:0:0:0, 6+3:0:0:0:0, 2+1:0:0:0:1, 3+4:0:0:0:0, 4+2:0:0:0:0, 5+3:0:0:0:0, 2+5:0:0:0:1, 5+2:0:0:0:2, 3+4:0:0:0:1, 3+2:0:0:0:0, 2+8:0:0:0:1, 4+2:0:0:0:0, 3+1:0:1:0:1, 3+0:0:0:0:0, 5+2:0:0:0:0, 4+2:0:0:0:1, 3+1:0:0:0:0, 3+1:0:0:0:1, 2+1:0:0:0:1, 1+0:0:0:0:0, 2+4:0:0:0:0, 7+8:0:0:0:3, 0+1:0:0:0:0, 5+1:0:0:0:0, 3+5:0:0:0:0, 6+2:0:0:0:0, 1+2:0:0:0:0, 7+4:0:0:0:1, 3+1:0:0:0:0, 0+0:0:0:0:0, 3+2:0:0:0:0, 2+3:0:0:0:0, 1+0:0:0:0:0, 4+2:0:0:0:1, 1+0:0:0:0:0, 7+3:0:0:0:0, 6+6:0:0:0:2, 4+1:1:0:0:0, 0+4:0:0:0:0, 4+1:0:0:0:0, 2+3:0:1:0:2, 7+3:1:0:0:0, 4+6:0:0:0:0, 6+5:0:0:0:2, 4+4:0:0:0:3, 3+2:0:1:0:1, 3+1:0:1:0:1, 1+0:0:0:0:0, 1+0:0:0:0:0, 5+3:0:0:0:0, 4+1:0:0:0:0, 2+2:0:0:0:0, 3+4:0:0:0:0, 0+0:0:0:0:0, 1+3:0:0:0:0, 5+1:0:0:0:0, 2+5:2:0:0:0, 7+5:0:0:0:4, 0+1:0:0:0:0, 6+4:0:0:0:1, 3+2:0:0:0:2, 3+1:0:0:0:0, 3+1:0:0:0:1, 3+2:2:0:0:0, 3+3:0:0:0:0, 2+2:0:0:0:0, 1+1:0:0:0:0, 2+1:0:0:0:0, 4+2:0:0:0:0,  , 0+1:0:0:0:0, 7+2:1:0:0:0, 0+6:0:0:0:0, 6+3:2:0:0:0, 2+8:0:0:0:2, 5+2:0:0:0:1, 2+0:0:0:0:0, 1+0:0:0:0:0, 3+0:0:0:0:0, 6+2:1:0:0:1, 4+4:0:0:0:0, 4+1:0:0:0:1, 2+0:0:0:0:0, 3+0:0:0:0:0, 4+3:0:0:0:3, 3+1:1:0:0:0, 1+0:0:0:0:0, 470+302:14:4:0:52
F# minor (3#), 1+1:0:0:0:1, 0+0:0:0:0:0, 0+0:0:0:0:0, 1+0:0:0:0:0, 2+1:0:0:0:0, 1+0:0:0:0:0, 3+2:0:0:0:0, 0+1:0:0:0:0, 5+2:0:0:0:2, 1+0:0:0:0:0, 5+2:0:0:0:2, 1+0:0:0:0:0, 4+2:0:0:0:2, 1+2:0:0:0:0, 1+2:0:0:0:2, 0+0:0:0:0:0, 1+1:0:0:0:1, 1+1:0:0:0:0, 0+0:0:0:0:0, 3+1:0:0:0:0, 2+1:0:0:0:0, 1+0:0:0:0:0, 1+2:0:0:0:0, 0+0:0:0:0:0, 5+2:0:0:0:2, 1+0:0:0:0:0, 5+2:0:0:0:2, 1+0:0:0:0:0, 3+1:0:0:0:1, 1+2:0:0:0:0, 1+5:0:0:0:0, 2+3:0:0:0:1, 2+7:0:0:0:1, 2+1:0:0:0:0, 0+0:0:0:0:0, 1+1:0:0:0:0, 2+4:0:0:0:2, 2+4:0:0:0:0, 1+2:0:0:0:1, 0+0:0:0:0:0, 4+2:0:0:0:2, 3+2:0:0:0:1, 5+3:0:0:0:2, 2+1:0:0:0:1, 6+3:1:0:0:2, 4+5:0:1:0:0, 1+3:0:0:0:2, 0+1:0:0:0:0, 1+1:0:0:0:1, 0+0:0:0:0:0, 1+0:0:0:0:0, 2+2:0:0:0:0, 2+3:0:0:0:0, 2+1:0:0:0:0, 1+1:0:0:0:0, 1+2:0:0:0:0, 4+3:0:0:0:3, 5+3:0:0:0:1, 5+3:0:0:0:2, 2+4:0:0:0:0, 10+8:3:0:0:4, 6+7:0:0:0:0, 2+4:0:0:0:0, 1+1:0:0:0:0, 1+2:0:0:0:0, 0+0:0:0:0:0, 1+0:0:0:0:0, 1+0:0:0:0:0, 2+1:0:0:0:1, 0+0:0:0:0:0, 1+1:0:0:0:0, 1+0:0:0:0:0, 3+2:0:0:0:2, 1+0:0:0:0:0, 3+2:0:0:0:2, 1+0:0:0:0:0, 3+2:0:0:0:2, 1+1:0:0:0:0, 1+1:0:0:0:1, 0+2:0:0:0:0, 2+5:0:0:0:0, 1+0:0:0:0:0, 2+3:0:0:0:0, 3+2:1:0:0:1, 3+4:0:0:0:1, 3+5:0:0:0:0, 2+2:0:0:0:0, 3+1:1:0:0:1, 7+6:0:0:0:1, 2+2:0:0:0:1, 6+6:1:0:0:4, 1+0:0:0:0:0, 9+6:0:0:0:2, 1+2:0:0:0:0, 2+1:0:0:0:1, 1+1:0:0:0:0, 3+2:1:1:0:2, 6+6:0:0:0:0, 2+2:0:1:0:1, 4+3:0:0:0:0, 4+5:0:0:0:0, 2+3:0:0:0:0, 2+9:0:0:0:0, 5+7:1:0:0:0, 5+2:0:0:0:1, 1+0:0:0:0:0, 8+6:0:0:0:4, 3+1:0:0:0:0, 6+4:0:0:0:2, 6+5:0:2:0:2, 3+2:0:0:0:0, 0+0:0:0:0:0, 1+1:0:0:0:0, 2+1:0:0:0:1, 2+1:0:0:0:1, 8+6:0:0:0:2, 2+1:0:0:0:0, 5+4:0:0:0:0, 4+2:0:0:0:0, 2+1:1:0:0:1, 6+3:0:0:0:1, 1+0:0:0:0:0, 7+4:0:0:0:2, 5+2:0:0:0:1, 5+2:1:0:0:1, 5+6:0:2:0:2, 2+7:0:3:0:0, 2+3:0:2:0:0, 2+2:0:1:0:1, 3+2:0:0:0:0, 1+0:0:0:0:0, 6+3:0:0:0:1, 5+2:0:0:0:0, 5+2:0:0:0:0, 2+2:0:0:0:0, 5+2:0:0:0:0, 5+8:0:0:0:3, 1+2:0:0:0:0, 10+10:0:0:0:2, 5+7:0:0:0:1, 4+2:0:0:0:1, 3+3:0:0:0:0, 1+1:0:0:0:1, 2+3:0:2:0:2, 1+2:0:0:0:2, 3+3:0:0:0:0, 3+2:1:1:0:1, 3+6:0:0:0:2, 4+5:0:0:0:0, 3+3:0:0:0:0, 4+3:0:0:0:0,  , 3+1:0:0:0:1, 3+2:1:0:0:0, 5+6:0:0:0:0, 4+3:0:0:0:2, 6+5:0:0:0:3, 4+7:0:0:0:0, 2+3:1:0:0:1, 0+2:0:0:0:0, 1+1:0:0:0:1, 2+4:0:0:0:1, 4+5:0:0:0:0, 1+5:0:0:0:0, 0+0:0:0:0:0, 1+2:0:0:0:1, 1+3:0:0:0:2, 1+2:0:0:0:1, 0+0:0:0:0:0, 440+405:14:16:0:115
Ab major (4b), 4+1:0:0:0:0, 2+0:0:0:0:0, 2+0:0:0:0:0, 2+0:0:0:0:0, 3+1:0:0:0:0, 2+0:0:0:0:0, 4+2:1:0:0:1, 1+0:0:0:0:0, 2+1:0:0:0:0, 5+2:0:0:0:0, 2+3:0:0:0:0, 5+1:0:0:0:0, 2+4:0:0:0:1, 6+1:0:0:0:0, 4+1:0:0:0:0, 1+0:0:0:0:0, 4+1:0:0:0:0, 3+1:0:0:0:1, 2+0:0:0:0:0, 2+2:0:0:0:0, 3+1:0:0:0:0, 2+0:0:0:0:0, 4+1:0:0:0:0, 1+0:0:0:0:0, 2+2:0:0:0:0, 5+2:0:0:0:0, 2+3:0:0:0:0, 5+1:0:0:0:0, 1+3:0:0:0:0, 4+1:0:0:0:0, 4+0:0:0:0:0, 4+1:0:0:0:0, 6+1:0:0:0:0, 3+0:0:0:0:0, 2+0:0:0:0:0, 5+2:0:0:0:0, 3+0:0:0:0:0, 2+4:0:0:0:0, 5+0:0:0:0:0, 4+0:0:0:0:0, 1+2:0:0:0:0, 4+3:1:0:0:1, 2+3:0:0:0:0, 5+2:2:0:0:2, 5+3:0:0:0:0, 5+2:1:0:0:1, 5+1:0:0:0:0, 4+0:0:0:0:0, 3+1:0:0:0:0, 3+0:0:0:0:0, 2+0:0:0:0:0, 5+1:0:0:0:0, 3+4:0:0:0:0, 1+0:0:0:0:0, 4+1:0:0:0:0, 3+1:0:0:0:0, 1+1:0:0:0:0, 7+5:1:0:0:1, 1+2:0:0:0:0, 7+3:0:0:0:1, 8+6:1:0:0:0, 9+3:1:0:0:1, 4+0:0:0:0:0, 3+0:0:0:0:0, 3+2:2:0:0:2, 1+0:0:0:0:0, 0+0:0:0:0:0, 0+0:0:0:0:0, 2+2:0:0:0:0, 1+0:0:0:0:0, 3+1:0:0:0:0, 0+0:0:0:0:0, 1+0:0:0:0:0, 3+1:1:0:0:1, 1+1:0:0:0:0, 3+1:1:0:0:1, 1+2:0:0:0:0, 3+0:0:0:0:0, 3+0:0:0:0:0, 1+0:0:0:0:0, 4+2:2:0:0:2, 2+0:0:0:0:0, 5+1:0:0:0:0, 7+3:0:0:0:0, 3+2:0:0:0:0, 4+4:0:0:0:0, 5+2:0:0:0:0, 5+3:0:0:0:0, 3+4:0:0:0:0, 6+2:0:0:0:2, 4+4:0:0:0:1, 3+2:0:0:0:0, 3+5:0:0:0:0, 5+2:0:0:0:0, 5+3:0:0:0:0, 3+3:0:0:0:0, 6+1:0:0:0:0, 5+3:0:0:0:0, 4+2:0:0:0:0, 2+2:0:0:0:0, 4+2:0:0:0:0, 2+0:0:0:0:0, 3+4:4:0:0:4, 6+5:0:0:0:2, 1+1:0:0:0:0, 5+0:0:0:0:0, 4+4:0:0:0:0, 5+3:1:0:0:1, 2+2:0:0:0:0, 7+4:1:2:0:3, 4+5:5:0:0:5, 1+0:0:0:0:0, 4+2:0:0:0:0, 3+4:0:0:0:1, 2+2:0:0:0:0, 5+2:0:0:0:0, 2+2:0:0:0:0, 8+3:0:0:0:0, 7+4:2:0:0:4, 4+1:1:0:0:0, 1+1:0:0:0:0, 4+1:0:0:0:0, 4+3:0:0:0:0, 7+5:1:0:0:1, 5+3:0:0:0:0, 7+3:2:0:0:2, 5+4:0:0:0:3, 3+2:0:1:0:1, 5+2:0:0:0:0, 2+0:0:0:0:0, 2+0:0:0:0:0, 6+4:0:0:0:0, 5+2:0:0:0:0, 3+2:0:0:0:0, 4+4:0:0:0:0, 0+0:0:0:0:0, 2+4:0:0:0:0, 5+1:0:0:0:0, 3+5:2:0:0:0, 8+5:0:0:0:3, 1+1:0:0:0:0, 6+4:0:0:0:1, 4+2:0:0:0:2, 3+1:1:0:0:1, 4+1:0:0:0:1, 4+5:4:0:0:0, 2+1:1:0:0:1, 3+2:0:0:0:0, 2+1:0:0:0:1, 3+1:1:0:0:1, 5+2:1:0:0:1,  , 1+0:0:0:0:0, 6+4:3:1:0:4, 1+4:0:0:0:0, 7+6:5:0:0:5, 3+4:0:0:0:0, 5+2:1:0:0:1, 3+1:1:0:0:1, 1+0:0:0:0:0, 4+1:0:0:0:0, 6+2:1:0:0:1, 2+5:0:0:0:1, 4+1:0:0:0:1, 2+0:0:0:0:0, 3+0:0:0:0:0, 5+3:0:0:0:3, 3+2:0:0:0:0, 1+0:0:0:0:0, 584+304:52:4:0:75
E major (4#), 2+1:0:0:0:0, 0+0:0:0:0:0, 0+0:0:0:0:0, 1+0:0:0:0:0, 3+5:0:0:0:0, 2+0:0:0:0:0, 4+2:0:0:0:0, 0+0:0:0:0:0, 7+4:0:0:0:1, 2+1:0:0:0:0, 7+4:0:0:0:1, 2+2:0:0:0:0, 5+6:4:0:0:4, 2+2:0:0:0:0, 2+1:0:0:0:0, 0+0:0:0:0:0, 2+1:0:0:0:0, 1+1:0:0:0:0, 0+0:0:0:0:0, 3+3:0:0:0:0, 3+5:0:0:0:0, 2+0:0:0:0:0, 2+1:0:0:0:0, 0+0:0:0:0:0, 7+4:0:0:0:1, 2+1:0:0:0:0, 7+4:0:0:0:1, 2+2:0:0:0:0, 4+1:0:0:0:1, 1+1:0:0:0:0, 2+1:0:0:0:0, 3+3:0:0:0:1, 3+4:0:0:0:0, 3+1:0:0:0:0, 0+0:0:0:0:0, 2+4:0:0:0:0, 3+3:0:0:0:0, 3+6:0:0:0:0, 2+1:0:0:0:0, 1+0:0:0:0:0, 5+2:0:0:0:2, 3+2:0:0:0:1, 6+3:0:0:0:2, 3+1:0:0:0:1, 7+3:1:0:0:2, 4+2:1:1:0:1, 2+2:0:0:0:0, 1+3:0:0:0:0, 2+2:0:0:0:0, 1+4:0:0:0:0, 1+0:0:0:0:0, 3+2:0:0:0:0, 3+4:0:0:0:0, 3+1:0:0:0:0, 2+1:0:0:0:0, 2+2:0:0:0:0, 5+3:0:0:0:3, 6+3:0:0:0:1, 6+3:0:0:0:2, 3+1:0:0:0:1, 11+7:3:0:0:1, 4+3:1:0:0:1, 3+2:0:0:0:0, 2+1:0:0:0:0, 2+1:0:0:0:0, 0+0:0:0:0:0, 1+0:0:0:0:0, 1+0:0:0:0:0, 3+2:0:0:0:0, 0+0:0:0:0:0, 2+1:0:0:0:0, 1+0:0:0:0:0, 4+2:0:0:0:2, 1+0:0:0:0:0, 4+2:0:0:0:2, 1+0:0:0:0:0, 4+2:0:0:0:2, 1+1:0:0:0:0, 2+1:0:0:0:0, 0+0:0:0:0:0, 3+1:0:0:0:0, 1+0:0:0:0:0, 3+3:0:0:0:0, 4+2:1:0:0:1, 4+4:0:0:0:1, 4+5:0:0:0:0, 3+2:0:0:0:0, 3+1:1:0:0:1, 8+6:0:0:0:1, 3+3:0:0:0:0, 7+6:1:0:0:4, 1+0:0:0:0:0, 9+8:0:0:0:1, 2+3:0:0:0:0, 3+2:0:1:0:1, 1+2:0:0:0:0, 3+3:0:0:0:0, 4+6:1:0:0:1, 3+2:0:1:0:1, 3+3:0:0:0:0, 5+5:0:0:0:0, 3+3:0:0:0:0, 3+4:0:0:0:0, 4+3:1:0:0:1, 6+4:0:0:0:0, 1+0:0:0:0:0, 9+6:0:0:0:4, 3+1:0:0:0:0, 7+7:1:0:0:0, 7+4:1:1:0:1, 4+4:0:0:0:0, 1+1:0:0:0:0, 2+1:0:0:0:0, 2+3:0:0:0:0, 2+1:0:0:0:0, 9+6:0:0:0:2, 3+1:0:0:0:0, 6+4:0:0:0:0, 3+5:2:0:0:2, 2+1:1:0:0:1, 7+4:0:0:0:0, 1+0:0:0:0:0, 8+4:0:0:0:2, 5+2:0:0:0:1, 6+2:1:0:0:1, 6+5:2:0:0:1, 3+4:0:3:0:3, 2+2:0:2:0:2, 3+2:0:1:0:1, 4+2:0:0:0:0, 2+1:0:0:0:0, 6+6:0:0:0:0, 6+2:0:0:0:0, 6+2:0:0:0:0, 3+2:0:0:0:0, 5+2:0:0:0:0, 6+8:0:0:0:3, 1+1:0:0:0:0, 11+10:0:0:0:2, 6+7:0:0:0:1, 5+2:0:0:0:1, 2+3:0:0:0:3, 2+1:0:0:0:0, 4+2:0:0:0:0, 2+2:0:0:0:0, 4+3:0:0:0:0, 5+6:0:0:0:0, 4+6:0:0:0:2, 5+5:0:0:0:0, 4+3:0:0:0:0, 4+2:0:1:0:1,  , 4+1:0:0:0:1, 3+2:1:0:0:0, 6+6:0:0:0:0, 5+3:0:0:0:2, 7+8:2:0:0:0, 3+3:2:0:0:2, 3+3:1:0:0:1, 0+0:0:0:0:0, 2+1:0:0:0:0, 1+1:0:0:0:0, 4+5:0:0:0:0, 1+5:0:0:0:0, 0+0:0:0:0:0, 1+0:0:0:0:0, 2+4:0:0:0:0, 1+1:0:0:0:0, 0+0:0:0:0:0, 547+416:29:11:0:87
F minor (4b), 4+1:0:0:0:0, 2+0:0:0:0:0, 2+0:0:0:0:0, 2+0:0:0:0:0, 3+0:0:0:0:0, 2+0:0:0:0:0, 4+2:1:0:0:1, 1+0:0:0:0:0, 2+2:0:0:0:0, 5+2:0:0:0:0, 2+3:0:0:0:0, 5+1:0:0:0:0, 2+4:0:0:0:1, 6+2:0:0:0:1, 4+1:0:0:0:0, 1+0:0:0:0:0, 4+1:0:0:0:0, 3+1:0:0:0:1, 2+0:0:0:0:0, 2+2:0:0:0:0, 3+1:0:0:0:0, 2+0:0:0:0:0, 4+1:0:0:0:0, 1+0:0:0:0:0, 2+2:0:0:0:0, 5+2:0:0:0:0, 2+3:0:0:0:0, 5+1:0:0:0:0, 1+3:0:0:0:0, 4+1:0:0:0:0, 4+1:0:0:0:0, 4+1:0:0:0:1, 6+1:0:0:0:0, 3+0:0:0:0:0, 2+0:0:0:0:0, 5+2:0:0:0:0, 3+0:0:0:0:0, 2+4:0:0:0:0, 5+1:0:0:0:0, 4+0:0:0:0:0, 1+2:0:0:0:0, 4+3:1:0:0:1, 2+3:0:0:0:0, 5+2:2:0:0:2, 5+3:0:0:0:0, 5+2:1:0:0:1, 5+1:0:0:0:0, 4+0:0:0:0:0, 3+1:0:0:0:0, 3+0:0:0:0:0, 2+0:0:0:0:0, 5+1:0:0:0:0, 3+0:0:0:0:0, 1+0:0:0:0:0, 4+1:0:0:0:0, 3+1:0:0:0:0, 1+3:0:0:0:0, 7+4:0:0:0:1, 1+1:0:0:0:0, 7+4:0:0:0:2, 8+6:1:0:0:0, 9+6:0:0:0:1, 4+3:0:0:0:0, 3+0:0:0:0:0, 3+2:0:0:0:0, 1+0:0:0:0:0, 0+0:0:0:0:0, 0+0:0:0:0:0, 2+2:0:0:0:0, 1+0:0:0:0:0, 3+1:0:0:0:0, 0+0:0:0:0:0, 1+1:0:0:0:0, 3+1:0:0:0:1, 1+1:0:0:0:0, 3+1:0:0:0:1, 1+1:0:0:0:0, 3+1:0:0:0:1, 3+2:0:0:0:0, 1+0:0:0:0:0, 4+2:0:0:0:0, 2+0:0:0:0:0, 5+1:0:0:0:0, 7+3:0:0:0:0, 3+1:0:0:0:1, 4+4:0:0:0:0, 5+2:0:0:0:0, 5+3:0:0:0:0, 3+4:0:0:0:0, 6+2:0:0:0:2, 4+4:0:0:0:1, 3+2:0:0:0:1, 3+5:0:0:0:0, 5+3:0:0:0:1, 5+3:0:0:0:0, 3+0:0:0:0:0, 6+1:0:0:0:0, 5+3:0:0:0:0, 4+2:0:0:0:0, 2+0:0:0:0:0, 4+2:0:0:0:0, 2+0:0:0:0:0, 3+4:4:0:0:4, 6+3:0:1:0:1, 1+1:0:0:0:0, 5+1:0:0:0:0, 4+6:0:0:0:1, 5+2:0:0:0:1, 2+2:0:0:0:0, 7+4:1:2:0:3, 4+5:5:0:0:5, 1+0:0:0:0:0, 4+2:0:0:0:0, 3+3:0:0:0:0, 2+2:0:0:0:0, 5+4:0:0:0:1, 2+0:0:0:0:0, 8+3:0:0:0:0, 7+6:0:0:0:2, 4+3:0:0:0:0, 1+1:0:0:0:0, 4+1:0:0:0:1, 4+3:0:0:0:0, 7+5:1:0:0:1, 5+3:0:0:0:0, 7+3:2:0:0:2, 5+4:0:0:0:3, 3+2:0:1:0:1, 5+2:0:0:0:0, 2+0:0:0:0:0, 2+0:0:0:0:0, 6+3:0:0:0:0, 5+1:0:0:0:0, 3+2:0:0:0:0, 4+4:0:0:0:0, 0+0:0:0:0:0, 2+4:0:0:0:0, 5+1:0:0:0:0, 3+5:2:0:0:0, 8+5:0:0:0:3, 1+1:0:0:0:0, 6+4:0:0:0:1, 4+2:0:0:0:2, 3+1:1:0:0:1, 4+1:0:0:0:1, 4+6:0:0:0:0, 2+1:1:0:0:1, 3+2:0:0:0:0, 2+1:0:0:0:0, 3+1:0:0:0:0, 5+2:0:0:0:0,  , 1+1:0:0:0:0, 7+4:0:0:0:1, 1+1:0:0:0:0, 7+6:5:0:0:5, 3+4:0:0:0:0, 5+2:1:0:0:1, 3+1:1:0:0:1, 1+0:0:0:0:0, 4+1:0:0:0:0, 6+2:1:0:0:1, 2+5:0:0:0:1, 4+1:0:0:0:1, 2+0:0:0:0:0, 3+0:0:0:0:0, 5+3:0:0:0:3, 3+2:0:0:0:0, 1+0:0:0:0:0, 585+308:31:4:0:71
C# minor (4#), 2+1:0:0:0:1, 0+3:0:0:0:0, 0+0:0:0:0:0, 1+0:0:0:0:0, 3+5:0:0:0:0, 2+3:0:0:0:0, 4+2:0:0:0:0, 0+0:0:0:0:0, 6+2:0:0:0:2, 2+0:0:0:0:0, 6+2:0:0:0:2, 2+0:0:0:0:0, 5+2:0:0:0:2, 2+2:0:0:0:0, 2+2:0:0:0:2, 0+0:0:0:0:0, 2+1:0:0:0:1, 1+4:0:0:0:0, 0+3:0:0:0:0, 3+3:0:0:0:1, 3+1:0:0:0:1, 2+2:0:0:0:0, 2+2:0:0:0:2, 0+1:0:0:0:0, 6+2:0:0:0:2, 2+0:0:0:0:0, 6+2:0:0:0:2, 2+0:0:0:0:0, 4+1:0:0:0:1, 1+2:0:0:0:0, 2+1:0:0:0:0, 3+3:0:0:0:1, 3+4:0:0:0:0, 3+1:0:0:0:0, 0+0:0:0:0:0, 2+1:0:0:0:0, 3+4:0:0:0:2, 3+4:0:0:0:0, 2+2:0:0:0:1, 1+0:0:0:0:0, 5+2:0:0:0:2, 3+2:0:0:0:1, 6+3:0:0:0:2, 3+1:0:0:0:1, 7+3:1:0:0:2, 5+5:0:1:0:0, 2+3:0:0:0:2, 1+1:0:0:0:0, 2+1:0:0:0:1, 1+3:0:0:0:0, 1+0:0:0:0:0, 3+2:0:0:0:0, 3+4:0:0:0:0, 3+1:0:0:0:0, 2+1:0:0:0:0, 2+2:0:0:0:0, 5+3:0:0:0:3, 6+3:0:0:0:1, 6+3:0:0:0:2, 3+4:0:0:0:0, 11+8:3:0:0:4, 5+7:0:0:0:0, 3+2:0:0:0:0, 2+1:0:0:0:0, 2+1:0:0:0:0, 0+0:0:0:0:0, 1+0:0:0:0:0, 1+0:0:0:0:0, 3+2:0:0:0:0, 0+0:0:0:0:0, 2+1:0:0:0:0, 1+0:0:0:0:0, 4+2:0:0:0:2, 1+0:0:0:0:0, 4+2:0:0:0:2, 1+0:0:0:0:0, 4+2:0:0:0:2, 1+1:0:0:0:0, 2+1:0:0:0:0, 0+0:0:0:0:0, 3+1:0:0:0:0, 1+0:0:0:0:0, 3+3:0:0:0:0, 4+2:1:0:0:1, 4+4:0:0:0:1, 4+5:0:0:0:0, 3+2:0:0:0:0, 3+1:1:0:0:1, 7+5:0:0:0:4, 3+1:0:0:0:0, 7+6:1:0:0:4, 1+0:0:0:0:0, 10+6:0:0:0:2, 2+2:0:0:0:0, 3+1:0:0:0:1, 1+1:0:0:0:0, 4+2:1:1:0:2, 5+4:0:0:0:2, 3+1:0:0:0:1, 3+2:0:0:0:0, 5+5:0:0:0:0, 3+3:0:0:0:0, 3+4:0:0:0:0, 4+3:1:0:0:1, 6+6:2:0:0:2, 1+3:0:0:0:0, 9+6:0:0:0:4, 3+1:0:0:0:0, 7+4:0:0:0:2, 7+5:0:2:0:2, 4+4:0:0:0:0, 1+1:0:0:0:0, 2+1:0:0:0:0, 2+3:0:0:0:0, 2+1:0:0:0:0, 8+6:1:1:0:2, 3+1:0:0:0:1, 6+7:0:0:0:2, 5+4:0:0:0:2, 2+1:1:0:0:1, 7+4:0:0:0:0, 1+0:0:0:0:0, 8+4:0:0:0:2, 5+3:0:0:0:1, 8+7:3:0:0:4, 6+6:0:2:0:2, 3+4:0:3:0:3, 2+2:0:2:0:2, 3+2:0:1:0:1, 4+2:0:0:0:0, 2+1:0:0:0:0, 6+6:0:0:0:0, 6+2:0:0:0:0, 6+4:0:0:0:0, 3+2:0:0:0:0, 5+2:0:0:0:0, 6+6:0:0:0:4, 1+0:0:0:0:0, 9+7:0:0:0:1, 6+7:0:0:0:1, 5+2:0:0:0:1, 2+3:0:0:0:0, 2+1:0:0:0:1, 3+3:0:2:0:2, 2+2:0:0:0:2, 4+3:0:0:0:0, 3+2:1:1:0:1, 4+6:0:0:0:2, 5+5:0:0:0:0, 4+3:0:0:0:0, 4+2:0:1:0:1,  , 4+1:0:0:0:1, 3+2:1:0:0:0, 6+6:0:0:0:0, 5+3:0:0:0:2, 7+8:2:0:0:0, 3+3:2:0:0:2, 3+3:1:0:0:1, 0+0:0:0:0:0, 2+1:0:0:0:1, 1+4:0:0:0:1, 4+5:0:0:0:0, 1+5:0:0:0:0, 0+2:0:0:0:0, 1+2:0:0:0:0, 2+3:0:0:0:2, 2+1:0:0:0:0, 0+1:0:0:0:0, 546+416:23:17:0:129
Db major (5b), 4+0:0:0:0:0, 2+0:0:0:0:0, 2+0:0:0:0:0, 2+0:0:0:0:0, 4+0:0:0:0:0, 2+0:0:0:0:0, 4+2:1:0:0:2, 1+0:0:0:0:0, 3+2:0:0:0:0, 6+0:0:0:0:0, 3+3:0:0:0:0, 6+0:0:0:0:0, 1+4:0:0:0:1, 7+1:0:0:0:0, 4+0:0:0:0:0, 1+0:0:0:0:0, 4+0:0:0:0:0, 3+1:0:0:0:1, 2+0:0:0:0:0, 2+2:0:0:0:0, 4+0:0:0:0:0, 2+0:0:0:0:0, 4+0:0:0:0:0, 1+0:0:0:0:0, 3+2:0:0:0:0, 6+0:0:0:0:0, 3+3:0:0:0:0, 6+0:0:0:0:0, 1+2:0:0:0:0, 5+1:0:0:0:0, 4+0:0:0:0:0, 5+1:0:0:0:0, 6+1:0:0:0:0, 4+0:0:0:0:0, 2+0:0:0:0:0, 6+2:0:0:0:0, 4+0:0:0:0:0, 3+4:0:0:0:0, 5+0:0:0:0:0, 3+1:1:0:0:1, 2+2:0:0:0:0, 5+3:1:0:0:1, 3+1:0:0:0:1, 6+2:2:0:0:2, 5+3:1:0:0:1, 6+2:1:0:0:1, 5+0:0:0:0:0, 4+0:0:0:0:0, 3+0:0:0:0:0, 3+0:0:0:0:0, 2+0:0:0:0:0, 6+0:0:0:0:0, 4+0:0:0:0:0, 2+0:0:0:0:0, 4+0:0:0:0:0, 4+1:0:0:0:0, 2+3:0:0:0:0, 8+5:1:0:0:1, 2+2:0:0:0:0, 8+3:0:0:0:1, 9+6:1:0:0:0, 10+3:1:0:0:1, 5+0:0:0:0:0, 4+0:0:0:0:0, 3+0:0:0:0:0, 0+0:0:0:0:0, 0+0:0:0:0:0, 0+0:0:0:0:0, 3+2:0:0:0:2, 1+0:0:0:0:0, 3+1:1:0:0:1, 0+0:0:0:0:0, 1+2:0:0:0:0, 4+1:0:0:0:0, 1+3:0:0:0:0, 4+1:0:0:0:0, 1+3:0:0:0:0, 4+1:0:0:0:0, 3+0:0:0:0:0, 1+0:0:0:0:0, 5+0:0:0:0:0, 2+0:0:0:0:0, 6+0:0:0:0:0, 7+2:1:0:0:1, 4+1:0:0:0:1, 5+4:0:0:0:0, 6+0:0:0:0:0, 6+1:0:0:0:1, 4+4:0:0:0:0, 8+2:0:0:0:0, 3+4:0:0:0:1, 4+2:0:0:0:0, 4+8:0:0:0:1, 6+2:0:0:0:0, 4+1:0:1:0:1, 3+0:0:0:0:0, 6+2:0:0:0:0, 6+3:0:0:0:0, 3+2:0:0:0:1, 1+0:0:0:0:0, 5+2:0:0:0:2, 3+0:0:0:0:0, 4+4:3:0:0:3, 5+3:0:1:0:1, 2+1:0:0:0:0, 6+1:0:0:0:0, 5+5:0:0:0:0, 6+2:1:0:0:1, 3+3:0:0:0:0, 8+4:1:2:0:3, 5+5:3:0:0:3, 1+0:0:0:0:0, 4+2:0:0:0:0, 3+4:0:0:0:1, 2+0:0:0:0:0, 6+2:0:0:0:0, 3+2:0:0:0:0, 9+3:0:0:0:0, 7+4:2:0:0:4, 5+1:1:0:0:0, 2+4:0:0:0:0, 5+0:0:0:0:0, 5+4:0:0:0:2, 8+2:1:0:0:0, 6+2:0:0:0:2, 8+5:2:0:0:1, 4+3:0:3:0:3, 4+2:0:1:0:1, 4+1:0:1:0:1, 3+0:0:0:0:0, 2+0:0:0:0:0, 7+3:0:0:0:2, 6+2:0:0:0:1, 4+2:0:0:0:2, 4+4:1:0:0:1, 1+0:0:0:0:0, 3+5:0:0:0:0, 6+1:0:0:0:0, 4+5:2:0:0:0, 9+5:0:0:0:3, 1+1:0:0:0:0, 7+4:0:0:0:1, 4+2:0:0:0:2, 4+1:1:0:0:1, 4+1:0:0:0:1, 5+2:2:0:0:0, 3+1:1:0:0:1, 4+2:0:0:0:0, 3+1:0:0:0:1, 4+1:1:0:0:1, 6+2:1:0:0:1,  , 1+1:0:0:0:0, 8+2:1:0:0:0, 1+3:0:0:0:0, 8+6:5:0:0:5, 4+5:0:0:0:0, 6+2:1:0:0:1, 3+1:1:0:0:1, 1+0:0:0:0:0, 4+0:0:0:0:0, 7+1:0:0:0:0, 2+5:0:0:0:1, 4+1:0:0:0:1, 2+0:0:0:0:0, 3+0:0:0:0:0, 5+3:0:0:0:3, 3+1:1:0:0:0, 1+0:0:0:0:0, 669+267:44:9:0:82
B major (5#), 3+5:0:0:0:0, 1+1:0:0:0:0, 1+3:0:0:0:0, 2+0:0:0:0:0, 3+1:0:0:0:1, 2+1:0:0:0:1, 5+2:0:0:0:0, 1+1:0:0:0:0, 6+2:0:0:0:2, 3+0:0:0:0:0, 6+2:0:0:0:2, 3+0:0:0:0:0, 5+2:0:0:0:2, 3+2:0:0:0:0, 3+5:0:0:0:0, 1+2:0:0:0:0, 3+1:0:0:0:0, 2+1:0:0:0:0, 1+0:0:0:0:0, 2+3:0:0:0:0, 3+1:0:0:0:1, 2+1:0:0:0:1, 3+5:0:0:0:0, 1+1:0:0:0:0, 6+2:0:0:0:2, 3+0:0:0:0:0, 6+2:0:0:0:2, 3+0:0:0:0:0, 4+1:0:0:0:1, 2+2:0:0:0:0, 3+5:0:0:0:0, 4+3:0:0:0:1, 4+7:0:0:0:1, 4+1:0:0:0:0, 0+0:0:0:0:0, 3+1:0:0:0:0, 4+4:0:0:0:2, 4+4:0:0:0:0, 3+3:0:0:0:0, 1+0:0:0:0:0, 5+2:0:0:0:2, 4+2:0:0:0:1, 6+3:0:0:0:2, 4+1:0:0:0:1, 7+3:1:0:0:2, 6+5:0:1:0:0, 3+4:0:0:0:0, 2+1:0:0:0:0, 3+2:0:0:0:0, 1+0:0:0:0:0, 1+0:0:0:0:0, 4+2:0:0:0:0, 4+2:0:0:0:1, 3+3:0:0:0:3, 3+4:0:0:0:0, 3+2:0:0:0:0, 5+3:0:0:0:3, 7+3:0:0:0:1, 6+3:0:0:0:2, 4+4:0:0:0:0, 11+8:3:0:0:4, 6+7:0:0:0:0, 4+4:0:0:0:0, 3+1:0:0:0:0, 3+2:0:0:0:0, 0+0:0:0:0:0, 1+0:0:0:0:0, 1+0:0:0:0:0, 3+1:0:0:0:1, 0+0:0:0:0:0, 3+3:0:0:0:0, 1+0:0:0:0:0, 4+2:0:0:0:2, 2+0:0:0:0:0, 4+2:0:0:0:2, 2+0:0:0:0:0, 4+2:0:0:0:2, 2+1:0:0:0:0, 3+2:0:0:0:0, 0+0:0:0:0:0, 4+5:0:0:0:0, 2+0:0:0:0:0, 4+3:0:0:0:0, 5+2:1:0:0:1, 4+4:0:0:0:1, 4+5:0:0:0:0, 4+2:0:0:0:0, 3+1:0:0:0:0, 7+5:0:0:0:4, 4+1:0:0:0:0, 7+6:1:0:0:4, 2+0:0:0:0:0, 10+6:0:0:0:2, 3+2:0:0:0:0, 4+4:0:1:0:0, 2+3:0:0:0:2, 4+4:0:0:0:2, 6+6:0:0:0:0, 4+2:0:1:0:1, 2+3:0:0:0:0, 4+5:0:0:0:0, 4+3:0:0:0:0, 4+4:0:0:0:0, 5+3:1:0:0:1, 6+4:0:0:0:0, 2+0:0:0:0:0, 9+6:0:0:0:4, 4+1:0:0:0:0, 7+4:0:0:0:2, 8+5:0:2:0:2, 5+2:0:0:0:0, 1+0:0:0:0:0, 3+1:0:0:0:0, 3+3:0:0:0:0, 3+1:0:0:0:0, 7+7:4:3:0:5, 3+1:0:0:0:1, 7+7:0:0:0:2, 6+4:0:0:0:2, 3+3:1:0:0:1, 7+3:0:0:0:1, 2+0:0:0:0:0, 8+4:0:0:0:2, 6+2:0:0:0:1, 6+2:1:0:0:1, 7+6:0:2:0:2, 4+7:0:3:0:0, 3+3:0:2:0:0, 4+2:0:1:0:1, 5+2:0:0:0:0, 3+1:0:0:0:0, 7+6:0:0:0:0, 7+2:0:0:0:0, 7+4:0:0:0:0, 4+2:0:0:0:0, 5+2:0:0:0:0, 6+6:0:0:0:4, 2+0:0:0:0:0, 8+8:4:2:0:5, 8+3:0:0:0:0, 5+2:0:0:0:1, 3+3:0:0:0:0, 3+1:0:0:0:1, 4+3:0:2:0:2, 3+2:0:0:0:2, 5+3:0:0:0:0, 3+2:1:1:0:1, 5+6:0:0:0:2, 5+5:0:0:0:0, 5+3:0:0:0:0, 5+2:0:1:0:1,  , 4+1:0:0:0:1, 4+2:1:0:0:0, 6+6:0:0:0:0, 6+3:0:0:0:2, 7+5:0:0:0:3, 5+7:0:0:0:0, 4+3:1:0:0:1, 1+2:0:0:0:0, 3+4:0:0:0:0, 2+2:0:0:0:0, 3+5:0:0:0:0, 2+1:0:0:0:0, 1+0:0:0:0:0, 2+0:0:0:0:0, 3+4:0:0:0:0, 1+1:0:0:0:0, 0+0:0:0:0:0, 645+432:20:22:0:119
Bb minor (5b), 4+0:0:0:0:0, 2+0:0:0:0:0, 2+0:0:0:0:0, 2+0:0:0:0:0, 4+1:0:0:0:0, 2+0:0:0:0:0, 4+2:1:0:0:1, 1+0:0:0:0:0, 3+2:0:0:0:0, 6+0:0:0:0:0, 3+3:0:0:0:0, 6+0:0:0:0:0, 1+4:0:0:0:1, 7+1:0:0:0:0, 4+0:0:0:0:0, 1+0:0:0:0:0, 4+0:0:0:0:0, 3+1:0:0:0:1, 2+0:0:0:0:0, 2+2:0:0:0:0, 4+1:0:0:0:0, 2+0:0:0:0:0, 4+1:0:0:0:0, 1+0:0:0:0:0, 3+2:0:0:0:0, 6+0:0:0:0:0, 3+3:0:0:0:0, 6+0:0:0:0:0, 1+2:0:0:0:0, 5+1:0:0:0:0, 4+0:0:0:0:0, 5+1:0:0:0:1, 6+1:0:0:0:0, 4+0:0:0:0:0, 2+0:0:0:0:0, 6+2:0:0:0:0, 4+0:0:0:0:0, 3+4:0:0:0:0, 5+0:0:0:0:0, 3+1:1:0:0:1, 2+2:0:0:0:0, 5+3:1:0:0:1, 3+3:0:0:0:0, 6+2:2:0:0:2, 5+3:1:0:0:1, 6+2:1:0:0:1, 5+0:0:0:0:0, 4+0:0:0:0:0, 3+0:0:0:0:0, 3+0:0:0:0:0, 2+0:0:0:0:0, 6+0:0:0:0:0, 4+4:0:0:0:0, 2+0:0:0:0:0, 4+0:0:0:0:0, 4+1:0:0:0:0, 2+3:0:0:0:0, 8+5:1:0:0:1, 2+2:0:0:0:0, 8+3:0:0:0:1, 9+6:1:0:0:0, 10+3:1:0:0:1, 5+0:0:0:0:0, 4+0:0:0:0:0, 3+2:1:0:0:1, 0+0:0:0:0:0, 0+0:0:0:0:0, 0+0:0:0:0:0, 3+2:0:0:0:0, 1+0:0:0:0:0, 3+0:0:0:0:0, 0+0:0:0:0:0, 1+2:0:0:0:0, 4+1:0:0:0:0, 1+3:0:0:0:0, 4+1:0:0:0:0, 1+3:0:0:0:0, 4+1:0:0:0:0, 3+0:0:0:0:0, 1+0:0:0:0:0, 5+0:0:0:0:0, 2+0:0:0:0:0, 6+0:0:0:0:0, 7+2:1:0:0:1, 4+1:0:0:0:1, 5+4:0:0:0:0, 6+0:0:0:0:0, 6+1:0:0:0:1, 4+4:0:0:0:0, 8+2:0:0:0:0, 3+4:0:0:0:1, 4+2:0:0:0:0, 4+8:0:0:0:1, 6+2:0:0:0:0, 4+1:0:1:0:1, 3+0:0:0:0:0, 6+2:0:0:0:0, 6+3:0:0:0:0, 3+2:0:0:0:1, 1+0:0:0:0:0, 5+2:0:0:0:2, 3+0:0:0:0:0, 4+4:3:0:0:3, 5+3:0:1:0:1, 2+1:0:0:0:0, 6+1:0:0:0:0, 5+5:0:0:0:0, 6+2:1:0:0:1, 3+3:0:0:0:0, 8+4:1:2:0:3, 5+5:3:0:0:3, 1+0:0:0:0:0, 4+0:0:0:0:0, 3+3:0:0:0:0, 2+0:0:0:0:0, 6+2:0:0:0:0, 3+2:0:0:0:0, 9+3:0:0:0:0, 7+4:2:0:0:4, 5+1:1:0:0:0, 2+4:0:0:0:0, 5+1:0:0:0:0, 5+3:0:0:0:0, 8+5:1:0:0:1, 6+3:0:0:0:0, 8+3:2:0:0:2, 4+3:0:3:0:3, 4+2:0:1:0:1, 4+1:0:1:0:1, 3+0:0:0:0:0, 2+0:0:0:0:0, 7+4:0:0:0:0, 6+2:0:0:0:0, 4+2:0:0:0:0, 4+4:1:0:0:1, 1+0:0:0:0:0, 3+4:0:0:0:0, 6+1:0:0:0:0, 4+5:2:0:0:0, 9+5:0:0:0:3, 1+1:0:0:0:0, 7+4:0:0:0:1, 4+2:0:0:0:2, 4+1:1:0:0:1, 4+1:0:0:0:1, 5+5:3:0:0:1, 3+1:1:0:0:1, 4+2:0:0:0:0, 3+1:0:0:0:1, 4+1:1:0:0:1, 6+2:1:0:0:1,  , 1+1:0:0:0:0, 8+2:1:0:0:0, 1+3:0:0:0:0, 8+6:5:0:0:5, 4+5:0:0:0:0, 6+2:1:0:0:1, 3+1:1:0:0:1, 1+0:0:0:0:0, 4+3:1:0:0:3, 3+3:0:0:0:0, 2+2:0:0:0:2, 2+2:0:0:0:0, 2+0:0:0:0:0, 3+0:0:0:0:0, 5+3:0:0:0:3, 3+1:1:0:0:0, 1+0:0:0:0:0, 663+282:46:9:0:75
G# minor (5#), 3+1:0:0:0:1, 1+3:0:0:0:0, 1+2:0:0:0:0, 2+2:0:0:0:0, 3+1:0:0:0:1, 2+1:0:0:0:1, 5+2:0:0:0:0, 1+1:0:0:0:0, 6+2:0:0:0:2, 3+0:0:0:0:0, 6+2:0:0:0:2, 3+0:0:0:0:0, 5+2:0:0:0:2, 3+2:0:0:0:0, 3+2:0:0:0:2, 1+0:0:0:0:0, 3+1:0:0:0:1, 2+4:0:0:0:0, 1+3:0:0:0:0, 2+3:0:0:0:1, 3+1:0:0:0:1, 2+1:0:0:0:1, 3+5:0:0:0:0, 1+1:0:0:0:0, 6+2:0:0:0:2, 3+0:0:0:0:0, 6+2:0:0:0:2, 3+0:0:0:0:0, 4+1:0:0:0:1, 2+2:0:0:0:0, 3+5:0:0:0:0, 4+3:0:0:0:1, 4+7:0:0:0:1, 4+6:0:0:0:0, 0+0:0:0:0:0, 3+1:0:0:0:0, 4+4:0:0:0:2, 4+4:0:0:0:0, 3+2:0:0:0:1, 1+0:0:0:0:0, 5+2:0:0:0:2, 4+2:0:0:0:1, 6+3:0:0:0:2, 4+1:0:0:0:1, 7+3:1:0:0:2, 6+5:0:1:0:0, 3+4:0:0:0:0, 2+1:0:0:0:0, 3+2:0:0:0:0, 1+0:0:0:0:0, 1+1:0:0:0:0, 4+4:0:0:0:0, 4+2:0:0:0:1, 3+3:0:0:0:3, 3+4:0:0:0:0, 3+2:0:0:0:0, 5+3:0:0:0:3, 7+3:0:0:0:1, 6+3:0:0:0:2, 4+4:0:0:0:0, 11+8:3:0:0:4, 6+7:0:0:0:0, 4+4:0:0:0:0, 3+1:0:0:0:0, 3+1:0:0:0:1, 0+0:0:0:0:0, 1+0:0:0:0:0, 1+0:0:0:0:0, 3+1:0:0:0:1, 0+0:0:0:0:0, 3+3:0:0:0:0, 1+0:0:0:0:0, 4+2:0:0:0:2, 2+0:0:0:0:0, 4+2:0:0:0:2, 2+0:0:0:0:0, 4+2:0:0:0:2, 2+1:0:0:0:0, 3+2:0:0:0:0, 0+0:0:0:0:0, 4+5:0:0:0:0, 2+0:0:0:0:0, 4+3:0:0:0:0, 5+2:1:0:0:1, 4+4:0:0:0:1, 4+5:0:0:0:0, 4+2:0:0:0:0, 3+1:0:0:0:0, 7+5:0:0:0:4, 4+1:0:0:0:0, 7+6:1:0:0:4, 2+0:0:0:0:0, 10+6:0:0:0:2, 3+2:0:0:0:0, 4+4:0:1:0:0, 2+3:0:0:0:2, 4+4:0:0:0:2, 6+6:0:0:0:0, 4+2:0:1:0:1, 2+3:0:0:0:0, 4+5:0:0:0:0, 4+3:0:0:0:0, 4+4:0:0:0:0, 5+3:1:0:0:1, 6+4:0:0:0:0, 2+0:0:0:0:0, 9+6:0:0:0:4, 4+1:0:0:0:0, 7+4:0:0:0:2, 8+5:0:2:0:2, 5+2:0:0:0:0, 1+0:0:0:0:0, 3+1:0:0:0:0, 3+3:0:0:0:0, 3+1:0:0:0:0, 7+7:4:3:0:5, 3+1:0:0:0:1, 7+7:0:0:0:2, 6+4:0:0:0:2, 3+3:1:0:0:1, 7+3:0:0:0:1, 2+0:0:0:0:0, 8+4:0:0:0:2, 6+2:0:0:0:1, 6+2:1:0:0:1, 7+6:0:2:0:2, 4+7:0:3:0:0, 3+3:0:2:0:0, 4+2:0:1:0:1, 5+2:0:0:0:0, 3+1:0:0:0:0, 7+3:0:0:0:0, 7+2:0:0:0:0, 7+4:0:0:0:0, 4+2:0:0:0:0, 5+2:0:0:0:0, 6+6:0:0:0:4, 2+0:0:0:0:0, 8+8:4:2:0:5, 7+7:0:0:0:1, 5+2:0:0:0:1, 3+3:0:0:0:0, 3+1:0:0:0:1, 4+3:0:2:0:2, 3+2:0:0:0:2, 5+3:0:0:0:0, 3+2:1:1:0:1, 5+6:0:0:0:2, 5+5:0:0:0:0, 5+3:0:0:0:0, 5+6:0:1:0:0,  , 4+1:0:0:0:1, 4+2:1:0:0:0, 6+6:0:0:0:0, 6+3:0:0:0:2, 7+5:0:0:0:3, 5+7:0:0:0:0, 4+3:1:0:0:1, 1+2:0:0:0:0, 3+1:0:0:0:1, 2+4:0:0:0:1, 3+5:0:0:0:0, 2+5:0:0:0:0, 1+2:0:0:0:0, 2+2:0:0:0:0, 3+3:0:0:0:2, 2+1:0:0:0:0, 0+1:0:0:0:0, 645+450:20:22:0:130
Gb major (6b), 5+1:0:0:0:0, 2+0:0:0:0:0, 2+0:0:0:0:0, 3+0:0:0:0:0, 4+0:0:0:0:0, 2+0:0:0:0:0, 5+2:1:0:0:1, 1+0:0:0:0:0, 3+1:0:0:0:0, 6+2:0:0:0:0, 3+3:0:0:0:0, 6+1:0:0:0:0, 1+4:0:0:0:1, 7+1:0:0:0:0, 5+0:0:0:0:0, 1+0:0:0:0:0, 5+1:0:0:0:0, 3+1:0:0:0:1, 2+0:0:0:0:0, 2+2:0:2:0:2, 4+0:0:0:0:0, 2+0:0:0:0:0, 5+1:0:0:0:0, 1+0:0:0:0:0, 3+3:0:0:0:0, 6+2:0:0:0:0, 3+3:0:0:0:0, 6+1:0:0:0:0, 1+3:0:0:0:0, 5+1:0:0:0:0, 5+0:0:0:0:0, 5+1:0:0:0:1, 7+1:0:0:0:0, 5+0:0:0:0:0, 2+0:0:0:0:0, 6+2:0:0:0:0, 4+0:0:0:0:0, 3+4:0:0:0:0, 6+1:0:0:0:0, 3+1:1:0:0:1, 2+2:0:0:0:0, 5+3:1:0:0:1, 2+1:0:1:0:0, 6+2:2:0:0:2, 6+2:0:0:0:0, 6+2:1:0:0:1, 6+1:0:0:0:0, 4+0:0:0:0:0, 4+1:0:0:0:0, 3+0:0:0:0:0, 3+0:0:0:0:0, 6+1:0:0:0:1, 4+0:0:0:0:0, 2+0:0:0:0:0, 5+1:0:0:0:0, 4+0:0:0:0:0, 2+2:0:0:0:0, 8+4:0:0:0:1, 3+1:0:0:0:0, 8+3:0:0:0:1, 9+6:1:0:0:0, 10+3:1:0:0:1, 6+0:0:0:0:0, 4+0:0:0:0:0, 4+2:0:0:0:0, 0+0:0:0:0:0, 1+0:0:0:0:0, 1+0:0:0:0:0, 3+0:0:0:0:0, 1+0:0:0:0:0, 4+1:0:0:0:0, 1+0:0:0:0:0, 1+1:0:0:0:0, 4+1:0:0:0:0, 1+3:0:0:0:0, 4+1:0:0:0:0, 1+3:0:0:0:0, 4+1:0:0:0:0, 4+0:0:0:0:0, 1+0:0:0:0:0, 6+2:0:0:0:0, 3+0:0:0:0:0, 7+0:0:0:0:0, 8+2:1:0:0:1, 4+1:0:0:0:1, 5+4:0:0:0:0, 7+2:0:0:0:0, 5+4:0:1:0:1, 5+4:0:0:0:0, 7+2:0:0:0:2, 4+4:0:0:0:1, 4+2:0:0:0:0, 5+8:0:0:0:1, 6+2:0:0:0:0, 5+1:0:1:0:1, 3+0:0:0:0:0, 7+2:0:0:0:0, 7+2:0:0:0:1, 3+2:0:1:0:0, 2+0:0:0:0:0, 6+2:0:0:0:2, 3+0:0:0:0:0, 5+4:3:0:0:3, 6+3:0:1:0:1, 2+1:0:0:0:0, 6+1:0:0:0:0, 6+5:0:0:0:0, 6+2:1:0:0:1, 4+2:0:0:0:0, 8+4:1:2:0:3, 6+5:0:0:0:1, 1+0:0:0:0:0, 5+2:0:0:0:0, 3+4:0:1:0:0, 3+2:0:0:0:0, 7+3:0:0:0:0, 3+0:0:0:0:0, 9+3:0:0:0:2, 8+4:2:0:0:4, 5+1:1:0:0:0, 3+4:0:0:0:0, 5+0:0:0:0:0, 6+4:0:0:0:2, 8+2:1:0:0:0, 6+2:0:0:0:2, 8+3:2:0:0:2, 5+4:0:0:0:3, 4+2:0:1:0:1, 5+1:0:1:0:1, 4+0:0:0:0:0, 3+0:0:0:0:0, 8+3:0:0:0:0, 7+1:0:0:0:0, 5+2:0:0:0:0, 5+4:0:0:0:0, 2+0:0:0:0:0, 4+3:0:0:0:0, 6+1:0:0:0:0, 5+5:2:0:0:0, 9+5:0:0:0:3, 2+1:0:0:0:0, 7+4:0:0:0:1, 5+2:0:0:0:2, 5+1:1:0:0:1, 5+1:0:0:0:1, 5+2:2:0:0:0, 3+3:0:0:0:0, 5+2:0:0:0:0, 3+1:0:0:0:0, 4+1:0:0:0:0, 7+2:0:0:0:0,  , 1+1:0:0:0:0, 8+2:1:0:0:0, 2+6:0:0:0:0, 8+3:2:0:0:0, 4+4:2:0:0:2, 6+2:1:0:0:1, 4+1:1:0:0:1, 1+0:0:0:0:0, 5+1:0:0:0:0, 2+3:0:0:0:0, 3+5:0:0:0:5, 1+1:0:0:0:1, 2+0:0:0:0:0, 4+0:0:0:0:0, 6+3:0:0:0:3, 5+1:0:0:0:0, 1+0:0:0:0:0, 730+282:32:12:0:73
F# major (6#), 3+1:0:0:0:1, 1+0:0:0:0:0, 1+0:0:0:0:0, 2+1:0:0:0:1, 4+1:0:0:0:1, 3+1:0:0:0:1, 5+2:0:0:0:0, 1+1:0:0:0:0, 6+2:0:0:0:2, 4+0:0:0:0:0, 6+2:0:0:0:2, 4+0:0:0:0:0, 5+2:0:0:0:2, 4+2:0:0:0:0, 3+2:0:0:0:2, 1+0:0:0:0:0, 3+1:0:0:0:1, 2+1:0:0:0:0, 1+0:0:0:0:0, 2+3:0:0:0:0, 4+1:0:0:0:1, 2+2:2:2:0:2, 3+2:0:0:0:2, 1+1:0:0:0:0, 6+2:0:0:0:2, 4+0:0:0:0:0, 6+2:0:0:0:2, 4+0:0:0:0:0, 4+1:0:0:0:1, 3+2:0:0:0:0, 3+2:0:0:0:2, 5+3:0:0:0:1, 4+3:1:1:0:3, 4+6:0:0:0:0, 1+1:0:0:0:0, 3+1:0:0:0:0, 4+4:0:0:0:2, 3+4:0:0:0:0, 4+2:0:0:0:1, 2+0:0:0:0:0, 5+2:0:0:0:2, 5+2:0:0:0:1, 6+3:0:0:0:2, 5+1:0:0:0:1, 7+3:1:0:0:2, 7+5:0:1:0:0, 4+3:0:0:0:2, 3+1:0:0:0:0, 3+1:0:0:0:1, 2+3:0:0:0:0, 2+2:0:0:0:1, 5+4:0:0:0:0, 4+2:0:0:0:1, 3+1:0:0:0:0, 3+2:0:0:0:2, 3+2:0:0:0:0, 5+3:0:0:0:3, 8+3:0:0:0:1, 6+3:0:0:0:2, 5+4:0:0:0:0, 11+8:3:0:0:4, 7+7:0:0:0:0, 4+4:0:0:0:0, 3+1:0:0:0:0, 3+1:0:0:0:1, 0+0:0:0:0:0, 1+0:0:0:0:0, 1+0:0:0:0:0, 3+1:0:0:0:1, 0+0:0:0:0:0, 3+2:0:0:0:2, 1+0:0:0:0:0, 4+2:0:0:0:2, 3+0:0:0:0:0, 4+2:0:0:0:2, 3+0:0:0:0:0, 4+2:0:0:0:2, 3+1:0:0:0:0, 3+1:0:0:0:1, 1+2:0:0:0:0, 5+5:0:0:0:0, 3+0:0:0:0:0, 5+3:0:0:0:0, 6+2:1:0:0:1, 4+4:0:0:0:1, 5+5:0:0:0:0, 5+2:0:0:0:0, 4+1:0:0:0:0, 8+5:0:0:0:4, 5+1:0:0:0:0, 7+6:1:0:0:4, 3+0:0:0:0:0, 10+6:0:0:0:2, 4+2:0:0:0:0, 3+1:0:0:0:1, 2+1:1:1:0:1, 4+2:1:1:0:2, 7+6:0:0:0:0, 3+1:0:0:0:1, 2+2:0:0:0:0, 4+4:0:0:0:1, 4+3:0:0:0:0, 4+4:0:0:0:0, 6+3:1:0:0:1, 6+4:0:0:0:0, 3+0:0:0:0:0, 9+6:0:0:0:4, 5+1:0:0:0:0, 7+4:0:0:0:2, 9+5:0:2:0:2, 5+2:0:0:0:0, 1+0:0:0:0:0, 3+2:0:0:0:2, 3+3:0:0:0:0, 3+1:0:0:0:0, 7+7:4:3:0:5, 3+1:0:0:0:1, 8+7:0:0:0:2, 7+4:0:0:0:2, 4+3:1:0:0:1, 7+3:0:0:0:1, 3+0:0:0:0:0, 9+4:0:0:0:2, 7+2:0:0:0:1, 7+2:1:0:0:1, 8+6:0:2:0:2, 3+1:0:0:0:1, 2+3:0:2:0:0, 3+1:0:0:0:1, 5+2:0:0:0:0, 3+0:0:0:0:0, 8+3:0:0:0:0, 7+2:0:0:0:0, 7+4:0:0:0:0, 5+2:0:0:0:0, 5+2:0:0:0:0, 7+6:0:0:0:4, 3+0:0:0:0:0, 8+8:4:2:0:5, 8+7:0:0:0:1, 5+2:0:0:0:1, 4+3:0:0:0:0, 3+1:0:0:0:1, 4+3:0:2:0:2, 3+2:0:0:0:2, 5+3:0:0:0:0, 4+2:1:1:0:1, 5+6:0:0:0:2, 5+5:0:0:0:0, 5+3:0:0:0:0, 4+6:0:1:0:0,  , 4+1:0:0:0:1, 5+2:1:0:0:0, 6+6:0:0:0:0, 7+3:0:0:0:2, 7+5:0:0:0:3, 6+7:0:0:0:0, 4+3:1:0:0:1, 1+0:0:0:0:0, 3+1:0:0:0:1, 1+2:0:0:0:0, 3+5:0:0:0:0, 2+5:0:0:0:0, 1+0:0:0:0:0, 3+2:0:0:0:1, 4+3:0:0:0:2, 2+2:0:0:0:1, 0+0:0:0:0:0, 701+405:25:21:0:148
Eb minor (6b), 5+1:0:0:0:0, 2+0:0:0:0:0, 2+0:0:0:0:0, 3+0:0:0:0:0, 4+0:0:0:0:0, 2+0:0:0:0:0, 5+2:1:0:0:2, 1+0:0:0:0:0, 3+1:0:0:0:0, 6+2:0:0:0:0, 3+3:0:0:0:0, 6+1:0:0:0:0, 1+4:0:0:0:1, 7+1:0:0:0:0, 5+0:0:0:0:0, 1+0:0:0:0:0, 5+1:0:0:0:0, 3+1:0:0:0:1, 2+0:0:0:0:0, 2+2:0:2:0:2, 4+0:0:0:0:0, 2+0:0:0:0:0, 5+1:0:0:0:0, 1+0:0:0:0:0, 3+1:0:0:0:0, 6+2:0:0:0:0, 3+3:0:0:0:0, 6+1:0:0:0:0, 1+3:0:0:0:0, 5+1:0:0:0:0, 5+0:0:0:0:0, 5+1:0:0:0:1, 7+1:0:0:0:0, 5+0:0:0:0:0, 2+0:0:0:0:0, 6+2:0:0:0:0, 4+0:0:0:0:0, 3+4:0:0:0:0, 6+1:0:0:0:0, 3+1:1:0:0:1, 2+2:0:0:0:0, 5+3:1:0:0:1, 2+1:0:1:0:0, 6+4:2:0:0:2, 6+2:0:0:0:0, 6+2:1:0:0:1, 6+1:0:0:0:0, 4+0:0:0:0:0, 4+1:0:0:0:0, 3+0:0:0:0:0, 3+0:0:0:0:0, 6+1:0:0:0:1, 4+0:0:0:0:0, 2+0:0:0:0:0, 5+1:0:0:0:0, 4+1:0:0:0:0, 2+0:0:0:0:0, 8+4:0:0:0:1, 3+1:0:0:0:0, 8+3:0:0:0:1, 9+6:1:0:0:0, 10+3:1:0:0:1, 6+0:0:0:0:0, 4+0:0:0:0:0, 4+2:0:0:0:0, 0+0:0:0:0:0, 1+0:0:0:0:0, 1+0:0:0:0:0, 3+2:0:0:0:2, 0+0:0:0:0:0, 4+1:1:0:0:1, 1+0:0:0:0:0, 1+1:0:0:0:0, 4+1:0:0:0:0, 1+1:0:0:0:0, 4+1:0:0:0:0, 1+1:0:0:0:0, 4+1:0:0:0:0, 4+0:0:0:0:0, 1+0:0:0:0:0, 6+2:0:0:0:0, 3+0:0:0:0:0, 7+0:0:0:0:0, 8+2:1:0:0:1, 4+1:0:0:0:1, 5+4:0:0:0:0, 7+2:0:0:0:0, 5+4:0:1:0:1, 5+5:0:0:0:1, 7+2:0:0:0:2, 4+4:0:0:0:1, 4+2:0:0:0:0, 5+5:0:0:0:0, 6+2:0:0:0:0, 5+1:0:1:0:1, 3+0:0:0:0:0, 7+1:0:0:0:0, 7+3:0:0:0:0, 3+2:0:1:0:0, 2+0:0:0:0:0, 6+2:0:0:0:2, 3+0:0:0:0:0, 5+4:3:0:0:3, 6+3:0:1:0:1, 2+1:0:0:0:0, 6+1:0:0:0:0, 6+6:0:0:0:1, 6+2:1:0:0:1, 4+2:0:0:0:0, 8+4:1:2:0:3, 6+5:3:0:0:3, 1+0:0:0:0:0, 5+2:0:0:0:0, 3+4:0:1:0:0, 3+2:0:0:0:0, 7+3:0:0:0:0, 3+0:0:0:0:0, 9+3:0:0:0:2, 8+4:2:0:0:4, 5+1:1:0:0:0, 3+1:0:0:0:0, 5+1:0:0:0:0, 5+3:0:1:0:2, 8+3:1:0:0:0, 6+3:0:0:0:0, 8+3:2:0:0:2, 5+4:0:0:0:3, 4+2:0:1:0:1, 5+1:0:1:0:1, 4+0:0:0:0:0, 3+0:0:0:0:0, 8+3:0:0:0:2, 7+2:0:0:0:1, 5+2:0:0:0:2, 5+4:1:0:0:1, 2+0:0:0:0:0, 4+3:0:0:0:0, 6+1:0:0:0:0, 5+5:2:0:0:0, 9+5:0:0:0:3, 2+1:0:0:0:0, 7+4:0:0:0:1, 5+2:0:0:0:2, 5+1:1:0:0:1, 5+1:0:0:0:1, 5+5:3:0:0:1, 3+1:1:0:0:1, 5+2:0:0:0:0, 3+1:0:0:0:1, 4+1:1:0:0:1, 7+2:1:0:0:1,  , 1+0:0:0:0:0, 8+4:0:0:0:1, 2+0:0:0:0:0, 8+9:5:0:0:6, 4+2:2:0:0:2, 6+2:1:0:0:1, 4+1:1:0:0:1, 1+0:0:0:0:0, 5+1:0:0:0:0, 2+3:0:0:0:0, 3+2:0:0:0:2, 1+2:0:0:0:0, 2+0:0:0:0:0, 4+0:0:0:0:0, 6+3:0:0:0:3, 5+1:0:0:0:0, 1+0:0:0:0:0, 728+276:43:13:0:91
D# minor (6#), 3+1:0:0:0:1, 1+0:0:0:0:0, 1+0:0:0:0:0, 2+0:0:0:0:0, 4+1:0:0:0:0, 3+0:0:0:0:0, 5+2:0:0:0:0, 1+0:0:0:0:0, 6+2:0:0:0:2, 4+0:0:0:0:0, 6+2:0:0:0:2, 4+0:0:0:0:0, 5+2:0:0:0:2, 4+2:0:0:0:0, 3+2:0:0:0:2, 1+0:0:0:0:0, 3+1:0:0:0:1, 2+4:0:0:0:0, 1+3:0:0:0:0, 2+3:0:0:0:1, 4+1:0:0:0:1, 2+2:2:2:0:2, 3+2:0:0:0:2, 1+1:0:0:0:0, 6+2:0:0:0:2, 4+0:0:0:0:0, 6+2:0:0:0:2, 4+0:0:0:0:0, 4+1:0:0:0:1, 3+2:0:0:0:0, 3+2:0:0:0:2, 5+3:0:0:0:1, 4+3:1:1:0:3, 4+6:0:0:0:0, 1+1:0:0:0:0, 3+1:0:0:0:0, 4+4:0:0:0:2, 3+4:0:0:0:0, 4+2:0:0:0:1, 2+0:0:0:0:0, 5+2:0:0:0:2, 5+2:0:0:0:1, 6+3:0:0:0:2, 5+1:0:0:0:1, 7+3:1:0:0:2, 7+5:0:1:0:0, 4+3:0:0:0:2, 3+1:0:0:0:0, 3+1:0:0:0:1, 2+3:0:0:0:0, 2+0:0:0:0:0, 5+2:0:0:0:0, 4+3:0:0:0:0, 3+1:0:0:0:0, 3+1:0:0:0:0, 3+2:0:0:0:0, 5+3:0:0:0:3, 8+3:0:0:0:1, 6+3:0:0:0:2, 5+1:0:0:0:1, 11+8:3:0:0:4, 7+7:0:0:0:0, 4+4:0:0:0:0, 3+1:0:0:0:0, 3+1:0:0:0:1, 0+0:0:0:0:0, 1+0:0:0:0:0, 1+0:0:0:0:0, 3+1:0:0:0:1, 0+0:0:0:0:0, 3+2:0:0:0:2, 1+0:0:0:0:0, 4+2:0:0:0:2, 3+0:0:0:0:0, 4+2:0:0:0:2, 3+0:0:0:0:0, 4+2:0:0:0:2, 3+1:0:0:0:0, 3+1:0:0:0:1, 1+2:0:0:0:0, 5+5:0:0:0:0, 3+0:0:0:0:0, 5+3:0:0:0:0, 6+2:1:0:0:1, 4+4:0:0:0:1, 5+5:0:0:0:0, 5+2:0:0:0:0, 4+1:0:0:0:0, 8+5:0:0:0:4, 5+1:0:0:0:0, 7+6:1:0:0:4, 3+0:0:0:0:0, 10+6:0:0:0:2, 4+2:0:0:0:0, 3+1:0:0:0:1, 2+1:1:1:0:1, 4+2:1:1:0:2, 7+4:0:0:0:2, 3+1:0:0:0:1, 2+2:0:0:0:0, 4+4:0:0:0:1, 4+3:0:0:0:0, 4+4:0:0:0:0, 6+3:1:0:0:1, 6+4:0:0:0:0, 3+0:0:0:0:0, 9+6:0:0:0:4, 5+1:0:0:0:0, 7+4:0:0:0:2, 9+4:1:1:0:2, 5+2:0:0:0:0, 1+0:0:0:0:0, 3+2:0:0:0:2, 3+2:0:0:0:0, 3+1:0:0:0:0, 7+7:4:3:0:5, 3+1:0:0:0:0, 8+4:0:0:0:0, 7+2:0:0:0:0, 4+1:1:0:0:1, 7+3:0:0:0:1, 3+0:0:0:0:0, 9+4:0:0:0:2, 7+2:0:0:0:1, 7+2:1:0:0:1, 8+6:0:2:0:2, 3+1:0:0:0:1, 2+3:0:2:0:0, 3+2:0:1:0:1, 5+2:0:0:0:0, 3+0:0:0:0:0, 8+3:0:0:0:0, 7+2:0:0:0:0, 7+4:0:0:0:0, 5+2:0:0:0:0, 5+2:0:0:0:0, 7+6:0:0:0:4, 3+0:0:0:0:0, 8+8:4:2:0:5, 8+7:0:0:0:1, 5+2:0:0:0:1, 4+3:0:0:0:0, 3+1:0:0:0:1, 4+3:0:2:0:2, 3+2:0:0:0:2, 5+3:0:0:0:0, 4+2:1:1:0:1, 5+6:0:0:0:2, 5+5:0:0:0:0, 5+3:0:0:0:0, 4+4:0:1:0:1,  , 4+1:0:0:0:1, 5+2:1:0:0:0, 6+6:0:0:0:0, 7+3:0:0:0:2, 7+5:0:0:0:3, 6+7:0:0:0:0, 4+3:1:0:0:1, 1+0:0:0:0:0, 3+1:0:0:0:1, 1+2:0:0:0:0, 3+5:0:0:0:0, 2+5:0:0:0:0, 1+2:0:0:0:0, 3+2:0:0:0:0, 4+3:0:0:0:2, 2+2:0:0:0:1, 0+0:0:0:0:0, 701+391:26:21:0:140
Cb major (7b), 5+1:0:0:0:0, 2+0:0:0:0:0, 2+0:0:0:0:0, 3+0:0:0:0:0, 5+0:0:0:0:0, 3+0:0:0:0:0, 5+2:1:0:0:1, 1+0:0:0:0:0, 4+1:0:0:0:0, 6+2:0:0:0:0, 4+3:0:0:0:0, 6+1:0:0:0:0, 2+4:0:0:0:1, 7+1:0:0:0:0, 5+1:0:0:0:0, 1+0:0:0:0:0, 5+1:0:0:0:0, 3+1:0:0:0:1, 2+0:0:0:0:0, 2+2:0:2:0:2, 5+1:0:0:0:0, 3+0:0:0:0:0, 5+1:0:0:0:0, 1+0:0:0:0:0, 4+3:0:0:0:0, 6+2:0:0:0:0, 4+3:0:0:0:0, 6+1:0:0:0:0, 2+3:0:0:0:0, 5+1:0:0:0:0, 5+0:0:0:0:0, 6+1:0:0:0:0, 7+1:0:0:0:0, 5+0:0:0:0:0, 2+0:0:0:0:0, 6+2:0:0:0:0, 5+0:0:0:0:0, 4+4:0:0:0:0, 6+0:0:0:0:0, 4+0:0:0:0:0, 3+2:0:0:0:2, 5+3:1:0:0:1, 3+3:0:1:0:1, 6+2:2:0:0:2, 6+3:1:0:0:1, 7+2:1:0:0:1, 6+1:0:0:0:0, 4+0:0:0:0:0, 4+1:0:0:0:0, 3+0:0:0:0:0, 3+0:0:0:0:0, 6+1:0:0:0:1, 5+0:0:0:0:0, 3+0:0:0:0:0, 5+1:0:0:0:0, 4+0:0:0:0:0, 3+2:0:0:0:0, 9+4:0:0:0:1, 4+1:0:0:0:0, 8+3:0:0:0:1, 10+6:1:0:0:0, 10+3:1:0:0:1, 6+0:0:0:0:0, 4+0:0:0:0:0, 4+2:0:0:0:0, 0+0:0:0:0:0, 1+0:0:0:0:0, 1+0:0:0:0:0, 4+2:0:0:0:0, 1+0:0:0:0:0, 4+1:0:0:0:0, 1+0:0:0:0:0, 2+2:0:0:0:0, 4+0:0:0:0:0, 2+2:0:0:0:2, 4+0:0:0:0:0, 2+2:0:0:0:2, 4+0:0:0:0:0, 4+0:0:0:0:0, 1+0:0:0:0:0, 6+2:0:0:0:0, 3+0:0:0:0:0, 7+1:0:0:0:0, 5+4:0:1:0:2, 5+1:0:0:0:1, 6+4:0:0:0:0, 7+2:0:0:0:0, 5+4:0:1:0:1, 6+4:0:0:0:0, 8+2:0:0:0:1, 5+4:0:0:0:1, 4+2:0:0:0:0, 6+8:0:0:0:1, 6+2:0:0:0:0, 5+1:0:1:0:1, 4+0:0:0:0:0, 7+1:0:0:0:0, 7+3:0:0:0:0, 5+1:0:0:0:1, 2+2:0:0:0:0, 6+1:0:0:0:1, 4+0:0:0:0:0, 5+4:3:0:0:3, 5+5:0:0:0:2, 3+1:0:0:0:0, 6+0:0:0:0:0, 7+6:0:0:0:4, 6+1:0:1:0:1, 5+2:0:0:0:0, 8+4:1:2:0:3, 6+5:3:0:0:3, 1+0:0:0:0:0, 5+2:0:0:0:0, 3+4:0:1:0:0, 3+0:0:0:0:0, 8+2:0:0:0:0, 4+2:0:0:0:0, 10+3:0:0:0:2, 8+4:2:0:0:4, 5+1:1:0:0:0, 4+4:0:0:0:0, 5+0:0:0:0:0, 7+4:0:0:0:2, 8+2:1:0:0:0, 7+2:0:0:0:2, 8+3:2:0:0:2, 5+4:0:0:0:3, 4+2:0:2:0:2, 5+2:0:0:0:1, 5+0:0:0:0:0, 3+0:0:0:0:0, 9+3:0:0:0:0, 8+1:0:0:0:0, 6+2:0:0:0:0, 5+4:0:0:0:0, 3+0:0:0:0:0, 5+4:0:0:0:0, 6+1:0:0:0:0, 6+5:2:0:0:0, 10+5:0:0:0:3, 3+1:0:0:0:0, 7+4:0:0:0:1, 5+2:0:0:0:2, 5+1:1:0:0:1, 5+1:0:0:0:1, 5+2:2:0:0:2, 4+1:1:0:0:1, 5+2:0:0:0:0, 4+1:0:0:0:0, 5+1:0:0:0:0, 7+2:0:0:0:0,  , 2+1:0:0:0:0, 8+2:1:0:0:0, 3+1:0:0:0:0, 8+6:5:0:0:5, 6+4:0:0:0:0, 6+2:1:0:0:1, 4+1:1:0:0:1, 1+0:0:0:0:0, 5+1:0:0:0:0, 6+2:1:0:0:1, 3+5:0:0:0:1, 4+1:0:0:0:1, 2+0:0:0:0:0, 4+0:0:0:0:0, 6+3:0:0:0:3, 1+2:1:1:0:1, 0+0:0:0:0:0, 790+284:37:13:0:90
C# major (7#), 4+1:0:0:0:1, 2+3:0:0:0:0, 2+2:0:0:0:0, 3+0:0:0:0:0, 5+1:0:0:0:0, 3+0:0:0:0:0, 5+2:1:0:0:1, 1+0:0:0:0:0, 6+2:0:0:0:2, 5+0:0:0:0:0, 6+2:0:0:0:2, 5+0:0:0:0:0, 5+2:0:0:0:2, 5+2:0:0:0:0, 4+2:0:0:0:2, 1+0:0:0:0:0, 4+1:0:0:0:1, 3+4:0:0:0:0, 2+3:0:0:0:0, 3+3:0:0:0:1, 5+1:0:0:0:1, 2+2:2:2:0:2, 4+2:0:0:0:2, 1+1:0:0:0:0, 6+2:0:0:0:2, 5+0:0:0:0:0, 6+2:0:0:0:2, 5+0:0:0:0:0, 4+1:0:0:0:1, 3+2:0:0:0:0, 4+2:0:0:0:2, 5+3:0:0:0:1, 6+4:0:0:0:0, 5+1:0:0:0:0, 1+0:0:0:0:0, 4+1:0:0:0:0, 5+4:0:0:0:2, 3+4:0:0:0:0, 5+2:0:0:0:1, 2+0:0:0:0:0, 5+2:0:0:0:2, 5+2:0:0:0:1, 6+3:0:0:0:2, 5+1:0:0:0:1, 7+3:1:0:0:2, 7+5:0:1:0:0, 5+3:0:0:0:2, 4+1:0:0:0:0, 3+1:0:0:0:1, 3+3:0:0:0:0, 3+0:0:0:0:0, 6+2:0:0:0:0, 5+3:0:0:0:0, 3+1:0:0:0:0, 4+1:0:0:0:0, 3+2:0:0:0:0, 5+3:0:0:0:3, 9+3:0:0:0:1, 6+3:0:0:0:2, 6+4:0:0:0:0, 11+7:3:0:0:4, 7+4:1:0:0:3, 5+2:0:0:0:0, 4+1:0:0:0:0, 3+1:0:0:0:1, 0+0:0:0:0:0, 0+0:0:0:0:0, 0+0:0:0:0:0, 4+2:0:0:0:0, 1+0:0:0:0:0, 3+1:0:0:0:0, 1+0:0:0:0:0, 4+2:0:0:0:2, 3+0:0:0:0:0, 4+2:0:0:0:2, 3+0:0:0:0:0, 4+2:0:0:0:2, 3+1:0:0:0:0, 3+1:0:0:0:1, 1+0:0:0:0:0, 5+1:0:0:0:0, 3+0:0:0:0:0, 6+3:0:0:0:0, 7+2:1:0:0:1, 5+4:0:0:0:1, 5+5:0:0:0:0, 6+2:0:0:0:0, 5+1:0:0:0:0, 8+5:0:0:0:4, 6+1:0:0:0:0, 7+6:1:0:0:4, 3+0:0:0:0:0, 10+6:0:0:0:2, 4+2:0:0:0:0, 3+1:0:0:0:1, 4+5:0:0:0:2, 5+2:1:1:0:2, 6+4:0:0:0:2, 4+1:0:0:0:1, 1+2:0:0:0:0, 5+5:0:0:0:0, 4+3:0:0:0:0, 4+4:0:0:0:0, 6+3:1:0:0:1, 6+4:0:0:0:0, 4+0:0:0:0:0, 9+6:0:0:0:4, 4+1:0:1:0:1, 7+7:1:0:0:0, 9+4:1:1:0:1, 5+4:0:0:0:0, 1+1:0:0:0:0, 4+1:0:0:0:0, 4+3:0:0:0:0, 3+1:0:0:0:0, 6+7:4:3:0:5, 4+1:0:0:0:0, 9+4:0:0:0:0, 6+4:0:1:0:1, 4+1:1:0:0:1, 7+4:0:0:0:0, 4+0:0:0:0:0, 9+4:0:0:0:2, 7+2:1:0:0:0, 7+2:1:0:0:1, 7+6:0:2:0:2, 3+4:0:3:0:3, 2+2:0:2:0:2, 3+2:0:1:0:1, 5+2:0:0:0:0, 3+1:0:0:0:0, 9+3:0:0:0:0, 8+2:0:0:0:0, 7+4:0:0:0:0, 5+2:0:0:0:0, 5+2:0:0:0:0, 7+6:0:0:0:4, 4+0:0:0:0:0, 9+7:0:0:0:1, 9+7:0:0:0:1, 5+2:0:0:0:1, 5+3:0:0:0:0, 3+1:0:0:0:1, 3+3:0:2:0:2, 3+2:0:0:0:2, 5+3:0:0:0:0, 4+2:1:1:0:1, 5+6:0:0:0:2, 6+5:0:0:0:0, 5+3:0:0:0:0, 4+2:0:1:0:1,  , 4+1:0:0:0:1, 6+2:1:0:0:0, 6+6:0:0:0:0, 7+3:2:0:0:0, 7+8:2:0:0:0, 5+3:0:1:0:3, 4+3:1:0:0:1, 1+0:0:0:0:0, 4+1:0:0:0:1, 2+4:0:1:0:0, 2+5:0:0:0:0, 3+5:0:0:0:0, 2+2:0:0:0:0, 3+2:2:2:0:2, 4+3:0:2:0:0, 2+1:0:0:0:0, 1+1:0:0:0:0, 757+397:30:28:0:129
Ab minor (7b), 5+1:0:0:0:0, 2+0:0:0:0:0, 2+0:0:0:0:0, 3+0:0:0:0:0, 5+0:0:0:0:0, 3+0:0:0:0:0, 5+2:1:0:0:1, 1+0:0:0:0:0, 4+1:0:0:0:0, 6+2:0:0:0:0, 4+3:0:0:0:0, 6+1:0:0:0:0, 2+4:0:0:0:1, 7+1:0:0:0:0, 5+1:0:0:0:0, 1+0:0:0:0:0, 5+1:0:0:0:0, 3+1:0:0:0:1, 2+0:0:0:0:0, 2+2:0:2:0:2, 5+1:0:0:0:0, 3+0:0:0:0:0, 5+1:0:0:0:0, 1+0:0:0:0:0, 4+3:0:0:0:0, 6+2:0:0:0:0, 4+3:0:0:0:0, 6+1:0:0:0:0, 2+3:0:0:0:0, 5+1:0:0:0:0, 5+0:0:0:0:0, 6+1:0:0:0:0, 7+1:0:0:0:0, 5+0:0:0:0:0, 2+0:0:0:0:0, 6+2:0:0:0:0, 5+0:0:0:0:0, 4+4:0:0:0:0, 6+0:0:0:0:0, 4+0:0:0:0:0, 3+2:0:0:0:2, 5+3:1:0:0:1, 3+3:0:1:0:1, 6+2:2:0:0:2, 6+3:1:0:0:1, 7+2:1:0:0:1, 6+1:0:0:0:0, 4+0:0:0:0:0, 4+1:0:0:0:0, 3+0:0:0:0:0, 3+0:0:0:0:0, 6+1:0:0:0:1, 5+0:0:0:0:0, 3+0:0:0:0:0, 5+1:0:0:0:0, 4+0:0:0:0:0, 3+2:0:0:0:0, 9+4:0:0:0:1, 4+1:0:0:0:0, 8+3:0:0:0:1, 10+6:1:0:0:0, 10+3:1:0:0:1, 6+0:0:0:0:0, 4+0:0:0:0:0, 4+2:0:0:0:0, 0+0:0:0:0:0, 1+0:0:0:0:0, 1+0:0:0:0:0, 4+2:0:0:0:0, 1+0:0:0:0:0, 4+1:0:0:0:0, 1+0:0:0:0:0, 2+2:0:0:0:0, 4+0:0:0:0:0, 2+2:0:0:0:2, 4+0:0:0:0:0, 2+2:0:0:0:2, 4+0:0:0:0:0, 4+0:0:0:0:0, 1+0:0:0:0:0, 6+2:0:0:0:0, 3+0:0:0:0:0, 7+1:0:0:0:0, 5+4:0:1:0:2, 5+1:0:0:0:1, 6+4:0:0:0:0, 7+2:0:0:0:0, 5+4:0:1:0:1, 6+4:0:0:0:0, 8+2:0:0:0:1, 5+4:0:0:0:1, 4+2:0:0:0:0, 6+8:0:0:0:1, 6+2:0:0:0:0, 5+1:0:1:0:1, 4+0:0:0:0:0, 7+1:0:0:0:0, 7+3:0:0:0:0, 4+2:0:1:0:1, 2+0:0:0:0:0, 7+2:0:0:0:0, 4+0:0:0:0:0, 5+4:3:0:0:3, 5+5:0:0:0:2, 3+1:0:0:0:0, 6+0:0:0:0:0, 7+6:0:0:0:4, 6+1:0:1:0:1, 5+2:0:0:0:0, 8+4:1:2:0:3, 6+5:3:0:0:3, 1+0:0:0:0:0, 5+2:0:0:0:0, 3+4:0:1:0:0, 3+2:0:0:0:0, 8+2:0:0:0:0, 4+2:0:0:0:0, 10+3:0:0:0:2, 8+4:2:0:0:4, 5+1:1:0:0:0, 4+4:0:0:0:0, 5+0:0:0:0:0, 7+4:0:0:0:2, 8+2:1:0:0:0, 7+2:0:0:0:2, 8+3:2:0:0:2, 5+4:0:0:0:3, 4+2:0:2:0:2, 5+2:0:0:0:1, 5+0:0:0:0:0, 3+0:0:0:0:0, 9+3:0:0:0:0, 8+1:0:0:0:0, 6+2:0:0:0:0, 5+4:0:0:0:0, 3+0:0:0:0:0, 5+4:0:0:0:0, 6+1:0:0:0:0, 6+5:2:0:0:0, 10+5:0:0:0:3, 3+1:0:0:0:0, 7+4:0:0:0:1, 5+2:0:0:0:2, 5+1:1:0:0:1, 5+1:0:0:0:1, 5+2:2:0:0:2, 4+1:1:0:0:1, 5+2:0:0:0:0, 4+1:0:0:0:0, 5+1:0:0:0:0, 7+2:0:0:0:0,  , 2+1:0:0:0:0, 8+4:0:0:0:1, 3+0:0:0:0:0, 8+6:5:0:0:5, 6+4:0:0:0:0, 6+2:1:0:0:1, 4+1:1:0:0:1, 1+0:0:0:0:0, 5+1:0:0:0:0, 3+3:0:0:0:0, 3+2:0:0:0:2, 1+2:0:0:0:0, 2+0:0:0:0:0, 4+0:0:0:0:0, 6+3:0:0:0:3, 1+2:1:1:0:1, 0+0:0:0:0:0, 784+286:35:14:0:89
A# minor (7#), 4+1:0:0:0:1, 2+3:0:0:0:0, 2+2:0:0:0:0, 3+0:0:0:0:0, 5+1:0:0:0:0, 3+0:0:0:0:0, 5+2:1:0:0:1, 1+0:0:0:0:0, 6+2:0:0:0:2, 5+0:0:0:0:0, 6+2:0:0:0:2, 5+0:0:0:0:0, 5+2:0:0:0:2, 5+2:0:0:0:0, 4+2:0:0:0:2, 1+0:0:0:0:0, 4+1:0:0:0:1, 3+4:0:0:0:0, 2+3:0:0:0:0, 3+3:0:0:0:1, 5+1:0:0:0:1, 2+2:2:2:0:2, 4+2:0:0:0:2, 1+1:0:0:0:0, 6+2:0:0:0:2, 5+0:0:0:0:0, 6+2:0:0:0:2, 5+0:0:0:0:0, 4+1:0:0:0:1, 3+2:0:0:0:0, 4+1:0:0:0:0, 5+3:0:0:0:1, 6+4:0:0:0:0, 5+1:0:0:0:0, 1+0:0:0:0:0, 4+1:0:0:0:0, 5+4:0:0:0:2, 3+4:0:0:0:0, 5+2:0:0:0:1, 2+0:0:0:0:0, 5+2:0:0:0:2, 5+2:0:0:0:1, 6+3:0:0:0:2, 5+1:0:0:0:1, 7+3:1:0:0:2, 7+5:0:1:0:0, 5+2:0:0:0:0, 4+3:0:0:0:0, 3+2:0:0:0:0, 3+4:0:0:0:0, 3+0:0:0:0:0, 6+2:0:0:0:0, 5+3:0:0:0:0, 3+1:0:0:0:0, 4+1:0:0:0:0, 3+2:0:0:0:0, 5+3:0:0:0:3, 9+3:0:0:0:1, 6+3:0:0:0:2, 6+1:0:0:0:1, 11+8:3:0:0:4, 8+7:0:0:0:0, 5+2:0:0:0:0, 4+1:0:0:0:0, 3+1:0:0:0:1, 0+0:0:0:0:0, 0+0:0:0:0:0, 0+0:0:0:0:0, 4+2:0:0:0:0, 1+0:0:0:0:0, 3+1:0:0:0:0, 1+0:0:0:0:0, 4+2:0:0:0:2, 3+0:0:0:0:0, 4+2:0:0:0:2, 3+0:0:0:0:0, 4+2:0:0:0:2, 3+1:0:0:0:0, 3+1:0:0:0:0, 1+0:0:0:0:0, 5+1:0:0:0:0, 3+0:0:0:0:0, 6+3:0:0:0:0, 7+2:1:0:0:1, 5+4:0:0:0:1, 5+5:0:0:0:0, 6+2:0:0:0:0, 5+1:0:0:0:0, 8+5:0:0:0:4, 6+1:0:0:0:0, 7+6:1:0:0:4, 3+0:0:0:0:0, 10+6:0:0:0:2, 4+2:0:0:0:0, 3+1:0:0:0:1, 4+5:0:0:0:2, 5+2:1:1:0:2, 6+4:0:0:0:2, 4+1:0:0:0:1, 1+2:0:0:0:0, 5+5:0:0:0:0, 4+3:0:0:0:0, 4+4:0:0:0:0, 6+3:1:0:0:1, 6+4:0:0:0:0, 4+0:0:0:0:0, 9+6:0:0:0:4, 4+1:0:1:0:1, 7+7:1:0:0:0, 9+4:1:1:0:1, 5+4:0:0:0:0, 1+1:0:0:0:0, 4+1:0:0:0:0, 4+3:0:0:0:0, 3+1:0:0:0:0, 6+7:4:3:0:5, 4+1:0:0:0:0, 9+4:0:0:0:0, 6+5:2:0:0:2, 4+1:1:0:0:1, 7+4:0:0:0:0, 4+0:0:0:0:0, 9+4:0:0:0:2, 7+2:1:0:0:0, 7+2:1:0:0:1, 7+6:0:2:0:2, 3+4:0:3:0:3, 2+2:0:2:0:2, 3+2:0:1:0:1, 5+2:0:0:0:0, 3+1:0:0:0:0, 9+3:0:0:0:0, 8+2:0:0:0:0, 7+4:0:0:0:0, 5+2:0:0:0:0, 5+2:0:0:0:0, 7+6:0:0:0:4, 4+0:0:0:0:0, 9+7:0:0:0:1, 9+7:0:0:0:1, 5+2:0:0:0:1, 5+3:0:0:0:0, 3+1:0:0:0:1, 3+3:0:2:0:2, 3+2:0:0:0:2, 5+3:0:0:0:0, 4+2:1:1:0:1, 5+6:0:0:0:2, 6+5:0:0:0:0, 5+3:0:0:0:0, 4+2:0:1:0:1,  , 4+1:0:0:0:1, 6+2:1:0:0:0, 6+6:0:0:0:0, 7+3:2:0:0:0, 7+8:2:0:0:0, 5+3:0:1:0:3, 4+3:1:0:0:1, 1+0:0:0:0:0, 4+1:0:0:0:1, 2+4:0:1:0:0, 2+5:0:0:0:0, 3+5:0:0:0:0, 2+2:0:0:0:0, 3+2:2:2:0:2, 4+3:0:2:0:0, 2+1:0:0:0:0, 1+1:0:0:0:0, 758+401:31:27:0:122
