 , 0, 1, 2, 3, 4, 5, 6, 7, 8, 9, 10, 11, 12, 13, 14, 15, 16, 17, 18, 19, 20, 21, 22, 23, 24, 25, 26, 27, 28, 29, 30, 31, 32, 33, 34, 35, 36, 37, 38, 39, 40, 41, 42, 43, 44, 45, 46, 47, 48, 49, 50, 51, 52, 53, 54, 55, 56, 57, 58, 59, 60, 61, 62, 63, 64, 65, 66, 67, 68, 69, 70, 71, 72, rowcost
C major (0), 1=1+0:0:0:0:0, 4=2+2:1:0:0:1, 8=4+4:0:0:0:0, 5=4+1:0:0:0:0, 1=1+0:0:0:0:0, 1=1+0:0:0:0:0, 4=3+1:0:0:0:0, 1=0+1:0:0:0:0, 3=2+1:0:0:0:0, 1=1+0:0:0:0:0, 1=1+0:0:0:0:0, 5=3+2:0:0:0:0, 4=2+2:2:0:0:2, 4=2+2:1:0:0:1, 8=4+4:0:0:0:0, 5=4+1:0:0:0:0, 1=1+0:0:0:0:0, 1=1+0:0:0:0:0, 4=3+1:0:0:0:0, 1=0+1:0:0:0:0, 3=2+1:0:0:0:0, 1=1+0:0:0:0:0, 1=1+0:0:0:0:0, 5=3+2:0:0:0:0, 4=2+2:2:0:0:2, 1=1+0:0:0:0:0, 2=2+0:0:0:0:0, 1=1+0:0:0:0:0, 3=2+1:0:0:0:0, 5=4+1:0:0:0:0, 2=1+1:0:0:0:1, 9=3+6:3:0:0:3, 7=4+3:1:0:0:1, 6=4+2:1:0:0:1, 7=5+2:0:0:0:0, 4=3+1:0:0:0:0, 1=1+0:0:0:0:0, 5=3+2:0:0:0:0, 4=3+1:1:0:0:1, 2=2+0:0:0:0:0, 4=2+2:0:0:0:1, 4=3+1:0:0:0:0, 7=4+3:0:0:0:0, 8=5+3:0:0:0:0, 10=6+4:0:1:0:1, 4=3+1:1:0:0:1, 2=1+1:0:0:0:0, 3=2+1:1:0:0:1, 1=0+1:0:0:0:0, 3=2+1:1:0:0:1, 2=2+0:0:0:0:0, 1=1+0:0:0:0:0, 2=2+0:0:0:0:0, 3=3+0:0:0:0:0, 1=1+0:0:0:0:0, 0=0+0:0:0:0:0, 5=3+2:0:0:0:0, 3=3+0:0:0:0:0, 6=4+2:0:0:0:0, 2=2+0:0:0:0:0, 1=1+0:0:0:0:0, 2=2+0:0:0:0:0, 4=3+1:0:0:0:0, 4=3+1:1:0:0:1, 8=6+2:0:0:0:0, 4=3+1:0:0:0:0, 4=2+2:0:0:0:0, 1=1+0:0:0:0:0, 5=3+2:1:0:0:1, 2=2+0:0:0:0:0, 6=4+2:0:0:0:0, 3=2+1:1:0:0:1, 7=4+3:0:0:0:0, 258=173+85:18:1:0:21
A minor (0), 1=1+0:0:0:0:0, 3=2+1:0:0:0:0, 6=4+2:0:0:0:2, 7=4+3:0:0:0:0, 1=1+0:0:0:0:0, 1=1+0:0:0:0:0, 4=3+1:0:0:0:0, 0=0+0:0:0:0:0, 5=2+3:0:0:0:0, 1=1+0:0:0:0:0, 1=1+0:0:0:0:0, 4=3+1:0:0:0:0, 4=2+2:0:0:0:2, 3=2+1:0:0:0:0, 6=4+2:0:0:0:2, 7=4+3:0:0:0:0, 1=1+0:0:0:0:0, 1=1+0:0:0:0:0, 4=3+1:0:0:0:0, 0=0+0:0:0:0:0, 5=2+3:0:0:0:0, 1=1+0:0:0:0:0, 1=1+0:0:0:0:0, 4=3+1:0:0:0:0, 4=2+2:2:0:0:2, 1=1+0:0:0:0:0, 2=2+0:0:0:0:0, 3=1+2:0:0:0:0, 3=2+1:0:0:0:0, 6=4+2:0:0:0:0, 1=1+0:0:0:0:0, 6=3+3:0:0:0:0, 7=4+3:0:0:0:1, 6=4+2:0:0:0:0, 7=5+2:0:0:0:0, 4=3+1:0:0:0:0, 1=1+0:0:0:0:0, 6=3+3:0:0:0:3, 6=4+2:0:0:0:0, 2=2+0:0:0:0:0, 4=2+2:0:0:0:0, 4=3+1:0:0:0:0, 7=4+3:0:0:0:0, 8=5+3:0:0:0:0, 10=6+4:0:1:0:1, 3=3+0:0:0:0:0, 2=1+1:0:0:0:0, 3=2+1:0:0:0:0, 0=0+0:0:0:0:0, 3=2+1:0:0:0:1, 2=2+0:0:0:0:0, 1=1+0:0:0:0:0, 3=2+1:0:0:0:0, 4=3+1:0:0:0:0, 1=1+0:0:0:0:0, 0=0+0:0:0:0:0, 7=3+4:0:0:0:0, 3=3+0:0:0:0:0, 5=4+1:0:0:0:0, 4=2+2:0:0:0:0, 1=1+0:0:0:0:0, 3=2+1:0:0:0:0, 3=3+0:0:0:0:0, 4=3+1:0:0:0:0, 10=6+4:0:0:0:0, 4=3+1:0:0:0:0, 4=2+2:0:0:0:0, 1=1+0:0:0:0:0, 5=3+2:0:0:0:1, 2=2+0:0:0:0:0, 6=4+2:0:0:0:0, 3=2+1:0:0:0:0, 7=4+3:0:0:0:0, 263=174+89:2:1:0:15
A minor mel (0),  ,  ,  ,  ,  ,  ,  ,  ,  ,  ,  ,  ,  ,  ,  ,  ,  ,  ,  ,  ,  ,  ,  ,  ,  ,  ,  ,  ,  ,  ,  ,  ,  ,  ,  ,  ,  ,  ,  ,  ,  ,  ,  ,  ,  ,  ,  ,  ,  ,  ,  ,  ,  ,  ,  ,  ,  ,  ,  ,  ,  ,  ,  ,  ,  ,  ,  ,  ,  ,  ,  ,  ,  , 0=0+0:0:0:0:0
C major blues (0),  ,  ,  ,  ,  ,  ,  ,  ,  ,  ,  ,  ,  ,  ,  ,  ,  ,  ,  ,  ,  ,  ,  ,  ,  ,  ,  ,  ,  ,  ,  ,  ,  ,  ,  ,  ,  ,  ,  ,  ,  ,  ,  ,  ,  ,  ,  ,  ,  ,  ,  ,  ,  ,  ,  ,  ,  ,  ,  ,  ,  ,  ,  ,  ,  ,  ,  ,  ,  ,  ,  ,  ,  , 0=0+0:0:0:0:0
A minor blues (0),  ,  ,  ,  ,  ,  ,  ,  ,  ,  ,  ,  ,  ,  ,  ,  ,  ,  ,  ,  ,  ,  ,  ,  ,  ,  ,  ,  ,  ,  ,  ,  ,  ,  ,  ,  ,  ,  ,  ,  ,  ,  ,  ,  ,  ,  ,  ,  ,  ,  ,  ,  ,  ,  ,  ,  ,  ,  ,  ,  ,  ,  ,  ,  ,  ,  ,  ,  ,  ,  ,  ,  ,  , 0=0+0:0:0:0:0
C dorian (0),  ,  ,  ,  ,  ,  ,  ,  ,  ,  ,  ,  ,  ,  ,  ,  ,  ,  ,  ,  ,  ,  ,  ,  ,  ,  ,  ,  ,  ,  ,  ,  ,  ,  ,  ,  ,  ,  ,  ,  ,  ,  ,  ,  ,  ,  ,  ,  ,  ,  ,  ,  ,  ,  ,  ,  ,  ,  ,  ,  ,  ,  ,  ,  ,  ,  ,  ,  ,  ,  ,  ,  ,  , 0=0+0:0:0:0:0
C phrygian (0),  ,  ,  ,  ,  ,  ,  ,  ,  ,  ,  ,  ,  ,  ,  ,  ,  ,  ,  ,  ,  ,  ,  ,  ,  ,  ,  ,  ,  ,  ,  ,  ,  ,  ,  ,  ,  ,  ,  ,  ,  ,  ,  ,  ,  ,  ,  ,  ,  ,  ,  ,  ,  ,  ,  ,  ,  ,  ,  ,  ,  ,  ,  ,  ,  ,  ,  ,  ,  ,  ,  ,  ,  , 0=0+0:0:0:0:0
C lydian (0),  ,  ,  ,  ,  ,  ,  ,  ,  ,  ,  ,  ,  ,  ,  ,  ,  ,  ,  ,  ,  ,  ,  ,  ,  ,  ,  ,  ,  ,  ,  ,  ,  ,  ,  ,  ,  ,  ,  ,  ,  ,  ,  ,  ,  ,  ,  ,  ,  ,  ,  ,  ,  ,  ,  ,  ,  ,  ,  ,  ,  ,  ,  ,  ,  ,  ,  ,  ,  ,  ,  ,  ,  , 0=0+0:0:0:0:0
C mixolydian (0),  ,  ,  ,  ,  ,  ,  ,  ,  ,  ,  ,  ,  ,  ,  ,  ,  ,  ,  ,  ,  ,  ,  ,  ,  ,  ,  ,  ,  ,  ,  ,  ,  ,  ,  ,  ,  ,  ,  ,  ,  ,  ,  ,  ,  ,  ,  ,  ,  ,  ,  ,  ,  ,  ,  ,  ,  ,  ,  ,  ,  ,  ,  ,  ,  ,  ,  ,  ,  ,  ,  ,  ,  , 0=0+0:0:0:0:0
C aeolian (0),  ,  ,  ,  ,  ,  ,  ,  ,  ,  ,  ,  ,  ,  ,  ,  ,  ,  ,  ,  ,  ,  ,  ,  ,  ,  ,  ,  ,  ,  ,  ,  ,  ,  ,  ,  ,  ,  ,  ,  ,  ,  ,  ,  ,  ,  ,  ,  ,  ,  ,  ,  ,  ,  ,  ,  ,  ,  ,  ,  ,  ,  ,  ,  ,  ,  ,  ,  ,  ,  ,  ,  ,  , 0=0+0:0:0:0:0
C locrian (0),  ,  ,  ,  ,  ,  ,  ,  ,  ,  ,  ,  ,  ,  ,  ,  ,  ,  ,  ,  ,  ,  ,  ,  ,  ,  ,  ,  ,  ,  ,  ,  ,  ,  ,  ,  ,  ,  ,  ,  ,  ,  ,  ,  ,  ,  ,  ,  ,  ,  ,  ,  ,  ,  ,  ,  ,  ,  ,  ,  ,  ,  ,  ,  ,  ,  ,  ,  ,  ,  ,  ,  ,  , 0=0+0:0:0:0:0
F major (1b), 0=0+0:0:0:0:0, 3=1+2:1:0:0:1, 5=3+2:0:0:0:0, 4=3+1:0:0:0:0, 1=1+0:0:0:0:0, 0=0+0:0:0:0:0, 3=2+1:0:0:0:0, 1=0+1:0:0:0:0, 1=1+0:0:0:0:0, 0=0+0:0:0:0:0, 0=0+0:0:0:0:0, 4=2+2:0:0:0:0, 3=1+2:2:0:0:2, 3=1+2:1:0:0:1, 5=3+2:0:0:0:0, 4=3+1:0:0:0:0, 1=1+0:0:0:0:0, 0=0+0:0:0:0:0, 3=2+1:0:0:0:0, 1=0+1:0:0:0:0, 1=1+0:0:0:0:0, 0=0+0:0:0:0:0, 0=0+0:0:0:0:0, 4=2+2:0:0:0:0, 3=1+2:2:0:0:2, 0=0+0:0:0:0:0, 3=1+2:0:0:0:0, 1=1+0:0:0:0:0, 2=1+1:0:0:0:0, 3=3+0:0:0:0:0, 1=0+1:0:0:0:1, 8=2+6:3:0:0:3, 6=3+3:1:0:0:1, 4=2+2:1:0:0:1, 6=4+2:0:0:0:0, 3=2+1:0:0:0:0, 0=0+0:0:0:0:0, 4=2+2:0:0:0:0, 4=3+1:0:0:0:0, 2=2+0:0:0:0:0, 4=2+2:0:0:0:1, 3=2+1:0:0:0:1, 4=3+1:0:0:0:1, 6=3+3:0:0:0:0, 9=5+4:0:1:0:1, 3=2+1:1:0:0:1, 2=1+1:0:0:0:0, 3=2+1:1:0:0:1, 1=0+1:0:0:0:0, 2=1+1:1:0:0:1, 1=1+0:0:0:0:0, 0=0+0:0:0:0:0, 1=1+0:0:0:0:0, 2=2+0:0:0:0:0, 0=0+0:0:0:0:0, 0=0+0:0:0:0:0, 6=3+3:0:0:0:1, 3=2+1:1:0:0:1, 5=3+2:0:0:0:0, 1=1+0:0:0:0:0, 0=0+0:0:0:0:0, 1=1+0:0:0:0:0, 2=2+0:0:0:0:0, 3=2+1:1:0:0:1, 6=4+2:0:0:0:0, 2=2+0:0:0:0:0, 1=1+0:0:0:0:0, 0=0+0:0:0:0:0, 4=2+2:1:0:0:1, 1=1+0:0:0:0:0, 6=4+2:0:0:0:0, 2=1+1:1:0:0:1, 5=3+2:0:0:0:0, 186=111+75:18:1:0:24
G major (1#), 1=1+0:0:0:0:0, 2=1+1:1:0:0:1, 5=3+2:0:0:0:2, 7=5+2:0:0:0:0, 2=2+0:0:0:0:0, 2=2+0:0:0:0:0, 4=3+1:1:0:0:1, 1=1+0:0:0:0:0, 3=3+0:0:0:0:0, 1=1+0:0:0:0:0, 1=1+0:0:0:0:0, 5=4+1:0:0:0:0, 5=3+2:2:0:0:2, 2=1+1:1:0:0:1, 5=3+2:0:0:0:2, 7=5+2:0:0:0:0, 2=2+0:0:0:0:0, 2=2+0:0:0:0:0, 4=3+1:1:0:0:1, 1=1+0:0:0:0:0, 3=3+0:0:0:0:0, 1=1+0:0:0:0:0, 1=1+0:0:0:0:0, 5=4+1:0:0:0:0, 5=3+2:2:0:0:2, 2=2+0:0:0:0:0, 2=2+0:0:0:0:0, 4=2+2:0:0:0:0, 3=2+1:0:0:0:0, 6=5+1:0:0:0:0, 2=1+1:0:0:0:0, 10=4+6:3:0:0:3, 8=5+3:1:0:0:1, 6=4+2:1:0:0:1, 6=4+2:1:1:0:2, 4=3+1:0:0:0:0, 2=2+0:0:0:0:0, 9=4+5:0:0:0:0, 5=4+1:1:0:0:1, 5=4+1:0:0:0:0, 4=2+2:1:0:0:1, 4=3+1:0:0:0:0, 8=5+3:0:0:0:0, 5=4+1:1:0:0:1, 11=7+4:0:1:0:1, 2=2+0:0:0:0:0, 3=2+1:0:0:0:0, 4=3+1:1:0:0:1, 1=1+0:0:0:0:0, 4=3+1:1:0:0:1, 3=3+0:0:0:0:0, 2=2+0:0:0:0:0, 3=2+1:0:0:0:0, 4=4+0:0:0:0:0, 1=1+0:0:0:0:0, 1=1+0:0:0:0:0, 7=4+3:0:0:0:0, 2=2+0:0:0:0:0, 5=3+2:1:0:0:1, 3=3+0:0:0:0:0, 1=1+0:0:0:0:0, 4=3+1:0:0:0:0, 4=3+1:0:0:0:0, 5=4+1:1:0:0:1, 8=5+3:1:0:0:1, 5=4+1:0:0:0:0, 4=2+2:0:0:0:0, 2=2+0:0:0:0:0, 6=4+2:1:0:0:1, 2=2+0:0:0:0:0, 5=3+2:1:1:0:2, 4=3+1:1:0:0:1, 7=4+3:1:0:0:1, 285=204+81:26:3:0:33
D minor (1b), 0=0+0:0:0:0:0, 2=1+1:0:0:0:0, 5=3+2:0:0:0:2, 5=3+2:0:0:0:0, 1=1+0:0:0:0:0, 0=0+0:0:0:0:0, 3=2+1:0:0:0:0, 0=0+0:0:0:0:0, 4=1+3:0:0:0:0, 0=0+0:0:0:0:0, 0=0+0:0:0:0:0, 3=2+1:0:0:0:0, 3=1+2:2:0:0:2, 2=1+1:0:0:0:0, 5=3+2:0:0:0:2, 5=3+2:0:0:0:0, 1=1+0:0:0:0:0, 0=0+0:0:0:0:0, 3=2+1:0:0:0:0, 0=0+0:0:0:0:0, 4=1+3:0:0:0:0, 0=0+0:0:0:0:0, 0=0+0:0:0:0:0, 3=2+1:0:0:0:0, 3=1+2:2:0:0:2, 0=0+0:0:0:0:0, 1=1+0:0:0:0:0, 3=1+2:0:0:0:0, 2=1+1:0:0:0:0, 5=3+2:0:0:0:0, 0=0+0:0:0:0:0, 8=2+6:3:0:0:3, 6=3+3:1:0:0:1, 4=2+2:1:0:0:1, 6=4+2:0:0:0:0, 3=2+1:0:0:0:0, 0=0+0:0:0:0:0, 7=2+5:0:0:0:0, 3=2+1:1:0:0:1, 3=2+1:0:0:0:0, 4=2+2:0:0:0:0, 3=2+1:0:0:0:0, 4=3+1:0:0:0:0, 4=3+1:0:0:0:0, 9=5+4:0:1:0:1, 2=2+0:0:0:0:0, 2=1+1:0:0:0:0, 3=2+1:0:0:0:0, 0=0+0:0:0:0:0, 2=1+1:1:0:0:1, 1=1+0:0:0:0:0, 0=0+0:0:0:0:0, 2=1+1:0:0:0:0, 3=2+1:0:0:0:0, 0=0+0:0:0:0:0, 0=0+0:0:0:0:0, 6=3+3:0:0:0:1, 2=2+0:0:0:0:0, 5=3+2:0:0:0:0, 1=1+0:0:0:0:0, 0=0+0:0:0:0:0, 2=1+1:0:0:0:0, 2=2+0:0:0:0:0, 3=2+1:0:0:0:0, 7=4+3:0:0:0:0, 3=2+1:0:0:0:0, 3=1+2:0:0:0:0, 0=0+0:0:0:0:0, 4=2+2:0:0:0:1, 1=1+0:0:0:0:0, 6=4+2:0:0:0:0, 2=1+1:1:0:0:1, 6=3+3:0:0:0:0, 195=110+85:12:1:0:19
E minor (1#), 1=1+0:0:0:0:0, 2=1+1:1:0:0:1, 5=3+2:0:0:0:2, 7=5+2:0:0:0:0, 2=2+0:0:0:0:0, 2=2+0:0:0:0:0, 4=3+1:1:0:0:1, 1=1+0:0:0:0:0, 6=3+3:0:0:0:0, 1=1+0:0:0:0:0, 1=1+0:0:0:0:0, 5=4+1:0:0:0:0, 5=3+2:2:0:0:2, 2=1+1:1:0:0:1, 5=3+2:0:0:0:2, 7=5+2:0:0:0:0, 2=2+0:0:0:0:0, 2=2+0:0:0:0:0, 4=3+1:1:0:0:1, 1=1+0:0:0:0:0, 6=3+3:0:0:0:0, 1=1+0:0:0:0:0, 1=1+0:0:0:0:0, 5=4+1:0:0:0:0, 5=3+2:2:0:0:2, 2=2+0:0:0:0:0, 2=2+0:0:0:0:0, 4=2+2:0:0:0:0, 3=2+1:0:0:0:0, 7=5+2:0:0:0:0, 2=1+1:0:0:0:0, 7=4+3:0:0:0:0, 8=5+3:0:0:0:1, 6=4+2:0:0:0:0, 6=4+2:1:1:0:2, 4=3+1:0:0:0:0, 3=2+1:0:0:0:0, 7=4+3:0:0:0:3, 5=4+1:1:0:0:1, 5=4+1:0:0:0:0, 4=2+2:1:0:0:1, 4=3+1:0:0:0:1, 9=5+4:0:0:0:0, 5=4+1:1:0:0:1, 11=7+4:0:1:0:2, 2=2+0:0:0:0:0, 3=2+1:0:0:0:0, 4=3+1:0:0:0:0, 1=1+0:0:0:0:0, 4=3+1:0:0:0:1, 3=3+0:0:0:0:0, 2=2+0:0:0:0:0, 3=2+1:0:0:0:0, 5=4+1:0:0:0:0, 1=1+0:0:0:0:0, 1=1+0:0:0:0:0, 8=4+4:0:0:0:0, 2=2+0:0:0:0:0, 4=3+1:0:0:0:0, 5=3+2:0:0:0:0, 1=1+0:0:0:0:0, 4=3+1:0:0:0:0, 5=3+2:0:0:0:0, 5=4+1:0:0:0:0, 8=5+3:1:0:0:1, 5=4+1:0:0:0:0, 4=2+2:0:0:0:0, 2=2+0:0:0:0:0, 5=4+1:0:0:0:1, 2=2+0:0:0:0:0, 5=3+2:1:1:0:2, 4=3+1:1:0:0:1, 6=4+2:1:0:0:1, 291=204+87:16:3:0:31
D minor mel (1b),  ,  ,  ,  ,  ,  ,  ,  ,  ,  ,  ,  ,  ,  ,  ,  ,  ,  ,  ,  ,  ,  ,  ,  ,  ,  ,  ,  ,  ,  ,  ,  ,  ,  ,  ,  ,  ,  ,  ,  ,  ,  ,  ,  ,  ,  ,  ,  ,  ,  ,  ,  ,  ,  ,  ,  ,  ,  ,  ,  ,  ,  ,  ,  ,  ,  ,  ,  ,  ,  ,  ,  ,  , 0=0+0:0:0:0:0
E minor mel (1#),  ,  ,  ,  ,  ,  ,  ,  ,  ,  ,  ,  ,  ,  ,  ,  ,  ,  ,  ,  ,  ,  ,  ,  ,  ,  ,  ,  ,  ,  ,  ,  ,  ,  ,  ,  ,  ,  ,  ,  ,  ,  ,  ,  ,  ,  ,  ,  ,  ,  ,  ,  ,  ,  ,  ,  ,  ,  ,  ,  ,  ,  ,  ,  ,  ,  ,  ,  ,  ,  ,  ,  ,  , 0=0+0:0:0:0:0
F major blues (1b),  ,  ,  ,  ,  ,  ,  ,  ,  ,  ,  ,  ,  ,  ,  ,  ,  ,  ,  ,  ,  ,  ,  ,  ,  ,  ,  ,  ,  ,  ,  ,  ,  ,  ,  ,  ,  ,  ,  ,  ,  ,  ,  ,  ,  ,  ,  ,  ,  ,  ,  ,  ,  ,  ,  ,  ,  ,  ,  ,  ,  ,  ,  ,  ,  ,  ,  ,  ,  ,  ,  ,  ,  , 0=0+0:0:0:0:0
G major blues (1#),  ,  ,  ,  ,  ,  ,  ,  ,  ,  ,  ,  ,  ,  ,  ,  ,  ,  ,  ,  ,  ,  ,  ,  ,  ,  ,  ,  ,  ,  ,  ,  ,  ,  ,  ,  ,  ,  ,  ,  ,  ,  ,  ,  ,  ,  ,  ,  ,  ,  ,  ,  ,  ,  ,  ,  ,  ,  ,  ,  ,  ,  ,  ,  ,  ,  ,  ,  ,  ,  ,  ,  ,  , 0=0+0:0:0:0:0
D minor blues (1b),  ,  ,  ,  ,  ,  ,  ,  ,  ,  ,  ,  ,  ,  ,  ,  ,  ,  ,  ,  ,  ,  ,  ,  ,  ,  ,  ,  ,  ,  ,  ,  ,  ,  ,  ,  ,  ,  ,  ,  ,  ,  ,  ,  ,  ,  ,  ,  ,  ,  ,  ,  ,  ,  ,  ,  ,  ,  ,  ,  ,  ,  ,  ,  ,  ,  ,  ,  ,  ,  ,  ,  ,  , 0=0+0:0:0:0:0
E minor blues (1#),  ,  ,  ,  ,  ,  ,  ,  ,  ,  ,  ,  ,  ,  ,  ,  ,  ,  ,  ,  ,  ,  ,  ,  ,  ,  ,  ,  ,  ,  ,  ,  ,  ,  ,  ,  ,  ,  ,  ,  ,  ,  ,  ,  ,  ,  ,  ,  ,  ,  ,  ,  ,  ,  ,  ,  ,  ,  ,  ,  ,  ,  ,  ,  ,  ,  ,  ,  ,  ,  ,  ,  ,  , 0=0+0:0:0:0:0
F dorian (1b),  ,  ,  ,  ,  ,  ,  ,  ,  ,  ,  ,  ,  ,  ,  ,  ,  ,  ,  ,  ,  ,  ,  ,  ,  ,  ,  ,  ,  ,  ,  ,  ,  ,  ,  ,  ,  ,  ,  ,  ,  ,  ,  ,  ,  ,  ,  ,  ,  ,  ,  ,  ,  ,  ,  ,  ,  ,  ,  ,  ,  ,  ,  ,  ,  ,  ,  ,  ,  ,  ,  ,  ,  , 0=0+0:0:0:0:0
G dorian (1#),  ,  ,  ,  ,  ,  ,  ,  ,  ,  ,  ,  ,  ,  ,  ,  ,  ,  ,  ,  ,  ,  ,  ,  ,  ,  ,  ,  ,  ,  ,  ,  ,  ,  ,  ,  ,  ,  ,  ,  ,  ,  ,  ,  ,  ,  ,  ,  ,  ,  ,  ,  ,  ,  ,  ,  ,  ,  ,  ,  ,  ,  ,  ,  ,  ,  ,  ,  ,  ,  ,  ,  ,  , 0=0+0:0:0:0:0
F phrygian (1b),  ,  ,  ,  ,  ,  ,  ,  ,  ,  ,  ,  ,  ,  ,  ,  ,  ,  ,  ,  ,  ,  ,  ,  ,  ,  ,  ,  ,  ,  ,  ,  ,  ,  ,  ,  ,  ,  ,  ,  ,  ,  ,  ,  ,  ,  ,  ,  ,  ,  ,  ,  ,  ,  ,  ,  ,  ,  ,  ,  ,  ,  ,  ,  ,  ,  ,  ,  ,  ,  ,  ,  ,  , 0=0+0:0:0:0:0
G phrygian (1#),  ,  ,  ,  ,  ,  ,  ,  ,  ,  ,  ,  ,  ,  ,  ,  ,  ,  ,  ,  ,  ,  ,  ,  ,  ,  ,  ,  ,  ,  ,  ,  ,  ,  ,  ,  ,  ,  ,  ,  ,  ,  ,  ,  ,  ,  ,  ,  ,  ,  ,  ,  ,  ,  ,  ,  ,  ,  ,  ,  ,  ,  ,  ,  ,  ,  ,  ,  ,  ,  ,  ,  ,  , 0=0+0:0:0:0:0
F lydian (1b),  ,  ,  ,  ,  ,  ,  ,  ,  ,  ,  ,  ,  ,  ,  ,  ,  ,  ,  ,  ,  ,  ,  ,  ,  ,  ,  ,  ,  ,  ,  ,  ,  ,  ,  ,  ,  ,  ,  ,  ,  ,  ,  ,  ,  ,  ,  ,  ,  ,  ,  ,  ,  ,  ,  ,  ,  ,  ,  ,  ,  ,  ,  ,  ,  ,  ,  ,  ,  ,  ,  ,  ,  , 0=0+0:0:0:0:0
G lydian (1#),  ,  ,  ,  ,  ,  ,  ,  ,  ,  ,  ,  ,  ,  ,  ,  ,  ,  ,  ,  ,  ,  ,  ,  ,  ,  ,  ,  ,  ,  ,  ,  ,  ,  ,  ,  ,  ,  ,  ,  ,  ,  ,  ,  ,  ,  ,  ,  ,  ,  ,  ,  ,  ,  ,  ,  ,  ,  ,  ,  ,  ,  ,  ,  ,  ,  ,  ,  ,  ,  ,  ,  ,  , 0=0+0:0:0:0:0
F mixolydian (1b),  ,  ,  ,  ,  ,  ,  ,  ,  ,  ,  ,  ,  ,  ,  ,  ,  ,  ,  ,  ,  ,  ,  ,  ,  ,  ,  ,  ,  ,  ,  ,  ,  ,  ,  ,  ,  ,  ,  ,  ,  ,  ,  ,  ,  ,  ,  ,  ,  ,  ,  ,  ,  ,  ,  ,  ,  ,  ,  ,  ,  ,  ,  ,  ,  ,  ,  ,  ,  ,  ,  ,  ,  , 0=0+0:0:0:0:0
G mixolydian (1#),  ,  ,  ,  ,  ,  ,  ,  ,  ,  ,  ,  ,  ,  ,  ,  ,  ,  ,  ,  ,  ,  ,  ,  ,  ,  ,  ,  ,  ,  ,  ,  ,  ,  ,  ,  ,  ,  ,  ,  ,  ,  ,  ,  ,  ,  ,  ,  ,  ,  ,  ,  ,  ,  ,  ,  ,  ,  ,  ,  ,  ,  ,  ,  ,  ,  ,  ,  ,  ,  ,  ,  ,  , 0=0+0:0:0:0:0
F aeolian (1b),  ,  ,  ,  ,  ,  ,  ,  ,  ,  ,  ,  ,  ,  ,  ,  ,  ,  ,  ,  ,  ,  ,  ,  ,  ,  ,  ,  ,  ,  ,  ,  ,  ,  ,  ,  ,  ,  ,  ,  ,  ,  ,  ,  ,  ,  ,  ,  ,  ,  ,  ,  ,  ,  ,  ,  ,  ,  ,  ,  ,  ,  ,  ,  ,  ,  ,  ,  ,  ,  ,  ,  ,  , 0=0+0:0:0:0:0
G aeolian (1#),  ,  ,  ,  ,  ,  ,  ,  ,  ,  ,  ,  ,  ,  ,  ,  ,  ,  ,  ,  ,  ,  ,  ,  ,  ,  ,  ,  ,  ,  ,  ,  ,  ,  ,  ,  ,  ,  ,  ,  ,  ,  ,  ,  ,  ,  ,  ,  ,  ,  ,  ,  ,  ,  ,  ,  ,  ,  ,  ,  ,  ,  ,  ,  ,  ,  ,  ,  ,  ,  ,  ,  ,  , 0=0+0:0:0:0:0
F locrian (1b),  ,  ,  ,  ,  ,  ,  ,  ,  ,  ,  ,  ,  ,  ,  ,  ,  ,  ,  ,  ,  ,  ,  ,  ,  ,  ,  ,  ,  ,  ,  ,  ,  ,  ,  ,  ,  ,  ,  ,  ,  ,  ,  ,  ,  ,  ,  ,  ,  ,  ,  ,  ,  ,  ,  ,  ,  ,  ,  ,  ,  ,  ,  ,  ,  ,  ,  ,  ,  ,  ,  ,  ,  , 0=0+0:0:0:0:0
G locrian (1#),  ,  ,  ,  ,  ,  ,  ,  ,  ,  ,  ,  ,  ,  ,  ,  ,  ,  ,  ,  ,  ,  ,  ,  ,  ,  ,  ,  ,  ,  ,  ,  ,  ,  ,  ,  ,  ,  ,  ,  ,  ,  ,  ,  ,  ,  ,  ,  ,  ,  ,  ,  ,  ,  ,  ,  ,  ,  ,  ,  ,  ,  ,  ,  ,  ,  ,  ,  ,  ,  ,  ,  ,  , 0=0+0:0:0:0:0
Bb major (2b), 0=0+0:0:0:0:0, 3=1+2:1:0:0:1, 4=2+2:0:0:0:0, 3=2+1:0:0:0:0, 0=0+0:0:0:0:0, 0=0+0:0:0:0:0, 2=1+1:0:0:0:0, 1=0+1:0:0:0:0, 0=0+0:0:0:0:0, 0=0+0:0:0:0:0, 0=0+0:0:0:0:0, 4=2+2:0:0:0:0, 3=1+2:2:0:0:2, 3=1+2:1:0:0:1, 4=2+2:0:0:0:0, 3=2+1:0:0:0:0, 0=0+0:0:0:0:0, 0=0+0:0:0:0:0, 2=1+1:0:0:0:0, 1=0+1:0:0:0:0, 0=0+0:0:0:0:0, 0=0+0:0:0:0:0, 0=0+0:0:0:0:0, 4=2+2:0:0:0:0, 3=1+2:2:0:0:2, 0=0+0:0:0:0:0, 2=0+2:0:0:0:0, 1=1+0:0:0:0:0, 2=1+1:0:0:0:0, 2=2+0:0:0:0:0, 2=1+1:0:0:0:1, 6=2+4:3:1:0:3, 6=3+3:1:0:0:2, 4=2+2:1:1:0:2, 5=3+2:0:0:0:0, 3=2+1:0:0:0:0, 0=0+0:0:0:0:0, 4=2+2:0:0:0:0, 3=2+1:0:0:0:0, 1=1+0:0:0:0:0, 5=3+2:0:0:0:1, 2=1+1:0:0:0:0, 6=3+3:0:0:0:0, 5=2+3:0:0:0:0, 10=6+4:0:1:0:1, 2=1+1:1:0:0:1, 2=1+1:0:0:0:0, 2=1+1:1:0:0:1, 1=0+1:0:0:0:0, 2=1+1:1:0:0:1, 0=0+0:0:0:0:0, 0=0+0:0:0:0:0, 1=1+0:0:0:0:0, 1=1+0:0:0:0:0, 0=0+0:0:0:0:0, 0=0+0:0:0:0:0, 5=2+3:0:0:0:1, 2=1+1:1:0:0:1, 4=2+2:0:0:0:0, 0=0+0:0:0:0:0, 0=0+0:0:0:0:0, 1=1+0:0:0:0:0, 3=2+1:0:0:0:0, 2=1+1:1:0:0:1, 5=3+2:0:0:0:0, 1=1+0:0:0:0:0, 3=1+2:0:0:0:0, 0=0+0:0:0:0:0, 8=3+5:1:0:0:2, 0=0+0:0:0:0:0, 5=3+2:0:0:0:0, 2=1+1:1:0:0:1, 5=2+3:0:0:0:0, 166=84+82:18:3:0:25
D major (2#), 1=1+0:0:0:0:0, 3=2+1:0:0:0:0, 4=2+2:2:0:0:0, 8=6+2:0:0:0:0, 2=2+0:0:0:0:0, 3=3+0:0:0:0:0, 4=3+1:1:0:0:1, 2=2+0:0:0:0:0, 6=3+3:0:0:0:0, 1=1+0:0:0:0:0, 1=1+0:0:0:0:0, 5=4+1:0:0:0:0, 5=3+2:0:0:0:2, 3=2+1:0:0:0:0, 4=2+2:2:0:0:0, 8=6+2:0:0:0:0, 2=2+0:0:0:0:0, 3=3+0:0:0:0:0, 4=3+1:1:0:0:1, 2=2+0:0:0:0:0, 6=3+3:0:0:0:0, 1=1+0:0:0:0:0, 1=1+0:0:0:0:0, 5=4+1:0:0:0:0, 5=3+2:2:0:0:2, 3=3+0:0:0:0:0, 3=3+0:0:0:0:0, 5=3+2:0:0:0:0, 4=3+1:0:0:0:0, 8=6+2:0:0:0:0, 1=1+0:0:0:0:0, 6=3+3:0:0:0:0, 8=5+3:0:0:0:1, 7=5+2:0:0:0:0, 7=5+2:1:1:0:2, 5=4+1:0:0:0:0, 2=2+0:0:0:0:0, 6=3+3:0:0:0:3, 4=3+1:1:0:0:1, 5=4+1:0:0:0:0, 4=2+2:1:0:0:1, 6=4+2:0:0:0:0, 7=6+1:0:0:0:0, 6=5+1:1:0:0:1, 11=7+4:1:1:0:2, 3=3+0:0:0:0:0, 4=3+1:0:0:0:0, 3=2+1:0:0:0:0, 1=1+0:0:0:0:0, 5=4+1:0:0:0:1, 4=4+0:0:0:0:0, 2=2+0:0:0:0:0, 3=2+1:0:0:0:0, 6=5+1:0:0:0:0, 2=2+0:0:0:0:0, 1=1+0:0:0:0:0, 9=5+4:0:0:0:0, 3=3+0:0:0:0:0, 5=4+1:0:0:0:0, 6=4+2:0:0:0:0, 1=1+0:0:0:0:0, 4=3+1:0:0:0:0, 4=4+0:0:0:0:0, 4=3+1:0:0:0:0, 10=6+4:0:0:0:0, 4=3+1:1:0:0:1, 4=2+2:2:0:0:2, 3=3+0:0:0:0:0, 5=3+2:0:0:0:1, 3=3+0:0:0:0:0, 5=3+2:1:1:0:2, 4=3+1:1:0:0:1, 8=5+3:1:0:0:1, 313=229+84:19:3:0:26
G minor (2b), 0=0+0:0:0:0:0, 3=1+2:1:0:0:1, 6=2+4:0:0:0:0, 3=2+1:0:0:0:0, 0=0+0:0:0:0:0, 0=0+0:0:0:0:0, 2=1+1:0:0:0:0, 1=0+1:0:0:0:0, 1=0+1:0:0:0:0, 0=0+0:0:0:0:0, 0=0+0:0:0:0:0, 4=2+2:0:0:0:0, 3=1+2:2:0:0:2, 3=1+2:1:0:0:1, 6=2+4:0:0:0:0, 3=2+1:0:0:0:0, 0=0+0:0:0:0:0, 0=0+0:0:0:0:0, 2=1+1:0:0:0:0, 1=0+1:0:0:0:0, 1=0+1:0:0:0:0, 0=0+0:0:0:0:0, 0=0+0:0:0:0:0, 4=2+2:0:0:0:0, 3=1+2:2:0:0:2, 0=0+0:0:0:0:0, 0=0+0:0:0:0:0, 1=1+0:0:0:0:0, 2=1+1:0:0:0:0, 3=2+1:0:0:0:0, 2=1+1:0:0:0:0, 6=3+3:0:0:0:0, 6=3+3:0:0:0:1, 4=2+2:1:1:0:2, 5=3+2:0:0:0:0, 3=2+1:0:0:0:0, 0=0+0:0:0:0:0, 4=2+2:0:0:0:0, 2=1+1:1:0:0:1, 1=1+0:0:0:0:0, 5=3+2:0:0:0:0, 2=1+1:0:0:0:0, 6=3+3:0:0:0:0, 5=2+3:0:0:0:0, 12=6+6:0:1:0:1, 1=1+0:0:0:0:0, 2=1+1:0:0:0:0, 2=1+1:1:0:0:1, 1=0+1:0:0:0:0, 2=1+1:1:0:0:1, 0=0+0:0:0:0:0, 0=0+0:0:0:0:0, 1=1+0:0:0:0:0, 1=1+0:0:0:0:0, 0=0+0:0:0:0:0, 0=0+0:0:0:0:0, 5=2+3:0:0:0:0, 1=1+0:0:0:0:0, 4=2+2:0:0:0:0, 0=0+0:0:0:0:0, 0=0+0:0:0:0:0, 1=1+0:0:0:0:0, 3=2+1:0:0:0:0, 2=1+1:1:0:0:1, 5=3+2:0:0:0:0, 2=1+1:0:0:0:0, 3=1+2:0:0:0:0, 0=0+0:0:0:0:0, 8=3+5:1:0:0:1, 0=0+0:0:0:0:0, 5=3+2:0:0:0:0, 2=1+1:1:0:0:1, 5=2+3:0:0:0:0, 171=84+87:13:2:0:16
B minor (2#), 1=1+0:0:0:0:0, 3=2+1:1:0:0:1, 5=3+2:2:0:0:2, 6=6+0:0:0:0:0, 2=2+0:0:0:0:0, 3=3+0:0:0:0:0, 6=3+3:1:0:0:2, 2=2+0:0:0:0:0, 6=3+3:0:0:0:0, 1=1+0:0:0:0:0, 1=1+0:0:0:0:0, 5=4+1:0:0:0:0, 5=3+2:2:0:0:2, 3=2+1:1:0:0:1, 5=3+2:2:0:0:2, 6=6+0:0:0:0:0, 2=2+0:0:0:0:0, 3=3+0:0:0:0:0, 6=3+3:1:0:0:2, 2=2+0:0:0:0:0, 6=3+3:0:0:0:0, 1=1+0:0:0:0:0, 1=1+0:0:0:0:0, 5=4+1:0:0:0:0, 5=3+2:2:0:0:2, 3=3+0:0:0:0:0, 5=3+2:0:0:0:0, 3=3+0:0:0:0:0, 3=3+0:0:0:0:0, 6=6+0:0:0:0:0, 2=1+1:0:0:0:1, 6=3+3:0:0:0:0, 8=5+3:0:0:0:1, 7=5+2:0:0:0:0, 7=4+3:0:0:0:2, 5=4+1:0:0:0:0, 2=2+0:0:0:0:0, 6=3+3:0:0:0:3, 5=3+2:1:0:0:1, 5=4+1:0:0:0:0, 4=2+2:1:0:0:2, 5=4+1:0:0:0:1, 7=6+1:0:0:0:1, 9=5+4:1:0:0:3, 11=7+4:1:1:0:2, 3=3+0:0:0:0:0, 4=3+1:0:0:0:0, 3=2+1:0:0:0:0, 1=1+0:0:0:0:0, 5=4+1:1:0:0:1, 5=4+1:0:0:0:0, 2=2+0:0:0:0:0, 3=2+1:0:0:0:0, 5=5+0:0:0:0:0, 2=2+0:0:0:0:0, 1=1+0:0:0:0:0, 9=5+4:0:0:0:0, 3=3+0:0:0:0:0, 5=4+1:0:0:0:0, 6=4+2:0:0:0:0, 1=1+0:0:0:0:0, 4=3+1:0:0:0:0, 4=4+0:0:0:0:0, 4=3+1:0:0:0:0, 7=6+1:1:0:0:1, 4=4+0:0:0:0:0, 3=3+0:0:0:0:0, 3=3+0:0:0:0:0, 4=3+1:0:0:0:1, 3=3+0:0:0:0:0, 5=3+2:1:1:0:2, 4=3+1:1:0:0:1, 7=5+2:1:0:0:2, 310=232+78:21:2:0:39
G minor mel (2b),  ,  ,  ,  ,  ,  ,  ,  ,  ,  ,  ,  ,  ,  ,  ,  ,  ,  ,  ,  ,  ,  ,  ,  ,  ,  ,  ,  ,  ,  ,  ,  ,  ,  ,  ,  ,  ,  ,  ,  ,  ,  ,  ,  ,  ,  ,  ,  ,  ,  ,  ,  ,  ,  ,  ,  ,  ,  ,  ,  ,  ,  ,  ,  ,  ,  ,  ,  ,  ,  ,  ,  ,  , 0=0+0:0:0:0:0
B minor mel (2#),  ,  ,  ,  ,  ,  ,  ,  ,  ,  ,  ,  ,  ,  ,  ,  ,  ,  ,  ,  ,  ,  ,  ,  ,  ,  ,  ,  ,  ,  ,  ,  ,  ,  ,  ,  ,  ,  ,  ,  ,  ,  ,  ,  ,  ,  ,  ,  ,  ,  ,  ,  ,  ,  ,  ,  ,  ,  ,  ,  ,  ,  ,  ,  ,  ,  ,  ,  ,  ,  ,  ,  ,  , 0=0+0:0:0:0:0
Bb major blues (2b),  ,  ,  ,  ,  ,  ,  ,  ,  ,  ,  ,  ,  ,  ,  ,  ,  ,  ,  ,  ,  ,  ,  ,  ,  ,  ,  ,  ,  ,  ,  ,  ,  ,  ,  ,  ,  ,  ,  ,  ,  ,  ,  ,  ,  ,  ,  ,  ,  ,  ,  ,  ,  ,  ,  ,  ,  ,  ,  ,  ,  ,  ,  ,  ,  ,  ,  ,  ,  ,  ,  ,  ,  , 0=0+0:0:0:0:0
D major blues (2#),  ,  ,  ,  ,  ,  ,  ,  ,  ,  ,  ,  ,  ,  ,  ,  ,  ,  ,  ,  ,  ,  ,  ,  ,  ,  ,  ,  ,  ,  ,  ,  ,  ,  ,  ,  ,  ,  ,  ,  ,  ,  ,  ,  ,  ,  ,  ,  ,  ,  ,  ,  ,  ,  ,  ,  ,  ,  ,  ,  ,  ,  ,  ,  ,  ,  ,  ,  ,  ,  ,  ,  ,  , 0=0+0:0:0:0:0
G minor blues (2b),  ,  ,  ,  ,  ,  ,  ,  ,  ,  ,  ,  ,  ,  ,  ,  ,  ,  ,  ,  ,  ,  ,  ,  ,  ,  ,  ,  ,  ,  ,  ,  ,  ,  ,  ,  ,  ,  ,  ,  ,  ,  ,  ,  ,  ,  ,  ,  ,  ,  ,  ,  ,  ,  ,  ,  ,  ,  ,  ,  ,  ,  ,  ,  ,  ,  ,  ,  ,  ,  ,  ,  ,  , 0=0+0:0:0:0:0
B minor blues (2#),  ,  ,  ,  ,  ,  ,  ,  ,  ,  ,  ,  ,  ,  ,  ,  ,  ,  ,  ,  ,  ,  ,  ,  ,  ,  ,  ,  ,  ,  ,  ,  ,  ,  ,  ,  ,  ,  ,  ,  ,  ,  ,  ,  ,  ,  ,  ,  ,  ,  ,  ,  ,  ,  ,  ,  ,  ,  ,  ,  ,  ,  ,  ,  ,  ,  ,  ,  ,  ,  ,  ,  ,  , 0=0+0:0:0:0:0
Bb dorian (2b),  ,  ,  ,  ,  ,  ,  ,  ,  ,  ,  ,  ,  ,  ,  ,  ,  ,  ,  ,  ,  ,  ,  ,  ,  ,  ,  ,  ,  ,  ,  ,  ,  ,  ,  ,  ,  ,  ,  ,  ,  ,  ,  ,  ,  ,  ,  ,  ,  ,  ,  ,  ,  ,  ,  ,  ,  ,  ,  ,  ,  ,  ,  ,  ,  ,  ,  ,  ,  ,  ,  ,  ,  , 0=0+0:0:0:0:0
D dorian (2#),  ,  ,  ,  ,  ,  ,  ,  ,  ,  ,  ,  ,  ,  ,  ,  ,  ,  ,  ,  ,  ,  ,  ,  ,  ,  ,  ,  ,  ,  ,  ,  ,  ,  ,  ,  ,  ,  ,  ,  ,  ,  ,  ,  ,  ,  ,  ,  ,  ,  ,  ,  ,  ,  ,  ,  ,  ,  ,  ,  ,  ,  ,  ,  ,  ,  ,  ,  ,  ,  ,  ,  ,  , 0=0+0:0:0:0:0
Bb phrygian (2b),  ,  ,  ,  ,  ,  ,  ,  ,  ,  ,  ,  ,  ,  ,  ,  ,  ,  ,  ,  ,  ,  ,  ,  ,  ,  ,  ,  ,  ,  ,  ,  ,  ,  ,  ,  ,  ,  ,  ,  ,  ,  ,  ,  ,  ,  ,  ,  ,  ,  ,  ,  ,  ,  ,  ,  ,  ,  ,  ,  ,  ,  ,  ,  ,  ,  ,  ,  ,  ,  ,  ,  ,  , 0=0+0:0:0:0:0
D phrygian (2#),  ,  ,  ,  ,  ,  ,  ,  ,  ,  ,  ,  ,  ,  ,  ,  ,  ,  ,  ,  ,  ,  ,  ,  ,  ,  ,  ,  ,  ,  ,  ,  ,  ,  ,  ,  ,  ,  ,  ,  ,  ,  ,  ,  ,  ,  ,  ,  ,  ,  ,  ,  ,  ,  ,  ,  ,  ,  ,  ,  ,  ,  ,  ,  ,  ,  ,  ,  ,  ,  ,  ,  ,  , 0=0+0:0:0:0:0
Bb lydian (2b),  ,  ,  ,  ,  ,  ,  ,  ,  ,  ,  ,  ,  ,  ,  ,  ,  ,  ,  ,  ,  ,  ,  ,  ,  ,  ,  ,  ,  ,  ,  ,  ,  ,  ,  ,  ,  ,  ,  ,  ,  ,  ,  ,  ,  ,  ,  ,  ,  ,  ,  ,  ,  ,  ,  ,  ,  ,  ,  ,  ,  ,  ,  ,  ,  ,  ,  ,  ,  ,  ,  ,  ,  , 0=0+0:0:0:0:0
D lydian (2#),  ,  ,  ,  ,  ,  ,  ,  ,  ,  ,  ,  ,  ,  ,  ,  ,  ,  ,  ,  ,  ,  ,  ,  ,  ,  ,  ,  ,  ,  ,  ,  ,  ,  ,  ,  ,  ,  ,  ,  ,  ,  ,  ,  ,  ,  ,  ,  ,  ,  ,  ,  ,  ,  ,  ,  ,  ,  ,  ,  ,  ,  ,  ,  ,  ,  ,  ,  ,  ,  ,  ,  ,  , 0=0+0:0:0:0:0
Bb mixolydian (2b),  ,  ,  ,  ,  ,  ,  ,  ,  ,  ,  ,  ,  ,  ,  ,  ,  ,  ,  ,  ,  ,  ,  ,  ,  ,  ,  ,  ,  ,  ,  ,  ,  ,  ,  ,  ,  ,  ,  ,  ,  ,  ,  ,  ,  ,  ,  ,  ,  ,  ,  ,  ,  ,  ,  ,  ,  ,  ,  ,  ,  ,  ,  ,  ,  ,  ,  ,  ,  ,  ,  ,  ,  , 0=0+0:0:0:0:0
D mixolydian (2#),  ,  ,  ,  ,  ,  ,  ,  ,  ,  ,  ,  ,  ,  ,  ,  ,  ,  ,  ,  ,  ,  ,  ,  ,  ,  ,  ,  ,  ,  ,  ,  ,  ,  ,  ,  ,  ,  ,  ,  ,  ,  ,  ,  ,  ,  ,  ,  ,  ,  ,  ,  ,  ,  ,  ,  ,  ,  ,  ,  ,  ,  ,  ,  ,  ,  ,  ,  ,  ,  ,  ,  ,  , 0=0+0:0:0:0:0
Bb aeolian (2b),  ,  ,  ,  ,  ,  ,  ,  ,  ,  ,  ,  ,  ,  ,  ,  ,  ,  ,  ,  ,  ,  ,  ,  ,  ,  ,  ,  ,  ,  ,  ,  ,  ,  ,  ,  ,  ,  ,  ,  ,  ,  ,  ,  ,  ,  ,  ,  ,  ,  ,  ,  ,  ,  ,  ,  ,  ,  ,  ,  ,  ,  ,  ,  ,  ,  ,  ,  ,  ,  ,  ,  ,  , 0=0+0:0:0:0:0
D aeolian (2#),  ,  ,  ,  ,  ,  ,  ,  ,  ,  ,  ,  ,  ,  ,  ,  ,  ,  ,  ,  ,  ,  ,  ,  ,  ,  ,  ,  ,  ,  ,  ,  ,  ,  ,  ,  ,  ,  ,  ,  ,  ,  ,  ,  ,  ,  ,  ,  ,  ,  ,  ,  ,  ,  ,  ,  ,  ,  ,  ,  ,  ,  ,  ,  ,  ,  ,  ,  ,  ,  ,  ,  ,  , 0=0+0:0:0:0:0
Bb locrian (2b),  ,  ,  ,  ,  ,  ,  ,  ,  ,  ,  ,  ,  ,  ,  ,  ,  ,  ,  ,  ,  ,  ,  ,  ,  ,  ,  ,  ,  ,  ,  ,  ,  ,  ,  ,  ,  ,  ,  ,  ,  ,  ,  ,  ,  ,  ,  ,  ,  ,  ,  ,  ,  ,  ,  ,  ,  ,  ,  ,  ,  ,  ,  ,  ,  ,  ,  ,  ,  ,  ,  ,  ,  , 0=0+0:0:0:0:0
D locrian (2#),  ,  ,  ,  ,  ,  ,  ,  ,  ,  ,  ,  ,  ,  ,  ,  ,  ,  ,  ,  ,  ,  ,  ,  ,  ,  ,  ,  ,  ,  ,  ,  ,  ,  ,  ,  ,  ,  ,  ,  ,  ,  ,  ,  ,  ,  ,  ,  ,  ,  ,  ,  ,  ,  ,  ,  ,  ,  ,  ,  ,  ,  ,  ,  ,  ,  ,  ,  ,  ,  ,  ,  ,  , 0=0+0:0:0:0:0
Eb major (3b), 0=0+0:0:0:0:0, 4=2+2:1:0:0:1, 4=2+2:0:0:0:0, 2=1+1:0:0:0:0, 0=0+0:0:0:0:0, 0=0+0:0:0:0:0, 5=2+3:0:0:0:1, 2=1+1:0:0:0:0, 1=0+1:0:0:0:0, 0=0+0:0:0:0:0, 0=0+0:0:0:0:0, 3=1+2:0:0:0:0, 3=1+2:0:0:0:0, 4=2+2:1:0:0:1, 4=2+2:0:0:0:0, 2=1+1:0:0:0:0, 0=0+0:0:0:0:0, 0=0+0:0:0:0:0, 5=2+3:0:0:0:1, 2=1+1:0:0:0:0, 1=0+1:0:0:0:0, 0=0+0:0:0:0:0, 0=0+0:0:0:0:0, 3=1+2:0:0:0:0, 3=1+2:0:0:0:0, 0=0+0:0:0:0:0, 2=0+2:0:0:0:0, 0=0+0:0:0:0:0, 2=1+1:0:0:0:0, 1=1+0:0:0:0:0, 2=1+1:0:0:0:1, 6=2+4:3:1:0:3, 7=4+3:1:0:0:2, 5=3+2:1:1:0:2, 6=4+2:0:0:0:0, 3=2+1:0:0:0:0, 0=0+0:0:0:0:0, 3=1+2:0:0:0:0, 3=2+1:0:0:0:0, 0=0+0:0:0:0:0, 4=2+2:0:0:0:1, 3=2+1:0:0:0:1, 3=2+1:0:0:0:1, 6=3+3:0:0:0:0, 13=7+6:0:1:0:0, 2=1+1:1:0:0:1, 3=2+1:0:0:0:0, 2=1+1:1:0:0:1, 2=1+1:0:0:0:0, 2=1+1:1:0:0:1, 1=0+1:0:0:0:0, 0=0+0:0:0:0:0, 0=0+0:0:0:0:0, 0=0+0:0:0:0:0, 0=0+0:0:0:0:0, 0=0+0:0:0:0:0, 6=3+3:0:0:0:1, 2=1+1:1:0:0:1, 5=3+2:0:0:0:0, 1=1+0:0:0:0:0, 0=0+0:0:0:0:0, 0=0+0:0:0:0:0, 1=1+0:0:0:0:0, 2=1+1:1:0:0:1, 4=2+2:0:0:0:0, 1=1+0:0:0:0:0, 1=1+0:0:0:0:0, 1=1+0:0:0:0:0, 10=5+5:1:0:0:2, 0=0+0:0:0:0:0, 7=5+2:0:0:0:0, 3=2+1:1:0:0:1, 5=3+2:0:0:0:1, 178=93+85:14:3:0:25
A major (3#), 1=1+0:0:0:0:0, 4=3+1:0:0:0:0, 4=2+2:2:0:0:0, 10=7+3:0:0:0:0, 3=3+0:0:0:0:0, 3=3+0:0:0:0:0, 5=3+2:1:0:0:1, 2=2+0:0:0:0:0, 6=3+3:0:0:0:0, 2=2+0:0:0:0:0, 2=2+0:0:0:0:0, 4=3+1:0:0:0:1, 4=2+2:0:0:0:2, 4=3+1:0:0:0:0, 4=2+2:2:0:0:0, 10=7+3:0:0:0:0, 3=3+0:0:0:0:0, 3=3+0:0:0:0:0, 5=3+2:1:0:0:1, 2=2+0:0:0:0:0, 6=3+3:0:0:0:0, 2=2+0:0:0:0:0, 2=2+0:0:0:0:0, 4=3+1:1:0:0:1, 4=2+2:2:0:0:2, 4=4+0:0:0:0:0, 7=4+3:0:0:0:0, 4=4+0:0:0:0:0, 6=4+2:0:0:0:0, 7=5+2:1:0:0:1, 2=1+1:0:0:0:0, 6=3+3:0:0:0:0, 9=6+3:0:0:0:1, 9=7+2:0:0:0:0, 8=5+3:0:0:0:2, 5=4+1:0:0:0:0, 2=2+0:0:0:0:0, 7=4+3:0:0:0:3, 7=4+3:1:0:0:1, 5=5+0:0:0:0:0, 4=2+2:2:0:0:0, 5=4+1:0:0:0:1, 13=7+6:0:0:0:0, 10=7+3:1:0:0:1, 13=8+5:0:0:0:3, 7=4+3:1:0:0:2, 4=3+1:0:0:0:0, 3=2+1:0:0:0:0, 1=1+0:0:0:0:0, 5=4+1:0:0:0:1, 5=4+1:0:0:0:0, 2=2+0:0:0:0:0, 2=1+1:1:0:0:1, 7=7+0:0:0:0:0, 3=3+0:0:0:0:0, 1=1+0:0:0:0:0, 10=6+4:0:0:0:0, 4=4+0:0:0:0:0, 6=5+1:0:0:0:0, 6=4+2:0:0:0:0, 1=1+0:0:0:0:0, 3=2+1:1:0:0:1, 4=4+0:0:0:0:0, 4=3+1:0:0:0:0, 12=8+4:1:0:0:1, 4=4+0:0:0:0:0, 3=3+0:0:0:0:0, 3=3+0:0:0:0:0, 3=2+1:1:0:0:0, 4=4+0:0:0:0:0, 6=3+3:0:0:0:2, 5=4+1:1:0:0:1, 8=6+2:1:0:0:2, 358=259+99:21:0:0:32
C minor (3b), 0=0+0:0:0:0:0, 4=2+2:1:0:0:1, 4=2+2:0:0:0:0, 2=1+1:0:0:0:0, 0=0+0:0:0:0:0, 0=0+0:0:0:0:0, 5=2+3:0:0:0:0, 2=1+1:0:0:0:0, 1=0+1:0:0:0:0, 0=0+0:0:0:0:0, 0=0+0:0:0:0:0, 3=1+2:0:0:0:0, 3=1+2:0:0:0:0, 4=2+2:1:0:0:1, 4=2+2:0:0:0:0, 2=1+1:0:0:0:0, 0=0+0:0:0:0:0, 0=0+0:0:0:0:0, 5=2+3:0:0:0:0, 2=1+1:0:0:0:0, 1=0+1:0:0:0:0, 0=0+0:0:0:0:0, 0=0+0:0:0:0:0, 3=1+2:0:0:0:0, 3=1+2:0:0:0:0, 0=0+0:0:0:0:0, 2=0+2:0:0:0:0, 0=0+0:0:0:0:0, 2=1+1:0:0:0:0, 1=1+0:0:0:0:0, 2=1+1:0:0:0:1, 6=2+4:3:1:0:4, 7=4+3:1:0:0:2, 5=3+2:1:1:0:2, 6=4+2:0:0:0:0, 3=2+1:0:0:0:0, 0=0+0:0:0:0:0, 3=1+2:0:0:0:0, 3=2+1:0:0:0:0, 0=0+0:0:0:0:0, 4=2+2:0:0:0:0, 3=2+1:0:0:0:0, 3=2+1:0:0:0:0, 6=3+3:0:0:0:0, 13=7+6:0:1:0:1, 1=1+0:0:0:0:0, 3=2+1:0:0:0:0, 2=1+1:1:0:0:1, 2=1+1:0:0:0:0, 2=1+1:1:0:0:1, 0=0+0:0:0:0:0, 0=0+0:0:0:0:0, 0=0+0:0:0:0:0, 0=0+0:0:0:0:0, 0=0+0:0:0:0:0, 0=0+0:0:0:0:0, 5=3+2:0:0:0:0, 1=1+0:0:0:0:0, 5=3+2:0:0:0:0, 1=1+0:0:0:0:0, 0=0+0:0:0:0:0, 0=0+0:0:0:0:0, 2=1+1:0:0:0:0, 2=1+1:1:0:0:1, 4=2+2:0:0:0:0, 1=1+0:0:0:0:0, 1=1+0:0:0:0:0, 1=1+0:0:0:0:0, 10=5+5:1:0:0:1, 0=0+0:0:0:0:0, 7=5+2:0:0:0:0, 3=2+1:1:0:0:1, 6=3+3:0:0:0:0, 176=93+83:12:3:0:17
F# minor (3#), 1=1+0:0:0:0:0, 5=3+2:1:0:0:1, 5=3+2:2:0:0:2, 8=7+1:0:0:0:0, 3=3+0:0:0:0:0, 3=3+0:0:0:0:0, 6=3+3:1:0:0:2, 3=2+1:0:0:0:0, 3=3+0:0:0:0:0, 2=2+0:0:0:0:0, 2=2+0:0:0:0:0, 6=3+3:1:0:0:1, 5=4+1:0:0:0:0, 5=3+2:1:0:0:1, 5=3+2:2:0:0:2, 8=7+1:0:0:0:0, 3=3+0:0:0:0:0, 3=3+0:0:0:0:0, 6=3+3:1:0:0:2, 3=2+1:0:0:0:0, 3=3+0:0:0:0:0, 2=2+0:0:0:0:0, 2=2+0:0:0:0:0, 6=3+3:1:0:0:1, 5=4+1:0:0:0:0, 4=4+0:0:0:0:0, 6=4+2:0:0:0:0, 4=4+0:0:0:0:0, 5=4+1:0:0:0:0, 6=6+0:0:0:0:0, 2=1+1:0:0:0:1, 7=3+4:3:0:0:4, 9=6+3:1:0:0:2, 10=7+3:1:0:0:2, 10=6+4:1:1:0:1, 5=4+1:0:0:0:0, 2=2+0:0:0:0:0, 6=4+2:2:0:0:2, 6=4+2:1:0:0:1, 5=5+0:0:0:0:0, 5=3+2:1:0:0:2, 5=4+1:0:0:0:1, 8=7+1:0:0:0:1, 10=7+3:1:0:0:1, 13=8+5:0:0:0:3, 5=4+1:1:0:0:1, 4=3+1:0:0:0:1, 3=2+1:1:0:0:1, 2=1+1:0:0:0:0, 5=4+1:1:0:0:1, 5=4+1:0:0:0:0, 2=2+0:0:0:0:0, 2=2+0:0:0:0:0, 7=7+0:0:0:0:0, 3=3+0:0:0:0:0, 1=1+0:0:0:0:0, 10=6+4:0:0:0:0, 5=4+1:1:0:0:1, 8=5+3:1:0:0:2, 5=4+1:0:0:0:0, 1=1+0:0:0:0:0, 3=3+0:0:0:0:0, 4=4+0:0:0:0:0, 4=3+1:1:0:0:1, 10=8+2:1:0:0:1, 4=4+0:0:0:0:0, 3=3+0:0:0:0:0, 4=3+1:0:0:0:0, 8=3+5:1:0:0:2, 4=4+0:0:0:0:0, 7=3+4:1:1:0:1, 5=4+1:1:0:0:1, 8=6+2:1:0:0:2, 363=271+92:32:2:0:48
C minor mel (3b),  ,  ,  ,  ,  ,  ,  ,  ,  ,  ,  ,  ,  ,  ,  ,  ,  ,  ,  ,  ,  ,  ,  ,  ,  ,  ,  ,  ,  ,  ,  ,  ,  ,  ,  ,  ,  ,  ,  ,  ,  ,  ,  ,  ,  ,  ,  ,  ,  ,  ,  ,  ,  ,  ,  ,  ,  ,  ,  ,  ,  ,  ,  ,  ,  ,  ,  ,  ,  ,  ,  ,  ,  , 0=0+0:0:0:0:0
F# minor mel (3#),  ,  ,  ,  ,  ,  ,  ,  ,  ,  ,  ,  ,  ,  ,  ,  ,  ,  ,  ,  ,  ,  ,  ,  ,  ,  ,  ,  ,  ,  ,  ,  ,  ,  ,  ,  ,  ,  ,  ,  ,  ,  ,  ,  ,  ,  ,  ,  ,  ,  ,  ,  ,  ,  ,  ,  ,  ,  ,  ,  ,  ,  ,  ,  ,  ,  ,  ,  ,  ,  ,  ,  ,  , 0=0+0:0:0:0:0
Eb major blues (3b),  ,  ,  ,  ,  ,  ,  ,  ,  ,  ,  ,  ,  ,  ,  ,  ,  ,  ,  ,  ,  ,  ,  ,  ,  ,  ,  ,  ,  ,  ,  ,  ,  ,  ,  ,  ,  ,  ,  ,  ,  ,  ,  ,  ,  ,  ,  ,  ,  ,  ,  ,  ,  ,  ,  ,  ,  ,  ,  ,  ,  ,  ,  ,  ,  ,  ,  ,  ,  ,  ,  ,  ,  , 0=0+0:0:0:0:0
A major blues (3#),  ,  ,  ,  ,  ,  ,  ,  ,  ,  ,  ,  ,  ,  ,  ,  ,  ,  ,  ,  ,  ,  ,  ,  ,  ,  ,  ,  ,  ,  ,  ,  ,  ,  ,  ,  ,  ,  ,  ,  ,  ,  ,  ,  ,  ,  ,  ,  ,  ,  ,  ,  ,  ,  ,  ,  ,  ,  ,  ,  ,  ,  ,  ,  ,  ,  ,  ,  ,  ,  ,  ,  ,  , 0=0+0:0:0:0:0
C minor blues (3b),  ,  ,  ,  ,  ,  ,  ,  ,  ,  ,  ,  ,  ,  ,  ,  ,  ,  ,  ,  ,  ,  ,  ,  ,  ,  ,  ,  ,  ,  ,  ,  ,  ,  ,  ,  ,  ,  ,  ,  ,  ,  ,  ,  ,  ,  ,  ,  ,  ,  ,  ,  ,  ,  ,  ,  ,  ,  ,  ,  ,  ,  ,  ,  ,  ,  ,  ,  ,  ,  ,  ,  ,  , 0=0+0:0:0:0:0
F# minor blues (3#),  ,  ,  ,  ,  ,  ,  ,  ,  ,  ,  ,  ,  ,  ,  ,  ,  ,  ,  ,  ,  ,  ,  ,  ,  ,  ,  ,  ,  ,  ,  ,  ,  ,  ,  ,  ,  ,  ,  ,  ,  ,  ,  ,  ,  ,  ,  ,  ,  ,  ,  ,  ,  ,  ,  ,  ,  ,  ,  ,  ,  ,  ,  ,  ,  ,  ,  ,  ,  ,  ,  ,  ,  , 0=0+0:0:0:0:0
Eb dorian (3b),  ,  ,  ,  ,  ,  ,  ,  ,  ,  ,  ,  ,  ,  ,  ,  ,  ,  ,  ,  ,  ,  ,  ,  ,  ,  ,  ,  ,  ,  ,  ,  ,  ,  ,  ,  ,  ,  ,  ,  ,  ,  ,  ,  ,  ,  ,  ,  ,  ,  ,  ,  ,  ,  ,  ,  ,  ,  ,  ,  ,  ,  ,  ,  ,  ,  ,  ,  ,  ,  ,  ,  ,  , 0=0+0:0:0:0:0
A dorian (3#),  ,  ,  ,  ,  ,  ,  ,  ,  ,  ,  ,  ,  ,  ,  ,  ,  ,  ,  ,  ,  ,  ,  ,  ,  ,  ,  ,  ,  ,  ,  ,  ,  ,  ,  ,  ,  ,  ,  ,  ,  ,  ,  ,  ,  ,  ,  ,  ,  ,  ,  ,  ,  ,  ,  ,  ,  ,  ,  ,  ,  ,  ,  ,  ,  ,  ,  ,  ,  ,  ,  ,  ,  , 0=0+0:0:0:0:0
Eb phrygian (3b),  ,  ,  ,  ,  ,  ,  ,  ,  ,  ,  ,  ,  ,  ,  ,  ,  ,  ,  ,  ,  ,  ,  ,  ,  ,  ,  ,  ,  ,  ,  ,  ,  ,  ,  ,  ,  ,  ,  ,  ,  ,  ,  ,  ,  ,  ,  ,  ,  ,  ,  ,  ,  ,  ,  ,  ,  ,  ,  ,  ,  ,  ,  ,  ,  ,  ,  ,  ,  ,  ,  ,  ,  , 0=0+0:0:0:0:0
A phrygian (3#),  ,  ,  ,  ,  ,  ,  ,  ,  ,  ,  ,  ,  ,  ,  ,  ,  ,  ,  ,  ,  ,  ,  ,  ,  ,  ,  ,  ,  ,  ,  ,  ,  ,  ,  ,  ,  ,  ,  ,  ,  ,  ,  ,  ,  ,  ,  ,  ,  ,  ,  ,  ,  ,  ,  ,  ,  ,  ,  ,  ,  ,  ,  ,  ,  ,  ,  ,  ,  ,  ,  ,  ,  , 0=0+0:0:0:0:0
Eb lydian (3b),  ,  ,  ,  ,  ,  ,  ,  ,  ,  ,  ,  ,  ,  ,  ,  ,  ,  ,  ,  ,  ,  ,  ,  ,  ,  ,  ,  ,  ,  ,  ,  ,  ,  ,  ,  ,  ,  ,  ,  ,  ,  ,  ,  ,  ,  ,  ,  ,  ,  ,  ,  ,  ,  ,  ,  ,  ,  ,  ,  ,  ,  ,  ,  ,  ,  ,  ,  ,  ,  ,  ,  ,  , 0=0+0:0:0:0:0
A lydian (3#),  ,  ,  ,  ,  ,  ,  ,  ,  ,  ,  ,  ,  ,  ,  ,  ,  ,  ,  ,  ,  ,  ,  ,  ,  ,  ,  ,  ,  ,  ,  ,  ,  ,  ,  ,  ,  ,  ,  ,  ,  ,  ,  ,  ,  ,  ,  ,  ,  ,  ,  ,  ,  ,  ,  ,  ,  ,  ,  ,  ,  ,  ,  ,  ,  ,  ,  ,  ,  ,  ,  ,  ,  , 0=0+0:0:0:0:0
Eb mixolydian (3b),  ,  ,  ,  ,  ,  ,  ,  ,  ,  ,  ,  ,  ,  ,  ,  ,  ,  ,  ,  ,  ,  ,  ,  ,  ,  ,  ,  ,  ,  ,  ,  ,  ,  ,  ,  ,  ,  ,  ,  ,  ,  ,  ,  ,  ,  ,  ,  ,  ,  ,  ,  ,  ,  ,  ,  ,  ,  ,  ,  ,  ,  ,  ,  ,  ,  ,  ,  ,  ,  ,  ,  ,  , 0=0+0:0:0:0:0
A mixolydian (3#),  ,  ,  ,  ,  ,  ,  ,  ,  ,  ,  ,  ,  ,  ,  ,  ,  ,  ,  ,  ,  ,  ,  ,  ,  ,  ,  ,  ,  ,  ,  ,  ,  ,  ,  ,  ,  ,  ,  ,  ,  ,  ,  ,  ,  ,  ,  ,  ,  ,  ,  ,  ,  ,  ,  ,  ,  ,  ,  ,  ,  ,  ,  ,  ,  ,  ,  ,  ,  ,  ,  ,  ,  , 0=0+0:0:0:0:0
Eb aeolian (3b),  ,  ,  ,  ,  ,  ,  ,  ,  ,  ,  ,  ,  ,  ,  ,  ,  ,  ,  ,  ,  ,  ,  ,  ,  ,  ,  ,  ,  ,  ,  ,  ,  ,  ,  ,  ,  ,  ,  ,  ,  ,  ,  ,  ,  ,  ,  ,  ,  ,  ,  ,  ,  ,  ,  ,  ,  ,  ,  ,  ,  ,  ,  ,  ,  ,  ,  ,  ,  ,  ,  ,  ,  , 0=0+0:0:0:0:0
A aeolian (3#),  ,  ,  ,  ,  ,  ,  ,  ,  ,  ,  ,  ,  ,  ,  ,  ,  ,  ,  ,  ,  ,  ,  ,  ,  ,  ,  ,  ,  ,  ,  ,  ,  ,  ,  ,  ,  ,  ,  ,  ,  ,  ,  ,  ,  ,  ,  ,  ,  ,  ,  ,  ,  ,  ,  ,  ,  ,  ,  ,  ,  ,  ,  ,  ,  ,  ,  ,  ,  ,  ,  ,  ,  , 0=0+0:0:0:0:0
Eb locrian (3b),  ,  ,  ,  ,  ,  ,  ,  ,  ,  ,  ,  ,  ,  ,  ,  ,  ,  ,  ,  ,  ,  ,  ,  ,  ,  ,  ,  ,  ,  ,  ,  ,  ,  ,  ,  ,  ,  ,  ,  ,  ,  ,  ,  ,  ,  ,  ,  ,  ,  ,  ,  ,  ,  ,  ,  ,  ,  ,  ,  ,  ,  ,  ,  ,  ,  ,  ,  ,  ,  ,  ,  ,  , 0=0+0:0:0:0:0
A locrian (3#),  ,  ,  ,  ,  ,  ,  ,  ,  ,  ,  ,  ,  ,  ,  ,  ,  ,  ,  ,  ,  ,  ,  ,  ,  ,  ,  ,  ,  ,  ,  ,  ,  ,  ,  ,  ,  ,  ,  ,  ,  ,  ,  ,  ,  ,  ,  ,  ,  ,  ,  ,  ,  ,  ,  ,  ,  ,  ,  ,  ,  ,  ,  ,  ,  ,  ,  ,  ,  ,  ,  ,  ,  , 0=0+0:0:0:0:0
Ab major (4b), 0=0+0:0:0:0:0, 5=3+2:1:0:0:1, 3=1+2:0:0:0:0, 1=0+1:0:0:0:0, 0=0+0:0:0:0:0, 0=0+0:0:0:0:0, 6=3+3:0:0:0:1, 2=1+1:0:0:0:0, 1=1+0:0:0:0:0, 1=1+0:0:0:0:0, 1=1+0:0:0:0:0, 4=2+2:0:0:0:0, 3=1+2:0:0:0:0, 5=3+2:1:0:0:1, 3=1+2:0:0:0:0, 1=0+1:0:0:0:0, 0=0+0:0:0:0:0, 0=0+0:0:0:0:0, 6=3+3:0:0:0:1, 2=1+1:0:0:0:0, 1=1+0:0:0:0:0, 1=1+0:0:0:0:0, 1=1+0:0:0:0:0, 4=2+2:0:0:0:0, 3=1+2:0:0:0:0, 0=0+0:0:0:0:0, 3=1+2:0:0:0:0, 0=0+0:0:0:0:0, 1=0+1:0:0:0:0, 0=0+0:0:0:0:0, 2=1+1:0:0:0:1, 9=3+6:0:0:0:0, 7=4+3:0:0:0:0, 5=3+2:1:1:0:2, 7=5+2:0:0:0:0, 2=1+1:0:0:0:0, 1=1+0:0:0:0:0, 2=0+2:0:0:0:0, 2=1+1:0:0:0:0, 1=1+0:0:0:0:0, 4=2+2:0:0:0:1, 2=1+1:0:0:0:1, 2=1+1:0:0:0:1, 7=4+3:0:0:0:0, 12=8+4:0:1:0:1, 3=2+1:1:0:0:1, 2=1+1:0:0:0:0, 2=1+1:0:0:0:0, 3=2+1:0:0:0:0, 2=1+1:0:0:0:0, 2=1+1:0:0:0:0, 1=1+0:0:0:0:0, 1=1+0:0:0:0:0, 0=0+0:0:0:0:0, 0=0+0:0:0:0:0, 1=1+0:0:0:0:0, 7=4+3:0:0:0:1, 2=1+1:1:0:0:1, 6=4+2:0:0:0:0, 2=2+0:0:0:0:0, 0=0+0:0:0:0:0, 0=0+0:0:0:0:0, 0=0+0:0:0:0:0, 2=1+1:0:0:0:0, 3=1+2:0:0:0:0, 0=0+0:0:0:0:0, 0=0+0:0:0:0:0, 2=2+0:0:0:0:0, 11=6+5:1:0:0:2, 1=1+0:0:0:0:0, 8=6+2:0:0:0:0, 3=2+1:1:0:0:1, 4=2+2:0:0:0:1, 191=108+83:7:2:0:18
E major (4#), 1=1+0:0:0:0:0, 8=5+3:0:0:0:1, 5=3+2:2:0:0:2, 7=7+0:0:0:0:0, 3=3+0:0:0:0:0, 3=3+0:0:0:0:0, 7=4+3:1:0:0:2, 3=2+1:0:0:0:0, 7=4+3:0:0:0:0, 3=3+0:0:0:0:0, 3=3+0:0:0:0:0, 7=4+3:1:0:0:1, 5=4+1:0:0:0:1, 8=5+3:0:0:0:1, 5=3+2:2:0:0:2, 7=7+0:0:0:0:0, 3=3+0:0:0:0:0, 3=3+0:0:0:0:0, 7=4+3:1:0:0:2, 3=2+1:0:0:0:0, 7=4+3:0:0:0:0, 3=3+0:0:0:0:0, 3=3+0:0:0:0:0, 7=4+3:1:0:0:1, 5=4+1:0:0:0:1, 4=4+0:0:0:0:0, 7=5+2:0:0:0:0, 4=4+0:0:0:0:0, 4=4+0:0:0:0:0, 6=6+0:0:0:0:0, 2=1+1:0:0:0:1, 6=3+3:3:0:0:3, 10=7+3:0:0:0:1, 9=7+2:0:0:0:0, 9=7+2:1:1:0:2, 5=4+1:0:0:0:0, 5=3+2:0:0:0:0, 5=5+0:0:0:0:0, 7=6+1:0:0:0:0, 7=6+1:0:0:0:0, 5=3+2:1:0:0:2, 5=4+1:0:0:0:1, 8=7+1:0:0:0:1, 11=8+3:1:0:0:1, 14=9+5:0:0:0:3, 5=5+0:0:0:0:0, 4=3+1:0:0:0:1, 6=4+2:0:0:0:0, 5=2+3:0:0:0:1, 6=5+1:0:0:0:0, 6=5+1:0:0:0:0, 3=3+0:0:0:0:0, 4=3+1:0:0:0:0, 7=7+0:0:0:0:0, 3=3+0:0:0:0:0, 2=2+0:0:0:0:0, 13=6+7:3:0:0:1, 4=4+0:0:0:0:0, 7=6+1:0:0:0:0, 7=5+2:0:0:0:0, 1=1+0:0:0:0:0, 3=3+0:0:0:0:0, 4=4+0:0:0:0:0, 6=5+1:0:0:0:0, 9=8+1:1:0:0:1, 4=4+0:0:0:0:0, 3=3+0:0:0:0:0, 4=4+0:0:0:0:0, 4=3+1:1:0:0:0, 5=5+0:0:0:0:0, 7=3+4:1:0:0:1, 5=4+1:1:0:0:1, 8=6+2:1:0:0:2, 401=310+91:22:1:0:37
F minor (4b), 0=0+0:0:0:0:0, 5=3+2:1:0:0:1, 3=1+2:0:0:0:0, 1=0+1:0:0:0:0, 0=0+0:0:0:0:0, 0=0+0:0:0:0:0, 6=3+3:0:0:0:0, 2=1+1:0:0:0:0, 2=1+1:0:0:0:0, 1=1+0:0:0:0:0, 1=1+0:0:0:0:0, 4=2+2:0:0:0:0, 3=1+2:0:0:0:0, 5=3+2:1:0:0:1, 3=1+2:0:0:0:0, 1=0+1:0:0:0:0, 0=0+0:0:0:0:0, 0=0+0:0:0:0:0, 6=3+3:0:0:0:1, 2=1+1:0:0:0:0, 2=1+1:0:0:0:0, 1=1+0:0:0:0:0, 1=1+0:0:0:0:0, 4=2+2:0:0:0:0, 3=1+2:0:0:0:0, 0=0+0:0:0:0:0, 3=1+2:0:0:0:0, 0=0+0:0:0:0:0, 1=0+1:0:0:0:0, 0=0+0:0:0:0:0, 2=1+1:0:0:0:1, 9=3+6:0:0:0:0, 7=4+3:0:0:0:0, 6=4+2:1:0:0:1, 7=5+2:0:0:0:0, 2=1+1:0:0:0:0, 1=1+0:0:0:0:0, 2=0+2:0:0:0:0, 2=1+1:0:0:0:0, 2=1+1:0:0:0:0, 3=2+1:0:0:0:0, 2=1+1:0:0:0:1, 2=1+1:0:0:0:1, 7=4+3:0:0:0:0, 12=8+4:0:1:0:1, 3=2+1:1:0:0:1, 1=1+0:0:0:0:0, 2=1+1:0:0:0:0, 3=2+1:0:0:0:0, 2=1+1:0:0:0:0, 2=1+1:0:0:0:0, 1=1+0:0:0:0:0, 1=1+0:0:0:0:0, 0=0+0:0:0:0:0, 0=0+0:0:0:0:0, 1=1+0:0:0:0:0, 7=4+3:0:0:0:1, 1=1+0:0:0:0:0, 6=4+2:0:0:0:0, 2=2+0:0:0:0:0, 0=0+0:0:0:0:0, 0=0+0:0:0:0:0, 0=0+0:0:0:0:0, 2=1+1:0:0:0:0, 3=1+2:0:0:0:0, 0=0+0:0:0:0:0, 0=0+0:0:0:0:0, 2=2+0:0:0:0:0, 10=6+4:1:0:0:1, 1=1+0:0:0:0:0, 8=6+2:0:0:0:0, 3=2+1:1:0:0:1, 4=2+2:0:0:0:0, 191=109+82:6:1:0:12
C# minor (4#), 1=1+0:0:0:0:0, 8=5+3:0:0:0:1, 5=3+2:2:0:0:2, 7=7+0:0:0:0:0, 3=3+0:0:0:0:0, 3=3+0:0:0:0:0, 7=4+3:1:0:0:2, 3=2+1:0:0:0:1, 4=4+0:0:0:0:0, 3=3+0:0:0:0:0, 3=3+0:0:0:0:0, 7=4+3:1:0:0:1, 4=2+2:2:0:0:2, 6=4+2:1:0:0:1, 5=3+2:2:0:0:2, 7=7+0:0:0:0:0, 3=3+0:0:0:0:0, 3=3+0:0:0:0:0, 7=4+3:1:0:0:2, 3=2+1:0:0:0:1, 4=4+0:0:0:0:0, 3=3+0:0:0:0:0, 3=3+0:0:0:0:0, 8=4+4:1:0:0:3, 5=4+1:0:0:0:1, 4=4+0:0:0:0:0, 7=5+2:0:0:0:0, 4=4+0:0:0:0:0, 4=4+0:0:0:0:0, 6=6+0:0:0:0:0, 2=1+1:0:0:0:1, 9=3+6:6:0:0:6, 10=7+3:1:0:0:1, 9=7+2:1:0:0:1, 9=7+2:1:1:0:2, 5=4+1:0:0:0:0, 3=3+0:0:0:0:0, 5=5+0:0:0:0:0, 7=6+1:0:0:0:0, 7=6+1:0:0:0:0, 4=3+1:1:0:0:1, 5=4+1:0:0:0:1, 8=7+1:0:0:0:1, 11=8+3:1:0:0:1, 15=9+6:1:1:0:1, 6=5+1:1:0:0:1, 4=3+1:0:0:0:1, 4=3+1:1:0:0:1, 3=2+1:0:0:0:0, 6=5+1:0:0:0:0, 6=5+1:0:0:0:0, 3=3+0:0:0:0:0, 4=3+1:0:0:0:0, 7=7+0:0:0:0:0, 3=3+0:0:0:0:0, 2=2+0:0:0:0:0, 10=7+3:0:0:0:1, 5=4+1:1:0:0:1, 8=6+2:1:0:0:1, 5=5+0:0:0:0:0, 1=1+0:0:0:0:0, 3=3+0:0:0:0:0, 4=4+0:0:0:0:0, 5=4+1:1:0:0:1, 9=8+1:1:0:0:1, 4=4+0:0:0:0:0, 3=3+0:0:0:0:0, 4=4+0:0:0:0:0, 9=4+5:1:0:0:2, 5=5+0:0:0:0:0, 6=3+3:2:0:0:2, 5=4+1:1:0:0:1, 8=6+2:1:0:0:2, 391=307+84:34:2:0:50
F minor mel (4b),  ,  ,  ,  ,  ,  ,  ,  ,  ,  ,  ,  ,  ,  ,  ,  ,  ,  ,  ,  ,  ,  ,  ,  ,  ,  ,  ,  ,  ,  ,  ,  ,  ,  ,  ,  ,  ,  ,  ,  ,  ,  ,  ,  ,  ,  ,  ,  ,  ,  ,  ,  ,  ,  ,  ,  ,  ,  ,  ,  ,  ,  ,  ,  ,  ,  ,  ,  ,  ,  ,  ,  ,  , 0=0+0:0:0:0:0
C# minor mel (4#),  ,  ,  ,  ,  ,  ,  ,  ,  ,  ,  ,  ,  ,  ,  ,  ,  ,  ,  ,  ,  ,  ,  ,  ,  ,  ,  ,  ,  ,  ,  ,  ,  ,  ,  ,  ,  ,  ,  ,  ,  ,  ,  ,  ,  ,  ,  ,  ,  ,  ,  ,  ,  ,  ,  ,  ,  ,  ,  ,  ,  ,  ,  ,  ,  ,  ,  ,  ,  ,  ,  ,  ,  , 0=0+0:0:0:0:0
Ab major blues (4b),  ,  ,  ,  ,  ,  ,  ,  ,  ,  ,  ,  ,  ,  ,  ,  ,  ,  ,  ,  ,  ,  ,  ,  ,  ,  ,  ,  ,  ,  ,  ,  ,  ,  ,  ,  ,  ,  ,  ,  ,  ,  ,  ,  ,  ,  ,  ,  ,  ,  ,  ,  ,  ,  ,  ,  ,  ,  ,  ,  ,  ,  ,  ,  ,  ,  ,  ,  ,  ,  ,  ,  ,  , 0=0+0:0:0:0:0
E major blues (4#),  ,  ,  ,  ,  ,  ,  ,  ,  ,  ,  ,  ,  ,  ,  ,  ,  ,  ,  ,  ,  ,  ,  ,  ,  ,  ,  ,  ,  ,  ,  ,  ,  ,  ,  ,  ,  ,  ,  ,  ,  ,  ,  ,  ,  ,  ,  ,  ,  ,  ,  ,  ,  ,  ,  ,  ,  ,  ,  ,  ,  ,  ,  ,  ,  ,  ,  ,  ,  ,  ,  ,  ,  , 0=0+0:0:0:0:0
F minor blues (4b),  ,  ,  ,  ,  ,  ,  ,  ,  ,  ,  ,  ,  ,  ,  ,  ,  ,  ,  ,  ,  ,  ,  ,  ,  ,  ,  ,  ,  ,  ,  ,  ,  ,  ,  ,  ,  ,  ,  ,  ,  ,  ,  ,  ,  ,  ,  ,  ,  ,  ,  ,  ,  ,  ,  ,  ,  ,  ,  ,  ,  ,  ,  ,  ,  ,  ,  ,  ,  ,  ,  ,  ,  , 0=0+0:0:0:0:0
C# minor blues (4#),  ,  ,  ,  ,  ,  ,  ,  ,  ,  ,  ,  ,  ,  ,  ,  ,  ,  ,  ,  ,  ,  ,  ,  ,  ,  ,  ,  ,  ,  ,  ,  ,  ,  ,  ,  ,  ,  ,  ,  ,  ,  ,  ,  ,  ,  ,  ,  ,  ,  ,  ,  ,  ,  ,  ,  ,  ,  ,  ,  ,  ,  ,  ,  ,  ,  ,  ,  ,  ,  ,  ,  ,  , 0=0+0:0:0:0:0
Ab dorian (4b),  ,  ,  ,  ,  ,  ,  ,  ,  ,  ,  ,  ,  ,  ,  ,  ,  ,  ,  ,  ,  ,  ,  ,  ,  ,  ,  ,  ,  ,  ,  ,  ,  ,  ,  ,  ,  ,  ,  ,  ,  ,  ,  ,  ,  ,  ,  ,  ,  ,  ,  ,  ,  ,  ,  ,  ,  ,  ,  ,  ,  ,  ,  ,  ,  ,  ,  ,  ,  ,  ,  ,  ,  , 0=0+0:0:0:0:0
E dorian (4#),  ,  ,  ,  ,  ,  ,  ,  ,  ,  ,  ,  ,  ,  ,  ,  ,  ,  ,  ,  ,  ,  ,  ,  ,  ,  ,  ,  ,  ,  ,  ,  ,  ,  ,  ,  ,  ,  ,  ,  ,  ,  ,  ,  ,  ,  ,  ,  ,  ,  ,  ,  ,  ,  ,  ,  ,  ,  ,  ,  ,  ,  ,  ,  ,  ,  ,  ,  ,  ,  ,  ,  ,  , 0=0+0:0:0:0:0
Ab phrygian (4b),  ,  ,  ,  ,  ,  ,  ,  ,  ,  ,  ,  ,  ,  ,  ,  ,  ,  ,  ,  ,  ,  ,  ,  ,  ,  ,  ,  ,  ,  ,  ,  ,  ,  ,  ,  ,  ,  ,  ,  ,  ,  ,  ,  ,  ,  ,  ,  ,  ,  ,  ,  ,  ,  ,  ,  ,  ,  ,  ,  ,  ,  ,  ,  ,  ,  ,  ,  ,  ,  ,  ,  ,  , 0=0+0:0:0:0:0
E phrygian (4#),  ,  ,  ,  ,  ,  ,  ,  ,  ,  ,  ,  ,  ,  ,  ,  ,  ,  ,  ,  ,  ,  ,  ,  ,  ,  ,  ,  ,  ,  ,  ,  ,  ,  ,  ,  ,  ,  ,  ,  ,  ,  ,  ,  ,  ,  ,  ,  ,  ,  ,  ,  ,  ,  ,  ,  ,  ,  ,  ,  ,  ,  ,  ,  ,  ,  ,  ,  ,  ,  ,  ,  ,  , 0=0+0:0:0:0:0
Ab lydian (4b),  ,  ,  ,  ,  ,  ,  ,  ,  ,  ,  ,  ,  ,  ,  ,  ,  ,  ,  ,  ,  ,  ,  ,  ,  ,  ,  ,  ,  ,  ,  ,  ,  ,  ,  ,  ,  ,  ,  ,  ,  ,  ,  ,  ,  ,  ,  ,  ,  ,  ,  ,  ,  ,  ,  ,  ,  ,  ,  ,  ,  ,  ,  ,  ,  ,  ,  ,  ,  ,  ,  ,  ,  , 0=0+0:0:0:0:0
E lydian (4#),  ,  ,  ,  ,  ,  ,  ,  ,  ,  ,  ,  ,  ,  ,  ,  ,  ,  ,  ,  ,  ,  ,  ,  ,  ,  ,  ,  ,  ,  ,  ,  ,  ,  ,  ,  ,  ,  ,  ,  ,  ,  ,  ,  ,  ,  ,  ,  ,  ,  ,  ,  ,  ,  ,  ,  ,  ,  ,  ,  ,  ,  ,  ,  ,  ,  ,  ,  ,  ,  ,  ,  ,  , 0=0+0:0:0:0:0
Ab mixolydian (4b),  ,  ,  ,  ,  ,  ,  ,  ,  ,  ,  ,  ,  ,  ,  ,  ,  ,  ,  ,  ,  ,  ,  ,  ,  ,  ,  ,  ,  ,  ,  ,  ,  ,  ,  ,  ,  ,  ,  ,  ,  ,  ,  ,  ,  ,  ,  ,  ,  ,  ,  ,  ,  ,  ,  ,  ,  ,  ,  ,  ,  ,  ,  ,  ,  ,  ,  ,  ,  ,  ,  ,  ,  , 0=0+0:0:0:0:0
E mixolydian (4#),  ,  ,  ,  ,  ,  ,  ,  ,  ,  ,  ,  ,  ,  ,  ,  ,  ,  ,  ,  ,  ,  ,  ,  ,  ,  ,  ,  ,  ,  ,  ,  ,  ,  ,  ,  ,  ,  ,  ,  ,  ,  ,  ,  ,  ,  ,  ,  ,  ,  ,  ,  ,  ,  ,  ,  ,  ,  ,  ,  ,  ,  ,  ,  ,  ,  ,  ,  ,  ,  ,  ,  ,  , 0=0+0:0:0:0:0
Ab aeolian (4b),  ,  ,  ,  ,  ,  ,  ,  ,  ,  ,  ,  ,  ,  ,  ,  ,  ,  ,  ,  ,  ,  ,  ,  ,  ,  ,  ,  ,  ,  ,  ,  ,  ,  ,  ,  ,  ,  ,  ,  ,  ,  ,  ,  ,  ,  ,  ,  ,  ,  ,  ,  ,  ,  ,  ,  ,  ,  ,  ,  ,  ,  ,  ,  ,  ,  ,  ,  ,  ,  ,  ,  ,  , 0=0+0:0:0:0:0
E aeolian (4#),  ,  ,  ,  ,  ,  ,  ,  ,  ,  ,  ,  ,  ,  ,  ,  ,  ,  ,  ,  ,  ,  ,  ,  ,  ,  ,  ,  ,  ,  ,  ,  ,  ,  ,  ,  ,  ,  ,  ,  ,  ,  ,  ,  ,  ,  ,  ,  ,  ,  ,  ,  ,  ,  ,  ,  ,  ,  ,  ,  ,  ,  ,  ,  ,  ,  ,  ,  ,  ,  ,  ,  ,  , 0=0+0:0:0:0:0
Ab locrian (4b),  ,  ,  ,  ,  ,  ,  ,  ,  ,  ,  ,  ,  ,  ,  ,  ,  ,  ,  ,  ,  ,  ,  ,  ,  ,  ,  ,  ,  ,  ,  ,  ,  ,  ,  ,  ,  ,  ,  ,  ,  ,  ,  ,  ,  ,  ,  ,  ,  ,  ,  ,  ,  ,  ,  ,  ,  ,  ,  ,  ,  ,  ,  ,  ,  ,  ,  ,  ,  ,  ,  ,  ,  , 0=0+0:0:0:0:0
E locrian (4#),  ,  ,  ,  ,  ,  ,  ,  ,  ,  ,  ,  ,  ,  ,  ,  ,  ,  ,  ,  ,  ,  ,  ,  ,  ,  ,  ,  ,  ,  ,  ,  ,  ,  ,  ,  ,  ,  ,  ,  ,  ,  ,  ,  ,  ,  ,  ,  ,  ,  ,  ,  ,  ,  ,  ,  ,  ,  ,  ,  ,  ,  ,  ,  ,  ,  ,  ,  ,  ,  ,  ,  ,  , 0=0+0:0:0:0:0
Db major (5b), 0=0+0:0:0:0:0, 5=3+2:0:0:0:0, 2=0+2:0:0:0:0, 2=1+1:0:0:0:0, 1=1+0:0:0:0:0, 0=0+0:0:0:0:0, 5=2+3:0:0:0:1, 2=1+1:0:0:0:0, 1=1+0:0:0:0:0, 2=2+0:0:0:0:0, 2=2+0:0:0:0:0, 5=3+2:0:0:0:0, 3=1+2:0:0:0:0, 5=3+2:0:0:0:0, 2=0+2:0:0:0:0, 2=1+1:0:0:0:0, 1=1+0:0:0:0:0, 0=0+0:0:0:0:0, 5=2+3:0:0:0:1, 2=1+1:0:0:0:0, 1=1+0:0:0:0:0, 2=2+0:0:0:0:0, 2=2+0:0:0:0:0, 5=3+2:0:0:0:0, 3=1+2:0:0:0:0, 1=1+0:0:0:0:0, 4=2+2:0:0:0:0, 1=1+0:0:0:0:0, 2=1+1:0:0:0:0, 0=0+0:0:0:0:0, 2=1+1:0:0:0:1, 9=3+6:0:0:0:0, 8=5+3:0:0:0:0, 6=4+2:0:1:0:1, 7=5+2:0:0:0:0, 2=1+1:0:0:0:0, 1=1+0:0:0:0:0, 3=1+2:0:0:0:0, 3=2+1:0:0:0:0, 2=2+0:0:0:0:0, 5=3+2:0:0:0:1, 2=1+1:0:0:0:1, 3=2+1:0:0:0:1, 10=4+6:0:0:0:3, 15=9+6:0:1:0:0, 3=2+1:0:0:0:0, 1=1+0:0:0:0:0, 2=1+1:0:0:0:0, 3=2+1:0:0:0:0, 2=1+1:0:0:0:0, 2=1+1:0:0:0:0, 1=1+0:0:0:0:0, 1=1+0:0:0:0:0, 2=2+0:0:0:0:0, 1=1+0:0:0:0:0, 1=1+0:0:0:0:0, 8=5+3:0:0:0:1, 2=1+1:0:0:0:0, 6=4+2:0:0:0:0, 2=2+0:0:0:0:0, 0=0+0:0:0:0:0, 0=0+0:0:0:0:0, 0=0+0:0:0:0:0, 2=1+1:0:0:0:0, 5=3+2:0:0:0:0, 0=0+0:0:0:0:0, 0=0+0:0:0:0:0, 2=2+0:0:0:0:0, 11=6+5:1:0:0:2, 2=2+0:0:0:0:0, 7=5+2:0:0:0:0, 4=3+1:1:0:0:1, 5=3+2:0:0:0:1, 221=134+87:2:2:0:15
B major (5#), 1=1+0:0:0:0:0, 7=5+2:1:0:0:1, 5=3+2:2:0:0:2, 7=7+0:0:0:0:0, 3=3+0:0:0:0:0, 3=3+0:0:0:0:0, 8=5+3:1:0:0:2, 4=3+1:0:0:0:1, 4=4+0:0:0:0:0, 3=3+0:0:0:0:0, 3=3+0:0:0:0:0, 9=6+3:0:0:0:2, 5=4+1:0:0:0:1, 7=5+2:1:0:0:1, 5=3+2:2:0:0:2, 7=7+0:0:0:0:0, 3=3+0:0:0:0:0, 3=3+0:0:0:0:0, 8=5+3:1:0:0:2, 4=3+1:0:0:0:1, 4=4+0:0:0:0:0, 3=3+0:0:0:0:0, 3=3+0:0:0:0:0, 9=6+3:0:0:0:2, 5=4+1:0:0:0:1, 4=4+0:0:0:0:0, 7=5+2:0:0:0:0, 4=4+0:0:0:0:0, 4=4+0:0:0:0:0, 6=6+0:0:0:0:0, 2=1+1:0:0:0:1, 9=3+6:6:0:0:6, 11=8+3:1:0:0:1, 11=8+3:1:0:0:3, 12=8+4:1:1:0:1, 5=4+1:0:0:0:0, 3=3+0:0:0:0:0, 5=5+0:0:0:0:0, 7=6+1:0:0:0:0, 7=6+1:0:0:0:0, 4=3+1:1:0:0:1, 6=5+1:0:0:0:1, 8=7+1:0:0:0:1, 12=9+3:1:0:0:1, 17=10+7:1:1:0:3, 6=5+1:1:0:0:1, 5=4+1:0:0:0:1, 4=3+1:1:0:0:1, 6=3+3:0:0:0:1, 6=5+1:0:0:0:0, 6=5+1:0:0:0:0, 3=3+0:0:0:0:0, 4=3+1:0:0:0:0, 7=7+0:0:0:0:0, 3=3+0:0:0:0:0, 2=2+0:0:0:0:0, 10=8+2:0:0:0:1, 5=4+1:1:0:0:1, 10=7+3:1:0:0:2, 7=6+1:0:0:0:0, 1=1+0:0:0:0:0, 3=3+0:0:0:0:0, 4=4+0:0:0:0:0, 5=4+1:1:0:0:1, 9=8+1:1:0:0:1, 4=4+0:0:0:0:0, 3=3+0:0:0:0:0, 6=5+1:0:0:0:0, 10=6+4:1:0:0:1, 6=5+1:0:0:0:0, 10=6+4:1:1:0:1, 7=5+2:1:0:0:1, 9=7+2:1:0:0:2, 428=337+91:30:3:0:52
Bb minor (5b), 0=0+0:0:0:0:0, 5=3+2:0:0:0:0, 2=0+2:0:0:0:0, 3=1+2:0:0:0:0, 1=1+0:0:0:0:0, 0=0+0:0:0:0:0, 3=2+1:0:0:0:0, 2=1+1:0:0:0:0, 1=1+0:0:0:0:0, 2=2+0:0:0:0:0, 2=2+0:0:0:0:0, 5=3+2:0:0:0:0, 3=1+2:0:0:0:0, 5=3+2:0:0:0:0, 2=0+2:0:0:0:0, 2=1+1:0:0:0:0, 1=1+0:0:0:0:0, 0=0+0:0:0:0:0, 3=2+1:0:0:0:0, 2=1+1:0:0:0:0, 1=1+0:0:0:0:0, 2=2+0:0:0:0:0, 2=2+0:0:0:0:0, 5=3+2:0:0:0:0, 3=1+2:0:0:0:0, 1=1+0:0:0:0:0, 4=2+2:0:0:0:0, 1=1+0:0:0:0:0, 2=1+1:0:0:0:0, 1=0+1:0:0:0:0, 2=1+1:0:0:0:0, 9=3+6:0:0:0:0, 8=5+3:0:0:0:0, 6=4+2:0:1:0:1, 7=5+2:0:0:0:0, 2=1+1:0:0:0:0, 1=1+0:0:0:0:0, 3=1+2:0:0:0:0, 3=2+1:0:0:0:0, 2=2+0:0:0:0:0, 4=3+1:0:0:0:0, 1=1+0:0:0:0:0, 4=2+2:0:0:0:1, 10=4+6:0:0:0:3, 15=9+6:0:1:0:0, 3=2+1:0:0:0:0, 1=1+0:0:0:0:0, 2=1+1:0:0:0:0, 3=2+1:0:0:0:0, 2=1+1:0:0:0:0, 2=1+1:0:0:0:0, 1=1+0:0:0:0:0, 1=1+0:0:0:0:0, 2=2+0:0:0:0:0, 1=1+0:0:0:0:0, 1=1+0:0:0:0:0, 8=5+3:0:0:0:1, 2=1+1:0:0:0:0, 6=4+2:0:0:0:0, 2=2+0:0:0:0:0, 0=0+0:0:0:0:0, 0=0+0:0:0:0:0, 0=0+0:0:0:0:0, 2=1+1:0:0:0:0, 6=3+3:0:0:0:0, 0=0+0:0:0:0:0, 0=0+0:0:0:0:0, 2=2+0:0:0:0:0, 11=6+5:1:0:0:2, 2=2+0:0:0:0:0, 7=5+2:0:0:0:0, 4=3+1:1:0:0:1, 5=3+2:0:0:0:1, 219=134+85:2:2:0:10
G# minor (5#), 1=1+0:0:0:0:0, 7=5+2:1:0:0:1, 5=3+2:2:0:0:2, 8=7+1:0:0:0:0, 3=3+0:0:0:0:0, 3=3+0:0:0:0:0, 8=5+3:1:0:0:2, 4=3+1:0:0:0:0, 4=4+0:0:0:0:0, 3=3+0:0:0:0:0, 3=3+0:0:0:0:0, 8=6+2:0:0:0:0, 5=4+1:0:0:0:1, 7=5+2:1:0:0:1, 5=3+2:2:0:0:2, 8=7+1:0:0:0:0, 3=3+0:0:0:0:0, 3=3+0:0:0:0:0, 8=5+3:1:0:0:2, 4=3+1:0:0:0:0, 4=4+0:0:0:0:0, 3=3+0:0:0:0:0, 3=3+0:0:0:0:0, 8=6+2:0:0:0:0, 5=4+1:0:0:0:1, 4=4+0:0:0:0:0, 7=5+2:0:0:0:0, 4=4+0:0:0:0:0, 5=4+1:0:0:0:0, 6=6+0:0:0:0:0, 2=1+1:0:0:0:1, 9=3+6:6:0:0:6, 11=8+3:1:0:0:1, 11=8+3:1:0:0:3, 12=8+4:1:1:0:1, 5=4+1:0:0:0:0, 3=3+0:0:0:0:0, 6=4+2:2:0:0:2, 7=6+1:0:0:0:0, 6=6+0:0:0:0:0, 5=3+2:1:0:0:2, 6=5+1:0:0:0:1, 8=7+1:0:0:0:1, 12=9+3:1:0:0:1, 16=10+6:1:1:0:1, 6=5+1:1:0:0:1, 5=4+1:0:0:0:1, 4=3+1:1:0:0:1, 4=3+1:0:0:0:0, 6=5+1:0:0:0:0, 6=5+1:0:0:0:0, 3=3+0:0:0:0:0, 3=3+0:0:0:0:0, 7=7+0:0:0:0:0, 3=3+0:0:0:0:0, 2=2+0:0:0:0:0, 10=8+2:0:0:0:1, 5=4+1:1:0:0:1, 10=7+3:1:0:0:2, 7=6+1:0:0:0:0, 1=1+0:0:0:0:0, 3=3+0:0:0:0:0, 4=4+0:0:0:0:0, 5=4+1:1:0:0:1, 10=8+2:1:0:0:1, 4=4+0:0:0:0:0, 3=3+0:0:0:0:0, 6=5+1:0:0:0:0, 11=6+5:1:0:0:2, 5=5+0:0:0:0:0, 10=6+4:1:1:0:1, 6=5+1:1:0:0:1, 9=7+2:1:0:0:2, 426=336+90:32:3:0:47
Bb minor mel (5b),  ,  ,  ,  ,  ,  ,  ,  ,  ,  ,  ,  ,  ,  ,  ,  ,  ,  ,  ,  ,  ,  ,  ,  ,  ,  ,  ,  ,  ,  ,  ,  ,  ,  ,  ,  ,  ,  ,  ,  ,  ,  ,  ,  ,  ,  ,  ,  ,  ,  ,  ,  ,  ,  ,  ,  ,  ,  ,  ,  ,  ,  ,  ,  ,  ,  ,  ,  ,  ,  ,  ,  ,  , 0=0+0:0:0:0:0
G# minor mel (5#),  ,  ,  ,  ,  ,  ,  ,  ,  ,  ,  ,  ,  ,  ,  ,  ,  ,  ,  ,  ,  ,  ,  ,  ,  ,  ,  ,  ,  ,  ,  ,  ,  ,  ,  ,  ,  ,  ,  ,  ,  ,  ,  ,  ,  ,  ,  ,  ,  ,  ,  ,  ,  ,  ,  ,  ,  ,  ,  ,  ,  ,  ,  ,  ,  ,  ,  ,  ,  ,  ,  ,  ,  , 0=0+0:0:0:0:0
Db major blues (5b),  ,  ,  ,  ,  ,  ,  ,  ,  ,  ,  ,  ,  ,  ,  ,  ,  ,  ,  ,  ,  ,  ,  ,  ,  ,  ,  ,  ,  ,  ,  ,  ,  ,  ,  ,  ,  ,  ,  ,  ,  ,  ,  ,  ,  ,  ,  ,  ,  ,  ,  ,  ,  ,  ,  ,  ,  ,  ,  ,  ,  ,  ,  ,  ,  ,  ,  ,  ,  ,  ,  ,  ,  , 0=0+0:0:0:0:0
B major blues (5#),  ,  ,  ,  ,  ,  ,  ,  ,  ,  ,  ,  ,  ,  ,  ,  ,  ,  ,  ,  ,  ,  ,  ,  ,  ,  ,  ,  ,  ,  ,  ,  ,  ,  ,  ,  ,  ,  ,  ,  ,  ,  ,  ,  ,  ,  ,  ,  ,  ,  ,  ,  ,  ,  ,  ,  ,  ,  ,  ,  ,  ,  ,  ,  ,  ,  ,  ,  ,  ,  ,  ,  ,  , 0=0+0:0:0:0:0
Bb minor blues (5b),  ,  ,  ,  ,  ,  ,  ,  ,  ,  ,  ,  ,  ,  ,  ,  ,  ,  ,  ,  ,  ,  ,  ,  ,  ,  ,  ,  ,  ,  ,  ,  ,  ,  ,  ,  ,  ,  ,  ,  ,  ,  ,  ,  ,  ,  ,  ,  ,  ,  ,  ,  ,  ,  ,  ,  ,  ,  ,  ,  ,  ,  ,  ,  ,  ,  ,  ,  ,  ,  ,  ,  ,  , 0=0+0:0:0:0:0
G# minor blues (5#),  ,  ,  ,  ,  ,  ,  ,  ,  ,  ,  ,  ,  ,  ,  ,  ,  ,  ,  ,  ,  ,  ,  ,  ,  ,  ,  ,  ,  ,  ,  ,  ,  ,  ,  ,  ,  ,  ,  ,  ,  ,  ,  ,  ,  ,  ,  ,  ,  ,  ,  ,  ,  ,  ,  ,  ,  ,  ,  ,  ,  ,  ,  ,  ,  ,  ,  ,  ,  ,  ,  ,  ,  , 0=0+0:0:0:0:0
Db dorian (5b),  ,  ,  ,  ,  ,  ,  ,  ,  ,  ,  ,  ,  ,  ,  ,  ,  ,  ,  ,  ,  ,  ,  ,  ,  ,  ,  ,  ,  ,  ,  ,  ,  ,  ,  ,  ,  ,  ,  ,  ,  ,  ,  ,  ,  ,  ,  ,  ,  ,  ,  ,  ,  ,  ,  ,  ,  ,  ,  ,  ,  ,  ,  ,  ,  ,  ,  ,  ,  ,  ,  ,  ,  , 0=0+0:0:0:0:0
B dorian (5#),  ,  ,  ,  ,  ,  ,  ,  ,  ,  ,  ,  ,  ,  ,  ,  ,  ,  ,  ,  ,  ,  ,  ,  ,  ,  ,  ,  ,  ,  ,  ,  ,  ,  ,  ,  ,  ,  ,  ,  ,  ,  ,  ,  ,  ,  ,  ,  ,  ,  ,  ,  ,  ,  ,  ,  ,  ,  ,  ,  ,  ,  ,  ,  ,  ,  ,  ,  ,  ,  ,  ,  ,  , 0=0+0:0:0:0:0
Db phrygian (5b),  ,  ,  ,  ,  ,  ,  ,  ,  ,  ,  ,  ,  ,  ,  ,  ,  ,  ,  ,  ,  ,  ,  ,  ,  ,  ,  ,  ,  ,  ,  ,  ,  ,  ,  ,  ,  ,  ,  ,  ,  ,  ,  ,  ,  ,  ,  ,  ,  ,  ,  ,  ,  ,  ,  ,  ,  ,  ,  ,  ,  ,  ,  ,  ,  ,  ,  ,  ,  ,  ,  ,  ,  , 0=0+0:0:0:0:0
B phrygian (5#),  ,  ,  ,  ,  ,  ,  ,  ,  ,  ,  ,  ,  ,  ,  ,  ,  ,  ,  ,  ,  ,  ,  ,  ,  ,  ,  ,  ,  ,  ,  ,  ,  ,  ,  ,  ,  ,  ,  ,  ,  ,  ,  ,  ,  ,  ,  ,  ,  ,  ,  ,  ,  ,  ,  ,  ,  ,  ,  ,  ,  ,  ,  ,  ,  ,  ,  ,  ,  ,  ,  ,  ,  , 0=0+0:0:0:0:0
Db lydian (5b),  ,  ,  ,  ,  ,  ,  ,  ,  ,  ,  ,  ,  ,  ,  ,  ,  ,  ,  ,  ,  ,  ,  ,  ,  ,  ,  ,  ,  ,  ,  ,  ,  ,  ,  ,  ,  ,  ,  ,  ,  ,  ,  ,  ,  ,  ,  ,  ,  ,  ,  ,  ,  ,  ,  ,  ,  ,  ,  ,  ,  ,  ,  ,  ,  ,  ,  ,  ,  ,  ,  ,  ,  , 0=0+0:0:0:0:0
B lydian (5#),  ,  ,  ,  ,  ,  ,  ,  ,  ,  ,  ,  ,  ,  ,  ,  ,  ,  ,  ,  ,  ,  ,  ,  ,  ,  ,  ,  ,  ,  ,  ,  ,  ,  ,  ,  ,  ,  ,  ,  ,  ,  ,  ,  ,  ,  ,  ,  ,  ,  ,  ,  ,  ,  ,  ,  ,  ,  ,  ,  ,  ,  ,  ,  ,  ,  ,  ,  ,  ,  ,  ,  ,  , 0=0+0:0:0:0:0
Db mixolydian (5b),  ,  ,  ,  ,  ,  ,  ,  ,  ,  ,  ,  ,  ,  ,  ,  ,  ,  ,  ,  ,  ,  ,  ,  ,  ,  ,  ,  ,  ,  ,  ,  ,  ,  ,  ,  ,  ,  ,  ,  ,  ,  ,  ,  ,  ,  ,  ,  ,  ,  ,  ,  ,  ,  ,  ,  ,  ,  ,  ,  ,  ,  ,  ,  ,  ,  ,  ,  ,  ,  ,  ,  ,  , 0=0+0:0:0:0:0
B mixolydian (5#),  ,  ,  ,  ,  ,  ,  ,  ,  ,  ,  ,  ,  ,  ,  ,  ,  ,  ,  ,  ,  ,  ,  ,  ,  ,  ,  ,  ,  ,  ,  ,  ,  ,  ,  ,  ,  ,  ,  ,  ,  ,  ,  ,  ,  ,  ,  ,  ,  ,  ,  ,  ,  ,  ,  ,  ,  ,  ,  ,  ,  ,  ,  ,  ,  ,  ,  ,  ,  ,  ,  ,  ,  , 0=0+0:0:0:0:0
Db aeolian (5b),  ,  ,  ,  ,  ,  ,  ,  ,  ,  ,  ,  ,  ,  ,  ,  ,  ,  ,  ,  ,  ,  ,  ,  ,  ,  ,  ,  ,  ,  ,  ,  ,  ,  ,  ,  ,  ,  ,  ,  ,  ,  ,  ,  ,  ,  ,  ,  ,  ,  ,  ,  ,  ,  ,  ,  ,  ,  ,  ,  ,  ,  ,  ,  ,  ,  ,  ,  ,  ,  ,  ,  ,  , 0=0+0:0:0:0:0
B aeolian (5#),  ,  ,  ,  ,  ,  ,  ,  ,  ,  ,  ,  ,  ,  ,  ,  ,  ,  ,  ,  ,  ,  ,  ,  ,  ,  ,  ,  ,  ,  ,  ,  ,  ,  ,  ,  ,  ,  ,  ,  ,  ,  ,  ,  ,  ,  ,  ,  ,  ,  ,  ,  ,  ,  ,  ,  ,  ,  ,  ,  ,  ,  ,  ,  ,  ,  ,  ,  ,  ,  ,  ,  ,  , 0=0+0:0:0:0:0
Db locrian (5b),  ,  ,  ,  ,  ,  ,  ,  ,  ,  ,  ,  ,  ,  ,  ,  ,  ,  ,  ,  ,  ,  ,  ,  ,  ,  ,  ,  ,  ,  ,  ,  ,  ,  ,  ,  ,  ,  ,  ,  ,  ,  ,  ,  ,  ,  ,  ,  ,  ,  ,  ,  ,  ,  ,  ,  ,  ,  ,  ,  ,  ,  ,  ,  ,  ,  ,  ,  ,  ,  ,  ,  ,  , 0=0+0:0:0:0:0
B locrian (5#),  ,  ,  ,  ,  ,  ,  ,  ,  ,  ,  ,  ,  ,  ,  ,  ,  ,  ,  ,  ,  ,  ,  ,  ,  ,  ,  ,  ,  ,  ,  ,  ,  ,  ,  ,  ,  ,  ,  ,  ,  ,  ,  ,  ,  ,  ,  ,  ,  ,  ,  ,  ,  ,  ,  ,  ,  ,  ,  ,  ,  ,  ,  ,  ,  ,  ,  ,  ,  ,  ,  ,  ,  , 0=0+0:0:0:0:0
Gb major (6b), 0=0+0:0:0:0:0, 6=4+2:0:0:0:0, 2=0+2:0:0:0:0, 4=2+2:0:0:0:0, 3=1+2:0:0:0:0, 1=1+0:0:0:0:0, 4=2+2:0:0:0:0, 3=2+1:0:0:0:0, 1=1+0:0:0:0:0, 2=2+0:0:0:0:0, 2=2+0:0:0:0:0, 6=3+3:0:0:0:0, 3=1+2:0:0:0:0, 6=4+2:0:0:0:0, 2=0+2:0:0:0:0, 4=2+2:0:0:0:0, 3=1+2:0:0:0:0, 1=1+0:0:0:0:0, 4=2+2:0:0:0:0, 3=2+1:0:0:0:0, 1=1+0:0:0:0:0, 2=2+0:0:0:0:0, 2=2+0:0:0:0:0, 5=3+2:0:0:0:0, 3=1+2:0:0:0:0, 2=2+0:0:0:0:0, 5=3+2:0:0:0:0, 2=2+0:0:0:0:0, 3=2+1:0:0:0:0, 1=1+0:0:0:0:0, 2=1+1:0:0:0:1, 6=2+4:0:1:0:0, 9=6+3:0:0:0:1, 7=5+2:0:1:0:1, 10=6+4:0:0:0:1, 3=2+1:0:0:0:0, 1=1+0:0:0:0:0, 3=1+2:0:0:0:0, 3=2+1:0:0:0:0, 2=2+0:0:0:0:0, 5=3+2:0:0:0:1, 3=2+1:0:0:0:1, 4=3+1:0:0:0:1, 11=5+6:0:0:0:3, 16=10+6:0:1:0:0, 4=3+1:0:0:0:0, 2=2+0:0:0:0:0, 2=1+1:0:0:0:0, 3=2+1:0:0:0:0, 3=2+1:0:0:0:0, 3=2+1:0:0:0:0, 1=1+0:0:0:0:0, 1=1+0:0:0:0:0, 3=3+0:0:0:0:0, 2=2+0:0:0:0:0, 1=1+0:0:0:0:0, 9=6+3:0:0:0:0, 3=2+1:0:0:0:0, 8=5+3:0:0:0:1, 4=3+1:0:0:0:0, 0=0+0:0:0:0:0, 0=0+0:0:0:0:0, 2=1+1:0:0:0:0, 2=1+1:0:0:0:0, 7=4+3:0:0:0:0, 0=0+0:0:0:0:0, 1=1+0:0:0:0:0, 4=3+1:0:0:0:0, 11=6+5:1:0:0:2, 3=3+0:0:0:0:0, 7=5+2:0:0:0:0, 4=3+1:1:0:0:1, 6=4+2:0:0:0:1, 267=170+97:2:3:0:15
F# major (6#), 1=1+0:0:0:0:0, 7=5+2:1:0:0:1, 5=3+2:2:0:0:2, 8=7+1:0:0:0:0, 3=3+0:0:0:0:0, 3=3+0:0:0:0:0, 8=5+3:1:0:0:2, 4=3+1:0:0:0:0, 4=4+0:0:0:0:0, 3=3+0:0:0:0:0, 3=3+0:0:0:0:0, 8=6+2:0:0:0:0, 5=3+2:2:0:0:2, 7=5+2:1:0:0:1, 5=3+2:2:0:0:2, 8=7+1:0:0:0:0, 3=3+0:0:0:0:0, 3=3+0:0:0:0:0, 8=5+3:1:0:0:2, 4=3+1:0:0:0:0, 4=4+0:0:0:0:0, 3=3+0:0:0:0:0, 3=3+0:0:0:0:0, 8=6+2:0:0:0:0, 5=3+2:2:0:0:2, 4=4+0:0:0:0:0, 7=5+2:0:0:0:0, 4=4+0:0:0:0:0, 5=4+1:0:0:0:0, 6=6+0:0:0:0:0, 3=2+1:0:0:0:1, 9=5+4:3:0:0:4, 11=8+3:1:0:0:2, 11=9+2:1:0:0:1, 12=8+4:1:1:0:1, 5=4+1:0:0:0:0, 3=3+0:0:0:0:0, 6=4+2:2:0:0:2, 7=6+1:0:0:0:0, 6=6+0:0:0:0:0, 6=4+2:1:0:0:2, 6=5+1:0:0:0:1, 8=7+1:0:0:0:1, 12=9+3:1:0:0:1, 17=11+6:1:1:0:1, 6=5+1:1:0:0:1, 5=4+1:0:0:0:1, 4=3+1:1:0:0:1, 4=3+1:0:0:0:0, 6=5+1:0:0:0:0, 6=5+1:0:0:0:0, 3=3+0:0:0:0:0, 3=3+0:0:0:0:0, 7=7+0:0:0:0:0, 3=3+0:0:0:0:0, 2=2+0:0:0:0:0, 11=8+3:0:0:0:0, 5=4+1:1:0:0:1, 10=7+3:1:0:0:2, 7=6+1:0:0:0:0, 1=1+0:0:0:0:0, 3=3+0:0:0:0:0, 4=4+0:0:0:0:0, 5=4+1:1:0:0:1, 10=8+2:1:0:0:1, 4=4+0:0:0:0:0, 3=3+0:0:0:0:0, 6=5+1:0:0:0:0, 12=7+5:1:0:0:2, 5=5+0:0:0:0:0, 10=6+4:1:1:0:1, 6=5+1:1:0:0:1, 9=7+2:1:0:0:2, 431=341+90:33:3:0:45
Eb minor (6b), 0=0+0:0:0:0:0, 6=4+2:0:0:0:0, 2=0+2:0:0:0:0, 3=2+1:0:0:0:0, 1=1+0:0:0:0:0, 1=1+0:0:0:0:0, 5=2+3:0:0:0:1, 3=2+1:0:0:0:0, 1=1+0:0:0:0:0, 2=2+0:0:0:0:0, 2=2+0:0:0:0:0, 5=3+2:0:0:0:0, 3=1+2:0:0:0:0, 6=4+2:0:0:0:0, 2=0+2:0:0:0:0, 3=2+1:0:0:0:0, 1=1+0:0:0:0:0, 1=1+0:0:0:0:0, 5=2+3:0:0:0:1, 3=2+1:0:0:0:0, 1=1+0:0:0:0:0, 2=2+0:0:0:0:0, 2=2+0:0:0:0:0, 5=3+2:0:0:0:0, 3=1+2:0:0:0:0, 2=2+0:0:0:0:0, 5=3+2:0:0:0:0, 2=2+0:0:0:0:0, 3=2+1:0:0:0:0, 1=1+0:0:0:0:0, 1=1+0:0:0:0:0, 6=2+4:0:1:0:0, 9=6+3:0:0:0:1, 7=5+2:0:1:0:1, 8=6+2:0:0:0:0, 3=2+1:0:0:0:0, 1=1+0:0:0:0:0, 3=1+2:0:0:0:0, 3=2+1:0:0:0:0, 2=2+0:0:0:0:0, 5=3+2:0:0:0:1, 3=2+1:0:0:0:1, 4=3+1:0:0:0:1, 8=5+3:0:0:0:0, 16=10+6:0:1:0:0, 4=3+1:0:0:0:0, 2=2+0:0:0:0:0, 2=1+1:0:0:0:0, 3=2+1:0:0:0:0, 3=2+1:0:0:0:0, 2=2+0:0:0:0:0, 1=1+0:0:0:0:0, 1=1+0:0:0:0:0, 3=3+0:0:0:0:0, 2=2+0:0:0:0:0, 1=1+0:0:0:0:0, 9=6+3:0:0:0:1, 3=2+1:0:0:0:0, 7=5+2:0:0:0:0, 3=3+0:0:0:0:0, 0=0+0:0:0:0:0, 0=0+0:0:0:0:0, 2=1+1:0:0:0:0, 2=1+1:0:0:0:0, 6=4+2:0:0:0:0, 0=0+0:0:0:0:0, 3=1+2:0:0:0:0, 3=3+0:0:0:0:0, 11=6+5:1:0:0:2, 3=3+0:0:0:0:0, 7=5+2:0:0:0:0, 4=3+1:1:0:0:1, 7=4+3:0:0:0:0, 254=170+84:2:3:0:11
D# minor (6#), 1=1+0:0:0:0:0, 7=5+2:1:0:0:1, 5=3+2:2:0:0:2, 8=7+1:0:0:0:0, 3=3+0:0:0:0:0, 3=3+0:0:0:0:0, 8=5+3:1:0:0:2, 4=3+1:0:0:0:0, 4=4+0:0:0:0:0, 3=3+0:0:0:0:0, 3=3+0:0:0:0:0, 8=6+2:0:0:0:0, 5=3+2:2:0:0:2, 7=5+2:1:0:0:1, 5=3+2:2:0:0:2, 8=7+1:0:0:0:0, 3=3+0:0:0:0:0, 3=3+0:0:0:0:0, 8=5+3:1:0:0:2, 4=3+1:0:0:0:0, 4=4+0:0:0:0:0, 3=3+0:0:0:0:0, 3=3+0:0:0:0:0, 8=6+2:0:0:0:0, 5=3+2:2:0:0:2, 4=4+0:0:0:0:0, 7=5+2:0:0:0:0, 4=4+0:0:0:0:0, 5=4+1:0:0:0:0, 6=6+0:0:0:0:0, 3=2+1:0:0:0:1, 9=5+4:3:0:0:4, 11=8+3:1:0:0:2, 11=9+2:1:0:0:1, 10=8+2:1:1:0:2, 5=4+1:0:0:0:0, 3=3+0:0:0:0:0, 6=4+2:2:0:0:2, 7=6+1:0:0:0:0, 6=6+0:0:0:0:0, 6=4+2:1:0:0:2, 6=5+1:0:0:0:1, 8=7+1:0:0:0:1, 12=9+3:1:0:0:1, 17=11+6:1:1:0:1, 6=5+1:1:0:0:1, 5=4+1:0:0:0:0, 4=3+1:1:0:0:1, 4=3+1:0:0:0:0, 6=5+1:0:0:0:0, 5=5+0:0:0:0:0, 3=3+0:0:0:0:0, 3=3+0:0:0:0:0, 7=7+0:0:0:0:0, 3=3+0:0:0:0:0, 2=2+0:0:0:0:0, 11=8+3:0:0:0:1, 5=4+1:1:0:0:1, 9=7+2:1:0:0:1, 6=6+0:0:0:0:0, 1=1+0:0:0:0:0, 3=3+0:0:0:0:0, 4=3+1:1:0:0:1, 5=4+1:1:0:0:1, 10=8+2:1:0:0:1, 4=4+0:0:0:0:0, 4=2+2:2:0:0:2, 5=5+0:0:0:0:0, 12=7+5:1:0:0:2, 5=5+0:0:0:0:0, 8=6+2:1:1:0:2, 6=5+1:1:0:0:1, 10=7+3:1:0:0:1, 425=339+86:36:3:0:48
Eb minor mel (6b),  ,  ,  ,  ,  ,  ,  ,  ,  ,  ,  ,  ,  ,  ,  ,  ,  ,  ,  ,  ,  ,  ,  ,  ,  ,  ,  ,  ,  ,  ,  ,  ,  ,  ,  ,  ,  ,  ,  ,  ,  ,  ,  ,  ,  ,  ,  ,  ,  ,  ,  ,  ,  ,  ,  ,  ,  ,  ,  ,  ,  ,  ,  ,  ,  ,  ,  ,  ,  ,  ,  ,  ,  , 0=0+0:0:0:0:0
D# minor mel (6#),  ,  ,  ,  ,  ,  ,  ,  ,  ,  ,  ,  ,  ,  ,  ,  ,  ,  ,  ,  ,  ,  ,  ,  ,  ,  ,  ,  ,  ,  ,  ,  ,  ,  ,  ,  ,  ,  ,  ,  ,  ,  ,  ,  ,  ,  ,  ,  ,  ,  ,  ,  ,  ,  ,  ,  ,  ,  ,  ,  ,  ,  ,  ,  ,  ,  ,  ,  ,  ,  ,  ,  ,  , 0=0+0:0:0:0:0
Gb major blues (6b),  ,  ,  ,  ,  ,  ,  ,  ,  ,  ,  ,  ,  ,  ,  ,  ,  ,  ,  ,  ,  ,  ,  ,  ,  ,  ,  ,  ,  ,  ,  ,  ,  ,  ,  ,  ,  ,  ,  ,  ,  ,  ,  ,  ,  ,  ,  ,  ,  ,  ,  ,  ,  ,  ,  ,  ,  ,  ,  ,  ,  ,  ,  ,  ,  ,  ,  ,  ,  ,  ,  ,  ,  , 0=0+0:0:0:0:0
F# major blues (6#),  ,  ,  ,  ,  ,  ,  ,  ,  ,  ,  ,  ,  ,  ,  ,  ,  ,  ,  ,  ,  ,  ,  ,  ,  ,  ,  ,  ,  ,  ,  ,  ,  ,  ,  ,  ,  ,  ,  ,  ,  ,  ,  ,  ,  ,  ,  ,  ,  ,  ,  ,  ,  ,  ,  ,  ,  ,  ,  ,  ,  ,  ,  ,  ,  ,  ,  ,  ,  ,  ,  ,  ,  , 0=0+0:0:0:0:0
Eb minor blues (6b),  ,  ,  ,  ,  ,  ,  ,  ,  ,  ,  ,  ,  ,  ,  ,  ,  ,  ,  ,  ,  ,  ,  ,  ,  ,  ,  ,  ,  ,  ,  ,  ,  ,  ,  ,  ,  ,  ,  ,  ,  ,  ,  ,  ,  ,  ,  ,  ,  ,  ,  ,  ,  ,  ,  ,  ,  ,  ,  ,  ,  ,  ,  ,  ,  ,  ,  ,  ,  ,  ,  ,  ,  , 0=0+0:0:0:0:0
D# minor blues (6#),  ,  ,  ,  ,  ,  ,  ,  ,  ,  ,  ,  ,  ,  ,  ,  ,  ,  ,  ,  ,  ,  ,  ,  ,  ,  ,  ,  ,  ,  ,  ,  ,  ,  ,  ,  ,  ,  ,  ,  ,  ,  ,  ,  ,  ,  ,  ,  ,  ,  ,  ,  ,  ,  ,  ,  ,  ,  ,  ,  ,  ,  ,  ,  ,  ,  ,  ,  ,  ,  ,  ,  ,  , 0=0+0:0:0:0:0
Gb dorian (6b),  ,  ,  ,  ,  ,  ,  ,  ,  ,  ,  ,  ,  ,  ,  ,  ,  ,  ,  ,  ,  ,  ,  ,  ,  ,  ,  ,  ,  ,  ,  ,  ,  ,  ,  ,  ,  ,  ,  ,  ,  ,  ,  ,  ,  ,  ,  ,  ,  ,  ,  ,  ,  ,  ,  ,  ,  ,  ,  ,  ,  ,  ,  ,  ,  ,  ,  ,  ,  ,  ,  ,  ,  , 0=0+0:0:0:0:0
F# dorian (6#),  ,  ,  ,  ,  ,  ,  ,  ,  ,  ,  ,  ,  ,  ,  ,  ,  ,  ,  ,  ,  ,  ,  ,  ,  ,  ,  ,  ,  ,  ,  ,  ,  ,  ,  ,  ,  ,  ,  ,  ,  ,  ,  ,  ,  ,  ,  ,  ,  ,  ,  ,  ,  ,  ,  ,  ,  ,  ,  ,  ,  ,  ,  ,  ,  ,  ,  ,  ,  ,  ,  ,  ,  , 0=0+0:0:0:0:0
Gb phrygian (6b),  ,  ,  ,  ,  ,  ,  ,  ,  ,  ,  ,  ,  ,  ,  ,  ,  ,  ,  ,  ,  ,  ,  ,  ,  ,  ,  ,  ,  ,  ,  ,  ,  ,  ,  ,  ,  ,  ,  ,  ,  ,  ,  ,  ,  ,  ,  ,  ,  ,  ,  ,  ,  ,  ,  ,  ,  ,  ,  ,  ,  ,  ,  ,  ,  ,  ,  ,  ,  ,  ,  ,  ,  , 0=0+0:0:0:0:0
F# phrygian (6#),  ,  ,  ,  ,  ,  ,  ,  ,  ,  ,  ,  ,  ,  ,  ,  ,  ,  ,  ,  ,  ,  ,  ,  ,  ,  ,  ,  ,  ,  ,  ,  ,  ,  ,  ,  ,  ,  ,  ,  ,  ,  ,  ,  ,  ,  ,  ,  ,  ,  ,  ,  ,  ,  ,  ,  ,  ,  ,  ,  ,  ,  ,  ,  ,  ,  ,  ,  ,  ,  ,  ,  ,  , 0=0+0:0:0:0:0
Gb lydian (6b),  ,  ,  ,  ,  ,  ,  ,  ,  ,  ,  ,  ,  ,  ,  ,  ,  ,  ,  ,  ,  ,  ,  ,  ,  ,  ,  ,  ,  ,  ,  ,  ,  ,  ,  ,  ,  ,  ,  ,  ,  ,  ,  ,  ,  ,  ,  ,  ,  ,  ,  ,  ,  ,  ,  ,  ,  ,  ,  ,  ,  ,  ,  ,  ,  ,  ,  ,  ,  ,  ,  ,  ,  , 0=0+0:0:0:0:0
F# lydian (6#),  ,  ,  ,  ,  ,  ,  ,  ,  ,  ,  ,  ,  ,  ,  ,  ,  ,  ,  ,  ,  ,  ,  ,  ,  ,  ,  ,  ,  ,  ,  ,  ,  ,  ,  ,  ,  ,  ,  ,  ,  ,  ,  ,  ,  ,  ,  ,  ,  ,  ,  ,  ,  ,  ,  ,  ,  ,  ,  ,  ,  ,  ,  ,  ,  ,  ,  ,  ,  ,  ,  ,  ,  , 0=0+0:0:0:0:0
Gb mixolydian (6b),  ,  ,  ,  ,  ,  ,  ,  ,  ,  ,  ,  ,  ,  ,  ,  ,  ,  ,  ,  ,  ,  ,  ,  ,  ,  ,  ,  ,  ,  ,  ,  ,  ,  ,  ,  ,  ,  ,  ,  ,  ,  ,  ,  ,  ,  ,  ,  ,  ,  ,  ,  ,  ,  ,  ,  ,  ,  ,  ,  ,  ,  ,  ,  ,  ,  ,  ,  ,  ,  ,  ,  ,  , 0=0+0:0:0:0:0
F# mixolydian (6#),  ,  ,  ,  ,  ,  ,  ,  ,  ,  ,  ,  ,  ,  ,  ,  ,  ,  ,  ,  ,  ,  ,  ,  ,  ,  ,  ,  ,  ,  ,  ,  ,  ,  ,  ,  ,  ,  ,  ,  ,  ,  ,  ,  ,  ,  ,  ,  ,  ,  ,  ,  ,  ,  ,  ,  ,  ,  ,  ,  ,  ,  ,  ,  ,  ,  ,  ,  ,  ,  ,  ,  ,  , 0=0+0:0:0:0:0
Gb aeolian (6b),  ,  ,  ,  ,  ,  ,  ,  ,  ,  ,  ,  ,  ,  ,  ,  ,  ,  ,  ,  ,  ,  ,  ,  ,  ,  ,  ,  ,  ,  ,  ,  ,  ,  ,  ,  ,  ,  ,  ,  ,  ,  ,  ,  ,  ,  ,  ,  ,  ,  ,  ,  ,  ,  ,  ,  ,  ,  ,  ,  ,  ,  ,  ,  ,  ,  ,  ,  ,  ,  ,  ,  ,  , 0=0+0:0:0:0:0
F# aeolian (6#),  ,  ,  ,  ,  ,  ,  ,  ,  ,  ,  ,  ,  ,  ,  ,  ,  ,  ,  ,  ,  ,  ,  ,  ,  ,  ,  ,  ,  ,  ,  ,  ,  ,  ,  ,  ,  ,  ,  ,  ,  ,  ,  ,  ,  ,  ,  ,  ,  ,  ,  ,  ,  ,  ,  ,  ,  ,  ,  ,  ,  ,  ,  ,  ,  ,  ,  ,  ,  ,  ,  ,  ,  , 0=0+0:0:0:0:0
Gb locrian (6b),  ,  ,  ,  ,  ,  ,  ,  ,  ,  ,  ,  ,  ,  ,  ,  ,  ,  ,  ,  ,  ,  ,  ,  ,  ,  ,  ,  ,  ,  ,  ,  ,  ,  ,  ,  ,  ,  ,  ,  ,  ,  ,  ,  ,  ,  ,  ,  ,  ,  ,  ,  ,  ,  ,  ,  ,  ,  ,  ,  ,  ,  ,  ,  ,  ,  ,  ,  ,  ,  ,  ,  ,  , 0=0+0:0:0:0:0
F# locrian (6#),  ,  ,  ,  ,  ,  ,  ,  ,  ,  ,  ,  ,  ,  ,  ,  ,  ,  ,  ,  ,  ,  ,  ,  ,  ,  ,  ,  ,  ,  ,  ,  ,  ,  ,  ,  ,  ,  ,  ,  ,  ,  ,  ,  ,  ,  ,  ,  ,  ,  ,  ,  ,  ,  ,  ,  ,  ,  ,  ,  ,  ,  ,  ,  ,  ,  ,  ,  ,  ,  ,  ,  ,  , 0=0+0:0:0:0:0
Cb major (7b), 0=0+0:0:0:0:0, 6=4+2:0:0:0:0, 2=0+2:0:0:0:0, 5=3+2:0:0:0:0, 2=2+0:0:0:0:0, 2=2+0:0:0:0:0, 6=3+3:0:0:0:1, 4=3+1:0:0:0:1, 2=2+0:0:0:0:0, 2=2+0:0:0:0:0, 2=2+0:0:0:0:0, 7=4+3:0:0:0:2, 4=2+2:0:0:0:0, 6=4+2:0:0:0:0, 2=0+2:0:0:0:0, 5=3+2:0:0:0:0, 2=2+0:0:0:0:0, 2=2+0:0:0:0:0, 6=3+3:0:0:0:1, 4=3+1:0:0:0:1, 2=2+0:0:0:0:0, 2=2+0:0:0:0:0, 2=2+0:0:0:0:0, 7=4+3:0:0:0:2, 3=2+1:0:0:0:1, 3=3+0:0:0:0:0, 5=3+2:0:0:0:0, 3=3+0:0:0:0:0, 2=2+0:0:0:0:0, 2=2+0:0:0:0:0, 0=0+0:0:0:0:0, 6=2+4:0:1:0:0, 10=7+3:0:0:0:1, 9=6+3:0:1:0:1, 9=5+4:0:1:0:0, 3=2+1:0:0:0:0, 2=2+0:0:0:0:0, 2=2+0:0:0:0:0, 4=3+1:0:0:0:0, 5=4+1:0:0:0:0, 6=4+2:0:0:0:1, 3=2+1:0:0:0:1, 5=4+1:0:0:0:1, 12=6+6:0:0:0:3, 17=11+6:0:1:0:0, 4=3+1:0:0:0:0, 4=3+1:0:0:0:1, 3=2+1:0:0:0:0, 4=3+1:0:0:0:0, 4=3+1:0:0:0:0, 5=3+2:0:0:0:0, 2=2+0:0:0:0:0, 1=1+0:0:0:0:0, 5=4+1:0:0:0:0, 5=2+3:0:0:0:0, 2=2+0:0:0:0:0, 9=7+2:0:0:0:1, 3=2+1:0:0:0:0, 7=4+3:0:1:0:0, 5=4+1:0:0:0:0, 0=0+0:0:0:0:0, 1=1+0:0:0:0:0, 2=1+1:0:0:0:0, 3=2+1:0:0:0:0, 7=4+3:0:0:0:0, 1=1+0:0:0:0:0, 2=1+1:0:0:0:0, 5=4+1:0:0:0:0, 12=7+5:1:0:0:2, 5=3+2:0:0:0:0, 7=4+3:0:1:0:0, 6=4+2:1:0:0:1, 7=5+2:0:0:0:1, 316=213+103:2:6:0:23
C# major (7#), 1=1+0:0:0:0:0, 7=5+2:1:0:0:1, 5=3+2:2:0:0:2, 8=7+1:0:0:0:0, 3=3+0:0:0:0:0, 3=3+0:0:0:0:0, 8=5+3:1:0:0:2, 4=3+1:0:0:0:0, 4=4+0:0:0:0:0, 3=3+0:0:0:0:0, 3=3+0:0:0:0:0, 8=6+2:0:0:0:0, 5=3+2:2:0:0:2, 7=5+2:1:0:0:1, 5=3+2:2:0:0:2, 8=7+1:0:0:0:0, 3=3+0:0:0:0:0, 3=3+0:0:0:0:0, 8=5+3:1:0:0:2, 4=3+1:0:0:0:0, 4=4+0:0:0:0:0, 3=3+0:0:0:0:0, 3=3+0:0:0:0:0, 8=6+2:0:0:0:0, 5=3+2:2:0:0:2, 4=4+0:0:0:0:0, 7=5+2:0:0:0:0, 4=4+0:0:0:0:0, 4=1+3:3:1:0:3, 6=6+0:0:0:0:0, 3=2+1:0:0:0:1, 10=4+6:6:0:0:6, 11=8+3:1:0:0:1, 11=9+2:1:0:0:1, 10=8+2:1:1:0:2, 5=4+1:0:0:0:0, 3=3+0:0:0:0:0, 6=4+2:2:0:0:2, 7=6+1:0:0:0:0, 6=6+0:0:0:0:0, 6=4+2:1:0:0:2, 6=5+1:0:0:0:1, 8=7+1:0:0:0:1, 12=9+3:1:0:0:1, 17=11+6:1:1:0:1, 6=5+1:1:0:0:1, 4=2+2:2:1:0:2, 4=3+1:1:0:0:1, 4=3+1:0:0:0:0, 5=2+3:3:1:0:3, 6=5+1:0:0:0:0, 3=3+0:0:0:0:0, 3=3+0:0:0:0:0, 7=7+0:0:0:0:0, 3=3+0:0:0:0:0, 2=2+0:0:0:0:0, 12=9+3:0:0:0:1, 5=4+1:1:0:0:1, 9=7+2:1:0:0:1, 6=6+0:0:0:0:0, 1=1+0:0:0:0:0, 3=3+0:0:0:0:0, 4=4+0:0:0:0:0, 5=4+1:1:0:0:1, 9=6+3:3:1:0:3, 4=4+0:0:0:0:0, 3=3+0:0:0:0:0, 5=5+0:0:0:0:0, 12=7+5:1:0:0:2, 5=5+0:0:0:0:0, 8=6+2:1:1:0:2, 6=5+1:1:0:0:1, 9=7+2:1:0:0:2, 422=331+91:46:7:0:57
Ab minor (7b), 0=0+0:0:0:0:0, 6=4+2:0:0:0:0, 2=0+2:0:0:0:0, 4=3+1:0:0:0:0, 2=2+0:0:0:0:0, 2=2+0:0:0:0:0, 6=3+3:0:0:0:1, 4=3+1:0:0:0:0, 2=2+0:0:0:0:0, 2=2+0:0:0:0:0, 2=2+0:0:0:0:0, 6=4+2:0:0:0:0, 3=2+1:0:0:0:1, 6=4+2:0:0:0:0, 2=0+2:0:0:0:0, 4=3+1:0:0:0:0, 2=2+0:0:0:0:0, 2=2+0:0:0:0:0, 6=3+3:0:0:0:1, 4=3+1:0:0:0:0, 2=2+0:0:0:0:0, 2=2+0:0:0:0:0, 2=2+0:0:0:0:0, 6=4+2:0:0:0:0, 3=2+1:0:0:0:1, 3=3+0:0:0:0:0, 5=3+2:0:0:0:0, 3=3+0:0:0:0:0, 3=2+1:0:0:0:0, 2=2+0:0:0:0:0, 1=0+1:0:1:0:0, 9=2+7:0:1:0:1, 10=7+3:0:0:0:0, 9=6+3:0:1:0:1, 9=5+4:0:1:0:0, 3=2+1:0:0:0:0, 2=2+0:0:0:0:0, 4=2+2:0:0:0:0, 4=3+1:0:0:0:0, 4=4+0:0:0:0:0, 6=4+2:0:0:0:1, 3=2+1:0:0:0:1, 5=4+1:0:0:0:1, 9=6+3:0:0:0:0, 18=11+7:0:1:0:2, 4=3+1:0:0:0:0, 4=3+1:0:0:0:1, 3=2+1:0:0:0:0, 4=3+1:0:0:0:0, 4=3+1:0:0:0:0, 4=3+1:0:0:0:0, 2=2+0:0:0:0:0, 1=1+0:0:0:0:0, 4=4+0:0:0:0:0, 2=2+0:0:0:0:0, 2=2+0:0:0:0:0, 9=7+2:0:0:0:1, 3=2+1:0:0:0:0, 7=4+3:0:1:0:0, 5=4+1:0:0:0:0, 0=0+0:0:0:0:0, 1=1+0:0:0:0:0, 2=1+1:0:0:0:0, 3=2+1:0:0:0:0, 6=4+2:0:0:0:0, 1=1+0:0:0:0:0, 1=1+0:0:0:0:0, 5=4+1:0:0:0:0, 12=7+5:1:0:0:2, 3=3+0:0:0:0:0, 6=4+2:0:1:0:1, 5=4+1:1:0:0:1, 7=5+2:0:0:0:1, 304=213+91:2:7:0:18
A# minor (7#), 1=1+0:0:0:0:0, 7=5+2:1:0:0:1, 5=3+2:2:0:0:2, 8=7+1:0:0:0:0, 3=3+0:0:0:0:0, 3=3+0:0:0:0:0, 6=5+1:1:0:0:1, 4=3+1:0:0:0:0, 4=4+0:0:0:0:0, 3=3+0:0:0:0:0, 3=3+0:0:0:0:0, 8=6+2:0:0:0:0, 5=3+2:2:0:0:2, 7=5+2:1:0:0:1, 5=3+2:2:0:0:2, 8=7+1:0:0:0:0, 3=3+0:0:0:0:0, 3=3+0:0:0:0:0, 6=5+1:1:0:0:1, 4=3+1:0:0:0:0, 4=4+0:0:0:0:0, 3=3+0:0:0:0:0, 3=3+0:0:0:0:0, 8=6+2:0:0:0:0, 5=3+2:2:0:0:2, 4=4+0:0:0:0:0, 7=5+2:0:0:0:0, 4=4+0:0:0:0:0, 4=1+3:3:1:0:3, 6=6+0:0:0:0:0, 3=2+1:0:0:0:1, 10=4+6:6:0:0:6, 11=8+3:1:0:0:1, 11=9+2:1:0:0:1, 10=8+2:1:1:0:2, 5=4+1:0:0:0:0, 3=3+0:0:0:0:0, 6=4+2:2:0:0:2, 7=6+1:0:0:0:0, 6=6+0:0:0:0:0, 5=4+1:1:0:0:1, 6=5+1:0:0:0:0, 8=7+1:0:0:0:0, 16=10+6:0:0:0:2, 17=11+6:1:1:0:1, 6=5+1:1:0:0:1, 4=2+2:2:1:0:2, 4=3+1:1:0:0:1, 4=3+1:0:0:0:0, 5=2+3:3:1:0:3, 5=5+0:0:0:0:0, 3=3+0:0:0:0:0, 3=3+0:0:0:0:0, 7=7+0:0:0:0:0, 3=3+0:0:0:0:0, 2=2+0:0:0:0:0, 12=9+3:0:0:0:1, 5=4+1:1:0:0:1, 9=7+2:1:0:0:1, 6=6+0:0:0:0:0, 1=1+0:0:0:0:0, 3=3+0:0:0:0:0, 4=4+0:0:0:0:0, 5=4+1:1:0:0:1, 9=6+3:3:1:0:3, 4=4+0:0:0:0:0, 3=3+0:0:0:0:0, 5=5+0:0:0:0:0, 12=7+5:1:0:0:2, 5=5+0:0:0:0:0, 8=6+2:1:1:0:2, 6=5+1:1:0:0:1, 9=7+2:1:0:0:2, 420=332+88:45:7:0:53
Ab minor mel (7b),  ,  ,  ,  ,  ,  ,  ,  ,  ,  ,  ,  ,  ,  ,  ,  ,  ,  ,  ,  ,  ,  ,  ,  ,  ,  ,  ,  ,  ,  ,  ,  ,  ,  ,  ,  ,  ,  ,  ,  ,  ,  ,  ,  ,  ,  ,  ,  ,  ,  ,  ,  ,  ,  ,  ,  ,  ,  ,  ,  ,  ,  ,  ,  ,  ,  ,  ,  ,  ,  ,  ,  ,  , 0=0+0:0:0:0:0
A# minor mel (7#),  ,  ,  ,  ,  ,  ,  ,  ,  ,  ,  ,  ,  ,  ,  ,  ,  ,  ,  ,  ,  ,  ,  ,  ,  ,  ,  ,  ,  ,  ,  ,  ,  ,  ,  ,  ,  ,  ,  ,  ,  ,  ,  ,  ,  ,  ,  ,  ,  ,  ,  ,  ,  ,  ,  ,  ,  ,  ,  ,  ,  ,  ,  ,  ,  ,  ,  ,  ,  ,  ,  ,  ,  , 0=0+0:0:0:0:0
Cb major blues (7b),  ,  ,  ,  ,  ,  ,  ,  ,  ,  ,  ,  ,  ,  ,  ,  ,  ,  ,  ,  ,  ,  ,  ,  ,  ,  ,  ,  ,  ,  ,  ,  ,  ,  ,  ,  ,  ,  ,  ,  ,  ,  ,  ,  ,  ,  ,  ,  ,  ,  ,  ,  ,  ,  ,  ,  ,  ,  ,  ,  ,  ,  ,  ,  ,  ,  ,  ,  ,  ,  ,  ,  ,  , 0=0+0:0:0:0:0
C# major blues (7#),  ,  ,  ,  ,  ,  ,  ,  ,  ,  ,  ,  ,  ,  ,  ,  ,  ,  ,  ,  ,  ,  ,  ,  ,  ,  ,  ,  ,  ,  ,  ,  ,  ,  ,  ,  ,  ,  ,  ,  ,  ,  ,  ,  ,  ,  ,  ,  ,  ,  ,  ,  ,  ,  ,  ,  ,  ,  ,  ,  ,  ,  ,  ,  ,  ,  ,  ,  ,  ,  ,  ,  ,  , 0=0+0:0:0:0:0
Ab minor blues (7b),  ,  ,  ,  ,  ,  ,  ,  ,  ,  ,  ,  ,  ,  ,  ,  ,  ,  ,  ,  ,  ,  ,  ,  ,  ,  ,  ,  ,  ,  ,  ,  ,  ,  ,  ,  ,  ,  ,  ,  ,  ,  ,  ,  ,  ,  ,  ,  ,  ,  ,  ,  ,  ,  ,  ,  ,  ,  ,  ,  ,  ,  ,  ,  ,  ,  ,  ,  ,  ,  ,  ,  ,  , 0=0+0:0:0:0:0
A# minor blues (7#),  ,  ,  ,  ,  ,  ,  ,  ,  ,  ,  ,  ,  ,  ,  ,  ,  ,  ,  ,  ,  ,  ,  ,  ,  ,  ,  ,  ,  ,  ,  ,  ,  ,  ,  ,  ,  ,  ,  ,  ,  ,  ,  ,  ,  ,  ,  ,  ,  ,  ,  ,  ,  ,  ,  ,  ,  ,  ,  ,  ,  ,  ,  ,  ,  ,  ,  ,  ,  ,  ,  ,  ,  , 0=0+0:0:0:0:0
Cb dorian (7b),  ,  ,  ,  ,  ,  ,  ,  ,  ,  ,  ,  ,  ,  ,  ,  ,  ,  ,  ,  ,  ,  ,  ,  ,  ,  ,  ,  ,  ,  ,  ,  ,  ,  ,  ,  ,  ,  ,  ,  ,  ,  ,  ,  ,  ,  ,  ,  ,  ,  ,  ,  ,  ,  ,  ,  ,  ,  ,  ,  ,  ,  ,  ,  ,  ,  ,  ,  ,  ,  ,  ,  ,  , 0=0+0:0:0:0:0
C# dorian (7#),  ,  ,  ,  ,  ,  ,  ,  ,  ,  ,  ,  ,  ,  ,  ,  ,  ,  ,  ,  ,  ,  ,  ,  ,  ,  ,  ,  ,  ,  ,  ,  ,  ,  ,  ,  ,  ,  ,  ,  ,  ,  ,  ,  ,  ,  ,  ,  ,  ,  ,  ,  ,  ,  ,  ,  ,  ,  ,  ,  ,  ,  ,  ,  ,  ,  ,  ,  ,  ,  ,  ,  ,  , 0=0+0:0:0:0:0
Cb phrygian (7b),  ,  ,  ,  ,  ,  ,  ,  ,  ,  ,  ,  ,  ,  ,  ,  ,  ,  ,  ,  ,  ,  ,  ,  ,  ,  ,  ,  ,  ,  ,  ,  ,  ,  ,  ,  ,  ,  ,  ,  ,  ,  ,  ,  ,  ,  ,  ,  ,  ,  ,  ,  ,  ,  ,  ,  ,  ,  ,  ,  ,  ,  ,  ,  ,  ,  ,  ,  ,  ,  ,  ,  ,  , 0=0+0:0:0:0:0
C# phrygian (7#),  ,  ,  ,  ,  ,  ,  ,  ,  ,  ,  ,  ,  ,  ,  ,  ,  ,  ,  ,  ,  ,  ,  ,  ,  ,  ,  ,  ,  ,  ,  ,  ,  ,  ,  ,  ,  ,  ,  ,  ,  ,  ,  ,  ,  ,  ,  ,  ,  ,  ,  ,  ,  ,  ,  ,  ,  ,  ,  ,  ,  ,  ,  ,  ,  ,  ,  ,  ,  ,  ,  ,  ,  , 0=0+0:0:0:0:0
Cb lydian (7b),  ,  ,  ,  ,  ,  ,  ,  ,  ,  ,  ,  ,  ,  ,  ,  ,  ,  ,  ,  ,  ,  ,  ,  ,  ,  ,  ,  ,  ,  ,  ,  ,  ,  ,  ,  ,  ,  ,  ,  ,  ,  ,  ,  ,  ,  ,  ,  ,  ,  ,  ,  ,  ,  ,  ,  ,  ,  ,  ,  ,  ,  ,  ,  ,  ,  ,  ,  ,  ,  ,  ,  ,  , 0=0+0:0:0:0:0
C# lydian (7#),  ,  ,  ,  ,  ,  ,  ,  ,  ,  ,  ,  ,  ,  ,  ,  ,  ,  ,  ,  ,  ,  ,  ,  ,  ,  ,  ,  ,  ,  ,  ,  ,  ,  ,  ,  ,  ,  ,  ,  ,  ,  ,  ,  ,  ,  ,  ,  ,  ,  ,  ,  ,  ,  ,  ,  ,  ,  ,  ,  ,  ,  ,  ,  ,  ,  ,  ,  ,  ,  ,  ,  ,  , 0=0+0:0:0:0:0
Cb mixolydian (7b),  ,  ,  ,  ,  ,  ,  ,  ,  ,  ,  ,  ,  ,  ,  ,  ,  ,  ,  ,  ,  ,  ,  ,  ,  ,  ,  ,  ,  ,  ,  ,  ,  ,  ,  ,  ,  ,  ,  ,  ,  ,  ,  ,  ,  ,  ,  ,  ,  ,  ,  ,  ,  ,  ,  ,  ,  ,  ,  ,  ,  ,  ,  ,  ,  ,  ,  ,  ,  ,  ,  ,  ,  , 0=0+0:0:0:0:0
C# mixolydian (7#),  ,  ,  ,  ,  ,  ,  ,  ,  ,  ,  ,  ,  ,  ,  ,  ,  ,  ,  ,  ,  ,  ,  ,  ,  ,  ,  ,  ,  ,  ,  ,  ,  ,  ,  ,  ,  ,  ,  ,  ,  ,  ,  ,  ,  ,  ,  ,  ,  ,  ,  ,  ,  ,  ,  ,  ,  ,  ,  ,  ,  ,  ,  ,  ,  ,  ,  ,  ,  ,  ,  ,  ,  , 0=0+0:0:0:0:0
Cb aeolian (7b),  ,  ,  ,  ,  ,  ,  ,  ,  ,  ,  ,  ,  ,  ,  ,  ,  ,  ,  ,  ,  ,  ,  ,  ,  ,  ,  ,  ,  ,  ,  ,  ,  ,  ,  ,  ,  ,  ,  ,  ,  ,  ,  ,  ,  ,  ,  ,  ,  ,  ,  ,  ,  ,  ,  ,  ,  ,  ,  ,  ,  ,  ,  ,  ,  ,  ,  ,  ,  ,  ,  ,  ,  , 0=0+0:0:0:0:0
C# aeolian (7#),  ,  ,  ,  ,  ,  ,  ,  ,  ,  ,  ,  ,  ,  ,  ,  ,  ,  ,  ,  ,  ,  ,  ,  ,  ,  ,  ,  ,  ,  ,  ,  ,  ,  ,  ,  ,  ,  ,  ,  ,  ,  ,  ,  ,  ,  ,  ,  ,  ,  ,  ,  ,  ,  ,  ,  ,  ,  ,  ,  ,  ,  ,  ,  ,  ,  ,  ,  ,  ,  ,  ,  ,  , 0=0+0:0:0:0:0
Cb locrian (7b),  ,  ,  ,  ,  ,  ,  ,  ,  ,  ,  ,  ,  ,  ,  ,  ,  ,  ,  ,  ,  ,  ,  ,  ,  ,  ,  ,  ,  ,  ,  ,  ,  ,  ,  ,  ,  ,  ,  ,  ,  ,  ,  ,  ,  ,  ,  ,  ,  ,  ,  ,  ,  ,  ,  ,  ,  ,  ,  ,  ,  ,  ,  ,  ,  ,  ,  ,  ,  ,  ,  ,  ,  , 0=0+0:0:0:0:0
C# locrian (7#),  ,  ,  ,  ,  ,  ,  ,  ,  ,  ,  ,  ,  ,  ,  ,  ,  ,  ,  ,  ,  ,  ,  ,  ,  ,  ,  ,  ,  ,  ,  ,  ,  ,  ,  ,  ,  ,  ,  ,  ,  ,  ,  ,  ,  ,  ,  ,  ,  ,  ,  ,  ,  ,  ,  ,  ,  ,  ,  ,  ,  ,  ,  ,  ,  ,  ,  ,  ,  ,  ,  ,  ,  , 0=0+0:0:0:0:0
