 , 0, 1, 2, 3, 4, 5, 6, 7, 8, 9, 10, 11, 12, 13, 14, 15, 16, 17, 18, 19, 20, 21, 22, 23, 24, 25, 26, 27, 28, 29, 30, 31, 32, 33, 34, 35, 36, 37, 38, 39, 40, 41, 42, 43, 44, 45, 46, 47, 48, 49, 50, 51, 52, 53, 54, 55, 56, 57, 58, 59, 60, 61, 62, 63, 64, 65, 66, 67, 68, 69, 70, 71, 72, 73, 74, 75, 76, 77, 78, 79, 80, 81, 82, 83, 84, 85, 86, 87, 88, 89, 90, 91, 92, 93, 94, 95, 96, 97, 98, 99, 100, 101, 102, 103, 104, 105, 106, 107, 108, 109, 110, 111, 112, 113, 114, 115, 116, 117, 118, 119, 120, 121, 122, 123, 124, 125, 126, 127, 128, 129, 130, 131, 132, 133, 134, 135, 136, 137, 138, 139, 140, 141, 142, 143, 144, 145, 146, 147, 148, 149, 150, 151, 152, 153, 154, 155, 156, 157, 158, 159, 160, 161, 162, 163, 164, 165, 166, 167, 168, 169, 170, 171, 172, 173, 174, 175, 176, 177, rowcost
C major (0), 0+0:0:0:0:0, 3+1:0:0:0:0, 1+2:0:0:0:0, 3+2:0:0:0:0, 0+0:0:0:0:0, 5+7:0:0:0:0, 3+1:0:0:0:0, 4+6:0:1:0:1, 0+2:0:0:0:0, 3+1:0:0:0:0, 1+2:0:0:0:0, 3+2:0:0:0:0, 0+0:0:0:0:0, 5+7:0:0:0:0, 3+1:0:0:0:0, 4+6:0:1:0:1, 0+2:0:0:0:0, 3+2:0:0:0:0, 2+2:0:0:0:0, 4+2:0:1:0:1, 2+1:0:0:0:0, 3+5:0:0:0:0, 6+3:1:0:0:1, 2+4:0:0:0:1, 3+3:0:0:0:0, 3+1:0:0:0:0, 1+2:0:0:0:0, 1+1:0:0:0:0, 0+0:0:0:0:0, 5+7:0:0:0:0, 3+1:0:0:0:0, 4+3:0:1:0:1, 3+2:0:0:0:0, 2+0:0:0:0:0, 0+0:0:0:0:0, 6+3:0:0:0:1, 3+4:0:0:0:4, 6+6:0:0:0:2, 1+2:0:0:0:0, 6+8:0:0:0:0, 7+5:0:0:0:0, 7+7:0:1:0:1, 2+4:0:0:0:0, 5+5:0:0:0:4, 3+5:0:0:0:4, 2+4:0:0:0:3, 1+1:0:0:0:0, 6+6:0:0:0:0, 4+3:0:0:0:0, 7+4:0:1:0:1, 0+0:0:0:0:0, 5+2:0:1:0:1, 3+5:0:0:0:0, 6+3:0:0:0:2, 3+3:0:0:0:0, 6+7:0:0:0:2, 5+3:1:0:0:0, 3+6:0:0:0:0, 8+5:1:0:0:2, 7+4:0:0:0:1, 4+5:0:0:0:5, 2+1:0:0:0:0, 2+2:0:0:0:0, 5+4:0:0:0:0, 4+2:0:0:0:0, 4+2:0:1:0:1, 2+1:0:0:0:0, 2+0:0:0:0:0, 1+0:0:0:0:0, 3+3:0:0:0:2, 1+0:0:0:0:0, 1+1:0:0:0:0, 0+0:0:0:0:0, 5+6:0:0:0:0, 4+2:0:0:0:0, 4+6:0:1:0:1, 2+2:0:0:0:0, 4+2:0:0:0:0, 2+1:0:0:0:1, 2+1:0:0:0:0, 1+1:0:0:0:0, 6+8:0:0:0:0, 5+3:0:0:0:0, 4+5:0:1:0:2, 0+3:0:0:0:0, 5+3:0:0:0:0, 2+1:0:0:0:0, 4+1:0:0:0:0, 2+3:0:0:0:0, 4+3:2:0:0:0, 6+3:1:0:0:0, 3+4:0:0:0:1, 4+4:0:0:0:0, 4+1:0:0:0:0, 1+2:0:0:0:0, 5+3:0:0:0:1, 2+1:0:0:0:0, 5+3:0:0:0:0, 3+2:0:0:0:0, 3+5:0:1:0:1, 1+1:0:0:0:0, 2+0:0:0:0:0, 2+2:0:0:0:0, 3+4:0:0:0:3, 2+1:0:0:0:0, 1+1:0:0:0:0, 2+2:0:0:0:0, 5+7:0:0:0:0, 5+3:0:0:0:0, 3+7:0:1:0:1, 2+4:0:0:0:0, 4+1:0:0:0:0, 3+3:0:0:0:0, 2+2:0:0:0:0, 0+0:0:0:0:0, 5+6:0:0:0:0, 3+1:0:0:0:0, 3+4:0:1:0:1, 0+3:0:0:0:0, 4+2:0:0:0:0, 2+1:0:0:0:0, 4+2:0:0:0:0, 3+2:0:0:0:0, 3+1:1:0:0:0, 7+4:2:0:0:0, 5+6:5:0:0:1, 5+4:0:0:0:1, 3+3:0:0:0:2, 1+0:0:0:0:0, 1+1:0:0:0:0, 2+1:0:0:0:0, 6+2:0:0:0:0, 4+2:0:0:0:0, 3+2:0:1:0:1, 3+3:0:0:0:0, 3+2:0:0:0:0, 4+2:0:0:0:0, 4+3:0:0:0:2, 4+3:0:0:0:1, 1+1:0:0:0:0, 0+0:0:0:0:0, 6+7:0:0:0:0, 4+3:0:0:0:0, 5+6:0:1:0:1, 1+1:0:0:0:0, 3+3:0:0:0:2, 3+1:0:0:0:0, 2+1:0:0:0:0, 2+1:0:0:0:0, 5+6:0:0:0:0, 4+3:0:0:0:0, 3+5:0:1:0:1, 0+2:0:0:0:0, 3+1:0:0:0:0, 3+1:0:0:0:0, 4+2:0:0:0:0, 3+2:0:0:0:0, 4+1:1:0:0:0, 5+3:1:0:0:0, 6+7:0:0:0:1, 3+4:0:0:0:0, 3+1:0:0:0:0, 2+1:0:0:0:1, 1+1:0:0:0:0, 2+1:1:0:0:1, 5+4:0:0:0:0, 4+4:0:0:0:0, 4+4:0:1:0:1, 4+1:0:0:0:0, 2+0:0:0:0:0, 3+0:0:0:0:0, 2+0:0:0:0:0, 4+5:0:0:0:0, 2+0:0:0:0:0, 9+6:2:0:0:2, 11+12:0:1:0:7, 3+1:0:0:0:0, 0+0:0:0:0:0, 570+486:19:18:0:79
A minor (0), 0+0:0:0:0:0, 3+1:0:0:0:0, 1+2:0:0:0:0, 3+4:0:0:0:1, 0+0:0:0:0:0, 5+7:0:0:0:0, 3+1:0:0:0:0, 4+6:0:1:0:1, 0+2:0:0:0:0, 3+1:0:0:0:0, 1+2:0:0:0:0, 3+4:0:0:0:1, 0+0:0:0:0:0, 5+7:0:0:0:0, 3+1:0:0:0:0, 4+6:0:1:0:1, 0+2:0:0:0:0, 3+2:0:0:0:0, 2+0:0:0:0:0, 4+1:0:1:0:1, 2+0:0:0:0:0, 3+5:0:0:0:0, 6+3:1:0:0:1, 2+4:0:0:0:1, 3+3:0:0:0:0, 3+1:0:0:0:0, 1+2:0:0:0:0, 1+3:0:0:0:1, 0+0:0:0:0:0, 5+7:0:0:0:0, 3+1:0:0:0:0, 4+6:0:1:0:1, 3+2:0:0:0:0, 2+0:0:0:0:0, 0+0:0:0:0:0, 6+3:0:0:0:1, 3+4:0:0:0:0, 6+8:0:0:0:2, 1+2:0:0:0:0, 6+8:0:0:0:0, 7+5:0:0:0:0, 7+7:0:1:0:1, 2+4:0:0:0:0, 5+5:0:0:0:4, 3+6:0:0:0:0, 2+5:0:0:0:1, 1+1:0:0:0:0, 6+6:0:0:0:0, 4+3:0:0:0:0, 7+4:0:1:0:1, 0+2:0:0:0:0, 5+2:0:1:0:1, 3+1:0:0:0:0, 6+2:0:0:0:0, 3+3:0:0:0:0, 6+10:0:0:0:0, 5+4:1:0:0:1, 4+7:0:0:0:1, 8+8:1:0:0:0, 7+4:0:0:0:1, 4+7:0:0:0:0, 2+3:0:0:0:1, 2+6:0:0:0:0, 5+9:0:0:0:0, 4+3:0:0:0:0, 4+2:0:1:0:1, 2+1:0:0:0:0, 2+0:0:0:0:0, 1+0:0:0:0:0, 3+1:0:0:0:0, 1+4:0:0:0:0, 1+2:0:0:0:1, 0+0:0:0:0:0, 5+6:0:0:0:0, 4+2:0:0:0:0, 4+6:0:1:0:1, 2+2:0:0:0:0, 4+2:0:0:0:0, 2+2:0:0:0:0, 2+2:0:0:0:1, 1+1:0:0:0:0, 6+8:0:0:0:0, 5+3:0:0:0:0, 4+5:0:1:0:2, 0+3:0:0:0:0, 5+3:0:0:0:0, 2+0:0:0:0:0, 4+0:0:0:0:0, 2+0:0:0:0:0, 4+6:0:0:0:0, 6+3:1:0:0:1, 4+5:0:0:0:2, 4+4:0:0:0:0, 4+1:0:0:0:0, 1+2:0:0:0:0, 5+6:0:0:0:2, 3+5:0:0:0:0, 5+7:0:0:0:0, 3+2:0:0:0:0, 3+5:0:1:0:1, 1+1:0:0:0:0, 2+0:0:0:0:0, 2+2:0:0:0:0, 3+1:0:0:0:0, 2+4:0:0:0:0, 1+2:0:0:0:1, 2+2:0:0:0:0, 5+7:0:0:0:0, 5+3:0:0:0:0, 3+7:0:1:0:1, 2+4:0:0:0:0, 4+1:0:0:0:0, 3+3:0:0:0:0, 2+4:0:0:0:1, 0+0:0:0:0:0, 5+6:0:0:0:0, 3+1:0:0:0:0, 3+4:0:1:0:1, 0+3:0:0:0:0, 4+2:0:0:0:0, 2+0:0:0:0:0, 4+1:0:0:0:0, 3+0:0:0:0:0, 3+3:1:0:0:1, 7+6:2:0:0:3, 5+8:5:0:0:5, 5+5:0:0:0:0, 3+1:0:0:0:0, 1+2:0:0:0:0, 1+2:0:0:0:1, 2+4:0:0:0:0, 6+8:0:0:0:0, 4+2:0:0:0:0, 3+2:0:1:0:1, 3+4:0:0:0:0, 3+2:0:0:0:0, 4+2:0:0:0:0, 4+1:0:0:0:0, 4+3:0:0:0:0, 1+3:0:0:0:1, 0+0:0:0:0:0, 6+7:0:0:0:0, 4+3:0:0:0:0, 5+6:0:1:0:1, 1+2:0:0:0:0, 3+2:0:0:0:0, 3+4:0:0:0:0, 2+3:0:0:0:1, 2+1:0:0:0:0, 5+6:0:0:0:0, 4+3:0:0:0:0, 3+5:0:1:0:1, 0+2:0:0:0:0, 3+1:0:0:0:0, 3+1:0:0:0:0, 4+0:0:0:0:0, 3+0:0:0:0:0, 4+5:1:0:0:1, 5+4:1:0:0:1, 6+9:0:0:0:3, 3+4:0:0:0:0, 3+1:0:0:0:0, 2+2:0:0:0:0, 1+3:0:0:0:1, 2+4:1:0:0:1, 5+7:0:0:0:0, 4+2:0:0:0:0, 5+7:0:1:0:4, 4+4:0:0:0:2, 2+0:0:0:0:0, 3+4:0:0:0:0, 2+0:0:0:0:0, 4+5:0:0:0:0, 2+0:0:0:0:0, 9+7:2:0:0:3, 11+13:0:1:0:5, 3+1:0:0:0:0, 0+0:0:0:0:0, 574+573:17:18:0:76
F major (1b), 0+1:0:0:0:0, 4+2:0:0:0:0, 1+0:0:0:0:0, 4+2:0:0:0:0, 1+0:0:0:0:0, 4+4:0:0:0:0, 3+2:0:0:0:0, 5+6:0:1:0:1, 1+0:0:0:0:0, 4+2:0:0:0:0, 1+0:0:0:0:0, 4+2:0:0:0:0, 1+0:0:0:0:0, 4+4:0:0:0:0, 3+2:0:0:0:0, 5+6:0:1:0:1, 1+0:0:0:0:0, 4+2:0:0:0:0, 3+0:0:0:0:0, 5+2:0:1:0:1, 3+1:0:0:0:0, 4+2:1:0:0:1, 6+4:1:0:0:0, 3+2:0:0:0:1, 2+2:0:0:0:0, 4+2:0:0:0:0, 1+0:0:0:0:0, 2+1:0:0:0:0, 1+0:0:0:0:0, 4+4:0:0:0:0, 3+2:0:0:0:0, 5+6:0:1:0:1, 2+2:0:0:0:0, 2+1:0:0:0:0, 0+0:0:0:0:0, 7+5:0:0:0:1, 4+4:0:0:0:4, 7+6:0:0:0:2, 2+2:0:0:0:0, 5+3:0:0:0:0, 5+4:0:1:0:1, 8+7:0:1:0:1, 3+1:0:0:0:0, 6+6:0:0:0:4, 4+5:0:0:0:4, 3+4:0:0:0:3, 2+1:0:0:0:0, 5+3:0:0:0:0, 3+1:0:0:0:0, 8+4:0:1:0:1, 1+0:0:0:0:0, 6+2:0:1:0:1, 4+5:0:0:0:0, 7+3:0:0:0:2, 4+3:0:0:0:0, 7+3:1:0:0:0, 5+3:1:0:0:0, 4+7:0:0:0:4, 7+5:1:0:0:2, 8+6:0:0:0:1, 3+5:1:0:0:4, 3+1:0:0:0:0, 1+2:0:0:0:0, 4+4:0:0:0:0, 3+2:0:0:0:0, 5+2:0:1:0:1, 1+1:0:0:0:0, 2+1:0:0:0:0, 1+0:0:0:0:0, 4+3:0:0:0:0, 1+0:0:0:0:0, 2+1:0:0:0:0, 1+0:0:0:0:0, 4+2:0:0:0:0, 3+1:0:0:0:0, 5+6:0:1:0:1, 2+1:0:0:0:0, 5+3:0:0:0:0, 3+1:0:0:0:1, 3+1:0:0:0:0, 2+1:0:0:0:0, 5+2:0:0:0:0, 4+3:0:0:0:0, 5+5:0:1:0:2, 1+0:0:0:0:0, 6+3:0:0:0:0, 3+0:0:0:0:0, 5+1:0:0:0:0, 3+3:0:0:0:0, 5+3:2:0:0:0, 6+3:1:0:0:0, 4+4:0:0:0:1, 3+2:1:0:0:1, 5+2:0:0:0:0, 1+0:0:0:0:0, 6+3:0:0:0:1, 1+1:0:0:0:0, 4+3:0:0:0:0, 3+2:0:0:0:0, 4+5:0:1:0:1, 0+0:0:0:0:0, 2+3:0:0:0:0, 1+0:0:0:0:0, 4+4:0:0:0:0, 3+1:0:0:0:0, 2+1:0:0:0:0, 3+2:0:0:0:0, 4+4:0:0:0:0, 4+3:0:0:0:0, 4+7:0:1:0:1, 3+1:0:0:0:0, 5+3:0:0:0:0, 4+1:0:0:0:1, 3+2:0:0:0:0, 1+0:0:0:0:0, 4+3:0:0:0:0, 3+2:0:0:0:0, 4+4:0:1:0:1, 1+0:0:0:0:0, 5+2:0:0:0:0, 3+0:0:0:0:0, 5+2:0:0:0:0, 4+2:0:0:0:0, 4+1:1:0:0:0, 7+4:2:0:0:0, 6+6:5:0:0:1, 3+2:1:1:0:1, 4+3:0:0:0:0, 1+0:0:0:0:0, 2+1:0:0:0:0, 1+1:0:0:0:0, 5+2:0:0:0:0, 3+2:0:0:0:0, 4+4:0:1:0:1, 1+1:1:0:0:1, 2+2:0:0:0:0, 3+2:0:0:0:0, 5+6:0:0:0:2, 5+3:0:0:0:1, 2+1:0:0:0:0, 1+0:0:0:0:0, 5+3:0:0:0:0, 3+2:0:0:0:0, 6+6:0:1:0:1, 2+1:0:0:0:0, 4+3:0:0:0:2, 3+1:0:0:0:0, 3+1:0:0:0:0, 3+1:0:0:0:0, 4+3:0:0:0:0, 3+2:0:0:0:0, 4+5:0:1:0:1, 1+0:0:0:0:0, 4+1:0:0:0:0, 4+1:0:0:0:0, 5+2:0:0:0:0, 4+2:0:0:0:0, 5+1:1:0:0:0, 5+3:1:0:0:0, 7+7:0:0:0:1, 2+2:2:0:0:2, 4+2:0:0:0:0, 2+1:0:0:0:1, 2+1:0:0:0:0, 1+1:1:0:0:1, 4+4:0:0:0:0, 5+4:0:0:0:0, 5+4:0:1:0:1, 3+1:0:0:0:0, 2+1:0:0:0:0, 2+0:0:0:0:0, 2+1:0:0:0:0, 5+2:0:0:0:0, 2+1:0:0:0:0, 8+6:2:0:0:2, 12+12:0:1:0:7, 2+1:0:0:0:0, 0+0:0:0:0:0, 626+419:27:20:0:79
G major (1#), 1+0:0:0:0:0, 2+2:0:0:0:0, 0+0:0:0:0:0, 4+2:0:0:0:0, 1+0:0:0:0:0, 6+7:0:0:0:0, 4+1:0:0:0:0, 5+6:0:1:0:1, 1+0:0:0:0:0, 2+2:0:0:0:0, 0+0:0:0:0:0, 4+2:0:0:0:0, 1+0:0:0:0:0, 6+7:0:0:0:0, 4+1:0:0:0:0, 5+6:0:1:0:1, 0+0:0:0:0:0, 2+0:0:0:0:0, 2+0:0:0:0:0, 3+1:0:1:0:1, 2+0:0:0:0:0, 3+2:1:0:0:1, 5+3:1:0:0:1, 3+4:0:0:0:1, 4+2:0:0:0:0, 2+2:0:0:0:0, 0+0:0:0:0:0, 2+1:0:0:0:0, 1+0:0:0:0:0, 6+7:0:0:0:0, 4+1:0:0:0:0, 5+6:0:1:0:1, 4+2:0:0:0:0, 3+0:0:0:0:0, 1+0:0:0:0:0, 5+3:0:0:0:1, 2+4:0:0:0:4, 7+6:0:0:0:2, 2+2:0:0:0:0, 7+8:0:0:0:0, 8+5:0:0:0:0, 8+7:0:1:0:1, 2+1:0:0:0:0, 4+5:0:0:0:4, 2+5:0:0:0:4, 3+4:0:0:0:3, 2+1:0:0:0:0, 7+6:0:0:0:0, 5+3:0:0:0:0, 8+4:0:1:0:1, 0+0:0:0:0:0, 4+2:0:1:0:1, 3+1:0:1:0:1, 5+2:0:0:0:0, 2+0:0:0:0:0, 7+3:1:0:0:0, 4+3:1:0:0:0, 4+6:0:0:0:0, 7+5:1:0:0:2, 6+6:0:0:0:1, 3+5:0:0:0:5, 3+1:0:0:0:0, 3+1:0:0:0:0, 6+9:0:0:0:0, 5+3:0:0:0:0, 5+2:0:1:0:1, 3+1:0:0:0:0, 3+0:0:0:0:0, 1+0:0:0:0:0, 2+3:0:0:0:2, 0+0:0:0:0:0, 2+1:0:0:0:0, 1+0:0:0:0:0, 6+6:0:0:0:0, 5+2:0:0:0:0, 5+6:0:1:0:1, 2+1:0:0:0:0, 3+3:0:0:0:0, 1+1:0:0:0:1, 3+1:0:0:0:0, 2+1:0:0:0:0, 7+8:0:0:0:0, 6+3:0:0:0:0, 5+5:0:1:0:2, 0+0:0:0:0:0, 4+1:0:0:0:0, 2+0:0:0:0:0, 3+0:0:0:0:0, 2+0:0:0:0:0, 4+3:2:0:0:0, 5+3:1:0:0:0, 3+6:3:0:0:0, 5+4:1:0:0:0, 3+2:0:0:0:0, 0+0:0:0:0:0, 6+3:0:0:0:1, 3+2:0:0:0:0, 6+7:0:0:0:0, 4+2:0:0:0:0, 4+5:0:1:0:1, 2+1:0:0:0:0, 3+0:0:0:0:0, 3+3:0:0:0:0, 2+4:0:0:0:0, 1+1:0:0:0:0, 2+1:0:0:0:0, 3+2:0:0:0:0, 6+7:0:0:0:0, 6+3:0:0:0:0, 4+7:0:1:0:1, 2+1:0:0:0:0, 3+3:0:0:0:0, 2+1:0:0:0:1, 3+2:0:0:0:0, 1+0:0:0:0:0, 6+6:0:0:0:0, 4+1:0:0:0:0, 4+4:0:1:0:1, 0+0:0:0:0:0, 3+0:0:0:0:0, 2+0:0:0:0:0, 3+1:0:0:0:0, 2+0:0:0:0:0, 2+1:1:0:0:0, 6+4:2:0:0:0, 4+6:5:0:0:1, 5+5:1:1:0:1, 2+3:0:0:0:0, 0+0:0:0:0:0, 2+1:0:0:0:0, 3+2:0:0:0:0, 7+8:0:0:0:0, 5+2:0:0:0:0, 4+2:0:1:0:1, 4+4:0:0:0:0, 4+2:0:0:0:0, 5+2:0:0:0:0, 3+3:0:0:0:2, 5+3:0:0:0:1, 2+1:0:0:0:0, 1+0:0:0:0:0, 7+7:0:0:0:0, 5+3:0:0:0:0, 6+6:0:1:0:1, 2+1:0:0:0:0, 2+3:0:0:0:2, 2+1:0:0:0:0, 3+1:0:0:0:0, 3+1:0:0:0:0, 6+6:0:0:0:0, 5+3:0:0:0:0, 4+5:0:1:0:1, 0+0:0:0:0:0, 2+0:0:0:0:0, 3+1:0:0:0:0, 3+0:0:0:0:0, 3+0:0:0:0:0, 3+1:1:0:0:0, 4+3:1:0:0:0, 7+7:4:0:0:2, 4+1:0:0:0:0, 2+2:0:0:0:0, 1+1:0:0:0:1, 2+1:0:0:0:0, 3+2:0:0:0:1, 6+7:0:0:0:0, 5+2:0:0:0:0, 5+7:0:1:0:1, 3+4:1:0:0:0, 3+0:0:0:0:0, 3+4:0:0:0:0, 3+0:0:0:0:0, 3+5:0:0:0:0, 3+0:0:0:0:0, 8+7:4:0:0:1, 12+12:0:1:0:7, 4+1:0:0:0:0, 0+0:0:0:0:0, 619+462:32:20:0:72
D minor (1b), 0+1:0:0:0:0, 4+2:0:0:0:0, 1+3:0:0:0:0, 4+4:0:0:0:2, 1+1:0:0:0:0, 4+4:0:0:0:0, 3+2:0:0:0:0, 5+3:0:1:0:1, 1+2:0:0:0:0, 4+1:0:0:0:0, 1+2:0:0:0:0, 4+4:0:0:0:1, 1+1:0:0:0:0, 4+7:0:0:0:0, 3+1:0:0:0:0, 5+8:0:1:0:5, 1+2:0:0:0:0, 4+2:0:0:0:0, 3+2:0:0:0:0, 5+2:0:1:0:1, 3+1:0:0:0:0, 4+2:1:0:0:1, 6+3:1:0:0:1, 3+4:0:0:0:1, 2+2:0:0:0:0, 4+2:0:0:0:0, 1+3:0:0:0:0, 2+3:0:0:0:1, 1+1:0:0:0:0, 4+4:0:0:0:0, 3+2:0:0:0:0, 5+3:0:1:0:1, 2+2:0:0:0:0, 2+0:0:0:0:0, 0+0:0:0:0:0, 7+3:0:0:0:1, 4+5:0:0:0:0, 7+8:0:0:0:2, 2+6:0:0:0:0, 5+8:0:0:0:0, 6+5:0:0:0:0, 8+7:0:1:0:5, 3+4:0:0:0:0, 6+5:0:0:0:4, 4+3:0:0:0:0, 3+5:0:0:0:1, 2+7:0:0:0:0, 5+3:0:0:0:0, 3+1:0:0:0:0, 8+4:0:1:0:1, 1+2:0:0:0:0, 6+2:0:1:0:1, 4+5:0:0:0:0, 7+3:0:0:0:2, 4+3:0:0:0:0, 7+3:1:0:0:0, 5+3:1:0:0:0, 4+7:0:0:0:4, 7+5:1:0:0:2, 8+6:0:0:0:1, 3+12:5:0:0:0, 3+6:0:0:0:1, 1+2:0:0:0:0, 4+4:0:0:0:0, 3+2:0:0:0:0, 5+2:0:1:0:1, 1+1:0:0:0:0, 2+0:0:0:0:0, 1+0:0:0:0:0, 4+1:0:0:0:0, 1+4:0:0:0:0, 2+2:0:0:0:1, 1+1:0:0:0:0, 4+6:0:0:0:0, 3+2:0:0:0:0, 6+6:0:1:0:4, 3+2:0:0:0:0, 5+2:0:0:0:0, 3+4:0:0:0:0, 3+4:0:0:0:1, 2+3:0:0:0:0, 5+2:0:0:0:0, 4+3:0:0:0:0, 5+6:0:1:0:5, 1+3:0:0:0:0, 6+3:0:0:0:0, 3+1:0:0:0:0, 5+1:0:0:0:0, 3+3:0:0:0:0, 5+3:2:0:0:0, 6+3:1:0:0:0, 5+5:0:0:0:2, 3+3:0:0:0:0, 5+2:0:0:0:0, 1+3:0:0:0:0, 7+5:0:0:0:1, 1+1:0:0:0:0, 4+3:0:0:0:0, 3+2:0:0:0:0, 4+5:0:1:0:1, 0+0:0:0:0:0, 2+3:0:0:0:0, 1+3:0:0:0:2, 4+4:0:0:0:0, 3+2:0:0:0:0, 2+5:0:0:0:1, 3+2:0:0:0:0, 4+4:0:0:0:0, 4+3:0:0:0:0, 4+7:0:1:0:1, 3+4:0:0:0:0, 5+1:0:0:0:0, 4+3:0:0:0:0, 3+4:0:0:0:1, 1+1:0:0:0:0, 4+6:0:0:0:0, 3+1:0:0:0:0, 4+7:0:1:0:4, 1+3:0:0:0:0, 5+2:0:0:0:0, 3+1:0:0:0:0, 5+2:0:0:0:0, 4+2:0:0:0:0, 4+1:1:0:0:0, 7+4:2:0:0:0, 7+7:4:0:0:1, 3+2:1:1:0:1, 4+3:0:0:0:0, 1+2:0:0:0:0, 2+3:0:0:0:1, 1+1:0:0:0:0, 5+2:0:0:0:0, 3+2:0:0:0:0, 4+2:0:1:0:1, 2+4:0:0:0:0, 2+2:0:0:0:0, 3+2:0:0:0:0, 5+1:0:0:0:0, 5+3:0:0:0:0, 2+3:0:0:0:1, 1+1:0:0:0:0, 5+7:0:0:0:0, 3+3:0:0:0:0, 7+8:0:1:0:5, 2+2:0:0:0:0, 4+2:0:0:0:0, 3+4:0:0:0:0, 3+3:0:0:0:1, 3+3:0:0:0:0, 4+6:0:0:0:0, 3+3:0:0:0:0, 4+8:0:1:0:5, 1+2:0:0:0:0, 4+1:0:0:0:0, 4+1:0:0:0:0, 5+2:0:0:0:0, 4+2:0:0:0:0, 5+1:1:0:0:0, 5+3:1:0:0:0, 9+7:4:0:0:2, 2+1:0:0:0:0, 4+2:0:0:0:0, 2+3:0:0:0:0, 2+3:0:0:0:1, 1+1:1:0:0:1, 4+4:0:0:0:0, 5+4:0:0:0:0, 5+4:0:1:0:1, 3+1:0:0:0:0, 2+1:0:0:0:0, 2+0:0:0:0:0, 2+1:0:0:0:0, 5+2:0:0:0:0, 2+1:0:0:0:0, 8+6:2:0:0:2, 12+12:0:1:0:7, 2+1:0:0:0:0, 0+0:0:0:0:0, 636+552:30:19:0:95
E minor (1#), 1+0:0:0:0:0, 2+1:0:0:0:0, 0+1:0:0:0:0, 4+4:0:0:0:1, 1+1:0:0:0:0, 6+7:0:0:0:4, 4+6:0:0:0:1, 5+8:0:1:0:5, 1+2:0:0:0:0, 2+1:0:0:0:0, 0+1:0:0:0:0, 4+4:0:0:0:1, 1+1:0:0:0:0, 6+7:0:0:0:4, 4+6:0:0:0:1, 5+8:0:1:0:5, 0+0:0:0:0:0, 2+0:0:0:0:0, 2+0:0:0:0:0, 3+1:0:1:0:1, 2+0:0:0:0:0, 3+3:1:0:0:1, 5+10:1:0:0:2, 3+4:0:0:0:1, 4+3:0:0:0:0, 2+1:0:0:0:0, 0+1:0:0:0:0, 2+3:0:0:0:1, 1+1:0:0:0:0, 6+7:0:0:0:0, 4+1:0:0:0:0, 5+6:0:1:0:1, 4+2:0:0:0:0, 3+0:0:0:0:0, 1+0:0:0:0:0, 5+3:0:0:0:1, 2+4:0:0:0:0, 7+8:0:0:0:2, 2+6:0:0:0:0, 7+8:0:0:0:0, 8+5:0:0:0:0, 8+7:0:1:0:5, 2+4:0:0:0:0, 4+5:0:0:0:4, 2+6:0:0:0:0, 3+5:0:0:0:1, 2+4:0:0:0:0, 7+5:0:0:0:2, 5+6:0:0:0:1, 7+10:0:2:0:4, 0+1:0:0:0:0, 4+2:0:1:0:1, 3+1:0:1:0:1, 5+2:0:0:0:0, 2+0:0:0:0:0, 7+10:0:0:0:0, 4+4:1:0:0:1, 5+7:0:0:0:1, 7+7:1:0:0:1, 6+8:0:0:0:0, 3+7:0:0:0:0, 3+3:0:0:0:1, 3+6:0:0:0:0, 6+8:0:0:0:5, 5+8:0:0:0:1, 6+9:0:1:0:5, 3+2:0:0:0:1, 4+2:0:0:0:2, 1+0:0:0:0:0, 2+3:0:0:0:0, 0+1:0:0:0:0, 2+2:0:0:0:1, 1+1:0:0:0:0, 6+5:0:0:0:3, 5+4:0:0:0:1, 6+6:0:1:0:4, 3+2:0:0:0:0, 3+2:0:0:0:0, 1+2:0:0:0:0, 3+2:0:0:0:1, 2+4:0:0:0:1, 7+7:0:0:0:3, 6+6:0:0:0:1, 5+6:0:1:0:5, 0+1:0:0:0:0, 4+1:0:0:0:0, 2+0:0:0:0:0, 3+0:0:0:0:0, 2+0:0:0:0:0, 4+4:1:1:0:2, 5+7:1:0:0:2, 3+9:3:0:0:3, 5+8:1:0:0:2, 3+3:0:0:0:1, 0+1:0:0:0:0, 6+6:0:0:0:2, 3+3:0:0:0:1, 6+7:0:0:0:0, 4+2:0:0:0:0, 4+9:0:1:0:5, 2+1:0:0:0:0, 3+6:0:0:0:0, 3+3:0:0:0:2, 2+7:0:0:0:1, 1+3:0:0:0:0, 2+2:0:0:0:1, 3+4:0:0:0:1, 6+7:0:0:0:0, 6+3:0:0:0:0, 5+9:0:1:0:6, 2+4:0:0:0:0, 3+1:0:0:0:0, 2+2:0:0:0:0, 3+4:0:0:0:1, 1+1:0:0:0:0, 6+6:0:0:0:0, 4+1:0:0:0:0, 4+7:0:1:0:4, 0+1:0:0:0:0, 3+0:0:0:0:0, 2+0:0:0:0:0, 3+1:0:0:0:0, 2+0:0:0:0:0, 2+3:1:0:0:1, 6+6:2:0:0:3, 4+8:5:0:0:5, 5+9:1:1:0:4, 2+4:0:0:0:1, 0+1:0:0:0:0, 2+2:0:0:0:1, 3+4:0:0:0:0, 7+6:0:0:0:3, 5+6:0:0:0:1, 4+6:0:1:0:4, 4+4:0:0:0:0, 4+2:0:0:0:0, 5+2:0:0:0:0, 3+1:0:0:0:0, 5+3:0:0:0:0, 2+3:0:0:0:1, 1+1:0:0:0:0, 7+7:0:0:0:0, 5+3:0:0:0:0, 7+8:0:1:0:5, 2+2:0:0:0:0, 2+6:0:0:0:0, 2+3:0:0:0:0, 3+3:0:0:0:1, 3+3:0:0:0:0, 6+8:0:0:0:3, 5+6:0:0:0:2, 4+8:0:1:0:5, 0+0:0:0:0:0, 2+0:0:0:0:0, 3+1:0:0:0:0, 3+0:0:0:0:0, 3+0:0:0:0:0, 3+5:1:0:0:1, 4+4:1:0:0:1, 6+9:0:0:0:2, 4+4:0:0:0:0, 2+1:0:0:0:0, 1+2:0:0:0:0, 2+3:0:0:0:1, 3+3:0:0:0:0, 6+7:0:0:0:0, 6+6:0:0:0:5, 6+7:0:1:0:4, 3+4:1:0:0:1, 3+3:0:0:0:0, 4+4:0:0:0:2, 3+3:0:0:0:0, 3+4:4:0:0:2, 3+3:0:0:0:0, 8+7:2:0:0:3, 12+13:0:1:0:5, 4+1:0:0:0:0, 0+0:0:0:0:0, 627+683:28:22:0:190
Bb major (2b), 0+1:0:0:0:0, 5+2:0:0:0:1, 2+0:0:0:0:0, 5+2:0:0:0:0, 2+1:0:0:0:0, 3+4:0:0:0:0, 2+2:0:0:0:0, 5+3:0:1:0:1, 2+0:0:0:0:0, 5+2:0:0:0:1, 2+0:0:0:0:0, 3+2:0:0:0:0, 2+1:0:0:0:0, 3+4:0:0:0:0, 2+2:0:0:0:0, 5+3:0:1:0:1, 2+0:0:0:0:0, 5+0:0:0:0:0, 4+0:0:0:0:0, 6+1:0:1:0:1, 4+0:0:0:0:0, 5+2:1:0:0:1, 5+4:1:0:0:1, 4+2:0:0:0:0, 3+1:1:0:0:1, 5+2:0:0:0:1, 2+0:0:0:0:0, 3+1:0:0:0:0, 2+1:0:0:0:0, 3+4:0:0:0:0, 2+0:0:0:0:0, 5+3:0:1:0:1, 2+1:0:0:0:0, 1+0:0:0:0:0, 0+0:0:0:0:0, 8+6:0:0:0:3, 5+4:0:0:0:4, 8+6:0:0:0:2, 3+3:0:0:0:0, 4+3:0:0:0:0, 4+4:0:1:0:1, 8+7:0:1:0:1, 4+1:0:0:0:0, 7+9:0:0:0:5, 5+5:0:0:0:4, 4+4:0:0:0:3, 3+4:0:0:0:0, 4+3:0:0:0:0, 2+1:0:0:0:0, 7+4:0:1:0:1, 2+0:0:0:0:0, 7+2:0:1:0:1, 5+1:0:0:0:0, 8+2:0:0:0:0, 5+3:0:0:0:0, 8+7:0:0:0:2, 4+3:1:0:0:0, 5+6:0:0:0:0, 8+5:1:0:0:2, 9+6:0:0:0:3, 4+5:1:0:0:4, 4+1:0:0:0:0, 2+2:0:0:0:0, 3+4:0:0:0:0, 2+0:0:0:0:0, 4+4:0:1:0:2, 1+0:0:0:0:0, 1+0:0:0:0:0, 1+0:0:0:0:0, 5+3:0:0:0:2, 2+0:0:0:0:0, 2+1:0:0:0:0, 2+1:0:0:0:0, 3+2:0:0:0:0, 2+1:0:0:0:0, 5+3:0:1:0:1, 3+1:0:0:0:0, 6+3:0:0:0:1, 4+1:0:0:0:1, 4+1:0:0:0:0, 3+3:0:0:0:0, 4+2:0:0:0:0, 3+3:0:0:0:0, 5+5:0:1:0:2, 2+0:0:0:0:0, 7+1:0:0:0:0, 4+0:0:0:0:0, 6+0:0:0:0:0, 4+0:0:0:0:0, 6+4:2:0:0:0, 5+3:1:0:0:0, 5+4:0:0:0:1, 4+2:1:0:0:1, 6+3:0:0:0:1, 2+0:0:0:0:0, 7+3:0:0:0:1, 2+1:0:0:0:0, 3+3:0:0:0:0, 2+0:0:0:0:0, 4+4:0:1:0:2, 1+1:0:0:0:0, 1+0:0:0:0:0, 1+2:0:0:0:0, 5+4:0:0:0:3, 4+1:0:0:0:0, 3+1:0:0:0:0, 4+2:0:0:0:0, 3+4:0:0:0:0, 3+3:0:0:0:0, 4+7:0:1:0:1, 4+1:0:0:0:0, 6+4:0:0:0:2, 5+1:0:0:0:1, 3+2:0:0:0:0, 2+3:0:0:0:0, 3+3:0:0:0:0, 2+2:0:0:0:0, 4+4:0:1:0:1, 2+0:0:0:0:0, 6+0:0:0:0:0, 4+0:0:0:0:0, 6+1:0:0:0:0, 5+0:0:0:0:0, 5+2:1:0:0:0, 6+4:2:0:0:0, 7+6:5:0:0:1, 5+3:1:0:0:1, 5+3:0:0:0:2, 2+0:0:0:0:0, 3+1:0:0:0:0, 2+1:0:0:0:0, 4+2:0:0:0:0, 2+0:0:0:0:0, 4+3:0:1:0:1, 1+2:0:0:0:0, 1+0:0:0:0:0, 2+2:0:0:0:0, 6+3:0:0:0:2, 6+3:0:0:0:1, 3+1:0:0:0:0, 2+3:0:0:0:0, 4+3:0:0:0:0, 2+2:0:0:0:0, 6+6:0:1:0:1, 3+1:0:0:0:0, 5+3:0:0:0:2, 4+1:0:0:0:0, 4+1:0:0:0:0, 4+2:0:0:0:0, 3+3:0:0:0:0, 2+2:0:0:0:0, 4+5:0:1:0:1, 2+0:0:0:0:0, 5+0:0:0:0:0, 5+1:0:0:0:0, 6+0:0:0:0:0, 5+0:0:0:0:0, 6+3:1:0:0:0, 4+3:1:0:0:0, 8+7:0:0:0:1, 3+2:2:0:0:2, 5+2:0:0:0:1, 3+1:0:0:0:1, 3+1:0:0:0:0, 2+1:1:0:0:1, 3+4:0:0:0:0, 4+2:0:0:0:2, 5+3:0:1:0:1, 4+2:0:0:0:1, 1+0:0:0:0:0, 3+1:0:0:0:1, 1+0:0:0:0:0, 6+3:0:0:0:2, 1+0:0:0:0:0, 9+6:2:0:0:2, 13+12:0:1:0:7, 1+0:0:0:0:0, 0+0:0:0:0:0, 688+392:26:19:0:103
D major (2#), 2+1:0:0:0:0, 2+2:0:0:0:0, 1+0:0:0:0:0, 5+2:0:0:0:0, 2+0:0:0:0:0, 7+4:0:0:0:0, 5+2:0:0:0:0, 5+6:0:1:0:1, 2+1:0:0:0:0, 2+2:0:0:0:0, 1+0:0:0:0:0, 5+2:0:0:0:0, 2+0:0:0:0:0, 7+4:0:0:0:0, 5+2:0:0:0:0, 5+6:0:1:0:1, 1+0:0:0:0:0, 1+0:0:0:0:0, 2+0:0:0:0:0, 2+1:0:1:0:1, 2+0:0:0:0:0, 2+2:1:0:0:1, 4+3:1:0:0:1, 3+4:0:0:0:1, 3+2:0:0:0:0, 2+2:0:0:0:0, 1+0:0:0:0:0, 3+1:0:0:0:0, 2+0:0:0:0:0, 6+4:0:0:0:0, 5+2:0:0:0:0, 5+6:0:1:0:1, 5+2:0:0:0:0, 4+1:0:0:0:0, 1+0:0:0:0:0, 4+5:0:0:0:1, 3+4:0:0:0:4, 8+9:1:0:0:2, 3+2:0:0:0:0, 8+3:0:0:0:0, 8+4:0:1:0:1, 8+7:0:1:0:1, 3+4:0:0:0:0, 3+5:0:0:0:4, 3+6:0:0:0:0, 4+6:1:0:0:0, 3+1:0:0:0:0, 8+3:0:0:0:0, 6+1:0:0:0:0, 8+4:0:1:0:1, 1+0:0:0:0:0, 3+2:0:1:0:1, 3+1:0:1:0:1, 4+2:0:0:0:0, 2+3:0:0:0:0, 6+3:1:0:0:0, 3+3:1:0:0:0, 5+7:0:0:0:4, 6+5:1:0:0:2, 5+4:0:0:0:1, 4+5:0:0:0:5, 4+1:0:0:0:0, 4+2:0:0:0:0, 7+4:0:0:0:0, 6+2:0:0:0:0, 5+2:0:1:0:1, 4+2:0:0:0:1, 4+4:0:0:0:2, 1+0:0:0:0:0, 2+1:0:0:0:0, 1+2:0:0:0:0, 3+3:0:0:0:1, 2+3:0:0:0:0, 7+2:0:0:0:0, 6+1:0:0:0:0, 5+6:0:1:0:1, 4+2:0:0:0:0, 3+2:0:0:0:0, 2+4:0:0:0:0, 4+4:0:0:0:1, 4+4:0:0:0:0, 8+7:0:0:0:3, 7+6:0:0:0:1, 5+6:0:1:0:5, 1+3:0:0:0:0, 3+3:0:0:0:0, 2+0:0:0:0:0, 2+0:0:0:0:0, 2+0:0:0:0:0, 3+4:1:1:0:2, 4+3:1:0:0:0, 3+6:3:0:0:2, 4+3:0:0:0:0, 2+2:0:0:0:0, 1+0:0:0:0:0, 7+3:0:0:0:1, 4+1:0:0:0:0, 6+3:0:0:0:0, 5+2:0:0:0:0, 4+5:0:1:0:1, 3+0:0:0:0:0, 4+3:0:0:0:0, 4+3:0:0:0:2, 2+4:0:0:0:0, 2+1:0:0:0:0, 3+1:0:0:0:0, 4+2:0:0:0:0, 6+4:0:0:0:0, 7+3:0:0:0:0, 4+7:0:1:0:1, 3+1:0:0:0:1, 2+3:0:0:0:0, 3+1:0:0:0:1, 4+2:0:0:0:0, 2+0:0:0:0:0, 6+3:0:0:0:0, 5+2:0:0:0:0, 4+4:0:1:0:1, 1+0:0:0:0:0, 2+0:0:0:0:0, 2+0:0:0:0:0, 2+1:0:0:0:0, 2+0:0:0:0:0, 1+3:1:0:0:1, 5+4:2:0:0:0, 5+6:5:0:0:1, 4+2:1:1:0:1, 2+3:0:0:0:0, 1+0:0:0:0:0, 3+1:0:0:0:0, 4+1:0:0:0:0, 8+2:0:0:0:0, 6+2:0:0:0:0, 4+4:0:1:0:1, 5+4:0:0:0:0, 5+2:0:0:0:0, 6+2:0:0:0:0, 3+1:0:0:0:0, 6+3:0:0:0:0, 3+3:0:0:0:1, 2+0:0:0:0:0, 7+3:0:0:0:0, 6+2:0:0:0:0, 6+6:0:1:0:1, 3+1:0:0:0:0, 3+3:0:0:0:2, 3+1:0:0:0:0, 4+1:0:0:0:0, 4+1:0:0:0:0, 7+3:0:0:0:0, 6+2:0:0:0:0, 4+5:0:1:0:1, 1+0:0:0:0:0, 1+0:0:0:0:0, 3+0:0:0:0:0, 2+0:0:0:0:0, 2+0:0:0:0:0, 2+4:1:0:0:1, 3+3:1:0:0:0, 6+7:4:0:0:2, 3+1:0:0:0:0, 2+2:0:0:0:0, 2+1:0:0:0:1, 3+1:0:0:0:0, 4+1:1:0:0:1, 6+4:0:0:0:0, 6+4:0:0:0:0, 5+7:0:1:0:1, 4+3:1:0:0:1, 4+1:0:0:0:0, 5+4:0:0:0:2, 4+3:0:0:0:0, 4+4:4:0:0:2, 4+3:0:0:0:0, 9+7:2:0:0:3, 11+10:3:1:0:4, 5+5:0:0:0:1, 1+1:0:0:0:0, 690+463:38:22:0:91
G minor (2b), 0+1:0:0:0:0, 5+2:0:0:0:0, 2+0:0:0:0:0, 5+2:0:0:0:0, 2+0:0:0:0:0, 3+7:0:0:0:0, 2+1:0:0:0:0, 5+3:0:1:0:1, 2+0:0:0:0:0, 5+2:0:0:0:1, 2+0:0:0:0:0, 3+2:0:0:0:0, 2+0:0:0:0:0, 3+7:0:0:0:0, 2+1:0:0:0:0, 5+3:0:1:0:1, 2+0:0:0:0:0, 5+0:0:0:0:0, 4+0:0:0:0:0, 6+1:0:1:0:1, 4+0:0:0:0:0, 5+2:1:0:0:1, 5+4:1:0:0:0, 4+2:0:0:0:1, 3+2:0:0:0:0, 5+2:0:0:0:0, 2+0:0:0:0:0, 3+1:0:0:0:0, 2+0:0:0:0:0, 3+7:0:0:0:0, 2+1:0:0:0:0, 5+3:0:1:0:1, 2+2:0:0:0:0, 1+0:0:0:0:0, 0+1:0:0:0:0, 8+6:0:0:0:3, 5+4:0:0:0:4, 8+9:1:0:0:2, 3+2:0:0:0:0, 4+8:0:0:0:0, 5+5:0:0:0:0, 8+7:0:1:0:1, 4+1:0:0:0:1, 7+6:0:0:0:4, 5+5:0:0:0:4, 4+6:1:0:0:0, 3+1:0:0:0:0, 4+6:0:0:0:0, 2+3:0:0:0:0, 7+4:0:1:0:1, 2+0:0:0:0:0, 7+4:0:1:0:2, 5+1:0:0:0:0, 8+2:0:0:0:0, 5+0:0:0:0:0, 8+3:1:0:0:0, 4+3:1:0:0:0, 5+7:0:0:0:4, 8+5:1:0:0:2, 9+6:0:0:0:1, 4+5:1:0:0:4, 4+1:0:0:0:0, 2+2:0:0:0:0, 3+4:0:0:0:0, 2+2:0:0:0:0, 4+2:0:1:0:1, 1+1:0:0:0:0, 1+0:0:0:0:0, 1+0:0:0:0:0, 5+3:0:0:0:2, 2+0:0:0:0:0, 2+1:0:0:0:0, 2+0:0:0:0:0, 3+6:0:0:0:0, 2+2:0:0:0:0, 5+3:0:1:0:1, 3+1:0:0:0:0, 6+3:0:0:0:1, 4+1:0:0:0:1, 4+1:0:0:0:0, 3+1:0:0:0:0, 4+8:0:0:0:0, 3+3:0:0:0:0, 5+5:0:1:0:2, 2+0:0:0:0:0, 7+1:0:0:0:0, 4+0:0:0:0:0, 6+0:0:0:0:0, 4+0:0:0:0:0, 6+3:2:0:0:0, 5+3:1:0:0:0, 6+6:3:0:0:0, 4+3:0:0:0:0, 6+2:0:0:0:0, 2+0:0:0:0:0, 7+8:1:0:0:1, 2+5:0:0:0:1, 3+7:0:0:0:0, 2+2:0:0:0:0, 4+2:0:1:0:1, 1+2:0:0:0:0, 1+0:0:0:0:0, 1+2:0:0:0:0, 5+4:0:0:0:3, 4+1:0:0:0:0, 3+1:0:0:0:0, 4+2:0:0:0:0, 3+7:0:0:0:0, 3+3:0:0:0:0, 4+7:0:1:0:1, 4+1:0:0:0:1, 6+3:0:0:0:0, 5+1:0:0:0:1, 3+2:0:0:0:0, 2+0:0:0:0:0, 3+6:0:0:0:0, 2+1:0:0:0:0, 4+4:0:1:0:1, 2+0:0:0:0:0, 6+0:0:0:0:0, 4+0:0:0:0:0, 6+1:0:0:0:0, 5+0:0:0:0:0, 5+1:1:0:0:0, 6+4:2:0:0:0, 7+6:5:0:0:1, 4+2:1:1:0:1, 5+3:0:0:0:0, 2+0:0:0:0:0, 3+1:0:0:0:0, 2+1:0:0:0:0, 4+2:0:0:0:0, 2+2:0:0:0:0, 4+2:0:1:0:1, 1+4:0:0:0:0, 1+2:0:0:0:0, 2+2:0:0:0:0, 6+3:0:0:0:2, 6+4:0:0:0:2, 3+1:0:0:0:0, 2+0:0:0:0:0, 4+7:0:0:0:0, 2+3:0:0:0:0, 6+2:0:1:0:1, 3+1:0:0:0:0, 5+3:0:0:0:2, 4+1:0:0:0:0, 4+1:0:0:0:0, 4+1:0:0:0:0, 3+6:0:0:0:0, 2+3:0:0:0:0, 4+5:0:1:0:1, 2+0:0:0:0:0, 5+0:0:0:0:0, 5+1:0:0:0:0, 6+0:0:0:0:0, 5+0:0:0:0:0, 6+1:1:0:0:0, 4+3:1:0:0:0, 10+7:4:0:0:2, 3+1:0:0:0:0, 5+2:0:0:0:0, 3+1:0:0:0:1, 3+1:0:0:0:0, 2+1:1:0:0:1, 3+4:0:0:0:0, 4+4:0:0:0:0, 5+4:0:1:0:1, 4+1:0:0:0:0, 1+0:0:0:0:0, 3+0:0:0:0:0, 1+0:0:0:0:0, 6+4:4:0:0:2, 1+0:0:0:0:0, 9+7:2:0:0:3, 13+13:0:1:0:5, 1+1:0:0:0:0, 0+0:0:0:0:0, 691+437:37:19:0:84
B minor (2#), 2+0:0:0:0:0, 2+3:0:0:0:1, 1+1:0:0:0:0, 5+4:0:0:0:1, 2+1:0:0:0:0, 8+7:0:0:0:3, 5+11:0:0:0:5, 5+8:0:1:0:5, 2+1:0:0:0:0, 2+3:0:0:0:1, 1+1:0:0:0:0, 5+4:0:0:0:1, 2+1:0:0:0:0, 8+7:0:0:0:3, 5+11:0:0:0:5, 5+8:0:1:0:5, 1+0:0:0:0:0, 1+0:0:0:0:0, 2+0:0:0:0:0, 2+3:0:1:0:1, 2+0:0:0:0:0, 2+3:1:0:0:1, 4+3:1:0:0:3, 3+4:0:0:0:1, 3+2:0:0:0:0, 2+3:0:0:0:1, 1+1:0:0:0:0, 3+3:0:0:0:1, 2+1:0:0:0:0, 6+7:0:0:0:0, 5+1:0:0:0:0, 6+6:0:1:0:4, 5+3:0:0:0:1, 4+3:0:0:0:1, 1+0:0:0:0:0, 4+6:0:0:0:2, 3+12:0:0:0:0, 8+13:1:0:0:1, 3+6:0:0:0:0, 8+8:0:0:0:0, 9+5:0:0:0:0, 8+7:0:1:0:5, 3+4:0:0:0:0, 3+6:0:0:0:1, 3+9:0:0:0:0, 4+8:1:0:0:1, 3+4:0:0:0:0, 8+8:0:0:0:4, 6+7:0:0:0:4, 8+10:0:1:0:7, 1+1:0:0:0:0, 3+8:0:1:0:0, 3+1:0:1:0:0, 4+6:0:0:0:0, 2+6:0:0:0:0, 6+6:1:0:0:2, 3+6:1:0:0:2, 6+7:0:0:0:1, 6+8:1:0:0:2, 5+7:0:0:0:3, 4+7:0:0:0:0, 4+3:0:0:0:1, 4+6:0:0:0:0, 7+4:0:0:0:0, 6+2:0:0:0:0, 5+2:0:1:0:1, 4+2:0:0:0:1, 5+2:0:0:0:2, 1+0:0:0:0:0, 2+2:0:0:0:1, 1+1:0:0:0:0, 3+2:0:0:0:1, 2+1:0:0:0:0, 7+7:0:0:0:4, 6+7:0:0:0:3, 6+6:0:1:0:4, 4+2:0:0:0:0, 3+5:0:0:0:2, 2+2:0:0:0:0, 4+2:0:0:0:1, 3+4:0:0:0:1, 8+7:0:0:0:5, 7+9:0:0:0:4, 5+6:0:1:0:5, 1+1:0:0:0:0, 3+1:0:0:0:0, 2+0:0:0:0:0, 2+4:0:0:0:0, 2+0:0:0:0:0, 3+4:1:1:0:2, 4+7:1:0:0:2, 3+9:3:0:0:3, 4+8:1:0:0:2, 2+3:0:0:0:1, 1+1:0:0:0:0, 7+6:0:0:0:2, 5+5:0:0:0:0, 6+3:0:0:0:0, 5+2:0:0:0:0, 4+9:0:1:0:5, 3+1:0:0:0:0, 4+9:0:0:0:3, 4+3:0:0:0:2, 2+7:0:0:0:1, 2+3:0:0:0:0, 3+2:0:0:0:1, 4+4:0:0:0:1, 6+7:0:0:0:0, 7+3:0:0:0:0, 5+9:0:1:0:6, 3+1:0:0:0:0, 2+5:0:0:0:1, 3+2:0:0:0:0, 4+4:0:0:0:1, 2+1:0:0:0:0, 6+6:0:0:0:0, 5+1:0:0:0:0, 4+7:0:1:0:4, 1+1:0:0:0:0, 2+0:0:0:0:0, 2+0:0:0:0:0, 2+4:0:0:0:0, 2+0:0:0:0:0, 1+3:1:0:0:1, 5+6:2:0:0:3, 5+8:5:0:0:5, 4+9:1:1:0:4, 2+4:0:0:0:1, 1+1:0:0:0:0, 3+2:0:0:0:1, 4+4:0:0:0:0, 8+2:0:0:0:0, 6+2:0:0:0:0, 4+6:0:1:0:4, 4+2:1:0:0:1, 5+2:0:0:0:0, 6+2:0:0:0:0, 3+1:0:0:0:0, 6+3:0:0:0:0, 3+3:0:0:0:1, 2+1:0:0:0:0, 7+7:0:0:0:0, 6+3:0:0:0:0, 7+8:0:1:0:5, 3+2:0:0:0:0, 3+6:0:0:0:0, 3+3:0:0:0:0, 4+3:0:0:0:1, 4+3:0:0:0:0, 7+6:0:0:0:3, 6+9:0:0:0:4, 4+8:0:1:0:5, 1+0:0:0:0:0, 1+0:0:0:0:0, 3+0:0:0:0:0, 2+3:0:0:0:0, 2+0:0:0:0:0, 2+4:1:0:0:1, 3+7:1:0:0:2, 7+6:2:0:0:3, 3+7:1:0:0:3, 2+5:0:0:0:1, 2+2:0:0:0:0, 3+3:0:0:0:1, 4+4:1:0:0:1, 6+6:0:0:0:3, 7+6:0:0:0:5, 6+7:0:1:0:4, 4+4:1:0:0:1, 4+3:0:0:0:1, 5+4:0:0:0:2, 4+2:0:0:0:2, 4+4:4:0:0:4, 4+2:0:0:0:2, 9+7:2:0:0:3, 11+13:0:1:0:5, 5+5:0:0:0:1, 1+1:0:0:0:0, 701+741:36:21:0:236
Eb major (3b), 0+0:0:0:0:0, 6+2:0:0:0:1, 3+1:0:0:0:0, 6+2:0:0:0:0, 3+0:0:0:0:0, 2+7:0:0:0:0, 1+1:0:0:0:0, 4+3:0:1:0:1, 2+0:0:0:0:0, 6+2:0:0:0:1, 3+1:0:0:0:0, 4+2:0:0:0:0, 3+0:0:0:0:0, 2+7:0:0:0:0, 1+1:0:0:0:0, 4+3:0:1:0:1, 2+0:0:0:0:0, 6+2:0:0:0:0, 4+0:0:0:0:0, 7+1:0:1:0:1, 4+0:0:0:0:0, 6+5:0:0:0:0, 6+3:1:0:0:1, 3+2:0:0:0:0, 4+1:1:0:0:1, 6+2:0:0:0:1, 3+1:0:0:0:0, 4+1:0:0:0:0, 3+0:0:0:0:0, 2+7:0:0:0:0, 1+1:0:0:0:0, 4+3:0:1:0:1, 1+1:0:0:0:0, 0+0:0:0:0:0, 0+0:0:0:0:0, 9+5:0:0:0:3, 6+7:0:0:0:3, 9+6:0:0:0:2, 4+2:0:0:0:0, 3+8:0:0:0:0, 4+5:0:0:0:0, 7+4:0:1:0:2, 4+1:0:0:0:1, 8+5:0:0:0:4, 6+6:0:0:0:4, 5+4:0:0:0:3, 4+1:0:0:0:0, 3+6:0:0:0:0, 1+3:0:0:0:0, 6+4:0:1:0:1, 3+0:0:0:0:0, 8+2:0:1:0:1, 5+1:0:0:0:0, 9+2:0:0:0:0, 6+3:0:0:0:0, 9+7:0:0:0:2, 5+3:1:0:0:0, 4+6:0:0:0:0, 9+7:3:0:0:3, 10+5:0:0:0:2, 5+8:5:0:0:5, 5+1:0:0:0:0, 3+2:0:0:0:0, 2+1:0:0:0:1, 1+0:0:0:0:0, 3+4:0:1:0:2, 0+0:0:0:0:0, 0+0:0:0:0:0, 0+0:0:0:0:0, 6+3:0:0:0:2, 3+2:0:0:0:0, 3+1:0:0:0:0, 3+0:0:0:0:0, 2+6:0:0:0:0, 1+2:0:0:0:0, 4+3:0:1:0:1, 2+1:0:0:0:0, 7+3:0:0:0:1, 5+2:0:0:0:1, 5+1:0:0:0:0, 4+1:0:0:0:0, 3+8:0:0:0:0, 2+3:0:0:0:0, 4+3:1:1:0:2, 2+0:0:0:0:0, 8+3:0:0:0:0, 4+0:0:0:0:0, 7+0:0:0:0:0, 4+3:0:0:0:0, 7+4:0:0:0:1, 6+3:1:0:0:0, 4+4:0:0:0:1, 5+2:0:0:0:1, 7+1:0:0:0:0, 3+1:0:0:0:0, 8+3:0:0:0:1, 3+1:0:0:0:0, 2+1:0:0:0:1, 1+0:0:0:0:0, 3+4:0:1:0:2, 1+1:0:0:0:0, 0+0:0:0:0:0, 0+2:0:0:0:0, 6+5:0:0:0:3, 5+3:0:0:0:0, 4+1:0:0:0:0, 5+2:0:0:0:0, 2+7:0:0:0:0, 2+3:0:0:0:0, 3+3:0:1:0:1, 4+1:0:0:0:1, 7+1:0:0:0:0, 6+2:0:0:0:0, 4+2:0:0:0:0, 3+0:0:0:0:0, 2+6:0:0:0:0, 1+1:0:0:0:0, 3+2:0:1:0:1, 2+0:0:0:0:0, 7+2:0:0:0:0, 4+0:0:0:0:0, 7+1:0:0:0:0, 5+0:0:0:0:0, 6+1:1:0:0:0, 7+4:2:0:0:0, 8+6:0:0:0:0, 6+3:1:0:0:1, 6+3:0:0:0:2, 3+1:0:0:0:0, 4+1:0:0:0:0, 3+1:0:0:0:0, 3+1:0:0:0:1, 1+0:0:0:0:0, 3+3:0:1:0:1, 1+2:0:0:0:0, 0+0:0:0:0:0, 1+2:0:0:0:0, 7+6:0:0:0:2, 7+3:0:0:0:1, 4+1:0:0:0:0, 3+0:0:0:0:0, 3+7:0:0:0:0, 1+3:0:0:0:0, 5+2:0:1:0:1, 3+1:0:0:0:0, 6+3:0:0:0:2, 5+3:0:0:0:0, 5+1:0:0:0:0, 4+1:0:0:0:1, 2+6:0:0:0:0, 1+3:0:0:0:0, 3+2:0:1:0:1, 2+0:0:0:0:0, 6+1:0:0:0:0, 5+1:0:0:0:0, 7+0:0:0:0:0, 5+0:0:0:0:0, 7+3:1:0:0:0, 5+3:1:0:0:0, 9+7:0:0:0:1, 4+2:2:0:0:2, 6+2:0:0:0:1, 4+2:0:0:0:1, 4+1:0:0:0:0, 3+1:1:0:0:1, 2+1:0:0:0:1, 3+2:0:0:0:2, 4+3:0:1:0:1, 3+2:0:0:0:1, 0+0:0:0:0:0, 2+1:0:0:0:1, 0+0:0:0:0:0, 5+3:0:0:0:2, 0+0:0:0:0:0, 10+6:2:0:0:2, 14+12:0:1:0:7, 0+1:0:0:0:0, 0+0:0:0:0:0, 714+419:24:18:0:104
A major (3#), 2+0:0:0:0:0, 1+1:0:0:0:0, 2+2:0:0:0:0, 5+4:0:0:0:2, 3+1:0:0:0:0, 8+7:0:0:0:0, 6+1:0:0:0:0, 6+8:0:1:0:5, 3+2:0:0:0:0, 1+1:0:0:0:0, 2+2:0:0:0:0, 6+4:0:0:0:1, 3+1:0:0:0:0, 8+7:0:0:0:0, 6+1:0:0:0:0, 6+8:0:1:0:5, 2+2:0:0:0:0, 1+2:0:0:0:0, 1+0:0:0:0:0, 2+1:0:1:0:1, 1+0:0:0:0:0, 3+2:1:0:0:1, 3+3:1:0:0:1, 4+4:0:0:0:1, 4+3:0:0:0:0, 1+1:0:0:0:0, 2+2:0:0:0:0, 4+3:0:0:0:1, 3+1:0:0:0:0, 7+7:0:0:0:0, 6+1:0:0:0:0, 6+6:0:1:0:1, 6+2:0:0:0:0, 4+0:0:0:0:0, 1+0:0:0:0:0, 3+3:0:0:0:1, 4+5:0:0:0:0, 9+8:0:0:0:2, 4+6:0:0:0:0, 9+8:0:0:0:0, 10+5:0:0:0:0, 9+7:0:1:0:5, 4+4:0:0:0:0, 2+5:0:0:0:4, 4+3:0:0:0:0, 5+5:0:0:0:1, 4+4:0:0:0:0, 9+6:0:0:0:0, 7+3:0:0:0:0, 9+4:0:1:0:1, 2+2:0:0:0:0, 2+2:0:1:0:1, 2+1:0:1:0:1, 5+2:0:0:0:0, 1+0:0:0:0:0, 7+6:1:0:0:0, 4+3:1:0:0:0, 7+7:0:0:0:1, 7+7:1:0:0:1, 4+4:0:0:0:1, 5+7:0:0:0:0, 5+3:0:0:0:1, 5+4:0:0:0:0, 8+9:0:0:0:0, 7+3:0:0:0:0, 7+9:0:1:0:5, 5+2:0:0:0:1, 4+2:0:0:0:2, 0+0:0:0:0:0, 1+1:0:0:0:0, 2+4:0:0:0:0, 4+2:0:0:0:1, 3+1:0:0:0:0, 8+6:0:0:0:0, 7+2:0:0:0:0, 7+6:0:1:0:4, 5+2:0:0:0:0, 2+2:0:0:0:0, 3+2:0:0:0:0, 5+2:0:0:0:1, 4+4:0:0:0:1, 9+8:0:0:0:0, 8+3:0:0:0:0, 6+6:0:1:0:5, 2+3:0:0:0:0, 2+3:0:0:0:0, 1+0:0:0:0:0, 1+0:0:0:0:0, 1+0:0:0:0:0, 4+3:2:0:0:0, 4+3:1:0:0:0, 5+5:0:0:0:1, 5+4:0:0:0:0, 1+1:0:0:0:0, 2+2:0:0:0:0, 8+6:0:0:0:2, 5+3:0:0:0:1, 7+7:0:0:0:0, 6+2:0:0:0:0, 5+9:0:1:0:5, 4+2:0:0:0:0, 4+4:0:0:0:4, 5+3:0:0:0:2, 1+1:0:0:0:0, 3+4:0:0:0:0, 4+2:0:0:0:1, 5+4:0:0:0:1, 7+7:0:0:0:0, 8+3:0:0:0:0, 6+9:0:1:0:6, 4+4:0:0:0:0, 1+1:0:0:0:0, 4+3:0:0:0:0, 5+4:0:0:0:1, 3+1:0:0:0:0, 7+6:0:0:0:0, 6+1:0:0:0:0, 5+7:0:1:0:4, 2+3:0:0:0:0, 1+2:0:0:0:0, 1+0:0:0:0:0, 2+1:0:0:0:0, 1+0:0:0:0:0, 2+6:1:0:0:0, 5+4:2:0:0:2, 6+8:0:0:0:2, 6+5:0:0:0:0, 1+1:0:0:0:0, 2+2:0:0:0:0, 4+2:0:0:0:1, 5+3:0:0:0:0, 9+8:0:0:0:0, 7+2:0:0:0:0, 5+6:0:1:0:4, 5+3:0:0:0:0, 5+2:0:0:0:0, 6+2:0:0:0:0, 2+1:0:0:0:0, 7+3:0:0:0:0, 4+3:0:0:0:1, 3+1:0:0:0:0, 8+7:0:0:0:0, 7+3:0:0:0:0, 8+8:0:1:0:5, 4+2:0:0:0:0, 2+2:0:0:0:0, 4+4:0:0:0:0, 5+3:0:0:0:1, 5+3:0:0:0:0, 8+6:0:0:0:0, 7+3:0:0:0:0, 5+8:0:1:0:5, 2+2:0:0:0:0, 1+1:0:0:0:0, 2+1:0:0:0:0, 1+0:0:0:0:0, 1+0:0:0:0:0, 3+4:1:0:0:0, 4+3:1:0:0:0, 7+9:0:0:0:1, 4+4:0:0:0:0, 1+1:0:0:0:0, 3+2:0:0:0:0, 4+3:0:0:0:1, 5+3:0:0:0:0, 7+7:0:0:0:0, 8+6:0:0:0:5, 7+7:0:1:0:4, 5+4:1:0:0:1, 4+0:0:0:0:0, 6+4:0:0:0:2, 4+0:0:0:0:0, 5+5:0:0:0:0, 4+0:0:0:0:0, 10+7:2:0:0:3, 12+13:0:1:0:5, 5+1:0:0:0:0, 1+0:0:0:0:0, 793+611:16:19:0:130
C minor (3b), 0+0:0:0:0:0, 6+2:0:0:0:1, 3+1:0:0:0:0, 6+2:0:0:0:0, 3+0:0:0:0:0, 2+7:0:0:0:0, 1+2:0:0:0:0, 4+3:0:1:0:1, 2+0:0:0:0:0, 6+2:0:0:0:1, 3+1:0:0:0:0, 4+2:0:0:0:0, 3+0:0:0:0:0, 2+7:0:0:0:0, 1+2:0:0:0:0, 4+3:0:1:0:1, 2+0:0:0:0:0, 6+2:0:0:0:0, 4+0:0:0:0:0, 7+2:0:1:0:1, 4+1:0:0:0:0, 6+5:0:0:0:0, 6+3:1:0:0:1, 3+2:0:0:0:0, 4+2:0:0:0:1, 6+2:0:0:0:1, 3+1:0:0:0:0, 4+1:0:0:0:0, 3+0:0:0:0:0, 2+7:0:0:0:0, 1+2:0:0:0:0, 4+3:0:1:0:1, 1+2:0:0:0:0, 0+0:0:0:0:0, 0+0:0:0:0:0, 9+6:0:0:0:3, 6+4:0:0:0:4, 9+6:0:0:0:2, 4+2:0:0:0:0, 3+8:0:0:0:0, 4+5:0:0:0:0, 7+7:0:1:0:1, 4+1:0:0:0:1, 8+9:0:0:0:5, 6+5:0:0:0:4, 5+4:0:0:0:3, 4+1:0:0:0:0, 3+6:0:0:0:0, 1+1:0:0:0:0, 6+4:0:1:0:1, 3+0:0:0:0:0, 8+2:0:1:0:1, 5+5:0:0:0:0, 9+3:0:0:0:2, 6+3:0:0:0:0, 9+7:0:0:0:2, 5+3:1:0:0:0, 4+6:0:0:0:0, 9+5:1:0:0:2, 10+6:0:0:0:3, 5+5:1:0:0:4, 5+1:0:0:0:0, 3+2:0:0:0:0, 2+4:0:0:0:0, 1+2:0:0:0:0, 3+2:0:1:0:1, 0+1:0:0:0:0, 0+0:0:0:0:0, 0+0:0:0:0:0, 6+3:0:0:0:2, 3+2:0:0:0:0, 3+1:0:0:0:0, 3+0:0:0:0:0, 2+6:0:0:0:0, 1+1:0:0:0:0, 4+3:0:1:0:1, 2+1:0:0:0:0, 7+3:0:0:0:1, 5+1:0:0:0:1, 5+1:0:0:0:0, 4+1:0:0:0:0, 3+8:0:0:0:0, 2+3:0:0:0:0, 4+5:0:1:0:2, 2+0:0:0:0:0, 8+3:0:0:0:0, 4+0:0:0:0:0, 7+1:0:0:0:0, 4+3:0:0:0:0, 7+4:0:0:0:1, 6+3:1:0:0:0, 4+4:0:0:0:1, 5+2:0:0:0:1, 7+3:0:0:0:1, 3+0:0:0:0:0, 8+3:0:0:0:1, 3+1:0:0:0:0, 2+3:0:0:0:0, 1+2:0:0:0:0, 3+2:0:1:0:1, 1+1:0:0:0:0, 0+0:0:0:0:0, 0+2:0:0:0:0, 6+5:0:0:0:3, 5+3:0:0:0:0, 4+1:0:0:0:0, 5+2:0:0:0:0, 2+7:0:0:0:0, 2+3:0:0:0:0, 3+7:0:1:0:1, 4+1:0:0:0:1, 7+4:0:0:0:2, 6+1:0:0:0:1, 4+2:0:0:0:0, 3+0:0:0:0:0, 2+6:0:0:0:0, 1+1:0:0:0:0, 3+4:0:1:0:1, 2+0:0:0:0:0, 7+2:0:0:0:0, 4+0:0:0:0:0, 7+2:0:0:0:0, 5+0:0:0:0:0, 6+2:1:0:0:0, 7+4:2:0:0:0, 8+6:5:0:0:1, 6+4:0:0:0:1, 6+3:0:0:0:2, 3+0:0:0:0:0, 4+1:0:0:0:0, 3+1:0:0:0:0, 3+2:0:0:0:0, 1+2:0:0:0:0, 3+2:0:1:0:1, 1+4:0:0:0:0, 0+2:0:0:0:0, 1+2:0:0:0:0, 7+6:0:0:0:2, 7+3:0:0:0:1, 4+1:0:0:0:0, 3+0:0:0:0:0, 3+7:0:0:0:0, 1+3:0:0:0:0, 5+6:0:1:0:1, 3+1:0:0:0:0, 6+3:0:0:0:2, 5+1:0:0:0:0, 5+1:0:0:0:0, 4+1:0:0:0:1, 2+6:0:0:0:0, 1+3:0:0:0:0, 3+5:0:1:0:1, 2+0:0:0:0:0, 6+1:0:0:0:0, 5+1:0:0:0:0, 7+2:0:0:0:0, 5+0:0:0:0:0, 7+3:1:0:0:0, 5+3:1:0:0:0, 9+7:0:0:0:1, 4+3:0:0:0:2, 6+2:0:0:0:1, 4+1:0:0:0:1, 4+1:0:0:0:0, 3+1:1:0:0:1, 2+4:0:0:0:0, 3+4:0:0:0:0, 4+4:0:1:0:1, 3+1:0:0:0:0, 0+1:0:0:0:0, 2+0:0:0:0:0, 0+1:0:0:0:0, 5+2:0:0:0:0, 0+1:0:0:0:0, 10+6:2:0:0:2, 14+12:0:1:0:7, 0+1:0:0:0:0, 0+0:0:0:0:0, 714+466:18:18:0:99
F# minor (3#), 2+0:0:0:0:0, 1+1:0:0:0:0, 2+2:0:0:0:0, 5+4:0:0:0:2, 3+1:0:0:0:0, 8+7:0:0:0:0, 6+1:0:0:0:0, 6+8:0:1:0:5, 3+2:0:0:0:0, 1+1:0:0:0:0, 2+2:0:0:0:0, 6+4:0:0:0:1, 3+1:0:0:0:0, 8+7:0:0:0:0, 6+1:0:0:0:0, 6+8:0:1:0:5, 2+0:0:0:0:0, 1+2:0:0:0:0, 1+1:0:0:0:0, 2+2:0:0:0:0, 1+1:0:0:0:0, 3+3:1:0:0:1, 3+3:1:0:0:3, 4+4:0:0:0:1, 4+3:0:0:0:0, 1+1:0:0:0:0, 2+2:0:0:0:0, 4+3:0:0:0:1, 3+1:0:0:0:0, 7+7:0:0:0:0, 6+1:0:0:0:0, 7+6:0:1:0:4, 6+2:0:0:0:0, 4+0:0:0:0:0, 1+0:0:0:0:0, 3+3:0:0:0:1, 4+4:0:0:0:0, 9+8:0:0:0:2, 4+6:0:0:0:0, 9+8:0:0:0:0, 10+5:0:0:0:0, 9+7:0:1:0:5, 4+4:0:0:0:0, 2+5:0:0:0:4, 4+6:0:0:0:0, 5+5:0:0:0:1, 4+4:0:0:0:0, 9+6:0:0:0:0, 7+3:0:0:0:0, 9+4:0:1:0:1, 2+2:0:0:0:0, 2+3:0:0:0:0, 2+2:0:1:0:0, 5+5:0:0:0:1, 1+3:0:0:0:0, 7+9:1:0:0:1, 4+6:1:0:0:2, 7+7:0:0:0:1, 7+8:1:0:0:0, 4+4:0:0:0:1, 5+7:0:0:0:0, 5+3:0:0:0:1, 5+4:0:0:0:0, 8+9:0:0:0:0, 7+3:0:0:0:0, 7+9:0:1:0:5, 5+2:0:0:0:1, 4+2:0:0:0:2, 0+0:0:0:0:0, 1+1:0:0:0:0, 2+4:0:0:0:0, 4+2:0:0:0:1, 3+1:0:0:0:0, 8+6:0:0:0:0, 7+2:0:0:0:0, 7+6:0:1:0:4, 5+2:0:0:0:0, 2+2:0:0:0:0, 3+2:0:0:0:0, 5+2:0:0:0:1, 4+4:0:0:0:1, 9+8:0:0:0:0, 8+3:0:0:0:0, 6+6:0:1:0:5, 2+1:0:0:0:0, 2+2:0:0:0:1, 1+2:0:0:0:0, 1+3:0:0:0:0, 1+1:0:0:0:0, 4+4:1:1:0:2, 4+7:1:0:0:2, 4+6:3:0:0:6, 5+8:1:0:0:2, 1+3:0:0:0:1, 2+6:0:0:0:0, 8+6:0:0:0:2, 5+3:0:0:0:1, 7+7:0:0:0:0, 6+2:0:0:0:0, 5+9:0:1:0:5, 4+2:0:0:0:0, 4+4:0:0:0:4, 5+3:0:0:0:0, 1+1:0:0:0:0, 3+4:0:0:0:0, 4+2:0:0:0:1, 5+4:0:0:0:1, 7+7:0:0:0:0, 8+3:0:0:0:0, 6+9:0:1:0:6, 4+4:0:0:0:0, 1+1:0:0:0:0, 4+3:0:0:0:0, 5+4:0:0:0:1, 3+1:0:0:0:0, 7+6:0:0:0:0, 6+1:0:0:0:0, 5+7:0:1:0:4, 2+1:0:0:0:0, 1+2:0:0:0:0, 1+2:0:0:0:0, 2+1:0:0:0:0, 1+2:0:0:0:0, 2+9:1:0:0:1, 5+6:2:0:0:3, 6+8:5:0:0:5, 5+9:1:1:0:4, 1+3:0:0:0:1, 2+5:0:0:0:0, 4+2:0:0:0:1, 5+3:0:0:0:0, 9+8:0:0:0:0, 7+2:0:0:0:0, 5+6:0:1:0:4, 5+3:0:0:0:0, 5+2:0:0:0:0, 6+2:0:0:0:0, 2+1:0:0:0:0, 7+3:0:0:0:0, 4+3:0:0:0:1, 3+1:0:0:0:0, 8+7:0:0:0:0, 7+3:0:0:0:0, 8+8:0:1:0:5, 4+2:0:0:0:0, 2+2:0:0:0:0, 4+4:0:0:0:0, 5+3:0:0:0:1, 5+3:0:0:0:0, 8+6:0:0:0:0, 7+3:0:0:0:0, 5+8:0:1:0:5, 2+0:0:0:0:0, 1+1:0:0:0:0, 2+3:0:0:0:0, 1+1:0:0:0:0, 1+3:0:0:0:0, 3+7:1:0:0:1, 4+7:1:0:0:2, 8+6:2:0:0:3, 4+7:1:0:0:3, 1+2:0:0:0:1, 3+6:0:0:0:0, 4+3:0:0:0:1, 5+3:0:0:0:0, 7+7:0:0:0:0, 8+6:0:0:0:5, 7+7:0:1:0:4, 5+4:1:0:0:1, 4+0:0:0:0:0, 5+0:0:0:0:0, 4+0:0:0:0:0, 6+7:0:0:0:2, 4+2:0:0:0:2, 10+7:4:0:0:4, 12+13:0:1:0:5, 5+1:0:0:0:0, 1+0:0:0:0:0, 793+681:30:19:0:168
Ab major (4b), 0+0:0:0:0:0, 7+2:0:0:0:1, 4+1:0:0:0:0, 7+3:0:0:0:0, 4+1:0:0:0:0, 1+4:0:0:0:0, 0+0:0:0:0:0, 5+3:0:1:0:1, 2+1:0:0:0:0, 7+2:0:0:0:0, 4+0:0:0:0:0, 5+2:0:0:0:0, 4+1:0:0:0:0, 1+4:0:0:0:0, 0+0:0:0:0:0, 5+3:0:1:0:1, 2+0:0:0:0:0, 6+2:0:0:0:0, 4+0:0:0:0:0, 7+1:0:1:0:1, 4+0:0:0:0:0, 7+2:1:0:0:1, 7+4:1:0:0:0, 4+2:0:0:0:0, 5+1:1:0:0:1, 7+2:0:0:0:0, 4+0:0:0:0:0, 5+1:0:0:0:0, 4+1:0:0:0:0, 1+4:0:0:0:0, 0+0:0:0:0:0, 5+3:0:1:0:1, 2+1:0:0:0:0, 0+0:0:0:0:0, 0+0:0:0:0:0, 10+5:0:0:0:1, 7+4:0:0:0:4, 10+6:0:0:0:2, 4+3:0:0:0:0, 2+3:0:0:0:0, 2+2:0:1:0:1, 8+5:0:1:0:2, 5+1:0:0:0:1, 9+5:0:0:0:4, 7+5:0:0:0:4, 6+4:0:0:0:3, 5+4:0:0:0:0, 2+3:0:0:0:0, 0+0:0:0:0:0, 6+5:0:2:0:1, 4+0:0:0:0:0, 9+2:0:1:0:1, 5+1:0:0:0:0, 9+2:0:0:0:0, 6+3:0:0:0:0, 10+3:1:0:0:0, 6+3:1:0:0:0, 5+7:0:0:0:4, 9+5:1:0:0:2, 11+6:0:0:0:1, 6+8:5:0:0:5, 6+3:0:0:0:0, 4+2:0:0:0:0, 1+4:0:0:0:0, 0+0:0:0:0:0, 4+4:0:1:0:2, 1+0:0:0:0:0, 0+0:0:0:0:0, 0+0:0:0:0:0, 7+5:3:0:0:3, 4+2:2:0:0:2, 4+2:0:0:0:0, 3+1:0:0:0:0, 1+2:0:0:0:0, 0+0:0:0:0:0, 5+3:0:1:0:1, 2+2:0:0:0:0, 8+3:0:0:0:0, 6+1:0:0:0:1, 6+1:0:0:0:0, 5+3:0:0:0:0, 2+1:0:0:0:1, 3+2:0:0:0:0, 5+4:0:2:0:1, 3+0:0:0:0:0, 8+3:0:0:0:0, 4+0:0:0:0:0, 7+0:0:0:0:0, 4+0:0:0:0:0, 8+3:2:0:0:0, 7+3:1:0:0:0, 5+4:0:0:0:1, 6+2:1:0:0:1, 8+2:0:0:0:0, 4+0:0:0:0:0, 9+3:0:0:0:1, 2+1:0:0:0:0, 1+3:0:0:0:0, 0+0:0:0:0:0, 4+4:0:1:0:2, 2+0:0:0:0:0, 0+3:0:0:0:0, 0+0:0:0:0:0, 7+8:5:0:0:5, 6+3:0:0:0:0, 5+3:0:0:0:0, 4+2:0:0:0:0, 1+4:0:0:0:0, 1+1:0:0:0:1, 4+5:0:1:0:2, 4+1:0:0:0:1, 8+3:0:0:0:0, 7+1:0:0:0:1, 5+2:0:0:0:0, 4+3:0:0:0:0, 1+3:0:0:0:0, 0+0:0:0:0:0, 4+4:0:1:0:2, 3+0:0:0:0:0, 7+2:0:0:0:0, 4+0:0:0:0:0, 7+1:0:0:0:0, 5+0:0:0:0:0, 7+1:1:0:0:0, 8+4:2:0:0:0, 9+6:5:0:0:1, 5+3:1:0:0:1, 7+3:0:0:0:0, 4+0:0:0:0:0, 5+1:0:0:0:0, 4+1:0:0:0:0, 2+2:0:0:0:0, 0+0:0:0:0:0, 4+3:0:1:0:1, 2+2:0:0:0:2, 0+0:0:0:0:0, 1+1:0:0:0:0, 8+6:0:0:0:2, 8+3:0:0:0:1, 5+4:0:0:0:0, 4+3:0:0:0:0, 2+3:0:0:0:0, 0+0:0:0:0:0, 6+4:0:1:0:2, 3+1:0:0:0:0, 7+3:0:0:0:2, 4+3:0:0:0:0, 6+2:0:0:0:0, 6+2:0:0:0:0, 1+3:0:0:0:0, 0+0:0:0:0:0, 4+4:0:1:0:2, 2+0:0:0:0:0, 6+1:0:0:0:0, 5+1:0:0:0:0, 7+0:0:0:0:0, 5+0:0:0:0:0, 8+1:1:0:0:0, 6+3:1:0:0:0, 10+7:0:0:0:1, 5+2:1:0:0:1, 7+2:0:0:0:0, 5+1:0:0:0:1, 5+1:0:0:0:0, 4+1:1:0:0:1, 1+4:0:0:0:0, 2+2:0:0:0:2, 5+3:0:1:0:1, 2+2:0:0:0:1, 0+0:0:0:0:0, 1+1:0:0:0:1, 0+0:0:0:0:0, 4+3:0:0:0:2, 0+1:0:0:0:0, 10+6:2:0:0:2, 15+12:0:1:0:7, 0+0:0:0:0:0, 0+0:0:0:0:0, 776+390:40:21:0:105
E major (4#), 2+0:0:0:0:0, 2+1:0:0:0:0, 3+1:0:0:0:0, 6+4:0:0:0:2, 4+1:0:0:0:0, 8+7:0:0:0:0, 6+1:0:0:0:0, 7+8:0:1:0:5, 3+2:0:0:0:0, 2+1:0:0:0:0, 3+1:0:0:0:0, 7+4:0:0:0:1, 4+1:0:0:0:0, 8+7:0:0:0:0, 6+1:0:0:0:0, 7+8:0:1:0:5, 2+0:0:0:0:0, 0+0:0:0:0:0, 0+0:0:0:0:0, 1+1:0:1:0:1, 0+0:0:0:0:0, 4+4:1:0:0:0, 4+3:1:0:0:1, 5+4:0:0:0:1, 5+3:0:0:0:0, 2+1:0:0:0:0, 3+1:0:0:0:0, 5+3:0:0:0:1, 4+1:0:0:0:0, 7+7:0:0:0:0, 6+1:0:0:0:0, 8+6:0:1:0:4, 7+3:0:0:0:1, 4+2:0:0:0:2, 1+0:0:0:0:0, 4+3:0:0:0:1, 5+4:0:0:0:0, 10+13:1:0:0:1, 3+6:0:0:0:0, 9+8:0:0:0:0, 10+5:0:0:0:0, 10+7:0:1:0:5, 5+4:0:0:0:0, 3+5:0:0:0:4, 5+6:0:0:0:0, 6+8:1:0:0:1, 5+4:0:0:0:0, 9+6:0:0:0:0, 7+3:0:0:0:0, 10+4:0:1:0:1, 3+2:0:0:0:0, 3+2:0:1:0:1, 1+1:0:1:0:1, 4+2:0:0:0:0, 0+0:0:0:0:0, 8+10:0:0:0:0, 5+4:1:0:0:1, 8+7:0:0:0:1, 6+7:1:0:0:1, 5+8:0:0:0:0, 6+7:0:0:0:0, 6+3:0:0:0:1, 6+4:0:0:0:0, 8+9:0:0:0:0, 7+3:0:0:0:0, 8+9:0:1:0:5, 6+2:0:0:0:1, 4+2:0:0:0:2, 0+0:0:0:0:0, 2+1:0:0:0:0, 3+1:0:0:0:0, 5+2:0:0:0:1, 3+1:0:0:0:0, 8+6:0:0:0:0, 7+2:0:0:0:0, 8+6:0:1:0:4, 5+2:0:0:0:0, 3+2:0:0:0:0, 4+2:0:0:0:0, 6+2:0:0:0:1, 5+4:0:0:0:1, 9+8:0:0:0:0, 9+6:0:0:0:1, 7+6:0:1:0:5, 3+1:0:0:0:0, 1+1:0:0:0:0, 0+0:0:0:0:0, 0+0:0:0:0:0, 0+0:0:0:0:0, 5+4:1:1:0:2, 5+7:1:0:0:2, 5+9:3:0:0:3, 6+4:0:0:0:0, 2+1:0:0:0:0, 3+1:0:0:0:0, 9+13:1:0:0:1, 5+3:0:0:0:1, 7+7:0:0:0:0, 6+2:0:0:0:0, 6+9:0:1:0:5, 5+2:0:0:0:0, 4+4:0:0:0:2, 5+3:0:0:0:0, 2+1:0:0:0:0, 4+3:0:0:0:0, 5+2:0:0:0:1, 5+4:0:0:0:1, 7+7:0:0:0:0, 8+3:0:0:0:0, 7+9:0:1:0:6, 4+4:0:0:0:0, 2+1:0:0:0:0, 5+2:0:0:0:0, 6+4:0:0:0:1, 4+1:0:0:0:0, 7+6:0:0:0:0, 6+1:0:0:0:0, 6+7:0:1:0:4, 3+1:0:0:0:0, 0+0:0:0:0:0, 0+0:0:0:0:0, 1+1:0:0:0:0, 0+0:0:0:0:0, 3+3:1:0:0:1, 6+6:2:0:0:3, 7+8:5:0:0:5, 6+5:0:0:0:2, 2+1:0:0:0:0, 3+1:0:0:0:0, 5+2:0:0:0:1, 6+3:0:0:0:0, 9+8:0:0:0:0, 7+2:0:0:0:0, 6+6:0:1:0:4, 7+4:0:0:0:0, 5+2:0:0:0:0, 6+2:0:0:0:0, 3+1:0:0:0:0, 8+3:0:0:0:0, 5+3:0:0:0:1, 4+1:0:0:0:0, 8+7:0:0:0:0, 7+3:0:0:0:0, 9+8:0:1:0:5, 4+2:0:0:0:0, 3+6:0:0:0:0, 4+3:1:0:0:1, 6+3:0:0:0:1, 6+3:0:0:0:0, 8+6:0:0:0:0, 7+3:0:0:0:0, 6+8:0:1:0:5, 2+0:0:0:0:0, 0+0:0:0:0:0, 1+0:0:0:0:0, 0+0:0:0:0:0, 0+0:0:0:0:0, 4+5:1:0:0:1, 5+4:1:0:0:1, 8+9:0:0:0:1, 5+4:0:0:0:0, 2+1:0:0:0:0, 4+2:0:0:0:0, 5+3:0:0:0:1, 6+3:0:0:0:0, 7+7:0:0:0:0, 8+6:0:0:0:4, 8+7:0:1:0:4, 5+4:1:0:0:1, 4+2:0:0:0:2, 6+4:0:0:0:2, 4+2:0:0:0:2, 5+4:4:0:0:4, 4+2:0:0:0:2, 9+7:4:0:0:4, 13+13:0:1:0:5, 5+1:0:0:0:0, 1+0:0:0:0:0, 871+638:32:20:0:156
F minor (4b), 0+0:0:0:0:0, 7+2:0:0:0:1, 4+1:0:0:0:0, 7+2:0:0:0:0, 4+1:0:0:0:0, 1+4:0:0:0:0, 0+2:0:0:0:0, 5+3:0:1:0:1, 2+0:0:0:0:0, 7+2:0:0:0:1, 4+1:0:0:0:0, 5+2:0:0:0:0, 4+1:0:0:0:0, 1+4:0:0:0:0, 0+2:0:0:0:0, 5+3:0:1:0:1, 2+0:0:0:0:0, 6+2:0:0:0:0, 4+0:0:0:0:0, 7+1:0:1:0:1, 4+0:0:0:0:0, 7+2:1:0:0:1, 7+4:1:0:0:0, 4+2:0:0:0:0, 5+1:1:0:0:1, 7+2:0:0:0:1, 4+1:0:0:0:0, 5+1:0:0:0:0, 4+1:0:0:0:0, 1+4:0:0:0:0, 0+2:0:0:0:0, 5+3:0:1:0:1, 2+2:0:0:0:0, 0+1:0:0:0:0, 0+0:0:0:0:0, 10+5:0:0:0:1, 7+4:0:0:0:4, 10+6:0:0:0:2, 4+3:0:0:0:0, 2+3:0:0:0:0, 2+4:0:1:0:1, 8+4:0:1:0:2, 5+1:0:0:0:1, 9+6:0:0:0:4, 7+5:0:0:0:4, 6+4:0:0:0:3, 5+4:0:0:0:0, 2+3:0:0:0:0, 0+1:0:0:0:0, 7+4:0:1:0:1, 4+0:0:0:0:0, 9+2:0:1:0:1, 5+1:0:0:0:0, 9+2:0:0:0:0, 6+3:0:0:0:0, 10+7:0:0:0:2, 6+3:1:0:0:0, 5+6:0:0:0:0, 9+5:1:0:0:2, 11+6:0:0:0:1, 6+8:5:0:0:5, 6+3:0:0:0:0, 4+2:0:0:0:0, 1+4:0:0:0:0, 0+2:0:0:0:0, 4+2:0:1:0:1, 1+1:0:0:0:0, 0+0:0:0:0:0, 0+0:0:0:0:0, 7+3:0:0:0:2, 4+2:0:0:0:0, 4+1:0:0:0:0, 3+1:0:0:0:0, 1+2:0:0:0:0, 0+1:0:0:0:0, 5+3:0:1:0:1, 2+1:0:0:0:0, 8+3:0:0:0:1, 6+2:0:0:0:1, 6+1:0:0:0:0, 5+3:0:0:0:0, 2+2:0:0:0:0, 3+3:0:0:0:0, 5+3:1:1:0:2, 3+0:0:0:0:0, 8+3:0:0:0:0, 4+0:0:0:0:0, 7+0:0:0:0:0, 4+0:0:0:0:0, 8+3:2:0:0:0, 7+3:1:0:0:0, 5+4:0:0:0:1, 6+2:1:0:0:1, 8+2:0:0:0:0, 4+1:0:0:0:0, 9+3:0:0:0:1, 2+1:0:0:0:0, 1+3:0:0:0:0, 0+2:0:0:0:0, 4+2:0:1:0:1, 2+0:0:0:0:0, 0+3:0:0:0:0, 0+2:0:0:0:0, 7+5:0:0:0:3, 6+3:0:0:0:0, 5+1:0:0:0:0, 4+2:0:0:0:0, 1+4:0:0:0:0, 1+3:0:0:0:0, 4+3:0:1:0:1, 4+1:0:0:0:1, 8+3:0:0:0:0, 7+2:0:0:0:0, 5+2:0:0:0:0, 4+3:0:0:0:0, 1+3:0:0:0:0, 0+2:0:0:0:0, 4+2:0:1:0:1, 3+0:0:0:0:0, 7+2:0:0:0:0, 4+0:0:0:0:0, 7+1:0:0:0:0, 5+0:0:0:0:0, 7+1:1:0:0:0, 8+4:2:0:0:0, 9+6:0:0:0:0, 5+3:1:0:0:1, 7+3:0:0:0:2, 4+1:0:0:0:0, 5+1:0:0:0:0, 4+1:0:0:0:0, 2+2:0:0:0:0, 0+2:0:0:0:0, 4+2:0:1:0:1, 2+3:0:0:0:0, 0+2:0:0:0:0, 1+2:0:0:0:0, 8+6:0:0:0:2, 8+3:0:0:0:1, 5+1:0:0:0:0, 4+3:0:0:0:0, 2+3:0:0:0:0, 0+2:0:0:0:0, 6+2:0:1:0:1, 3+1:0:0:0:0, 7+3:0:0:0:2, 4+3:0:0:0:0, 6+1:0:0:0:0, 6+2:0:0:0:0, 1+3:0:0:0:0, 0+2:0:0:0:0, 4+2:0:1:0:1, 2+0:0:0:0:0, 6+1:0:0:0:0, 5+1:0:0:0:0, 7+0:0:0:0:0, 5+0:0:0:0:0, 8+1:1:0:0:0, 6+3:1:0:0:0, 10+7:0:0:0:1, 5+2:1:0:0:1, 7+2:0:0:0:1, 5+2:0:0:0:1, 5+1:0:0:0:0, 4+1:1:0:0:1, 1+4:0:0:0:0, 2+4:0:0:0:0, 5+4:0:1:0:1, 2+1:0:0:0:0, 0+1:0:0:0:0, 1+0:0:0:0:0, 0+1:0:0:0:0, 4+2:0:0:0:0, 0+1:0:0:0:0, 10+6:2:0:0:2, 15+12:0:1:0:7, 0+1:0:0:0:0, 0+0:0:0:0:0, 777+408:25:19:0:87
C# minor (4#), 2+0:0:0:0:0, 2+4:0:0:0:1, 3+1:0:0:0:0, 6+4:0:0:0:2, 4+1:0:0:0:0, 8+7:0:0:0:0, 6+1:0:0:0:0, 7+8:0:1:0:5, 3+1:0:0:0:0, 2+4:0:0:0:0, 3+1:0:0:0:0, 7+4:0:0:0:1, 4+1:0:0:0:0, 8+7:0:0:0:0, 6+1:0:0:0:0, 7+8:0:1:0:5, 2+0:0:0:0:0, 0+0:0:0:0:0, 0+1:0:0:0:0, 1+2:0:0:0:0, 0+1:0:0:0:0, 4+7:1:0:0:1, 4+3:1:0:0:3, 5+4:0:0:0:1, 5+7:1:0:0:3, 2+4:0:0:0:1, 3+1:0:0:0:0, 5+3:0:0:0:1, 4+1:0:0:0:0, 7+7:0:0:0:0, 6+1:0:0:0:0, 7+6:0:1:0:1, 7+2:0:0:0:0, 4+0:0:0:0:0, 1+0:0:0:0:0, 4+3:0:0:0:1, 5+4:0:0:0:0, 10+13:1:0:0:1, 3+6:0:0:0:0, 9+8:0:0:0:0, 10+5:0:0:0:0, 10+7:0:1:0:5, 5+2:0:0:0:0, 3+7:0:0:0:0, 5+6:0:0:0:0, 6+8:1:0:0:1, 5+4:0:0:0:0, 9+6:0:0:0:0, 7+3:0:0:0:0, 9+10:0:2:0:4, 3+1:0:0:0:0, 3+3:0:0:0:0, 1+2:0:1:0:0, 4+5:0:0:0:1, 0+3:0:0:0:0, 8+9:1:0:0:1, 5+6:1:0:0:2, 7+9:5:0:0:5, 6+7:1:0:0:1, 5+8:0:0:0:0, 6+7:0:0:0:0, 6+3:0:0:0:1, 6+6:0:0:0:0, 8+4:0:0:0:0, 7+2:0:0:0:0, 7+2:0:1:0:1, 6+1:0:0:0:0, 4+0:0:0:0:0, 0+0:0:0:0:0, 2+2:0:0:0:1, 3+1:0:0:0:0, 5+2:0:0:0:1, 3+1:0:0:0:0, 8+6:0:0:0:0, 7+2:0:0:0:0, 7+6:0:1:0:1, 5+2:0:0:0:0, 3+2:0:0:0:0, 4+2:0:0:0:0, 6+2:0:0:0:1, 5+4:0:0:0:1, 9+8:0:0:0:0, 9+3:0:0:0:0, 7+6:0:1:0:5, 3+1:0:0:0:0, 1+1:0:0:0:0, 0+2:0:0:0:0, 0+3:0:0:0:0, 0+1:0:0:0:0, 5+4:1:1:0:2, 5+7:1:0:0:2, 5+9:3:0:0:3, 6+8:1:0:0:2, 2+3:0:0:0:1, 3+1:0:0:0:0, 9+13:1:0:0:1, 5+3:0:0:0:1, 7+7:0:0:0:0, 6+2:0:0:0:0, 6+5:0:1:0:1, 5+1:0:0:0:0, 4+0:0:0:0:0, 5+2:0:0:0:0, 2+1:0:0:0:0, 4+3:0:0:0:0, 5+2:0:0:0:1, 5+4:0:0:0:1, 7+7:0:0:0:0, 8+3:0:0:0:0, 7+9:0:1:0:6, 4+1:0:0:0:0, 2+4:0:0:0:0, 5+2:0:0:0:0, 6+4:0:0:0:1, 4+1:0:0:0:0, 7+6:0:0:0:0, 6+1:0:0:0:0, 6+7:0:1:0:4, 3+1:0:0:0:0, 0+0:0:0:0:0, 0+2:0:0:0:0, 1+1:0:0:0:0, 0+2:0:0:0:0, 3+9:1:0:0:1, 6+6:2:0:0:3, 7+8:5:0:0:5, 6+9:1:1:0:4, 2+3:0:0:0:1, 3+1:0:0:0:0, 5+2:0:0:0:1, 6+4:0:0:0:0, 9+2:0:0:0:0, 7+2:0:0:0:0, 6+2:0:1:0:1, 7+4:0:0:0:0, 5+2:0:0:0:0, 4+1:0:0:0:0, 3+2:0:0:0:1, 8+6:0:0:0:0, 5+3:0:0:0:1, 4+1:0:0:0:0, 8+7:0:0:0:0, 7+3:0:0:0:0, 9+8:0:1:0:5, 3+1:0:1:0:1, 3+6:0:0:0:0, 4+3:1:0:0:1, 6+3:0:0:0:1, 6+3:0:0:0:0, 8+6:0:0:0:0, 7+3:0:0:0:0, 6+8:0:1:0:5, 2+0:0:0:0:0, 0+0:0:0:0:0, 1+3:0:0:0:0, 0+1:0:0:0:0, 0+3:0:0:0:0, 4+7:1:0:0:1, 5+7:1:0:0:2, 9+6:2:0:0:3, 5+7:1:0:0:3, 2+2:0:0:0:1, 4+2:0:0:0:0, 5+3:0:0:0:1, 6+4:1:0:0:1, 7+4:0:0:0:0, 7+4:0:0:0:0, 7+4:0:1:0:1, 5+1:1:0:0:1, 4+0:0:0:0:0, 5+0:0:0:0:0, 4+0:0:0:0:0, 5+5:0:0:0:0, 4+0:0:0:0:0, 9+7:2:0:0:3, 13+13:0:1:0:5, 5+1:0:0:0:0, 1+0:0:0:0:0, 861+658:39:21:0:138
Db major (5b), 0+0:0:0:0:0, 7+2:0:0:0:0, 5+0:0:0:0:0, 6+2:0:0:0:1, 5+1:0:0:0:0, 2+4:0:0:0:0, 1+0:0:0:0:0, 6+3:0:1:0:1, 3+0:0:0:0:0, 7+2:0:0:0:0, 5+0:0:0:0:0, 6+4:0:0:0:1, 5+1:0:0:0:0, 2+4:0:0:0:0, 1+0:0:0:0:0, 6+3:0:1:0:1, 3+0:0:0:0:0, 6+2:0:0:0:0, 4+0:0:0:0:0, 7+1:0:1:0:1, 4+0:0:0:0:0, 8+2:1:0:0:1, 7+3:1:0:0:1, 5+4:0:0:0:1, 6+2:0:0:0:0, 7+2:0:0:0:0, 5+0:0:0:0:0, 6+1:0:0:0:0, 5+1:0:0:0:0, 2+4:0:0:0:0, 1+0:0:0:0:0, 6+3:0:1:0:1, 3+1:0:0:0:0, 0+0:0:0:0:0, 0+0:0:0:0:0, 10+5:0:0:0:1, 8+4:0:0:0:4, 11+6:0:0:0:2, 5+3:0:0:0:0, 3+3:0:0:0:0, 3+2:0:1:0:1, 9+5:0:1:0:2, 6+1:0:0:0:1, 9+5:0:0:0:4, 8+5:0:0:0:4, 7+4:0:0:0:3, 6+4:0:0:0:0, 3+3:0:0:0:0, 1+0:0:0:0:0, 7+5:0:2:0:1, 5+0:0:0:0:0, 9+2:0:1:0:1, 5+1:0:0:0:0, 10+2:0:0:0:0, 6+3:0:0:0:0, 11+7:0:0:0:2, 7+3:1:0:0:0, 6+6:0:0:0:0, 10+5:1:0:0:2, 11+4:0:0:0:1, 7+5:1:0:0:4, 7+1:0:0:0:0, 5+2:0:0:0:0, 2+4:0:0:0:0, 1+0:0:0:0:0, 5+4:0:1:0:2, 2+0:0:0:0:0, 0+0:0:0:0:0, 0+0:0:0:0:0, 7+3:0:0:0:0, 5+0:0:0:0:0, 5+1:0:0:0:0, 4+1:0:0:0:0, 2+2:0:0:0:0, 1+0:0:0:0:0, 6+3:0:1:0:1, 3+1:0:0:0:0, 8+3:0:0:0:0, 7+1:0:0:0:1, 7+1:0:0:0:0, 6+3:0:0:0:0, 3+1:0:0:0:1, 4+2:0:0:0:0, 6+4:0:2:0:1, 4+0:0:0:0:0, 8+3:0:0:0:0, 4+0:0:0:0:0, 7+0:0:0:0:0, 4+0:0:0:0:0, 9+3:2:0:0:0, 7+3:1:0:0:0, 6+4:0:0:0:1, 7+2:1:0:0:1, 8+2:0:0:0:0, 5+0:0:0:0:0, 10+3:0:0:0:1, 3+1:0:0:0:0, 2+3:0:0:0:0, 1+0:0:0:0:0, 5+4:0:1:0:2, 3+1:0:0:0:0, 0+3:0:0:0:0, 1+0:0:0:0:0, 7+4:0:0:0:0, 7+1:0:0:0:0, 6+1:0:0:0:0, 5+2:0:0:0:0, 2+4:0:0:0:0, 2+1:0:0:0:1, 5+5:0:1:0:2, 5+1:0:0:0:1, 8+3:0:0:0:0, 8+1:0:0:0:1, 6+2:0:0:0:0, 5+3:0:0:0:0, 2+3:0:0:0:0, 1+0:0:0:0:0, 5+4:0:1:0:2, 4+0:0:0:0:0, 7+2:0:0:0:0, 4+0:0:0:0:0, 7+1:0:0:0:0, 5+0:0:0:0:0, 8+1:1:0:0:0, 8+4:2:0:0:0, 10+6:5:0:0:1, 7+2:1:1:0:1, 7+3:0:0:0:0, 5+0:0:0:0:0, 6+1:0:0:0:0, 5+1:0:0:0:0, 3+2:0:0:0:0, 1+0:0:0:0:0, 5+3:0:1:0:1, 3+2:0:0:0:0, 0+0:0:0:0:0, 1+2:0:0:0:0, 8+3:0:0:0:2, 9+3:0:0:0:1, 6+1:0:0:0:0, 5+3:0:0:0:0, 3+3:0:0:0:0, 1+0:0:0:0:0, 7+4:0:1:0:2, 4+1:0:0:0:0, 7+3:0:0:0:2, 5+1:1:0:0:1, 7+1:0:0:0:0, 7+2:0:0:0:0, 2+3:0:0:0:0, 1+0:0:0:0:0, 5+4:0:1:0:2, 3+0:0:0:0:0, 6+1:0:0:0:0, 5+1:0:0:0:0, 7+0:0:0:0:0, 5+0:0:0:0:0, 9+5:1:0:0:1, 7+3:1:0:0:0, 11+7:0:0:0:1, 6+2:1:0:0:1, 7+2:0:0:0:0, 6+1:0:0:0:1, 6+1:0:0:0:0, 5+1:1:0:0:1, 2+4:0:0:0:0, 3+2:0:0:0:2, 6+3:0:1:0:1, 3+2:0:0:0:1, 0+0:0:0:0:0, 2+1:0:0:0:1, 0+0:0:0:0:0, 5+3:0:0:0:2, 0+0:0:0:0:0, 11+6:2:0:0:2, 16+12:0:1:0:7, 0+0:0:0:0:0, 0+0:0:0:0:0, 903+368:25:22:0:94
B major (5#), 2+0:0:0:0:0, 3+4:0:0:0:0, 4+1:0:0:0:0, 7+4:0:0:0:2, 5+1:0:0:0:0, 8+7:0:0:0:0, 6+1:0:0:0:0, 7+8:0:1:0:5, 3+1:0:0:0:0, 3+3:0:0:0:1, 4+1:0:0:0:0, 8+4:0:0:0:1, 5+1:0:0:0:0, 8+7:0:0:0:0, 6+1:0:0:0:0, 7+8:0:1:0:5, 2+0:0:0:0:0, 1+0:0:0:0:0, 0+0:0:0:0:0, 2+1:0:1:0:1, 0+0:0:0:0:0, 5+3:1:0:0:1, 5+10:1:0:0:2, 5+4:2:0:0:4, 6+7:1:0:0:3, 3+3:0:0:0:1, 4+1:0:0:0:0, 6+3:0:0:0:1, 5+1:0:0:0:0, 7+7:0:0:0:0, 6+2:0:0:0:0, 7+3:0:1:0:1, 7+2:0:0:0:0, 4+0:0:0:0:0, 1+0:0:0:0:0, 5+3:0:0:0:1, 6+4:0:0:0:0, 11+13:1:0:0:1, 4+6:0:0:0:0, 9+8:0:0:0:0, 10+5:0:0:0:0, 10+7:0:1:0:5, 4+2:0:0:0:0, 4+7:0:0:0:0, 6+6:0:0:0:0, 7+8:1:0:0:1, 6+4:0:0:0:0, 9+6:0:0:0:0, 7+1:0:0:0:0, 10+4:0:1:0:1, 4+1:0:0:0:0, 4+2:0:1:0:1, 1+1:0:1:0:0, 5+2:0:0:0:0, 1+0:0:0:0:0, 9+6:1:0:0:2, 6+6:1:0:0:2, 7+9:5:0:0:5, 7+7:1:0:0:1, 6+8:0:0:0:0, 7+7:0:0:0:0, 7+3:0:0:0:1, 7+6:0:0:0:0, 8+4:0:0:0:0, 7+2:0:0:0:0, 7+2:0:1:0:1, 6+1:0:0:0:0, 4+0:0:0:0:0, 0+0:0:0:0:0, 3+3:0:0:0:0, 4+1:0:0:0:0, 6+2:0:0:0:1, 4+1:0:0:0:0, 8+6:0:0:0:0, 7+2:0:0:0:0, 8+6:0:1:0:4, 5+2:0:0:0:0, 4+2:0:0:0:0, 5+2:0:0:0:0, 7+2:0:0:0:1, 6+4:0:0:0:1, 9+8:0:0:0:0, 9+3:0:0:0:0, 7+6:0:1:0:5, 3+1:0:0:0:0, 2+1:0:0:0:0, 0+0:0:0:0:0, 1+0:0:0:0:0, 0+0:0:0:0:0, 6+4:1:1:0:2, 6+7:1:0:0:2, 5+6:3:0:0:6, 7+8:1:0:0:2, 3+3:0:0:0:1, 4+6:0:0:0:0, 10+13:1:0:0:1, 7+5:0:0:0:0, 7+3:0:0:0:0, 6+2:0:0:0:0, 6+5:0:1:0:1, 5+0:0:0:0:0, 4+3:0:0:0:0, 5+3:0:0:0:2, 3+7:0:0:0:1, 5+3:0:0:0:0, 6+2:0:0:0:1, 6+4:0:0:0:1, 7+7:0:0:0:0, 8+3:0:0:0:0, 7+9:0:1:0:6, 3+1:0:0:0:0, 3+5:0:0:0:1, 6+2:0:0:0:0, 7+4:0:0:0:1, 5+1:0:0:0:0, 7+6:0:0:0:0, 6+1:0:0:0:0, 6+7:0:1:0:4, 3+1:0:0:0:0, 1+0:0:0:0:0, 0+0:0:0:0:0, 2+1:0:0:0:0, 0+0:0:0:0:0, 4+3:1:0:0:1, 7+6:2:0:0:3, 8+8:5:0:0:5, 7+9:1:1:0:4, 3+4:0:0:0:1, 4+1:0:0:0:0, 6+2:0:0:0:1, 7+4:0:0:0:0, 9+2:0:0:0:0, 7+2:0:0:0:0, 6+2:0:1:0:1, 7+4:0:0:0:0, 5+2:0:0:0:0, 6+2:0:0:0:0, 4+1:0:0:0:0, 9+3:0:0:0:0, 6+3:0:0:0:1, 5+1:0:0:0:0, 8+7:0:0:0:0, 7+3:0:0:0:0, 9+8:0:1:0:5, 3+1:0:1:0:1, 4+6:0:0:0:0, 5+3:1:0:0:1, 7+3:0:0:0:1, 5+3:0:0:0:1, 8+6:0:0:0:0, 7+3:0:0:0:0, 6+8:0:1:0:5, 2+0:0:0:0:0, 1+0:0:0:0:0, 0+0:0:0:0:0, 1+0:0:0:0:0, 0+0:0:0:0:0, 5+4:1:0:0:1, 6+7:1:0:0:2, 10+6:2:0:0:3, 6+7:1:0:0:3, 3+5:0:0:0:1, 5+2:0:0:0:0, 6+3:0:0:0:1, 7+4:1:0:0:1, 7+4:0:0:0:0, 7+4:0:0:0:0, 7+4:0:1:0:1, 5+1:1:0:0:1, 4+1:0:0:0:0, 5+0:0:0:0:0, 4+0:0:0:0:0, 5+4:4:0:0:2, 4+3:0:0:0:0, 10+7:4:0:0:4, 14+10:3:1:0:5, 5+6:2:0:0:3, 1+0:0:0:0:0, 952+626:52:22:0:153
Bb minor (5b), 0+0:0:0:0:0, 7+2:0:0:0:1, 5+0:0:0:0:0, 6+2:0:0:0:1, 5+1:0:0:0:0, 2+4:0:0:0:0, 1+2:0:0:0:0, 6+3:0:1:0:1, 3+0:0:0:0:0, 7+2:0:0:0:1, 5+0:0:0:0:0, 6+4:0:0:0:1, 5+1:0:0:0:0, 2+4:0:0:0:0, 1+2:0:0:0:0, 6+3:0:1:0:1, 3+0:0:0:0:0, 6+0:0:0:0:0, 4+0:0:0:0:0, 7+1:0:1:0:1, 4+0:0:0:0:0, 8+2:1:0:0:1, 7+4:1:0:0:0, 5+2:0:0:0:0, 6+1:1:0:0:1, 7+2:0:0:0:0, 5+0:0:0:0:0, 6+1:0:0:0:0, 5+1:0:0:0:0, 2+4:0:0:0:0, 1+2:0:0:0:0, 6+3:0:1:0:1, 3+1:0:0:0:0, 0+1:0:0:0:0, 0+0:0:0:0:0, 10+6:0:0:0:3, 8+4:0:0:0:4, 11+6:0:0:0:2, 5+3:0:0:0:0, 3+3:0:0:0:0, 3+4:0:1:0:1, 9+4:0:1:0:2, 6+1:0:0:0:1, 9+5:0:0:0:4, 8+5:0:0:0:4, 7+4:0:0:0:3, 6+4:0:0:0:0, 3+3:0:0:0:0, 1+1:0:0:0:0, 8+4:0:1:0:1, 5+0:0:0:0:0, 9+2:0:1:0:1, 5+1:0:0:0:0, 10+2:0:0:0:0, 6+3:0:0:0:0, 11+7:0:0:0:2, 7+2:2:0:0:2, 6+5:0:0:0:0, 10+5:1:0:0:2, 11+6:0:0:0:1, 7+8:5:0:0:5, 7+3:0:0:0:0, 5+2:0:0:0:0, 2+4:0:0:0:0, 1+2:0:0:0:0, 5+2:0:1:0:1, 2+1:0:0:0:0, 0+1:0:0:0:0, 0+0:0:0:0:0, 7+3:0:0:0:0, 5+0:0:0:0:0, 5+1:0:0:0:0, 4+1:0:0:0:0, 2+2:0:0:0:0, 1+1:0:0:0:0, 6+3:0:1:0:1, 3+1:0:0:0:0, 8+3:0:0:0:1, 7+1:0:0:0:1, 7+1:0:0:0:0, 6+3:0:0:0:0, 3+2:0:0:0:0, 4+3:0:0:0:0, 6+3:1:1:0:2, 4+0:0:0:0:0, 8+1:0:0:0:0, 4+0:0:0:0:0, 7+0:0:0:0:0, 4+0:0:0:0:0, 9+3:2:0:0:0, 7+3:1:0:0:0, 6+4:0:0:0:1, 7+2:1:0:0:1, 8+2:0:0:0:0, 5+0:0:0:0:0, 10+3:0:0:0:1, 3+1:0:0:0:0, 2+3:0:0:0:0, 1+2:0:0:0:0, 5+2:0:1:0:1, 3+1:0:0:0:0, 0+3:0:0:0:0, 1+0:0:0:0:0, 7+4:0:0:0:0, 7+1:0:0:0:0, 6+1:0:0:0:0, 5+2:0:0:0:0, 2+4:0:0:0:0, 2+3:0:0:0:0, 5+3:0:1:0:1, 5+1:0:0:0:1, 8+3:0:0:0:0, 8+1:0:0:0:1, 6+2:0:0:0:0, 5+3:0:0:0:0, 2+3:0:0:0:0, 1+2:0:0:0:0, 5+2:0:1:0:1, 4+0:0:0:0:0, 7+0:0:0:0:0, 4+0:0:0:0:0, 7+1:0:0:0:0, 5+0:0:0:0:0, 8+1:1:0:0:0, 8+4:2:0:0:0, 10+6:5:0:0:1, 6+3:1:0:0:1, 7+3:0:0:0:0, 5+0:0:0:0:0, 6+1:0:0:0:0, 5+1:0:0:0:0, 3+2:0:0:0:0, 1+2:0:0:0:0, 5+2:0:1:0:1, 3+2:0:0:0:0, 0+4:0:0:0:0, 1+2:0:0:0:0, 8+3:0:0:0:2, 9+3:0:0:0:1, 6+4:0:0:0:0, 5+3:0:0:0:0, 3+3:0:0:0:0, 1+2:0:0:0:0, 7+2:0:1:0:1, 4+1:0:0:0:0, 7+3:0:0:0:2, 5+1:1:0:0:1, 7+1:0:0:0:0, 7+2:0:0:0:0, 2+3:0:0:0:0, 1+2:0:0:0:0, 5+2:0:1:0:1, 3+0:0:0:0:0, 6+0:0:0:0:0, 5+1:0:0:0:0, 7+0:0:0:0:0, 5+0:0:0:0:0, 9+3:1:0:0:0, 7+3:1:0:0:0, 11+7:0:0:0:1, 6+2:1:0:0:1, 7+2:0:0:0:0, 6+1:0:0:0:1, 6+1:0:0:0:0, 5+1:1:0:0:1, 2+4:0:0:0:0, 3+4:0:0:0:0, 6+4:0:1:0:1, 3+1:0:0:0:0, 0+1:0:0:0:0, 2+0:0:0:0:0, 0+1:0:0:0:0, 5+2:0:0:0:0, 0+1:0:0:0:0, 11+6:2:0:0:2, 16+12:0:1:0:7, 0+1:0:0:0:0, 0+0:0:0:0:0, 903+388:32:19:0:87
G# minor (5#), 2+0:0:0:0:0, 3+4:0:0:0:1, 4+5:0:0:0:0, 7+4:0:0:0:2, 5+0:0:0:0:0, 8+4:0:0:0:0, 6+2:0:0:0:0, 7+6:0:1:0:1, 3+2:0:0:0:0, 3+4:0:0:0:1, 4+5:0:0:0:0, 8+4:0:0:0:1, 5+1:0:0:0:0, 8+7:0:0:0:0, 6+1:0:0:0:0, 7+8:0:1:0:5, 2+0:0:0:0:0, 1+0:0:0:0:0, 0+1:0:0:0:0, 2+2:0:0:0:0, 0+0:0:0:0:0, 5+3:1:0:0:1, 5+3:1:0:0:3, 5+4:2:0:0:4, 6+7:1:0:0:3, 3+4:0:0:0:1, 4+5:0:0:0:0, 6+3:0:0:0:1, 5+0:0:0:0:0, 7+4:0:0:0:0, 6+2:0:0:0:0, 7+3:0:1:0:1, 7+2:0:0:0:0, 4+0:0:0:0:0, 1+0:0:0:0:0, 5+6:0:0:0:2, 6+12:0:0:0:0, 11+13:1:0:0:1, 4+6:0:0:0:0, 9+8:0:0:0:0, 10+5:0:0:0:0, 10+7:0:1:0:1, 4+4:0:0:0:1, 4+6:0:0:0:1, 6+9:0:0:0:0, 7+8:1:0:0:1, 6+4:0:0:0:0, 9+6:0:0:0:0, 7+1:0:0:0:0, 10+4:0:1:0:1, 4+2:0:0:0:0, 4+3:0:0:0:0, 1+4:0:1:0:0, 5+5:0:0:0:1, 1+3:0:0:0:0, 9+6:1:0:0:2, 6+6:1:0:0:2, 8+7:0:0:0:1, 7+7:1:0:0:1, 6+8:0:0:0:0, 7+7:0:0:0:0, 7+3:0:0:0:1, 7+6:0:0:0:0, 8+4:0:0:0:0, 7+2:0:0:0:0, 7+2:0:1:0:1, 6+1:0:0:0:0, 4+0:0:0:0:0, 0+0:0:0:0:0, 3+2:0:0:0:1, 4+4:0:0:0:0, 6+2:0:0:0:1, 4+0:0:0:0:0, 8+2:0:0:0:0, 7+1:0:0:0:0, 7+6:0:1:0:1, 5+2:0:0:0:0, 5+2:0:0:0:1, 5+8:0:0:0:0, 7+2:0:0:0:1, 6+4:0:0:0:1, 9+8:0:0:0:0, 9+3:0:0:0:0, 7+6:0:1:0:5, 3+1:0:0:0:0, 2+1:0:0:0:0, 0+2:0:0:0:0, 1+3:0:0:0:0, 0+0:0:0:0:0, 6+4:1:1:0:2, 6+7:1:0:0:2, 5+6:3:0:0:6, 7+8:1:0:0:2, 3+3:0:0:0:1, 4+6:0:0:0:0, 10+6:0:0:0:2, 7+5:0:0:0:0, 7+3:0:0:0:0, 6+2:0:0:0:0, 6+5:0:1:0:1, 5+0:0:0:0:0, 4+3:0:0:0:0, 5+3:0:0:0:2, 3+7:0:0:0:1, 5+3:0:0:0:0, 6+2:0:0:0:1, 6+2:0:0:0:0, 7+4:0:0:0:0, 8+3:0:0:0:0, 6+7:0:1:0:1, 3+4:0:0:0:1, 3+2:0:0:0:1, 6+6:0:0:0:0, 7+4:0:0:0:1, 5+1:0:0:0:0, 7+6:0:0:0:0, 6+1:0:0:0:0, 6+7:0:1:0:4, 3+1:0:0:0:0, 1+0:0:0:0:0, 0+2:0:0:0:0, 2+1:0:0:0:0, 0+1:0:0:0:0, 4+3:1:0:0:1, 7+6:2:0:0:3, 8+8:5:0:0:5, 7+9:1:1:0:4, 3+3:0:0:0:1, 4+5:0:0:0:0, 6+2:0:0:0:1, 7+4:0:0:0:0, 9+2:0:0:0:0, 7+2:0:0:0:0, 6+2:0:1:0:1, 7+4:0:0:0:0, 5+2:0:0:0:0, 3+1:0:0:0:0, 4+9:0:0:0:1, 9+6:0:0:0:0, 6+3:0:0:0:1, 5+0:0:0:0:0, 8+3:0:0:0:0, 7+2:0:0:0:0, 8+6:0:1:0:1, 4+2:0:0:0:0, 4+4:0:0:0:2, 6+6:0:0:0:0, 7+3:0:0:0:1, 5+3:0:0:0:1, 8+6:0:0:0:0, 7+3:0:0:0:0, 6+8:0:1:0:5, 2+0:0:0:0:0, 1+1:0:0:0:0, 0+0:0:0:0:0, 1+1:0:0:0:0, 0+0:0:0:0:0, 5+4:1:0:0:1, 6+7:1:0:0:2, 10+6:2:0:0:3, 6+7:1:0:0:3, 3+2:0:0:0:1, 5+6:0:0:0:0, 6+3:0:0:0:1, 7+4:1:0:0:1, 7+4:0:0:0:0, 7+4:0:0:0:0, 7+4:0:1:0:1, 5+1:1:0:0:1, 4+1:0:0:0:0, 5+0:0:0:0:0, 4+0:0:0:0:0, 5+5:0:0:0:0, 4+0:0:0:0:0, 10+7:2:0:0:3, 14+13:0:1:0:5, 5+1:0:0:0:0, 1+0:0:0:0:0, 950+657:34:19:0:131
Gb major (6b), 1+0:0:0:0:0, 7+2:0:0:0:0, 6+0:0:0:0:0, 7+2:0:0:0:1, 6+0:0:0:0:0, 3+5:0:0:0:0, 2+0:0:0:0:0, 5+3:0:1:0:1, 4+0:0:0:0:0, 7+1:0:0:0:0, 6+2:0:0:0:0, 7+2:0:0:0:0, 6+0:0:0:0:0, 3+5:0:0:0:0, 2+0:0:0:0:0, 5+3:0:1:0:1, 4+0:0:0:0:0, 6+2:0:0:0:0, 4+0:0:0:0:0, 7+1:0:1:0:1, 4+0:0:0:0:0, 8+2:1:0:0:1, 7+3:1:0:0:1, 5+4:0:0:0:1, 6+2:0:0:0:0, 7+2:0:0:0:0, 6+0:0:0:0:0, 7+1:0:0:0:0, 6+0:0:0:0:0, 2+5:0:0:0:0, 2+0:0:0:0:0, 5+3:0:1:0:1, 4+1:0:0:0:0, 1+0:0:0:0:0, 0+0:0:0:0:0, 10+3:0:0:0:1, 9+4:0:0:0:4, 12+6:0:0:0:2, 6+2:0:0:0:0, 4+4:0:0:0:0, 4+2:0:1:0:1, 8+5:0:1:0:2, 7+1:0:0:0:1, 9+5:0:0:0:4, 9+5:0:0:0:4, 8+4:0:0:0:3, 7+1:0:0:0:0, 4+3:0:0:0:0, 2+0:0:0:0:0, 6+5:0:2:0:1, 6+0:0:0:0:0, 9+2:0:1:0:1, 5+1:0:0:0:0, 10+2:0:0:0:0, 6+3:0:0:0:0, 11+7:0:0:0:2, 7+3:1:0:0:0, 7+6:0:0:0:0, 10+5:1:0:0:2, 11+4:0:0:0:1, 8+5:1:0:0:4, 8+1:0:0:0:0, 6+2:0:0:0:0, 3+1:0:0:0:1, 2+0:0:0:0:0, 4+4:0:1:0:2, 3+0:0:0:0:0, 1+0:0:0:0:0, 0+0:0:0:0:0, 7+3:0:0:0:2, 6+0:0:0:0:0, 6+1:0:0:0:0, 5+0:0:0:0:0, 3+4:0:0:0:0, 2+0:0:0:0:0, 5+3:0:1:0:1, 4+1:0:0:0:0, 8+2:0:0:0:0, 8+1:0:0:0:1, 8+1:0:0:0:0, 7+1:0:0:0:0, 4+4:0:0:0:0, 5+2:0:0:0:0, 5+4:0:2:0:1, 5+0:0:0:0:0, 8+3:0:0:0:0, 4+0:0:0:0:0, 7+0:0:0:0:0, 4+0:0:0:0:0, 9+3:2:0:0:0, 7+3:1:0:0:0, 6+4:0:0:0:1, 7+2:1:0:0:1, 8+2:0:0:0:0, 6+0:0:0:0:0, 11+3:0:0:0:1, 4+1:0:0:0:0, 2+1:0:0:0:1, 2+0:0:0:0:0, 4+4:0:1:0:2, 4+1:0:0:0:0, 1+0:0:0:0:0, 2+2:0:0:0:0, 7+4:0:0:0:3, 8+1:0:0:0:0, 7+1:0:0:0:0, 6+2:0:0:0:0, 2+5:0:0:0:0, 3+1:0:0:0:1, 4+5:0:1:0:2, 6+1:0:0:0:1, 8+1:0:0:0:0, 9+3:0:0:0:0, 7+2:0:0:0:0, 6+0:0:0:0:0, 2+4:0:0:0:0, 2+0:0:0:0:0, 4+4:0:1:0:2, 5+0:0:0:0:0, 7+2:0:0:0:0, 4+0:0:0:0:0, 7+1:0:0:0:0, 5+0:0:0:0:0, 8+1:1:0:0:0, 8+4:2:0:0:0, 11+6:5:0:0:1, 7+2:1:1:0:1, 7+3:0:0:0:0, 6+0:0:0:0:0, 7+1:0:0:0:0, 6+1:0:0:0:0, 4+1:0:0:0:1, 2+0:0:0:0:0, 4+3:0:1:0:1, 4+2:0:0:0:2, 1+0:0:0:0:0, 2+1:0:0:0:0, 8+6:0:0:0:2, 10+3:0:0:0:1, 7+1:0:0:0:0, 6+0:0:0:0:0, 3+4:0:0:0:0, 2+0:0:0:0:0, 6+4:0:1:0:2, 5+1:0:0:0:0, 8+3:0:0:0:2, 6+1:1:0:0:1, 8+1:0:0:0:0, 7+1:0:0:0:1, 3+4:0:0:0:0, 2+0:0:0:0:0, 4+4:0:1:0:2, 4+0:0:0:0:0, 6+1:0:0:0:0, 5+1:0:0:0:0, 7+0:0:0:0:0, 5+0:0:0:0:0, 9+5:1:0:0:1, 7+3:1:0:0:0, 12+7:0:0:0:1, 6+2:1:0:0:1, 7+2:0:0:0:0, 7+1:0:0:0:1, 7+1:0:0:0:0, 6+1:1:0:0:1, 2+1:0:0:0:1, 4+2:0:0:0:2, 5+3:0:1:0:1, 4+2:0:0:0:1, 1+0:0:0:0:0, 3+1:0:0:0:1, 1+0:0:0:0:0, 4+3:0:1:0:1, 1+0:0:0:0:0, 12+6:2:0:0:2, 16+12:0:1:0:7, 1+0:0:0:0:0, 1+0:0:0:0:0, 988+352:25:23:0:102
F# major (6#), 1+0:0:0:0:0, 4+4:0:0:0:1, 5+5:0:0:0:0, 8+4:0:0:0:2, 6+1:0:0:0:0, 8+7:0:0:0:0, 6+1:0:0:0:0, 7+6:0:1:0:1, 4+2:0:0:0:0, 4+4:0:0:0:1, 5+5:0:0:0:0, 8+4:0:0:0:2, 6+1:0:0:0:0, 8+7:0:0:0:0, 6+1:0:0:0:0, 7+8:0:1:0:5, 3+0:0:0:0:0, 2+0:0:0:0:0, 1+0:0:0:0:0, 3+3:0:1:0:1, 1+0:0:0:0:0, 6+3:1:0:0:1, 5+3:1:0:0:3, 6+4:0:0:0:1, 7+7:1:0:0:3, 4+4:0:0:0:1, 5+5:0:0:0:0, 7+3:0:0:0:1, 6+1:0:0:0:0, 7+7:0:0:0:0, 6+1:0:0:0:0, 7+6:0:1:0:1, 7+2:0:0:0:0, 4+0:0:0:0:0, 1+0:0:0:0:0, 6+6:0:0:0:2, 7+12:0:0:0:0, 12+8:0:0:0:2, 5+6:0:0:0:0, 9+8:0:0:0:0, 10+5:0:0:0:0, 10+7:0:1:0:1, 5+4:0:0:0:1, 5+6:0:0:0:1, 7+9:0:0:0:0, 8+5:0:0:0:1, 7+4:0:0:0:0, 9+6:0:0:0:0, 7+3:0:0:0:0, 10+4:0:1:0:1, 5+2:0:0:0:0, 5+2:0:1:0:1, 2+1:0:1:0:0, 6+2:0:0:0:0, 2+1:0:0:0:0, 10+6:1:0:0:2, 6+6:1:0:0:2, 9+7:0:0:0:1, 8+10:1:0:0:3, 7+7:0:0:0:3, 8+7:0:0:0:0, 8+3:0:0:0:1, 8+6:0:0:0:0, 8+4:0:0:0:0, 7+2:0:0:0:0, 7+2:0:1:0:1, 6+1:0:0:0:0, 4+0:0:0:0:0, 0+0:0:0:0:0, 4+2:0:0:0:1, 5+4:0:0:0:0, 6+2:0:0:0:1, 5+1:0:0:0:0, 8+6:0:0:0:0, 7+2:0:0:0:0, 7+6:0:1:0:1, 6+2:0:0:0:0, 6+2:0:0:0:1, 6+8:0:0:0:0, 8+2:0:0:0:1, 7+4:0:0:0:1, 9+8:0:0:0:0, 9+3:0:0:0:0, 7+6:0:1:0:5, 4+1:0:0:0:0, 3+1:0:0:0:0, 1+0:0:0:0:0, 2+4:0:0:0:0, 1+0:0:0:0:0, 7+4:1:1:0:2, 6+7:1:0:0:2, 6+6:3:0:0:6, 8+8:1:0:0:2, 4+3:0:0:0:1, 5+6:0:0:0:0, 11+6:0:0:0:2, 8+5:0:0:0:0, 7+3:0:0:0:0, 6+2:0:0:0:0, 6+5:0:1:0:1, 6+1:0:0:0:0, 4+0:0:0:0:0, 5+2:0:0:0:0, 4+1:0:0:0:0, 6+4:0:0:0:0, 7+2:0:0:0:1, 7+4:0:0:0:1, 7+7:0:0:0:0, 8+3:0:0:0:0, 6+7:0:1:0:1, 4+4:0:0:0:1, 4+2:0:0:0:1, 7+6:0:0:0:0, 7+4:0:0:0:1, 6+1:0:0:0:0, 7+6:0:0:0:0, 6+1:0:0:0:0, 6+7:0:1:0:4, 4+1:0:0:0:0, 2+0:0:0:0:0, 1+0:0:0:0:0, 3+4:0:0:0:0, 1+0:0:0:0:0, 5+3:1:0:0:1, 7+6:2:0:0:3, 9+8:5:0:0:5, 8+9:1:1:0:4, 4+3:0:0:0:1, 5+5:0:0:0:0, 7+2:0:0:0:1, 8+4:0:0:0:0, 9+2:0:0:0:0, 7+2:0:0:0:0, 6+2:0:1:0:1, 7+4:0:0:0:0, 5+2:0:0:0:0, 6+2:0:0:0:0, 5+1:0:0:0:0, 10+3:0:0:0:0, 7+3:0:0:0:1, 6+1:0:0:0:0, 8+7:0:0:0:0, 7+3:0:0:0:0, 8+6:0:1:0:1, 5+2:0:0:0:0, 5+4:0:0:0:2, 7+6:0:0:0:0, 8+3:0:0:0:1, 6+3:0:0:0:1, 8+6:0:0:0:0, 7+3:0:0:0:0, 6+8:0:1:0:5, 3+0:0:0:0:0, 2+0:0:0:0:0, 1+0:0:0:0:0, 2+3:0:0:0:0, 1+0:0:0:0:0, 6+4:1:0:0:1, 6+7:1:0:0:2, 11+6:2:0:0:3, 7+7:1:0:0:3, 4+2:0:0:0:1, 6+6:0:0:0:0, 7+3:0:0:0:1, 8+4:1:0:0:1, 7+4:0:0:0:0, 7+4:0:0:0:0, 7+4:0:1:0:1, 6+1:1:0:0:1, 4+0:0:0:0:0, 6+0:0:0:0:0, 4+0:0:0:0:0, 6+5:0:0:0:0, 4+0:0:0:0:0, 11+7:2:0:0:3, 15+13:0:1:0:5, 5+1:0:0:0:0, 1+0:0:0:0:0, 1060+651:30:21:0:133
Eb minor (6b), 1+0:0:0:0:0, 7+2:0:0:0:1, 6+1:0:0:0:0, 7+2:0:0:0:1, 6+0:0:0:0:0, 3+5:0:0:0:0, 2+1:0:0:0:0, 5+3:0:1:0:1, 4+0:0:0:0:0, 7+1:0:0:0:0, 6+2:0:0:0:0, 7+2:0:0:0:0, 6+0:0:0:0:0, 3+5:0:0:0:0, 2+1:0:0:0:0, 5+3:0:1:0:1, 4+0:0:0:0:0, 6+2:0:0:0:0, 4+0:0:0:0:0, 7+1:0:1:0:1, 4+0:0:0:0:0, 8+2:1:0:0:1, 7+3:1:0:0:1, 5+4:0:0:0:1, 6+2:0:0:0:0, 7+2:0:0:0:0, 6+0:0:0:0:0, 7+1:0:0:0:0, 6+0:0:0:0:0, 2+5:0:0:0:0, 2+1:0:0:0:0, 5+3:0:1:0:1, 4+1:0:0:0:0, 1+0:0:0:0:0, 0+0:0:0:0:0, 10+3:0:0:0:1, 9+4:0:0:0:4, 12+6:0:0:0:2, 6+2:0:0:0:0, 4+4:0:0:0:0, 4+3:0:1:0:0, 8+5:0:1:0:2, 7+1:0:0:0:1, 9+5:0:0:0:4, 9+5:0:0:0:4, 8+4:0:0:0:3, 7+1:0:0:0:0, 4+3:0:0:0:0, 2+1:0:0:0:0, 6+5:0:2:0:1, 6+0:0:0:0:0, 9+2:0:1:0:1, 5+1:0:0:0:0, 10+2:0:0:0:0, 6+3:0:0:0:0, 11+7:0:0:0:2, 7+3:1:0:0:0, 7+6:0:0:0:0, 10+5:1:0:0:2, 11+4:0:0:0:1, 8+5:1:0:0:4, 8+1:0:0:0:0, 6+2:0:0:0:0, 3+4:0:0:0:0, 2+0:0:0:0:0, 4+4:0:1:0:2, 3+0:0:0:0:0, 1+0:0:0:0:0, 0+0:0:0:0:0, 7+3:0:0:0:2, 6+0:0:0:0:0, 6+1:0:0:0:0, 5+0:0:0:0:0, 3+4:0:0:0:0, 2+1:0:0:0:0, 5+3:0:1:0:1, 4+2:0:0:0:2, 8+3:0:0:0:1, 8+1:0:0:0:1, 8+1:0:0:0:0, 7+1:0:0:0:0, 4+4:0:0:0:0, 5+2:0:0:0:0, 5+4:0:2:0:1, 5+0:0:0:0:0, 8+3:0:0:0:0, 4+0:0:0:0:0, 7+0:0:0:0:0, 4+0:0:0:0:0, 9+3:2:0:0:0, 7+3:1:0:0:0, 6+4:0:0:0:1, 7+2:1:0:0:1, 8+2:0:0:0:0, 6+0:0:0:0:0, 11+3:0:0:0:1, 4+1:0:0:0:0, 2+3:0:0:0:0, 2+0:0:0:0:0, 4+4:0:1:0:2, 4+1:0:0:0:0, 1+0:0:0:0:0, 2+2:0:0:0:0, 7+4:0:0:0:3, 8+1:0:0:0:0, 7+1:0:0:0:0, 6+2:0:0:0:0, 2+5:0:0:0:0, 3+3:0:0:0:1, 4+5:0:1:0:2, 6+1:0:0:0:1, 8+1:0:0:0:0, 9+3:0:0:0:0, 7+2:0:0:0:0, 6+0:0:0:0:0, 2+4:0:0:0:0, 2+1:0:0:0:0, 4+4:0:1:0:2, 5+0:0:0:0:0, 7+2:0:0:0:0, 4+0:0:0:0:0, 7+1:0:0:0:0, 5+0:0:0:0:0, 8+1:1:0:0:0, 8+4:2:0:0:0, 11+6:5:0:0:1, 7+2:1:1:0:1, 7+3:0:0:0:0, 6+0:0:0:0:0, 7+1:0:0:0:0, 6+1:0:0:0:0, 4+2:0:0:0:0, 2+0:0:0:0:0, 4+3:0:1:0:1, 4+2:0:0:0:2, 1+0:0:0:0:0, 2+1:0:0:0:0, 8+6:0:0:0:2, 10+3:0:0:0:1, 7+1:0:0:0:0, 6+0:0:0:0:0, 3+4:0:0:0:0, 2+1:0:0:0:0, 6+4:0:1:0:2, 5+1:0:0:0:0, 8+3:0:0:0:2, 6+1:1:0:0:1, 8+1:0:0:0:0, 7+1:0:0:0:1, 3+4:0:0:0:0, 2+2:0:0:0:0, 4+4:0:1:0:2, 4+0:0:0:0:0, 6+1:0:0:0:0, 5+1:0:0:0:0, 7+0:0:0:0:0, 5+0:0:0:0:0, 9+5:1:0:0:1, 7+3:1:0:0:0, 12+7:0:0:0:1, 6+2:1:0:0:1, 7+2:0:0:0:0, 7+1:0:0:0:1, 7+1:0:0:0:0, 6+1:1:0:0:1, 2+4:0:0:0:0, 4+2:0:0:0:2, 5+3:0:1:0:1, 4+2:0:0:0:1, 1+0:0:0:0:0, 3+1:0:0:0:1, 1+0:0:0:0:0, 4+8:0:0:0:1, 1+0:0:0:0:0, 12+6:2:0:0:2, 16+12:0:1:0:7, 1+0:0:0:0:0, 1+0:0:0:0:0, 988+381:25:22:0:101
D# minor (6#), 1+0:0:0:0:0, 4+4:0:0:0:1, 5+1:0:0:0:0, 8+4:0:0:0:2, 6+1:0:0:0:0, 8+7:0:0:0:0, 6+1:0:0:0:0, 7+6:0:1:0:1, 4+2:0:0:0:0, 4+1:0:0:0:0, 5+2:0:0:0:0, 8+4:0:0:0:2, 6+1:0:0:0:0, 8+7:0:0:0:0, 6+1:0:0:0:0, 7+8:0:1:0:5, 3+0:0:0:0:0, 2+2:0:0:0:0, 1+0:0:0:0:0, 3+5:0:1:0:0, 1+0:0:0:0:0, 6+3:1:0:0:1, 5+3:1:0:0:3, 6+4:0:0:0:1, 7+3:0:0:0:0, 4+1:0:0:0:0, 5+2:0:0:0:0, 7+3:0:0:0:1, 6+1:0:0:0:0, 7+7:0:0:0:0, 6+1:0:0:0:0, 7+6:0:1:0:1, 7+2:0:0:0:0, 4+0:0:0:0:0, 1+0:0:0:0:0, 6+3:0:0:0:1, 7+4:0:0:0:0, 12+8:0:0:0:2, 5+6:0:0:0:0, 9+8:0:0:0:0, 10+5:0:0:0:0, 10+7:0:1:0:1, 5+4:0:0:0:1, 5+5:0:0:0:4, 7+6:0:0:0:0, 8+5:0:0:0:1, 7+4:0:0:0:0, 9+6:0:0:0:0, 7+3:0:0:0:0, 10+4:0:1:0:1, 5+2:0:0:0:0, 5+3:0:0:0:0, 2+4:0:1:0:0, 6+5:0:0:0:1, 2+3:0:0:0:0, 10+9:1:0:0:1, 6+6:1:0:0:2, 9+7:0:0:0:1, 8+10:1:0:0:3, 7+7:0:0:0:3, 8+7:0:0:0:0, 8+3:0:0:0:1, 8+6:0:0:0:0, 8+4:0:0:0:0, 7+2:0:0:0:0, 7+2:0:1:0:1, 6+1:0:0:0:0, 4+0:0:0:0:0, 0+0:0:0:0:0, 4+2:0:0:0:1, 5+1:0:0:0:0, 6+2:0:0:0:1, 5+1:0:0:0:0, 8+6:0:0:0:0, 7+2:0:0:0:0, 7+6:0:1:0:1, 6+2:0:0:0:0, 5+2:0:0:0:0, 6+2:0:0:0:0, 8+2:0:0:0:1, 7+4:0:0:0:1, 9+8:0:0:0:0, 9+3:0:0:0:0, 7+6:0:1:0:5, 4+1:0:0:0:0, 3+2:0:0:0:1, 1+0:0:0:0:0, 2+8:0:0:0:0, 1+0:0:0:0:0, 7+4:1:1:0:2, 6+7:1:0:0:2, 6+6:3:0:0:6, 8+8:1:0:0:2, 4+3:0:0:0:1, 5+1:0:0:0:0, 11+6:0:0:0:2, 8+5:0:0:0:0, 7+3:0:0:0:0, 6+2:0:0:0:0, 6+5:0:1:0:1, 6+1:0:0:0:0, 4+0:0:0:0:0, 5+2:0:0:0:0, 4+1:0:0:0:0, 6+4:0:0:0:0, 7+2:0:0:0:1, 7+4:0:0:0:1, 7+7:0:0:0:0, 8+3:0:0:0:0, 6+7:0:1:0:1, 4+4:0:0:0:1, 4+1:0:0:0:0, 7+3:0:0:0:0, 7+4:0:0:0:1, 6+1:0:0:0:0, 7+6:0:0:0:0, 6+1:0:0:0:0, 6+7:0:1:0:4, 4+1:0:0:0:0, 2+2:0:0:0:0, 1+0:0:0:0:0, 3+8:0:0:0:1, 1+1:0:0:0:0, 5+3:1:0:0:1, 7+6:2:0:0:3, 9+8:5:0:0:5, 8+9:1:1:0:4, 4+3:0:0:0:1, 5+1:0:0:0:0, 7+2:0:0:0:1, 8+4:0:0:0:0, 9+2:0:0:0:0, 7+2:0:0:0:0, 6+2:0:1:0:1, 7+4:0:0:0:0, 5+2:0:0:0:0, 6+2:0:0:0:0, 5+1:0:0:0:0, 10+3:0:0:0:0, 7+3:0:0:0:1, 6+1:0:0:0:0, 8+7:0:0:0:0, 7+3:0:0:0:0, 8+6:0:1:0:1, 5+2:0:0:0:0, 5+2:0:0:0:0, 6+4:0:0:0:1, 8+3:0:0:0:1, 6+3:0:0:0:1, 8+6:0:0:0:0, 7+3:0:0:0:0, 6+8:0:1:0:5, 3+0:0:0:0:0, 2+1:0:0:0:0, 1+0:0:0:0:0, 2+8:0:0:0:0, 1+0:0:0:0:0, 6+4:1:0:0:1, 6+7:1:0:0:2, 11+6:2:0:0:3, 7+7:1:0:0:3, 4+2:0:0:0:1, 6+2:0:0:0:0, 7+3:0:0:0:1, 8+4:1:0:0:1, 7+4:0:0:0:0, 7+4:0:0:0:0, 7+4:0:1:0:1, 6+1:1:0:0:1, 4+0:0:0:0:0, 6+0:0:0:0:0, 4+0:0:0:0:0, 6+5:0:0:0:0, 4+0:0:0:0:0, 11+7:2:0:0:3, 15+13:0:1:0:5, 5+1:0:0:0:0, 1+0:0:0:0:0, 1058+620:29:20:0:127
Cb major (7b), 2+0:0:0:0:0, 7+2:0:0:0:0, 6+0:0:0:0:0, 8+2:0:0:0:1, 7+1:0:0:0:0, 4+4:0:0:0:0, 3+0:0:0:0:0, 6+3:0:1:0:1, 5+0:0:0:0:0, 7+2:0:0:0:0, 6+0:0:0:0:0, 8+2:0:0:0:0, 7+1:0:0:0:0, 4+4:0:0:0:0, 3+0:0:0:0:0, 6+3:0:1:0:1, 4+0:0:0:0:0, 6+2:0:0:0:0, 4+0:0:0:0:0, 7+1:0:1:0:1, 4+0:0:0:0:0, 8+2:1:0:0:1, 7+3:1:0:0:1, 6+4:0:0:0:1, 7+2:0:0:0:0, 7+2:0:0:0:0, 6+0:0:0:0:0, 8+1:0:0:0:0, 7+1:0:0:0:0, 3+4:0:0:0:0, 3+0:0:0:0:0, 6+3:0:1:0:1, 5+1:0:0:0:0, 2+0:0:0:0:0, 1+0:0:0:0:0, 10+5:0:0:0:1, 9+4:0:0:0:4, 13+6:0:0:0:2, 7+3:0:0:0:0, 5+3:0:0:0:0, 5+2:0:1:0:1, 9+5:0:1:0:2, 7+1:0:0:0:1, 9+5:0:0:0:4, 9+5:0:0:0:4, 9+4:0:0:0:3, 8+4:0:0:0:0, 5+3:0:0:0:0, 3+0:0:0:0:0, 7+5:0:2:0:1, 6+0:0:0:0:0, 9+2:0:1:0:1, 6+1:0:0:0:0, 10+2:0:0:0:0, 6+3:0:0:0:0, 12+3:1:0:0:0, 7+3:1:0:0:0, 8+7:0:0:0:4, 10+5:1:0:0:2, 11+4:0:0:0:1, 8+5:1:0:0:4, 9+1:0:0:0:0, 7+2:0:0:0:0, 4+4:0:0:0:0, 3+0:0:0:0:0, 5+4:0:1:0:2, 4+0:0:0:0:0, 2+0:0:0:0:0, 0+0:0:0:0:0, 7+3:0:0:0:0, 6+0:0:0:0:0, 7+1:0:0:0:0, 6+1:0:0:0:0, 4+2:0:0:0:0, 3+0:0:0:0:0, 6+3:0:1:0:1, 5+1:0:0:0:0, 8+3:0:0:0:0, 8+1:0:0:0:1, 9+1:0:0:0:0, 8+3:0:0:0:0, 5+1:0:0:0:1, 6+2:0:0:0:0, 6+4:0:2:0:1, 5+0:0:0:0:0, 8+3:0:0:0:0, 4+0:0:0:0:0, 7+0:0:0:0:0, 4+0:0:0:0:0, 9+3:2:0:0:0, 7+3:1:0:0:0, 7+4:0:0:0:0, 8+2:1:0:0:1, 8+2:0:0:0:0, 6+0:0:0:0:0, 12+3:0:0:0:1, 5+1:0:0:0:0, 3+3:0:0:0:0, 3+0:0:0:0:0, 5+4:0:1:0:2, 5+1:0:0:0:0, 2+0:0:0:0:0, 3+0:0:0:0:0, 7+4:0:0:0:0, 8+1:0:0:0:0, 8+1:0:0:0:0, 7+2:0:0:0:0, 3+4:0:0:0:0, 4+1:0:0:0:1, 5+5:0:1:0:2, 6+1:0:0:0:1, 8+3:0:0:0:0, 9+1:0:0:0:1, 8+2:0:0:0:0, 7+3:0:0:0:0, 3+3:0:0:0:0, 3+0:0:0:0:0, 5+4:0:1:0:2, 5+0:0:0:0:0, 7+2:0:0:0:0, 4+0:0:0:0:0, 7+1:0:0:0:0, 5+0:0:0:0:0, 8+1:1:0:0:0, 8+4:2:0:0:0, 11+6:5:0:0:1, 8+2:1:1:0:1, 7+3:0:0:0:0, 6+0:0:0:0:0, 8+1:0:0:0:0, 7+1:0:0:0:0, 5+2:0:0:0:0, 3+0:0:0:0:0, 5+3:0:1:0:1, 5+2:0:0:0:2, 2+0:0:0:0:0, 3+1:0:0:0:0, 8+6:0:0:0:2, 11+3:0:0:0:1, 8+1:0:0:0:0, 7+3:0:0:0:0, 4+3:0:0:0:0, 3+0:0:0:0:0, 7+4:0:1:0:2, 6+1:0:0:0:0, 8+3:0:0:0:2, 6+1:1:0:0:1, 9+1:0:0:0:0, 9+2:0:0:0:0, 4+3:0:0:0:0, 3+0:0:0:0:0, 5+4:0:1:0:2, 4+0:0:0:0:0, 6+1:0:0:0:0, 5+1:0:0:0:0, 7+0:0:0:0:0, 5+0:0:0:0:0, 9+1:1:0:0:0, 7+3:1:0:0:0, 13+7:0:0:0:0, 7+2:1:0:0:1, 7+2:0:0:0:0, 7+1:0:0:0:1, 8+1:0:0:0:0, 7+1:1:0:0:1, 3+4:0:0:0:0, 5+2:0:0:0:2, 6+3:0:1:0:1, 4+2:0:0:0:1, 2+0:0:0:0:0, 3+1:0:0:0:1, 2+0:0:0:0:0, 4+3:0:1:0:1, 2+0:0:0:0:0, 12+6:2:0:0:2, 17+12:0:1:0:7, 2+0:0:0:0:0, 1+0:0:0:0:0, 1095+358:26:23:0:93
C# major (7#), 0+0:0:0:0:0, 5+7:0:0:0:1, 5+1:0:0:0:0, 9+4:0:0:0:2, 7+1:0:0:0:0, 8+7:0:0:0:0, 6+1:0:0:0:0, 8+8:0:1:0:5, 5+1:0:0:0:0, 5+4:0:0:0:0, 5+1:0:0:0:0, 9+4:0:0:0:2, 7+1:0:0:0:0, 8+7:0:0:0:0, 6+1:0:0:0:0, 8+8:0:1:0:5, 4+0:0:0:0:0, 3+0:0:0:0:0, 2+1:0:0:0:0, 4+2:0:0:0:0, 2+1:0:0:0:0, 7+7:1:0:0:1, 5+3:1:0:0:3, 7+4:0:0:0:1, 7+3:0:0:0:0, 5+4:0:0:0:1, 5+1:0:0:0:0, 8+3:0:0:0:1, 7+1:0:0:0:0, 7+7:0:0:0:0, 6+1:0:0:0:0, 8+6:0:1:0:1, 7+2:0:0:0:0, 4+0:0:0:0:0, 1+0:0:0:0:0, 7+6:0:0:0:2, 8+4:0:0:0:0, 13+8:0:0:0:2, 6+6:0:0:0:0, 9+8:0:0:0:0, 10+5:0:0:0:0, 11+7:0:1:0:5, 6+2:0:0:0:0, 6+7:0:0:0:0, 8+6:0:0:0:0, 9+5:0:0:0:1, 8+4:0:0:0:0, 9+6:0:0:0:0, 7+3:0:0:0:0, 11+4:0:1:0:1, 6+2:0:0:0:0, 6+3:0:0:0:0, 3+2:0:1:0:0, 7+5:0:0:0:1, 3+3:0:0:0:0, 11+9:1:0:0:1, 6+6:1:0:0:2, 10+7:0:0:0:1, 8+7:1:0:0:1, 8+8:0:0:0:0, 8+7:1:0:0:1, 9+3:0:0:0:1, 8+6:0:0:0:0, 8+4:0:0:0:0, 7+2:0:0:0:0, 8+2:0:1:0:1, 6+1:0:0:0:0, 4+0:0:0:0:0, 0+0:0:0:0:0, 5+2:0:0:0:1, 5+1:0:0:0:0, 7+2:0:0:0:1, 6+1:0:0:0:0, 8+6:0:0:0:0, 7+2:0:0:0:0, 8+6:0:1:0:1, 7+2:0:0:0:0, 7+2:0:0:0:1, 7+2:0:0:0:0, 9+2:0:0:0:1, 8+4:0:0:0:1, 9+8:0:0:0:0, 9+3:0:0:0:0, 8+6:0:1:0:5, 5+1:0:0:0:0, 4+1:0:0:0:0, 2+2:0:0:0:0, 3+3:0:0:0:0, 2+1:0:0:0:0, 8+8:1:1:0:1, 6+7:1:0:0:2, 7+9:3:0:0:3, 8+8:1:0:0:2, 5+3:0:0:0:1, 5+1:0:0:0:0, 12+6:0:0:0:2, 8+5:0:0:0:0, 7+3:0:0:0:0, 6+2:0:0:0:0, 7+5:0:1:0:1, 6+1:0:0:0:0, 4+0:0:0:0:0, 5+2:0:0:0:0, 5+1:0:0:0:0, 7+3:0:0:0:0, 8+2:0:0:0:1, 8+4:0:0:0:1, 7+7:0:0:0:0, 8+3:0:0:0:0, 8+9:0:1:0:6, 5+1:0:0:0:0, 5+4:0:0:0:0, 8+2:0:0:0:0, 8+4:0:0:0:1, 7+1:0:0:0:0, 7+6:0:0:0:0, 6+1:0:0:0:0, 7+7:0:1:0:4, 5+1:0:0:0:0, 3+0:0:0:0:0, 2+2:0:0:0:0, 4+1:0:0:0:0, 2+2:0:0:0:0, 6+9:1:0:0:1, 7+6:2:0:0:3, 10+8:5:0:0:5, 8+9:1:1:0:4, 5+3:0:0:0:1, 5+1:0:0:0:0, 8+2:0:0:0:1, 8+4:0:0:0:0, 9+2:0:0:0:0, 7+2:0:0:0:0, 7+2:0:1:0:1, 7+4:0:0:0:0, 5+2:0:0:0:0, 1+1:0:0:0:0, 6+9:0:0:0:1, 11+6:0:0:0:0, 8+3:0:0:0:1, 7+1:0:0:0:0, 8+7:0:0:0:0, 7+3:0:0:0:0, 9+6:0:1:0:1, 6+2:0:0:0:0, 6+4:0:0:0:2, 6+3:1:0:0:1, 9+3:0:0:0:1, 7+3:0:0:0:1, 8+6:0:0:0:0, 7+3:0:0:0:0, 7+8:0:1:0:5, 4+0:0:0:0:0, 3+0:0:0:0:0, 2+3:0:0:0:0, 3+1:0:0:0:0, 2+3:0:0:0:0, 7+7:1:0:0:1, 6+7:1:0:0:2, 12+6:2:0:0:3, 7+7:1:0:0:3, 5+2:0:0:0:1, 6+2:0:0:0:0, 8+3:0:0:0:1, 8+4:1:0:0:1, 7+4:0:0:0:0, 8+4:0:0:0:0, 8+4:0:1:0:1, 6+1:1:0:0:1, 4+0:0:0:0:0, 6+0:0:0:0:0, 4+0:0:0:0:0, 7+5:0:0:0:0, 4+0:0:0:0:0, 11+7:2:0:0:3, 16+13:0:1:0:5, 5+1:0:0:0:0, 1+0:0:0:0:0, 1159+644:31:19:0:130
Ab minor (7b), 2+0:0:0:0:0, 7+2:0:0:0:0, 6+0:0:0:0:0, 8+2:0:0:0:1, 7+1:0:0:0:0, 4+4:0:0:0:0, 3+0:0:0:0:0, 6+3:0:1:0:1, 5+0:0:0:0:0, 7+2:0:0:0:0, 6+0:0:0:0:0, 8+2:0:0:0:0, 7+1:0:0:0:0, 4+4:0:0:0:0, 3+0:0:0:0:0, 6+3:0:1:0:1, 4+0:0:0:0:0, 6+2:0:0:0:0, 4+0:0:0:0:0, 7+1:0:1:0:1, 4+0:0:0:0:0, 8+2:1:0:0:1, 7+3:1:0:0:1, 6+4:0:0:0:1, 7+2:0:0:0:0, 7+2:0:0:0:0, 6+0:0:0:0:0, 8+1:0:0:0:0, 7+1:0:0:0:0, 3+4:0:0:0:0, 3+0:0:0:0:0, 6+3:0:1:0:1, 5+1:0:0:0:0, 2+0:0:0:0:0, 1+0:0:0:0:0, 10+5:0:0:0:1, 9+4:0:0:0:4, 13+6:0:0:0:2, 7+3:0:0:0:0, 5+3:0:0:0:0, 5+2:0:1:0:1, 9+5:0:1:0:2, 7+1:0:0:0:1, 9+5:0:0:0:4, 9+5:0:0:0:4, 9+4:0:0:0:3, 8+4:0:0:0:0, 5+3:0:0:0:0, 3+0:0:0:0:0, 7+5:0:2:0:1, 6+0:0:0:0:0, 9+2:0:1:0:1, 6+1:0:0:0:0, 10+2:0:0:0:0, 6+3:0:0:0:0, 12+3:1:0:0:0, 7+3:1:0:0:0, 8+7:0:0:0:4, 10+5:1:0:0:2, 11+4:0:0:0:1, 8+5:1:0:0:4, 9+1:0:0:0:0, 7+2:0:0:0:0, 4+4:0:0:0:0, 3+0:0:0:0:0, 5+4:0:1:0:2, 4+0:0:0:0:0, 2+0:0:0:0:0, 0+0:0:0:0:0, 7+3:0:0:0:0, 6+0:0:0:0:0, 7+1:0:0:0:0, 6+1:0:0:0:0, 4+2:0:0:0:0, 3+0:0:0:0:0, 6+3:0:1:0:1, 5+1:0:0:0:0, 8+3:0:0:0:0, 8+1:0:0:0:1, 9+1:0:0:0:0, 8+3:0:0:0:0, 5+1:0:0:0:1, 6+2:0:0:0:0, 6+4:0:2:0:1, 5+0:0:0:0:0, 8+3:0:0:0:0, 4+0:0:0:0:0, 7+0:0:0:0:0, 4+0:0:0:0:0, 9+3:2:0:0:0, 7+3:1:0:0:0, 7+4:0:0:0:0, 8+2:1:0:0:1, 8+2:0:0:0:0, 6+0:0:0:0:0, 12+3:0:0:0:1, 5+1:0:0:0:0, 3+3:0:0:0:0, 3+0:0:0:0:0, 5+4:0:1:0:2, 5+1:0:0:0:1, 2+0:0:0:0:0, 3+0:0:0:0:0, 7+4:0:0:0:0, 8+1:0:0:0:0, 8+1:0:0:0:0, 7+2:0:0:0:0, 3+4:0:0:0:0, 4+1:0:0:0:1, 5+5:0:1:0:2, 6+1:0:0:0:1, 8+3:0:0:0:0, 9+1:0:0:0:1, 8+2:0:0:0:0, 7+3:0:0:0:0, 3+3:0:0:0:0, 3+0:0:0:0:0, 5+4:0:1:0:2, 5+0:0:0:0:0, 7+2:0:0:0:0, 4+0:0:0:0:0, 7+1:0:0:0:0, 5+0:0:0:0:0, 8+1:1:0:0:0, 8+4:2:0:0:0, 11+6:5:0:0:1, 8+2:1:1:0:1, 7+3:0:0:0:0, 6+0:0:0:0:0, 8+1:0:0:0:0, 7+1:0:0:0:0, 5+2:0:0:0:0, 3+0:0:0:0:0, 5+3:0:1:0:1, 5+2:0:0:0:2, 2+0:0:0:0:0, 3+1:0:0:0:0, 8+6:0:0:0:2, 11+3:0:0:0:1, 8+1:0:0:0:0, 7+3:0:0:0:0, 4+3:0:0:0:0, 3+0:0:0:0:0, 7+4:0:1:0:2, 6+1:0:0:0:0, 8+3:0:0:0:2, 6+1:1:0:0:1, 9+1:0:0:0:0, 9+2:0:0:0:0, 4+3:0:0:0:0, 3+0:0:0:0:0, 5+4:0:1:0:2, 4+0:0:0:0:0, 6+1:0:0:0:0, 5+1:0:0:0:0, 7+0:0:0:0:0, 5+0:0:0:0:0, 9+1:1:0:0:0, 7+3:1:0:0:0, 13+7:0:0:0:0, 7+2:1:0:0:1, 7+2:0:0:0:0, 7+1:0:0:0:1, 8+1:0:0:0:0, 7+1:1:0:0:1, 3+4:0:0:0:0, 5+2:0:0:0:2, 6+3:0:1:0:1, 4+2:0:0:0:1, 2+0:0:0:0:0, 3+1:0:0:0:1, 2+0:0:0:0:0, 4+3:0:1:0:1, 2+0:0:0:0:0, 12+6:2:0:0:2, 17+12:0:1:0:7, 2+0:0:0:0:0, 1+0:0:0:0:0, 1095+358:26:23:0:94
A# minor (7#), 0+0:0:0:0:0, 5+7:0:0:0:1, 5+1:0:0:0:0, 9+4:0:0:0:2, 7+1:0:0:0:0, 8+7:0:0:0:0, 6+1:0:0:0:0, 8+8:0:1:0:5, 5+1:0:0:0:0, 5+4:0:0:0:0, 5+1:0:0:0:0, 9+4:0:0:0:2, 7+1:0:0:0:0, 8+7:0:0:0:0, 6+1:0:0:0:0, 8+8:0:1:0:5, 4+0:0:0:0:0, 3+0:0:0:0:0, 2+1:0:0:0:0, 4+2:0:0:0:0, 2+1:0:0:0:0, 7+3:1:0:0:1, 5+3:1:0:0:3, 7+4:0:0:0:1, 7+3:0:0:0:0, 5+1:0:0:0:0, 5+1:0:0:0:0, 8+3:0:0:0:1, 7+1:0:0:0:0, 7+7:0:0:0:0, 6+1:0:0:0:0, 8+6:0:1:0:1, 7+2:0:0:0:0, 4+0:0:0:0:0, 1+0:0:0:0:0, 7+3:0:0:0:1, 8+4:0:0:0:0, 13+8:0:0:0:2, 6+6:0:0:0:0, 9+8:0:0:0:0, 10+5:0:0:0:0, 11+7:0:1:0:5, 6+2:0:0:0:0, 6+7:0:0:0:0, 8+6:0:0:0:0, 9+5:0:0:0:1, 8+4:0:0:0:0, 9+6:0:0:0:0, 7+3:0:0:0:0, 11+4:0:1:0:1, 6+2:0:0:0:0, 6+3:0:0:0:0, 3+2:0:1:0:0, 7+5:0:0:0:1, 3+3:0:0:0:0, 11+9:1:0:0:1, 6+6:1:0:0:2, 10+7:0:0:0:1, 8+7:1:0:0:1, 8+8:0:0:0:0, 8+7:1:0:0:1, 9+3:0:0:0:1, 8+6:0:0:0:0, 8+4:0:0:0:0, 7+2:0:0:0:0, 8+2:0:1:0:1, 6+1:0:0:0:0, 4+0:0:0:0:0, 0+0:0:0:0:0, 5+2:0:0:0:1, 5+1:0:0:0:0, 7+2:0:0:0:1, 6+1:0:0:0:0, 8+6:0:0:0:0, 7+2:0:0:0:0, 8+6:0:1:0:1, 7+2:0:0:0:0, 6+2:0:0:0:0, 7+2:0:0:0:0, 9+2:0:0:0:1, 8+4:0:0:0:1, 9+8:0:0:0:0, 9+3:0:0:0:0, 8+6:0:1:0:5, 5+1:0:0:0:0, 4+1:0:0:0:0, 2+2:0:0:0:0, 3+3:0:0:0:0, 2+1:0:0:0:0, 8+4:1:1:0:2, 6+7:1:0:0:2, 7+9:3:0:0:3, 8+8:1:0:0:2, 5+3:0:0:0:1, 5+1:0:0:0:0, 12+6:0:0:0:2, 8+5:0:0:0:0, 7+3:0:0:0:0, 6+2:0:0:0:0, 7+5:0:1:0:1, 6+1:0:0:0:0, 4+0:0:0:0:0, 5+2:0:0:0:0, 5+1:0:0:0:0, 7+3:0:0:0:0, 8+2:0:0:0:1, 8+4:0:0:0:1, 7+7:0:0:0:0, 8+3:0:0:0:0, 8+9:0:1:0:6, 5+1:0:0:0:0, 5+4:0:0:0:0, 8+2:0:0:0:0, 8+4:0:0:0:1, 7+1:0:0:0:0, 7+6:0:0:0:0, 6+1:0:0:0:0, 7+7:0:1:0:4, 5+1:0:0:0:0, 3+0:0:0:0:0, 2+2:0:0:0:0, 4+1:0:0:0:0, 2+2:0:0:0:0, 6+9:1:0:0:1, 7+6:2:0:0:3, 10+8:5:0:0:5, 8+9:1:1:0:4, 5+3:0:0:0:1, 5+1:0:0:0:0, 8+2:0:0:0:1, 8+4:0:0:0:0, 9+2:0:0:0:0, 7+2:0:0:0:0, 7+2:0:1:0:1, 7+4:0:0:0:0, 5+2:0:0:0:0, 6+2:0:0:0:0, 6+1:0:0:0:0, 11+3:0:0:0:0, 8+3:0:0:0:1, 7+1:0:0:0:0, 8+7:0:0:0:0, 7+3:0:0:0:0, 9+6:0:1:0:1, 6+2:0:0:0:0, 6+6:0:0:0:0, 6+3:1:0:0:1, 9+3:0:0:0:1, 7+3:0:0:0:1, 8+6:0:0:0:0, 7+3:0:0:0:0, 7+8:0:1:0:5, 4+0:0:0:0:0, 3+1:0:0:0:0, 2+0:0:0:0:0, 3+1:0:0:0:0, 2+3:0:0:0:0, 7+7:1:0:0:1, 6+7:1:0:0:2, 12+6:2:0:0:3, 7+7:1:0:0:3, 5+2:0:0:0:1, 6+2:0:0:0:0, 8+3:0:0:0:1, 8+4:1:0:0:1, 7+4:0:0:0:0, 8+4:0:0:0:0, 8+4:0:1:0:1, 6+1:1:0:0:1, 4+0:0:0:0:0, 6+0:0:0:0:0, 4+0:0:0:0:0, 7+5:0:0:0:0, 4+0:0:0:0:0, 11+7:2:0:0:3, 16+13:0:1:0:5, 5+1:0:0:0:0, 1+0:0:0:0:0, 1163+620:31:19:0:125
