 , 0, 1, 2, 3, 4, 5, 6, 7, 8, 9, 10, 11, 12, 13, 14, 15, 16, 17, 18, 19, 20, 21, 22, 23, 24, 25, 26, 27, 28, 29, 30, 31, 32, 33, 34, 35, 36, 37, 38, 39, 40, 41, 42, 43, 44, 45, 46, 47, 48, 49, 50, 51, 52, 53, 54, 55, 56, 57, 58, 59, 60, 61, 62, 63, 64, 65, 66, 67, 68, 69, 70, 71, 72, 73, 74, 75, 76, 77, 78, 79, 80, 81, 82, 83, 84, 85, 86, 87, 88, 89, 90, 91, 92, 93, 94, 95, 96, 97, 98, 99, 100, 101, 102, 103, 104, 105, 106, 107, 108, 109, 110, 111, 112, 113, 114, 115, 116, 117, 118, 119, 120, 121, 122, 123, 124, 125, 126, 127, 128, 129, 130, 131, 132, 133, 134, 135, 136, 137, 138, 139, 140, 141, 142, 143, 144, 145, 146, rowcost
C major (0), 0:0:0:0:0, 0:0:0:0:0, 0:0:0:0:0, 2:0:0:0:0, 0:0:0:0:0, 1:0:0:0:0, 1:0:0:0:0, 2:0:0:0:0, 0:0:0:0:0, 2:0:0:0:0, 3:0:1:0:1, 0:0:0:0:0, 0:0:0:0:0, 1:0:0:0:0, 0:0:0:0:0, 2:0:0:0:0, 0:0:0:0:0, 1:0:0:0:0, 1:0:0:0:0, 2:0:0:0:0, 0:0:0:0:0, 2:0:0:0:0, 3:0:1:0:1, 0:0:0:0:0, 2:0:0:0:0, 0:0:0:0:0, 2:0:0:0:0, 1:0:0:0:0, 2:0:1:0:1, 1:0:0:0:0, 1:0:0:0:0, 1:0:0:0:0, 3:0:1:0:1, 0:0:0:0:0, 2:0:0:0:0, 2:0:0:0:0, 2:0:0:0:0, 1:0:0:0:0, 1:0:0:0:0, 2:0:0:0:3, 5:0:0:0:2, 1:0:0:0:0, 1:0:0:0:0, 6:0:0:0:1, 4:0:0:0:2, 5:0:0:0:1, 4:0:1:0:2, 2:0:0:0:0, 0:0:0:0:0, 4:0:0:0:1, 5:0:0:0:1, 5:0:0:0:0, 1:0:0:0:0, 3:0:0:0:1, 1:0:0:0:0, 3:0:0:0:0, 1:0:0:0:0, 4:0:0:0:1, 3:0:0:0:0, 0:0:0:0:0,  , 0:0:0:0:0, 0:0:0:0:0, 1:0:0:0:1, 0:0:0:0:0, 1:0:0:0:0, 0:0:0:0:0, 1:0:0:0:1, 0:0:0:0:0, 0:0:0:0:0, 1:0:0:0:0, 0:0:0:0:0,  , 0:0:0:0:0, 2:0:0:0:0, 4:0:0:0:0, 4:0:0:0:2, 2:0:0:0:0, 7:0:0:0:0, 2:0:0:0:0, 2:0:0:0:0, 0:0:0:0:0, 3:0:0:0:0, 1:0:0:0:0, 3:0:0:0:0, 0:0:0:0:0, 4:0:0:0:0, 4:0:0:0:3, 6:0:0:0:0, 3:0:0:0:2, 4:0:0:0:0, 1:0:0:0:1, 2:0:0:0:0, 2:0:0:0:0, 4:0:0:0:0, 2:0:0:0:0, 3:0:0:0:1, 3:0:0:0:2, 5:0:0:0:2, 2:0:1:0:1, 3:0:0:0:2, 4:0:0:0:0, 1:0:0:0:0, 2:0:0:0:0, 2:0:0:0:1, 4:0:0:0:0, 4:0:0:0:0, 2:0:0:0:1, 0:0:0:0:0, 0:0:0:0:0, 1:0:0:0:1, 0:0:0:0:0, 2:0:0:0:0, 3:0:0:0:1, 5:0:0:2:3, 1:0:0:0:0, 2:0:0:0:1, 2:0:0:0:1, 3:0:0:0:0, 2:0:0:0:0, 4:0:0:0:0, 3:0:0:0:0, 3:0:0:0:1, 7:0:0:0:1, 4:0:0:0:0, 1:0:0:0:0, 2:0:0:0:2, 2:0:0:0:5, 0:0:0:0:0, 1:0:0:0:0, 3:0:0:0:0, 0:0:0:0:0, 1:0:0:0:1, 0:0:0:0:0, 1:0:0:0:0, 1:0:0:0:0, 4:0:0:0:0, 1:0:0:0:0, 2:0:0:0:0, 2:0:0:0:0, 4:0:0:0:0, 2:0:0:0:1, 2:0:0:0:0, 1:0:0:0:0, 3:0:0:0:2, 2:0:0:0:1, 1:0:0:0:0, 283:0:6:2:60
A minor (0), 0:0:0:0:0, 0:0:0:0:0, 0:0:0:0:0, 2:0:0:0:0, 0:0:0:0:0, 1:0:0:0:0, 1:0:0:0:0, 2:0:0:0:0, 0:0:0:0:0, 2:0:0:0:0, 3:0:1:0:1, 0:0:0:0:0, 0:0:0:0:0, 1:0:0:0:0, 0:0:0:0:0, 2:0:0:0:0, 0:0:0:0:0, 1:0:0:0:0, 1:0:0:0:0, 2:0:0:0:0, 0:0:0:0:0, 2:0:0:0:0, 3:0:1:0:1, 0:0:0:0:0, 2:0:0:0:0, 0:0:0:0:0, 2:0:0:0:0, 1:0:0:0:0, 2:0:1:0:1, 1:0:0:0:0, 1:0:0:0:0, 1:0:0:0:0, 3:0:1:0:1, 0:0:0:0:0, 2:0:0:0:0, 2:0:0:0:0, 2:0:0:0:0, 1:0:0:0:0, 1:0:0:0:0, 2:0:0:0:3, 5:0:0:0:2, 1:0:0:0:0, 1:0:0:0:0, 6:0:0:0:1, 4:0:0:0:2, 5:0:0:0:1, 4:0:1:0:2, 2:0:0:0:0, 0:0:0:0:0, 4:0:0:0:1, 5:0:0:0:1, 5:0:0:0:0, 1:0:0:0:0, 3:0:0:0:1, 1:0:0:0:0, 3:0:0:0:0, 1:0:0:0:0, 4:0:0:0:1, 3:0:0:0:0, 0:0:0:0:0,  , 0:0:0:0:0, 0:0:0:0:0, 1:0:0:0:1, 0:0:0:0:0, 1:0:0:0:0, 0:0:0:0:0, 1:0:0:0:1, 0:0:0:0:0, 0:0:0:0:0, 1:0:0:0:0, 0:0:0:0:0,  , 0:0:0:0:0, 2:0:0:0:0, 4:0:0:0:0, 4:0:0:0:2, 2:0:0:0:0, 7:0:0:0:0, 2:0:0:0:0, 2:0:0:0:0, 0:0:0:0:0, 3:0:0:0:0, 1:0:0:0:0, 3:0:0:0:0, 0:0:0:0:0, 4:0:0:0:0, 4:0:0:0:3, 6:0:0:0:0, 3:0:0:0:2, 4:0:0:0:0, 1:0:0:0:1, 2:0:0:0:0, 2:0:0:0:0, 4:0:0:0:0, 2:0:0:0:0, 3:0:0:0:1, 3:0:0:0:2, 5:0:0:0:2, 2:0:1:0:1, 3:0:0:0:2, 4:0:0:0:0, 1:0:0:0:0, 2:0:0:0:0, 2:0:0:0:1, 4:0:0:0:0, 4:0:0:0:0, 2:0:0:0:1, 0:0:0:0:0, 0:0:0:0:0, 1:0:0:0:1, 0:0:0:0:0, 2:0:0:0:0, 3:0:0:0:1, 5:0:0:2:3, 1:0:0:0:0, 2:0:0:0:1, 2:0:0:0:1, 3:0:0:0:0, 2:0:0:0:0, 4:0:0:0:0, 3:0:0:0:0, 3:0:0:0:1, 7:0:0:0:1, 4:0:0:0:0, 1:0:0:0:0, 2:0:0:0:2, 2:0:0:0:5, 0:0:0:0:0, 1:0:0:0:0, 3:0:0:0:0, 0:0:0:0:0, 1:0:0:0:1, 0:0:0:0:0, 1:0:0:0:0, 1:0:0:0:0, 4:0:0:0:0, 1:0:0:0:0, 2:0:0:0:0, 2:0:0:0:0, 4:0:0:0:0, 2:0:0:0:1, 2:0:0:0:0, 1:0:0:0:0, 3:0:0:0:2, 2:0:0:0:1, 1:0:0:0:0, 283:0:6:2:60
F major (1b), 0:0:0:0:0, 1:0:0:0:0, 0:0:0:0:0, 2:0:0:0:0, 0:0:0:0:0, 0:0:0:0:0, 0:0:0:0:0, 3:0:0:0:0, 0:0:0:0:0, 1:0:0:0:0, 2:3:1:0:3, 1:0:0:0:0, 0:0:0:0:0, 2:1:0:0:1, 0:0:0:0:0, 2:0:0:0:0, 0:0:0:0:0, 0:0:0:0:0, 0:0:0:0:0, 3:0:0:0:0, 0:0:0:0:0, 1:0:0:0:0, 2:3:1:0:3, 1:0:0:0:0, 1:0:0:0:0, 1:0:0:0:0, 2:2:0:0:2, 2:0:0:0:0, 1:0:1:0:1, 0:0:0:0:0, 1:0:0:0:0, 2:2:0:0:2, 2:0:1:0:1, 0:0:0:0:0, 3:1:0:0:1, 3:1:0:0:1, 2:0:0:0:0, 2:0:0:0:0, 0:0:0:0:0, 2:2:0:0:2, 5:1:0:0:1, 0:0:0:0:0, 2:1:0:0:1, 7:4:0:0:4, 5:1:0:0:1, 5:0:0:0:0, 5:5:1:0:5, 3:0:0:0:0, 0:0:0:0:0, 5:1:0:0:1, 5:0:0:0:0, 6:0:0:0:0, 0:0:0:0:0, 2:1:0:0:1, 1:0:0:0:0, 4:0:0:0:0, 2:0:0:0:0, 3:1:0:0:1, 2:1:0:0:1, 1:0:0:0:0,  , 1:0:0:0:0, 1:0:0:0:0, 1:0:0:0:0, 1:0:0:0:0, 0:0:0:0:0, 0:0:0:0:0, 2:1:0:0:1, 1:0:0:0:0, 0:0:0:0:0, 1:2:0:0:2, 1:0:0:0:0,  , 1:0:0:0:0, 1:0:0:0:0, 4:0:1:0:1, 4:0:0:0:0, 1:0:0:0:0, 6:1:0:0:1, 3:0:0:0:0, 2:0:0:0:0, 0:0:0:0:0, 4:2:0:0:2, 2:0:0:0:0, 2:0:0:0:0, 1:0:0:0:0, 3:0:0:0:0, 5:2:1:0:3, 7:0:0:0:0, 2:1:0:0:1, 3:0:0:0:0, 2:1:0:0:1, 3:0:0:0:0, 1:0:0:0:0, 3:2:0:0:2, 3:0:0:0:0, 3:0:0:0:0, 4:2:0:0:2, 4:2:0:0:2, 3:3:1:0:3, 3:0:0:0:0, 3:4:0:0:4, 1:0:0:0:0, 3:0:0:0:0, 2:1:0:0:1, 5:0:0:0:0, 5:2:0:0:2, 3:1:0:0:1, 1:0:0:0:0, 1:0:0:0:0, 1:0:0:0:0, 1:0:0:0:0, 3:0:0:0:0, 2:1:0:0:1, 5:0:0:0:0, 2:0:0:0:0, 3:1:0:0:1, 2:1:0:0:1, 3:1:0:0:1, 3:1:0:0:1, 5:0:0:0:0, 4:1:0:0:1, 3:1:0:0:1, 6:0:0:0:0, 3:0:0:0:0, 0:0:0:0:0, 2:2:0:0:2, 3:5:0:0:5, 1:0:0:0:0, 2:0:0:0:0, 4:1:0:0:1, 1:0:0:0:0, 2:1:0:0:1, 1:0:0:0:0, 1:1:0:0:1, 2:0:0:0:0, 3:0:0:0:0, 0:0:0:0:0, 1:2:0:0:2, 3:0:0:0:0, 5:2:0:0:2, 3:1:0:0:1, 3:2:0:0:2, 2:0:0:0:0, 4:1:0:0:1, 2:1:0:0:1, 1:0:0:0:0, 313:84:8:0:88
G major (1#), 0:0:0:0:0, 1:0:0:0:0, 1:0:0:0:0, 1:0:3:0:3, 0:0:0:0:0, 1:2:0:0:0, 1:0:0:0:1, 3:0:0:0:0, 0:0:0:0:0, 2:4:0:0:0, 2:0:1:0:2, 1:0:0:0:0, 0:0:0:0:0, 2:0:0:0:0, 1:0:0:0:0, 1:0:3:0:3, 0:0:0:0:0, 1:2:0:0:0, 1:0:0:0:1, 3:0:0:0:0, 0:0:0:0:0, 2:0:0:0:3, 2:0:1:0:2, 1:0:0:0:0, 2:0:0:0:1, 1:0:0:0:0, 1:1:0:0:0, 1:0:0:0:0, 3:4:1:0:1, 1:3:0:0:0, 1:1:0:0:1, 2:0:0:0:0, 2:3:1:0:1, 0:0:0:0:0, 1:0:0:0:0, 3:0:0:0:1, 2:1:1:0:1, 2:0:0:0:1, 1:0:0:0:2, 2:0:0:0:1, 4:1:0:0:2, 1:2:0:0:0, 0:0:0:0:0, 7:0:0:0:3, 4:2:0:0:1, 4:2:0:0:1, 3:1:1:0:2, 3:0:0:0:1, 1:0:0:0:0, 5:0:0:0:2, 4:0:0:0:2, 4:3:0:0:1, 1:0:0:0:3, 3:3:0:0:2, 1:0:0:0:1, 4:0:0:0:1, 2:0:0:0:1, 4:2:0:0:1, 2:1:0:0:0, 1:0:0:0:0,  , 1:0:0:0:0, 0:0:0:0:0, 2:0:0:0:1, 0:0:0:0:0, 1:2:0:0:0, 0:0:0:0:0, 2:0:0:0:1, 0:0:0:0:0, 0:0:0:0:0, 0:0:0:0:0, 1:0:0:0:0,  , 1:0:0:0:0, 2:3:0:0:1, 3:0:0:0:3, 4:0:0:0:4, 2:2:0:0:1, 6:2:0:0:1, 3:0:0:0:1, 3:2:0:0:1, 0:0:0:0:0, 2:0:0:0:1, 2:0:0:0:1, 3:2:0:0:3, 1:0:0:0:0, 3:0:0:0:1, 3:0:0:0:3, 5:0:0:0:3, 3:1:0:0:1, 5:0:0:0:3, 2:0:0:0:1, 1:0:0:0:1, 2:0:0:0:1, 3:3:0:0:1, 3:0:0:0:1, 2:1:0:0:1, 4:0:0:0:1, 4:3:0:0:1, 1:0:1:0:1, 4:0:0:0:4, 3:3:0:0:1, 0:0:0:0:0, 3:0:0:0:1, 2:1:0:0:2, 3:0:0:0:1, 3:1:0:0:1, 3:0:0:0:2, 0:0:0:0:0, 1:0:0:0:0, 2:0:0:0:1, 0:0:0:0:0, 3:0:0:0:3, 2:2:0:0:1, 4:1:0:2:3, 2:0:0:0:0, 2:0:0:0:2, 2:0:0:0:1, 2:2:0:0:0, 3:0:0:0:2, 3:2:0:0:2, 4:0:0:0:1, 4:1:0:0:2, 7:0:0:0:2, 5:4:0:0:2, 1:1:0:0:0, 2:0:0:0:2, 3:0:0:0:3, 0:0:0:0:0, 1:0:0:0:2, 2:1:0:0:0, 1:0:0:0:0, 1:0:0:0:1, 1:0:0:0:0, 0:0:0:0:0, 0:0:0:0:0, 3:0:0:0:4, 1:2:0:0:0, 1:1:0:0:0, 3:1:0:0:0, 3:3:0:0:1, 2:0:0:0:2, 1:1:0:0:0, 2:0:0:0:0, 2:0:0:0:2, 3:1:0:0:2, 2:0:0:0:0, 292:87:13:2:141
D minor (1b), 0:0:0:0:0, 1:0:0:0:0, 0:0:0:0:0, 2:0:0:0:0, 0:0:0:0:0, 0:0:0:0:0, 0:0:0:0:0, 3:0:0:0:0, 0:0:0:0:0, 1:0:0:0:0, 2:3:1:0:3, 1:0:0:0:0, 0:0:0:0:0, 2:1:0:0:1, 0:0:0:0:0, 2:0:0:0:0, 0:0:0:0:0, 0:0:0:0:0, 0:0:0:0:0, 3:0:0:0:0, 0:0:0:0:0, 1:0:0:0:0, 2:3:1:0:3, 1:0:0:0:0, 1:0:0:0:0, 1:0:0:0:0, 2:2:0:0:2, 2:0:0:0:0, 1:0:1:0:1, 0:0:0:0:0, 1:0:0:0:0, 2:2:0:0:2, 2:0:1:0:1, 0:0:0:0:0, 3:1:0:0:1, 3:1:0:0:1, 2:0:0:0:0, 2:0:0:0:0, 0:0:0:0:0, 2:2:0:0:2, 5:1:0:0:1, 0:0:0:0:0, 2:1:0:0:1, 7:4:0:0:4, 5:1:0:0:1, 5:0:0:0:0, 5:5:1:0:5, 3:0:0:0:0, 0:0:0:0:0, 5:1:0:0:1, 5:0:0:0:0, 6:0:0:0:0, 0:0:0:0:0, 2:1:0:0:1, 1:0:0:0:0, 4:0:0:0:0, 2:0:0:0:0, 3:1:0:0:1, 2:1:0:0:1, 1:0:0:0:0,  , 1:0:0:0:0, 1:0:0:0:0, 1:0:0:0:0, 1:0:0:0:0, 0:0:0:0:0, 0:0:0:0:0, 2:1:0:0:1, 1:0:0:0:0, 0:0:0:0:0, 1:2:0:0:2, 1:0:0:0:0,  , 1:0:0:0:0, 1:0:0:0:0, 4:0:1:0:1, 4:0:0:0:0, 1:0:0:0:0, 6:1:0:0:1, 3:0:0:0:0, 2:0:0:0:0, 0:0:0:0:0, 4:2:0:0:2, 2:0:0:0:0, 2:0:0:0:0, 1:0:0:0:0, 3:0:0:0:0, 5:2:1:0:3, 7:0:0:0:0, 2:1:0:0:1, 3:0:0:0:0, 2:1:0:0:1, 3:0:0:0:0, 1:0:0:0:0, 3:2:0:0:2, 3:0:0:0:0, 3:0:0:0:0, 4:2:0:0:2, 4:2:0:0:2, 3:3:1:0:3, 3:0:0:0:0, 3:4:0:0:4, 1:0:0:0:0, 3:0:0:0:0, 2:1:0:0:1, 5:0:0:0:0, 5:2:0:0:2, 3:1:0:0:1, 1:0:0:0:0, 1:0:0:0:0, 1:0:0:0:0, 1:0:0:0:0, 3:0:0:0:0, 2:1:0:0:1, 5:0:0:0:0, 2:0:0:0:0, 3:1:0:0:1, 2:1:0:0:1, 3:1:0:0:1, 3:1:0:0:1, 5:0:0:0:0, 4:1:0:0:1, 3:1:0:0:1, 6:0:0:0:0, 3:0:0:0:0, 0:0:0:0:0, 2:2:0:0:2, 3:5:0:0:5, 1:0:0:0:0, 2:0:0:0:0, 4:1:0:0:1, 1:0:0:0:0, 2:1:0:0:1, 1:0:0:0:0, 1:1:0:0:1, 2:0:0:0:0, 3:0:0:0:0, 0:0:0:0:0, 1:2:0:0:2, 3:0:0:0:0, 5:2:0:0:2, 3:1:0:0:1, 3:2:0:0:2, 2:0:0:0:0, 4:1:0:0:1, 2:1:0:0:1, 1:0:0:0:0, 313:84:8:0:88
E minor (1#), 0:0:0:0:0, 1:0:0:0:0, 1:0:0:0:0, 1:0:3:0:3, 0:0:0:0:0, 1:2:0:0:0, 1:0:0:0:1, 3:0:0:0:0, 0:0:0:0:0, 2:4:0:0:0, 2:0:1:0:2, 1:0:0:0:0, 0:0:0:0:0, 2:0:0:0:0, 1:0:0:0:0, 1:0:3:0:3, 0:0:0:0:0, 1:2:0:0:0, 1:0:0:0:1, 3:0:0:0:0, 0:0:0:0:0, 2:0:0:0:3, 2:0:1:0:2, 1:0:0:0:0, 2:0:0:0:1, 1:0:0:0:0, 1:1:0:0:0, 1:0:0:0:0, 3:4:1:0:1, 1:3:0:0:0, 1:1:0:0:1, 2:0:0:0:0, 2:3:1:0:1, 0:0:0:0:0, 1:0:0:0:0, 3:0:0:0:1, 2:1:1:0:1, 2:0:0:0:1, 1:0:0:0:2, 2:0:0:0:1, 4:1:0:0:2, 1:2:0:0:0, 0:0:0:0:0, 7:0:0:0:3, 4:2:0:0:1, 4:2:0:0:1, 3:1:1:0:2, 3:0:0:0:1, 1:0:0:0:0, 5:0:0:0:2, 4:0:0:0:2, 4:3:0:0:1, 1:0:0:0:3, 3:3:0:0:2, 1:0:0:0:1, 4:0:0:0:1, 2:0:0:0:1, 4:2:0:0:1, 2:1:0:0:0, 1:0:0:0:0,  , 1:0:0:0:0, 0:0:0:0:0, 2:0:0:0:1, 0:0:0:0:0, 1:2:0:0:0, 0:0:0:0:0, 2:0:0:0:1, 0:0:0:0:0, 0:0:0:0:0, 0:0:0:0:0, 1:0:0:0:0,  , 1:0:0:0:0, 2:3:0:0:1, 3:0:0:0:3, 4:0:0:0:4, 2:2:0:0:1, 6:2:0:0:1, 3:0:0:0:1, 3:2:0:0:1, 0:0:0:0:0, 2:0:0:0:1, 2:0:0:0:1, 3:2:0:0:3, 1:0:0:0:0, 3:0:0:0:1, 3:0:0:0:3, 5:0:0:0:3, 3:1:0:0:1, 5:0:0:0:3, 2:0:0:0:1, 1:0:0:0:1, 2:0:0:0:1, 3:3:0:0:1, 3:0:0:0:1, 2:1:0:0:1, 4:0:0:0:1, 4:3:0:0:1, 1:0:1:0:1, 4:0:0:0:4, 3:3:0:0:1, 0:0:0:0:0, 3:0:0:0:1, 2:1:0:0:2, 3:0:0:0:1, 3:1:0:0:1, 3:0:0:0:2, 0:0:0:0:0, 1:0:0:0:0, 2:0:0:0:1, 0:0:0:0:0, 3:0:0:0:3, 2:2:0:0:1, 4:1:0:2:3, 2:0:0:0:0, 2:0:0:0:2, 2:0:0:0:1, 2:2:0:0:0, 3:0:0:0:2, 3:2:0:0:2, 4:0:0:0:1, 4:1:0:0:2, 7:0:0:0:2, 5:4:0:0:2, 1:1:0:0:0, 2:0:0:0:2, 3:0:0:0:3, 0:0:0:0:0, 1:0:0:0:2, 2:1:0:0:0, 1:0:0:0:0, 1:0:0:0:1, 1:0:0:0:0, 0:0:0:0:0, 0:0:0:0:0, 3:0:0:0:4, 1:2:0:0:0, 1:1:0:0:0, 3:1:0:0:0, 3:3:0:0:1, 2:0:0:0:2, 1:1:0:0:0, 2:0:0:0:0, 2:0:0:0:2, 3:1:0:0:2, 2:0:0:0:0, 292:87:13:2:141
Bb major (2b), 0:0:0:0:0, 1:0:0:0:1, 0:0:0:0:0, 2:0:0:0:0, 0:0:0:0:0, 1:0:0:0:0, 0:0:0:0:0, 4:0:0:0:1, 0:0:0:0:0, 2:0:0:0:0, 2:3:1:0:3, 1:0:0:0:1, 0:0:0:0:0, 2:1:0:0:2, 0:0:0:0:0, 2:0:0:0:0, 0:0:0:0:0, 1:0:0:0:0, 0:0:0:0:0, 3:0:0:0:1, 0:0:0:0:0, 2:0:0:0:0, 2:3:1:0:3, 1:0:0:0:1, 1:0:0:0:1, 1:0:0:0:1, 2:2:1:0:3, 2:0:0:0:1, 2:0:1:0:0, 1:0:0:0:0, 1:0:0:0:0, 3:2:0:0:4, 3:0:1:0:0, 1:0:0:0:0, 3:1:0:0:2, 4:1:0:0:4, 3:0:0:0:0, 1:0:0:0:2, 1:0:0:0:0, 3:2:0:0:5, 5:0:0:0:1, 1:0:0:0:0, 2:1:0:0:2, 8:4:0:0:6, 4:1:0:0:2, 6:0:0:0:1, 6:2:3:0:6, 4:0:0:0:2, 0:0:0:0:0, 6:1:0:0:3, 5:0:2:0:3, 6:0:1:0:3, 0:0:0:0:0, 3:1:0:0:1, 0:0:0:0:0, 5:0:0:0:3, 3:0:0:0:1, 4:1:0:0:3, 3:1:0:0:1, 2:0:0:0:1,  , 1:0:0:0:1, 1:0:0:0:1, 1:0:0:0:1, 1:0:0:0:1, 1:0:0:0:0, 0:0:0:0:0, 2:1:0:0:4, 1:0:0:0:1, 1:0:0:0:0, 1:2:0:0:2, 1:0:0:0:2,  , 2:0:0:0:2, 1:0:0:0:0, 3:0:1:0:0, 3:0:0:0:1, 2:0:0:0:0, 6:1:1:0:3, 4:0:0:0:2, 2:0:0:0:0, 1:0:0:0:0, 5:2:0:0:4, 2:0:0:0:1, 1:0:0:0:0, 1:0:0:0:2, 4:0:0:0:0, 4:2:1:0:6, 7:0:1:0:2, 3:1:0:0:1, 2:0:0:0:0, 3:1:0:0:3, 3:0:0:0:1, 2:0:0:0:1, 3:2:1:0:3, 4:0:0:0:4, 3:0:1:0:2, 3:2:2:0:5, 3:2:0:0:2, 4:3:1:0:4, 4:0:0:0:1, 4:4:0:0:4, 1:0:0:0:0, 3:0:0:0:2, 2:0:0:0:0, 6:0:0:0:1, 6:2:0:0:3, 4:1:0:0:4, 1:0:0:0:1, 1:0:0:0:3, 1:0:0:0:1, 1:0:0:0:1, 3:0:0:0:1, 3:1:0:0:1, 5:0:3:0:3, 3:0:0:0:1, 3:0:0:0:1, 3:1:0:0:1, 2:1:0:0:1, 4:1:0:0:3, 5:0:1:0:2, 5:1:0:0:4, 4:1:0:0:1, 5:0:0:0:1, 4:0:0:0:0, 1:0:0:0:0, 1:0:2:0:2, 3:0:1:0:2, 2:0:0:0:1, 3:0:0:0:1, 3:1:0:0:2, 1:0:0:0:2, 2:0:0:0:1, 2:0:0:0:1, 2:1:0:0:1, 3:0:0:0:1, 3:1:1:0:2, 1:0:0:0:0, 1:2:0:0:2, 4:0:0:0:2, 4:2:0:0:3, 4:1:0:0:4, 4:2:0:0:3, 3:0:0:0:4, 4:1:0:0:3, 2:1:0:0:1, 1:0:0:0:0, 360:71:28:0:216
D major (2#), 0:0:0:0:0, 1:0:0:0:0, 1:0:0:0:0, 1:0:3:0:3, 0:0:0:0:0, 2:2:0:0:0, 2:0:0:0:1, 3:0:0:0:0, 0:0:0:0:0, 3:4:0:0:2, 3:0:1:0:2, 1:0:0:0:0, 0:0:0:0:0, 2:0:0:0:0, 1:0:0:0:0, 1:0:3:0:3, 0:0:0:0:0, 2:2:0:0:0, 2:0:0:0:1, 3:0:0:0:0, 0:0:0:0:0, 3:0:0:0:2, 3:0:1:0:2, 1:0:0:0:0, 2:0:0:0:1, 1:0:0:0:0, 1:1:0:0:0, 0:0:0:0:0, 3:4:1:0:1, 2:3:0:0:0, 1:0:3:0:3, 2:0:0:0:0, 2:3:1:0:1, 1:0:0:0:0, 2:0:0:0:0, 4:0:0:0:0, 3:1:1:0:1, 2:0:0:0:1, 1:0:0:0:2, 1:0:0:0:1, 4:1:0:0:3, 2:2:0:0:0, 0:0:0:0:0, 8:0:0:0:1, 5:2:0:0:0, 5:2:0:0:2, 4:1:1:0:3, 3:0:0:0:1, 1:0:0:0:0, 4:0:0:0:1, 4:0:2:0:4, 5:3:0:0:0, 2:0:0:0:3, 4:3:0:0:1, 1:0:0:0:1, 3:0:0:0:0, 3:0:0:0:0, 5:2:0:0:0, 3:1:0:0:0, 1:0:0:0:0,  , 1:0:0:0:0, 0:0:0:0:0, 2:0:0:0:1, 0:0:0:0:0, 2:2:0:0:0, 1:0:0:0:0, 2:0:0:0:1, 0:0:0:0:0, 1:0:0:0:0, 1:0:0:0:0, 1:0:0:0:0,  , 2:0:0:0:0, 3:3:0:0:1, 3:0:0:0:2, 5:0:0:0:2, 3:2:0:0:0, 5:2:0:0:2, 4:0:0:0:1, 3:1:0:0:1, 1:0:0:0:0, 3:0:0:0:1, 2:0:0:0:1, 4:2:0:0:2, 1:0:0:0:0, 2:0:0:0:1, 4:0:0:0:2, 6:0:0:0:2, 4:1:0:0:1, 6:0:0:0:2, 2:0:0:0:0, 1:0:0:0:0, 3:0:0:0:1, 4:3:0:0:1, 4:0:0:0:0, 3:1:0:0:1, 3:0:0:0:1, 3:3:0:0:1, 1:0:1:0:1, 5:0:0:0:3, 4:3:0:0:1, 0:0:0:0:0, 3:0:0:0:0, 2:0:0:0:1, 4:0:0:0:1, 4:1:0:0:1, 3:0:0:0:1, 0:0:0:0:0, 2:0:0:0:0, 2:0:0:0:1, 1:0:0:0:0, 4:0:0:0:0, 3:2:0:0:1, 3:1:2:0:3, 3:0:0:0:0, 2:0:0:0:1, 3:0:0:0:1, 3:2:0:0:0, 3:0:0:0:0, 4:2:0:0:1, 4:0:0:0:1, 4:0:3:0:4, 7:1:1:0:2, 6:4:0:0:4, 2:1:0:0:0, 2:0:0:0:2, 2:0:0:0:3, 1:0:0:0:0, 2:0:0:0:0, 3:1:0:0:0, 1:0:0:0:0, 2:0:0:0:1, 1:0:0:0:0, 0:0:0:0:0, 0:0:0:0:0, 3:0:0:0:4, 2:2:0:0:0, 1:1:0:0:0, 4:1:0:0:1, 4:3:0:0:0, 3:0:0:0:1, 2:1:0:0:1, 3:0:0:0:0, 2:0:0:0:2, 3:0:0:0:0, 1:0:0:0:0, 349:83:24:0:118
G minor (2b), 0:0:0:0:0, 1:0:0:0:1, 0:0:0:0:0, 2:0:0:0:0, 0:0:0:0:0, 1:0:0:0:0, 0:0:0:0:0, 4:0:0:0:1, 0:0:0:0:0, 2:0:0:0:0, 2:3:1:0:3, 1:0:0:0:1, 0:0:0:0:0, 2:1:0:0:2, 0:0:0:0:0, 2:0:0:0:0, 0:0:0:0:0, 1:0:0:0:0, 0:0:0:0:0, 3:0:0:0:1, 0:0:0:0:0, 2:0:0:0:0, 2:3:1:0:3, 1:0:0:0:1, 1:0:0:0:1, 1:0:0:0:1, 2:2:1:0:3, 2:0:0:0:1, 2:0:1:0:0, 1:0:0:0:0, 1:0:0:0:0, 3:2:0:0:4, 3:0:1:0:0, 1:0:0:0:0, 3:1:0:0:2, 4:1:0:0:4, 3:0:0:0:0, 1:0:0:0:2, 1:0:0:0:0, 3:2:0:0:5, 5:0:0:0:1, 1:0:0:0:0, 2:1:0:0:2, 8:4:0:0:6, 4:1:0:0:2, 6:0:0:0:1, 6:2:3:0:6, 4:0:0:0:2, 0:0:0:0:0, 6:1:0:0:3, 5:0:2:0:3, 6:0:1:0:3, 0:0:0:0:0, 3:1:0:0:1, 0:0:0:0:0, 5:0:0:0:3, 3:0:0:0:1, 4:1:0:0:3, 3:1:0:0:1, 2:0:0:0:1,  , 1:0:0:0:1, 1:0:0:0:1, 1:0:0:0:1, 1:0:0:0:1, 1:0:0:0:0, 0:0:0:0:0, 2:1:0:0:4, 1:0:0:0:1, 1:0:0:0:0, 1:2:0:0:2, 1:0:0:0:2,  , 2:0:0:0:2, 1:0:0:0:0, 3:0:1:0:0, 3:0:0:0:1, 2:0:0:0:0, 6:1:1:0:3, 4:0:0:0:2, 2:0:0:0:0, 1:0:0:0:0, 5:2:0:0:4, 2:0:0:0:1, 1:0:0:0:0, 1:0:0:0:2, 4:0:0:0:0, 4:2:1:0:6, 7:0:1:0:2, 3:1:0:0:1, 2:0:0:0:0, 3:1:0:0:3, 3:0:0:0:1, 2:0:0:0:1, 3:2:1:0:3, 4:0:0:0:4, 3:0:1:0:2, 3:2:2:0:5, 3:2:0:0:2, 4:3:1:0:4, 4:0:0:0:1, 4:4:0:0:4, 1:0:0:0:0, 3:0:0:0:2, 2:0:0:0:0, 6:0:0:0:1, 6:2:0:0:3, 4:1:0:0:4, 1:0:0:0:1, 1:0:0:0:3, 1:0:0:0:1, 1:0:0:0:1, 3:0:0:0:1, 3:1:0:0:1, 5:0:3:0:3, 3:0:0:0:1, 3:0:0:0:1, 3:1:0:0:1, 2:1:0:0:1, 4:1:0:0:3, 5:0:1:0:2, 5:1:0:0:4, 4:1:0:0:1, 5:0:0:0:1, 4:0:0:0:0, 1:0:0:0:0, 1:0:2:0:2, 3:0:1:0:2, 2:0:0:0:1, 3:0:0:0:1, 3:1:0:0:2, 1:0:0:0:2, 2:0:0:0:1, 2:0:0:0:1, 2:1:0:0:1, 3:0:0:0:1, 3:1:1:0:2, 1:0:0:0:0, 1:2:0:0:2, 4:0:0:0:2, 4:2:0:0:3, 4:1:0:0:4, 4:2:0:0:3, 3:0:0:0:4, 4:1:0:0:3, 2:1:0:0:1, 1:0:0:0:0, 360:71:28:0:216
B minor (2#), 0:0:0:0:0, 1:0:0:0:0, 1:0:0:0:0, 1:0:3:0:3, 0:0:0:0:0, 2:2:0:0:0, 2:0:0:0:1, 3:0:0:0:0, 0:0:0:0:0, 3:4:0:0:2, 3:0:1:0:2, 1:0:0:0:0, 0:0:0:0:0, 2:0:0:0:0, 1:0:0:0:0, 1:0:3:0:3, 0:0:0:0:0, 2:2:0:0:0, 2:0:0:0:1, 3:0:0:0:0, 0:0:0:0:0, 3:0:0:0:2, 3:0:1:0:2, 1:0:0:0:0, 2:0:0:0:1, 1:0:0:0:0, 1:1:0:0:0, 0:0:0:0:0, 3:4:1:0:1, 2:3:0:0:0, 1:0:3:0:3, 2:0:0:0:0, 2:3:1:0:1, 1:0:0:0:0, 2:0:0:0:0, 4:0:0:0:0, 3:1:1:0:1, 2:0:0:0:1, 1:0:0:0:2, 1:0:0:0:1, 4:1:0:0:3, 2:2:0:0:0, 0:0:0:0:0, 8:0:0:0:1, 5:2:0:0:0, 5:2:0:0:2, 4:1:1:0:3, 3:0:0:0:1, 1:0:0:0:0, 4:0:0:0:1, 4:0:2:0:4, 5:3:0:0:0, 2:0:0:0:3, 4:3:0:0:1, 1:0:0:0:1, 3:0:0:0:0, 3:0:0:0:0, 5:2:0:0:0, 3:1:0:0:0, 1:0:0:0:0,  , 1:0:0:0:0, 0:0:0:0:0, 2:0:0:0:1, 0:0:0:0:0, 2:2:0:0:0, 1:0:0:0:0, 2:0:0:0:1, 0:0:0:0:0, 1:0:0:0:0, 1:0:0:0:0, 1:0:0:0:0,  , 2:0:0:0:0, 3:3:0:0:1, 3:0:0:0:2, 5:0:0:0:2, 3:2:0:0:0, 5:2:0:0:2, 4:0:0:0:1, 3:1:0:0:1, 1:0:0:0:0, 3:0:0:0:1, 2:0:0:0:1, 4:2:0:0:2, 1:0:0:0:0, 2:0:0:0:1, 4:0:0:0:2, 6:0:0:0:2, 4:1:0:0:1, 6:0:0:0:2, 2:0:0:0:0, 1:0:0:0:0, 3:0:0:0:1, 4:3:0:0:1, 4:0:0:0:0, 3:1:0:0:1, 3:0:0:0:1, 3:3:0:0:1, 1:0:1:0:1, 5:0:0:0:3, 4:3:0:0:1, 0:0:0:0:0, 3:0:0:0:0, 2:0:0:0:1, 4:0:0:0:1, 4:1:0:0:1, 3:0:0:0:1, 0:0:0:0:0, 2:0:0:0:0, 2:0:0:0:1, 1:0:0:0:0, 4:0:0:0:0, 3:2:0:0:1, 3:1:2:0:3, 3:0:0:0:0, 2:0:0:0:1, 3:0:0:0:1, 3:2:0:0:0, 3:0:0:0:0, 4:2:0:0:1, 4:0:0:0:1, 4:0:3:0:4, 7:1:1:0:2, 6:4:0:0:4, 2:1:0:0:0, 2:0:0:0:2, 2:0:0:0:3, 1:0:0:0:0, 2:0:0:0:0, 3:1:0:0:0, 1:0:0:0:0, 2:0:0:0:1, 1:0:0:0:0, 0:0:0:0:0, 0:0:0:0:0, 3:0:0:0:4, 2:2:0:0:0, 1:1:0:0:0, 4:1:0:0:1, 4:3:0:0:0, 3:0:0:0:1, 2:1:0:0:1, 3:0:0:0:0, 2:0:0:0:2, 3:0:0:0:0, 1:0:0:0:0, 349:83:24:0:118
Eb major (3b), 0:0:0:0:0, 1:0:0:0:1, 0:0:0:0:0, 2:0:0:0:0, 0:0:0:0:0, 1:0:0:0:1, 0:0:0:0:0, 4:0:0:0:2, 0:0:0:0:0, 3:0:0:0:1, 3:3:1:0:3, 1:0:0:0:1, 0:0:0:0:0, 2:1:0:0:2, 0:0:0:0:0, 2:0:0:0:0, 0:0:0:0:0, 1:0:0:0:1, 0:0:0:0:0, 3:0:0:0:1, 0:0:0:0:0, 3:0:0:0:1, 3:3:1:0:3, 1:0:0:0:1, 2:0:0:0:1, 1:0:0:0:1, 2:2:1:0:2, 2:0:0:0:1, 3:0:1:0:1, 2:0:0:0:1, 1:0:0:0:0, 3:2:0:0:5, 4:0:1:0:2, 2:0:0:0:2, 4:1:0:0:2, 5:1:0:0:5, 3:0:0:0:1, 2:0:0:0:2, 2:0:0:0:1, 3:2:0:0:7, 4:0:0:0:2, 2:0:0:0:1, 2:1:0:0:2, 8:3:0:2:9, 5:1:0:0:3, 7:0:0:0:3, 7:2:3:0:3, 4:1:0:0:5, 0:0:0:0:0, 7:1:0:0:4, 6:0:2:0:1, 7:0:1:0:2, 0:0:0:0:0, 3:0:0:0:1, 1:0:0:0:0, 6:0:0:0:4, 4:0:0:0:3, 5:1:0:0:4, 4:1:0:0:2, 2:0:0:0:3,  , 1:0:0:0:1, 1:0:0:0:1, 1:0:0:0:1, 1:0:0:0:1, 1:0:0:0:2, 0:0:0:0:0, 2:1:0:0:4, 1:0:0:0:1, 2:0:0:0:1, 2:2:0:0:2, 1:0:0:0:2,  , 2:0:0:0:3, 2:0:0:0:0, 2:0:1:0:0, 2:0:0:0:1, 3:0:0:0:2, 7:1:1:0:2, 5:0:0:0:4, 1:0:0:0:0, 2:0:0:0:2, 6:1:1:0:3, 3:0:0:0:1, 0:0:0:0:0, 1:0:0:0:2, 5:0:0:0:2, 5:2:1:0:5, 8:0:1:0:1, 3:1:0:0:3, 3:0:0:0:0, 3:0:0:0:3, 4:0:0:0:1, 3:0:0:0:2, 4:2:1:0:2, 3:0:0:0:7, 4:0:1:0:1, 3:2:2:0:3, 4:2:0:0:2, 5:3:1:0:5, 5:0:0:0:2, 5:4:0:0:7, 2:0:0:0:0, 4:0:0:0:2, 2:0:0:0:1, 7:0:0:0:3, 7:1:1:0:2, 5:1:0:0:5, 1:0:0:0:1, 1:0:0:0:3, 1:0:0:0:1, 1:0:0:0:1, 2:0:0:0:1, 4:1:0:0:4, 5:0:3:0:0, 3:0:0:0:2, 4:0:0:0:2, 4:1:0:0:3, 3:1:0:0:1, 5:1:0:0:4, 6:0:1:0:1, 6:1:0:0:5, 5:1:0:0:3, 6:0:0:0:2, 3:0:0:0:1, 1:0:0:0:2, 1:0:2:0:0, 3:0:1:0:1, 2:0:0:0:2, 4:0:0:0:2, 4:1:0:0:2, 1:0:0:0:2, 3:0:0:0:3, 2:0:0:0:4, 3:1:0:0:2, 4:0:0:0:4, 4:1:1:0:1, 1:0:0:0:1, 2:2:0:0:2, 5:0:0:0:5, 5:2:0:0:3, 5:1:0:0:9, 5:2:0:0:5, 4:0:0:0:7, 5:1:0:0:3, 2:0:0:0:0, 2:0:0:0:0, 426:66:30:2:294
A major (3#), 0:0:0:0:0, 2:0:0:0:0, 2:0:0:0:0, 2:0:3:0:3, 1:0:0:0:0, 3:2:0:0:0, 2:0:0:0:1, 4:0:0:0:0, 1:0:0:0:0, 4:4:0:0:2, 4:0:1:0:2, 2:0:0:0:0, 0:0:0:0:0, 3:0:0:0:0, 2:0:0:0:0, 2:0:3:0:3, 1:0:0:0:0, 3:2:0:0:0, 2:0:0:0:1, 4:0:0:0:0, 1:0:0:0:0, 4:0:0:0:2, 4:0:1:0:2, 2:0:0:0:0, 2:0:0:0:1, 2:0:0:0:0, 2:1:0:0:1, 0:0:0:0:0, 4:4:1:0:1, 3:3:0:0:0, 1:0:3:0:3, 3:0:0:0:0, 2:3:1:0:1, 2:0:0:0:0, 2:0:0:0:0, 5:0:0:0:0, 4:1:1:0:2, 3:0:0:0:0, 2:0:0:0:2, 2:0:0:0:1, 4:0:0:0:1, 3:2:0:0:0, 1:0:0:0:0, 9:0:0:0:1, 4:2:0:0:2, 6:2:0:0:3, 4:0:1:0:1, 4:0:0:0:1, 2:0:0:0:0, 5:0:0:0:1, 5:0:2:0:3, 6:3:0:0:1, 3:0:0:0:3, 5:3:0:0:1, 2:0:0:0:0, 4:0:0:0:0, 4:0:0:0:0, 6:2:0:0:0, 4:1:0:0:0, 2:0:0:0:0,  , 2:0:0:0:0, 1:0:0:0:0, 2:0:0:0:1, 0:0:0:0:0, 3:2:0:0:0, 2:0:0:0:0, 3:0:0:0:1, 0:0:0:0:0, 2:0:0:0:0, 1:0:0:0:0, 2:0:0:0:0,  , 3:0:0:0:0, 4:3:0:0:1, 2:0:0:0:1, 4:0:0:0:1, 4:2:0:0:0, 6:2:0:0:3, 5:0:0:0:1, 4:1:0:0:1, 2:0:0:0:0, 4:0:0:0:0, 3:0:0:0:1, 5:2:0:0:4, 2:0:0:0:0, 3:0:0:0:1, 5:0:0:0:0, 7:0:0:0:1, 5:1:0:0:0, 5:0:0:0:1, 3:0:0:0:0, 0:0:0:0:0, 4:0:0:0:1, 4:3:0:0:0, 5:0:0:0:0, 3:1:0:0:2, 4:0:0:0:0, 3:3:0:0:4, 2:0:1:0:1, 6:0:0:0:2, 5:3:0:0:0, 0:0:0:0:0, 4:0:0:0:0, 3:0:0:0:0, 5:0:0:0:0, 5:1:0:0:0, 4:0:0:0:1, 0:0:0:0:0, 3:0:0:0:0, 3:0:0:0:1, 2:0:0:0:0, 3:0:0:0:0, 4:2:0:0:0, 4:1:2:0:4, 4:0:0:0:0, 1:0:0:0:0, 4:0:0:0:0, 3:2:0:0:2, 4:0:0:0:0, 5:2:0:0:3, 5:0:0:0:1, 5:0:3:0:3, 8:1:1:0:1, 7:1:0:0:3, 3:1:0:0:0, 2:0:0:0:0, 3:0:0:0:0, 2:0:0:0:0, 3:0:0:0:0, 3:1:0:0:1, 2:0:0:0:0, 2:0:0:0:0, 2:0:0:0:0, 1:0:0:0:0, 1:0:0:0:0, 4:0:0:0:2, 3:2:0:0:0, 2:1:0:0:0, 5:1:0:0:1, 5:3:0:0:3, 4:0:0:0:0, 2:0:0:0:0, 4:0:0:0:0, 3:0:0:0:2, 2:0:0:0:0, 1:0:0:0:0, 452:77:24:0:102
C minor (3b), 0:0:0:0:0, 1:0:0:0:1, 0:0:0:0:0, 2:0:0:0:0, 0:0:0:0:0, 1:0:0:0:1, 0:0:0:0:0, 4:0:0:0:2, 0:0:0:0:0, 3:0:0:0:1, 3:3:1:0:3, 1:0:0:0:1, 0:0:0:0:0, 2:1:0:0:2, 0:0:0:0:0, 2:0:0:0:0, 0:0:0:0:0, 1:0:0:0:1, 0:0:0:0:0, 3:0:0:0:1, 0:0:0:0:0, 3:0:0:0:1, 3:3:1:0:3, 1:0:0:0:1, 2:0:0:0:1, 1:0:0:0:1, 2:2:1:0:2, 2:0:0:0:1, 3:0:1:0:1, 2:0:0:0:1, 1:0:0:0:0, 3:2:0:0:5, 4:0:1:0:2, 2:0:0:0:2, 4:1:0:0:2, 5:1:0:0:5, 3:0:0:0:1, 2:0:0:0:2, 2:0:0:0:1, 3:2:0:0:7, 4:0:0:0:2, 2:0:0:0:1, 2:1:0:0:2, 8:3:0:2:9, 5:1:0:0:3, 7:0:0:0:3, 7:2:3:0:3, 4:1:0:0:5, 0:0:0:0:0, 7:1:0:0:4, 6:0:2:0:1, 7:0:1:0:2, 0:0:0:0:0, 3:0:0:0:1, 1:0:0:0:0, 6:0:0:0:4, 4:0:0:0:3, 5:1:0:0:4, 4:1:0:0:2, 2:0:0:0:3,  , 1:0:0:0:1, 1:0:0:0:1, 1:0:0:0:1, 1:0:0:0:1, 1:0:0:0:2, 0:0:0:0:0, 2:1:0:0:4, 1:0:0:0:1, 2:0:0:0:1, 2:2:0:0:2, 1:0:0:0:2,  , 2:0:0:0:3, 2:0:0:0:0, 2:0:1:0:0, 2:0:0:0:1, 3:0:0:0:2, 7:1:1:0:2, 5:0:0:0:4, 1:0:0:0:0, 2:0:0:0:2, 6:1:1:0:3, 3:0:0:0:1, 0:0:0:0:0, 1:0:0:0:2, 5:0:0:0:2, 5:2:1:0:5, 8:0:1:0:1, 3:1:0:0:3, 3:0:0:0:0, 3:0:0:0:3, 4:0:0:0:1, 3:0:0:0:2, 4:2:1:0:2, 3:0:0:0:7, 4:0:1:0:1, 3:2:2:0:3, 4:2:0:0:2, 5:3:1:0:5, 5:0:0:0:2, 5:4:0:0:7, 2:0:0:0:0, 4:0:0:0:2, 2:0:0:0:1, 7:0:0:0:3, 7:1:1:0:2, 5:1:0:0:5, 1:0:0:0:1, 1:0:0:0:3, 1:0:0:0:1, 1:0:0:0:1, 2:0:0:0:1, 4:1:0:0:4, 5:0:3:0:0, 3:0:0:0:2, 4:0:0:0:2, 4:1:0:0:3, 3:1:0:0:1, 5:1:0:0:4, 6:0:1:0:1, 6:1:0:0:5, 5:1:0:0:3, 6:0:0:0:2, 3:0:0:0:1, 1:0:0:0:2, 1:0:2:0:0, 3:0:1:0:1, 2:0:0:0:2, 4:0:0:0:2, 4:1:0:0:2, 1:0:0:0:2, 3:0:0:0:3, 2:0:0:0:4, 3:1:0:0:2, 4:0:0:0:4, 4:1:1:0:1, 1:0:0:0:1, 2:2:0:0:2, 5:0:0:0:5, 5:2:0:0:3, 5:1:0:0:9, 5:2:0:0:5, 4:0:0:0:7, 5:1:0:0:3, 2:0:0:0:0, 2:0:0:0:0, 426:66:30:2:294
F# minor (3#), 0:0:0:0:0, 2:0:0:0:0, 2:0:0:0:0, 2:0:3:0:3, 1:0:0:0:0, 3:2:0:0:0, 2:0:0:0:1, 4:0:0:0:0, 1:0:0:0:0, 4:4:0:0:2, 4:0:1:0:2, 2:0:0:0:0, 0:0:0:0:0, 3:0:0:0:0, 2:0:0:0:0, 2:0:3:0:3, 1:0:0:0:0, 3:2:0:0:0, 2:0:0:0:1, 4:0:0:0:0, 1:0:0:0:0, 4:0:0:0:2, 4:0:1:0:2, 2:0:0:0:0, 2:0:0:0:1, 2:0:0:0:0, 2:1:0:0:1, 0:0:0:0:0, 4:4:1:0:1, 3:3:0:0:0, 1:0:3:0:3, 3:0:0:0:0, 2:3:1:0:1, 2:0:0:0:0, 2:0:0:0:0, 5:0:0:0:0, 4:1:1:0:2, 3:0:0:0:0, 2:0:0:0:2, 2:0:0:0:1, 4:0:0:0:1, 3:2:0:0:0, 1:0:0:0:0, 9:0:0:0:1, 4:2:0:0:2, 6:2:0:0:3, 4:0:1:0:1, 4:0:0:0:1, 2:0:0:0:0, 5:0:0:0:1, 5:0:2:0:3, 6:3:0:0:1, 3:0:0:0:3, 5:3:0:0:1, 2:0:0:0:0, 4:0:0:0:0, 4:0:0:0:0, 6:2:0:0:0, 4:1:0:0:0, 2:0:0:0:0,  , 2:0:0:0:0, 1:0:0:0:0, 2:0:0:0:1, 0:0:0:0:0, 3:2:0:0:0, 2:0:0:0:0, 3:0:0:0:1, 0:0:0:0:0, 2:0:0:0:0, 1:0:0:0:0, 2:0:0:0:0,  , 3:0:0:0:0, 4:3:0:0:1, 2:0:0:0:1, 4:0:0:0:1, 4:2:0:0:0, 6:2:0:0:3, 5:0:0:0:1, 4:1:0:0:1, 2:0:0:0:0, 4:0:0:0:0, 3:0:0:0:1, 5:2:0:0:4, 2:0:0:0:0, 3:0:0:0:1, 5:0:0:0:0, 7:0:0:0:1, 5:1:0:0:0, 5:0:0:0:1, 3:0:0:0:0, 0:0:0:0:0, 4:0:0:0:1, 4:3:0:0:0, 5:0:0:0:0, 3:1:0:0:2, 4:0:0:0:0, 3:3:0:0:4, 2:0:1:0:1, 6:0:0:0:2, 5:3:0:0:0, 0:0:0:0:0, 4:0:0:0:0, 3:0:0:0:0, 5:0:0:0:0, 5:1:0:0:0, 4:0:0:0:1, 0:0:0:0:0, 3:0:0:0:0, 3:0:0:0:1, 2:0:0:0:0, 3:0:0:0:0, 4:2:0:0:0, 4:1:2:0:4, 4:0:0:0:0, 1:0:0:0:0, 4:0:0:0:0, 3:2:0:0:2, 4:0:0:0:0, 5:2:0:0:3, 5:0:0:0:1, 5:0:3:0:3, 8:1:1:0:1, 7:1:0:0:3, 3:1:0:0:0, 2:0:0:0:0, 3:0:0:0:0, 2:0:0:0:0, 3:0:0:0:0, 3:1:0:0:1, 2:0:0:0:0, 2:0:0:0:0, 2:0:0:0:0, 1:0:0:0:0, 1:0:0:0:0, 4:0:0:0:2, 3:2:0:0:0, 2:1:0:0:0, 5:1:0:0:1, 5:3:0:0:3, 4:0:0:0:0, 2:0:0:0:0, 4:0:0:0:0, 3:0:0:0:2, 2:0:0:0:0, 1:0:0:0:0, 452:77:24:0:102
Ab major (4b), 1:0:0:0:0, 2:0:0:0:1, 1:0:0:0:0, 3:0:0:0:0, 0:0:0:0:0, 1:0:0:0:1, 1:0:0:0:0, 5:0:0:0:2, 0:0:0:0:0, 3:0:0:0:2, 4:3:1:0:4, 2:0:0:0:1, 1:0:0:0:0, 3:1:0:0:2, 1:0:0:0:0, 3:0:0:0:0, 0:0:0:0:0, 1:0:0:0:1, 1:0:0:0:0, 4:0:0:0:1, 0:0:0:0:0, 3:0:0:0:3, 4:3:1:0:4, 2:0:0:0:1, 2:0:0:0:2, 2:0:0:0:1, 3:2:1:0:2, 3:0:0:0:1, 3:0:1:0:3, 2:0:0:0:2, 0:0:0:0:0, 4:2:0:0:5, 4:0:1:0:4, 2:0:0:0:4, 5:1:0:0:3, 6:1:0:0:6, 4:0:0:0:1, 3:0:0:0:3, 2:0:0:0:2, 4:0:0:0:5, 4:0:0:0:2, 3:0:0:0:3, 3:1:0:0:2, 9:3:0:2:7, 6:1:0:0:6, 8:0:0:0:7, 8:2:3:0:4, 5:1:0:0:6, 1:0:0:0:0, 8:1:0:0:6, 5:0:2:0:4, 8:0:1:0:3, 0:0:0:0:0, 2:0:0:0:2, 1:0:0:0:1, 7:0:0:0:5, 5:0:0:0:4, 6:1:0:0:8, 5:1:0:0:5, 3:0:0:0:3,  , 2:0:0:0:1, 1:0:0:0:1, 1:0:0:0:1, 1:0:0:0:1, 1:0:0:0:2, 0:0:0:0:0, 3:1:0:0:4, 1:0:0:0:1, 2:0:0:0:2, 3:2:0:0:3, 2:0:0:0:2,  , 3:0:0:0:3, 1:0:0:0:2, 2:0:1:0:0, 2:0:0:0:1, 3:0:0:0:3, 6:1:1:0:4, 6:0:0:0:6, 2:0:0:0:0, 2:0:0:0:3, 7:1:1:0:6, 4:0:0:0:2, 1:0:0:0:0, 2:0:0:0:2, 5:0:2:2:3, 6:2:1:0:9, 8:0:1:0:3, 3:1:0:0:3, 3:0:0:0:2, 4:0:0:0:4, 5:0:0:0:2, 3:0:0:0:4, 5:2:1:0:5, 4:0:0:0:11, 5:0:1:0:2, 4:2:2:0:3, 5:2:0:0:4, 6:3:1:0:6, 5:0:0:0:3, 5:5:0:0:11, 2:0:0:0:1, 5:0:0:0:3, 1:0:0:0:1, 7:1:0:0:6, 8:1:1:0:4, 6:1:0:0:6, 2:0:0:0:1, 2:0:0:0:3, 1:0:0:0:1, 2:0:0:0:1, 1:0:0:0:1, 4:1:0:0:6, 4:0:3:0:0, 4:0:0:0:2, 4:0:0:0:3, 4:0:0:0:4, 4:1:0:0:2, 6:1:0:0:5, 7:0:1:0:2, 7:1:0:0:7, 4:1:0:0:4, 5:0:0:0:6, 3:0:0:0:2, 1:0:0:0:2, 2:0:2:0:0, 4:0:1:0:1, 3:0:0:0:2, 4:0:0:0:4, 5:1:0:0:4, 2:0:0:0:2, 3:0:0:0:4, 3:0:0:0:4, 3:1:0:0:3, 4:0:0:0:5, 4:1:1:0:2, 2:0:0:0:1, 3:2:0:0:4, 6:0:0:0:6, 6:2:0:0:4, 6:1:0:0:12, 6:2:0:0:7, 5:0:0:0:8, 6:1:0:0:4, 1:0:0:0:2, 1:0:0:0:2, 499:65:32:4:424
E major (4#), 1:0:0:0:0, 3:0:0:0:0, 3:0:0:0:0, 3:0:3:0:3, 1:0:0:0:0, 3:2:0:0:2, 3:0:0:0:0, 5:0:0:0:0, 1:0:0:0:0, 4:4:0:0:4, 5:0:1:0:1, 3:0:0:0:0, 1:0:0:0:0, 4:0:0:0:0, 3:0:0:0:0, 3:0:3:0:3, 1:0:0:0:0, 3:2:0:0:2, 3:0:0:0:0, 5:0:0:0:0, 1:0:0:0:0, 4:0:0:0:0, 5:0:1:0:1, 3:0:0:0:0, 2:0:0:0:0, 3:0:0:0:0, 2:0:0:0:0, 1:0:0:0:0, 4:4:1:0:4, 3:3:0:0:3, 1:0:3:0:3, 4:0:0:0:0, 2:3:1:0:3, 2:0:0:0:0, 3:0:0:0:0, 6:0:0:0:0, 4:0:1:0:1, 4:0:0:0:0, 2:0:0:0:0, 3:0:0:0:0, 3:0:0:0:0, 4:2:0:0:2, 2:0:0:0:0, 10:0:0:0:0, 4:0:0:0:0, 6:1:0:0:1, 5:0:1:0:1, 5:0:0:0:0, 3:0:0:0:0, 6:0:0:0:0, 6:1:0:0:1, 7:3:0:0:3, 3:0:0:0:0, 5:3:0:0:3, 1:0:0:0:0, 5:0:0:0:0, 5:0:0:0:0, 7:2:0:0:2, 5:1:0:0:1, 3:0:0:0:0,  , 3:0:0:0:0, 1:0:0:0:0, 2:0:0:0:0, 0:0:0:0:0, 3:2:0:0:2, 2:0:0:0:0, 4:0:0:0:0, 0:0:0:0:0, 2:0:0:0:0, 2:0:0:0:0, 3:0:0:0:0,  , 4:0:0:0:0, 4:3:0:0:3, 1:0:0:0:0, 3:0:0:0:0, 4:2:0:0:2, 6:1:0:0:1, 6:0:0:0:0, 5:1:0:0:1, 2:0:0:0:0, 5:0:0:0:0, 4:0:0:0:0, 5:0:0:0:0, 3:0:0:0:0, 4:0:0:0:0, 5:0:2:2:4, 6:0:0:0:0, 4:1:0:0:1, 4:0:0:0:0, 4:0:0:0:0, 1:0:0:0:0, 4:0:0:0:0, 5:3:0:0:3, 6:0:0:0:0, 3:0:0:0:0, 5:0:0:0:0, 4:3:0:0:3, 3:0:1:0:1, 5:0:0:0:0, 4:3:0:0:3, 0:0:0:0:0, 5:0:0:0:0, 2:0:0:0:0, 4:0:0:0:0, 6:1:0:0:1, 5:0:0:0:0, 1:0:0:0:0, 4:0:0:0:0, 3:0:0:0:0, 3:0:0:0:0, 3:0:0:0:0, 3:2:0:0:2, 4:0:2:0:2, 5:0:0:0:0, 0:0:0:0:0, 5:0:0:0:0, 4:2:0:0:2, 5:0:0:0:0, 5:0:0:0:0, 6:0:0:0:0, 4:0:3:0:3, 8:1:1:2:4, 6:1:0:0:1, 3:1:0:0:1, 1:0:0:0:0, 4:0:0:0:0, 3:0:0:0:0, 3:0:0:0:0, 4:1:0:0:1, 3:0:0:0:0, 1:0:0:0:0, 3:0:0:0:0, 1:0:0:0:0, 1:0:0:0:0, 3:0:0:0:0, 4:2:0:0:2, 3:1:0:0:1, 6:1:0:0:1, 6:0:0:0:0, 5:0:0:0:0, 3:0:0:0:0, 5:0:0:0:0, 4:0:0:0:0, 2:0:0:0:0, 1:0:0:0:0, 513:63:24:4:89
F minor (4b), 1:0:0:0:0, 2:0:0:0:1, 1:0:0:0:0, 3:0:0:0:0, 0:0:0:0:0, 1:0:0:0:1, 1:0:0:0:0, 5:0:0:0:2, 0:0:0:0:0, 3:0:0:0:2, 4:3:1:0:4, 2:0:0:0:1, 1:0:0:0:0, 3:1:0:0:2, 1:0:0:0:0, 3:0:0:0:0, 0:0:0:0:0, 1:0:0:0:1, 1:0:0:0:0, 4:0:0:0:1, 0:0:0:0:0, 3:0:0:0:3, 4:3:1:0:4, 2:0:0:0:1, 2:0:0:0:2, 2:0:0:0:1, 3:2:1:0:2, 3:0:0:0:1, 3:0:1:0:3, 2:0:0:0:2, 0:0:0:0:0, 4:2:0:0:5, 4:0:1:0:4, 2:0:0:0:4, 5:1:0:0:3, 6:1:0:0:6, 4:0:0:0:1, 3:0:0:0:3, 2:0:0:0:2, 4:0:0:0:5, 4:0:0:0:2, 3:0:0:0:3, 3:1:0:0:2, 9:3:0:2:7, 6:1:0:0:6, 8:0:0:0:7, 8:2:3:0:4, 5:1:0:0:6, 1:0:0:0:0, 8:1:0:0:6, 5:0:2:0:4, 8:0:1:0:3, 0:0:0:0:0, 2:0:0:0:2, 1:0:0:0:1, 7:0:0:0:5, 5:0:0:0:4, 6:1:0:0:8, 5:1:0:0:5, 3:0:0:0:3,  , 2:0:0:0:1, 1:0:0:0:1, 1:0:0:0:1, 1:0:0:0:1, 1:0:0:0:2, 0:0:0:0:0, 3:1:0:0:4, 1:0:0:0:1, 2:0:0:0:2, 3:2:0:0:3, 2:0:0:0:2,  , 3:0:0:0:3, 1:0:0:0:2, 2:0:1:0:0, 2:0:0:0:1, 3:0:0:0:3, 6:1:1:0:4, 6:0:0:0:6, 2:0:0:0:0, 2:0:0:0:3, 7:1:1:0:6, 4:0:0:0:2, 1:0:0:0:0, 2:0:0:0:2, 5:0:2:2:3, 6:2:1:0:9, 8:0:1:0:3, 3:1:0:0:3, 3:0:0:0:2, 4:0:0:0:4, 5:0:0:0:2, 3:0:0:0:4, 5:2:1:0:5, 4:0:0:0:11, 5:0:1:0:2, 4:2:2:0:3, 5:2:0:0:4, 6:3:1:0:6, 5:0:0:0:3, 5:5:0:0:11, 2:0:0:0:1, 5:0:0:0:3, 1:0:0:0:1, 7:1:0:0:6, 8:1:1:0:4, 6:1:0:0:6, 2:0:0:0:1, 2:0:0:0:3, 1:0:0:0:1, 2:0:0:0:1, 1:0:0:0:1, 4:1:0:0:6, 4:0:3:0:0, 4:0:0:0:2, 4:0:0:0:3, 4:0:0:0:4, 4:1:0:0:2, 6:1:0:0:5, 7:0:1:0:2, 7:1:0:0:7, 4:1:0:0:4, 5:0:0:0:6, 3:0:0:0:2, 1:0:0:0:2, 2:0:2:0:0, 4:0:1:0:1, 3:0:0:0:2, 4:0:0:0:4, 5:1:0:0:4, 2:0:0:0:2, 3:0:0:0:4, 3:0:0:0:4, 3:1:0:0:3, 4:0:0:0:5, 4:1:1:0:2, 2:0:0:0:1, 3:2:0:0:4, 6:0:0:0:6, 6:2:0:0:4, 6:1:0:0:12, 6:2:0:0:7, 5:0:0:0:8, 6:1:0:0:4, 1:0:0:0:2, 1:0:0:0:2, 499:65:32:4:424
C# minor (4#), 1:0:0:0:0, 3:0:0:0:0, 3:0:0:0:0, 3:0:3:0:3, 1:0:0:0:0, 3:2:0:0:2, 3:0:0:0:0, 5:0:0:0:0, 1:0:0:0:0, 4:4:0:0:4, 5:0:1:0:1, 3:0:0:0:0, 1:0:0:0:0, 4:0:0:0:0, 3:0:0:0:0, 3:0:3:0:3, 1:0:0:0:0, 3:2:0:0:2, 3:0:0:0:0, 5:0:0:0:0, 1:0:0:0:0, 4:0:0:0:0, 5:0:1:0:1, 3:0:0:0:0, 2:0:0:0:0, 3:0:0:0:0, 2:0:0:0:0, 1:0:0:0:0, 4:4:1:0:4, 3:3:0:0:3, 1:0:3:0:3, 4:0:0:0:0, 2:3:1:0:3, 2:0:0:0:0, 3:0:0:0:0, 6:0:0:0:0, 4:0:1:0:1, 4:0:0:0:0, 2:0:0:0:0, 3:0:0:0:0, 3:0:0:0:0, 4:2:0:0:2, 2:0:0:0:0, 10:0:0:0:0, 4:0:0:0:0, 6:1:0:0:1, 5:0:1:0:1, 5:0:0:0:0, 3:0:0:0:0, 6:0:0:0:0, 6:1:0:0:1, 7:3:0:0:3, 3:0:0:0:0, 5:3:0:0:3, 1:0:0:0:0, 5:0:0:0:0, 5:0:0:0:0, 7:2:0:0:2, 5:1:0:0:1, 3:0:0:0:0,  , 3:0:0:0:0, 1:0:0:0:0, 2:0:0:0:0, 0:0:0:0:0, 3:2:0:0:2, 2:0:0:0:0, 4:0:0:0:0, 0:0:0:0:0, 2:0:0:0:0, 2:0:0:0:0, 3:0:0:0:0,  , 4:0:0:0:0, 4:3:0:0:3, 1:0:0:0:0, 3:0:0:0:0, 4:2:0:0:2, 6:1:0:0:1, 6:0:0:0:0, 5:1:0:0:1, 2:0:0:0:0, 5:0:0:0:0, 4:0:0:0:0, 5:0:0:0:0, 3:0:0:0:0, 4:0:0:0:0, 5:0:2:2:4, 6:0:0:0:0, 4:1:0:0:1, 4:0:0:0:0, 4:0:0:0:0, 1:0:0:0:0, 4:0:0:0:0, 5:3:0:0:3, 6:0:0:0:0, 3:0:0:0:0, 5:0:0:0:0, 4:3:0:0:3, 3:0:1:0:1, 5:0:0:0:0, 4:3:0:0:3, 0:0:0:0:0, 5:0:0:0:0, 2:0:0:0:0, 4:0:0:0:0, 6:1:0:0:1, 5:0:0:0:0, 1:0:0:0:0, 4:0:0:0:0, 3:0:0:0:0, 3:0:0:0:0, 3:0:0:0:0, 3:2:0:0:2, 4:0:2:0:2, 5:0:0:0:0, 0:0:0:0:0, 5:0:0:0:0, 4:2:0:0:2, 5:0:0:0:0, 5:0:0:0:0, 6:0:0:0:0, 4:0:3:0:3, 8:1:1:2:4, 6:1:0:0:1, 3:1:0:0:1, 1:0:0:0:0, 4:0:0:0:0, 3:0:0:0:0, 3:0:0:0:0, 4:1:0:0:1, 3:0:0:0:0, 1:0:0:0:0, 3:0:0:0:0, 1:0:0:0:0, 1:0:0:0:0, 3:0:0:0:0, 4:2:0:0:2, 3:1:0:0:1, 6:1:0:0:1, 6:0:0:0:0, 5:0:0:0:0, 3:0:0:0:0, 5:0:0:0:0, 4:0:0:0:0, 2:0:0:0:0, 1:0:0:0:0, 513:63:24:4:89
Db major (5b), 1:0:0:0:1, 3:0:0:0:3, 2:0:0:0:1, 3:0:0:3:4, 1:0:0:0:0, 2:0:0:0:1, 1:0:0:0:1, 6:0:0:0:4, 1:0:0:0:0, 4:0:0:0:2, 5:3:1:0:6, 3:0:0:0:2, 1:0:0:0:1, 4:1:0:0:4, 2:0:0:0:1, 3:0:0:3:4, 1:0:0:0:0, 2:0:0:0:1, 1:0:0:0:1, 5:0:0:0:3, 1:0:0:0:0, 4:0:0:0:3, 5:3:1:0:6, 3:0:0:0:2, 2:0:0:0:2, 3:0:0:0:2, 4:1:1:0:2, 3:0:0:0:2, 4:0:1:0:3, 3:0:0:0:2, 0:0:0:0:0, 5:2:0:0:7, 3:0:1:0:4, 3:0:0:0:4, 5:1:0:0:4, 7:1:0:0:8, 5:0:0:0:2, 4:0:0:0:4, 3:0:0:0:2, 5:0:0:0:7, 4:0:0:2:4, 4:0:0:0:4, 3:0:0:0:2, 10:3:0:2:9, 5:1:0:0:8, 9:0:0:0:8, 9:1:3:0:4, 6:1:0:0:8, 2:0:0:0:2, 9:1:0:0:10, 6:0:2:0:5, 9:0:1:0:5, 1:0:0:0:0, 3:0:0:0:2, 2:0:0:0:1, 8:0:0:0:7, 6:0:0:0:5, 7:1:0:0:9, 6:1:0:0:6, 4:0:0:0:4,  , 3:0:0:0:3, 2:0:0:0:1, 1:0:0:0:1, 1:0:0:0:1, 2:0:0:0:2, 1:0:0:0:0, 4:1:0:0:5, 1:0:0:0:1, 3:0:0:0:2, 3:1:0:0:3, 3:0:0:0:3,  , 4:0:0:0:6, 2:0:0:0:2, 1:0:1:0:0, 1:0:0:0:1, 4:0:0:0:3, 6:0:1:0:6, 7:0:0:0:10, 3:0:0:0:1, 3:0:0:0:3, 8:1:1:0:7, 5:0:0:0:4, 2:0:0:0:1, 3:0:0:0:4, 6:0:2:2:1, 6:1:1:0:10, 8:0:1:4:3, 4:1:0:0:3, 3:1:0:0:3, 5:0:0:0:6, 4:0:0:0:3, 4:0:0:0:4, 5:1:1:0:5, 5:0:0:0:13, 4:0:1:0:3, 5:2:2:0:10, 4:2:0:0:8, 7:3:1:0:7, 6:0:0:0:3, 6:5:0:0:14, 1:0:0:0:1, 6:0:0:0:5, 2:0:0:0:1, 8:1:0:0:7, 9:1:1:0:5, 7:1:0:0:8, 2:0:0:0:2, 3:0:0:0:5, 2:0:0:0:1, 3:0:0:0:2, 1:0:0:0:1, 5:1:0:0:6, 5:0:3:0:1, 5:0:0:0:4, 4:0:0:0:3, 5:0:0:0:5, 4:1:0:0:4, 7:1:0:0:7, 8:0:1:0:3, 8:1:0:0:10, 5:1:0:0:5, 6:0:0:0:8, 4:0:0:0:2, 2:0:0:0:2, 2:0:2:0:1, 5:0:1:0:4, 4:0:0:0:4, 5:0:0:0:4, 5:1:0:0:7, 3:0:0:0:4, 3:0:0:0:4, 4:0:0:0:5, 3:0:0:0:2, 5:0:0:0:5, 4:0:0:0:2, 3:0:0:0:2, 4:0:0:0:3, 7:0:0:0:9, 6:0:0:2:6, 7:1:0:0:13, 7:1:0:0:9, 6:0:0:0:14, 7:1:0:0:6, 1:0:0:0:2, 1:0:0:0:2, 595:52:31:18:581
B major (5#), 1:0:0:0:0, 3:0:0:0:2, 3:0:0:0:1, 3:0:3:0:0, 1:0:0:0:0, 3:1:0:0:1, 2:0:0:0:0, 5:0:0:0:4, 1:0:0:0:0, 5:4:0:0:4, 6:0:1:0:0, 3:0:0:0:1, 1:0:0:0:0, 4:0:0:0:2, 3:0:0:0:1, 3:0:3:0:0, 1:0:0:0:0, 3:1:0:0:1, 2:0:0:0:0, 5:0:0:0:4, 1:0:0:0:0, 5:0:0:0:0, 6:0:1:0:0, 3:0:0:0:1, 1:0:0:0:0, 3:0:0:0:2, 2:0:0:0:0, 1:0:0:0:0, 4:0:0:0:1, 4:1:0:0:1, 1:0:3:0:3, 4:0:0:0:1, 2:1:0:0:1, 3:0:0:0:0, 4:0:0:0:0, 7:0:0:0:1, 4:0:1:0:0, 5:0:0:0:2, 3:0:0:0:0, 2:0:0:0:0, 2:0:0:0:1, 5:1:0:0:1, 2:0:0:0:0, 11:0:0:0:2, 5:0:0:0:2, 7:1:0:0:1, 6:0:1:0:0, 4:0:0:0:2, 3:0:0:0:2, 7:0:0:0:3, 7:1:0:0:1, 7:1:0:0:1, 2:0:0:0:0, 6:2:0:0:2, 2:0:0:0:0, 6:0:0:0:1, 6:0:0:0:2, 8:2:0:0:2, 6:1:0:0:2, 3:0:0:0:1,  , 3:0:0:0:2, 1:0:0:0:0, 1:0:0:0:1, 0:0:0:0:0, 3:1:0:0:1, 2:0:0:0:0, 3:0:0:0:1, 0:0:0:0:0, 3:0:0:0:0, 3:0:0:0:0, 3:0:0:0:1,  , 4:0:0:0:2, 4:0:3:0:3, 0:0:0:0:0, 2:0:0:0:2, 5:2:0:0:2, 6:1:0:2:3, 7:0:0:0:1, 5:1:0:0:3, 3:0:0:0:0, 6:0:0:0:1, 5:0:0:0:2, 4:0:0:0:0, 3:0:0:0:1, 5:0:0:0:0, 6:0:2:2:4, 7:0:0:0:1, 4:1:0:0:2, 5:0:0:0:1, 5:0:0:0:1, 2:0:0:0:0, 5:0:0:0:0, 6:3:0:0:4, 6:1:0:0:2, 4:0:0:0:0, 5:0:0:0:1, 5:3:0:0:3, 4:0:1:0:0, 6:0:0:0:3, 5:3:0:0:3, 1:0:0:0:0, 6:0:0:0:1, 2:0:0:0:0, 5:0:0:0:0, 7:1:0:0:3, 6:0:0:0:1, 1:0:0:0:0, 4:0:0:0:1, 2:0:0:0:2, 3:0:0:0:0, 3:0:0:0:1, 4:2:0:0:2, 3:0:2:0:2, 5:0:0:0:1, 1:0:0:0:0, 6:0:0:0:0, 5:2:0:0:3, 6:0:0:0:1, 6:0:0:0:0, 7:0:0:0:1, 5:0:3:0:4, 9:1:1:2:6, 5:1:0:0:3, 3:1:0:0:1, 1:0:0:0:0, 4:0:0:0:1, 3:0:0:0:0, 4:0:0:0:0, 5:1:0:0:2, 3:0:0:0:1, 2:0:0:0:0, 3:0:0:0:1, 2:0:0:0:0, 2:0:0:0:0, 4:0:0:0:2, 4:1:0:0:1, 4:1:0:0:1, 7:1:0:0:2, 7:0:0:0:1, 6:0:0:0:0, 4:0:0:0:0, 6:0:0:0:1, 5:0:0:0:1, 3:0:0:0:3, 2:0:0:0:3, 570:45:25:6:164
Bb minor (5b), 1:0:0:0:1, 3:0:0:0:3, 2:0:0:0:1, 3:0:0:3:4, 1:0:0:0:0, 2:0:0:0:1, 1:0:0:0:1, 6:0:0:0:4, 1:0:0:0:0, 4:0:0:0:2, 5:3:1:0:6, 3:0:0:0:2, 1:0:0:0:1, 4:1:0:0:4, 2:0:0:0:1, 3:0:0:3:4, 1:0:0:0:0, 2:0:0:0:1, 1:0:0:0:1, 5:0:0:0:3, 1:0:0:0:0, 4:0:0:0:3, 5:3:1:0:6, 3:0:0:0:2, 2:0:0:0:2, 3:0:0:0:2, 4:1:1:0:2, 3:0:0:0:2, 4:0:1:0:3, 3:0:0:0:2, 0:0:0:0:0, 5:2:0:0:7, 3:0:1:0:4, 3:0:0:0:4, 5:1:0:0:4, 7:1:0:0:8, 5:0:0:0:2, 4:0:0:0:4, 3:0:0:0:2, 5:0:0:0:7, 4:0:0:2:4, 4:0:0:0:4, 3:0:0:0:2, 10:3:0:2:9, 5:1:0:0:8, 9:0:0:0:8, 9:1:3:0:4, 6:1:0:0:8, 2:0:0:0:2, 9:1:0:0:10, 6:0:2:0:5, 9:0:1:0:5, 1:0:0:0:0, 3:0:0:0:2, 2:0:0:0:1, 8:0:0:0:7, 6:0:0:0:5, 7:1:0:0:9, 6:1:0:0:6, 4:0:0:0:4,  , 3:0:0:0:3, 2:0:0:0:1, 1:0:0:0:1, 1:0:0:0:1, 2:0:0:0:2, 1:0:0:0:0, 4:1:0:0:5, 1:0:0:0:1, 3:0:0:0:2, 3:1:0:0:3, 3:0:0:0:3,  , 4:0:0:0:6, 2:0:0:0:2, 1:0:1:0:0, 1:0:0:0:1, 4:0:0:0:3, 6:0:1:0:6, 7:0:0:0:10, 3:0:0:0:1, 3:0:0:0:3, 8:1:1:0:7, 5:0:0:0:4, 2:0:0:0:1, 3:0:0:0:4, 6:0:2:2:1, 6:1:1:0:10, 8:0:1:4:3, 4:1:0:0:3, 3:1:0:0:3, 5:0:0:0:6, 4:0:0:0:3, 4:0:0:0:4, 5:1:1:0:5, 5:0:0:0:13, 4:0:1:0:3, 5:2:2:0:10, 4:2:0:0:8, 7:3:1:0:7, 6:0:0:0:3, 6:5:0:0:14, 1:0:0:0:1, 6:0:0:0:5, 2:0:0:0:1, 8:1:0:0:7, 9:1:1:0:5, 7:1:0:0:8, 2:0:0:0:2, 3:0:0:0:5, 2:0:0:0:1, 3:0:0:0:2, 1:0:0:0:1, 5:1:0:0:6, 5:0:3:0:1, 5:0:0:0:4, 4:0:0:0:3, 5:0:0:0:5, 4:1:0:0:4, 7:1:0:0:7, 8:0:1:0:3, 8:1:0:0:10, 5:1:0:0:5, 6:0:0:0:8, 4:0:0:0:2, 2:0:0:0:2, 2:0:2:0:1, 5:0:1:0:4, 4:0:0:0:4, 5:0:0:0:4, 5:1:0:0:7, 3:0:0:0:4, 3:0:0:0:4, 4:0:0:0:5, 3:0:0:0:2, 5:0:0:0:5, 4:0:0:0:2, 3:0:0:0:2, 4:0:0:0:3, 7:0:0:0:9, 6:0:0:2:6, 7:1:0:0:13, 7:1:0:0:9, 6:0:0:0:14, 7:1:0:0:6, 1:0:0:0:2, 1:0:0:0:2, 595:52:31:18:581
G# minor (5#), 1:0:0:0:0, 3:0:0:0:2, 3:0:0:0:1, 3:0:3:0:0, 1:0:0:0:0, 3:1:0:0:1, 2:0:0:0:0, 5:0:0:0:4, 1:0:0:0:0, 5:4:0:0:4, 6:0:1:0:0, 3:0:0:0:1, 1:0:0:0:0, 4:0:0:0:2, 3:0:0:0:1, 3:0:3:0:0, 1:0:0:0:0, 3:1:0:0:1, 2:0:0:0:0, 5:0:0:0:4, 1:0:0:0:0, 5:0:0:0:0, 6:0:1:0:0, 3:0:0:0:1, 1:0:0:0:0, 3:0:0:0:2, 2:0:0:0:0, 1:0:0:0:0, 4:0:0:0:1, 4:1:0:0:1, 1:0:3:0:3, 4:0:0:0:1, 2:1:0:0:1, 3:0:0:0:0, 4:0:0:0:0, 7:0:0:0:1, 4:0:1:0:0, 5:0:0:0:2, 3:0:0:0:0, 2:0:0:0:0, 2:0:0:0:1, 5:1:0:0:1, 2:0:0:0:0, 11:0:0:0:2, 5:0:0:0:2, 7:1:0:0:1, 6:0:1:0:0, 4:0:0:0:2, 3:0:0:0:2, 7:0:0:0:3, 7:1:0:0:1, 7:1:0:0:1, 2:0:0:0:0, 6:2:0:0:2, 2:0:0:0:0, 6:0:0:0:1, 6:0:0:0:2, 8:2:0:0:2, 6:1:0:0:2, 3:0:0:0:1,  , 3:0:0:0:2, 1:0:0:0:0, 1:0:0:0:1, 0:0:0:0:0, 3:1:0:0:1, 2:0:0:0:0, 3:0:0:0:1, 0:0:0:0:0, 3:0:0:0:0, 3:0:0:0:0, 3:0:0:0:1,  , 4:0:0:0:2, 4:0:3:0:3, 0:0:0:0:0, 2:0:0:0:2, 5:2:0:0:2, 6:1:0:2:3, 7:0:0:0:1, 5:1:0:0:3, 3:0:0:0:0, 6:0:0:0:1, 5:0:0:0:2, 4:0:0:0:0, 3:0:0:0:1, 5:0:0:0:0, 6:0:2:2:4, 7:0:0:0:1, 4:1:0:0:2, 5:0:0:0:1, 5:0:0:0:1, 2:0:0:0:0, 5:0:0:0:0, 6:3:0:0:4, 6:1:0:0:2, 4:0:0:0:0, 5:0:0:0:1, 5:3:0:0:3, 4:0:1:0:0, 6:0:0:0:3, 5:3:0:0:3, 1:0:0:0:0, 6:0:0:0:1, 2:0:0:0:0, 5:0:0:0:0, 7:1:0:0:3, 6:0:0:0:1, 1:0:0:0:0, 4:0:0:0:1, 2:0:0:0:2, 3:0:0:0:0, 3:0:0:0:1, 4:2:0:0:2, 3:0:2:0:2, 5:0:0:0:1, 1:0:0:0:0, 6:0:0:0:0, 5:2:0:0:3, 6:0:0:0:1, 6:0:0:0:0, 7:0:0:0:1, 5:0:3:0:4, 9:1:1:2:6, 5:1:0:0:3, 3:1:0:0:1, 1:0:0:0:0, 4:0:0:0:1, 3:0:0:0:0, 4:0:0:0:0, 5:1:0:0:2, 3:0:0:0:1, 2:0:0:0:0, 3:0:0:0:1, 2:0:0:0:0, 2:0:0:0:0, 4:0:0:0:2, 4:1:0:0:1, 4:1:0:0:1, 7:1:0:0:2, 7:0:0:0:1, 6:0:0:0:0, 4:0:0:0:0, 6:0:0:0:1, 5:0:0:0:1, 3:0:0:0:3, 2:0:0:0:3, 570:45:25:6:164
Gb major (6b), 1:0:0:0:1, 3:0:0:0:6, 2:0:0:0:3, 3:0:0:3:1, 1:0:0:0:1, 3:0:0:0:3, 2:0:0:0:1, 6:0:0:0:8, 1:0:0:0:1, 5:0:0:0:4, 6:3:1:0:8, 3:0:0:0:3, 1:0:0:0:1, 4:1:0:0:7, 2:0:0:0:3, 3:0:0:3:1, 1:0:0:0:1, 3:0:0:0:3, 2:0:0:0:1, 5:0:0:0:7, 1:0:0:0:1, 5:0:0:0:5, 6:3:1:0:8, 3:0:0:0:3, 1:0:0:0:1, 3:0:0:0:4, 4:1:1:0:4, 2:0:0:0:1, 3:0:0:0:5, 4:0:0:0:4, 1:0:0:0:0, 5:2:0:0:9, 2:0:0:0:4, 4:0:0:0:7, 6:1:0:0:4, 8:1:0:0:10, 6:0:0:0:3, 4:0:0:0:6, 3:0:0:0:3, 4:0:0:0:5, 3:0:0:2:1, 5:0:0:0:6, 2:0:0:0:2, 11:3:0:2:10, 5:4:3:0:10, 10:0:0:0:11, 10:1:3:0:4, 6:0:0:0:9, 2:0:0:0:3, 9:2:0:0:13, 7:0:2:0:5, 8:0:1:0:5, 2:0:0:0:1, 4:0:0:0:4, 2:0:0:0:2, 8:1:0:0:9, 6:1:1:0:6, 8:1:0:0:9, 7:1:0:0:7, 4:0:0:0:5,  , 3:0:0:0:4, 1:0:0:0:1, 0:0:0:0:0, 0:0:0:0:0, 3:0:0:0:3, 2:0:0:0:1, 4:0:0:0:3, 0:0:0:0:0, 4:0:0:0:4, 4:1:0:0:3, 3:0:0:0:3,  , 5:0:0:0:7, 3:0:0:0:3, 0:0:0:0:0, 1:1:1:0:1, 5:0:0:0:5, 7:0:1:0:7, 8:0:0:0:11, 4:0:0:0:4, 4:0:0:0:4, 9:1:1:0:8, 5:0:0:0:7, 3:0:0:0:3, 3:0:0:0:4, 7:1:0:0:7, 6:1:1:0:8, 8:0:1:0:4, 5:1:0:0:4, 4:1:0:0:4, 5:0:0:0:7, 3:0:0:0:2, 5:0:0:0:5, 6:1:1:0:5, 6:0:0:0:16, 5:0:1:0:2, 5:2:2:0:11, 4:2:0:0:8, 6:3:1:0:10, 7:0:0:0:3, 7:5:0:0:17, 1:0:0:0:1, 6:0:0:0:5, 3:0:0:0:3, 9:1:0:0:9, 10:1:1:0:5, 7:0:0:0:6, 1:0:0:0:1, 4:0:0:0:4, 1:0:0:0:1, 3:0:0:0:3, 1:1:1:0:1, 6:1:0:0:9, 6:0:3:0:2, 6:0:0:0:5, 3:0:0:0:2, 6:0:0:0:6, 5:1:0:0:4, 7:1:0:0:9, 8:4:4:0:8, 7:1:0:0:12, 6:1:0:0:7, 7:0:0:0:9, 5:0:0:0:5, 3:0:0:0:3, 2:0:2:0:1, 5:0:1:0:5, 4:2:2:0:6, 6:0:0:0:5, 6:1:0:0:7, 3:0:0:0:6, 3:0:0:0:3, 4:0:0:0:6, 3:0:0:0:3, 4:0:0:0:5, 4:0:0:0:3, 4:0:0:0:3, 4:0:0:0:4, 8:0:0:0:12, 6:1:1:2:4, 8:1:0:0:15, 8:1:0:0:9, 7:0:0:0:14, 7:1:0:0:9, 2:0:0:0:2, 1:0:0:0:2, 641:65:38:12:716
F# major (6#), 1:0:0:0:0, 3:0:0:0:1, 2:0:0:0:0, 2:0:0:0:0, 1:0:0:0:0, 4:1:0:0:4, 2:0:0:0:2, 5:1:1:0:2, 1:0:0:0:0, 6:4:0:0:5, 5:0:0:0:1, 3:0:0:0:1, 1:0:0:0:0, 4:0:0:0:1, 2:0:0:0:0, 2:0:0:0:0, 1:0:0:0:0, 4:1:0:0:4, 2:0:0:0:1, 4:0:0:0:1, 1:0:0:0:0, 6:0:0:0:1, 5:0:0:0:1, 3:0:0:0:1, 1:0:0:0:0, 3:0:0:0:1, 3:0:0:0:0, 1:0:0:0:0, 4:0:0:0:0, 5:1:0:0:2, 1:0:3:0:0, 5:0:0:0:1, 3:1:0:0:1, 4:0:0:0:1, 4:0:0:0:2, 8:0:0:0:3, 5:0:0:0:1, 5:0:0:0:1, 4:0:0:0:0, 3:0:0:0:0, 2:0:0:0:0, 6:1:0:0:2, 2:0:0:0:0, 12:0:0:0:4, 5:0:0:0:3, 8:1:0:0:4, 7:0:0:0:1, 5:0:0:0:2, 2:0:0:0:0, 8:0:0:0:4, 8:1:0:0:3, 8:1:0:0:2, 2:0:0:0:2, 7:2:0:0:5, 2:0:0:0:0, 7:0:0:0:2, 6:0:0:0:1, 9:2:0:0:3, 6:2:1:0:4, 4:0:0:0:1,  , 3:0:0:0:1, 1:0:0:0:0, 0:0:0:0:0, 0:0:0:0:0, 4:1:0:0:2, 2:0:0:0:1, 3:0:0:0:1, 0:0:0:0:0, 4:0:0:0:1, 3:0:0:0:1, 3:0:0:0:1,  , 5:0:0:0:3, 4:0:3:0:0, 0:0:0:0:0, 1:0:0:0:1, 6:2:0:0:3, 7:1:0:2:4, 8:0:0:0:3, 4:1:0:0:2, 4:0:0:0:1, 7:0:0:0:2, 5:0:0:0:1, 4:0:0:0:1, 3:0:0:0:1, 6:0:0:0:1, 7:0:2:2:2, 6:0:0:0:1, 5:1:0:0:3, 4:0:0:0:1, 6:0:0:0:1, 2:0:0:0:0, 6:0:0:0:2, 6:4:1:0:5, 7:1:0:0:3, 5:0:0:0:1, 5:3:2:0:4, 5:3:0:0:4, 5:0:0:0:0, 6:1:1:0:2, 6:3:0:0:5, 1:0:0:0:0, 6:0:0:0:1, 3:0:0:0:1, 6:0:0:0:1, 8:1:0:0:4, 7:0:0:0:1, 1:0:0:0:0, 4:0:0:0:3, 1:0:0:0:0, 3:0:0:0:1, 2:0:0:0:1, 5:2:0:0:5, 4:0:2:0:0, 6:0:0:0:2, 2:0:0:0:0, 7:0:0:0:2, 5:0:0:0:2, 7:0:0:0:1, 7:0:0:0:3, 8:0:0:0:1, 5:2:5:0:2, 9:1:1:2:4, 5:2:1:0:3, 4:1:0:0:2, 2:0:0:0:0, 5:0:0:0:1, 4:0:0:0:2, 5:0:0:0:2, 5:0:0:0:2, 3:0:0:0:1, 3:0:0:0:1, 4:0:0:0:1, 3:0:0:0:0, 3:0:0:0:0, 5:0:0:0:0, 5:1:0:0:3, 4:1:0:0:1, 8:1:0:0:3, 6:0:0:0:1, 7:0:0:0:3, 5:0:0:0:2, 7:0:0:0:2, 5:0:0:0:1, 2:0:0:0:2, 1:0:0:0:0, 621:52:23:6:215
Eb minor (6b), 1:0:0:0:1, 3:0:0:0:6, 2:0:0:0:3, 3:0:0:3:1, 1:0:0:0:1, 3:0:0:0:3, 2:0:0:0:1, 6:0:0:0:8, 1:0:0:0:1, 5:0:0:0:4, 6:3:1:0:8, 3:0:0:0:3, 1:0:0:0:1, 4:1:0:0:7, 2:0:0:0:3, 3:0:0:3:1, 1:0:0:0:1, 3:0:0:0:3, 2:0:0:0:1, 5:0:0:0:7, 1:0:0:0:1, 5:0:0:0:5, 6:3:1:0:8, 3:0:0:0:3, 1:0:0:0:1, 3:0:0:0:4, 4:1:1:0:4, 2:0:0:0:1, 3:0:0:0:5, 4:0:0:0:4, 1:0:0:0:0, 5:2:0:0:9, 2:0:0:0:4, 4:0:0:0:7, 6:1:0:0:4, 8:1:0:0:10, 6:0:0:0:3, 4:0:0:0:6, 3:0:0:0:3, 4:0:0:0:5, 3:0:0:2:1, 5:0:0:0:6, 2:0:0:0:2, 11:3:0:2:10, 5:4:3:0:10, 10:0:0:0:11, 10:1:3:0:4, 6:0:0:0:9, 2:0:0:0:3, 9:2:0:0:13, 7:0:2:0:5, 8:0:1:0:5, 2:0:0:0:1, 4:0:0:0:4, 2:0:0:0:2, 8:1:0:0:9, 6:1:1:0:6, 8:1:0:0:9, 7:1:0:0:7, 4:0:0:0:5,  , 3:0:0:0:4, 1:0:0:0:1, 0:0:0:0:0, 0:0:0:0:0, 3:0:0:0:3, 2:0:0:0:1, 4:0:0:0:3, 0:0:0:0:0, 4:0:0:0:4, 4:1:0:0:3, 3:0:0:0:3,  , 5:0:0:0:7, 3:0:0:0:3, 0:0:0:0:0, 1:1:1:0:1, 5:0:0:0:5, 7:0:1:0:7, 8:0:0:0:11, 4:0:0:0:4, 4:0:0:0:4, 9:1:1:0:8, 5:0:0:0:7, 3:0:0:0:3, 3:0:0:0:4, 7:1:0:0:7, 6:1:1:0:8, 8:0:1:0:4, 5:1:0:0:4, 4:1:0:0:4, 5:0:0:0:7, 3:0:0:0:2, 5:0:0:0:5, 6:1:1:0:5, 6:0:0:0:16, 5:0:1:0:2, 5:2:2:0:11, 4:2:0:0:8, 6:3:1:0:10, 7:0:0:0:3, 7:5:0:0:17, 1:0:0:0:1, 6:0:0:0:5, 3:0:0:0:3, 9:1:0:0:9, 10:1:1:0:5, 7:0:0:0:6, 1:0:0:0:1, 4:0:0:0:4, 1:0:0:0:1, 3:0:0:0:3, 1:1:1:0:1, 6:1:0:0:9, 6:0:3:0:2, 6:0:0:0:5, 3:0:0:0:2, 6:0:0:0:6, 5:1:0:0:4, 7:1:0:0:9, 8:4:4:0:8, 7:1:0:0:12, 6:1:0:0:7, 7:0:0:0:9, 5:0:0:0:5, 3:0:0:0:3, 2:0:2:0:1, 5:0:1:0:5, 4:2:2:0:6, 6:0:0:0:5, 6:1:0:0:7, 3:0:0:0:6, 3:0:0:0:3, 4:0:0:0:6, 3:0:0:0:3, 4:0:0:0:5, 4:0:0:0:3, 4:0:0:0:3, 4:0:0:0:4, 8:0:0:0:12, 6:1:1:2:4, 8:1:0:0:15, 8:1:0:0:9, 7:0:0:0:14, 7:1:0:0:9, 2:0:0:0:2, 1:0:0:0:2, 641:65:38:12:716
D# minor (6#), 1:0:0:0:0, 3:0:0:0:1, 2:0:0:0:0, 2:0:0:0:0, 1:0:0:0:0, 4:1:0:0:4, 2:0:0:0:2, 5:1:1:0:2, 1:0:0:0:0, 6:4:0:0:5, 5:0:0:0:1, 3:0:0:0:1, 1:0:0:0:0, 4:0:0:0:1, 2:0:0:0:0, 2:0:0:0:0, 1:0:0:0:0, 4:1:0:0:4, 2:0:0:0:1, 4:0:0:0:1, 1:0:0:0:0, 6:0:0:0:1, 5:0:0:0:1, 3:0:0:0:1, 1:0:0:0:0, 3:0:0:0:1, 3:0:0:0:0, 1:0:0:0:0, 4:0:0:0:0, 5:1:0:0:2, 1:0:3:0:0, 5:0:0:0:1, 3:1:0:0:1, 4:0:0:0:1, 4:0:0:0:2, 8:0:0:0:3, 5:0:0:0:1, 5:0:0:0:1, 4:0:0:0:0, 3:0:0:0:0, 2:0:0:0:0, 6:1:0:0:2, 2:0:0:0:0, 12:0:0:0:4, 5:0:0:0:3, 8:1:0:0:4, 7:0:0:0:1, 5:0:0:0:2, 2:0:0:0:0, 8:0:0:0:4, 8:1:0:0:3, 8:1:0:0:2, 2:0:0:0:2, 7:2:0:0:5, 2:0:0:0:0, 7:0:0:0:2, 6:0:0:0:1, 9:2:0:0:3, 6:2:1:0:4, 4:0:0:0:1,  , 3:0:0:0:1, 1:0:0:0:0, 0:0:0:0:0, 0:0:0:0:0, 4:1:0:0:2, 2:0:0:0:1, 3:0:0:0:1, 0:0:0:0:0, 4:0:0:0:1, 3:0:0:0:1, 3:0:0:0:1,  , 5:0:0:0:3, 4:0:3:0:0, 0:0:0:0:0, 1:0:0:0:1, 6:2:0:0:3, 7:1:0:2:4, 8:0:0:0:3, 4:1:0:0:2, 4:0:0:0:1, 7:0:0:0:2, 5:0:0:0:1, 4:0:0:0:1, 3:0:0:0:1, 6:0:0:0:1, 7:0:2:2:2, 6:0:0:0:1, 5:1:0:0:3, 4:0:0:0:1, 6:0:0:0:1, 2:0:0:0:0, 6:0:0:0:2, 6:4:1:0:5, 7:1:0:0:3, 5:0:0:0:1, 5:3:2:0:4, 5:3:0:0:4, 5:0:0:0:0, 6:1:1:0:2, 6:3:0:0:5, 1:0:0:0:0, 6:0:0:0:1, 3:0:0:0:1, 6:0:0:0:1, 8:1:0:0:4, 7:0:0:0:1, 1:0:0:0:0, 4:0:0:0:3, 1:0:0:0:0, 3:0:0:0:1, 2:0:0:0:1, 5:2:0:0:5, 4:0:2:0:0, 6:0:0:0:2, 2:0:0:0:0, 7:0:0:0:2, 5:0:0:0:2, 7:0:0:0:1, 7:0:0:0:3, 8:0:0:0:1, 5:2:5:0:2, 9:1:1:2:4, 5:2:1:0:3, 4:1:0:0:2, 2:0:0:0:0, 5:0:0:0:1, 4:0:0:0:2, 5:0:0:0:2, 5:0:0:0:2, 3:0:0:0:1, 3:0:0:0:1, 4:0:0:0:1, 3:0:0:0:0, 3:0:0:0:0, 5:0:0:0:0, 5:1:0:0:3, 4:1:0:0:1, 8:1:0:0:3, 6:0:0:0:1, 7:0:0:0:3, 5:0:0:0:2, 7:0:0:0:2, 5:0:0:0:1, 2:0:0:0:2, 1:0:0:0:0, 621:52:23:6:215
Cb major (7b), 1:0:0:0:1, 4:0:0:0:6, 3:0:0:0:3, 4:0:0:3:1, 1:0:0:0:1, 3:0:0:0:6, 2:0:0:0:3, 7:0:0:0:8, 1:0:0:0:1, 5:0:0:0:5, 6:3:1:0:9, 4:0:0:0:3, 1:0:0:0:1, 5:1:0:0:7, 3:0:0:0:3, 4:0:0:3:1, 1:0:0:0:1, 3:0:0:0:6, 2:0:0:0:2, 6:0:0:0:7, 1:0:0:0:1, 5:0:0:0:6, 6:3:1:0:9, 4:0:0:0:3, 1:0:0:0:1, 4:0:0:0:4, 3:1:0:0:4, 2:0:0:0:1, 3:1:1:0:5, 4:0:0:0:5, 1:0:0:0:3, 6:2:0:0:9, 1:0:0:0:2, 4:0:0:0:7, 6:1:0:0:6, 9:1:0:0:11, 5:0:0:0:3, 5:0:0:0:6, 2:0:0:0:2, 3:0:0:0:3, 4:1:0:0:3, 5:0:0:0:7, 2:0:0:0:2, 12:3:0:2:12, 6:4:3:0:9, 10:0:0:0:13, 10:1:0:0:5, 7:0:0:0:9, 3:0:0:0:3, 10:2:0:0:14, 6:0:0:0:7, 7:0:0:0:6, 2:0:0:0:3, 4:0:0:0:7, 2:0:0:0:2, 9:1:0:0:9, 6:3:3:0:6, 8:1:0:0:10, 7:1:0:0:8, 5:0:0:0:3,  , 4:0:0:0:4, 1:0:0:0:1, 1:0:0:0:0, 0:0:0:0:0, 3:0:0:0:3, 2:0:0:0:2, 5:0:0:0:3, 0:0:0:0:0, 4:0:0:0:5, 4:1:0:0:4, 4:0:0:0:3,  , 6:0:0:0:8, 3:0:0:0:6, 0:0:0:0:0, 2:1:1:0:1, 5:0:0:0:5, 6:0:0:0:8, 9:0:0:0:11, 5:0:0:0:5, 4:0:0:0:4, 9:1:0:0:10, 6:0:0:0:7, 3:0:0:0:4, 4:0:0:0:4, 6:1:0:0:6, 5:1:0:0:10, 8:1:0:0:6, 6:1:0:0:5, 5:1:0:0:5, 6:0:0:0:6, 3:0:0:0:2, 5:0:0:0:7, 6:1:0:0:6, 7:0:0:0:14, 4:0:0:0:3, 6:2:0:0:11, 4:2:0:0:9, 5:3:1:0:9, 7:3:3:0:6, 7:5:0:0:18, 1:0:0:0:1, 7:0:0:0:5, 2:0:0:0:3, 9:0:0:0:8, 10:1:0:0:8, 8:0:0:0:5, 1:0:0:0:1, 5:0:0:0:6, 2:0:0:0:1, 3:0:0:0:4, 2:1:1:0:1, 6:0:0:0:9, 5:0:0:0:4, 7:0:0:0:5, 2:0:0:0:1, 6:0:0:0:7, 5:1:0:0:6, 8:1:0:0:8, 7:4:3:0:8, 8:1:0:0:11, 5:0:0:0:7, 8:0:0:0:10, 5:4:2:0:9, 3:0:0:0:3, 1:0:0:0:1, 6:0:0:0:5, 3:2:2:0:5, 6:0:0:0:7, 6:1:0:0:9, 4:0:0:0:6, 2:0:0:0:2, 5:0:0:0:3, 2:0:0:0:2, 3:0:0:0:2, 3:0:0:0:2, 4:0:0:0:5, 4:0:0:0:4, 9:0:0:0:10, 7:1:1:2:4, 8:0:0:0:13, 8:1:0:0:9, 8:0:0:0:12, 7:2:0:0:10, 3:0:0:0:4, 2:0:0:0:2, 672:74:23:10:773
C# major (7#), 1:0:0:0:0, 4:0:0:0:4, 2:0:0:0:2, 2:0:0:0:3, 1:0:0:0:1, 4:1:0:0:6, 1:0:0:0:0, 6:1:1:0:6, 1:0:0:0:1, 6:4:0:0:7, 5:0:0:0:3, 4:0:0:0:2, 1:0:0:0:0, 5:0:0:0:4, 2:0:0:0:2, 2:0:0:0:3, 1:0:0:0:1, 4:1:0:0:6, 1:0:0:0:0, 5:0:0:0:5, 1:0:0:0:1, 6:0:0:0:3, 5:0:0:0:3, 4:0:0:0:2, 2:0:0:0:0, 4:0:0:0:3, 3:0:0:0:2, 2:0:0:0:0, 5:0:0:0:2, 5:1:0:0:4, 0:0:0:0:0, 6:0:0:0:4, 4:1:0:0:1, 4:0:0:0:4, 5:0:0:0:2, 9:0:0:0:5, 4:0:0:0:1, 6:0:0:0:4, 4:0:0:0:1, 4:0:0:0:1, 3:0:0:0:2, 6:1:0:0:4, 3:0:0:0:1, 13:0:0:0:6, 5:1:1:0:1, 9:1:0:0:6, 8:0:0:0:2, 6:0:0:0:5, 2:0:0:0:1, 9:0:0:0:6, 7:0:0:0:1, 8:3:2:0:5, 1:0:0:0:1, 7:2:0:0:7, 2:0:0:0:1, 8:0:0:0:3, 6:0:0:0:1, 9:2:0:0:5, 6:2:1:0:4, 5:0:0:0:2,  , 4:0:0:0:2, 2:0:0:0:1, 1:0:0:0:0, 1:0:0:0:0, 4:1:0:0:3, 1:0:0:0:1, 4:0:0:0:2, 1:0:0:0:0, 4:0:0:0:3, 3:0:0:0:1, 4:0:0:0:2,  , 6:0:0:0:4, 3:0:0:0:1, 1:0:0:0:0, 1:0:0:0:0, 6:2:0:0:5, 7:2:0:0:4, 9:0:0:0:4, 3:1:0:0:4, 4:0:0:0:2, 8:0:0:0:3, 6:0:0:0:4, 3:0:0:0:2, 4:0:0:0:2, 5:0:0:0:1, 7:3:3:2:6, 6:1:1:0:3, 5:1:0:0:4, 3:0:0:0:1, 7:0:0:0:3, 3:0:0:0:0, 6:1:0:0:4, 6:4:1:0:5, 8:1:0:0:8, 5:0:0:0:0, 6:3:2:0:5, 4:3:0:0:3, 6:0:0:0:4, 6:1:1:0:2, 6:3:0:0:8, 1:0:0:0:0, 7:0:0:0:2, 2:0:0:0:2, 7:0:0:0:4, 9:1:0:0:4, 8:0:0:0:2, 2:0:0:0:0, 5:0:0:0:2, 2:0:0:0:1, 3:1:1:0:3, 1:0:0:0:0, 5:2:0:0:8, 3:0:0:0:1, 7:0:0:0:2, 3:0:0:0:0, 7:0:0:0:2, 5:0:0:0:1, 8:0:0:0:4, 7:1:1:0:3, 9:0:0:0:5, 4:2:2:0:4, 8:1:0:2:4, 4:2:1:0:5, 4:1:0:0:3, 2:0:0:0:0, 6:0:0:0:2, 4:0:0:0:1, 6:0:0:0:3, 6:0:0:0:2, 4:0:0:0:4, 3:1:1:0:1, 5:0:0:0:2, 3:0:0:0:1, 4:0:0:0:1, 5:0:0:0:1, 5:1:0:0:4, 4:1:0:0:2, 9:1:0:0:5, 6:0:0:0:2, 8:0:0:0:4, 6:0:0:0:2, 8:0:0:0:4, 6:0:0:0:5, 1:0:0:0:0, 1:0:0:0:0, 666:63:19:4:378
Ab minor (7b), 1:0:0:0:1, 4:0:0:0:6, 3:0:0:0:3, 4:0:0:3:1, 1:0:0:0:1, 3:0:0:0:6, 2:0:0:0:3, 7:0:0:0:8, 1:0:0:0:1, 5:0:0:0:5, 6:3:1:0:9, 4:0:0:0:3, 1:0:0:0:1, 5:1:0:0:7, 3:0:0:0:3, 4:0:0:3:1, 1:0:0:0:1, 3:0:0:0:6, 2:0:0:0:2, 6:0:0:0:7, 1:0:0:0:1, 5:0:0:0:6, 6:3:1:0:9, 4:0:0:0:3, 1:0:0:0:1, 4:0:0:0:4, 3:1:0:0:4, 2:0:0:0:1, 3:1:1:0:5, 4:0:0:0:5, 1:0:0:0:3, 6:2:0:0:9, 1:0:0:0:2, 4:0:0:0:7, 6:1:0:0:6, 9:1:0:0:11, 5:0:0:0:3, 5:0:0:0:6, 2:0:0:0:2, 3:0:0:0:3, 4:1:0:0:3, 5:0:0:0:7, 2:0:0:0:2, 12:3:0:2:12, 6:4:3:0:9, 10:0:0:0:13, 10:1:0:0:5, 7:0:0:0:9, 3:0:0:0:3, 10:2:0:0:14, 6:0:0:0:7, 7:0:0:0:6, 2:0:0:0:3, 4:0:0:0:7, 2:0:0:0:2, 9:1:0:0:9, 6:3:3:0:6, 8:1:0:0:10, 7:1:0:0:8, 5:0:0:0:3,  , 4:0:0:0:4, 1:0:0:0:1, 1:0:0:0:0, 0:0:0:0:0, 3:0:0:0:3, 2:0:0:0:2, 5:0:0:0:3, 0:0:0:0:0, 4:0:0:0:5, 4:1:0:0:4, 4:0:0:0:3,  , 6:0:0:0:8, 3:0:0:0:6, 0:0:0:0:0, 2:1:1:0:1, 5:0:0:0:5, 6:0:0:0:8, 9:0:0:0:11, 5:0:0:0:5, 4:0:0:0:4, 9:1:0:0:10, 6:0:0:0:7, 3:0:0:0:4, 4:0:0:0:4, 6:1:0:0:6, 5:1:0:0:10, 8:1:0:0:6, 6:1:0:0:5, 5:1:0:0:5, 6:0:0:0:6, 3:0:0:0:2, 5:0:0:0:7, 6:1:0:0:6, 7:0:0:0:14, 4:0:0:0:3, 6:2:0:0:11, 4:2:0:0:9, 5:3:1:0:9, 7:3:3:0:6, 7:5:0:0:18, 1:0:0:0:1, 7:0:0:0:5, 2:0:0:0:3, 9:0:0:0:8, 10:1:0:0:8, 8:0:0:0:5, 1:0:0:0:1, 5:0:0:0:6, 2:0:0:0:1, 3:0:0:0:4, 2:1:1:0:1, 6:0:0:0:9, 5:0:0:0:4, 7:0:0:0:5, 2:0:0:0:1, 6:0:0:0:7, 5:1:0:0:6, 8:1:0:0:8, 7:4:3:0:8, 8:1:0:0:11, 5:0:0:0:7, 8:0:0:0:10, 5:4:2:0:9, 3:0:0:0:3, 1:0:0:0:1, 6:0:0:0:5, 3:2:2:0:5, 6:0:0:0:7, 6:1:0:0:9, 4:0:0:0:6, 2:0:0:0:2, 5:0:0:0:3, 2:0:0:0:2, 3:0:0:0:2, 3:0:0:0:2, 4:0:0:0:5, 4:0:0:0:4, 9:0:0:0:10, 7:1:1:2:4, 8:0:0:0:13, 8:1:0:0:9, 8:0:0:0:12, 7:2:0:0:10, 3:0:0:0:4, 2:0:0:0:2, 672:74:23:10:773
A# minor (7#), 1:0:0:0:0, 4:0:0:0:4, 2:0:0:0:2, 2:0:0:0:3, 1:0:0:0:1, 4:1:0:0:6, 1:0:0:0:0, 6:1:1:0:6, 1:0:0:0:1, 6:4:0:0:7, 5:0:0:0:3, 4:0:0:0:2, 1:0:0:0:0, 5:0:0:0:4, 2:0:0:0:2, 2:0:0:0:3, 1:0:0:0:1, 4:1:0:0:6, 1:0:0:0:0, 5:0:0:0:5, 1:0:0:0:1, 6:0:0:0:3, 5:0:0:0:3, 4:0:0:0:2, 2:0:0:0:0, 4:0:0:0:3, 3:0:0:0:2, 2:0:0:0:0, 5:0:0:0:2, 5:1:0:0:4, 0:0:0:0:0, 6:0:0:0:4, 4:1:0:0:1, 4:0:0:0:4, 5:0:0:0:2, 9:0:0:0:5, 4:0:0:0:1, 6:0:0:0:4, 4:0:0:0:1, 4:0:0:0:1, 3:0:0:0:2, 6:1:0:0:4, 3:0:0:0:1, 13:0:0:0:6, 5:1:1:0:1, 9:1:0:0:6, 8:0:0:0:2, 6:0:0:0:5, 2:0:0:0:1, 9:0:0:0:6, 7:0:0:0:1, 8:3:2:0:5, 1:0:0:0:1, 7:2:0:0:7, 2:0:0:0:1, 8:0:0:0:3, 6:0:0:0:1, 9:2:0:0:5, 6:2:1:0:4, 5:0:0:0:2,  , 4:0:0:0:2, 2:0:0:0:1, 1:0:0:0:0, 1:0:0:0:0, 4:1:0:0:3, 1:0:0:0:1, 4:0:0:0:2, 1:0:0:0:0, 4:0:0:0:3, 3:0:0:0:1, 4:0:0:0:2,  , 6:0:0:0:4, 3:0:0:0:1, 1:0:0:0:0, 1:0:0:0:0, 6:2:0:0:5, 7:2:0:0:4, 9:0:0:0:4, 3:1:0:0:4, 4:0:0:0:2, 8:0:0:0:3, 6:0:0:0:4, 3:0:0:0:2, 4:0:0:0:2, 5:0:0:0:1, 7:3:3:2:6, 6:1:1:0:3, 5:1:0:0:4, 3:0:0:0:1, 7:0:0:0:3, 3:0:0:0:0, 6:1:0:0:4, 6:4:1:0:5, 8:1:0:0:8, 5:0:0:0:0, 6:3:2:0:5, 4:3:0:0:3, 6:0:0:0:4, 6:1:1:0:2, 6:3:0:0:8, 1:0:0:0:0, 7:0:0:0:2, 2:0:0:0:2, 7:0:0:0:4, 9:1:0:0:4, 8:0:0:0:2, 2:0:0:0:0, 5:0:0:0:2, 2:0:0:0:1, 3:1:1:0:3, 1:0:0:0:0, 5:2:0:0:8, 3:0:0:0:1, 7:0:0:0:2, 3:0:0:0:0, 7:0:0:0:2, 5:0:0:0:1, 8:0:0:0:4, 7:1:1:0:3, 9:0:0:0:5, 4:2:2:0:4, 8:1:0:2:4, 4:2:1:0:5, 4:1:0:0:3, 2:0:0:0:0, 6:0:0:0:2, 4:0:0:0:1, 6:0:0:0:3, 6:0:0:0:2, 4:0:0:0:4, 3:1:1:0:1, 5:0:0:0:2, 3:0:0:0:1, 4:0:0:0:1, 5:0:0:0:1, 5:1:0:0:4, 4:1:0:0:2, 9:1:0:0:5, 6:0:0:0:2, 8:0:0:0:4, 6:0:0:0:2, 8:0:0:0:4, 6:0:0:0:5, 1:0:0:0:0, 1:0:0:0:0, 666:63:19:4:378
