 , 0, 1, 2, 3, 4, 5, 6, 7, 8, 9, 10, 11, 12, 13, 14, 15, 16, 17, 18, 19, 20, 21, 22, 23, 24, 25, 26, 27, 28, 29, 30, 31, 32, 33, 34, 35, 36, 37, 38, 39, 40, 41, 42, 43, 44, 45, 46, 47, 48, 49, 50, 51, 52, 53, 54, 55, 56, 57, 58, 59, 60, 61, 62, 63, 64, 65, 66, 67, 68, 69, 70, 71, 72, 73, rowcost
C major (0), 0=0+0:0:0:0:0, 2=1+1:0:0:0:1, 0=0+0:0:0:0:0, 0=0+0:0:0:0:0, 3=2+1:0:0:0:0, 3=2+1:0:0:0:0, 3=3+0:0:0:0:0, 1=0+1:0:0:0:0, 6=3+3:0:0:0:0, 4=2+2:2:0:0:2, 0=0+0:0:0:0:0, 0=0+0:0:0:0:0, 0=0+0:0:0:0:0, 2=1+1:0:0:0:1, 0=0+0:0:0:0:0, 0=0+0:0:0:0:0, 3=2+1:0:0:0:0, 3=2+1:0:0:0:0, 3=3+0:0:0:0:0, 1=0+1:0:0:0:0, 6=3+3:0:0:0:0, 4=2+2:2:0:0:2, 0=0+0:0:0:0:0, 0=0+0:0:0:0:0, 0=0+0:0:0:0:0, 5=3+2:1:0:0:2, 1=1+0:0:0:0:0, 1=1+0:0:0:0:0, 0=0+0:0:0:0:0, 3=3+0:0:0:0:0, 6=4+2:0:0:0:1, 0=0+0:0:0:0:0,  , 3=2+1:0:0:0:0, 1=1+0:0:0:0:0, 0=0+0:0:0:0:0,  , 7=3+4:0:0:0:3, 5=3+2:0:1:0:0, 5=3+2:1:0:0:2, 1=1+0:0:0:0:0, 2=2+0:0:0:0:0, 0=0+0:0:0:0:0, 1=1+0:0:0:0:0,  , 9=6+3:1:0:0:1, 3=2+1:0:0:0:0, 3=2+1:0:0:0:0, 0=0+0:0:0:0:0, 4=3+1:0:0:0:0, 5=3+2:0:0:0:0, 4=3+1:0:0:0:0, 2=1+1:0:0:0:0, 1=1+0:0:0:0:0, 3=3+0:0:0:0:0, 1=1+0:0:0:0:0, 4=3+1:0:0:0:0, 1=1+0:0:0:0:0, 5=3+2:0:0:0:0, 1=1+0:0:0:0:0, 0=0+0:0:0:0:0, 3=2+1:0:0:0:0, 3=2+1:0:0:0:1, 1=1+0:0:0:0:0,  , 2=2+0:0:0:0:0, 2=2+0:0:0:0:0, 2=0+2:0:0:0:0, 3=2+1:0:0:0:0, 4=3+1:0:0:0:0, 3=2+1:1:0:0:1, 1=1+0:0:0:0:0, 0=0+0:0:0:0:0, 0=0+0:0:0:0:0, 155=104+51:8:1:0:17
A minor (0), 0=0+0:0:0:0:0, 2=1+1:0:0:0:1, 0=0+0:0:0:0:0, 0=0+0:0:0:0:0, 3=2+1:0:0:0:0, 4=2+2:0:0:0:0, 5=3+2:0:0:0:0, 0=0+0:0:0:0:0, 5=3+2:0:0:0:1, 3=2+1:0:0:0:0, 0=0+0:0:0:0:0, 0=0+0:0:0:0:0, 0=0+0:0:0:0:0, 2=1+1:0:0:0:1, 0=0+0:0:0:0:0, 0=0+0:0:0:0:0, 3=2+1:0:0:0:0, 4=2+2:0:0:0:0, 5=3+2:0:0:0:0, 0=0+0:0:0:0:0, 5=3+2:0:0:0:1, 3=2+1:0:0:0:0, 0=0+0:0:0:0:0, 0=0+0:0:0:0:0, 0=0+0:0:0:0:0, 5=3+2:1:0:0:1, 1=1+0:0:0:0:0, 2=1+1:0:0:0:0, 0=0+0:0:0:0:0, 4=3+1:0:0:0:0, 7=4+3:0:0:0:0, 0=0+0:0:0:0:0,  , 2=2+0:0:0:0:0, 1=1+0:0:0:0:0, 0=0+0:0:0:0:0,  , 4=2+2:0:0:0:2, 5=2+3:0:0:0:3, 3=2+1:0:0:0:1, 3=1+2:0:0:0:0, 3=2+1:0:0:0:0, 0=0+0:0:0:0:0, 1=1+0:0:0:0:0,  , 9=6+3:0:0:0:1, 3=2+1:0:0:0:0, 3=2+1:0:0:0:0, 0=0+0:0:0:0:0, 5=3+2:0:0:0:0, 7=3+4:0:0:0:0, 7=3+4:0:0:0:0, 2=1+1:0:0:0:0, 1=1+0:0:0:0:0, 4=3+1:0:0:0:0, 1=1+0:0:0:0:0, 3=3+0:0:0:0:0, 3=1+2:0:0:0:0, 5=3+2:0:0:0:0, 1=1+0:0:0:0:0, 0=0+0:0:0:0:0, 3=2+1:0:0:0:0, 4=2+2:0:0:0:0, 2=1+1:0:0:0:0,  , 3=2+1:0:0:0:0, 3=2+1:0:0:0:0, 0=0+0:0:0:0:0, 3=2+1:0:0:0:0, 4=3+1:0:0:0:0, 3=2+1:1:0:0:1, 1=1+0:0:0:0:0, 0=0+0:0:0:0:0, 0=0+0:0:0:0:0, 165=101+64:2:0:0:13
A minor mel (0),  ,  ,  ,  ,  ,  ,  ,  ,  ,  ,  ,  ,  ,  ,  ,  ,  ,  ,  ,  ,  ,  ,  ,  ,  ,  ,  ,  ,  ,  ,  ,  ,  ,  ,  ,  ,  ,  ,  ,  ,  ,  ,  ,  ,  ,  ,  ,  ,  ,  ,  ,  ,  ,  ,  ,  ,  ,  ,  ,  ,  ,  ,  ,  ,  ,  ,  ,  ,  ,  ,  ,  ,  ,  , 0=0+0:0:0:0:0
C major blues (0),  ,  ,  ,  ,  ,  ,  ,  ,  ,  ,  ,  ,  ,  ,  ,  ,  ,  ,  ,  ,  ,  ,  ,  ,  ,  ,  ,  ,  ,  ,  ,  ,  ,  ,  ,  ,  ,  ,  ,  ,  ,  ,  ,  ,  ,  ,  ,  ,  ,  ,  ,  ,  ,  ,  ,  ,  ,  ,  ,  ,  ,  ,  ,  ,  ,  ,  ,  ,  ,  ,  ,  ,  ,  , 0=0+0:0:0:0:0
A minor blues (0),  ,  ,  ,  ,  ,  ,  ,  ,  ,  ,  ,  ,  ,  ,  ,  ,  ,  ,  ,  ,  ,  ,  ,  ,  ,  ,  ,  ,  ,  ,  ,  ,  ,  ,  ,  ,  ,  ,  ,  ,  ,  ,  ,  ,  ,  ,  ,  ,  ,  ,  ,  ,  ,  ,  ,  ,  ,  ,  ,  ,  ,  ,  ,  ,  ,  ,  ,  ,  ,  ,  ,  ,  ,  , 0=0+0:0:0:0:0
C dorian (0),  ,  ,  ,  ,  ,  ,  ,  ,  ,  ,  ,  ,  ,  ,  ,  ,  ,  ,  ,  ,  ,  ,  ,  ,  ,  ,  ,  ,  ,  ,  ,  ,  ,  ,  ,  ,  ,  ,  ,  ,  ,  ,  ,  ,  ,  ,  ,  ,  ,  ,  ,  ,  ,  ,  ,  ,  ,  ,  ,  ,  ,  ,  ,  ,  ,  ,  ,  ,  ,  ,  ,  ,  ,  , 0=0+0:0:0:0:0
C phrygian (0),  ,  ,  ,  ,  ,  ,  ,  ,  ,  ,  ,  ,  ,  ,  ,  ,  ,  ,  ,  ,  ,  ,  ,  ,  ,  ,  ,  ,  ,  ,  ,  ,  ,  ,  ,  ,  ,  ,  ,  ,  ,  ,  ,  ,  ,  ,  ,  ,  ,  ,  ,  ,  ,  ,  ,  ,  ,  ,  ,  ,  ,  ,  ,  ,  ,  ,  ,  ,  ,  ,  ,  ,  ,  , 0=0+0:0:0:0:0
C lydian (0),  ,  ,  ,  ,  ,  ,  ,  ,  ,  ,  ,  ,  ,  ,  ,  ,  ,  ,  ,  ,  ,  ,  ,  ,  ,  ,  ,  ,  ,  ,  ,  ,  ,  ,  ,  ,  ,  ,  ,  ,  ,  ,  ,  ,  ,  ,  ,  ,  ,  ,  ,  ,  ,  ,  ,  ,  ,  ,  ,  ,  ,  ,  ,  ,  ,  ,  ,  ,  ,  ,  ,  ,  ,  , 0=0+0:0:0:0:0
C mixolydian (0),  ,  ,  ,  ,  ,  ,  ,  ,  ,  ,  ,  ,  ,  ,  ,  ,  ,  ,  ,  ,  ,  ,  ,  ,  ,  ,  ,  ,  ,  ,  ,  ,  ,  ,  ,  ,  ,  ,  ,  ,  ,  ,  ,  ,  ,  ,  ,  ,  ,  ,  ,  ,  ,  ,  ,  ,  ,  ,  ,  ,  ,  ,  ,  ,  ,  ,  ,  ,  ,  ,  ,  ,  ,  , 0=0+0:0:0:0:0
C aeolian (0),  ,  ,  ,  ,  ,  ,  ,  ,  ,  ,  ,  ,  ,  ,  ,  ,  ,  ,  ,  ,  ,  ,  ,  ,  ,  ,  ,  ,  ,  ,  ,  ,  ,  ,  ,  ,  ,  ,  ,  ,  ,  ,  ,  ,  ,  ,  ,  ,  ,  ,  ,  ,  ,  ,  ,  ,  ,  ,  ,  ,  ,  ,  ,  ,  ,  ,  ,  ,  ,  ,  ,  ,  ,  , 0=0+0:0:0:0:0
C locrian (0),  ,  ,  ,  ,  ,  ,  ,  ,  ,  ,  ,  ,  ,  ,  ,  ,  ,  ,  ,  ,  ,  ,  ,  ,  ,  ,  ,  ,  ,  ,  ,  ,  ,  ,  ,  ,  ,  ,  ,  ,  ,  ,  ,  ,  ,  ,  ,  ,  ,  ,  ,  ,  ,  ,  ,  ,  ,  ,  ,  ,  ,  ,  ,  ,  ,  ,  ,  ,  ,  ,  ,  ,  ,  , 0=0+0:0:0:0:0
F major (1b), 0=0+0:0:0:0:0, 4=2+2:1:0:0:2, 0=0+0:0:0:0:0, 0=0+0:0:0:0:0, 3=2+1:0:0:0:0, 2=1+1:0:0:0:0, 2=2+0:0:0:0:0, 1=0+1:0:0:0:0, 6=3+3:0:0:0:0, 3=1+2:2:0:0:2, 0=0+0:0:0:0:0, 0=0+0:0:0:0:0, 0=0+0:0:0:0:0, 4=2+2:1:0:0:2, 0=0+0:0:0:0:0, 0=0+0:0:0:0:0, 3=2+1:0:0:0:0, 2=1+1:0:0:0:0, 2=2+0:0:0:0:0, 1=0+1:0:0:0:0, 6=3+3:0:0:0:0, 3=1+2:2:0:0:2, 0=0+0:0:0:0:0, 0=0+0:0:0:0:0, 0=0+0:0:0:0:0, 4=2+2:1:0:0:2, 0=0+0:0:0:0:0, 1=1+0:0:0:0:0, 0=0+0:0:0:0:0, 2=2+0:0:0:0:0, 5=3+2:0:0:0:1, 1=0+1:0:0:0:0,  , 2=1+1:0:0:0:0, 0=0+0:0:0:0:0, 0=0+0:0:0:0:0,  , 6=2+4:0:0:0:3, 4=2+2:0:1:0:0, 4=2+2:1:0:0:2, 1=1+0:0:0:0:0, 1=1+0:0:0:0:0, 0=0+0:0:0:0:0, 0=0+0:0:0:0:0,  , 8=5+3:1:0:0:1, 2=1+1:0:0:0:0, 3=2+1:0:0:0:0, 0=0+0:0:0:0:0, 3=2+1:0:0:0:0, 4=2+2:0:0:0:0, 3=2+1:0:0:0:0, 2=1+1:0:0:0:0, 1=1+0:0:0:0:0, 2=2+0:0:0:0:0, 0=0+0:0:0:0:0, 3=2+1:0:0:0:0, 0=0+0:0:0:0:0, 4=2+2:0:0:0:0, 0=0+0:0:0:0:0, 0=0+0:0:0:0:0, 2=1+1:0:0:0:0, 3=2+1:0:0:0:1, 1=1+0:0:0:0:0,  , 1=1+0:0:0:0:0, 1=1+0:0:0:0:0, 2=0+2:0:0:0:0, 2=1+1:0:0:0:0, 2=1+1:0:0:0:0, 2=1+1:1:0:0:1, 0=0+0:0:0:0:0, 0=0+0:0:0:0:0, 0=0+0:0:0:0:0, 124=70+54:10:1:0:19
G major (1#), 0=0+0:0:0:0:0, 3=2+1:0:0:0:1, 1=1+0:0:0:0:0, 1=1+0:0:0:0:0, 4=3+1:0:0:0:0, 4=3+1:0:0:0:0, 5=4+1:0:0:0:0, 2=1+1:0:0:0:0, 4=2+2:0:0:0:1, 3=2+1:0:0:0:0, 1=1+0:0:0:0:0, 1=1+0:0:0:0:0, 1=1+0:0:0:0:0, 3=2+1:0:0:0:1, 1=1+0:0:0:0:0, 1=1+0:0:0:0:0, 4=3+1:0:0:0:0, 4=3+1:0:0:0:0, 5=4+1:0:0:0:0, 2=1+1:0:0:0:0, 4=2+2:0:0:0:1, 3=2+1:0:0:0:0, 1=1+0:0:0:0:0, 1=1+0:0:0:0:0, 1=1+0:0:0:0:0, 6=4+2:1:0:0:2, 2=2+0:0:0:0:0, 2=2+0:0:0:0:0, 1=1+0:0:0:0:0, 6=5+1:0:0:0:0, 6=4+2:1:0:0:2, 1=0+1:0:0:0:0,  , 3=3+0:0:0:0:0, 2=2+0:0:0:0:0, 1=1+0:0:0:0:0,  , 8=4+4:0:0:0:3, 6=4+2:0:1:0:0, 6=4+2:1:0:0:2, 2=2+0:0:0:0:0, 4=3+1:0:0:0:0, 1=1+0:0:0:0:0, 1=1+0:0:0:0:0,  , 9=6+3:0:0:0:1, 4=3+1:0:0:0:0, 4=3+1:0:0:0:0, 2=2+0:0:0:0:0, 4=3+1:1:0:0:1, 5=4+1:0:0:0:0, 5=4+1:0:0:0:0, 3=2+1:0:0:0:0, 2=1+1:0:0:0:0, 6=5+1:0:0:0:0, 1=1+0:0:0:0:0, 2=2+0:0:0:0:0, 2=2+0:0:0:0:0, 6=4+2:0:0:0:0, 1=1+0:0:0:0:0, 0=0+0:0:0:0:0, 4=3+1:0:0:0:0, 5=3+2:0:0:0:0, 2=2+0:0:0:0:0,  , 5=4+1:0:0:0:0, 5=4+1:0:0:0:0, 3=1+2:0:0:0:0, 2=1+1:1:0:0:1, 2=2+0:0:0:0:0, 4=3+1:1:0:0:1, 2=2+0:0:0:0:0, 1=1+0:0:0:0:0, 0=0+0:0:0:0:0, 209=156+53:6:1:0:17
D minor (1b), 0=0+0:0:0:0:0, 3=2+1:0:0:0:1, 0=0+0:0:0:0:0, 0=0+0:0:0:0:0, 3=2+1:0:0:0:0, 2=1+1:0:0:0:0, 3=2+1:0:0:0:0, 1=0+1:0:0:0:0, 5=3+2:0:0:0:1, 2=1+1:0:0:0:0, 0=0+0:0:0:0:0, 0=0+0:0:0:0:0, 0=0+0:0:0:0:0, 3=2+1:0:0:0:1, 0=0+0:0:0:0:0, 0=0+0:0:0:0:0, 3=2+1:0:0:0:0, 2=1+1:0:0:0:0, 3=2+1:0:0:0:0, 1=0+1:0:0:0:0, 5=3+2:0:0:0:1, 2=1+1:0:0:0:0, 0=0+0:0:0:0:0, 0=0+0:0:0:0:0, 0=0+0:0:0:0:0, 4=2+2:1:0:0:1, 0=0+0:0:0:0:0, 1=1+0:0:0:0:0, 0=0+0:0:0:0:0, 3=2+1:0:0:0:0, 4=2+2:0:0:0:1, 1=0+1:0:0:0:0,  , 2=1+1:0:0:0:0, 0=0+0:0:0:0:0, 0=0+0:0:0:0:0,  , 6=2+4:0:0:0:0, 4=2+2:0:1:0:1, 4=2+2:1:0:0:1, 1=1+0:0:0:0:0, 2=1+1:0:0:0:0, 0=0+0:0:0:0:0, 0=0+0:0:0:0:0,  , 8=5+3:0:0:0:1, 2=1+1:0:0:0:0, 3=2+1:0:0:0:0, 0=0+0:0:0:0:0, 3=2+1:0:0:0:0, 3=2+1:0:0:0:0, 3=2+1:0:0:0:0, 2=1+1:0:0:0:0, 2=1+1:0:0:0:0, 3=2+1:0:0:0:0, 0=0+0:0:0:0:0, 2=2+0:0:0:0:0, 0=0+0:0:0:0:0, 4=2+2:0:0:0:0, 0=0+0:0:0:0:0, 0=0+0:0:0:0:0, 2=1+1:0:0:0:0, 4=2+2:0:0:0:0, 1=1+0:0:0:0:0,  , 2=1+1:0:0:0:0, 2=1+1:0:0:0:0, 2=0+2:0:0:0:0, 2=1+1:0:0:0:0, 2=1+1:0:0:0:0, 2=1+1:0:0:0:1, 0=0+0:0:0:0:0, 0=0+0:0:0:0:0, 0=0+0:0:0:0:0, 124=69+55:2:1:0:10
E minor (1#), 0=0+0:0:0:0:0, 3=2+1:0:0:0:1, 1=1+0:0:0:0:0, 1=1+0:0:0:0:0, 5=3+2:0:0:0:0, 5=3+2:0:0:0:0, 6=4+2:0:0:0:0, 1=1+0:0:0:0:0, 4=2+2:0:0:0:1, 4=2+2:0:0:0:1, 1=1+0:0:0:0:0, 1=1+0:0:0:0:0, 1=1+0:0:0:0:0, 2=2+0:0:0:0:0, 1=1+0:0:0:0:0, 5=1+4:0:0:0:0, 9=3+6:0:0:0:0, 5=3+2:0:0:0:0, 6=4+2:0:0:0:0, 1=1+0:0:0:0:0, 4=2+2:0:0:0:1, 4=2+2:0:0:0:1, 1=1+0:0:0:0:0, 1=1+0:0:0:0:0, 1=1+0:0:0:0:0, 6=4+2:1:0:0:2, 3=2+1:0:0:0:0, 5=2+3:0:0:0:0, 2=1+1:0:0:0:0, 6=5+1:0:0:0:0, 8=5+3:0:0:0:0, 0=0+0:0:0:0:0,  , 3=3+0:0:0:0:0, 5=2+3:0:0:0:0, 2=1+1:0:0:0:0,  , 5=3+2:0:0:0:2, 6=3+3:0:0:0:3, 4=3+1:0:0:0:1, 4=2+2:0:0:0:0, 4=3+1:0:0:0:0, 1=1+0:0:0:0:0, 1=1+0:0:0:0:0,  , 9=6+3:0:0:0:1, 7=4+3:0:0:0:0, 4=3+1:0:0:0:0, 4=2+2:0:0:0:0, 4=3+1:0:0:0:0, 5=4+1:0:0:0:0, 8=4+4:0:0:0:0, 3=2+1:0:0:0:0, 1=1+0:0:0:0:0, 6=5+1:0:0:0:0, 1=1+0:0:0:0:0, 2=2+0:0:0:0:0, 4=2+2:0:0:0:0, 8=4+4:0:0:0:0, 1=1+0:0:0:0:0, 0=0+0:0:0:0:0, 5=3+2:0:0:0:0, 5=3+2:0:0:0:0, 3=2+1:0:0:0:0,  , 5=4+1:0:0:0:0, 5=4+1:0:0:0:0, 4=1+3:0:0:0:0, 1=1+0:0:0:0:0, 5=2+3:0:0:0:3, 5=3+2:0:0:0:1, 3=2+1:0:0:0:0, 2=1+1:0:0:0:0, 0=0+0:0:0:0:0, 248=155+93:1:0:0:18
D minor mel (1b),  ,  ,  ,  ,  ,  ,  ,  ,  ,  ,  ,  ,  ,  ,  ,  ,  ,  ,  ,  ,  ,  ,  ,  ,  ,  ,  ,  ,  ,  ,  ,  ,  ,  ,  ,  ,  ,  ,  ,  ,  ,  ,  ,  ,  ,  ,  ,  ,  ,  ,  ,  ,  ,  ,  ,  ,  ,  ,  ,  ,  ,  ,  ,  ,  ,  ,  ,  ,  ,  ,  ,  ,  ,  , 0=0+0:0:0:0:0
E minor mel (1#),  ,  ,  ,  ,  ,  ,  ,  ,  ,  ,  ,  ,  ,  ,  ,  ,  ,  ,  ,  ,  ,  ,  ,  ,  ,  ,  ,  ,  ,  ,  ,  ,  ,  ,  ,  ,  ,  ,  ,  ,  ,  ,  ,  ,  ,  ,  ,  ,  ,  ,  ,  ,  ,  ,  ,  ,  ,  ,  ,  ,  ,  ,  ,  ,  ,  ,  ,  ,  ,  ,  ,  ,  ,  , 0=0+0:0:0:0:0
F major blues (1b),  ,  ,  ,  ,  ,  ,  ,  ,  ,  ,  ,  ,  ,  ,  ,  ,  ,  ,  ,  ,  ,  ,  ,  ,  ,  ,  ,  ,  ,  ,  ,  ,  ,  ,  ,  ,  ,  ,  ,  ,  ,  ,  ,  ,  ,  ,  ,  ,  ,  ,  ,  ,  ,  ,  ,  ,  ,  ,  ,  ,  ,  ,  ,  ,  ,  ,  ,  ,  ,  ,  ,  ,  ,  , 0=0+0:0:0:0:0
G major blues (1#),  ,  ,  ,  ,  ,  ,  ,  ,  ,  ,  ,  ,  ,  ,  ,  ,  ,  ,  ,  ,  ,  ,  ,  ,  ,  ,  ,  ,  ,  ,  ,  ,  ,  ,  ,  ,  ,  ,  ,  ,  ,  ,  ,  ,  ,  ,  ,  ,  ,  ,  ,  ,  ,  ,  ,  ,  ,  ,  ,  ,  ,  ,  ,  ,  ,  ,  ,  ,  ,  ,  ,  ,  ,  , 0=0+0:0:0:0:0
D minor blues (1b),  ,  ,  ,  ,  ,  ,  ,  ,  ,  ,  ,  ,  ,  ,  ,  ,  ,  ,  ,  ,  ,  ,  ,  ,  ,  ,  ,  ,  ,  ,  ,  ,  ,  ,  ,  ,  ,  ,  ,  ,  ,  ,  ,  ,  ,  ,  ,  ,  ,  ,  ,  ,  ,  ,  ,  ,  ,  ,  ,  ,  ,  ,  ,  ,  ,  ,  ,  ,  ,  ,  ,  ,  ,  , 0=0+0:0:0:0:0
E minor blues (1#),  ,  ,  ,  ,  ,  ,  ,  ,  ,  ,  ,  ,  ,  ,  ,  ,  ,  ,  ,  ,  ,  ,  ,  ,  ,  ,  ,  ,  ,  ,  ,  ,  ,  ,  ,  ,  ,  ,  ,  ,  ,  ,  ,  ,  ,  ,  ,  ,  ,  ,  ,  ,  ,  ,  ,  ,  ,  ,  ,  ,  ,  ,  ,  ,  ,  ,  ,  ,  ,  ,  ,  ,  ,  , 0=0+0:0:0:0:0
F dorian (1b),  ,  ,  ,  ,  ,  ,  ,  ,  ,  ,  ,  ,  ,  ,  ,  ,  ,  ,  ,  ,  ,  ,  ,  ,  ,  ,  ,  ,  ,  ,  ,  ,  ,  ,  ,  ,  ,  ,  ,  ,  ,  ,  ,  ,  ,  ,  ,  ,  ,  ,  ,  ,  ,  ,  ,  ,  ,  ,  ,  ,  ,  ,  ,  ,  ,  ,  ,  ,  ,  ,  ,  ,  ,  , 0=0+0:0:0:0:0
G dorian (1#),  ,  ,  ,  ,  ,  ,  ,  ,  ,  ,  ,  ,  ,  ,  ,  ,  ,  ,  ,  ,  ,  ,  ,  ,  ,  ,  ,  ,  ,  ,  ,  ,  ,  ,  ,  ,  ,  ,  ,  ,  ,  ,  ,  ,  ,  ,  ,  ,  ,  ,  ,  ,  ,  ,  ,  ,  ,  ,  ,  ,  ,  ,  ,  ,  ,  ,  ,  ,  ,  ,  ,  ,  ,  , 0=0+0:0:0:0:0
F phrygian (1b),  ,  ,  ,  ,  ,  ,  ,  ,  ,  ,  ,  ,  ,  ,  ,  ,  ,  ,  ,  ,  ,  ,  ,  ,  ,  ,  ,  ,  ,  ,  ,  ,  ,  ,  ,  ,  ,  ,  ,  ,  ,  ,  ,  ,  ,  ,  ,  ,  ,  ,  ,  ,  ,  ,  ,  ,  ,  ,  ,  ,  ,  ,  ,  ,  ,  ,  ,  ,  ,  ,  ,  ,  ,  , 0=0+0:0:0:0:0
G phrygian (1#),  ,  ,  ,  ,  ,  ,  ,  ,  ,  ,  ,  ,  ,  ,  ,  ,  ,  ,  ,  ,  ,  ,  ,  ,  ,  ,  ,  ,  ,  ,  ,  ,  ,  ,  ,  ,  ,  ,  ,  ,  ,  ,  ,  ,  ,  ,  ,  ,  ,  ,  ,  ,  ,  ,  ,  ,  ,  ,  ,  ,  ,  ,  ,  ,  ,  ,  ,  ,  ,  ,  ,  ,  ,  , 0=0+0:0:0:0:0
F lydian (1b),  ,  ,  ,  ,  ,  ,  ,  ,  ,  ,  ,  ,  ,  ,  ,  ,  ,  ,  ,  ,  ,  ,  ,  ,  ,  ,  ,  ,  ,  ,  ,  ,  ,  ,  ,  ,  ,  ,  ,  ,  ,  ,  ,  ,  ,  ,  ,  ,  ,  ,  ,  ,  ,  ,  ,  ,  ,  ,  ,  ,  ,  ,  ,  ,  ,  ,  ,  ,  ,  ,  ,  ,  ,  , 0=0+0:0:0:0:0
G lydian (1#),  ,  ,  ,  ,  ,  ,  ,  ,  ,  ,  ,  ,  ,  ,  ,  ,  ,  ,  ,  ,  ,  ,  ,  ,  ,  ,  ,  ,  ,  ,  ,  ,  ,  ,  ,  ,  ,  ,  ,  ,  ,  ,  ,  ,  ,  ,  ,  ,  ,  ,  ,  ,  ,  ,  ,  ,  ,  ,  ,  ,  ,  ,  ,  ,  ,  ,  ,  ,  ,  ,  ,  ,  ,  , 0=0+0:0:0:0:0
F mixolydian (1b),  ,  ,  ,  ,  ,  ,  ,  ,  ,  ,  ,  ,  ,  ,  ,  ,  ,  ,  ,  ,  ,  ,  ,  ,  ,  ,  ,  ,  ,  ,  ,  ,  ,  ,  ,  ,  ,  ,  ,  ,  ,  ,  ,  ,  ,  ,  ,  ,  ,  ,  ,  ,  ,  ,  ,  ,  ,  ,  ,  ,  ,  ,  ,  ,  ,  ,  ,  ,  ,  ,  ,  ,  ,  , 0=0+0:0:0:0:0
G mixolydian (1#),  ,  ,  ,  ,  ,  ,  ,  ,  ,  ,  ,  ,  ,  ,  ,  ,  ,  ,  ,  ,  ,  ,  ,  ,  ,  ,  ,  ,  ,  ,  ,  ,  ,  ,  ,  ,  ,  ,  ,  ,  ,  ,  ,  ,  ,  ,  ,  ,  ,  ,  ,  ,  ,  ,  ,  ,  ,  ,  ,  ,  ,  ,  ,  ,  ,  ,  ,  ,  ,  ,  ,  ,  ,  , 0=0+0:0:0:0:0
F aeolian (1b),  ,  ,  ,  ,  ,  ,  ,  ,  ,  ,  ,  ,  ,  ,  ,  ,  ,  ,  ,  ,  ,  ,  ,  ,  ,  ,  ,  ,  ,  ,  ,  ,  ,  ,  ,  ,  ,  ,  ,  ,  ,  ,  ,  ,  ,  ,  ,  ,  ,  ,  ,  ,  ,  ,  ,  ,  ,  ,  ,  ,  ,  ,  ,  ,  ,  ,  ,  ,  ,  ,  ,  ,  ,  , 0=0+0:0:0:0:0
G aeolian (1#),  ,  ,  ,  ,  ,  ,  ,  ,  ,  ,  ,  ,  ,  ,  ,  ,  ,  ,  ,  ,  ,  ,  ,  ,  ,  ,  ,  ,  ,  ,  ,  ,  ,  ,  ,  ,  ,  ,  ,  ,  ,  ,  ,  ,  ,  ,  ,  ,  ,  ,  ,  ,  ,  ,  ,  ,  ,  ,  ,  ,  ,  ,  ,  ,  ,  ,  ,  ,  ,  ,  ,  ,  ,  , 0=0+0:0:0:0:0
F locrian (1b),  ,  ,  ,  ,  ,  ,  ,  ,  ,  ,  ,  ,  ,  ,  ,  ,  ,  ,  ,  ,  ,  ,  ,  ,  ,  ,  ,  ,  ,  ,  ,  ,  ,  ,  ,  ,  ,  ,  ,  ,  ,  ,  ,  ,  ,  ,  ,  ,  ,  ,  ,  ,  ,  ,  ,  ,  ,  ,  ,  ,  ,  ,  ,  ,  ,  ,  ,  ,  ,  ,  ,  ,  ,  , 0=0+0:0:0:0:0
G locrian (1#),  ,  ,  ,  ,  ,  ,  ,  ,  ,  ,  ,  ,  ,  ,  ,  ,  ,  ,  ,  ,  ,  ,  ,  ,  ,  ,  ,  ,  ,  ,  ,  ,  ,  ,  ,  ,  ,  ,  ,  ,  ,  ,  ,  ,  ,  ,  ,  ,  ,  ,  ,  ,  ,  ,  ,  ,  ,  ,  ,  ,  ,  ,  ,  ,  ,  ,  ,  ,  ,  ,  ,  ,  ,  , 0=0+0:0:0:0:0
Bb major (2b), 0=0+0:0:0:0:0, 4=2+2:1:0:0:2, 0=0+0:0:0:0:0, 0=0+0:0:0:0:0, 3=2+1:0:0:0:0, 2=1+1:0:0:0:0, 1=1+0:0:0:0:0, 2=1+1:0:0:0:0, 7=5+2:0:0:0:1, 3=1+2:2:0:0:2, 1=1+0:0:0:0:0, 0=0+0:0:0:0:0, 0=0+0:0:0:0:0, 4=2+2:1:0:0:2, 0=0+0:0:0:0:0, 0=0+0:0:0:0:0, 3=2+1:0:0:0:0, 2=1+1:0:0:0:0, 1=1+0:0:0:0:0, 2=1+1:0:0:0:0, 7=5+2:0:0:0:1, 3=1+2:2:0:0:2, 1=1+0:0:0:0:0, 0=0+0:0:0:0:0, 0=0+0:0:0:0:0, 4=2+2:1:0:0:2, 0=0+0:0:0:0:0, 0=0+0:0:0:0:0, 0=0+0:0:0:0:0, 1=1+0:0:0:0:0, 5=3+2:0:0:0:1, 2=1+1:0:0:0:0,  , 3=2+1:0:0:0:0, 0=0+0:0:0:0:0, 0=0+0:0:0:0:0,  , 6=2+4:0:0:0:3, 4=2+2:0:1:0:0, 4=2+2:1:0:0:2, 0=0+0:0:0:0:0, 1=1+0:0:0:0:0, 0=0+0:0:0:0:0, 0=0+0:0:0:0:0,  , 7=4+3:1:0:0:1, 3=2+1:0:0:0:0, 2=1+1:0:0:0:0, 0=0+0:0:0:0:0, 2=1+1:0:0:0:0, 3=1+2:0:0:0:0, 2=1+1:0:0:0:0, 2=1+1:0:0:0:0, 1=1+0:0:0:0:0, 1=1+0:0:0:0:0, 0=0+0:0:0:0:0, 2=1+1:0:0:0:0, 1=1+0:0:0:0:0, 4=2+2:0:0:0:0, 0=0+0:0:0:0:0, 0=0+0:0:0:0:0, 2=1+1:0:0:0:0, 3=2+1:0:1:0:0, 0=0+0:0:0:0:0,  , 1=1+0:0:0:0:0, 1=1+0:0:0:0:0, 4=2+2:0:0:0:0, 2=1+1:0:0:0:0, 2=1+1:0:0:0:0, 2=1+1:0:0:0:0, 0=0+0:0:0:0:0, 0=0+0:0:0:0:0, 0=0+0:0:0:0:0, 123=71+52:9:2:0:19
D major (2#), 1=1+0:0:0:0:0, 4=3+1:0:0:0:1, 1=1+0:0:0:0:0, 1=1+0:0:0:0:0, 4=3+1:0:0:0:0, 4=3+1:0:0:0:0, 6=5+1:0:0:0:0, 4=2+2:0:0:0:0, 5=3+2:0:0:0:1, 4=2+2:0:0:0:1, 1=1+0:0:0:0:0, 2=2+0:0:0:0:0, 2=2+0:0:0:0:0, 4=3+1:0:0:0:1, 1=1+0:0:0:0:0, 1=1+0:0:0:0:0, 4=3+1:0:0:0:0, 4=3+1:0:0:0:0, 6=5+1:0:0:0:0, 4=2+2:0:0:0:0, 5=3+2:0:0:0:1, 4=2+2:0:0:0:1, 1=1+0:0:0:0:0, 2=2+0:0:0:0:0, 2=2+0:0:0:0:0, 6=4+2:1:0:0:1, 4=4+0:0:0:0:0, 3=2+1:0:0:0:0, 1=1+0:0:0:0:0, 7=6+1:0:0:0:0, 7=5+2:1:0:0:1, 1=1+0:0:0:0:0,  , 2=2+0:0:0:0:0, 4=4+0:0:0:0:0, 1=1+0:0:0:0:0,  , 5=3+2:0:0:0:2, 6=3+3:0:0:0:3, 4=3+1:0:0:0:1, 5=3+2:0:0:0:0, 4=3+1:0:0:0:0, 2=2+0:0:0:0:0, 2=2+0:0:0:0:0,  , 10=7+3:0:0:0:1, 5=4+1:0:0:0:1, 4=3+1:1:0:0:1, 4=4+0:0:0:0:0, 6=4+2:0:0:0:0, 5=4+1:1:0:0:1, 7=5+2:0:0:0:0, 3=2+1:0:0:0:1, 2=1+1:0:0:0:0, 7=6+1:0:0:0:0, 2=2+0:0:0:0:0, 3=3+0:0:0:0:0, 5=3+2:0:0:0:0, 6=4+2:0:0:0:1, 2=2+0:0:0:0:0, 0=0+0:0:0:0:0, 5=4+1:0:0:0:0, 6=4+2:0:0:0:0, 4=3+1:0:0:0:0,  , 6=5+1:0:0:0:0, 6=5+1:0:0:0:0, 2=2+0:0:0:0:0, 3=2+1:0:0:0:0, 4=3+1:0:0:0:0, 5=4+1:0:0:0:1, 4=4+0:0:0:0:0, 2=2+0:0:0:0:0, 1=1+0:0:0:0:0, 260=199+61:4:0:0:21
G minor (2b), 0=0+0:0:0:0:0, 4=2+2:1:0:0:2, 0=0+0:0:0:0:0, 0=0+0:0:0:0:0, 3=2+1:0:0:0:0, 2=1+1:0:0:0:0, 1=1+0:0:0:0:0, 2=1+1:0:0:0:0, 7=5+2:0:0:0:1, 2=1+1:0:0:0:0, 3=1+2:0:0:0:0, 0=0+0:0:0:0:0, 0=0+0:0:0:0:0, 4=2+2:1:0:0:2, 0=0+0:0:0:0:0, 0=0+0:0:0:0:0, 3=2+1:0:0:0:0, 2=1+1:0:0:0:0, 1=1+0:0:0:0:0, 2=1+1:0:0:0:0, 7=5+2:0:0:0:1, 2=1+1:0:0:0:0, 3=1+2:0:0:0:0, 0=0+0:0:0:0:0, 0=0+0:0:0:0:0, 4=2+2:1:0:0:2, 0=0+0:0:0:0:0, 0=0+0:0:0:0:0, 0=0+0:0:0:0:0, 1=1+0:0:0:0:0, 5=3+2:0:0:0:1, 2=1+1:0:0:0:0,  , 2=2+0:0:0:0:0, 0=0+0:0:0:0:0, 0=0+0:0:0:0:0,  , 6=2+4:0:0:0:0, 4=2+2:0:1:0:1, 4=2+2:1:0:0:1, 0=0+0:0:0:0:0, 1=1+0:0:0:0:0, 0=0+0:0:0:0:0, 0=0+0:0:0:0:0,  , 7=4+3:1:0:0:1, 3=2+1:0:0:0:0, 2=1+1:0:0:0:0, 0=0+0:0:0:0:0, 2=1+1:0:0:0:0, 3=1+2:0:0:0:0, 2=1+1:0:0:0:0, 2=1+1:0:0:0:0, 1=1+0:0:0:0:0, 1=1+0:0:0:0:0, 0=0+0:0:0:0:0, 2=1+1:0:0:0:0, 1=1+0:0:0:0:0, 4=2+2:0:0:0:0, 0=0+0:0:0:0:0, 0=0+0:0:0:0:0, 2=1+1:0:0:0:0, 3=2+1:0:1:0:1, 0=0+0:0:0:0:0,  , 1=1+0:0:0:0:0, 1=1+0:0:0:0:0, 4=2+2:0:0:0:0, 2=1+1:0:0:0:0, 2=1+1:0:0:0:0, 2=1+1:0:0:0:0, 0=0+0:0:0:0:0, 0=0+0:0:0:0:0, 0=0+0:0:0:0:0, 124=71+53:5:2:0:13
B minor (2#), 2=1+1:0:0:0:0, 3=3+0:0:0:0:0, 1=1+0:0:0:0:0, 1=1+0:0:0:0:0, 5=3+2:0:0:0:0, 4=3+1:0:0:0:0, 5=5+0:0:0:0:0, 2=2+0:0:0:0:0, 5=3+2:0:0:0:1, 4=2+2:0:0:0:1, 1=1+0:0:0:0:0, 2=2+0:0:0:0:0, 3=2+1:0:0:0:0, 3=3+0:0:0:0:0, 1=1+0:0:0:0:0, 1=1+0:0:0:0:0, 5=3+2:0:0:0:0, 4=3+1:0:0:0:0, 5=5+0:0:0:0:0, 2=2+0:0:0:0:0, 5=3+2:0:0:0:1, 4=2+2:0:0:0:1, 1=1+0:0:0:0:0, 2=2+0:0:0:0:0, 3=2+1:0:0:0:0, 6=4+2:1:0:0:1, 4=4+0:0:0:0:0, 3=2+1:0:0:0:0, 1=1+0:0:0:0:0, 7=6+1:0:0:0:0, 7=5+2:1:0:0:1, 1=1+0:0:0:0:0,  , 2=2+0:0:0:0:0, 7=4+3:0:0:0:0, 1=1+0:0:0:0:0,  , 5=3+2:0:0:0:2, 6=3+3:0:0:0:3, 4=3+1:0:0:0:1, 5=3+2:0:0:0:0, 4=3+1:0:0:0:0, 2=2+0:0:0:0:0, 2=2+0:0:0:0:0,  , 10=7+3:0:0:0:1, 7=4+3:0:0:0:0, 5=3+2:0:0:0:1, 6=4+2:0:0:0:0, 6=4+2:1:0:0:1, 7=5+2:0:0:0:1, 7=5+2:0:0:0:0, 3=2+1:1:0:0:1, 2=1+1:0:0:0:0, 6=6+0:0:0:0:0, 2=2+0:0:0:0:0, 5=3+2:2:0:0:0, 5=3+2:0:0:0:0, 6=4+2:0:0:0:1, 2=2+0:0:0:0:0, 0=0+0:0:0:0:0, 5=4+1:0:0:0:0, 6=4+2:0:0:0:0, 4=3+1:0:0:0:0,  , 6=5+1:0:0:0:0, 6=5+1:0:0:0:0, 2=2+0:0:0:0:0, 3=2+1:0:0:0:0, 6=3+3:0:0:0:3, 5=4+1:0:0:0:1, 4=4+0:0:0:0:0, 3=2+1:0:0:0:0, 1=1+0:0:0:0:0, 271=200+71:6:0:0:22
G minor mel (2b),  ,  ,  ,  ,  ,  ,  ,  ,  ,  ,  ,  ,  ,  ,  ,  ,  ,  ,  ,  ,  ,  ,  ,  ,  ,  ,  ,  ,  ,  ,  ,  ,  ,  ,  ,  ,  ,  ,  ,  ,  ,  ,  ,  ,  ,  ,  ,  ,  ,  ,  ,  ,  ,  ,  ,  ,  ,  ,  ,  ,  ,  ,  ,  ,  ,  ,  ,  ,  ,  ,  ,  ,  ,  , 0=0+0:0:0:0:0
B minor mel (2#),  ,  ,  ,  ,  ,  ,  ,  ,  ,  ,  ,  ,  ,  ,  ,  ,  ,  ,  ,  ,  ,  ,  ,  ,  ,  ,  ,  ,  ,  ,  ,  ,  ,  ,  ,  ,  ,  ,  ,  ,  ,  ,  ,  ,  ,  ,  ,  ,  ,  ,  ,  ,  ,  ,  ,  ,  ,  ,  ,  ,  ,  ,  ,  ,  ,  ,  ,  ,  ,  ,  ,  ,  ,  , 0=0+0:0:0:0:0
Bb major blues (2b),  ,  ,  ,  ,  ,  ,  ,  ,  ,  ,  ,  ,  ,  ,  ,  ,  ,  ,  ,  ,  ,  ,  ,  ,  ,  ,  ,  ,  ,  ,  ,  ,  ,  ,  ,  ,  ,  ,  ,  ,  ,  ,  ,  ,  ,  ,  ,  ,  ,  ,  ,  ,  ,  ,  ,  ,  ,  ,  ,  ,  ,  ,  ,  ,  ,  ,  ,  ,  ,  ,  ,  ,  ,  , 0=0+0:0:0:0:0
D major blues (2#),  ,  ,  ,  ,  ,  ,  ,  ,  ,  ,  ,  ,  ,  ,  ,  ,  ,  ,  ,  ,  ,  ,  ,  ,  ,  ,  ,  ,  ,  ,  ,  ,  ,  ,  ,  ,  ,  ,  ,  ,  ,  ,  ,  ,  ,  ,  ,  ,  ,  ,  ,  ,  ,  ,  ,  ,  ,  ,  ,  ,  ,  ,  ,  ,  ,  ,  ,  ,  ,  ,  ,  ,  ,  , 0=0+0:0:0:0:0
G minor blues (2b),  ,  ,  ,  ,  ,  ,  ,  ,  ,  ,  ,  ,  ,  ,  ,  ,  ,  ,  ,  ,  ,  ,  ,  ,  ,  ,  ,  ,  ,  ,  ,  ,  ,  ,  ,  ,  ,  ,  ,  ,  ,  ,  ,  ,  ,  ,  ,  ,  ,  ,  ,  ,  ,  ,  ,  ,  ,  ,  ,  ,  ,  ,  ,  ,  ,  ,  ,  ,  ,  ,  ,  ,  ,  , 0=0+0:0:0:0:0
B minor blues (2#),  ,  ,  ,  ,  ,  ,  ,  ,  ,  ,  ,  ,  ,  ,  ,  ,  ,  ,  ,  ,  ,  ,  ,  ,  ,  ,  ,  ,  ,  ,  ,  ,  ,  ,  ,  ,  ,  ,  ,  ,  ,  ,  ,  ,  ,  ,  ,  ,  ,  ,  ,  ,  ,  ,  ,  ,  ,  ,  ,  ,  ,  ,  ,  ,  ,  ,  ,  ,  ,  ,  ,  ,  ,  , 0=0+0:0:0:0:0
Bb dorian (2b),  ,  ,  ,  ,  ,  ,  ,  ,  ,  ,  ,  ,  ,  ,  ,  ,  ,  ,  ,  ,  ,  ,  ,  ,  ,  ,  ,  ,  ,  ,  ,  ,  ,  ,  ,  ,  ,  ,  ,  ,  ,  ,  ,  ,  ,  ,  ,  ,  ,  ,  ,  ,  ,  ,  ,  ,  ,  ,  ,  ,  ,  ,  ,  ,  ,  ,  ,  ,  ,  ,  ,  ,  ,  , 0=0+0:0:0:0:0
D dorian (2#),  ,  ,  ,  ,  ,  ,  ,  ,  ,  ,  ,  ,  ,  ,  ,  ,  ,  ,  ,  ,  ,  ,  ,  ,  ,  ,  ,  ,  ,  ,  ,  ,  ,  ,  ,  ,  ,  ,  ,  ,  ,  ,  ,  ,  ,  ,  ,  ,  ,  ,  ,  ,  ,  ,  ,  ,  ,  ,  ,  ,  ,  ,  ,  ,  ,  ,  ,  ,  ,  ,  ,  ,  ,  , 0=0+0:0:0:0:0
Bb phrygian (2b),  ,  ,  ,  ,  ,  ,  ,  ,  ,  ,  ,  ,  ,  ,  ,  ,  ,  ,  ,  ,  ,  ,  ,  ,  ,  ,  ,  ,  ,  ,  ,  ,  ,  ,  ,  ,  ,  ,  ,  ,  ,  ,  ,  ,  ,  ,  ,  ,  ,  ,  ,  ,  ,  ,  ,  ,  ,  ,  ,  ,  ,  ,  ,  ,  ,  ,  ,  ,  ,  ,  ,  ,  ,  , 0=0+0:0:0:0:0
D phrygian (2#),  ,  ,  ,  ,  ,  ,  ,  ,  ,  ,  ,  ,  ,  ,  ,  ,  ,  ,  ,  ,  ,  ,  ,  ,  ,  ,  ,  ,  ,  ,  ,  ,  ,  ,  ,  ,  ,  ,  ,  ,  ,  ,  ,  ,  ,  ,  ,  ,  ,  ,  ,  ,  ,  ,  ,  ,  ,  ,  ,  ,  ,  ,  ,  ,  ,  ,  ,  ,  ,  ,  ,  ,  ,  , 0=0+0:0:0:0:0
Bb lydian (2b),  ,  ,  ,  ,  ,  ,  ,  ,  ,  ,  ,  ,  ,  ,  ,  ,  ,  ,  ,  ,  ,  ,  ,  ,  ,  ,  ,  ,  ,  ,  ,  ,  ,  ,  ,  ,  ,  ,  ,  ,  ,  ,  ,  ,  ,  ,  ,  ,  ,  ,  ,  ,  ,  ,  ,  ,  ,  ,  ,  ,  ,  ,  ,  ,  ,  ,  ,  ,  ,  ,  ,  ,  ,  , 0=0+0:0:0:0:0
D lydian (2#),  ,  ,  ,  ,  ,  ,  ,  ,  ,  ,  ,  ,  ,  ,  ,  ,  ,  ,  ,  ,  ,  ,  ,  ,  ,  ,  ,  ,  ,  ,  ,  ,  ,  ,  ,  ,  ,  ,  ,  ,  ,  ,  ,  ,  ,  ,  ,  ,  ,  ,  ,  ,  ,  ,  ,  ,  ,  ,  ,  ,  ,  ,  ,  ,  ,  ,  ,  ,  ,  ,  ,  ,  ,  , 0=0+0:0:0:0:0
Bb mixolydian (2b),  ,  ,  ,  ,  ,  ,  ,  ,  ,  ,  ,  ,  ,  ,  ,  ,  ,  ,  ,  ,  ,  ,  ,  ,  ,  ,  ,  ,  ,  ,  ,  ,  ,  ,  ,  ,  ,  ,  ,  ,  ,  ,  ,  ,  ,  ,  ,  ,  ,  ,  ,  ,  ,  ,  ,  ,  ,  ,  ,  ,  ,  ,  ,  ,  ,  ,  ,  ,  ,  ,  ,  ,  ,  , 0=0+0:0:0:0:0
D mixolydian (2#),  ,  ,  ,  ,  ,  ,  ,  ,  ,  ,  ,  ,  ,  ,  ,  ,  ,  ,  ,  ,  ,  ,  ,  ,  ,  ,  ,  ,  ,  ,  ,  ,  ,  ,  ,  ,  ,  ,  ,  ,  ,  ,  ,  ,  ,  ,  ,  ,  ,  ,  ,  ,  ,  ,  ,  ,  ,  ,  ,  ,  ,  ,  ,  ,  ,  ,  ,  ,  ,  ,  ,  ,  ,  , 0=0+0:0:0:0:0
Bb aeolian (2b),  ,  ,  ,  ,  ,  ,  ,  ,  ,  ,  ,  ,  ,  ,  ,  ,  ,  ,  ,  ,  ,  ,  ,  ,  ,  ,  ,  ,  ,  ,  ,  ,  ,  ,  ,  ,  ,  ,  ,  ,  ,  ,  ,  ,  ,  ,  ,  ,  ,  ,  ,  ,  ,  ,  ,  ,  ,  ,  ,  ,  ,  ,  ,  ,  ,  ,  ,  ,  ,  ,  ,  ,  ,  , 0=0+0:0:0:0:0
D aeolian (2#),  ,  ,  ,  ,  ,  ,  ,  ,  ,  ,  ,  ,  ,  ,  ,  ,  ,  ,  ,  ,  ,  ,  ,  ,  ,  ,  ,  ,  ,  ,  ,  ,  ,  ,  ,  ,  ,  ,  ,  ,  ,  ,  ,  ,  ,  ,  ,  ,  ,  ,  ,  ,  ,  ,  ,  ,  ,  ,  ,  ,  ,  ,  ,  ,  ,  ,  ,  ,  ,  ,  ,  ,  ,  , 0=0+0:0:0:0:0
Bb locrian (2b),  ,  ,  ,  ,  ,  ,  ,  ,  ,  ,  ,  ,  ,  ,  ,  ,  ,  ,  ,  ,  ,  ,  ,  ,  ,  ,  ,  ,  ,  ,  ,  ,  ,  ,  ,  ,  ,  ,  ,  ,  ,  ,  ,  ,  ,  ,  ,  ,  ,  ,  ,  ,  ,  ,  ,  ,  ,  ,  ,  ,  ,  ,  ,  ,  ,  ,  ,  ,  ,  ,  ,  ,  ,  , 0=0+0:0:0:0:0
D locrian (2#),  ,  ,  ,  ,  ,  ,  ,  ,  ,  ,  ,  ,  ,  ,  ,  ,  ,  ,  ,  ,  ,  ,  ,  ,  ,  ,  ,  ,  ,  ,  ,  ,  ,  ,  ,  ,  ,  ,  ,  ,  ,  ,  ,  ,  ,  ,  ,  ,  ,  ,  ,  ,  ,  ,  ,  ,  ,  ,  ,  ,  ,  ,  ,  ,  ,  ,  ,  ,  ,  ,  ,  ,  ,  , 0=0+0:0:0:0:0
Eb major (3b), 0=0+0:0:0:0:0, 3=2+1:0:0:0:0, 0=0+0:0:0:0:0, 0=0+0:0:0:0:0, 2=1+1:0:0:0:0, 3=2+1:0:0:0:0, 0=0+0:0:0:0:0, 2=1+1:0:0:0:0, 7=5+2:0:0:0:1, 3=1+2:2:0:0:2, 1=1+0:0:0:0:0, 0=0+0:0:0:0:0, 0=0+0:0:0:0:0, 4=2+2:0:0:0:1, 0=0+0:0:0:0:0, 0=0+0:0:0:0:0, 2=1+1:0:0:0:0, 3=2+1:0:0:0:0, 0=0+0:0:0:0:0, 2=1+1:0:0:0:0, 7=5+2:0:0:0:1, 3=1+2:2:0:0:2, 1=1+0:0:0:0:0, 0=0+0:0:0:0:0, 0=0+0:0:0:0:0, 4=2+2:0:0:0:1, 1=1+0:0:0:0:0, 1=1+0:0:0:0:0, 0=0+0:0:0:0:0, 0=0+0:0:0:0:0, 4=2+2:0:0:0:1, 3=2+1:0:0:0:0,  , 3=2+1:0:0:0:0, 1=1+0:0:0:0:0, 1=1+0:0:0:0:0,  , 5=1+4:0:0:0:3, 3=1+2:0:1:0:0, 4=2+2:0:0:0:1, 1=1+0:0:0:0:0, 0=0+0:0:0:0:0, 0=0+0:0:0:0:0, 1=1+0:0:0:0:0,  , 7=4+3:1:0:0:1, 4=3+1:0:0:0:0, 2=1+1:0:0:0:0, 1=1+0:0:0:0:0, 3=2+1:0:0:0:0, 4=2+2:0:0:0:0, 3=2+1:0:0:0:0, 2=1+1:0:0:0:0, 0=0+0:0:0:0:0, 0=0+0:0:0:0:0, 1=1+0:0:0:0:0, 3=2+1:0:0:0:0, 1=1+0:0:0:0:0, 5=3+2:0:0:0:0, 1=1+0:0:0:0:0, 0=0+0:0:0:0:0, 3=2+1:0:0:0:0, 2=1+1:0:1:0:0, 0=0+0:0:0:0:0,  , 0=0+0:0:0:0:0, 0=0+0:0:0:0:0, 5=3+2:0:0:0:0, 3=2+1:0:0:0:0, 2=1+1:0:0:0:0, 2=1+1:0:0:0:0, 1=1+0:0:0:0:0, 1=1+0:0:0:0:0, 0=0+0:0:0:0:0, 131=80+51:5:2:0:14
A major (3#), 1=1+0:0:0:0:0, 2=2+0:0:0:0:0, 1=1+0:0:0:0:0, 1=1+0:0:0:0:0, 4=2+2:0:0:0:0, 5=3+2:0:0:0:0, 7=5+2:0:0:0:0, 2=2+0:0:0:0:0, 6=4+2:0:0:0:1, 5=3+2:0:0:0:1, 1=1+0:0:0:0:0, 2=2+0:0:0:0:0, 2=2+0:0:0:0:0, 2=2+0:0:0:0:0, 1=1+0:0:0:0:0, 1=1+0:0:0:0:0, 4=2+2:0:0:0:0, 5=3+2:0:0:0:0, 7=5+2:0:0:0:0, 2=2+0:0:0:0:0, 6=4+2:0:0:0:1, 5=3+2:0:0:0:1, 1=1+0:0:0:0:0, 2=2+0:0:0:0:0, 2=2+0:0:0:0:0, 6=4+2:0:0:0:2, 4=4+0:0:0:0:0, 4=3+1:0:0:0:0, 1=1+0:0:0:0:0, 8=7+1:0:0:0:0, 8=4+4:1:0:0:1, 1=1+0:0:0:0:0,  , 3=3+0:0:0:0:0, 7=4+3:0:0:0:0, 2=2+0:0:0:0:0,  , 4=2+2:0:0:0:2, 5=2+3:0:0:0:3, 3=2+1:0:0:0:1, 6=4+2:0:0:0:0, 6=5+1:0:0:0:0, 2=2+0:0:0:0:0, 2=2+0:0:0:0:0,  , 11=7+4:1:0:0:3, 10=5+5:0:0:0:1, 5=3+2:0:0:0:1, 4=4+0:0:0:0:0, 8=5+3:0:0:0:0, 8=4+4:1:0:0:1, 9=6+3:0:0:0:0, 3=2+1:0:0:0:1, 1=1+0:0:0:0:0, 8=7+1:0:0:0:0, 2=2+0:0:0:0:0, 6=4+2:2:0:0:0, 5=3+2:0:0:0:0, 9=5+4:0:0:0:1, 2=2+0:0:0:0:0, 1=1+0:0:0:0:0, 6=5+1:0:0:0:0, 6=4+2:1:0:0:1, 5=4+1:0:0:0:0,  , 5=4+1:1:0:0:1, 5=4+1:1:0:0:1, 2=2+0:0:0:0:0, 5=3+2:0:0:0:0, 8=5+3:0:0:0:3, 6=4+2:0:0:0:1, 4=4+0:0:0:0:0, 3=3+0:0:0:0:0, 1=1+0:0:0:0:0, 297=213+84:8:0:0:28
C minor (3b), 0=0+0:0:0:0:0, 3=2+1:0:0:0:0, 0=0+0:0:0:0:0, 0=0+0:0:0:0:0, 2=1+1:0:0:0:0, 3=2+1:0:0:0:0, 0=0+0:0:0:0:0, 2=1+1:0:0:0:0, 7=5+2:0:0:0:1, 2=1+1:0:0:0:0, 1=1+0:0:0:0:0, 0=0+0:0:0:0:0, 0=0+0:0:0:0:0, 3=2+1:0:0:0:0, 0=0+0:0:0:0:0, 0=0+0:0:0:0:0, 2=1+1:0:0:0:0, 3=2+1:0:0:0:0, 0=0+0:0:0:0:0, 2=1+1:0:0:0:0, 7=5+2:0:0:0:1, 2=1+1:0:0:0:0, 1=1+0:0:0:0:0, 0=0+0:0:0:0:0, 0=0+0:0:0:0:0, 4=2+2:0:0:0:1, 3=1+2:0:0:0:0, 1=1+0:0:0:0:0, 0=0+0:0:0:0:0, 0=0+0:0:0:0:0, 4=2+2:0:0:0:1, 3=2+1:0:0:0:0,  , 2=2+0:0:0:0:0, 1=1+0:0:0:0:0, 1=1+0:0:0:0:0,  , 5=1+4:0:0:0:3, 3=1+2:0:1:0:0, 4=2+2:0:0:0:1, 1=1+0:0:0:0:0, 0=0+0:0:0:0:0, 0=0+0:0:0:0:0, 1=1+0:0:0:0:0,  , 7=4+3:0:0:0:1, 7=3+4:0:0:0:0, 1=1+0:0:0:0:0, 1=1+0:0:0:0:0, 3=2+1:0:0:0:0, 4=2+2:0:0:0:0, 4=2+2:0:0:0:0, 2=1+1:0:0:0:0, 0=0+0:0:0:0:0, 0=0+0:0:0:0:0, 1=1+0:0:0:0:0, 2=2+0:0:0:0:0, 1=1+0:0:0:0:0, 5=3+2:0:0:0:0, 1=1+0:0:0:0:0, 0=0+0:0:0:0:0, 3=2+1:0:0:0:0, 2=1+1:0:1:0:0, 0=0+0:0:0:0:0,  , 0=0+0:0:0:0:0, 0=0+0:0:0:0:0, 5=3+2:0:0:0:0, 3=2+1:0:0:0:0, 1=1+0:0:0:0:0, 2=1+1:0:0:0:0, 1=1+0:0:0:0:0, 1=1+0:0:0:0:0, 0=0+0:0:0:0:0, 130=80+50:0:2:0:9
F# minor (3#), 1=1+0:0:0:0:0, 2=2+0:0:0:0:0, 1=1+0:0:0:0:0, 1=1+0:0:0:0:0, 4=2+2:1:0:0:1, 4=3+1:0:0:0:0, 5=5+0:0:0:0:0, 2=2+0:0:0:0:0, 5=4+1:0:0:0:0, 5=3+2:0:0:0:1, 1=1+0:0:0:0:0, 2=2+0:0:0:0:0, 2=2+0:0:0:0:0, 2=2+0:0:0:0:0, 1=1+0:0:0:0:0, 1=1+0:0:0:0:0, 4=2+2:1:0:0:1, 4=3+1:0:0:0:0, 5=5+0:0:0:0:0, 2=2+0:0:0:0:0, 5=4+1:0:0:0:0, 5=3+2:0:0:0:1, 1=1+0:0:0:0:0, 2=2+0:0:0:0:0, 2=2+0:0:0:0:0, 6=4+2:0:0:0:2, 6=4+2:0:0:0:0, 4=3+1:0:0:0:0, 1=1+0:0:0:0:0, 7=7+0:0:0:0:0, 7=4+3:1:0:0:2, 1=1+0:0:0:0:0,  , 3=3+0:0:0:0:0, 6=4+2:0:0:0:0, 2=2+0:0:0:0:0,  , 4=2+2:0:0:0:2, 5=2+3:0:0:0:3, 3=2+1:0:0:0:1, 6=4+2:0:0:0:0, 5=5+0:0:0:0:0, 2=2+0:0:0:0:0, 5=2+3:0:0:0:0,  , 11=8+3:1:0:0:2, 11=6+5:0:0:0:4, 4=4+0:0:0:0:0, 5=4+1:0:0:0:1, 7=5+2:1:0:0:1, 6=4+2:1:0:0:1, 8=6+2:0:0:0:0, 3=2+1:1:0:0:1, 1=1+0:0:0:0:0, 7=7+0:0:0:0:0, 3=2+1:0:0:0:0, 5=4+1:1:0:0:1, 4=3+1:0:0:0:1, 8=6+2:0:0:0:2, 3=2+1:0:0:0:1, 1=1+0:0:0:0:0, 6=5+1:0:0:0:1, 6=5+1:0:0:0:1, 4=4+0:0:0:0:0,  , 5=5+0:0:0:0:0, 5=5+0:0:0:0:0, 5=2+3:0:0:0:2, 4=3+1:1:0:0:1, 8=5+3:0:0:0:3, 6=4+2:0:0:0:1, 6=4+2:0:0:0:0, 3=3+0:0:0:0:0, 1=1+0:0:0:0:0, 288=220+68:9:0:0:38
C minor mel (3b),  ,  ,  ,  ,  ,  ,  ,  ,  ,  ,  ,  ,  ,  ,  ,  ,  ,  ,  ,  ,  ,  ,  ,  ,  ,  ,  ,  ,  ,  ,  ,  ,  ,  ,  ,  ,  ,  ,  ,  ,  ,  ,  ,  ,  ,  ,  ,  ,  ,  ,  ,  ,  ,  ,  ,  ,  ,  ,  ,  ,  ,  ,  ,  ,  ,  ,  ,  ,  ,  ,  ,  ,  ,  , 0=0+0:0:0:0:0
F# minor mel (3#),  ,  ,  ,  ,  ,  ,  ,  ,  ,  ,  ,  ,  ,  ,  ,  ,  ,  ,  ,  ,  ,  ,  ,  ,  ,  ,  ,  ,  ,  ,  ,  ,  ,  ,  ,  ,  ,  ,  ,  ,  ,  ,  ,  ,  ,  ,  ,  ,  ,  ,  ,  ,  ,  ,  ,  ,  ,  ,  ,  ,  ,  ,  ,  ,  ,  ,  ,  ,  ,  ,  ,  ,  ,  , 0=0+0:0:0:0:0
Eb major blues (3b),  ,  ,  ,  ,  ,  ,  ,  ,  ,  ,  ,  ,  ,  ,  ,  ,  ,  ,  ,  ,  ,  ,  ,  ,  ,  ,  ,  ,  ,  ,  ,  ,  ,  ,  ,  ,  ,  ,  ,  ,  ,  ,  ,  ,  ,  ,  ,  ,  ,  ,  ,  ,  ,  ,  ,  ,  ,  ,  ,  ,  ,  ,  ,  ,  ,  ,  ,  ,  ,  ,  ,  ,  ,  , 0=0+0:0:0:0:0
A major blues (3#),  ,  ,  ,  ,  ,  ,  ,  ,  ,  ,  ,  ,  ,  ,  ,  ,  ,  ,  ,  ,  ,  ,  ,  ,  ,  ,  ,  ,  ,  ,  ,  ,  ,  ,  ,  ,  ,  ,  ,  ,  ,  ,  ,  ,  ,  ,  ,  ,  ,  ,  ,  ,  ,  ,  ,  ,  ,  ,  ,  ,  ,  ,  ,  ,  ,  ,  ,  ,  ,  ,  ,  ,  ,  , 0=0+0:0:0:0:0
C minor blues (3b),  ,  ,  ,  ,  ,  ,  ,  ,  ,  ,  ,  ,  ,  ,  ,  ,  ,  ,  ,  ,  ,  ,  ,  ,  ,  ,  ,  ,  ,  ,  ,  ,  ,  ,  ,  ,  ,  ,  ,  ,  ,  ,  ,  ,  ,  ,  ,  ,  ,  ,  ,  ,  ,  ,  ,  ,  ,  ,  ,  ,  ,  ,  ,  ,  ,  ,  ,  ,  ,  ,  ,  ,  ,  , 0=0+0:0:0:0:0
F# minor blues (3#),  ,  ,  ,  ,  ,  ,  ,  ,  ,  ,  ,  ,  ,  ,  ,  ,  ,  ,  ,  ,  ,  ,  ,  ,  ,  ,  ,  ,  ,  ,  ,  ,  ,  ,  ,  ,  ,  ,  ,  ,  ,  ,  ,  ,  ,  ,  ,  ,  ,  ,  ,  ,  ,  ,  ,  ,  ,  ,  ,  ,  ,  ,  ,  ,  ,  ,  ,  ,  ,  ,  ,  ,  ,  , 0=0+0:0:0:0:0
Eb dorian (3b),  ,  ,  ,  ,  ,  ,  ,  ,  ,  ,  ,  ,  ,  ,  ,  ,  ,  ,  ,  ,  ,  ,  ,  ,  ,  ,  ,  ,  ,  ,  ,  ,  ,  ,  ,  ,  ,  ,  ,  ,  ,  ,  ,  ,  ,  ,  ,  ,  ,  ,  ,  ,  ,  ,  ,  ,  ,  ,  ,  ,  ,  ,  ,  ,  ,  ,  ,  ,  ,  ,  ,  ,  ,  , 0=0+0:0:0:0:0
A dorian (3#),  ,  ,  ,  ,  ,  ,  ,  ,  ,  ,  ,  ,  ,  ,  ,  ,  ,  ,  ,  ,  ,  ,  ,  ,  ,  ,  ,  ,  ,  ,  ,  ,  ,  ,  ,  ,  ,  ,  ,  ,  ,  ,  ,  ,  ,  ,  ,  ,  ,  ,  ,  ,  ,  ,  ,  ,  ,  ,  ,  ,  ,  ,  ,  ,  ,  ,  ,  ,  ,  ,  ,  ,  ,  , 0=0+0:0:0:0:0
Eb phrygian (3b),  ,  ,  ,  ,  ,  ,  ,  ,  ,  ,  ,  ,  ,  ,  ,  ,  ,  ,  ,  ,  ,  ,  ,  ,  ,  ,  ,  ,  ,  ,  ,  ,  ,  ,  ,  ,  ,  ,  ,  ,  ,  ,  ,  ,  ,  ,  ,  ,  ,  ,  ,  ,  ,  ,  ,  ,  ,  ,  ,  ,  ,  ,  ,  ,  ,  ,  ,  ,  ,  ,  ,  ,  ,  , 0=0+0:0:0:0:0
A phrygian (3#),  ,  ,  ,  ,  ,  ,  ,  ,  ,  ,  ,  ,  ,  ,  ,  ,  ,  ,  ,  ,  ,  ,  ,  ,  ,  ,  ,  ,  ,  ,  ,  ,  ,  ,  ,  ,  ,  ,  ,  ,  ,  ,  ,  ,  ,  ,  ,  ,  ,  ,  ,  ,  ,  ,  ,  ,  ,  ,  ,  ,  ,  ,  ,  ,  ,  ,  ,  ,  ,  ,  ,  ,  ,  , 0=0+0:0:0:0:0
Eb lydian (3b),  ,  ,  ,  ,  ,  ,  ,  ,  ,  ,  ,  ,  ,  ,  ,  ,  ,  ,  ,  ,  ,  ,  ,  ,  ,  ,  ,  ,  ,  ,  ,  ,  ,  ,  ,  ,  ,  ,  ,  ,  ,  ,  ,  ,  ,  ,  ,  ,  ,  ,  ,  ,  ,  ,  ,  ,  ,  ,  ,  ,  ,  ,  ,  ,  ,  ,  ,  ,  ,  ,  ,  ,  ,  , 0=0+0:0:0:0:0
A lydian (3#),  ,  ,  ,  ,  ,  ,  ,  ,  ,  ,  ,  ,  ,  ,  ,  ,  ,  ,  ,  ,  ,  ,  ,  ,  ,  ,  ,  ,  ,  ,  ,  ,  ,  ,  ,  ,  ,  ,  ,  ,  ,  ,  ,  ,  ,  ,  ,  ,  ,  ,  ,  ,  ,  ,  ,  ,  ,  ,  ,  ,  ,  ,  ,  ,  ,  ,  ,  ,  ,  ,  ,  ,  ,  , 0=0+0:0:0:0:0
Eb mixolydian (3b),  ,  ,  ,  ,  ,  ,  ,  ,  ,  ,  ,  ,  ,  ,  ,  ,  ,  ,  ,  ,  ,  ,  ,  ,  ,  ,  ,  ,  ,  ,  ,  ,  ,  ,  ,  ,  ,  ,  ,  ,  ,  ,  ,  ,  ,  ,  ,  ,  ,  ,  ,  ,  ,  ,  ,  ,  ,  ,  ,  ,  ,  ,  ,  ,  ,  ,  ,  ,  ,  ,  ,  ,  ,  , 0=0+0:0:0:0:0
A mixolydian (3#),  ,  ,  ,  ,  ,  ,  ,  ,  ,  ,  ,  ,  ,  ,  ,  ,  ,  ,  ,  ,  ,  ,  ,  ,  ,  ,  ,  ,  ,  ,  ,  ,  ,  ,  ,  ,  ,  ,  ,  ,  ,  ,  ,  ,  ,  ,  ,  ,  ,  ,  ,  ,  ,  ,  ,  ,  ,  ,  ,  ,  ,  ,  ,  ,  ,  ,  ,  ,  ,  ,  ,  ,  ,  , 0=0+0:0:0:0:0
Eb aeolian (3b),  ,  ,  ,  ,  ,  ,  ,  ,  ,  ,  ,  ,  ,  ,  ,  ,  ,  ,  ,  ,  ,  ,  ,  ,  ,  ,  ,  ,  ,  ,  ,  ,  ,  ,  ,  ,  ,  ,  ,  ,  ,  ,  ,  ,  ,  ,  ,  ,  ,  ,  ,  ,  ,  ,  ,  ,  ,  ,  ,  ,  ,  ,  ,  ,  ,  ,  ,  ,  ,  ,  ,  ,  ,  , 0=0+0:0:0:0:0
A aeolian (3#),  ,  ,  ,  ,  ,  ,  ,  ,  ,  ,  ,  ,  ,  ,  ,  ,  ,  ,  ,  ,  ,  ,  ,  ,  ,  ,  ,  ,  ,  ,  ,  ,  ,  ,  ,  ,  ,  ,  ,  ,  ,  ,  ,  ,  ,  ,  ,  ,  ,  ,  ,  ,  ,  ,  ,  ,  ,  ,  ,  ,  ,  ,  ,  ,  ,  ,  ,  ,  ,  ,  ,  ,  ,  , 0=0+0:0:0:0:0
Eb locrian (3b),  ,  ,  ,  ,  ,  ,  ,  ,  ,  ,  ,  ,  ,  ,  ,  ,  ,  ,  ,  ,  ,  ,  ,  ,  ,  ,  ,  ,  ,  ,  ,  ,  ,  ,  ,  ,  ,  ,  ,  ,  ,  ,  ,  ,  ,  ,  ,  ,  ,  ,  ,  ,  ,  ,  ,  ,  ,  ,  ,  ,  ,  ,  ,  ,  ,  ,  ,  ,  ,  ,  ,  ,  ,  , 0=0+0:0:0:0:0
A locrian (3#),  ,  ,  ,  ,  ,  ,  ,  ,  ,  ,  ,  ,  ,  ,  ,  ,  ,  ,  ,  ,  ,  ,  ,  ,  ,  ,  ,  ,  ,  ,  ,  ,  ,  ,  ,  ,  ,  ,  ,  ,  ,  ,  ,  ,  ,  ,  ,  ,  ,  ,  ,  ,  ,  ,  ,  ,  ,  ,  ,  ,  ,  ,  ,  ,  ,  ,  ,  ,  ,  ,  ,  ,  ,  , 0=0+0:0:0:0:0
Ab major (4b), 0=0+0:0:0:0:0, 4=3+1:0:0:0:0, 1=1+0:0:0:0:0, 1=1+0:0:0:0:0, 3=2+1:0:0:0:0, 3=2+1:0:0:0:0, 0=0+0:0:0:0:0, 2=1+1:0:0:0:0, 7=4+3:0:0:0:0, 4=2+2:2:0:0:2, 2=2+0:0:0:0:0, 1=1+0:0:0:0:0, 1=1+0:0:0:0:0, 5=3+2:0:0:0:1, 1=1+0:0:0:0:0, 1=1+0:0:0:0:0, 3=2+1:0:0:0:0, 3=2+1:0:0:0:0, 0=0+0:0:0:0:0, 2=1+1:0:0:0:0, 7=4+3:0:0:0:0, 4=2+2:2:0:0:2, 2=2+0:0:0:0:0, 1=1+0:0:0:0:0, 1=1+0:0:0:0:0, 4=2+2:0:0:0:1, 2=2+0:0:0:0:0, 1=1+0:0:0:0:0, 0=0+0:0:0:0:0, 1=1+0:0:0:0:0, 4=2+2:0:0:0:1, 4=3+1:0:0:0:0,  , 4=3+1:0:0:0:0, 2=2+0:0:0:0:0, 1=1+0:0:0:0:0,  , 5=1+4:0:0:0:3, 3=1+2:0:1:0:0, 4=2+2:0:0:0:1, 2=2+0:0:0:0:0, 1=1+0:0:0:0:0, 0=0+0:0:0:0:0, 1=1+0:0:0:0:0,  , 8=5+3:1:0:0:2, 7=3+4:0:0:0:0, 0=0+0:0:0:0:0, 1=1+0:0:0:0:0, 4=3+1:0:0:0:0, 5=3+2:0:0:0:0, 4=3+1:0:0:0:0, 3=2+1:0:0:0:0, 0=0+0:0:0:0:0, 0=0+0:0:0:0:0, 1=1+0:0:0:0:0, 4=3+1:0:0:0:0, 2=2+0:0:0:0:0, 4=2+2:0:0:0:0, 1=1+0:0:0:0:0, 0=0+0:0:0:0:0, 3=2+1:0:0:0:1, 3=2+1:0:0:0:0, 0=0+0:0:0:0:0,  , 0=0+0:0:0:0:0, 1=1+0:0:0:0:0, 6=4+2:0:0:0:0, 4=3+1:0:0:0:0, 4=3+1:0:0:0:0, 2=1+1:0:0:0:0, 1=1+0:0:0:0:0, 2=2+0:0:0:0:0, 0=0+0:0:0:0:0, 168=113+55:5:1:0:14
E major (4#), 1=1+0:0:0:0:0, 3=3+0:0:0:0:0, 2=2+0:0:0:0:0, 6=2+4:0:0:0:0, 9=3+6:1:0:0:1, 4=3+1:0:0:0:0, 5=5+0:0:0:0:0, 2=2+0:0:0:0:0, 5=3+2:0:0:0:1, 6=4+2:0:0:0:1, 2=2+0:0:0:0:0, 3=3+0:0:0:0:0, 3=3+0:0:0:0:0, 3=3+0:0:0:0:0, 2=2+0:0:0:0:0, 6=2+4:0:0:0:0, 9=3+6:1:0:0:1, 4=3+1:0:0:0:0, 5=5+0:0:0:0:0, 2=2+0:0:0:0:0, 5=3+2:0:0:0:1, 6=4+2:0:0:0:1, 2=2+0:0:0:0:0, 3=3+0:0:0:0:0, 3=3+0:0:0:0:0, 6=4+2:0:0:0:2, 6=5+1:0:0:0:0, 6=3+3:0:0:0:0, 1=1+0:0:0:0:0, 9=8+1:0:0:0:0, 7=4+3:1:0:0:2, 2=2+0:0:0:0:0,  , 4=4+0:0:0:0:0, 8=5+3:0:0:0:0, 3=2+1:0:0:0:0,  , 4=2+2:0:0:0:2, 5=2+3:0:0:0:3, 3=2+1:0:0:0:1, 6=4+2:0:0:0:2, 6=6+0:0:0:0:0, 2=2+0:0:0:0:0, 2=2+0:0:0:0:0,  , 12=8+4:1:0:0:3, 11=6+5:0:0:0:1, 4=2+2:0:0:0:2, 4=4+0:0:0:0:0, 7=6+1:0:0:0:0, 6=5+1:1:0:0:1, 11=7+4:0:0:0:0, 4=3+1:1:0:0:1, 1=1+0:0:0:0:0, 7=7+0:0:0:0:0, 2=2+0:0:0:0:0, 6=4+2:1:0:0:1, 6=4+2:0:0:0:0, 8=4+4:0:0:0:2, 2=2+0:0:0:0:0, 1=1+0:0:0:0:0, 7=5+2:0:0:0:0, 6=5+1:0:0:0:1, 4=4+0:0:0:0:0,  , 5=5+0:0:0:0:0, 6=6+0:0:0:0:0, 6=3+3:0:0:0:0, 4=4+0:0:0:0:0, 10=7+3:0:0:0:3, 5=3+2:0:0:0:1, 5=4+1:0:0:0:0, 5=4+1:0:0:0:0, 1=1+0:0:0:0:0, 337=246+91:7:0:0:34
F minor (4b), 0=0+0:0:0:0:0, 4=3+1:0:0:0:0, 1=1+0:0:0:0:0, 1=1+0:0:0:0:0, 3=2+1:0:0:0:0, 3=2+1:0:0:0:0, 0=0+0:0:0:0:0, 2=1+1:0:0:0:0, 7=4+3:0:0:0:0, 4=2+2:2:0:0:2, 2=2+0:0:0:0:0, 1=1+0:0:0:0:0, 1=1+0:0:0:0:0, 5=3+2:0:0:0:1, 1=1+0:0:0:0:0, 1=1+0:0:0:0:0, 3=2+1:0:0:0:0, 3=2+1:0:0:0:0, 0=0+0:0:0:0:0, 2=1+1:0:0:0:0, 7=4+3:0:0:0:0, 4=2+2:2:0:0:2, 2=2+0:0:0:0:0, 1=1+0:0:0:0:0, 1=1+0:0:0:0:0, 4=2+2:0:0:0:1, 2=2+0:0:0:0:0, 1=1+0:0:0:0:0, 0=0+0:0:0:0:0, 1=1+0:0:0:0:0, 4=2+2:0:0:0:1, 4=3+1:0:0:0:0,  , 4=3+1:0:0:0:0, 2=2+0:0:0:0:0, 1=1+0:0:0:0:0,  , 5=1+4:0:0:0:3, 3=1+2:0:1:0:0, 4=2+2:0:0:0:1, 2=2+0:0:0:0:0, 1=1+0:0:0:0:0, 0=0+0:0:0:0:0, 1=1+0:0:0:0:0,  , 8=5+3:0:0:0:1, 7=3+4:0:0:0:0, 0=0+0:0:0:0:0, 1=1+0:0:0:0:0, 4=3+1:0:0:0:0, 5=3+2:0:0:0:0, 4=3+1:0:0:0:0, 3=2+1:0:0:0:0, 0=0+0:0:0:0:0, 0=0+0:0:0:0:0, 1=1+0:0:0:0:0, 4=3+1:0:0:0:0, 2=2+0:0:0:0:0, 4=2+2:0:0:0:0, 1=1+0:0:0:0:0, 0=0+0:0:0:0:0, 3=2+1:0:0:0:0, 3=2+1:0:0:0:0, 0=0+0:0:0:0:0,  , 0=0+0:0:0:0:0, 1=1+0:0:0:0:0, 4=4+0:0:0:0:0, 4=3+1:0:0:0:0, 4=3+1:0:0:0:0, 2=1+1:0:0:0:0, 1=1+0:0:0:0:0, 2=2+0:0:0:0:0, 0=0+0:0:0:0:0, 166=113+53:4:1:0:12
C# minor (4#), 1=1+0:0:0:0:0, 5=3+2:1:0:0:2, 2=2+0:0:0:0:0, 2=2+0:0:0:0:0, 4=3+1:1:0:0:1, 4=3+1:0:0:0:0, 5=5+0:0:0:0:0, 3=2+1:0:0:0:0, 5=3+2:0:0:0:1, 6=4+2:0:0:0:1, 4=2+2:0:0:0:0, 3=3+0:0:0:0:0, 3=3+0:0:0:0:0, 5=3+2:1:0:0:2, 2=2+0:0:0:0:0, 2=2+0:0:0:0:0, 4=3+1:1:0:0:1, 4=3+1:0:0:0:0, 5=5+0:0:0:0:0, 3=2+1:0:0:0:0, 5=3+2:0:0:0:1, 6=4+2:0:0:0:1, 4=2+2:0:0:0:0, 3=3+0:0:0:0:0, 3=3+0:0:0:0:0, 7=5+2:1:0:0:2, 5=5+0:0:0:0:0, 4=3+1:0:0:0:1, 1=1+0:0:0:0:0, 9=8+1:0:0:0:0, 7=4+3:1:0:0:2, 3=2+1:0:0:0:0,  , 6=4+2:1:0:0:1, 5=5+0:0:0:0:0, 4=2+2:0:0:0:2,  , 7=3+4:1:0:0:4, 5=3+2:1:1:0:1, 5=3+2:1:0:0:2, 5=5+0:0:0:0:0, 7=6+1:0:0:0:0, 2=2+0:0:0:0:0, 5=2+3:0:0:0:3,  , 12=9+3:1:0:0:2, 12=7+5:0:0:0:4, 4=4+0:0:0:0:0, 4=4+0:0:0:0:0, 7=6+1:1:0:0:1, 7=5+2:1:0:0:1, 8=7+1:0:0:0:0, 4=3+1:1:0:0:1, 1=1+0:0:0:0:0, 7=7+0:0:0:0:0, 3=2+1:0:0:0:1, 6=5+1:1:0:0:1, 5=4+1:0:0:0:1, 8=6+2:0:0:0:2, 3=2+1:0:0:0:1, 1=1+0:0:0:0:0, 6=5+1:0:0:0:1, 5=4+1:1:0:0:1, 4=4+0:0:0:0:0,  , 5=5+0:0:0:0:0, 8=6+2:0:0:0:0, 5=3+2:0:0:0:0, 5=4+1:1:0:0:1, 8=7+1:1:0:0:1, 4=3+1:1:0:0:1, 6=4+2:0:0:0:2, 5=4+1:0:0:0:0, 1=1+0:0:0:0:0, 334=257+77:19:1:0:50
F minor mel (4b),  ,  ,  ,  ,  ,  ,  ,  ,  ,  ,  ,  ,  ,  ,  ,  ,  ,  ,  ,  ,  ,  ,  ,  ,  ,  ,  ,  ,  ,  ,  ,  ,  ,  ,  ,  ,  ,  ,  ,  ,  ,  ,  ,  ,  ,  ,  ,  ,  ,  ,  ,  ,  ,  ,  ,  ,  ,  ,  ,  ,  ,  ,  ,  ,  ,  ,  ,  ,  ,  ,  ,  ,  ,  , 0=0+0:0:0:0:0
C# minor mel (4#),  ,  ,  ,  ,  ,  ,  ,  ,  ,  ,  ,  ,  ,  ,  ,  ,  ,  ,  ,  ,  ,  ,  ,  ,  ,  ,  ,  ,  ,  ,  ,  ,  ,  ,  ,  ,  ,  ,  ,  ,  ,  ,  ,  ,  ,  ,  ,  ,  ,  ,  ,  ,  ,  ,  ,  ,  ,  ,  ,  ,  ,  ,  ,  ,  ,  ,  ,  ,  ,  ,  ,  ,  ,  , 0=0+0:0:0:0:0
Ab major blues (4b),  ,  ,  ,  ,  ,  ,  ,  ,  ,  ,  ,  ,  ,  ,  ,  ,  ,  ,  ,  ,  ,  ,  ,  ,  ,  ,  ,  ,  ,  ,  ,  ,  ,  ,  ,  ,  ,  ,  ,  ,  ,  ,  ,  ,  ,  ,  ,  ,  ,  ,  ,  ,  ,  ,  ,  ,  ,  ,  ,  ,  ,  ,  ,  ,  ,  ,  ,  ,  ,  ,  ,  ,  ,  , 0=0+0:0:0:0:0
E major blues (4#),  ,  ,  ,  ,  ,  ,  ,  ,  ,  ,  ,  ,  ,  ,  ,  ,  ,  ,  ,  ,  ,  ,  ,  ,  ,  ,  ,  ,  ,  ,  ,  ,  ,  ,  ,  ,  ,  ,  ,  ,  ,  ,  ,  ,  ,  ,  ,  ,  ,  ,  ,  ,  ,  ,  ,  ,  ,  ,  ,  ,  ,  ,  ,  ,  ,  ,  ,  ,  ,  ,  ,  ,  ,  , 0=0+0:0:0:0:0
F minor blues (4b),  ,  ,  ,  ,  ,  ,  ,  ,  ,  ,  ,  ,  ,  ,  ,  ,  ,  ,  ,  ,  ,  ,  ,  ,  ,  ,  ,  ,  ,  ,  ,  ,  ,  ,  ,  ,  ,  ,  ,  ,  ,  ,  ,  ,  ,  ,  ,  ,  ,  ,  ,  ,  ,  ,  ,  ,  ,  ,  ,  ,  ,  ,  ,  ,  ,  ,  ,  ,  ,  ,  ,  ,  ,  , 0=0+0:0:0:0:0
C# minor blues (4#),  ,  ,  ,  ,  ,  ,  ,  ,  ,  ,  ,  ,  ,  ,  ,  ,  ,  ,  ,  ,  ,  ,  ,  ,  ,  ,  ,  ,  ,  ,  ,  ,  ,  ,  ,  ,  ,  ,  ,  ,  ,  ,  ,  ,  ,  ,  ,  ,  ,  ,  ,  ,  ,  ,  ,  ,  ,  ,  ,  ,  ,  ,  ,  ,  ,  ,  ,  ,  ,  ,  ,  ,  ,  , 0=0+0:0:0:0:0
Ab dorian (4b),  ,  ,  ,  ,  ,  ,  ,  ,  ,  ,  ,  ,  ,  ,  ,  ,  ,  ,  ,  ,  ,  ,  ,  ,  ,  ,  ,  ,  ,  ,  ,  ,  ,  ,  ,  ,  ,  ,  ,  ,  ,  ,  ,  ,  ,  ,  ,  ,  ,  ,  ,  ,  ,  ,  ,  ,  ,  ,  ,  ,  ,  ,  ,  ,  ,  ,  ,  ,  ,  ,  ,  ,  ,  , 0=0+0:0:0:0:0
E dorian (4#),  ,  ,  ,  ,  ,  ,  ,  ,  ,  ,  ,  ,  ,  ,  ,  ,  ,  ,  ,  ,  ,  ,  ,  ,  ,  ,  ,  ,  ,  ,  ,  ,  ,  ,  ,  ,  ,  ,  ,  ,  ,  ,  ,  ,  ,  ,  ,  ,  ,  ,  ,  ,  ,  ,  ,  ,  ,  ,  ,  ,  ,  ,  ,  ,  ,  ,  ,  ,  ,  ,  ,  ,  ,  , 0=0+0:0:0:0:0
Ab phrygian (4b),  ,  ,  ,  ,  ,  ,  ,  ,  ,  ,  ,  ,  ,  ,  ,  ,  ,  ,  ,  ,  ,  ,  ,  ,  ,  ,  ,  ,  ,  ,  ,  ,  ,  ,  ,  ,  ,  ,  ,  ,  ,  ,  ,  ,  ,  ,  ,  ,  ,  ,  ,  ,  ,  ,  ,  ,  ,  ,  ,  ,  ,  ,  ,  ,  ,  ,  ,  ,  ,  ,  ,  ,  ,  , 0=0+0:0:0:0:0
E phrygian (4#),  ,  ,  ,  ,  ,  ,  ,  ,  ,  ,  ,  ,  ,  ,  ,  ,  ,  ,  ,  ,  ,  ,  ,  ,  ,  ,  ,  ,  ,  ,  ,  ,  ,  ,  ,  ,  ,  ,  ,  ,  ,  ,  ,  ,  ,  ,  ,  ,  ,  ,  ,  ,  ,  ,  ,  ,  ,  ,  ,  ,  ,  ,  ,  ,  ,  ,  ,  ,  ,  ,  ,  ,  ,  , 0=0+0:0:0:0:0
Ab lydian (4b),  ,  ,  ,  ,  ,  ,  ,  ,  ,  ,  ,  ,  ,  ,  ,  ,  ,  ,  ,  ,  ,  ,  ,  ,  ,  ,  ,  ,  ,  ,  ,  ,  ,  ,  ,  ,  ,  ,  ,  ,  ,  ,  ,  ,  ,  ,  ,  ,  ,  ,  ,  ,  ,  ,  ,  ,  ,  ,  ,  ,  ,  ,  ,  ,  ,  ,  ,  ,  ,  ,  ,  ,  ,  , 0=0+0:0:0:0:0
E lydian (4#),  ,  ,  ,  ,  ,  ,  ,  ,  ,  ,  ,  ,  ,  ,  ,  ,  ,  ,  ,  ,  ,  ,  ,  ,  ,  ,  ,  ,  ,  ,  ,  ,  ,  ,  ,  ,  ,  ,  ,  ,  ,  ,  ,  ,  ,  ,  ,  ,  ,  ,  ,  ,  ,  ,  ,  ,  ,  ,  ,  ,  ,  ,  ,  ,  ,  ,  ,  ,  ,  ,  ,  ,  ,  , 0=0+0:0:0:0:0
Ab mixolydian (4b),  ,  ,  ,  ,  ,  ,  ,  ,  ,  ,  ,  ,  ,  ,  ,  ,  ,  ,  ,  ,  ,  ,  ,  ,  ,  ,  ,  ,  ,  ,  ,  ,  ,  ,  ,  ,  ,  ,  ,  ,  ,  ,  ,  ,  ,  ,  ,  ,  ,  ,  ,  ,  ,  ,  ,  ,  ,  ,  ,  ,  ,  ,  ,  ,  ,  ,  ,  ,  ,  ,  ,  ,  ,  , 0=0+0:0:0:0:0
E mixolydian (4#),  ,  ,  ,  ,  ,  ,  ,  ,  ,  ,  ,  ,  ,  ,  ,  ,  ,  ,  ,  ,  ,  ,  ,  ,  ,  ,  ,  ,  ,  ,  ,  ,  ,  ,  ,  ,  ,  ,  ,  ,  ,  ,  ,  ,  ,  ,  ,  ,  ,  ,  ,  ,  ,  ,  ,  ,  ,  ,  ,  ,  ,  ,  ,  ,  ,  ,  ,  ,  ,  ,  ,  ,  ,  , 0=0+0:0:0:0:0
Ab aeolian (4b),  ,  ,  ,  ,  ,  ,  ,  ,  ,  ,  ,  ,  ,  ,  ,  ,  ,  ,  ,  ,  ,  ,  ,  ,  ,  ,  ,  ,  ,  ,  ,  ,  ,  ,  ,  ,  ,  ,  ,  ,  ,  ,  ,  ,  ,  ,  ,  ,  ,  ,  ,  ,  ,  ,  ,  ,  ,  ,  ,  ,  ,  ,  ,  ,  ,  ,  ,  ,  ,  ,  ,  ,  ,  , 0=0+0:0:0:0:0
E aeolian (4#),  ,  ,  ,  ,  ,  ,  ,  ,  ,  ,  ,  ,  ,  ,  ,  ,  ,  ,  ,  ,  ,  ,  ,  ,  ,  ,  ,  ,  ,  ,  ,  ,  ,  ,  ,  ,  ,  ,  ,  ,  ,  ,  ,  ,  ,  ,  ,  ,  ,  ,  ,  ,  ,  ,  ,  ,  ,  ,  ,  ,  ,  ,  ,  ,  ,  ,  ,  ,  ,  ,  ,  ,  ,  , 0=0+0:0:0:0:0
Ab locrian (4b),  ,  ,  ,  ,  ,  ,  ,  ,  ,  ,  ,  ,  ,  ,  ,  ,  ,  ,  ,  ,  ,  ,  ,  ,  ,  ,  ,  ,  ,  ,  ,  ,  ,  ,  ,  ,  ,  ,  ,  ,  ,  ,  ,  ,  ,  ,  ,  ,  ,  ,  ,  ,  ,  ,  ,  ,  ,  ,  ,  ,  ,  ,  ,  ,  ,  ,  ,  ,  ,  ,  ,  ,  ,  , 0=0+0:0:0:0:0
E locrian (4#),  ,  ,  ,  ,  ,  ,  ,  ,  ,  ,  ,  ,  ,  ,  ,  ,  ,  ,  ,  ,  ,  ,  ,  ,  ,  ,  ,  ,  ,  ,  ,  ,  ,  ,  ,  ,  ,  ,  ,  ,  ,  ,  ,  ,  ,  ,  ,  ,  ,  ,  ,  ,  ,  ,  ,  ,  ,  ,  ,  ,  ,  ,  ,  ,  ,  ,  ,  ,  ,  ,  ,  ,  ,  , 0=0+0:0:0:0:0
Db major (5b), 0=0+0:0:0:0:0, 5=3+2:0:0:0:1, 1=1+0:0:0:0:0, 1=1+0:0:0:0:0, 4=3+1:0:0:0:0, 3=2+1:0:0:0:0, 0=0+0:0:0:0:0, 2=1+1:0:0:0:0, 7=5+2:0:0:0:1, 5=3+2:2:0:0:2, 4=2+2:0:0:0:0, 1=1+0:0:0:0:0, 1=1+0:0:0:0:0, 5=3+2:0:0:0:1, 1=1+0:0:0:0:0, 1=1+0:0:0:0:0, 4=3+1:0:0:0:0, 3=2+1:0:0:0:0, 0=0+0:0:0:0:0, 2=1+1:0:0:0:0, 7=5+2:0:0:0:1, 5=3+2:2:0:0:2, 4=2+2:0:0:0:0, 1=1+0:0:0:0:0, 1=1+0:0:0:0:0, 5=3+2:0:0:0:1, 3=2+1:0:0:0:0, 2=2+0:0:0:0:0, 0=0+0:0:0:0:0, 2=2+0:0:0:0:0, 4=2+2:0:0:0:1, 4=3+1:0:0:0:0,  , 5=4+1:0:0:0:0, 4=2+2:0:0:0:0, 2=2+0:0:0:0:0,  , 5=1+4:0:0:0:3, 3=1+2:0:1:0:0, 4=2+2:0:0:0:1, 3=3+0:0:0:0:0, 3=3+0:0:0:0:0, 0=0+0:0:0:0:0, 1=1+0:0:0:0:0,  , 8=5+3:0:0:0:0, 6=4+2:0:0:0:0, 0=0+0:0:0:0:0, 1=1+0:0:0:0:0, 5=4+1:0:0:0:0, 5=3+2:0:0:0:0, 5=4+1:0:0:0:0, 3=2+1:0:0:0:0, 0=0+0:0:0:0:0, 1=1+0:0:0:0:0, 1=1+0:0:0:0:0, 5=4+1:0:0:0:0, 3=2+1:0:0:0:0, 4=3+1:0:0:0:0, 1=1+0:0:0:0:0, 1=1+0:0:0:0:0, 4=3+1:0:0:0:0, 4=3+1:0:0:0:0, 1=1+0:0:0:0:0,  , 0=0+0:0:0:0:0, 1=1+0:0:0:0:0, 6=4+2:0:0:0:0, 5=4+1:0:0:0:0, 6=5+1:0:0:0:0, 2=1+1:0:0:0:0, 1=1+0:0:0:0:0, 3=3+0:0:0:0:0, 0=0+0:0:0:0:0, 200=141+59:4:1:0:14
B major (5#), 1=1+0:0:0:0:0, 5=4+1:1:0:0:1, 2=2+0:0:0:0:0, 2=2+0:0:0:0:0, 6=5+1:0:0:0:0, 5=4+1:0:0:0:1, 5=5+0:0:0:0:0, 3=2+1:0:0:0:1, 5=3+2:0:0:0:1, 5=3+2:0:0:0:1, 2=2+0:0:0:0:0, 3=3+0:0:0:0:0, 4=3+1:0:0:0:0, 4=4+0:0:0:0:0, 2=2+0:0:0:0:0, 2=2+0:0:0:0:0, 6=5+1:0:0:0:0, 5=4+1:0:0:0:1, 5=5+0:0:0:0:0, 3=2+1:0:0:0:1, 5=3+2:0:0:0:1, 5=3+2:0:0:0:1, 2=2+0:0:0:0:0, 3=3+0:0:0:0:0, 3=3+0:0:0:0:0, 8=6+2:0:0:0:2, 8=6+2:0:0:0:0, 5=4+1:0:0:0:1, 1=1+0:0:0:0:0, 9=8+1:0:0:0:0, 8=6+2:0:0:0:1, 5=3+2:0:0:0:1,  , 4=4+0:0:0:0:0, 9=6+3:0:0:0:0, 5=3+2:0:0:0:2,  , 7=4+3:0:0:0:3, 5=4+1:0:1:0:0, 7=5+2:0:0:0:2, 7=6+1:0:0:0:0, 7=6+1:0:0:0:0, 2=2+0:0:0:0:0, 6=3+3:0:0:0:3,  , 12=9+3:1:0:0:2, 13=8+5:0:0:0:4, 4=4+0:0:0:0:0, 6=5+1:0:0:0:0, 10=7+3:1:0:0:2, 9=7+2:0:0:0:1, 10=8+2:0:0:0:0, 4=3+1:1:0:0:1, 1=1+0:0:0:0:0, 7=7+0:0:0:0:0, 4=3+1:0:0:0:1, 11=6+5:1:0:0:1, 4=4+0:0:0:0:0, 9=7+2:0:0:0:2, 4=3+1:0:0:0:1, 1=1+0:0:0:0:0, 7=6+1:0:0:0:1, 5=4+1:1:0:0:1, 4=4+0:0:0:0:0,  , 5=5+0:0:0:0:0, 8=6+2:0:0:0:0, 7=4+3:0:0:0:2, 8=5+3:1:0:0:1, 8=7+1:1:0:0:1, 5=3+2:1:0:0:2, 7=5+2:0:0:0:2, 6=5+1:0:0:0:0, 1=1+0:0:0:0:0, 376=292+84:9:1:0:49
Bb minor (5b), 0=0+0:0:0:0:0, 5=3+2:0:0:0:1, 1=1+0:0:0:0:0, 1=1+0:0:0:0:0, 4=3+1:0:0:0:0, 3=2+1:0:0:0:0, 0=0+0:0:0:0:0, 2=1+1:0:0:0:0, 7=5+2:0:0:0:1, 5=3+2:2:0:0:2, 2=2+0:0:0:0:0, 1=1+0:0:0:0:0, 1=1+0:0:0:0:0, 5=3+2:0:0:0:1, 1=1+0:0:0:0:0, 1=1+0:0:0:0:0, 4=3+1:0:0:0:0, 3=2+1:0:0:0:0, 0=0+0:0:0:0:0, 2=1+1:0:0:0:0, 7=5+2:0:0:0:1, 5=3+2:2:0:0:2, 2=2+0:0:0:0:0, 1=1+0:0:0:0:0, 1=1+0:0:0:0:0, 5=3+2:0:0:0:1, 2=2+0:0:0:0:0, 2=2+0:0:0:0:0, 0=0+0:0:0:0:0, 2=2+0:0:0:0:0, 4=2+2:0:0:0:1, 4=3+1:0:0:0:0,  , 5=4+1:0:0:0:0, 2=2+0:0:0:0:0, 2=2+0:0:0:0:0,  , 5=1+4:0:0:0:3, 3=1+2:0:1:0:0, 4=2+2:0:0:0:1, 3=3+0:0:0:0:0, 3=3+0:0:0:0:0, 0=0+0:0:0:0:0, 1=1+0:0:0:0:0,  , 8=5+3:0:0:0:0, 6=4+2:0:0:0:0, 0=0+0:0:0:0:0, 1=1+0:0:0:0:0, 5=4+1:0:0:0:0, 5=3+2:0:0:0:0, 5=4+1:0:0:0:0, 3=2+1:0:0:0:0, 0=0+0:0:0:0:0, 1=1+0:0:0:0:0, 1=1+0:0:0:0:0, 5=4+1:0:0:0:0, 2=2+0:0:0:0:0, 5=3+2:0:0:0:0, 1=1+0:0:0:0:0, 1=1+0:0:0:0:0, 4=3+1:0:0:0:0, 4=3+1:0:0:0:0, 1=1+0:0:0:0:0,  , 0=0+0:0:0:0:0, 1=1+0:0:0:0:0, 6=4+2:0:0:0:0, 5=4+1:0:0:0:0, 6=5+1:0:0:0:0, 2=1+1:0:0:0:0, 1=1+0:0:0:0:0, 3=3+0:0:0:0:0, 0=0+0:0:0:0:0, 193=141+52:4:1:0:14
G# minor (5#), 1=1+0:0:0:0:0, 5=4+1:1:0:0:1, 2=2+0:0:0:0:0, 2=2+0:0:0:0:0, 6=5+1:0:0:0:0, 5=4+1:0:0:0:0, 5=5+0:0:0:0:0, 3=2+1:0:0:0:1, 6=3+3:2:0:0:2, 6=4+2:2:0:0:2, 2=2+0:0:0:0:0, 3=3+0:0:0:0:0, 3=3+0:0:0:0:0, 5=4+1:1:0:0:1, 2=2+0:0:0:0:0, 2=2+0:0:0:0:0, 6=5+1:0:0:0:0, 5=4+1:0:0:0:0, 5=5+0:0:0:0:0, 3=2+1:0:0:0:1, 6=3+3:2:0:0:2, 6=4+2:2:0:0:2, 2=2+0:0:0:0:0, 3=3+0:0:0:0:0, 3=3+0:0:0:0:0, 8=6+2:0:0:0:1, 8=6+2:0:0:0:0, 5=4+1:0:0:0:1, 1=1+0:0:0:0:0, 8=8+0:0:0:0:0, 8=6+2:0:0:0:1, 5=3+2:0:0:0:1,  , 5=4+1:1:0:0:1, 8=6+2:0:0:0:0, 5=3+2:0:0:0:2,  , 7=4+3:0:0:0:3, 5=3+2:1:1:0:1, 6=4+2:1:0:0:2, 7=6+1:0:0:0:0, 6=6+0:0:0:0:0, 2=2+0:0:0:0:0, 6=3+3:0:0:0:0,  , 12=9+3:1:0:0:2, 13=8+5:0:0:0:4, 4=4+0:0:0:0:0, 6=5+1:0:0:0:0, 9=7+2:1:0:0:1, 8=6+2:1:0:0:1, 10=8+2:0:0:0:0, 4=3+1:1:0:0:1, 1=1+0:0:0:0:0, 7=7+0:0:0:0:0, 4=3+1:0:0:0:1, 11=6+5:1:0:0:1, 4=4+0:0:0:0:0, 8=5+3:2:0:0:2, 4=3+1:0:0:0:1, 1=1+0:0:0:0:0, 7=6+1:0:0:0:1, 5=4+1:1:0:0:1, 4=4+0:0:0:0:0,  , 5=5+0:0:0:0:0, 6=6+0:0:0:0:0, 7=4+3:0:0:0:2, 6=5+1:1:0:0:1, 8=7+1:1:0:0:1, 4=3+1:1:0:0:1, 7=5+2:0:0:0:2, 6=5+1:0:0:0:0, 1=1+0:0:0:0:0, 369=289+80:24:1:0:48
Bb minor mel (5b),  ,  ,  ,  ,  ,  ,  ,  ,  ,  ,  ,  ,  ,  ,  ,  ,  ,  ,  ,  ,  ,  ,  ,  ,  ,  ,  ,  ,  ,  ,  ,  ,  ,  ,  ,  ,  ,  ,  ,  ,  ,  ,  ,  ,  ,  ,  ,  ,  ,  ,  ,  ,  ,  ,  ,  ,  ,  ,  ,  ,  ,  ,  ,  ,  ,  ,  ,  ,  ,  ,  ,  ,  ,  , 0=0+0:0:0:0:0
G# minor mel (5#),  ,  ,  ,  ,  ,  ,  ,  ,  ,  ,  ,  ,  ,  ,  ,  ,  ,  ,  ,  ,  ,  ,  ,  ,  ,  ,  ,  ,  ,  ,  ,  ,  ,  ,  ,  ,  ,  ,  ,  ,  ,  ,  ,  ,  ,  ,  ,  ,  ,  ,  ,  ,  ,  ,  ,  ,  ,  ,  ,  ,  ,  ,  ,  ,  ,  ,  ,  ,  ,  ,  ,  ,  ,  , 0=0+0:0:0:0:0
Db major blues (5b),  ,  ,  ,  ,  ,  ,  ,  ,  ,  ,  ,  ,  ,  ,  ,  ,  ,  ,  ,  ,  ,  ,  ,  ,  ,  ,  ,  ,  ,  ,  ,  ,  ,  ,  ,  ,  ,  ,  ,  ,  ,  ,  ,  ,  ,  ,  ,  ,  ,  ,  ,  ,  ,  ,  ,  ,  ,  ,  ,  ,  ,  ,  ,  ,  ,  ,  ,  ,  ,  ,  ,  ,  ,  , 0=0+0:0:0:0:0
B major blues (5#),  ,  ,  ,  ,  ,  ,  ,  ,  ,  ,  ,  ,  ,  ,  ,  ,  ,  ,  ,  ,  ,  ,  ,  ,  ,  ,  ,  ,  ,  ,  ,  ,  ,  ,  ,  ,  ,  ,  ,  ,  ,  ,  ,  ,  ,  ,  ,  ,  ,  ,  ,  ,  ,  ,  ,  ,  ,  ,  ,  ,  ,  ,  ,  ,  ,  ,  ,  ,  ,  ,  ,  ,  ,  , 0=0+0:0:0:0:0
Bb minor blues (5b),  ,  ,  ,  ,  ,  ,  ,  ,  ,  ,  ,  ,  ,  ,  ,  ,  ,  ,  ,  ,  ,  ,  ,  ,  ,  ,  ,  ,  ,  ,  ,  ,  ,  ,  ,  ,  ,  ,  ,  ,  ,  ,  ,  ,  ,  ,  ,  ,  ,  ,  ,  ,  ,  ,  ,  ,  ,  ,  ,  ,  ,  ,  ,  ,  ,  ,  ,  ,  ,  ,  ,  ,  ,  , 0=0+0:0:0:0:0
G# minor blues (5#),  ,  ,  ,  ,  ,  ,  ,  ,  ,  ,  ,  ,  ,  ,  ,  ,  ,  ,  ,  ,  ,  ,  ,  ,  ,  ,  ,  ,  ,  ,  ,  ,  ,  ,  ,  ,  ,  ,  ,  ,  ,  ,  ,  ,  ,  ,  ,  ,  ,  ,  ,  ,  ,  ,  ,  ,  ,  ,  ,  ,  ,  ,  ,  ,  ,  ,  ,  ,  ,  ,  ,  ,  ,  , 0=0+0:0:0:0:0
Db dorian (5b),  ,  ,  ,  ,  ,  ,  ,  ,  ,  ,  ,  ,  ,  ,  ,  ,  ,  ,  ,  ,  ,  ,  ,  ,  ,  ,  ,  ,  ,  ,  ,  ,  ,  ,  ,  ,  ,  ,  ,  ,  ,  ,  ,  ,  ,  ,  ,  ,  ,  ,  ,  ,  ,  ,  ,  ,  ,  ,  ,  ,  ,  ,  ,  ,  ,  ,  ,  ,  ,  ,  ,  ,  ,  , 0=0+0:0:0:0:0
B dorian (5#),  ,  ,  ,  ,  ,  ,  ,  ,  ,  ,  ,  ,  ,  ,  ,  ,  ,  ,  ,  ,  ,  ,  ,  ,  ,  ,  ,  ,  ,  ,  ,  ,  ,  ,  ,  ,  ,  ,  ,  ,  ,  ,  ,  ,  ,  ,  ,  ,  ,  ,  ,  ,  ,  ,  ,  ,  ,  ,  ,  ,  ,  ,  ,  ,  ,  ,  ,  ,  ,  ,  ,  ,  ,  , 0=0+0:0:0:0:0
Db phrygian (5b),  ,  ,  ,  ,  ,  ,  ,  ,  ,  ,  ,  ,  ,  ,  ,  ,  ,  ,  ,  ,  ,  ,  ,  ,  ,  ,  ,  ,  ,  ,  ,  ,  ,  ,  ,  ,  ,  ,  ,  ,  ,  ,  ,  ,  ,  ,  ,  ,  ,  ,  ,  ,  ,  ,  ,  ,  ,  ,  ,  ,  ,  ,  ,  ,  ,  ,  ,  ,  ,  ,  ,  ,  ,  , 0=0+0:0:0:0:0
B phrygian (5#),  ,  ,  ,  ,  ,  ,  ,  ,  ,  ,  ,  ,  ,  ,  ,  ,  ,  ,  ,  ,  ,  ,  ,  ,  ,  ,  ,  ,  ,  ,  ,  ,  ,  ,  ,  ,  ,  ,  ,  ,  ,  ,  ,  ,  ,  ,  ,  ,  ,  ,  ,  ,  ,  ,  ,  ,  ,  ,  ,  ,  ,  ,  ,  ,  ,  ,  ,  ,  ,  ,  ,  ,  ,  , 0=0+0:0:0:0:0
Db lydian (5b),  ,  ,  ,  ,  ,  ,  ,  ,  ,  ,  ,  ,  ,  ,  ,  ,  ,  ,  ,  ,  ,  ,  ,  ,  ,  ,  ,  ,  ,  ,  ,  ,  ,  ,  ,  ,  ,  ,  ,  ,  ,  ,  ,  ,  ,  ,  ,  ,  ,  ,  ,  ,  ,  ,  ,  ,  ,  ,  ,  ,  ,  ,  ,  ,  ,  ,  ,  ,  ,  ,  ,  ,  ,  , 0=0+0:0:0:0:0
B lydian (5#),  ,  ,  ,  ,  ,  ,  ,  ,  ,  ,  ,  ,  ,  ,  ,  ,  ,  ,  ,  ,  ,  ,  ,  ,  ,  ,  ,  ,  ,  ,  ,  ,  ,  ,  ,  ,  ,  ,  ,  ,  ,  ,  ,  ,  ,  ,  ,  ,  ,  ,  ,  ,  ,  ,  ,  ,  ,  ,  ,  ,  ,  ,  ,  ,  ,  ,  ,  ,  ,  ,  ,  ,  ,  , 0=0+0:0:0:0:0
Db mixolydian (5b),  ,  ,  ,  ,  ,  ,  ,  ,  ,  ,  ,  ,  ,  ,  ,  ,  ,  ,  ,  ,  ,  ,  ,  ,  ,  ,  ,  ,  ,  ,  ,  ,  ,  ,  ,  ,  ,  ,  ,  ,  ,  ,  ,  ,  ,  ,  ,  ,  ,  ,  ,  ,  ,  ,  ,  ,  ,  ,  ,  ,  ,  ,  ,  ,  ,  ,  ,  ,  ,  ,  ,  ,  ,  , 0=0+0:0:0:0:0
B mixolydian (5#),  ,  ,  ,  ,  ,  ,  ,  ,  ,  ,  ,  ,  ,  ,  ,  ,  ,  ,  ,  ,  ,  ,  ,  ,  ,  ,  ,  ,  ,  ,  ,  ,  ,  ,  ,  ,  ,  ,  ,  ,  ,  ,  ,  ,  ,  ,  ,  ,  ,  ,  ,  ,  ,  ,  ,  ,  ,  ,  ,  ,  ,  ,  ,  ,  ,  ,  ,  ,  ,  ,  ,  ,  ,  , 0=0+0:0:0:0:0
Db aeolian (5b),  ,  ,  ,  ,  ,  ,  ,  ,  ,  ,  ,  ,  ,  ,  ,  ,  ,  ,  ,  ,  ,  ,  ,  ,  ,  ,  ,  ,  ,  ,  ,  ,  ,  ,  ,  ,  ,  ,  ,  ,  ,  ,  ,  ,  ,  ,  ,  ,  ,  ,  ,  ,  ,  ,  ,  ,  ,  ,  ,  ,  ,  ,  ,  ,  ,  ,  ,  ,  ,  ,  ,  ,  ,  , 0=0+0:0:0:0:0
B aeolian (5#),  ,  ,  ,  ,  ,  ,  ,  ,  ,  ,  ,  ,  ,  ,  ,  ,  ,  ,  ,  ,  ,  ,  ,  ,  ,  ,  ,  ,  ,  ,  ,  ,  ,  ,  ,  ,  ,  ,  ,  ,  ,  ,  ,  ,  ,  ,  ,  ,  ,  ,  ,  ,  ,  ,  ,  ,  ,  ,  ,  ,  ,  ,  ,  ,  ,  ,  ,  ,  ,  ,  ,  ,  ,  , 0=0+0:0:0:0:0
Db locrian (5b),  ,  ,  ,  ,  ,  ,  ,  ,  ,  ,  ,  ,  ,  ,  ,  ,  ,  ,  ,  ,  ,  ,  ,  ,  ,  ,  ,  ,  ,  ,  ,  ,  ,  ,  ,  ,  ,  ,  ,  ,  ,  ,  ,  ,  ,  ,  ,  ,  ,  ,  ,  ,  ,  ,  ,  ,  ,  ,  ,  ,  ,  ,  ,  ,  ,  ,  ,  ,  ,  ,  ,  ,  ,  , 0=0+0:0:0:0:0
B locrian (5#),  ,  ,  ,  ,  ,  ,  ,  ,  ,  ,  ,  ,  ,  ,  ,  ,  ,  ,  ,  ,  ,  ,  ,  ,  ,  ,  ,  ,  ,  ,  ,  ,  ,  ,  ,  ,  ,  ,  ,  ,  ,  ,  ,  ,  ,  ,  ,  ,  ,  ,  ,  ,  ,  ,  ,  ,  ,  ,  ,  ,  ,  ,  ,  ,  ,  ,  ,  ,  ,  ,  ,  ,  ,  , 0=0+0:0:0:0:0
Gb major (6b), 1=1+0:0:0:0:0, 5=4+1:0:0:0:0, 1=1+0:0:0:0:0, 1=1+0:0:0:0:0, 4=3+1:0:0:0:0, 3=2+1:0:0:0:0, 1=1+0:0:0:0:0, 3=2+1:0:0:0:0, 9=5+4:0:1:0:1, 5=3+2:2:0:0:2, 4=2+2:0:0:0:2, 2=2+0:0:0:0:0, 2=2+0:0:0:0:0, 5=4+1:0:0:0:0, 1=1+0:0:0:0:0, 1=1+0:0:0:0:0, 4=3+1:0:0:0:0, 3=2+1:0:0:0:0, 1=1+0:0:0:0:0, 3=2+1:0:0:0:0, 9=5+4:0:1:0:1, 5=3+2:2:0:0:2, 4=2+2:0:0:0:2, 2=2+0:0:0:0:0, 2=2+0:0:0:0:0, 4=2+2:0:1:0:0, 5=4+1:0:0:0:0, 2=2+0:0:0:0:0, 0=0+0:0:0:0:0, 4=3+1:0:0:0:0, 5=3+2:0:0:0:1, 6=4+2:0:0:0:1,  , 5=4+1:0:0:0:0, 6=4+2:0:0:0:0, 2=2+0:0:0:0:0,  , 4=0+4:0:3:0:0, 2=0+2:0:1:0:0, 3=1+2:0:1:0:0, 5=4+1:0:0:0:0, 5=3+2:0:0:0:0, 1=1+0:0:0:0:0, 2=2+0:0:0:0:0,  , 9=6+3:0:0:0:1, 11=6+5:0:0:0:4, 1=1+0:0:0:0:0, 3=3+0:0:0:0:0, 7=5+2:0:0:0:0, 6=4+2:0:0:0:0, 7=5+2:0:0:0:0, 4=3+1:0:0:0:0, 0=0+0:0:0:0:0, 4=2+2:0:0:0:0, 2=2+0:0:0:0:0, 6=5+1:0:0:0:0, 4=3+1:0:0:0:1, 7=4+3:0:0:0:0, 2=2+0:0:0:0:0, 1=1+0:0:0:0:0, 5=4+1:0:0:0:0, 6=3+3:0:1:0:0, 2=2+0:0:0:0:0,  , 1=1+0:0:0:0:0, 2=2+0:0:0:0:0, 8=5+3:0:0:0:2, 6=5+1:0:0:0:0, 7=6+1:0:0:0:0, 3=2+1:0:0:0:0, 3=3+0:0:0:0:0, 4=4+0:0:0:0:0, 1=1+0:0:0:0:0, 264=186+78:4:9:0:20
F# major (6#), 1=1+0:0:0:0:0, 5=4+1:1:0:0:1, 2=2+0:0:0:0:0, 2=2+0:0:0:0:0, 6=5+1:0:0:0:0, 5=4+1:0:0:0:0, 5=5+0:0:0:0:0, 4=3+1:0:0:0:1, 10=6+4:1:0:0:1, 6=4+2:2:0:0:2, 5=3+2:0:0:0:2, 3=3+0:0:0:0:0, 3=3+0:0:0:0:0, 5=4+1:1:0:0:1, 2=2+0:0:0:0:0, 2=2+0:0:0:0:0, 6=5+1:0:0:0:0, 5=4+1:0:0:0:0, 5=5+0:0:0:0:0, 4=3+1:0:0:0:1, 10=6+4:1:0:0:1, 6=4+2:2:0:0:2, 5=3+2:0:0:0:2, 3=3+0:0:0:0:0, 3=3+0:0:0:0:0, 8=6+2:0:0:0:1, 8=6+2:0:0:0:0, 5=4+1:0:0:0:0, 1=1+0:0:0:0:0, 8=8+0:0:0:0:0, 8=6+2:0:0:0:1, 6=4+2:0:0:0:1,  , 7=5+2:1:0:0:2, 6=6+0:0:0:0:0, 5=3+2:0:0:0:0,  , 7=4+3:0:0:0:3, 5=3+2:1:1:0:1, 6=4+2:1:0:0:2, 7=6+1:0:0:0:0, 6=6+0:0:0:0:0, 2=2+0:0:0:0:0, 6=3+3:0:0:0:0,  , 12=9+3:1:0:0:2, 14=9+5:0:0:0:4, 4=4+0:0:0:0:0, 6=5+1:0:0:0:0, 9=7+2:1:0:0:1, 8=6+2:1:0:0:1, 10=8+2:0:0:0:0, 4=3+1:1:0:0:1, 1=1+0:0:0:0:0, 7=7+0:0:0:0:0, 4=3+1:0:0:0:0, 7=6+1:1:0:0:1, 6=5+1:0:0:0:1, 10=8+2:0:0:0:2, 4=3+1:0:0:0:1, 1=1+0:0:0:0:0, 7=6+1:0:0:0:1, 7=6+1:0:0:0:1, 4=4+0:0:0:0:0,  , 5=5+0:0:0:0:0, 6=6+0:0:0:0:0, 9=6+3:0:0:0:2, 6=5+1:1:0:0:1, 8=7+1:1:0:0:1, 6=5+1:0:0:0:0, 7=5+2:0:0:0:0, 5=5+0:0:0:0:0, 1=1+0:0:0:0:0, 392=312+80:18:1:0:45
Eb minor (6b), 1=1+0:0:0:0:0, 5=4+1:0:0:0:0, 1=1+0:0:0:0:0, 1=1+0:0:0:0:0, 4=3+1:0:0:0:0, 3=2+1:0:0:0:0, 1=1+0:0:0:0:0, 3=2+1:0:0:0:0, 8=6+2:0:0:0:1, 5=3+2:2:0:0:2, 4=2+2:0:0:0:2, 2=2+0:0:0:0:0, 2=2+0:0:0:0:0, 5=4+1:0:0:0:0, 1=1+0:0:0:0:0, 1=1+0:0:0:0:0, 4=3+1:0:0:0:0, 3=2+1:0:0:0:0, 1=1+0:0:0:0:0, 3=2+1:0:0:0:0, 8=6+2:0:0:0:1, 5=3+2:2:0:0:2, 4=2+2:0:0:0:2, 2=2+0:0:0:0:0, 2=2+0:0:0:0:0, 4=2+2:0:1:0:0, 4=4+0:0:0:0:0, 2=2+0:0:0:0:0, 0=0+0:0:0:0:0, 3=3+0:0:0:0:0, 5=3+2:0:0:0:1, 5=4+1:0:0:0:0,  , 6=4+2:0:0:0:0, 4=4+0:0:0:0:0, 2=2+0:0:0:0:0,  , 4=0+4:0:3:0:0, 2=0+2:0:1:0:0, 3=1+2:0:1:0:0, 4=4+0:0:0:0:0, 3=3+0:0:0:0:0, 1=1+0:0:0:0:0, 2=2+0:0:0:0:0,  , 9=6+3:0:0:0:1, 10=6+4:0:0:0:0, 1=1+0:0:0:0:0, 3=3+0:0:0:0:0, 6=5+1:0:0:0:0, 6=4+2:0:0:0:0, 6=5+1:0:0:0:0, 4=3+1:0:0:0:0, 0=0+0:0:0:0:0, 2=2+0:0:0:0:0, 2=2+0:0:0:0:0, 6=5+1:0:0:0:0, 4=3+1:0:0:0:1, 6=4+2:0:0:0:0, 2=2+0:0:0:0:0, 1=1+0:0:0:0:0, 5=4+1:0:0:0:0, 4=3+1:0:1:0:0, 2=2+0:0:0:0:0,  , 1=1+0:0:0:0:0, 2=2+0:0:0:0:0, 7=5+2:0:0:0:0, 6=5+1:0:0:0:0, 7=6+1:0:0:0:0, 3=2+1:0:0:0:0, 3=3+0:0:0:0:0, 4=4+0:0:0:0:0, 1=1+0:0:0:0:0, 246=188+58:4:7:0:13
D# minor (6#), 1=1+0:0:0:0:0, 5=4+1:1:0:0:1, 2=2+0:0:0:0:0, 2=2+0:0:0:0:0, 5=4+1:1:0:0:1, 5=4+1:0:0:0:0, 5=5+0:0:0:0:0, 4=3+1:0:0:0:0, 7=5+2:1:0:0:2, 6=4+2:2:0:0:2, 5=3+2:0:0:0:2, 3=3+0:0:0:0:0, 3=3+0:0:0:0:0, 5=4+1:1:0:0:1, 2=2+0:0:0:0:0, 2=2+0:0:0:0:0, 5=4+1:1:0:0:1, 5=4+1:0:0:0:0, 5=5+0:0:0:0:0, 4=3+1:0:0:0:0, 7=5+2:1:0:0:2, 6=4+2:2:0:0:2, 5=3+2:0:0:0:2, 3=3+0:0:0:0:0, 3=3+0:0:0:0:0, 8=6+2:0:0:0:1, 6=6+0:0:0:0:0, 4=4+0:0:0:0:0, 1=1+0:0:0:0:0, 8=8+0:0:0:0:0, 8=6+2:0:0:0:1, 5=4+1:0:0:0:0,  , 7=5+2:1:0:0:1, 6=6+0:0:0:0:0, 3=3+0:0:0:0:0,  , 7=3+4:1:0:0:4, 5=3+2:1:1:0:1, 6=4+2:1:0:0:2, 6=6+0:0:0:0:0, 6=6+0:0:0:0:0, 2=2+0:0:0:0:0, 3=3+0:0:0:0:0,  , 12=9+3:1:0:0:2, 10=8+2:1:0:0:1, 4=3+1:1:0:0:1, 5=5+0:0:0:0:0, 8=7+1:1:0:0:1, 8=6+2:1:0:0:1, 9=8+1:0:0:0:0, 4=3+1:1:0:0:1, 1=1+0:0:0:0:0, 7=7+0:0:0:0:0, 3=3+0:0:0:0:0, 7=6+1:1:0:0:1, 6=5+1:0:0:0:1, 9=7+2:1:0:0:1, 3=3+0:0:0:0:0, 1=1+0:0:0:0:0, 7=6+1:0:0:0:0, 7=6+1:0:0:0:1, 4=4+0:0:0:0:0,  , 5=5+0:0:0:0:0, 6=6+0:0:0:0:0, 8=6+2:0:0:0:0, 6=5+1:1:0:0:1, 8=7+1:1:0:0:1, 6=5+1:0:0:0:0, 5=5+0:0:0:0:0, 5=5+0:0:0:0:0, 1=1+0:0:0:0:0, 361=304+57:24:1:0:39
Eb minor mel (6b),  ,  ,  ,  ,  ,  ,  ,  ,  ,  ,  ,  ,  ,  ,  ,  ,  ,  ,  ,  ,  ,  ,  ,  ,  ,  ,  ,  ,  ,  ,  ,  ,  ,  ,  ,  ,  ,  ,  ,  ,  ,  ,  ,  ,  ,  ,  ,  ,  ,  ,  ,  ,  ,  ,  ,  ,  ,  ,  ,  ,  ,  ,  ,  ,  ,  ,  ,  ,  ,  ,  ,  ,  ,  , 0=0+0:0:0:0:0
D# minor mel (6#),  ,  ,  ,  ,  ,  ,  ,  ,  ,  ,  ,  ,  ,  ,  ,  ,  ,  ,  ,  ,  ,  ,  ,  ,  ,  ,  ,  ,  ,  ,  ,  ,  ,  ,  ,  ,  ,  ,  ,  ,  ,  ,  ,  ,  ,  ,  ,  ,  ,  ,  ,  ,  ,  ,  ,  ,  ,  ,  ,  ,  ,  ,  ,  ,  ,  ,  ,  ,  ,  ,  ,  ,  ,  , 0=0+0:0:0:0:0
Gb major blues (6b),  ,  ,  ,  ,  ,  ,  ,  ,  ,  ,  ,  ,  ,  ,  ,  ,  ,  ,  ,  ,  ,  ,  ,  ,  ,  ,  ,  ,  ,  ,  ,  ,  ,  ,  ,  ,  ,  ,  ,  ,  ,  ,  ,  ,  ,  ,  ,  ,  ,  ,  ,  ,  ,  ,  ,  ,  ,  ,  ,  ,  ,  ,  ,  ,  ,  ,  ,  ,  ,  ,  ,  ,  ,  , 0=0+0:0:0:0:0
F# major blues (6#),  ,  ,  ,  ,  ,  ,  ,  ,  ,  ,  ,  ,  ,  ,  ,  ,  ,  ,  ,  ,  ,  ,  ,  ,  ,  ,  ,  ,  ,  ,  ,  ,  ,  ,  ,  ,  ,  ,  ,  ,  ,  ,  ,  ,  ,  ,  ,  ,  ,  ,  ,  ,  ,  ,  ,  ,  ,  ,  ,  ,  ,  ,  ,  ,  ,  ,  ,  ,  ,  ,  ,  ,  ,  , 0=0+0:0:0:0:0
Eb minor blues (6b),  ,  ,  ,  ,  ,  ,  ,  ,  ,  ,  ,  ,  ,  ,  ,  ,  ,  ,  ,  ,  ,  ,  ,  ,  ,  ,  ,  ,  ,  ,  ,  ,  ,  ,  ,  ,  ,  ,  ,  ,  ,  ,  ,  ,  ,  ,  ,  ,  ,  ,  ,  ,  ,  ,  ,  ,  ,  ,  ,  ,  ,  ,  ,  ,  ,  ,  ,  ,  ,  ,  ,  ,  ,  , 0=0+0:0:0:0:0
D# minor blues (6#),  ,  ,  ,  ,  ,  ,  ,  ,  ,  ,  ,  ,  ,  ,  ,  ,  ,  ,  ,  ,  ,  ,  ,  ,  ,  ,  ,  ,  ,  ,  ,  ,  ,  ,  ,  ,  ,  ,  ,  ,  ,  ,  ,  ,  ,  ,  ,  ,  ,  ,  ,  ,  ,  ,  ,  ,  ,  ,  ,  ,  ,  ,  ,  ,  ,  ,  ,  ,  ,  ,  ,  ,  ,  , 0=0+0:0:0:0:0
Gb dorian (6b),  ,  ,  ,  ,  ,  ,  ,  ,  ,  ,  ,  ,  ,  ,  ,  ,  ,  ,  ,  ,  ,  ,  ,  ,  ,  ,  ,  ,  ,  ,  ,  ,  ,  ,  ,  ,  ,  ,  ,  ,  ,  ,  ,  ,  ,  ,  ,  ,  ,  ,  ,  ,  ,  ,  ,  ,  ,  ,  ,  ,  ,  ,  ,  ,  ,  ,  ,  ,  ,  ,  ,  ,  ,  , 0=0+0:0:0:0:0
F# dorian (6#),  ,  ,  ,  ,  ,  ,  ,  ,  ,  ,  ,  ,  ,  ,  ,  ,  ,  ,  ,  ,  ,  ,  ,  ,  ,  ,  ,  ,  ,  ,  ,  ,  ,  ,  ,  ,  ,  ,  ,  ,  ,  ,  ,  ,  ,  ,  ,  ,  ,  ,  ,  ,  ,  ,  ,  ,  ,  ,  ,  ,  ,  ,  ,  ,  ,  ,  ,  ,  ,  ,  ,  ,  ,  , 0=0+0:0:0:0:0
Gb phrygian (6b),  ,  ,  ,  ,  ,  ,  ,  ,  ,  ,  ,  ,  ,  ,  ,  ,  ,  ,  ,  ,  ,  ,  ,  ,  ,  ,  ,  ,  ,  ,  ,  ,  ,  ,  ,  ,  ,  ,  ,  ,  ,  ,  ,  ,  ,  ,  ,  ,  ,  ,  ,  ,  ,  ,  ,  ,  ,  ,  ,  ,  ,  ,  ,  ,  ,  ,  ,  ,  ,  ,  ,  ,  ,  , 0=0+0:0:0:0:0
F# phrygian (6#),  ,  ,  ,  ,  ,  ,  ,  ,  ,  ,  ,  ,  ,  ,  ,  ,  ,  ,  ,  ,  ,  ,  ,  ,  ,  ,  ,  ,  ,  ,  ,  ,  ,  ,  ,  ,  ,  ,  ,  ,  ,  ,  ,  ,  ,  ,  ,  ,  ,  ,  ,  ,  ,  ,  ,  ,  ,  ,  ,  ,  ,  ,  ,  ,  ,  ,  ,  ,  ,  ,  ,  ,  ,  , 0=0+0:0:0:0:0
Gb lydian (6b),  ,  ,  ,  ,  ,  ,  ,  ,  ,  ,  ,  ,  ,  ,  ,  ,  ,  ,  ,  ,  ,  ,  ,  ,  ,  ,  ,  ,  ,  ,  ,  ,  ,  ,  ,  ,  ,  ,  ,  ,  ,  ,  ,  ,  ,  ,  ,  ,  ,  ,  ,  ,  ,  ,  ,  ,  ,  ,  ,  ,  ,  ,  ,  ,  ,  ,  ,  ,  ,  ,  ,  ,  ,  , 0=0+0:0:0:0:0
F# lydian (6#),  ,  ,  ,  ,  ,  ,  ,  ,  ,  ,  ,  ,  ,  ,  ,  ,  ,  ,  ,  ,  ,  ,  ,  ,  ,  ,  ,  ,  ,  ,  ,  ,  ,  ,  ,  ,  ,  ,  ,  ,  ,  ,  ,  ,  ,  ,  ,  ,  ,  ,  ,  ,  ,  ,  ,  ,  ,  ,  ,  ,  ,  ,  ,  ,  ,  ,  ,  ,  ,  ,  ,  ,  ,  , 0=0+0:0:0:0:0
Gb mixolydian (6b),  ,  ,  ,  ,  ,  ,  ,  ,  ,  ,  ,  ,  ,  ,  ,  ,  ,  ,  ,  ,  ,  ,  ,  ,  ,  ,  ,  ,  ,  ,  ,  ,  ,  ,  ,  ,  ,  ,  ,  ,  ,  ,  ,  ,  ,  ,  ,  ,  ,  ,  ,  ,  ,  ,  ,  ,  ,  ,  ,  ,  ,  ,  ,  ,  ,  ,  ,  ,  ,  ,  ,  ,  ,  , 0=0+0:0:0:0:0
F# mixolydian (6#),  ,  ,  ,  ,  ,  ,  ,  ,  ,  ,  ,  ,  ,  ,  ,  ,  ,  ,  ,  ,  ,  ,  ,  ,  ,  ,  ,  ,  ,  ,  ,  ,  ,  ,  ,  ,  ,  ,  ,  ,  ,  ,  ,  ,  ,  ,  ,  ,  ,  ,  ,  ,  ,  ,  ,  ,  ,  ,  ,  ,  ,  ,  ,  ,  ,  ,  ,  ,  ,  ,  ,  ,  ,  , 0=0+0:0:0:0:0
Gb aeolian (6b),  ,  ,  ,  ,  ,  ,  ,  ,  ,  ,  ,  ,  ,  ,  ,  ,  ,  ,  ,  ,  ,  ,  ,  ,  ,  ,  ,  ,  ,  ,  ,  ,  ,  ,  ,  ,  ,  ,  ,  ,  ,  ,  ,  ,  ,  ,  ,  ,  ,  ,  ,  ,  ,  ,  ,  ,  ,  ,  ,  ,  ,  ,  ,  ,  ,  ,  ,  ,  ,  ,  ,  ,  ,  , 0=0+0:0:0:0:0
F# aeolian (6#),  ,  ,  ,  ,  ,  ,  ,  ,  ,  ,  ,  ,  ,  ,  ,  ,  ,  ,  ,  ,  ,  ,  ,  ,  ,  ,  ,  ,  ,  ,  ,  ,  ,  ,  ,  ,  ,  ,  ,  ,  ,  ,  ,  ,  ,  ,  ,  ,  ,  ,  ,  ,  ,  ,  ,  ,  ,  ,  ,  ,  ,  ,  ,  ,  ,  ,  ,  ,  ,  ,  ,  ,  ,  , 0=0+0:0:0:0:0
Gb locrian (6b),  ,  ,  ,  ,  ,  ,  ,  ,  ,  ,  ,  ,  ,  ,  ,  ,  ,  ,  ,  ,  ,  ,  ,  ,  ,  ,  ,  ,  ,  ,  ,  ,  ,  ,  ,  ,  ,  ,  ,  ,  ,  ,  ,  ,  ,  ,  ,  ,  ,  ,  ,  ,  ,  ,  ,  ,  ,  ,  ,  ,  ,  ,  ,  ,  ,  ,  ,  ,  ,  ,  ,  ,  ,  , 0=0+0:0:0:0:0
F# locrian (6#),  ,  ,  ,  ,  ,  ,  ,  ,  ,  ,  ,  ,  ,  ,  ,  ,  ,  ,  ,  ,  ,  ,  ,  ,  ,  ,  ,  ,  ,  ,  ,  ,  ,  ,  ,  ,  ,  ,  ,  ,  ,  ,  ,  ,  ,  ,  ,  ,  ,  ,  ,  ,  ,  ,  ,  ,  ,  ,  ,  ,  ,  ,  ,  ,  ,  ,  ,  ,  ,  ,  ,  ,  ,  , 0=0+0:0:0:0:0
Cb major (7b), 1=1+0:0:0:0:0, 6=5+1:0:0:0:0, 2=2+0:0:0:0:0, 2=2+0:0:0:0:0, 6=4+2:0:0:0:0, 4=3+1:0:0:0:0, 2=2+0:0:0:0:0, 4=3+1:0:0:0:0, 7=4+3:3:1:0:2, 6=4+2:1:0:0:0, 3=3+0:0:0:0:0, 3=3+0:0:0:0:0, 4=3+1:0:0:0:0, 6=6+0:0:0:0:0, 2=2+0:0:0:0:0, 2=2+0:0:0:0:0, 6=4+2:0:0:0:0, 4=3+1:0:0:0:0, 2=2+0:0:0:0:0, 4=3+1:0:0:0:0, 7=4+3:3:1:0:2, 6=4+2:1:0:0:0, 5=3+2:0:0:0:2, 3=3+0:0:0:0:0, 3=3+0:0:0:0:0, 5=3+2:0:1:0:0, 7=5+2:0:0:0:0, 4=3+1:0:0:0:1, 1=1+0:0:0:0:0, 6=5+1:0:0:0:0, 6=4+2:0:0:0:0, 5=3+2:0:1:0:0,  , 5=5+0:0:0:0:0, 8=5+3:0:0:0:0, 5=3+2:0:0:0:2,  , 5=1+4:0:3:0:0, 3=1+2:0:1:0:0, 4=2+2:0:1:0:0, 6=5+1:0:0:0:0, 6=4+2:0:0:0:0, 2=2+0:0:0:0:0, 5=2+3:0:0:0:0,  , 10=7+3:0:0:0:1, 12=7+5:0:0:0:4, 2=2+0:0:0:0:0, 6=5+1:0:0:0:0, 8=6+2:0:0:0:0, 7=5+2:0:0:0:0, 8=6+2:0:0:0:0, 5=4+1:0:0:0:0, 0=0+0:0:0:0:0, 6=4+2:0:0:0:0, 3=2+1:0:0:0:0, 7=5+2:0:0:0:0, 4=4+0:0:0:0:0, 7=5+2:0:0:0:2, 3=2+1:0:0:0:1, 1=1+0:0:0:0:0, 6=5+1:0:0:0:1, 6=5+1:0:0:0:0, 3=3+0:0:0:0:0,  , 3=3+0:0:0:0:0, 4=4+0:0:0:0:0, 7=4+3:0:2:0:2, 8=5+3:0:0:0:0, 7=6+1:0:0:0:0, 4=3+1:0:0:0:0, 6=4+2:0:0:0:2, 6=5+1:0:0:0:0, 1=1+0:0:0:0:0, 333=245+88:8:11:0:22
C# major (7#), 1=1+0:0:0:0:0, 7=5+2:1:0:0:2, 2=2+0:0:0:0:0, 2=2+0:0:0:0:0, 5=4+1:1:0:0:1, 5=4+1:0:0:0:0, 5=5+0:0:0:0:0, 4=3+1:0:0:0:0, 6=3+3:3:1:0:2, 6=4+2:2:0:0:2, 5=3+2:0:0:0:0, 3=3+0:0:0:0:0, 3=3+0:0:0:0:0, 7=5+2:1:0:0:2, 2=2+0:0:0:0:0, 2=2+0:0:0:0:0, 5=4+1:1:0:0:1, 5=4+1:0:0:0:0, 5=5+0:0:0:0:0, 4=3+1:0:0:0:0, 6=3+3:3:1:0:2, 6=4+2:2:0:0:2, 5=3+2:0:0:0:0, 3=3+0:0:0:0:0, 3=3+0:0:0:0:0, 8=6+2:0:0:0:1, 6=6+0:0:0:0:0, 4=4+0:0:0:0:0, 1=1+0:0:0:0:0, 8=8+0:0:0:0:0, 8=6+2:0:0:0:1, 5=4+1:0:0:0:0,  , 6=5+1:1:0:0:1, 8=6+2:0:0:0:0, 5=3+2:0:0:0:2,  , 7=3+4:1:0:0:4, 5=3+2:1:1:0:1, 6=4+2:1:0:0:2, 6=6+0:0:0:0:0, 6=6+0:0:0:0:0, 2=2+0:0:0:0:0, 3=3+0:0:0:0:0,  , 11=6+5:4:1:0:4, 13=9+4:0:0:0:0, 4=4+0:0:0:0:0, 5=5+0:0:0:0:0, 8=7+1:1:0:0:1, 8=6+2:1:0:0:1, 9=8+1:0:0:0:0, 4=3+1:1:0:0:1, 1=1+0:0:0:0:0, 7=7+0:0:0:0:0, 3=3+0:0:0:0:0, 7=6+1:1:0:0:1, 6=5+1:0:0:0:0, 9=6+3:2:0:0:2, 4=3+1:0:0:0:1, 1=1+0:0:0:0:0, 7=6+1:0:0:0:1, 7=6+1:0:0:0:1, 4=4+0:0:0:0:0,  , 5=5+0:0:0:0:0, 6=6+0:0:0:0:0, 8=6+2:0:0:0:0, 6=5+1:1:0:0:1, 8=7+1:1:0:0:1, 6=5+1:0:0:0:0, 5=5+0:0:0:0:0, 5=5+0:0:0:0:0, 1=1+0:0:0:0:0, 369=300+69:30:4:0:41
Ab minor (7b), 1=1+0:0:0:0:0, 6=5+1:0:0:0:0, 2=2+0:0:0:0:0, 2=2+0:0:0:0:0, 5=4+1:0:0:0:0, 4=3+1:0:0:0:0, 3=2+1:0:0:0:0, 4=3+1:0:0:0:0, 8=4+4:0:1:0:1, 6=4+2:2:0:0:2, 3=3+0:0:0:0:0, 3=3+0:0:0:0:0, 3=3+0:0:0:0:0, 6=5+1:0:0:0:0, 2=2+0:0:0:0:0, 2=2+0:0:0:0:0, 5=4+1:0:0:0:0, 4=3+1:0:0:0:0, 3=2+1:0:0:0:0, 4=3+1:0:0:0:0, 8=4+4:0:1:0:1, 6=4+2:2:0:0:2, 3=3+0:0:0:0:0, 3=3+0:0:0:0:0, 3=3+0:0:0:0:0, 5=3+2:0:1:0:0, 7=5+2:0:0:0:0, 4=3+1:0:0:0:1, 1=1+0:0:0:0:0, 5=5+0:0:0:0:0, 6=4+2:0:0:0:1, 5=3+2:0:1:0:0,  , 6=5+1:0:0:0:0, 7=5+2:0:0:0:0, 5=3+2:0:0:0:2,  , 5=1+4:0:3:0:0, 3=1+2:0:1:0:0, 4=2+2:0:1:0:0, 6=5+1:0:0:0:0, 4=4+0:0:0:0:0, 2=2+0:0:0:0:0, 2=2+0:0:0:0:0,  , 10=7+3:0:0:0:1, 12=7+5:0:0:0:4, 2=2+0:0:0:0:0, 6=5+1:0:0:0:0, 8=6+2:0:0:0:0, 7=5+2:0:0:0:0, 8=6+2:0:0:0:0, 5=4+1:0:0:0:0, 0=0+0:0:0:0:0, 4=4+0:0:0:0:0, 3=2+1:0:0:0:1, 10=5+5:0:0:0:0, 4=4+0:0:0:0:0, 7=5+2:0:0:0:0, 2=2+0:0:0:0:0, 1=1+0:0:0:0:0, 6=5+1:0:0:0:1, 6=5+1:0:0:0:0, 3=3+0:0:0:0:0,  , 3=3+0:0:0:0:0, 4=4+0:0:0:0:0, 7=4+3:0:2:0:0, 6=5+1:0:0:0:0, 7=6+1:0:0:0:0, 4=3+1:0:0:0:0, 4=4+0:0:0:0:0, 6=5+1:0:0:0:0, 1=1+0:0:0:0:0, 322=244+78:4:11:0:17
A# minor (7#), 1=1+0:0:0:0:0, 7=5+2:1:0:0:2, 2=2+0:0:0:0:0, 2=2+0:0:0:0:0, 5=4+1:1:0:0:1, 5=4+1:0:0:0:0, 5=5+0:0:0:0:0, 4=3+1:0:0:0:0, 6=3+3:3:1:0:2, 6=4+2:2:0:0:2, 3=3+0:0:0:0:0, 3=3+0:0:0:0:0, 3=3+0:0:0:0:0, 7=5+2:1:0:0:2, 2=2+0:0:0:0:0, 2=2+0:0:0:0:0, 5=4+1:1:0:0:1, 5=4+1:0:0:0:0, 5=5+0:0:0:0:0, 4=3+1:0:0:0:0, 6=3+3:3:1:0:2, 6=4+2:2:0:0:2, 3=3+0:0:0:0:0, 3=3+0:0:0:0:0, 3=3+0:0:0:0:0, 8=6+2:0:0:0:1, 6=6+0:0:0:0:0, 4=4+0:0:0:0:0, 1=1+0:0:0:0:0, 8=8+0:0:0:0:0, 8=6+2:0:0:0:1, 5=4+1:0:0:0:0,  , 6=5+1:1:0:0:1, 6=6+0:0:0:0:0, 3=3+0:0:0:0:0,  , 7=3+4:1:0:0:4, 5=3+2:1:1:0:1, 6=4+2:1:0:0:2, 6=6+0:0:0:0:0, 6=6+0:0:0:0:0, 2=2+0:0:0:0:0, 3=3+0:0:0:0:0,  , 11=6+5:4:1:0:4, 9=8+1:1:0:0:1, 4=3+1:1:0:0:1, 5=5+0:0:0:0:0, 8=7+1:1:0:0:1, 8=6+2:1:0:0:1, 9=8+1:0:0:0:0, 4=3+1:1:0:0:1, 1=1+0:0:0:0:0, 7=7+0:0:0:0:0, 3=3+0:0:0:0:0, 7=6+1:1:0:0:1, 5=5+0:0:0:0:0, 8=6+2:2:0:0:2, 3=3+0:0:0:0:0, 1=1+0:0:0:0:0, 7=6+1:0:0:0:0, 7=6+1:0:0:0:1, 4=4+0:0:0:0:0,  , 5=5+0:0:0:0:0, 6=6+0:0:0:0:0, 8=6+2:0:0:0:0, 6=5+1:1:0:0:1, 8=7+1:1:0:0:1, 5=4+1:1:0:0:1, 5=5+0:0:0:0:0, 5=5+0:0:0:0:0, 1=1+0:0:0:0:0, 353=297+56:33:4:0:40
Ab minor mel (7b),  ,  ,  ,  ,  ,  ,  ,  ,  ,  ,  ,  ,  ,  ,  ,  ,  ,  ,  ,  ,  ,  ,  ,  ,  ,  ,  ,  ,  ,  ,  ,  ,  ,  ,  ,  ,  ,  ,  ,  ,  ,  ,  ,  ,  ,  ,  ,  ,  ,  ,  ,  ,  ,  ,  ,  ,  ,  ,  ,  ,  ,  ,  ,  ,  ,  ,  ,  ,  ,  ,  ,  ,  ,  , 0=0+0:0:0:0:0
A# minor mel (7#),  ,  ,  ,  ,  ,  ,  ,  ,  ,  ,  ,  ,  ,  ,  ,  ,  ,  ,  ,  ,  ,  ,  ,  ,  ,  ,  ,  ,  ,  ,  ,  ,  ,  ,  ,  ,  ,  ,  ,  ,  ,  ,  ,  ,  ,  ,  ,  ,  ,  ,  ,  ,  ,  ,  ,  ,  ,  ,  ,  ,  ,  ,  ,  ,  ,  ,  ,  ,  ,  ,  ,  ,  ,  , 0=0+0:0:0:0:0
Cb major blues (7b),  ,  ,  ,  ,  ,  ,  ,  ,  ,  ,  ,  ,  ,  ,  ,  ,  ,  ,  ,  ,  ,  ,  ,  ,  ,  ,  ,  ,  ,  ,  ,  ,  ,  ,  ,  ,  ,  ,  ,  ,  ,  ,  ,  ,  ,  ,  ,  ,  ,  ,  ,  ,  ,  ,  ,  ,  ,  ,  ,  ,  ,  ,  ,  ,  ,  ,  ,  ,  ,  ,  ,  ,  ,  , 0=0+0:0:0:0:0
C# major blues (7#),  ,  ,  ,  ,  ,  ,  ,  ,  ,  ,  ,  ,  ,  ,  ,  ,  ,  ,  ,  ,  ,  ,  ,  ,  ,  ,  ,  ,  ,  ,  ,  ,  ,  ,  ,  ,  ,  ,  ,  ,  ,  ,  ,  ,  ,  ,  ,  ,  ,  ,  ,  ,  ,  ,  ,  ,  ,  ,  ,  ,  ,  ,  ,  ,  ,  ,  ,  ,  ,  ,  ,  ,  ,  , 0=0+0:0:0:0:0
Ab minor blues (7b),  ,  ,  ,  ,  ,  ,  ,  ,  ,  ,  ,  ,  ,  ,  ,  ,  ,  ,  ,  ,  ,  ,  ,  ,  ,  ,  ,  ,  ,  ,  ,  ,  ,  ,  ,  ,  ,  ,  ,  ,  ,  ,  ,  ,  ,  ,  ,  ,  ,  ,  ,  ,  ,  ,  ,  ,  ,  ,  ,  ,  ,  ,  ,  ,  ,  ,  ,  ,  ,  ,  ,  ,  ,  , 0=0+0:0:0:0:0
A# minor blues (7#),  ,  ,  ,  ,  ,  ,  ,  ,  ,  ,  ,  ,  ,  ,  ,  ,  ,  ,  ,  ,  ,  ,  ,  ,  ,  ,  ,  ,  ,  ,  ,  ,  ,  ,  ,  ,  ,  ,  ,  ,  ,  ,  ,  ,  ,  ,  ,  ,  ,  ,  ,  ,  ,  ,  ,  ,  ,  ,  ,  ,  ,  ,  ,  ,  ,  ,  ,  ,  ,  ,  ,  ,  ,  , 0=0+0:0:0:0:0
Cb dorian (7b),  ,  ,  ,  ,  ,  ,  ,  ,  ,  ,  ,  ,  ,  ,  ,  ,  ,  ,  ,  ,  ,  ,  ,  ,  ,  ,  ,  ,  ,  ,  ,  ,  ,  ,  ,  ,  ,  ,  ,  ,  ,  ,  ,  ,  ,  ,  ,  ,  ,  ,  ,  ,  ,  ,  ,  ,  ,  ,  ,  ,  ,  ,  ,  ,  ,  ,  ,  ,  ,  ,  ,  ,  ,  , 0=0+0:0:0:0:0
C# dorian (7#),  ,  ,  ,  ,  ,  ,  ,  ,  ,  ,  ,  ,  ,  ,  ,  ,  ,  ,  ,  ,  ,  ,  ,  ,  ,  ,  ,  ,  ,  ,  ,  ,  ,  ,  ,  ,  ,  ,  ,  ,  ,  ,  ,  ,  ,  ,  ,  ,  ,  ,  ,  ,  ,  ,  ,  ,  ,  ,  ,  ,  ,  ,  ,  ,  ,  ,  ,  ,  ,  ,  ,  ,  ,  , 0=0+0:0:0:0:0
Cb phrygian (7b),  ,  ,  ,  ,  ,  ,  ,  ,  ,  ,  ,  ,  ,  ,  ,  ,  ,  ,  ,  ,  ,  ,  ,  ,  ,  ,  ,  ,  ,  ,  ,  ,  ,  ,  ,  ,  ,  ,  ,  ,  ,  ,  ,  ,  ,  ,  ,  ,  ,  ,  ,  ,  ,  ,  ,  ,  ,  ,  ,  ,  ,  ,  ,  ,  ,  ,  ,  ,  ,  ,  ,  ,  ,  , 0=0+0:0:0:0:0
C# phrygian (7#),  ,  ,  ,  ,  ,  ,  ,  ,  ,  ,  ,  ,  ,  ,  ,  ,  ,  ,  ,  ,  ,  ,  ,  ,  ,  ,  ,  ,  ,  ,  ,  ,  ,  ,  ,  ,  ,  ,  ,  ,  ,  ,  ,  ,  ,  ,  ,  ,  ,  ,  ,  ,  ,  ,  ,  ,  ,  ,  ,  ,  ,  ,  ,  ,  ,  ,  ,  ,  ,  ,  ,  ,  ,  , 0=0+0:0:0:0:0
Cb lydian (7b),  ,  ,  ,  ,  ,  ,  ,  ,  ,  ,  ,  ,  ,  ,  ,  ,  ,  ,  ,  ,  ,  ,  ,  ,  ,  ,  ,  ,  ,  ,  ,  ,  ,  ,  ,  ,  ,  ,  ,  ,  ,  ,  ,  ,  ,  ,  ,  ,  ,  ,  ,  ,  ,  ,  ,  ,  ,  ,  ,  ,  ,  ,  ,  ,  ,  ,  ,  ,  ,  ,  ,  ,  ,  , 0=0+0:0:0:0:0
C# lydian (7#),  ,  ,  ,  ,  ,  ,  ,  ,  ,  ,  ,  ,  ,  ,  ,  ,  ,  ,  ,  ,  ,  ,  ,  ,  ,  ,  ,  ,  ,  ,  ,  ,  ,  ,  ,  ,  ,  ,  ,  ,  ,  ,  ,  ,  ,  ,  ,  ,  ,  ,  ,  ,  ,  ,  ,  ,  ,  ,  ,  ,  ,  ,  ,  ,  ,  ,  ,  ,  ,  ,  ,  ,  ,  , 0=0+0:0:0:0:0
Cb mixolydian (7b),  ,  ,  ,  ,  ,  ,  ,  ,  ,  ,  ,  ,  ,  ,  ,  ,  ,  ,  ,  ,  ,  ,  ,  ,  ,  ,  ,  ,  ,  ,  ,  ,  ,  ,  ,  ,  ,  ,  ,  ,  ,  ,  ,  ,  ,  ,  ,  ,  ,  ,  ,  ,  ,  ,  ,  ,  ,  ,  ,  ,  ,  ,  ,  ,  ,  ,  ,  ,  ,  ,  ,  ,  ,  , 0=0+0:0:0:0:0
C# mixolydian (7#),  ,  ,  ,  ,  ,  ,  ,  ,  ,  ,  ,  ,  ,  ,  ,  ,  ,  ,  ,  ,  ,  ,  ,  ,  ,  ,  ,  ,  ,  ,  ,  ,  ,  ,  ,  ,  ,  ,  ,  ,  ,  ,  ,  ,  ,  ,  ,  ,  ,  ,  ,  ,  ,  ,  ,  ,  ,  ,  ,  ,  ,  ,  ,  ,  ,  ,  ,  ,  ,  ,  ,  ,  ,  , 0=0+0:0:0:0:0
Cb aeolian (7b),  ,  ,  ,  ,  ,  ,  ,  ,  ,  ,  ,  ,  ,  ,  ,  ,  ,  ,  ,  ,  ,  ,  ,  ,  ,  ,  ,  ,  ,  ,  ,  ,  ,  ,  ,  ,  ,  ,  ,  ,  ,  ,  ,  ,  ,  ,  ,  ,  ,  ,  ,  ,  ,  ,  ,  ,  ,  ,  ,  ,  ,  ,  ,  ,  ,  ,  ,  ,  ,  ,  ,  ,  ,  , 0=0+0:0:0:0:0
C# aeolian (7#),  ,  ,  ,  ,  ,  ,  ,  ,  ,  ,  ,  ,  ,  ,  ,  ,  ,  ,  ,  ,  ,  ,  ,  ,  ,  ,  ,  ,  ,  ,  ,  ,  ,  ,  ,  ,  ,  ,  ,  ,  ,  ,  ,  ,  ,  ,  ,  ,  ,  ,  ,  ,  ,  ,  ,  ,  ,  ,  ,  ,  ,  ,  ,  ,  ,  ,  ,  ,  ,  ,  ,  ,  ,  , 0=0+0:0:0:0:0
Cb locrian (7b),  ,  ,  ,  ,  ,  ,  ,  ,  ,  ,  ,  ,  ,  ,  ,  ,  ,  ,  ,  ,  ,  ,  ,  ,  ,  ,  ,  ,  ,  ,  ,  ,  ,  ,  ,  ,  ,  ,  ,  ,  ,  ,  ,  ,  ,  ,  ,  ,  ,  ,  ,  ,  ,  ,  ,  ,  ,  ,  ,  ,  ,  ,  ,  ,  ,  ,  ,  ,  ,  ,  ,  ,  ,  , 0=0+0:0:0:0:0
C# locrian (7#),  ,  ,  ,  ,  ,  ,  ,  ,  ,  ,  ,  ,  ,  ,  ,  ,  ,  ,  ,  ,  ,  ,  ,  ,  ,  ,  ,  ,  ,  ,  ,  ,  ,  ,  ,  ,  ,  ,  ,  ,  ,  ,  ,  ,  ,  ,  ,  ,  ,  ,  ,  ,  ,  ,  ,  ,  ,  ,  ,  ,  ,  ,  ,  ,  ,  ,  ,  ,  ,  ,  ,  ,  ,  , 0=0+0:0:0:0:0
