 , 0, 1, 2, 3, 4, 5, 6, 7, 8, 9, 10, 11, 12, 13, 14, 15, 16, 17, 18, 19, 20, 21, 22, 23, 24, 25, 26, 27, 28, 29, 30, 31, 32, 33, 34, 35, 36, 37, 38, 39, 40, 41, 42, 43, 44, 45, 46, 47, 48, 49, 50, 51, 52, 53, 54, 55, 56, 57, 58, 59, 60, 61, 62, 63, 64, 65, 66, 67, 68, 69, 70, 71, 72, 73, 74, 75, 76, 77, 78, 79, 80, 81, 82, 83, 84, 85, 86, 87, 88, 89, 90, 91, 92, 93, 94, 95, 96, 97, 98, 99, 100, 101, 102, 103, 104, 105, 106, 107, 108, 109, 110, 111, 112, 113, 114, 115, 116, 117, 118, 119, 120, 121, 122, 123, 124, 125, 126, 127, 128, 129, 130, 131, 132, 133, 134, 135, 136, 137, 138, 139, 140, 141, 142, 143, 144, 145, 146, 147, 148, 149, 150, 151, 152, 153, 154, 155, 156, 157, 158, 159, 160, 161, 162, 163, 164, 165, 166, 167, 168, 169, 170, 171, 172, 173, 174, 175, 176, 177, 178, 179, 180, 181, 182, 183, 184, 185, 186, 187, 188, 189, 190, 191, 192, rowcost
C major (0), 1+0:0:0:0:0, 1+0:0:0:0:0, 3+1:0:0:0:0, 1+0:0:0:0:0, 1+0:0:0:0:0, 1+2:0:0:0:2, 0+0:0:0:0:0, 1+0:0:0:0:0, 2+1:0:0:0:0, 1+2:0:0:0:0, 3+2:0:0:0:1, 1+1:0:0:0:0, 0+0:0:0:0:0, 4+5:0:0:0:4, 1+0:0:0:0:0, 1+0:0:0:0:0, 3+4:0:0:0:0, 0+0:0:0:0:0, 2+3:1:0:0:1, 3+1:0:0:0:0, 1+0:0:0:0:0, 2+0:0:0:0:0, 0+0:0:0:0:0, 0+0:0:0:0:0, 0+0:0:0:0:0, 3+2:0:0:0:0, 3+2:1:0:0:2, 0+0:0:0:0:0, 0+0:0:0:0:0, 1+3:0:0:0:3, 1+3:0:0:0:0, 2+4:0:0:0:0, 1+0:0:0:0:0, 1+0:0:0:0:0, 2+2:0:0:0:0, 0+0:0:0:0:0, 0+0:0:0:0:0, 1+2:0:0:0:2, 0+0:0:0:0:0, 1+5:0:0:0:0, 2+0:0:0:0:0, 1+2:0:0:0:0, 1+0:0:0:0:0, 0+0:0:0:0:0, 1+1:0:0:0:0, 3+4:0:0:0:2, 1+1:0:0:0:0, 1+0:0:0:0:0, 2+2:0:0:0:0, 0+0:0:0:0:0, 2+3:1:0:0:1, 3+2:0:0:0:0, 1+0:0:0:0:0, 2+0:0:0:0:0, 0+0:0:0:0:0, 0+0:0:0:0:0, 0+0:0:0:0:0, 1+3:0:0:0:0, 2+2:0:0:0:0, 1+1:0:0:0:0, 1+1:0:0:0:0, 1+2:0:0:0:2, 1+3:0:0:0:0, 1+4:0:0:0:0, 2+3:0:0:0:0, 1+4:0:0:0:0, 2+1:0:0:0:0, 1+0:0:0:0:0, 2+1:0:0:0:0, 2+3:0:0:0:2, 2+1:0:0:0:0, 1+3:0:0:0:0, 2+1:0:0:0:0, 2+3:0:0:0:0, 2+1:0:0:0:0, 1+1:0:0:0:0, 1+0:0:0:0:0, 5+2:1:0:0:2, 2+3:0:0:0:0, 2+2:0:0:0:0, 4+2:0:0:0:0, 3+2:1:0:0:1, 2+3:1:0:0:1, 3+2:0:0:0:0, 1+0:0:0:0:0, 2+0:0:0:0:0, 0+0:0:0:0:0, 0+0:0:0:0:0, 0+0:0:0:0:0, 1+3:0:0:0:0, 3+2:0:0:0:1, 2+1:0:0:0:0, 1+0:0:0:0:0, 2+4:0:0:0:3, 2+4:0:0:0:0, 1+7:0:0:0:0, 1+2:0:0:0:0, 2+2:1:0:0:1, 2+0:0:0:0:0, 2+2:0:0:0:0, 2+0:0:0:0:0, 3+2:0:0:0:1, 1+0:0:0:0:0, 1+3:0:0:0:0, 2+2:0:0:0:0, 2+1:0:0:0:0, 3+1:0:0:0:0, 2+1:0:0:0:0, 2+2:0:0:0:0, 1+3:0:0:0:3, 1+1:0:0:0:1, 2+1:0:0:0:0, 2+3:0:0:0:0, 2+4:0:0:0:0, 3+4:0:0:0:0, 2+1:0:0:0:0, 1+3:0:0:0:0, 3+1:0:0:0:0, 1+1:0:0:0:0, 0+0:0:0:0:0, 0+0:0:0:0:0, 1+2:0:0:0:0, 3+2:0:0:0:0, 2+1:0:0:0:0, 3+1:0:0:0:0, 2+3:0:0:0:2, 2+1:0:0:0:0, 2+2:0:0:0:0, 3+1:0:0:0:0, 3+3:0:0:0:0, 2+0:0:0:0:0, 2+2:0:0:0:0, 2+0:0:0:0:0, 3+2:0:0:0:1, 1+0:0:0:0:0, 1+3:0:0:0:0, 2+1:0:0:0:0, 2+1:0:0:0:0, 3+1:0:0:0:0, 2+1:0:0:0:0, 2+1:0:0:0:0, 1+3:0:0:0:3, 1+1:0:0:0:1, 2+1:0:0:0:0, 3+4:0:0:0:0, 3+3:0:0:0:0, 3+4:0:0:0:0, 2+2:0:0:0:0, 1+3:0:0:0:0, 3+1:0:0:0:0, 1+1:0:0:0:0, 0+0:0:0:0:0, 0+0:0:0:0:0, 1+2:0:0:0:0, 3+2:0:0:0:0, 2+1:0:0:0:0, 3+1:0:0:0:0, 2+3:0:0:0:2, 2+1:0:0:0:0, 2+2:0:0:0:0, 1+0:0:0:0:0, 3+3:0:0:0:0, 2+1:0:0:0:1, 1+0:0:0:0:0, 2+1:0:0:0:0, 3+4:0:0:0:2, 2+1:0:0:0:0, 2+1:0:0:0:0, 3+2:0:0:0:0, 2+2:0:0:0:0, 1+0:0:0:0:0, 1+0:0:0:0:0, 2+1:0:0:0:0, 2+3:0:0:0:2, 2+1:0:0:0:0, 1+3:0:0:0:0, 2+3:0:0:0:0, 0+0:0:0:0:0, 2+3:1:0:0:1, 3+2:0:0:0:0, 2+3:0:0:0:0, 2+0:0:0:0:0, 1+1:0:0:0:1, 0+0:0:0:0:0, 0+0:0:0:0:0, 1+3:0:0:0:0, 1+0:0:0:0:0, 2+1:0:0:0:0, 1+0:0:0:0:0, 1+2:0:0:0:2, 2+1:0:0:0:0, 2+4:0:0:0:0, 1+0:0:0:0:0, 308+284:8:0:0:54
A minor (0), 1+0:0:0:0:0, 1+0:0:0:0:0, 3+5:0:0:0:0, 1+0:0:0:0:0, 1+1:0:0:0:0, 1+2:0:0:0:2, 0+0:0:0:0:0, 1+0:0:0:0:0, 2+1:0:0:0:0, 1+0:0:0:0:0, 3+2:0:0:0:0, 1+0:0:0:0:0, 0+2:0:0:0:0, 5+2:1:0:0:1, 1+1:0:0:0:0, 1+0:0:0:0:0, 4+5:0:0:0:1, 0+0:0:0:0:0, 2+1:0:0:0:0, 3+2:0:0:0:0, 1+0:0:0:0:0, 2+0:0:0:0:0, 0+0:0:0:0:0, 0+0:0:0:0:0, 0+0:0:0:0:0, 3+2:0:0:0:0, 3+2:1:0:0:2, 0+0:0:0:0:0, 0+2:0:0:0:0, 1+3:0:0:0:3, 1+0:0:0:0:0, 2+0:0:0:0:0, 1+0:0:0:0:0, 1+0:0:0:0:0, 2+2:0:0:0:0, 0+0:0:0:0:0, 0+2:0:0:0:0, 1+2:0:0:0:2, 0+0:0:0:0:0, 1+0:0:0:0:0, 2+0:0:0:0:0, 1+2:0:0:0:0, 1+0:0:0:0:0, 0+0:0:0:0:0, 1+3:0:0:0:0, 3+3:0:0:0:2, 1+1:0:0:0:0, 1+0:0:0:0:0, 2+2:0:0:0:2, 0+0:0:0:0:0, 2+1:0:0:0:0, 3+2:0:0:0:0, 1+0:0:0:0:0, 2+0:0:0:0:0, 0+0:0:0:0:0, 0+1:0:0:0:0, 0+0:0:0:0:0, 1+0:0:0:0:0, 2+4:0:0:0:0, 1+0:0:0:0:0, 1+2:0:0:0:0, 1+2:0:0:0:2, 1+0:0:0:0:0, 1+0:0:0:0:0, 2+0:0:0:0:0, 1+0:0:0:0:0, 2+2:0:0:0:0, 1+2:0:0:0:0, 2+1:0:0:0:1, 2+3:0:0:0:2, 1+1:0:0:0:0, 1+0:0:0:0:0, 2+1:0:0:0:0, 2+2:0:0:0:2, 2+4:0:0:0:4, 1+2:0:0:0:0, 1+2:0:0:0:0, 5+2:1:0:0:2, 2+3:0:0:0:0, 2+2:0:0:0:0, 4+2:0:0:0:0, 4+3:0:0:0:1, 2+1:0:0:0:0, 3+2:0:0:0:0, 1+0:0:0:0:0, 2+0:0:0:0:0, 0+0:0:0:0:0, 0+0:0:0:0:0, 0+0:0:0:0:0, 1+0:0:0:0:0, 3+2:0:0:0:0, 2+1:0:0:0:0, 1+0:0:0:0:0, 2+4:0:0:0:3, 2+4:0:0:0:0, 1+0:0:0:0:0, 1+1:0:0:0:0, 3+2:0:0:0:0, 2+3:0:0:0:0, 2+2:0:0:0:0, 2+0:0:0:0:0, 3+1:1:0:0:1, 1+1:0:0:0:0, 1+0:0:0:0:0, 2+2:0:0:0:0, 2+2:0:0:0:0, 3+1:0:0:0:0, 2+1:0:0:0:0, 2+2:0:0:0:0, 1+3:0:0:0:3, 1+1:0:0:0:0, 2+2:0:0:0:0, 2+4:0:0:0:3, 2+4:0:0:0:0, 3+4:0:0:0:0, 2+1:0:0:0:0, 1+1:0:0:0:0, 3+1:0:0:0:0, 1+1:0:0:0:0, 0+1:0:0:0:0, 0+1:0:0:0:0, 1+1:0:0:0:0, 3+2:0:0:0:0, 2+1:0:0:0:0, 3+1:0:0:0:0, 2+3:0:0:0:2, 1+1:0:0:0:0, 2+2:0:0:0:0, 3+2:0:0:0:0, 3+3:0:0:0:1, 2+0:0:0:0:0, 2+2:0:0:0:0, 2+0:0:0:0:0, 3+1:1:0:0:1, 1+1:0:0:0:0, 1+0:0:0:0:0, 2+1:0:0:0:0, 2+2:0:0:0:0, 3+1:0:0:0:0, 2+1:0:0:0:0, 2+1:0:0:0:0, 1+3:0:0:0:3, 1+1:0:0:0:0, 2+2:0:0:0:0, 3+4:0:0:0:3, 3+3:0:0:0:0, 3+4:0:0:0:0, 2+2:0:0:0:0, 1+1:0:0:0:0, 3+1:0:0:0:0, 1+1:0:0:0:0, 0+1:0:0:0:0, 0+1:0:0:0:0, 1+1:0:0:0:0, 3+2:0:0:0:0, 2+1:0:0:0:0, 3+1:0:0:0:0, 2+3:0:0:0:2, 1+1:0:0:0:0, 2+2:0:0:0:0, 1+1:0:0:0:0, 3+3:0:0:0:1, 2+2:0:0:0:0, 1+2:0:0:0:0, 2+2:0:0:0:0, 4+2:1:0:0:2, 1+1:0:0:0:0, 2+1:0:0:0:1, 3+2:0:0:0:0, 2+2:0:0:0:0, 1+0:0:0:0:0, 1+0:0:0:0:0, 2+2:0:0:0:0, 3+1:1:0:0:1, 1+1:0:0:0:0, 1+0:0:0:0:0, 2+6:0:0:0:6, 0+0:0:0:0:0, 2+1:0:0:0:0, 3+1:0:0:0:0, 2+0:0:0:0:0, 2+2:0:0:0:0, 2+1:0:0:0:0, 0+1:0:0:0:0, 0+0:0:0:0:0, 1+0:0:0:0:0, 1+2:0:0:0:0, 2+1:0:0:0:0, 1+0:0:0:0:0, 1+2:0:0:0:2, 1+1:0:0:0:1, 2+4:0:0:0:0, 1+0:0:0:0:0, 309+255:7:0:0:65
F major (1b), 0+0:0:0:0:0, 0+0:0:0:0:0, 2+1:0:0:0:0, 0+0:0:0:0:0, 0+0:0:0:0:0, 2+2:0:0:0:2, 0+0:0:0:0:0, 0+0:0:0:0:0, 2+1:0:0:0:0, 0+0:0:0:0:0, 2+0:0:0:0:0, 1+0:0:0:0:0, 0+0:0:0:0:0, 5+5:0:0:0:4, 1+0:0:0:0:0, 0+0:0:0:0:0, 2+4:0:0:0:0, 1+3:0:0:0:0, 2+1:0:0:0:0, 3+1:0:0:0:0, 1+0:0:0:0:0, 3+1:0:0:0:1, 1+0:0:0:0:0, 1+0:0:0:0:0, 0+0:0:0:0:0, 1+1:0:1:0:0, 3+2:0:0:0:1, 0+0:0:0:0:0, 0+0:0:0:0:0, 2+3:0:0:0:3, 0+0:0:0:0:0, 1+0:0:0:0:0, 1+0:0:0:0:0, 1+0:0:0:0:0, 2+1:0:0:0:0, 0+0:0:0:0:0, 0+0:0:0:0:0, 2+2:0:0:0:2, 1+0:0:0:0:0, 0+0:0:0:0:0, 2+2:0:0:0:0, 0+0:0:0:0:0, 1+0:0:0:0:0, 1+1:0:0:0:0, 1+1:0:0:0:0, 4+5:0:0:0:4, 1+1:0:0:0:0, 0+0:0:0:0:0, 2+2:0:0:0:0, 1+3:0:0:0:0, 2+1:0:0:0:0, 2+1:0:0:0:0, 1+0:0:0:0:0, 2+0:0:0:0:0, 1+0:0:0:0:0, 0+0:0:0:0:0, 1+0:0:0:0:0, 0+0:0:0:0:0, 1+4:0:0:0:0, 1+0:0:0:0:0, 2+1:0:0:0:0, 2+2:0:0:0:2, 0+0:0:0:0:0, 0+0:0:0:0:0, 1+0:0:0:0:0, 0+0:0:0:0:0, 2+1:0:0:0:0, 1+0:0:0:0:0, 1+1:0:0:0:0, 3+3:0:0:0:2, 1+1:0:0:0:1, 0+0:0:0:0:0, 2+1:0:0:0:0, 1+2:0:0:0:0, 2+1:0:0:0:0, 1+1:0:0:0:0, 1+2:0:0:0:0, 5+3:0:0:0:1, 3+1:0:0:0:1, 1+0:0:0:0:0, 3+1:0:0:0:0, 3+3:0:0:0:0, 2+1:0:0:0:0, 2+1:0:0:0:0, 1+0:0:0:0:0, 2+0:0:0:0:0, 1+0:0:0:0:0, 0+0:0:0:0:0, 1+0:0:0:0:0, 0+0:0:0:0:0, 2+3:0:0:0:0, 1+0:0:0:0:0, 1+0:0:0:0:0, 3+4:0:0:0:3, 1+0:0:0:0:0, 0+0:0:0:0:0, 0+0:0:0:0:0, 2+1:0:0:0:0, 2+1:0:0:0:0, 1+1:0:0:0:0, 2+1:0:0:0:0, 3+2:0:0:0:2, 2+1:0:0:0:1, 0+0:0:0:0:0, 2+2:0:0:0:0, 1+0:0:0:0:0, 2+1:0:0:0:0, 1+0:0:0:0:0, 1+1:0:0:0:0, 2+3:0:0:0:3, 1+1:0:0:0:1, 1+1:0:0:0:0, 2+3:0:0:0:0, 3+4:0:0:0:0, 2+0:0:0:0:0, 1+4:0:0:0:0, 1+1:0:0:0:0, 2+1:0:0:0:0, 2+1:0:0:0:0, 1+0:0:0:0:0, 0+0:0:0:0:0, 0+0:0:0:0:0, 2+3:0:0:0:0, 1+0:0:0:0:0, 2+1:0:0:0:0, 3+3:0:0:0:2, 1+1:0:0:0:1, 1+1:0:0:0:0, 3+1:0:0:0:0, 2+1:0:0:0:0, 2+1:0:0:0:0, 1+1:0:0:0:0, 2+1:0:0:0:0, 3+2:0:0:0:2, 2+1:0:0:0:1, 0+0:0:0:0:0, 2+1:0:0:0:0, 1+0:0:0:0:0, 2+1:0:0:0:0, 1+0:0:0:0:0, 1+0:0:0:0:0, 2+3:0:0:0:3, 1+1:0:0:0:1, 1+1:0:0:0:0, 3+4:0:0:0:0, 4+3:0:0:0:0, 2+0:0:0:0:0, 1+3:0:0:0:0, 1+1:0:0:0:0, 2+1:0:0:0:0, 2+1:0:0:0:0, 0+0:0:0:0:0, 0+0:0:0:0:0, 0+0:0:0:0:0, 2+3:0:0:0:0, 1+0:0:0:0:0, 2+1:0:0:0:0, 3+3:0:0:0:2, 1+1:0:0:0:1, 1+1:0:0:0:0, 1+0:0:0:0:0, 2+1:0:0:0:0, 2+1:0:0:0:0, 1+0:0:0:0:0, 2+1:0:1:0:0, 4+4:0:0:0:2, 1+1:0:0:0:1, 1+1:0:0:0:0, 2+1:0:0:0:0, 1+1:0:0:0:0, 1+0:0:0:0:0, 1+0:0:0:0:0, 2+1:0:1:0:0, 3+3:0:0:0:2, 1+1:0:0:0:1, 0+0:0:0:0:0, 2+3:0:0:0:0, 1+3:0:0:0:0, 2+1:0:0:0:0, 2+1:0:0:0:0, 1+0:0:0:0:0, 2+2:0:0:0:0, 1+1:0:0:0:0, 0+0:0:0:0:0, 0+0:0:0:0:0, 0+0:0:0:0:0, 1+0:0:0:0:0, 1+1:0:0:0:0, 1+0:0:0:0:0, 2+2:0:0:0:2, 2+1:0:0:0:0, 1+1:0:0:0:0, 1+1:0:0:0:0, 262+191:0:3:0:55
G major (1#), 2+1:0:0:0:0, 2+3:0:0:0:0, 4+5:0:0:0:0, 2+2:0:0:0:0, 2+3:0:0:0:0, 2+2:0:0:0:1, 1+0:0:0:0:0, 1+0:0:0:0:0, 2+1:0:0:0:0, 2+2:0:0:0:0, 4+2:0:0:0:0, 2+4:0:0:0:1, 1+3:0:0:0:0, 4+5:0:0:0:4, 2+0:0:0:0:0, 2+2:0:0:0:0, 3+2:0:0:0:2, 0+0:0:0:0:0, 2+1:1:0:0:0, 3+2:0:1:0:1, 1+0:0:0:0:0, 2+0:0:0:0:0, 0+0:0:0:0:0, 0+0:0:0:0:0, 1+3:0:0:0:0, 2+1:0:1:0:1, 5+4:0:0:0:0, 1+3:0:0:0:0, 1+2:0:0:0:0, 1+1:1:0:0:1, 2+1:0:0:0:0, 2+0:0:0:0:0, 1+0:0:0:0:0, 1+0:0:0:0:0, 3+2:0:0:0:0, 1+2:0:0:0:0, 1+2:0:0:0:0, 1+1:1:0:0:1, 1+0:0:0:0:0, 2+5:0:0:0:0, 3+0:0:0:0:0, 2+2:0:0:0:0, 2+2:0:0:0:0, 1+3:0:0:0:0, 2+1:0:0:0:0, 3+4:0:0:0:1, 2+1:0:0:0:0, 2+1:0:0:0:0, 2+2:0:0:0:2, 0+0:0:0:0:0, 2+1:1:0:0:0, 4+2:0:0:0:0, 1+0:0:0:0:0, 2+0:0:0:0:0, 0+0:0:0:0:0, 0+0:0:0:0:0, 1+0:0:0:0:0, 2+3:0:0:0:0, 3+2:0:0:0:0, 2+1:0:0:0:0, 2+1:0:0:0:0, 1+2:0:0:0:1, 2+1:0:0:0:0, 1+0:0:0:0:0, 2+0:0:0:0:0, 2+1:0:0:0:0, 3+2:0:0:0:0, 2+2:0:0:0:0, 3+2:0:0:0:0, 2+3:0:0:0:1, 3+1:0:0:0:0, 2+1:0:0:0:0, 2+1:0:0:0:0, 3+4:0:0:0:0, 3+2:0:0:0:0, 2+1:0:0:0:0, 2+2:0:0:0:0, 5+2:1:0:0:2, 3+3:0:0:0:0, 3+1:0:0:0:0, 4+1:0:0:0:1, 4+3:0:0:0:1, 2+1:1:0:0:0, 4+2:0:0:0:0, 1+0:0:0:0:0, 2+0:0:0:0:0, 0+0:0:0:0:0, 0+0:0:0:0:0, 1+2:0:0:0:0, 2+2:0:0:0:0, 4+2:0:0:0:0, 3+1:0:0:0:0, 2+0:0:0:0:0, 2+4:0:0:0:1, 3+4:0:0:0:0, 1+0:0:0:0:0, 1+0:0:0:0:0, 4+2:0:0:0:0, 3+3:0:0:0:0, 3+2:0:0:0:0, 3+4:0:0:0:0, 2+1:1:0:0:1, 2+3:0:0:0:0, 2+1:0:0:0:0, 2+2:0:0:0:0, 3+2:0:0:0:0, 4+1:0:0:0:0, 3+1:0:0:0:0, 3+2:0:0:0:0, 1+3:0:0:0:1, 3+1:0:0:0:0, 2+1:0:0:0:0, 3+4:0:0:0:3, 3+4:0:0:0:0, 4+4:0:0:0:0, 2+0:0:0:0:0, 1+0:0:0:0:0, 3+1:0:0:0:0, 1+1:0:0:0:0, 0+0:0:0:0:0, 1+2:0:0:0:0, 2+1:0:0:0:0, 4+2:0:0:0:0, 3+1:0:0:0:0, 4+1:0:0:0:0, 2+3:0:0:0:1, 3+1:0:0:0:0, 2+1:0:0:0:0, 3+2:0:1:0:1, 4+3:0:0:0:1, 3+3:0:0:0:0, 3+2:0:0:0:0, 3+4:0:0:0:0, 2+1:1:0:0:1, 2+3:0:0:0:0, 2+1:0:0:0:0, 2+1:0:0:0:0, 3+2:0:0:0:0, 4+1:0:0:0:0, 3+1:0:0:0:0, 3+1:0:0:0:0, 1+3:0:0:0:1, 3+1:0:0:0:0, 2+1:0:0:0:0, 4+4:0:0:0:3, 4+3:0:0:0:0, 4+4:0:0:0:0, 2+0:0:0:0:0, 1+0:0:0:0:0, 3+1:0:0:0:0, 1+1:0:0:0:0, 0+0:0:0:0:0, 1+2:0:0:0:0, 2+1:0:0:0:0, 4+2:0:0:0:0, 3+1:0:0:0:0, 4+1:0:0:0:0, 2+3:0:0:0:1, 3+1:0:0:0:0, 2+1:0:0:0:0, 2+1:0:0:0:0, 4+3:0:0:0:1, 3+2:0:0:0:0, 2+2:0:0:0:0, 3+1:0:0:0:0, 3+4:0:0:0:1, 3+1:0:0:0:0, 2+1:0:0:0:0, 4+2:0:0:0:0, 3+3:0:0:0:0, 2+2:0:0:0:0, 2+2:0:0:0:0, 3+1:0:0:0:0, 2+3:0:0:0:1, 3+1:0:0:0:0, 2+1:0:0:0:0, 2+3:0:0:0:3, 0+0:0:0:0:0, 2+1:1:0:0:0, 3+1:0:0:0:0, 2+0:0:0:0:0, 2+2:0:0:0:0, 1+1:0:0:0:1, 0+0:0:0:0:0, 1+3:0:0:0:0, 2+1:0:0:0:0, 2+2:0:0:0:0, 3+2:0:0:0:0, 2+2:0:0:0:0, 1+2:0:0:0:1, 3+1:0:0:0:0, 3+1:0:0:0:0, 1+0:0:0:0:0, 426+308:9:3:0:44
D minor (1b), 0+0:0:0:0:0, 0+0:0:0:0:0, 2+5:0:0:0:0, 0+0:0:0:0:0, 0+1:0:0:0:0, 2+2:0:0:0:2, 0+1:0:0:0:0, 0+0:0:0:0:0, 2+1:0:0:0:0, 0+2:0:0:0:0, 2+2:0:0:0:0, 1+4:0:0:0:1, 0+3:0:0:0:0, 5+5:0:0:0:4, 1+0:0:0:0:0, 0+0:0:0:0:0, 2+4:0:0:0:0, 1+3:0:0:0:0, 1+1:0:0:0:0, 3+2:0:0:0:0, 1+0:0:0:0:0, 3+0:0:0:0:0, 1+3:0:0:0:0, 1+1:0:0:0:0, 0+1:0:0:0:0, 1+1:0:1:0:1, 3+4:0:0:0:0, 0+0:0:0:0:0, 0+0:0:0:0:0, 2+3:0:0:0:3, 0+0:0:0:0:0, 1+0:0:0:0:0, 1+0:0:0:0:0, 1+0:0:0:0:0, 2+2:0:0:0:0, 0+0:0:0:0:0, 0+0:0:0:0:0, 2+2:0:0:0:2, 1+0:0:0:0:0, 0+0:0:0:0:0, 2+3:0:0:0:0, 0+2:0:0:0:0, 1+2:0:0:0:0, 1+1:0:0:0:0, 1+1:0:0:0:1, 4+3:0:0:0:2, 1+1:0:0:0:1, 0+0:0:0:0:0, 2+2:0:0:0:2, 1+0:0:0:0:0, 1+1:0:0:0:0, 2+2:0:0:0:0, 1+0:0:0:0:0, 2+0:0:0:0:0, 1+3:0:0:0:0, 0+1:0:0:0:0, 1+0:0:0:0:0, 0+0:0:0:0:0, 1+4:0:0:0:0, 1+0:0:0:0:0, 2+2:0:0:0:0, 2+2:0:0:0:2, 0+0:0:0:0:0, 0+0:0:0:0:0, 1+0:0:0:0:0, 0+1:0:0:0:0, 2+2:0:0:0:0, 1+2:0:0:0:0, 1+1:0:0:0:1, 3+3:0:0:0:2, 1+1:0:0:0:0, 0+0:0:0:0:0, 2+1:0:0:0:0, 1+4:0:0:0:0, 2+2:0:0:0:0, 1+1:0:0:0:1, 1+3:0:0:0:0, 5+2:0:0:0:1, 3+2:0:0:0:0, 1+1:0:0:0:0, 3+1:0:0:0:1, 3+3:0:0:0:1, 1+1:1:0:0:0, 2+2:0:0:0:0, 1+0:0:0:0:0, 2+0:0:0:0:0, 1+3:0:0:0:0, 0+0:0:0:0:0, 1+0:0:0:0:0, 0+0:0:0:0:0, 2+2:0:0:0:0, 1+1:0:0:0:0, 1+0:0:0:0:0, 3+4:0:0:0:3, 1+4:0:0:0:0, 0+0:0:0:0:0, 0+1:0:0:0:0, 2+2:0:0:0:0, 2+3:0:0:0:0, 1+2:0:0:0:0, 2+4:0:0:0:0, 4+1:1:0:0:1, 2+1:0:0:0:0, 0+0:0:0:0:0, 2+2:0:0:0:0, 1+2:0:0:0:0, 2+1:0:0:0:0, 1+1:0:0:0:0, 1+2:0:0:0:0, 2+3:0:0:0:3, 1+1:0:0:0:0, 1+2:0:0:0:0, 2+3:0:0:0:0, 3+4:0:0:0:0, 2+0:0:0:0:0, 1+0:0:0:0:0, 1+0:0:0:0:0, 2+1:0:0:0:0, 2+1:0:0:0:0, 1+1:0:0:0:0, 0+1:0:0:0:0, 0+1:0:0:0:0, 2+2:0:0:0:0, 1+1:0:0:0:0, 2+3:0:0:0:0, 4+1:1:0:0:1, 1+1:0:0:0:0, 1+2:0:0:0:0, 3+2:0:0:0:0, 2+3:0:0:0:1, 2+3:0:0:0:0, 1+2:0:0:0:0, 2+4:0:0:0:0, 4+1:1:0:0:1, 2+1:0:0:0:0, 0+0:0:0:0:0, 2+1:0:0:0:0, 1+2:0:0:0:0, 2+1:0:0:0:0, 1+1:0:0:0:0, 1+1:0:0:0:0, 2+3:0:0:0:3, 1+1:0:0:0:0, 1+2:0:0:0:0, 3+4:0:0:0:0, 4+3:0:0:0:0, 2+0:0:0:0:0, 1+0:0:0:0:0, 1+0:0:0:0:0, 2+1:0:0:0:0, 2+1:0:0:0:0, 0+2:0:0:0:0, 0+1:0:0:0:0, 0+1:0:0:0:0, 2+2:0:0:0:0, 1+1:0:0:0:0, 2+3:0:0:0:0, 4+1:1:0:0:1, 1+1:0:0:0:0, 1+2:0:0:0:0, 1+1:0:0:0:0, 2+3:0:0:0:1, 2+2:0:0:0:0, 1+2:0:0:0:0, 3+1:0:0:0:0, 4+4:0:0:0:2, 1+1:0:0:0:0, 1+1:0:0:0:1, 2+2:0:0:0:0, 1+3:0:0:0:0, 1+2:0:0:0:0, 1+2:0:0:0:0, 3+2:0:0:0:0, 4+1:1:0:0:1, 1+1:0:0:0:0, 0+0:0:0:0:0, 2+3:0:0:0:0, 1+3:0:0:0:0, 1+1:0:0:0:0, 2+1:0:0:0:0, 1+0:0:0:0:0, 2+2:0:0:0:0, 1+1:0:0:0:0, 0+3:0:0:0:0, 0+2:0:0:0:0, 0+0:0:0:0:0, 1+2:0:0:0:0, 1+2:0:0:0:0, 1+2:0:0:0:0, 2+2:0:0:0:2, 1+1:0:0:0:0, 1+1:0:0:0:0, 1+0:0:0:0:0, 264+285:6:1:0:49
E minor (1#), 2+0:0:0:0:0, 2+0:0:0:0:0, 4+5:0:0:0:0, 2+2:0:0:0:0, 2+1:0:0:0:0, 2+2:0:0:0:1, 1+0:0:0:0:0, 1+0:0:0:0:0, 2+1:0:0:0:0, 2+2:0:0:0:0, 4+2:0:0:0:0, 2+3:0:0:0:0, 1+2:0:0:0:0, 4+2:1:0:0:1, 2+1:0:0:0:0, 2+0:0:0:0:0, 3+2:0:0:0:2, 0+0:0:0:0:0, 2+1:1:0:0:0, 3+2:0:1:0:1, 1+0:0:0:0:0, 2+0:0:0:0:0, 0+3:0:0:0:0, 0+1:0:0:0:0, 1+0:0:0:0:0, 2+1:0:1:0:1, 5+4:0:0:0:0, 1+2:0:0:0:0, 1+2:0:0:0:0, 1+3:0:0:0:1, 2+0:0:0:0:0, 2+0:0:0:0:0, 1+0:0:0:0:0, 1+0:0:0:0:0, 3+2:0:0:0:0, 1+3:0:0:0:0, 1+2:0:0:0:0, 1+2:0:0:0:1, 1+0:0:0:0:0, 2+0:0:0:0:0, 3+3:0:0:0:0, 2+2:0:0:0:0, 2+2:0:0:0:0, 1+2:0:0:0:0, 2+3:0:0:0:0, 3+3:0:0:0:1, 2+1:0:0:0:0, 2+0:0:0:0:0, 2+2:0:0:0:2, 0+0:0:0:0:0, 2+1:1:0:0:0, 4+2:0:0:0:0, 1+0:0:0:0:0, 2+4:0:0:0:0, 0+0:0:0:0:0, 0+1:0:0:0:0, 1+0:0:0:0:0, 2+0:0:0:0:0, 3+4:0:0:0:0, 2+3:0:0:0:0, 2+2:0:0:0:0, 1+2:0:0:0:1, 2+0:0:0:0:0, 1+0:0:0:0:0, 2+0:0:0:0:0, 2+1:0:0:0:0, 3+2:0:0:0:0, 2+2:0:0:0:0, 3+1:0:0:0:1, 2+3:0:0:0:1, 2+1:0:0:0:0, 2+0:0:0:0:0, 2+1:0:0:0:0, 3+4:0:0:0:0, 3+2:0:0:0:0, 2+2:0:0:0:0, 2+3:0:0:0:0, 5+2:1:0:0:2, 3+3:0:0:0:0, 3+1:0:0:0:0, 4+1:0:0:0:1, 4+3:0:0:0:1, 2+1:1:0:0:0, 4+2:0:0:0:0, 1+0:0:0:0:0, 2+3:0:0:0:0, 0+0:0:0:0:0, 0+2:0:0:0:0, 1+0:0:0:0:0, 2+0:0:0:0:0, 4+2:0:0:0:0, 3+3:0:0:0:1, 3+4:0:0:0:0, 2+4:0:0:0:1, 3+4:0:0:0:0, 1+0:0:0:0:0, 1+0:0:0:0:0, 4+2:0:0:0:0, 3+3:0:0:0:0, 3+2:0:0:0:0, 3+4:0:0:0:0, 2+1:1:0:0:1, 2+1:0:0:0:0, 2+0:0:0:0:0, 2+2:0:0:0:0, 3+2:0:0:0:0, 4+3:0:0:0:0, 3+3:0:0:0:0, 3+1:0:0:0:1, 1+3:0:0:0:1, 2+1:0:0:0:0, 2+2:0:0:0:0, 3+4:0:0:0:3, 3+1:0:0:0:0, 5+2:0:0:0:1, 2+0:0:0:0:0, 1+0:0:0:0:0, 3+2:0:0:0:0, 1+1:0:0:0:0, 0+1:0:0:0:0, 1+1:0:0:0:0, 2+1:0:0:0:0, 4+2:0:0:0:0, 3+2:0:0:0:0, 4+3:0:0:0:0, 2+1:1:0:0:1, 2+1:0:0:0:0, 2+2:0:0:0:0, 3+2:0:1:0:1, 4+3:0:0:0:1, 3+3:0:0:0:0, 3+2:0:0:0:0, 3+4:0:0:0:0, 2+1:1:0:0:1, 2+1:0:0:0:0, 2+0:0:0:0:0, 2+1:0:0:0:0, 3+2:0:0:0:0, 4+3:0:0:0:0, 3+3:0:0:0:0, 3+1:0:0:0:1, 1+3:0:0:0:1, 2+1:0:0:0:0, 2+2:0:0:0:0, 4+4:0:0:0:3, 4+2:0:0:0:0, 5+2:0:0:0:1, 2+0:0:0:0:0, 1+0:0:0:0:0, 3+1:0:0:0:0, 1+1:0:0:0:0, 0+1:0:0:0:0, 1+1:0:0:0:0, 2+1:0:0:0:0, 4+2:0:0:0:0, 3+2:0:0:0:0, 4+3:0:0:0:0, 2+1:1:0:0:1, 2+1:0:0:0:0, 2+2:0:0:0:0, 2+1:0:0:0:0, 4+3:0:0:0:1, 3+2:0:0:0:0, 2+2:0:0:0:0, 3+2:0:0:0:0, 3+2:1:0:0:2, 2+1:0:0:0:0, 2+1:0:0:0:1, 4+2:0:0:0:0, 3+3:0:0:0:0, 2+2:0:0:0:0, 2+2:0:0:0:0, 3+2:0:0:0:0, 2+1:1:0:0:1, 2+1:0:0:0:0, 2+0:0:0:0:0, 2+3:0:0:0:3, 0+0:0:0:0:0, 2+1:1:0:0:0, 3+1:0:0:0:0, 2+0:0:0:0:0, 2+2:0:0:0:0, 1+1:0:0:0:1, 0+0:0:0:0:0, 1+0:0:0:0:0, 2+0:0:0:0:0, 2+2:0:0:0:0, 3+2:0:0:0:0, 2+2:0:0:0:0, 1+2:0:0:0:1, 2+1:0:0:0:0, 3+1:0:0:0:0, 1+0:0:0:0:0, 421+302:12:3:0:48
Bb major (2b), 0+0:0:0:0:0, 1+0:0:0:0:0, 1+1:0:0:0:0, 0+0:0:0:0:0, 0+0:0:0:0:0, 2+2:0:0:0:2, 0+0:0:0:0:0, 1+0:0:0:0:0, 1+1:0:0:0:0, 0+0:0:0:0:0, 1+0:0:0:0:0, 1+1:0:0:0:0, 0+0:0:0:0:0, 5+3:0:0:0:1, 1+0:0:0:0:0, 1+1:0:0:0:0, 1+0:0:0:0:0, 2+3:0:0:0:0, 1+1:1:0:0:1, 2+1:0:0:0:0, 0+0:0:0:0:0, 2+1:0:0:0:1, 1+0:0:0:0:0, 2+0:0:0:0:0, 0+0:0:0:0:0, 1+1:0:1:0:0, 2+1:0:0:0:1, 0+0:0:0:0:0, 0+0:0:0:0:0, 2+2:0:0:0:2, 0+0:0:0:0:0, 0+0:0:0:0:0, 0+0:0:0:0:0, 0+0:0:0:0:0, 1+1:0:0:0:0, 0+0:0:0:0:0, 0+0:0:0:0:0, 3+2:0:0:0:2, 1+0:0:0:0:0, 1+0:0:0:0:0, 1+2:0:0:0:0, 0+0:0:0:0:0, 0+0:0:0:0:0, 1+1:0:0:0:0, 1+1:0:0:0:0, 4+5:0:0:0:4, 2+1:0:0:0:0, 0+0:0:0:0:0, 1+2:0:0:0:2, 1+0:0:0:0:0, 1+1:1:0:0:0, 1+1:0:0:0:0, 0+0:0:0:0:0, 1+0:0:0:0:0, 1+0:0:0:0:0, 1+0:0:0:0:0, 1+1:0:0:0:0, 1+0:0:0:0:0, 0+0:0:0:0:0, 1+1:0:0:0:0, 2+1:0:0:0:0, 2+2:0:0:0:2, 0+0:0:0:0:0, 0+0:0:0:0:0, 0+0:0:0:0:0, 0+0:0:0:0:0, 1+1:0:0:0:0, 0+0:0:0:0:0, 1+1:0:0:0:0, 3+2:0:0:0:2, 2+1:0:0:0:0, 0+0:0:0:0:0, 1+1:0:0:0:0, 1+0:0:0:0:0, 1+1:0:0:0:0, 2+1:0:0:0:0, 1+2:0:0:0:0, 4+3:0:0:0:1, 2+0:0:0:0:0, 0+0:0:0:0:0, 2+1:0:0:0:0, 2+3:0:0:0:2, 2+1:0:0:0:0, 1+1:0:0:0:0, 0+0:0:0:0:0, 1+0:0:0:0:0, 1+0:0:0:0:0, 1+0:0:0:0:0, 1+1:0:0:0:0, 0+0:0:0:0:0, 1+0:0:0:0:0, 1+0:0:0:0:0, 1+0:0:0:0:0, 3+4:0:0:0:3, 1+0:0:0:0:0, 0+0:0:0:0:0, 0+0:0:0:0:0, 2+1:0:0:0:1, 1+0:0:0:0:0, 1+1:0:0:0:0, 1+0:0:0:0:0, 4+2:0:0:0:1, 1+1:0:0:0:1, 0+0:0:0:0:0, 1+2:0:0:0:0, 0+0:0:0:0:0, 1+0:0:0:0:0, 1+0:0:0:0:0, 1+0:0:0:0:0, 2+3:0:0:0:3, 2+1:0:0:0:0, 1+1:0:0:0:1, 1+0:0:0:0:0, 3+5:0:0:0:2, 2+1:0:0:0:0, 0+0:0:0:0:0, 0+0:0:0:0:0, 1+0:0:0:0:0, 2+1:0:0:0:0, 1+0:0:0:0:0, 0+0:0:0:0:0, 0+0:0:0:0:0, 1+1:0:0:0:0, 1+0:0:0:0:0, 1+0:0:0:0:0, 4+3:0:0:0:1, 2+1:0:0:0:0, 1+1:0:0:0:1, 2+1:0:0:0:0, 1+1:0:0:0:0, 1+0:0:0:0:0, 1+1:0:0:0:0, 1+0:0:0:0:0, 4+2:0:0:0:1, 1+1:0:0:0:1, 0+0:0:0:0:0, 1+1:0:0:0:0, 0+0:0:0:0:0, 1+0:0:0:0:0, 1+0:0:0:0:0, 1+0:0:0:0:0, 2+3:0:0:0:3, 2+1:0:0:0:0, 1+1:0:0:0:1, 2+1:0:0:0:0, 3+3:0:0:0:2, 2+1:0:0:0:0, 0+0:0:0:0:0, 0+0:0:0:0:0, 1+0:0:0:0:0, 2+1:0:0:0:0, 1+0:0:0:0:0, 0+0:0:0:0:0, 0+0:0:0:0:0, 1+1:0:0:0:0, 1+0:0:0:0:0, 1+0:0:0:0:0, 4+3:0:0:0:1, 2+1:0:0:0:0, 1+1:0:0:0:1, 0+0:0:0:0:0, 1+1:0:0:0:0, 1+1:0:0:0:0, 0+0:0:0:0:0, 2+1:0:1:0:0, 4+4:0:0:0:2, 2+1:0:0:0:0, 1+1:0:0:0:0, 1+1:0:0:0:0, 1+0:0:0:0:0, 0+0:0:0:0:0, 0+0:0:0:0:0, 2+1:0:1:0:0, 4+3:0:0:0:1, 2+1:0:0:0:0, 0+0:0:0:0:0, 1+0:0:0:0:0, 1+3:0:0:0:0, 1+1:1:0:0:1, 1+1:0:0:0:0, 0+0:0:0:0:0, 1+2:0:0:0:0, 1+1:0:0:0:0, 1+0:0:0:0:0, 0+0:0:0:0:0, 0+0:0:0:0:0, 0+0:0:0:0:0, 1+0:0:0:0:0, 0+0:0:0:0:0, 2+2:0:0:0:2, 2+1:0:0:0:0, 0+0:0:0:0:0, 0+0:0:0:0:0, 210+140:3:3:0:53
D major (2#), 2+0:0:0:0:0, 2+0:0:0:0:0, 5+5:0:0:0:0, 2+0:0:0:0:0, 3+1:0:0:0:0, 2+2:0:0:0:1, 2+1:0:0:0:0, 1+0:0:0:0:0, 3+1:0:0:0:0, 2+0:0:0:0:0, 4+2:0:0:0:0, 1+0:0:0:0:0, 1+0:0:0:0:0, 3+2:1:0:0:2, 2+1:0:0:0:1, 2+0:0:0:0:0, 3+2:0:0:0:2, 1+0:0:0:0:0, 3+1:1:0:0:0, 3+2:0:1:0:1, 1+0:0:0:0:0, 3+0:0:0:0:0, 0+0:0:0:0:0, 1+0:0:0:0:0, 2+3:0:0:0:0, 2+1:0:1:0:1, 5+4:0:0:0:0, 1+0:0:0:0:0, 1+0:0:0:0:0, 1+1:1:0:0:1, 2+0:0:0:0:0, 2+0:0:0:0:0, 1+0:0:0:0:0, 1+0:0:0:0:0, 3+2:0:0:0:0, 1+0:0:0:0:0, 1+0:0:0:0:0, 1+1:1:0:0:1, 2+2:0:0:0:0, 2+0:0:0:0:0, 4+3:0:0:0:0, 2+0:0:0:0:0, 2+2:0:0:0:0, 1+1:0:0:0:0, 2+1:0:0:0:1, 3+3:0:0:0:1, 2+1:0:0:0:1, 2+0:0:0:0:0, 2+2:0:0:0:2, 1+0:0:0:0:0, 3+1:1:0:0:0, 4+2:0:0:0:0, 1+0:0:0:0:0, 3+4:0:0:0:0, 0+0:0:0:0:0, 1+2:0:0:0:0, 2+2:0:0:0:0, 2+0:0:0:0:0, 3+4:0:0:0:0, 1+0:0:0:0:0, 2+2:0:0:0:0, 2+2:0:0:0:1, 2+0:0:0:0:0, 1+0:0:0:0:0, 3+0:0:0:0:0, 2+0:0:0:0:0, 3+2:0:0:0:0, 3+2:0:0:0:0, 3+1:0:0:0:1, 3+3:0:0:0:1, 2+1:0:0:0:0, 2+0:0:0:0:0, 3+1:0:0:0:0, 3+2:0:0:0:2, 3+2:0:0:0:0, 2+1:0:0:0:1, 2+2:0:0:0:2, 5+2:1:0:0:2, 3+3:0:0:0:0, 3+1:0:0:0:0, 5+1:0:0:0:1, 5+3:0:0:0:1, 2+1:1:1:0:1, 4+2:0:0:0:0, 1+0:0:0:0:0, 3+3:0:0:0:0, 0+0:0:0:0:0, 1+3:0:0:0:0, 2+2:0:0:0:0, 2+0:0:0:0:0, 4+2:0:0:0:0, 4+3:0:0:0:1, 2+1:0:0:0:1, 1+1:1:0:0:1, 3+1:0:0:0:1, 1+0:0:0:0:0, 2+1:0:0:0:0, 4+2:0:1:0:1, 3+3:0:0:0:0, 3+1:0:0:0:1, 3+4:0:0:0:0, 1+1:1:0:0:1, 3+1:0:0:0:0, 2+0:0:0:0:0, 3+2:0:0:0:0, 4+2:0:0:0:0, 4+3:0:0:0:0, 3+1:0:0:0:1, 3+1:0:0:0:1, 1+3:0:0:0:1, 2+1:0:0:0:0, 3+2:0:0:0:0, 3+4:0:0:0:3, 4+1:0:0:0:0, 4+2:0:0:0:1, 2+0:0:0:0:0, 2+0:0:0:0:0, 4+2:0:0:0:0, 1+1:0:0:0:0, 1+0:0:0:0:0, 2+1:0:0:0:0, 3+1:0:0:0:0, 4+3:0:0:0:1, 3+1:0:0:0:1, 4+3:0:0:0:0, 1+1:1:0:0:1, 2+1:1:0:0:0, 3+2:0:0:0:0, 4+2:0:1:0:1, 3+3:1:0:0:0, 3+3:0:0:0:0, 3+1:0:0:0:1, 3+4:0:0:0:0, 1+1:1:0:0:1, 3+1:0:0:0:0, 2+0:0:0:0:0, 3+1:0:0:0:0, 4+2:0:0:0:0, 4+3:0:0:0:0, 3+1:0:0:0:1, 3+1:0:0:0:1, 1+3:0:0:0:1, 2+1:0:0:0:0, 3+2:0:0:0:0, 4+4:0:0:0:3, 5+2:0:0:0:0, 4+2:0:0:0:1, 2+0:0:0:0:0, 2+0:0:0:0:0, 4+2:0:0:0:0, 1+1:0:0:0:0, 1+2:0:0:0:0, 2+1:0:0:0:0, 3+1:0:0:0:0, 4+3:0:0:0:1, 3+1:0:0:0:1, 4+3:0:0:0:0, 1+1:1:0:0:1, 2+1:1:0:0:0, 3+2:0:0:0:0, 3+1:0:0:0:0, 3+3:1:0:0:0, 3+2:0:0:0:0, 2+2:0:0:0:0, 4+2:0:0:0:0, 2+2:1:0:0:2, 2+1:0:0:0:0, 2+1:0:0:0:1, 5+2:0:0:0:0, 3+1:0:0:0:1, 2+2:0:0:0:0, 2+2:0:0:0:0, 4+2:0:0:0:0, 1+1:1:0:0:1, 2+1:0:0:0:0, 2+0:0:0:0:0, 2+3:0:0:0:3, 1+0:0:0:0:0, 3+1:1:0:0:0, 3+1:0:0:0:0, 3+0:0:0:0:0, 2+2:0:0:0:0, 2+1:0:0:0:0, 1+3:0:0:0:0, 2+2:0:0:0:0, 2+0:0:0:0:0, 2+2:0:0:0:0, 4+2:0:0:0:1, 2+2:0:0:0:0, 1+1:1:0:0:1, 2+1:0:0:0:1, 3+1:0:0:0:0, 1+0:0:0:0:0, 468+265:20:5:0:69
G minor (2b), 0+1:0:0:0:0, 1+0:0:0:0:0, 1+5:0:0:0:0, 0+2:0:0:0:0, 0+1:0:0:0:0, 2+2:0:0:0:2, 0+1:0:0:0:0, 1+0:0:0:0:0, 1+1:0:0:0:0, 0+2:0:0:0:0, 1+2:0:0:0:0, 1+4:0:0:0:1, 0+0:0:0:0:0, 4+5:0:0:0:4, 1+0:0:0:0:0, 1+2:0:0:0:0, 1+2:0:0:0:2, 2+0:0:0:0:0, 1+1:1:0:0:0, 2+2:0:0:0:0, 0+0:0:0:0:0, 2+0:0:0:0:0, 1+0:0:0:0:0, 2+0:0:0:0:0, 0+3:0:0:0:0, 1+1:0:1:0:1, 2+4:0:0:0:0, 0+3:0:0:0:0, 0+0:0:0:0:0, 2+2:0:0:0:2, 0+0:0:0:0:0, 0+0:0:0:0:0, 0+0:0:0:0:0, 0+0:0:0:0:0, 1+2:0:0:0:0, 0+2:0:0:0:0, 0+2:0:0:0:0, 4+1:1:0:0:1, 1+4:0:0:0:0, 1+2:0:0:0:0, 1+0:0:0:0:0, 0+2:0:0:0:0, 0+2:0:0:0:0, 1+1:0:0:0:0, 1+1:0:0:0:1, 4+3:0:0:0:2, 2+1:0:0:0:1, 0+1:0:0:0:0, 1+2:0:0:0:2, 1+0:0:0:0:0, 1+1:1:0:0:0, 1+2:0:0:0:0, 0+0:0:0:0:0, 1+0:0:0:0:0, 1+0:0:0:0:0, 1+0:0:0:0:0, 1+2:0:0:0:0, 1+3:0:0:0:0, 0+4:0:0:0:0, 1+3:0:0:0:1, 2+0:0:0:0:0, 2+2:0:0:0:2, 0+3:0:0:0:0, 0+0:0:0:0:0, 0+0:0:0:0:0, 0+1:0:0:0:0, 1+2:0:0:0:0, 0+2:0:0:0:0, 1+2:0:0:0:0, 3+3:0:0:0:2, 2+1:0:0:0:0, 0+1:0:0:0:0, 1+1:0:0:0:0, 1+3:0:0:0:0, 1+2:0:0:0:0, 2+1:0:0:0:1, 1+3:0:0:0:0, 4+3:0:0:0:1, 2+1:0:0:0:1, 0+0:0:0:0:0, 2+1:0:0:0:1, 2+3:0:0:0:1, 1+1:1:0:0:0, 1+2:0:0:0:0, 0+0:0:0:0:0, 1+0:0:0:0:0, 1+0:0:0:0:0, 1+0:0:0:0:0, 1+2:0:0:0:0, 0+2:0:0:0:0, 1+2:0:0:0:0, 1+1:0:0:0:0, 1+0:0:0:0:0, 3+4:0:0:0:3, 1+4:0:0:0:0, 0+0:0:0:0:0, 0+0:0:0:0:0, 2+2:0:0:0:0, 1+0:0:0:0:0, 1+2:0:0:0:0, 1+0:0:0:0:0, 3+2:0:0:0:2, 1+1:0:0:0:1, 0+1:0:0:0:0, 1+2:0:0:0:0, 0+2:0:0:0:0, 1+1:0:0:0:0, 1+1:0:0:0:0, 1+2:0:0:0:0, 2+3:0:0:0:3, 2+1:0:0:0:0, 1+1:0:0:0:0, 1+3:0:0:0:0, 3+4:0:0:0:0, 2+4:0:0:0:0, 0+0:0:0:0:0, 0+0:0:0:0:0, 1+1:0:0:0:0, 2+1:0:0:0:0, 1+0:0:0:0:0, 0+2:0:0:0:0, 0+1:0:0:0:0, 1+2:0:0:0:0, 1+1:0:0:0:0, 1+1:0:0:0:0, 3+3:0:0:0:2, 2+1:0:0:0:0, 1+1:0:0:0:0, 2+2:0:0:0:0, 1+3:0:0:0:1, 1+0:0:0:0:0, 1+2:0:0:0:0, 1+0:0:0:0:0, 3+2:0:0:0:2, 1+1:0:0:0:1, 0+1:0:0:0:0, 1+1:0:0:0:0, 0+2:0:0:0:0, 1+1:0:0:0:0, 1+1:0:0:0:0, 1+1:0:0:0:0, 2+3:0:0:0:3, 2+1:0:0:0:0, 1+1:0:0:0:0, 2+4:0:0:0:3, 3+3:0:0:0:2, 2+1:0:0:0:0, 0+0:0:0:0:0, 0+0:0:0:0:0, 1+1:0:0:0:0, 2+1:0:0:0:0, 1+0:0:0:0:0, 0+2:0:0:0:0, 0+1:0:0:0:0, 1+2:0:0:0:0, 1+1:0:0:0:0, 1+1:0:0:0:0, 3+3:0:0:0:2, 2+1:0:0:0:0, 1+1:0:0:0:0, 0+1:0:0:0:0, 1+3:0:0:0:1, 1+2:0:0:0:0, 0+2:0:0:0:0, 3+1:0:0:0:0, 4+4:0:0:0:2, 2+1:0:0:0:0, 1+1:0:0:0:0, 1+2:0:0:0:0, 1+2:0:0:0:0, 0+2:0:0:0:0, 0+2:0:0:0:0, 3+1:0:0:0:0, 3+3:0:0:0:2, 2+1:0:0:0:0, 0+3:0:0:0:0, 1+3:0:0:0:0, 1+0:0:0:0:0, 1+3:1:0:0:1, 1+1:0:0:0:0, 0+0:0:0:0:0, 1+2:0:0:0:0, 1+1:0:0:0:0, 1+3:0:0:0:0, 0+3:0:0:0:0, 0+1:0:0:0:0, 0+2:0:0:0:0, 1+1:0:0:0:0, 0+0:0:0:0:0, 2+2:0:0:0:2, 2+1:0:0:0:0, 0+1:0:0:0:0, 0+0:0:0:0:0, 206+285:5:1:0:62
B minor (2#), 2+0:0:0:0:0, 2+0:0:0:0:0, 5+5:0:0:0:0, 2+0:0:0:0:0, 3+1:0:0:0:0, 2+2:0:0:0:1, 2+0:0:0:0:0, 1+0:0:0:0:0, 3+1:0:0:0:0, 2+0:0:0:0:0, 4+2:0:0:0:0, 1+0:0:0:0:0, 1+2:0:0:0:0, 3+2:1:0:0:1, 2+1:0:0:0:0, 2+0:0:0:0:0, 3+5:0:0:0:1, 1+0:0:0:0:0, 2+1:1:1:0:1, 3+2:0:1:0:1, 1+1:0:0:0:0, 4+2:0:0:0:1, 0+1:0:0:0:0, 1+0:0:0:0:0, 2+0:0:0:0:0, 2+1:0:1:0:1, 5+4:0:0:0:0, 1+0:0:0:0:0, 1+0:0:0:0:0, 1+3:0:0:0:1, 2+0:0:0:0:0, 2+0:0:0:0:0, 1+0:0:0:0:0, 1+0:0:0:0:0, 3+2:0:0:0:0, 1+0:0:0:0:0, 1+0:0:0:0:0, 1+2:0:0:0:1, 2+0:0:0:0:0, 2+0:0:0:0:0, 4+7:0:0:0:2, 2+0:0:0:0:0, 2+2:0:0:0:0, 1+2:0:0:0:0, 2+3:0:0:0:0, 3+3:0:0:0:1, 2+1:0:0:0:0, 2+0:0:0:0:0, 2+2:0:0:0:2, 1+0:0:0:0:0, 2+1:1:1:0:1, 4+2:0:0:0:0, 1+0:0:0:0:0, 3+0:0:0:0:0, 0+3:0:0:0:0, 1+1:0:0:0:0, 2+0:0:0:0:0, 2+0:0:0:0:0, 3+4:0:0:0:0, 1+0:0:0:0:0, 2+2:0:0:0:0, 2+2:0:0:0:1, 2+0:0:0:0:0, 1+0:0:0:0:0, 3+0:0:0:0:0, 2+0:0:0:0:0, 3+4:0:0:0:0, 3+2:0:0:0:0, 3+1:0:0:0:1, 3+3:0:0:0:1, 2+1:0:0:0:0, 2+0:0:0:0:0, 3+1:0:0:0:0, 3+2:0:0:0:2, 3+4:0:0:0:0, 2+1:0:0:0:1, 2+2:0:0:0:2, 5+2:1:0:0:2, 3+3:0:0:0:0, 3+1:0:0:0:0, 5+1:0:0:0:1, 5+3:0:0:0:1, 2+1:1:1:0:1, 4+2:0:0:0:0, 1+0:0:0:0:0, 3+0:0:0:0:0, 0+3:0:0:0:0, 1+2:0:0:0:0, 2+0:0:0:0:0, 2+0:0:0:0:0, 4+2:0:0:0:0, 4+3:0:0:0:1, 2+1:0:0:0:1, 1+1:1:0:0:1, 3+1:0:0:0:1, 1+0:0:0:0:0, 2+1:0:0:0:0, 4+2:0:1:0:1, 3+3:0:0:0:1, 3+1:0:0:0:1, 3+3:0:0:0:2, 1+1:1:0:0:1, 3+1:0:0:0:0, 2+0:0:0:0:0, 3+2:0:0:0:0, 4+2:0:0:0:0, 4+3:0:0:0:0, 3+1:0:0:0:1, 3+1:0:0:0:1, 1+3:0:0:0:1, 2+1:0:0:0:0, 3+2:0:0:0:0, 3+4:0:0:0:1, 4+1:0:0:0:0, 4+2:0:0:0:1, 2+0:0:0:0:0, 2+2:0:0:0:0, 4+4:0:0:0:2, 1+1:0:0:0:0, 1+0:0:0:0:0, 2+1:0:0:0:0, 3+1:0:0:0:0, 4+3:0:0:0:1, 3+1:0:0:0:1, 4+2:0:0:0:1, 1+1:1:0:0:1, 2+1:0:0:0:0, 3+2:0:0:0:0, 4+2:0:1:0:1, 3+3:1:0:0:0, 3+3:0:0:0:0, 3+1:0:0:0:1, 3+3:0:0:0:2, 1+1:1:0:0:1, 3+1:0:0:0:0, 2+0:0:0:0:0, 3+1:0:0:0:0, 4+2:0:0:0:0, 4+3:0:0:0:0, 3+1:0:0:0:1, 3+1:0:0:0:1, 1+3:0:0:0:1, 2+1:0:0:0:0, 3+2:0:0:0:0, 4+4:0:0:0:1, 5+2:0:0:0:0, 4+2:0:0:0:1, 2+0:0:0:0:0, 2+0:0:0:0:0, 4+1:0:0:0:0, 1+1:0:0:0:0, 1+0:0:0:0:0, 2+1:0:0:0:0, 3+1:0:0:0:0, 4+3:0:0:0:1, 3+1:0:0:0:1, 4+2:0:0:0:1, 1+1:1:0:0:1, 2+1:0:0:0:0, 3+2:0:0:0:0, 3+1:0:0:0:0, 3+3:1:0:0:0, 3+2:0:0:0:0, 2+1:0:0:0:0, 4+2:0:0:0:0, 2+2:1:0:0:2, 2+1:0:0:0:0, 2+1:0:0:0:1, 5+2:0:0:0:0, 3+1:0:0:0:1, 2+4:0:0:0:0, 2+1:0:0:0:0, 4+2:0:0:0:0, 1+1:1:0:0:1, 2+1:0:0:0:0, 2+0:0:0:0:0, 2+4:0:0:0:1, 1+0:0:0:0:0, 2+1:1:1:0:1, 3+1:0:0:0:0, 3+2:0:0:0:0, 2+2:0:0:0:0, 2+1:0:0:0:0, 1+3:0:0:0:0, 2+2:0:0:0:0, 2+0:0:0:0:0, 2+2:0:0:0:0, 4+2:0:0:0:1, 2+1:0:0:0:0, 1+2:0:0:0:1, 2+1:0:0:0:0, 3+1:0:0:0:0, 1+0:0:0:0:0, 466+275:15:8:0:72
Eb major (3b), 0+0:0:0:0:0, 1+1:0:0:0:0, 1+1:0:0:0:0, 0+0:0:0:0:0, 0+0:0:0:0:0, 3+1:0:0:0:1, 0+0:0:0:0:0, 1+1:0:0:0:0, 1+1:0:0:0:0, 0+0:0:0:0:0, 1+0:0:0:0:0, 1+1:0:0:0:0, 1+0:0:0:0:0, 5+3:0:0:0:1, 0+0:0:0:0:0, 1+1:0:0:0:0, 1+4:0:0:0:0, 2+0:0:0:0:0, 1+1:1:0:0:1, 2+1:0:0:0:0, 1+0:0:0:0:0, 1+1:0:0:0:1, 1+0:0:0:0:0, 3+0:0:0:0:0, 1+0:0:0:0:0, 1+0:0:0:0:0, 2+0:0:0:0:0, 0+0:0:0:0:0, 1+0:0:0:0:0, 3+1:0:0:0:1, 0+0:0:0:0:0, 0+0:0:0:0:0, 0+0:0:0:0:0, 0+0:0:0:0:0, 2+1:0:0:0:0, 1+0:0:0:0:0, 0+0:0:0:0:0, 3+2:0:0:0:2, 1+0:0:0:0:0, 1+0:0:0:0:0, 0+0:0:0:0:0, 0+0:0:0:0:0, 0+0:0:0:0:0, 2+0:0:0:0:0, 1+1:0:0:0:0, 4+1:0:0:0:1, 1+1:0:0:0:1, 0+0:0:0:0:0, 2+2:0:0:0:0, 2+0:0:0:0:0, 1+1:1:0:0:1, 1+1:0:0:0:0, 1+0:0:0:0:0, 0+0:0:0:0:0, 1+0:0:0:0:0, 2+0:0:0:0:0, 2+0:0:0:0:0, 1+0:0:0:0:0, 0+0:0:0:0:0, 1+1:0:0:0:0, 1+0:0:0:0:0, 3+2:0:0:0:2, 0+3:0:0:0:0, 0+0:0:0:0:0, 0+0:0:0:0:0, 0+0:0:0:0:0, 1+1:0:0:0:0, 0+0:0:0:0:0, 2+1:0:0:0:0, 4+3:0:0:0:2, 1+1:0:0:0:0, 0+0:0:0:0:0, 1+1:0:0:0:0, 0+0:0:0:0:0, 1+1:0:0:0:0, 2+2:0:0:0:0, 0+0:0:0:0:0, 3+2:0:0:0:1, 2+0:0:0:0:0, 0+0:0:0:0:0, 2+1:0:0:0:0, 2+2:0:0:0:2, 2+1:0:0:0:0, 1+1:0:0:0:0, 1+0:0:0:0:0, 0+0:0:0:0:0, 1+0:0:0:0:0, 1+0:0:0:0:0, 2+0:0:0:0:0, 0+0:0:0:0:0, 1+0:0:0:0:0, 0+0:0:0:0:0, 0+0:0:0:0:0, 3+4:0:0:0:3, 0+4:0:0:0:0, 0+0:0:0:0:0, 0+0:0:0:0:0, 2+1:0:0:0:1, 0+0:0:0:0:0, 2+1:0:0:0:0, 0+0:0:0:0:0, 4+2:0:0:0:1, 1+1:0:0:0:1, 0+0:0:0:0:0, 1+2:0:0:0:0, 0+0:0:0:0:0, 0+0:0:0:0:0, 0+0:0:0:0:0, 0+2:0:0:0:0, 3+3:0:0:0:3, 1+1:0:0:0:0, 2+1:0:0:0:1, 1+0:0:0:0:0, 2+2:0:0:0:2, 1+0:0:0:0:0, 0+0:0:0:0:0, 1+3:0:0:0:0, 0+1:0:0:0:0, 1+1:0:0:0:0, 2+0:0:0:0:0, 1+0:0:0:0:0, 0+0:0:0:0:0, 2+1:0:0:0:0, 0+0:0:0:0:0, 0+0:0:0:0:0, 5+3:0:0:0:1, 1+1:0:0:0:0, 1+1:0:0:0:1, 2+1:0:0:0:0, 1+1:0:0:0:0, 0+0:0:0:0:0, 2+1:0:0:0:0, 0+0:0:0:0:0, 4+2:0:0:0:1, 1+1:0:0:0:1, 0+0:0:0:0:0, 1+1:0:0:0:0, 0+0:0:0:0:0, 0+0:0:0:0:0, 0+0:0:0:0:0, 0+1:0:0:0:0, 3+3:0:0:0:3, 1+1:0:0:0:0, 2+1:0:0:0:1, 2+1:0:0:0:0, 4+3:0:0:0:2, 1+0:0:0:0:0, 0+0:0:0:0:0, 1+3:0:0:0:0, 0+1:0:0:0:0, 1+1:0:0:0:0, 2+0:0:0:0:0, 1+0:0:0:0:0, 0+0:0:0:0:0, 2+1:0:0:0:0, 0+0:0:0:0:0, 0+0:0:0:0:0, 5+3:0:0:0:1, 1+1:0:0:0:0, 1+1:0:0:0:1, 0+0:0:0:0:0, 1+1:0:0:0:0, 1+1:0:0:0:0, 0+0:0:0:0:0, 2+1:0:0:0:0, 5+4:0:0:0:2, 1+1:0:0:0:0, 2+1:0:0:0:0, 1+1:0:0:0:0, 0+0:0:0:0:0, 0+0:0:0:0:0, 0+0:0:0:0:0, 1+1:0:1:0:0, 5+3:0:0:0:1, 1+1:0:0:0:0, 0+0:0:0:0:0, 1+0:0:0:0:0, 1+3:0:0:0:0, 1+1:1:0:0:1, 1+1:0:0:0:0, 1+0:0:0:0:0, 0+0:0:0:0:0, 2+1:0:0:0:1, 1+0:0:0:0:0, 1+0:0:0:0:0, 0+0:0:0:0:0, 0+0:0:0:0:0, 0+0:0:0:0:0, 0+0:0:0:0:0, 3+2:0:0:0:2, 1+1:0:0:0:0, 0+0:0:0:0:0, 0+0:0:0:0:0, 208+138:3:1:0:48
A major (3#), 2+0:0:0:0:0, 2+0:0:0:0:0, 5+5:0:0:0:0, 3+0:0:0:0:0, 4+1:0:0:0:0, 2+2:0:0:0:1, 2+0:0:0:0:0, 1+0:0:0:0:0, 4+3:0:0:0:2, 2+0:0:0:0:0, 4+2:0:0:0:0, 2+3:0:0:0:0, 2+2:0:0:0:0, 3+2:1:0:0:1, 3+1:0:0:0:0, 2+3:0:0:0:0, 3+5:0:0:0:1, 1+0:0:0:0:0, 2+1:1:1:0:1, 3+2:0:1:0:1, 1+1:0:0:0:0, 3+2:0:0:0:1, 1+3:0:0:0:0, 2+1:0:0:0:0, 2+0:0:0:0:0, 2+1:0:1:0:1, 5+4:0:0:0:0, 2+2:0:0:0:0, 2+2:0:0:0:0, 1+3:0:0:0:1, 2+0:0:0:0:0, 2+0:0:0:0:0, 1+0:0:0:0:0, 1+0:0:0:0:0, 3+2:0:0:0:0, 2+3:0:0:0:0, 2+2:0:0:0:0, 1+2:0:0:0:1, 2+0:0:0:0:0, 2+5:0:0:0:0, 5+3:0:0:0:2, 2+0:0:0:0:0, 2+2:0:0:0:0, 2+2:0:0:0:0, 3+3:0:0:0:0, 3+3:0:0:0:1, 3+1:0:0:0:0, 2+0:0:0:0:0, 2+2:0:0:0:2, 1+0:0:0:0:0, 2+1:1:1:0:1, 4+2:0:0:0:0, 1+0:0:0:0:0, 3+0:0:0:0:0, 1+3:0:0:0:0, 2+1:0:0:0:0, 2+0:0:0:0:0, 2+0:0:0:0:0, 3+4:0:0:0:0, 2+3:0:0:0:0, 3+2:0:0:0:0, 2+2:0:0:0:1, 2+0:0:0:0:0, 1+0:0:0:0:0, 3+0:0:0:0:0, 2+0:0:0:0:0, 3+4:0:0:0:4, 4+2:0:0:0:1, 4+1:0:0:0:1, 3+3:0:0:0:1, 3+1:0:0:0:0, 2+0:0:0:0:0, 4+3:0:0:0:2, 2+2:2:0:0:0, 3+4:0:0:0:4, 3+2:0:0:0:0, 3+3:0:0:0:0, 5+2:1:0:0:2, 3+3:0:0:0:0, 3+2:0:0:0:0, 5+2:0:0:0:0, 6+3:0:0:0:1, 2+1:1:1:0:1, 4+2:0:0:0:0, 1+0:0:0:0:0, 3+0:0:0:0:0, 1+3:0:0:0:0, 1+0:0:0:0:0, 2+0:0:0:0:0, 2+0:0:0:0:0, 4+2:0:0:0:0, 5+3:0:0:0:1, 4+4:0:0:0:0, 1+1:1:0:0:1, 2+1:1:0:0:0, 1+0:0:0:0:0, 2+1:0:0:0:0, 4+2:0:1:0:1, 4+3:0:0:0:2, 4+1:0:0:0:1, 5+3:0:0:0:0, 1+1:1:0:0:1, 3+1:0:0:0:0, 2+0:0:0:0:0, 3+2:0:0:0:0, 4+2:0:0:0:0, 5+1:0:0:0:0, 4+1:0:0:0:0, 4+1:0:0:0:1, 1+3:0:0:0:1, 3+1:0:0:0:0, 3+2:0:0:0:0, 3+6:0:0:0:4, 3+1:0:0:0:0, 3+2:1:0:0:0, 3+4:0:0:0:0, 2+1:0:0:0:0, 5+1:0:0:0:0, 2+1:0:0:0:0, 2+1:0:0:0:0, 3+1:0:0:0:0, 3+1:0:0:0:0, 3+3:1:0:0:0, 4+1:0:0:0:1, 5+2:0:0:0:1, 1+1:1:0:0:1, 3+1:0:0:0:0, 3+2:0:0:0:0, 6+4:0:0:0:1, 3+1:0:0:0:0, 4+3:0:0:0:2, 4+1:0:0:0:1, 5+3:0:0:0:0, 1+1:1:0:0:1, 3+1:0:0:0:0, 2+0:0:0:0:0, 3+1:0:0:0:0, 4+2:0:0:0:0, 5+1:0:0:0:0, 4+1:0:0:0:0, 4+1:0:0:0:0, 1+3:0:0:0:1, 3+1:0:0:0:0, 3+2:0:0:0:0, 4+6:0:0:0:4, 4+2:0:0:0:0, 3+2:1:0:0:0, 3+3:0:0:0:0, 2+1:0:0:0:0, 4+1:0:0:0:0, 2+1:0:0:0:0, 2+1:0:0:0:0, 3+1:0:0:0:0, 3+1:0:0:0:0, 3+3:1:0:0:0, 4+1:0:0:0:1, 5+2:0:0:0:1, 1+1:1:0:0:1, 3+1:0:0:0:0, 3+2:0:0:0:0, 4+1:0:0:0:0, 3+3:1:0:0:0, 3+2:0:0:0:0, 3+3:0:0:0:1, 5+2:0:0:0:0, 2+2:1:0:0:2, 3+1:0:0:0:0, 2+1:1:0:0:0, 6+2:0:0:0:0, 2+1:1:0:0:0, 2+4:0:0:0:4, 3+3:0:0:0:1, 5+2:0:0:0:0, 1+1:1:0:0:1, 3+1:0:0:0:0, 3+0:0:0:0:0, 2+6:0:0:0:4, 1+0:0:0:0:0, 2+1:1:1:0:1, 4+1:0:0:0:0, 3+2:0:0:0:0, 2+2:0:0:0:0, 3+1:0:0:0:0, 2+1:0:0:0:0, 2+0:0:0:0:0, 2+0:0:0:0:0, 3+4:0:0:0:3, 5+2:0:0:0:1, 3+4:0:0:0:0, 1+2:0:0:0:1, 3+1:0:0:0:0, 3+1:0:0:0:0, 1+0:0:0:0:0, 536+319:23:7:0:83
C minor (3b), 0+5:0:0:0:0, 1+3:0:0:0:0, 1+5:0:0:0:0, 0+1:0:0:0:0, 0+1:0:0:0:0, 2+2:0:0:0:2, 0+0:0:0:0:0, 1+1:0:0:0:0, 1+1:0:0:0:0, 0+2:0:0:0:0, 1+2:0:0:0:1, 1+1:0:0:0:0, 1+3:0:0:0:0, 4+5:0:0:0:4, 0+0:0:0:0:0, 1+0:0:0:0:0, 1+4:0:0:0:0, 2+0:0:0:0:0, 1+3:1:0:0:1, 2+2:0:0:0:0, 1+0:0:0:0:0, 1+0:0:0:0:0, 1+0:0:0:0:0, 3+0:0:0:0:0, 1+0:0:0:0:0, 2+2:0:0:0:0, 2+2:0:0:0:1, 0+0:0:0:0:0, 1+0:0:0:0:0, 2+3:0:0:0:3, 0+3:0:0:0:0, 0+4:0:0:0:0, 0+0:0:0:0:0, 0+0:0:0:0:0, 2+2:0:0:0:0, 1+2:0:0:0:0, 0+0:0:0:0:0, 3+2:0:0:0:2, 1+0:0:0:0:0, 1+5:0:0:0:0, 0+0:0:0:0:0, 0+2:0:0:0:0, 0+0:0:0:0:0, 2+0:0:0:0:0, 1+1:0:0:0:1, 4+1:0:0:0:1, 1+1:0:0:0:1, 0+3:0:0:0:0, 2+2:0:0:0:2, 2+0:0:0:0:0, 1+3:1:0:0:1, 1+2:0:0:0:0, 1+0:0:0:0:0, 0+0:0:0:0:0, 1+0:0:0:0:0, 2+0:0:0:0:0, 2+0:0:0:0:0, 1+3:0:0:0:0, 0+2:0:0:0:0, 1+1:0:0:0:0, 1+1:0:0:0:0, 3+2:0:0:0:2, 0+3:0:0:0:0, 0+4:0:0:0:0, 0+3:0:0:0:0, 0+4:0:0:0:0, 1+2:0:0:0:0, 0+2:0:0:0:0, 2+2:0:0:0:0, 4+3:0:0:0:2, 1+1:0:0:0:0, 0+3:0:0:0:0, 1+1:0:0:0:0, 0+3:0:0:0:0, 1+1:0:0:0:0, 2+1:0:0:0:0, 0+0:0:0:0:0, 3+3:0:0:0:1, 2+0:0:0:0:0, 0+0:0:0:0:0, 2+2:0:0:0:0, 2+3:0:0:0:0, 2+1:0:0:0:0, 1+2:0:0:0:0, 1+0:0:0:0:0, 0+0:0:0:0:0, 1+0:0:0:0:0, 1+0:0:0:0:0, 2+0:0:0:0:0, 0+3:0:0:0:0, 1+2:0:0:0:1, 0+1:0:0:0:0, 0+0:0:0:0:0, 3+4:0:0:0:3, 0+4:0:0:0:0, 0+7:0:0:0:0, 0+2:0:0:0:0, 2+2:0:0:0:0, 0+0:0:0:0:0, 2+2:0:0:0:0, 0+0:0:0:0:0, 4+2:0:0:0:1, 1+1:0:0:0:1, 0+3:0:0:0:0, 1+2:0:0:0:0, 0+1:0:0:0:0, 0+1:0:0:0:0, 0+1:0:0:0:0, 0+2:0:0:0:0, 3+3:0:0:0:3, 1+1:0:0:0:0, 2+1:0:0:0:0, 1+3:0:0:0:0, 2+4:0:0:0:0, 1+0:0:0:0:0, 0+1:0:0:0:0, 1+0:0:0:0:0, 0+1:0:0:0:0, 1+1:0:0:0:0, 2+0:0:0:0:0, 1+0:0:0:0:0, 0+2:0:0:0:0, 2+2:0:0:0:0, 0+1:0:0:0:0, 0+1:0:0:0:0, 4+3:0:0:0:2, 1+1:0:0:0:0, 1+2:0:0:0:0, 2+2:0:0:0:0, 1+3:0:0:0:0, 0+0:0:0:0:0, 2+2:0:0:0:0, 0+0:0:0:0:0, 4+2:0:0:0:1, 1+1:0:0:0:1, 0+3:0:0:0:0, 1+1:0:0:0:0, 0+1:0:0:0:0, 0+1:0:0:0:0, 0+1:0:0:0:0, 0+1:0:0:0:0, 3+3:0:0:0:3, 1+1:0:0:0:0, 2+1:0:0:0:0, 2+4:0:0:0:0, 4+3:0:0:0:0, 1+0:0:0:0:0, 0+2:0:0:0:0, 1+0:0:0:0:0, 0+1:0:0:0:0, 1+1:0:0:0:0, 2+0:0:0:0:0, 1+0:0:0:0:0, 0+2:0:0:0:0, 2+2:0:0:0:0, 0+1:0:0:0:0, 0+1:0:0:0:0, 4+3:0:0:0:2, 1+1:0:0:0:0, 1+2:0:0:0:0, 0+0:0:0:0:0, 1+3:0:0:0:0, 1+1:0:0:0:1, 0+0:0:0:0:0, 2+1:0:0:0:0, 5+4:0:0:0:2, 1+1:0:0:0:0, 2+1:0:0:0:0, 1+2:0:0:0:0, 0+2:0:0:0:0, 0+0:0:0:0:0, 0+0:0:0:0:0, 2+1:0:0:0:0, 4+3:0:0:0:2, 1+1:0:0:0:0, 0+3:0:0:0:0, 1+3:0:0:0:0, 1+0:0:0:0:0, 1+3:1:0:0:1, 1+1:0:0:0:0, 1+0:0:0:0:0, 0+0:0:0:0:0, 2+1:0:0:0:0, 1+0:0:0:0:0, 1+0:0:0:0:0, 0+3:0:0:0:0, 0+0:0:0:0:0, 0+1:0:0:0:0, 0+0:0:0:0:0, 3+2:0:0:0:2, 1+1:0:0:0:0, 0+4:0:0:0:0, 0+0:0:0:0:0, 204+289:3:0:0:51
F# minor (3#), 2+0:0:0:0:0, 2+0:0:0:0:0, 5+5:0:0:0:0, 3+0:0:0:0:0, 4+1:0:0:0:0, 2+2:0:0:0:1, 2+0:0:0:0:0, 1+4:0:0:0:0, 4+3:0:0:0:2, 2+0:0:0:0:0, 4+2:0:0:0:0, 2+3:0:0:0:0, 2+2:0:0:0:0, 3+2:1:0:0:1, 3+1:0:0:0:0, 2+3:0:0:0:0, 3+5:0:0:0:1, 1+0:0:0:0:0, 2+1:1:1:0:1, 3+2:0:1:0:1, 1+1:0:0:0:0, 3+2:0:0:0:1, 1+3:0:0:0:0, 2+1:0:0:0:0, 2+0:0:0:0:0, 2+1:0:1:0:1, 5+4:0:0:0:0, 2+2:0:0:0:0, 2+2:0:0:0:0, 1+3:0:0:0:1, 2+0:0:0:0:0, 2+0:0:0:0:0, 1+0:0:0:0:0, 1+0:0:0:0:0, 3+2:0:0:0:0, 2+3:0:0:0:0, 2+2:0:0:0:0, 1+2:0:0:0:1, 2+0:0:0:0:0, 2+5:0:0:0:0, 5+3:0:0:0:2, 2+0:0:0:0:0, 2+2:0:0:0:0, 2+2:0:0:0:0, 3+3:0:0:0:0, 3+3:0:0:0:1, 3+1:0:0:0:0, 2+0:0:0:0:0, 2+2:0:0:0:2, 1+0:0:0:0:0, 2+1:1:1:0:1, 4+2:0:0:0:0, 1+0:0:0:0:0, 3+0:0:0:0:0, 1+3:0:0:0:0, 2+1:0:0:0:0, 2+0:0:0:0:0, 2+3:0:0:0:0, 3+4:0:0:0:0, 2+3:0:0:0:0, 3+2:0:0:0:0, 2+2:0:0:0:1, 2+0:0:0:0:0, 1+0:0:0:0:0, 3+0:0:0:0:0, 2+0:0:0:0:0, 3+4:0:0:0:4, 4+2:0:0:0:1, 5+3:0:0:0:0, 3+3:0:0:0:1, 3+1:0:0:0:0, 2+0:0:0:0:0, 4+3:0:0:0:2, 2+2:2:0:0:0, 3+4:0:0:0:4, 3+2:0:0:0:0, 3+3:0:0:0:0, 5+2:1:0:0:2, 3+3:0:0:0:0, 3+1:0:0:0:0, 5+1:0:0:0:1, 6+3:0:0:0:1, 2+1:1:1:0:1, 4+2:0:0:0:0, 1+0:0:0:0:0, 3+0:0:0:0:0, 1+3:0:0:0:0, 1+0:0:0:0:0, 2+0:0:0:0:0, 2+0:0:0:0:0, 4+2:0:0:0:0, 5+1:0:0:0:0, 4+4:0:0:0:0, 1+1:1:0:0:1, 2+1:1:0:0:0, 1+0:0:0:0:0, 2+1:0:0:0:0, 4+2:0:0:0:1, 4+3:0:0:0:2, 5+4:0:0:0:0, 5+3:0:0:0:0, 1+1:1:0:0:1, 3+1:0:0:0:0, 2+0:0:0:0:0, 3+2:0:0:0:0, 4+2:0:0:0:0, 5+1:0:0:0:0, 4+1:0:0:0:0, 4+2:0:0:0:0, 1+3:0:0:0:1, 3+1:0:0:0:0, 3+3:0:0:0:0, 3+6:0:0:0:4, 3+1:0:0:0:0, 4+4:1:0:0:1, 3+1:0:0:0:0, 2+1:0:0:0:0, 5+1:0:0:0:0, 2+1:0:0:0:0, 2+1:0:0:0:0, 3+1:0:0:0:0, 3+1:0:0:0:0, 3+2:1:0:0:1, 4+1:0:0:0:0, 5+1:0:0:0:0, 1+1:1:0:0:1, 3+1:0:0:0:0, 3+2:0:0:0:0, 5+2:0:1:0:1, 3+3:1:0:0:0, 4+3:0:0:0:2, 5+3:0:0:0:0, 5+3:0:0:0:0, 1+1:1:0:0:1, 3+1:0:0:0:0, 2+0:0:0:0:0, 3+1:0:0:0:0, 4+2:0:0:0:0, 5+1:0:0:0:0, 4+1:0:0:0:0, 4+1:0:0:0:0, 1+3:0:0:0:1, 3+1:0:0:0:0, 3+3:0:0:0:0, 4+6:0:0:0:4, 4+2:0:0:0:0, 4+4:1:0:0:1, 3+2:0:0:0:0, 2+1:0:0:0:0, 4+1:0:0:0:0, 2+1:0:0:0:0, 2+1:0:0:0:0, 3+1:0:0:0:0, 3+1:0:0:0:0, 3+2:1:0:0:1, 4+1:0:0:0:0, 5+1:0:0:0:0, 1+1:1:0:0:1, 3+1:0:0:0:0, 3+2:0:0:0:0, 4+1:0:0:0:0, 3+3:1:0:0:0, 3+2:0:0:0:0, 3+3:0:0:0:1, 5+2:0:0:0:0, 2+2:1:0:0:2, 3+1:0:0:0:0, 2+1:1:0:0:0, 6+2:0:0:0:0, 2+1:1:0:0:0, 2+4:0:0:0:4, 3+3:0:0:0:1, 5+2:0:0:0:0, 1+1:1:0:0:1, 3+1:0:0:0:0, 3+0:0:0:0:0, 2+6:0:0:0:4, 1+0:0:0:0:0, 2+1:1:1:0:1, 4+1:0:0:0:0, 3+0:0:0:0:0, 2+0:0:0:0:0, 2+3:0:0:0:1, 2+1:0:0:0:0, 2+0:0:0:0:0, 2+0:0:0:0:0, 3+4:0:0:0:3, 5+2:0:0:0:1, 3+4:0:0:0:0, 1+2:0:0:0:1, 3+1:0:0:0:0, 3+1:0:0:0:0, 1+0:0:0:0:0, 539+326:24:7:0:80
Ab major (4b), 0+0:0:0:0:0, 1+0:0:0:0:0, 1+3:0:0:0:0, 0+0:0:0:0:0, 0+0:0:0:0:0, 2+2:0:0:0:2, 0+0:0:0:0:0, 1+0:0:0:0:0, 1+1:0:0:0:1, 1+0:0:0:0:0, 1+0:0:0:0:0, 0+0:0:0:0:0, 1+1:0:0:0:0, 4+4:0:0:0:1, 0+0:0:0:0:0, 1+0:0:0:0:0, 0+4:0:0:0:0, 2+3:0:0:0:0, 1+1:0:0:0:0, 2+1:0:0:0:0, 1+4:0:0:0:0, 1+1:0:0:0:1, 2+0:0:0:0:0, 3+1:0:0:0:0, 1+0:0:0:0:0, 1+0:0:0:0:0, 2+0:0:0:0:0, 0+0:0:0:0:0, 1+0:0:0:0:0, 3+1:0:0:0:1, 0+0:0:0:0:0, 0+0:0:0:0:0, 0+0:0:0:0:0, 0+0:0:0:0:0, 2+1:0:0:0:0, 1+0:0:0:0:0, 0+0:0:0:0:0, 4+3:0:0:0:1, 1+1:0:0:0:1, 1+1:0:0:0:1, 1+0:0:0:0:0, 0+0:0:0:0:0, 0+2:0:0:0:0, 2+1:0:0:0:0, 1+1:0:0:0:0, 4+3:0:0:0:1, 1+1:0:0:0:1, 0+0:0:0:0:0, 1+4:0:0:0:0, 2+3:0:0:0:0, 1+1:0:0:0:0, 1+1:0:0:0:0, 1+0:0:0:0:0, 0+0:0:0:0:0, 2+0:0:0:0:0, 3+0:0:0:0:0, 2+1:0:0:0:0, 1+0:0:0:0:0, 0+4:0:0:0:0, 0+0:0:0:0:0, 1+1:0:0:0:0, 3+4:0:0:0:0, 0+0:0:0:0:0, 0+0:0:0:0:0, 0+0:0:0:0:0, 1+0:0:0:0:0, 2+1:0:0:0:1, 1+0:0:0:0:0, 3+1:0:0:0:0, 3+3:0:0:0:3, 1+1:0:0:0:0, 1+0:0:0:0:0, 1+1:0:0:0:1, 1+0:0:0:0:0, 2+1:0:0:0:0, 3+1:0:0:0:0, 1+1:0:0:0:0, 3+3:0:0:0:1, 2+0:0:0:0:0, 1+0:0:0:0:0, 3+1:0:0:0:0, 1+2:0:0:0:2, 1+1:0:0:0:0, 2+1:0:0:0:0, 1+4:0:0:0:0, 0+0:0:0:0:0, 2+0:0:0:0:0, 2+0:0:0:0:0, 2+1:0:0:0:0, 1+0:0:0:0:0, 1+0:0:0:0:0, 0+0:0:0:0:0, 0+0:0:0:0:0, 4+4:0:0:0:3, 0+0:0:0:0:0, 0+0:0:0:0:0, 0+0:0:0:0:0, 3+1:0:0:0:1, 1+0:0:0:0:0, 2+2:0:0:0:0, 0+0:0:0:0:0, 3+4:0:0:0:1, 1+1:0:0:0:1, 1+0:0:0:0:0, 1+2:0:0:0:2, 1+0:0:0:0:0, 0+0:0:0:0:0, 0+0:0:0:0:0, 1+0:0:0:0:0, 3+3:0:0:0:3, 1+1:0:0:0:0, 3+1:0:0:0:0, 0+3:0:0:0:0, 2+2:0:0:0:2, 0+0:0:0:0:0, 0+0:0:0:0:0, 1+3:0:0:0:0, 0+0:0:0:0:0, 2+2:0:0:0:2, 2+1:0:0:0:0, 1+0:0:0:0:0, 1+0:0:0:0:0, 2+1:0:0:0:0, 0+0:0:0:0:0, 0+0:0:0:0:0, 4+4:0:0:0:2, 1+1:0:0:0:0, 2+1:0:0:0:1, 2+1:0:0:0:1, 2+1:0:0:0:0, 1+0:0:0:0:0, 3+1:0:0:0:0, 0+0:0:0:0:0, 3+4:0:0:0:1, 1+1:0:0:0:1, 1+0:0:0:0:0, 1+1:0:0:0:1, 1+0:0:0:0:0, 0+0:0:0:0:0, 0+0:0:0:0:0, 0+0:0:0:0:0, 3+3:0:0:0:3, 1+1:0:0:0:0, 3+1:0:0:0:0, 1+4:0:0:0:0, 4+3:0:0:0:2, 0+0:0:0:0:0, 0+0:0:0:0:0, 1+3:0:0:0:0, 0+0:0:0:0:0, 2+2:0:0:0:2, 2+0:0:0:0:0, 1+0:0:0:0:0, 1+0:0:0:0:0, 2+1:0:0:0:0, 0+0:0:0:0:0, 0+0:0:0:0:0, 4+4:0:0:0:2, 1+1:0:0:0:0, 2+1:0:0:0:1, 0+0:0:0:0:0, 2+1:0:0:0:0, 2+1:0:0:0:0, 1+0:0:0:0:0, 1+1:0:1:0:0, 6+4:0:0:0:2, 1+1:0:0:0:0, 2+1:0:0:0:0, 1+1:0:0:0:0, 1+0:0:0:0:0, 1+0:0:0:0:0, 1+0:0:0:0:0, 1+1:0:1:0:0, 4+4:0:0:0:2, 1+1:0:0:0:1, 0+0:0:0:0:0, 0+3:0:0:0:0, 1+3:0:0:0:0, 1+1:0:0:0:0, 1+1:0:0:0:1, 1+2:0:0:0:0, 1+0:0:0:0:0, 2+1:0:0:0:0, 1+0:0:0:0:0, 2+0:0:0:0:0, 1+0:0:0:0:0, 0+0:0:0:0:0, 1+0:0:0:0:0, 0+0:0:0:0:0, 3+2:0:0:0:2, 1+1:0:0:0:0, 0+0:0:0:0:0, 0+0:0:0:0:0, 239+183:0:2:0:59
E major (4#), 2+0:0:0:0:0, 2+0:0:0:0:0, 5+5:0:0:0:0, 3+2:0:0:0:0, 4+1:0:0:0:0, 2+2:0:0:0:1, 2+0:0:0:0:0, 1+0:0:0:0:0, 4+1:0:0:0:0, 3+2:0:0:0:0, 4+2:0:0:0:0, 2+3:0:0:0:0, 2+2:0:0:0:0, 2+2:1:0:0:1, 3+1:0:0:0:0, 2+3:0:0:0:0, 3+2:0:0:0:2, 1+0:0:0:0:0, 4+1:0:0:0:1, 3+2:0:1:0:1, 0+0:0:0:0:0, 2+2:1:0:0:1, 2+1:0:0:0:0, 2+0:0:0:0:0, 2+0:0:0:0:0, 2+1:0:1:0:1, 5+4:0:0:0:0, 2+2:0:0:0:0, 2+2:0:0:0:0, 1+3:0:0:0:1, 2+0:0:0:0:0, 2+0:0:0:0:0, 1+0:0:0:0:0, 1+0:0:0:0:0, 3+2:0:0:0:0, 2+3:0:0:0:0, 2+2:0:0:0:0, 1+2:0:0:0:1, 2+0:0:0:0:0, 2+5:0:0:0:0, 6+3:0:0:0:1, 2+0:0:0:0:0, 2+2:0:0:0:0, 2+2:0:0:0:0, 3+3:0:0:0:0, 3+3:0:0:0:1, 3+1:0:0:0:0, 2+0:0:0:0:0, 2+2:0:0:0:2, 1+0:0:0:0:0, 4+1:0:0:0:1, 4+2:0:0:0:0, 1+0:0:0:0:0, 3+0:0:0:0:0, 2+3:0:0:0:0, 3+1:0:0:0:0, 2+2:0:0:0:0, 2+3:0:0:0:0, 3+4:0:0:0:0, 2+3:0:0:0:0, 3+2:0:0:0:0, 2+2:0:0:0:1, 2+0:0:0:0:0, 1+0:0:0:0:0, 3+0:0:0:0:0, 3+1:0:0:0:0, 4+2:0:0:0:0, 5+2:0:0:0:0, 5+1:0:0:0:1, 3+3:0:0:0:1, 3+1:0:0:0:0, 3+0:0:0:0:0, 4+1:0:0:0:0, 3+2:2:0:0:0, 4+4:0:0:0:2, 4+2:0:0:0:0, 4+3:0:0:0:0, 4+2:1:0:0:1, 2+1:0:0:0:0, 4+1:0:0:0:0, 6+1:0:0:0:1, 6+3:0:0:0:1, 4+1:0:0:0:1, 4+2:0:0:0:0, 1+0:0:0:0:0, 3+0:0:0:0:0, 2+3:0:0:0:0, 2+2:0:0:0:0, 2+0:0:0:0:0, 3+0:0:0:0:0, 4+2:0:0:0:0, 5+3:0:0:0:1, 4+4:0:0:0:0, 2+1:1:0:0:1, 3+4:0:0:0:0, 1+0:0:0:0:0, 2+1:0:0:0:0, 5+2:0:0:0:1, 5+3:0:0:0:1, 5+4:0:0:0:0, 4+3:0:0:0:0, 1+1:1:0:0:1, 2+1:0:0:0:0, 3+0:0:0:0:0, 3+2:0:0:0:0, 5+2:0:0:0:0, 5+1:0:0:0:0, 4+1:0:0:0:0, 5+3:0:0:0:0, 1+3:0:0:0:1, 3+1:0:0:0:0, 4+3:0:0:0:0, 3+6:0:0:0:2, 3+1:0:0:0:0, 3+2:1:0:0:0, 3+0:0:0:0:0, 2+0:0:0:0:0, 5+1:0:0:0:0, 3+1:0:0:0:0, 2+0:0:0:0:0, 3+1:0:0:0:0, 4+1:0:0:0:0, 3+2:1:0:0:1, 4+1:0:0:0:0, 5+1:0:0:0:0, 1+1:1:0:0:1, 3+1:0:0:0:0, 4+2:0:0:0:0, 5+2:0:1:0:1, 4+3:1:0:0:0, 5+3:0:0:0:0, 5+1:0:0:0:1, 4+3:0:0:0:0, 1+1:1:0:0:1, 2+1:0:0:0:0, 3+0:0:0:0:0, 3+1:0:0:0:0, 5+2:0:0:0:0, 5+1:0:0:0:0, 4+1:0:0:0:0, 4+1:0:0:0:0, 1+3:0:0:0:1, 3+1:0:0:0:0, 4+3:0:0:0:0, 4+6:0:0:0:2, 3+2:0:0:0:0, 3+2:1:0:0:0, 3+0:0:0:0:0, 2+0:0:0:0:0, 4+1:0:0:0:0, 3+1:0:0:0:0, 2+0:0:0:0:0, 3+1:0:0:0:0, 4+1:0:0:0:0, 3+2:1:0:0:1, 4+1:0:0:0:0, 5+1:0:0:0:0, 1+1:1:0:0:1, 3+1:0:0:0:0, 4+2:0:0:0:0, 4+1:0:0:0:0, 4+3:1:0:0:0, 4+2:0:0:0:0, 4+2:0:0:0:0, 5+2:0:0:0:0, 3+2:1:0:0:2, 3+1:0:0:0:0, 2+1:1:0:0:0, 6+2:0:0:0:0, 3+1:1:0:0:0, 3+4:0:0:0:2, 3+3:0:0:0:0, 5+2:0:0:0:0, 1+1:1:0:0:1, 3+1:0:0:0:0, 3+0:0:0:0:0, 2+6:0:0:0:2, 1+0:0:0:0:0, 3+1:1:1:0:1, 4+1:0:0:0:0, 3+0:0:0:0:0, 3+2:0:0:0:0, 2+1:0:0:0:0, 2+0:0:0:0:0, 3+0:0:0:0:0, 3+0:0:0:0:0, 3+2:0:0:0:0, 6+2:0:0:0:0, 3+2:0:0:0:0, 1+2:0:0:0:1, 3+1:0:0:0:0, 3+1:0:0:0:0, 1+0:0:0:0:0, 581+301:21:4:0:51
F minor (4b), 0+0:0:0:0:0, 1+0:0:0:0:0, 1+3:0:0:0:0, 0+0:0:0:0:0, 0+0:0:0:0:0, 2+2:0:0:0:2, 0+0:0:0:0:0, 1+0:0:0:0:0, 1+2:0:0:0:0, 1+0:0:0:0:0, 1+0:0:0:0:0, 0+0:0:0:0:0, 1+0:0:0:0:0, 3+5:0:0:0:4, 0+0:0:0:0:0, 1+0:0:0:0:0, 0+4:0:0:0:0, 2+3:0:0:0:0, 1+1:0:0:0:0, 2+1:0:0:0:0, 1+0:0:0:0:0, 1+0:0:0:0:0, 2+0:0:0:0:0, 3+0:0:0:0:0, 1+0:0:0:0:0, 1+1:0:1:0:1, 2+1:0:0:0:1, 0+0:0:0:0:0, 1+0:0:0:0:0, 2+2:0:0:0:2, 0+0:0:0:0:0, 0+1:0:0:0:0, 0+1:0:0:0:0, 0+0:0:0:0:0, 2+1:0:0:0:0, 1+0:0:0:0:0, 0+0:0:0:0:0, 3+2:0:0:0:2, 1+0:0:0:0:0, 1+0:0:0:0:0, 1+3:0:0:0:0, 0+0:0:0:0:0, 0+2:0:0:0:0, 2+1:0:0:0:0, 1+1:0:0:0:0, 3+5:0:0:0:4, 1+1:0:0:0:0, 0+0:0:0:0:0, 1+4:0:0:0:0, 2+3:0:0:0:0, 1+1:0:0:0:0, 1+2:0:0:0:0, 1+0:0:0:0:0, 0+0:0:0:0:0, 2+0:0:0:0:0, 3+0:0:0:0:0, 2+1:0:0:0:0, 1+0:0:0:0:0, 0+4:0:0:0:0, 0+0:0:0:0:0, 1+0:0:0:0:0, 3+2:0:0:0:2, 0+0:0:0:0:0, 0+0:0:0:0:0, 0+1:0:0:0:0, 1+4:0:0:0:0, 2+1:0:0:0:0, 1+0:0:0:0:0, 3+1:0:0:0:0, 3+3:0:0:0:2, 1+1:0:0:0:0, 1+3:0:0:0:0, 1+1:0:0:0:0, 1+3:0:0:0:0, 2+1:0:0:0:0, 3+1:0:0:0:0, 1+1:0:0:0:0, 3+3:0:0:0:1, 2+0:0:0:0:0, 1+2:0:0:0:0, 3+2:0:0:0:0, 1+3:0:0:0:0, 1+1:0:0:0:0, 1+2:0:0:0:0, 1+0:0:0:0:0, 0+0:0:0:0:0, 2+0:0:0:0:0, 2+0:0:0:0:0, 2+1:0:0:0:0, 1+0:0:0:0:0, 1+0:0:0:0:0, 0+0:0:0:0:0, 0+0:0:0:0:0, 4+4:0:0:0:3, 0+4:0:0:0:0, 0+0:0:0:0:0, 0+0:0:0:0:0, 3+1:0:0:0:0, 1+3:0:0:0:0, 2+1:0:0:0:0, 0+1:0:0:0:0, 2+2:0:0:0:2, 1+2:0:0:0:0, 1+3:0:0:0:0, 1+2:0:0:0:0, 1+1:0:0:0:0, 0+1:0:0:0:0, 0+0:0:0:0:0, 1+2:0:0:0:0, 3+3:0:0:0:3, 1+1:0:0:0:0, 3+1:0:0:0:0, 0+3:0:0:0:0, 2+2:0:0:0:0, 0+0:0:0:0:0, 0+4:0:0:0:0, 1+3:0:0:0:0, 0+1:0:0:0:0, 2+1:0:0:0:0, 2+0:0:0:0:0, 1+0:0:0:0:0, 1+0:0:0:0:0, 2+3:0:0:0:0, 0+0:0:0:0:0, 0+1:0:0:0:0, 3+3:0:0:0:2, 1+1:0:0:0:0, 2+2:0:0:0:0, 2+1:0:0:0:0, 2+3:0:0:0:0, 1+0:0:0:0:0, 3+1:0:0:0:0, 0+1:0:0:0:0, 2+2:0:0:0:2, 1+2:0:0:0:0, 1+3:0:0:0:0, 1+1:0:0:0:0, 1+1:0:0:0:0, 0+1:0:0:0:0, 0+0:0:0:0:0, 0+1:0:0:0:0, 3+3:0:0:0:3, 1+1:0:0:0:0, 3+1:0:0:0:0, 1+4:0:0:0:0, 4+3:0:0:0:0, 0+0:0:0:0:0, 0+3:0:0:0:0, 1+3:0:0:0:0, 0+1:0:0:0:0, 2+1:0:0:0:0, 2+0:0:0:0:0, 1+0:0:0:0:0, 1+0:0:0:0:0, 2+3:0:0:0:0, 0+0:0:0:0:0, 0+1:0:0:0:0, 3+3:0:0:0:2, 1+1:0:0:0:0, 2+2:0:0:0:0, 0+0:0:0:0:0, 2+3:0:0:0:0, 2+1:0:0:0:1, 1+0:0:0:0:0, 2+1:0:0:0:0, 6+4:0:0:0:2, 1+1:0:0:0:0, 2+1:0:0:0:0, 1+2:0:0:0:0, 1+2:0:0:0:0, 1+0:0:0:0:0, 1+0:0:0:0:0, 2+1:0:0:0:0, 3+3:0:0:0:2, 1+1:0:0:0:0, 0+0:0:0:0:0, 0+3:0:0:0:0, 1+3:0:0:0:0, 1+1:0:0:0:0, 1+2:0:0:0:0, 1+3:0:0:0:0, 1+0:0:0:0:0, 2+1:0:0:0:0, 1+0:0:0:0:0, 2+0:0:0:0:0, 1+0:0:0:0:0, 0+3:0:0:0:0, 1+1:0:0:0:0, 0+0:0:0:0:0, 3+2:0:0:0:2, 1+1:0:0:0:0, 0+1:0:0:0:0, 0+1:0:0:0:0, 231+240:0:1:0:45
C# minor (4#), 2+0:0:0:0:0, 2+0:0:0:0:0, 5+5:0:0:0:0, 3+2:0:0:0:0, 4+1:0:0:0:0, 2+2:0:0:0:1, 2+0:0:0:0:0, 1+0:0:0:0:0, 4+1:0:0:0:0, 3+2:0:0:0:0, 4+2:0:0:0:0, 2+0:0:0:0:0, 2+2:0:0:0:0, 2+2:1:0:0:1, 3+1:0:0:0:0, 2+0:0:0:0:0, 3+2:0:0:0:2, 1+0:0:0:0:0, 4+1:0:0:0:1, 3+2:0:1:0:1, 0+0:0:0:0:0, 2+2:1:0:0:1, 2+1:0:0:0:0, 2+0:0:0:0:0, 2+0:0:0:0:0, 2+1:0:1:0:1, 5+4:0:0:0:0, 2+0:0:0:0:0, 2+2:0:0:0:0, 1+3:0:0:0:1, 2+0:0:0:0:0, 2+0:0:0:0:0, 1+0:0:0:0:0, 1+0:0:0:0:0, 3+2:0:0:0:0, 2+0:0:0:0:0, 2+2:0:0:0:0, 1+1:1:0:0:1, 2+4:0:0:0:0, 2+0:0:0:0:0, 6+3:0:0:0:0, 2+2:0:0:0:0, 2+2:0:0:0:0, 2+3:0:0:0:0, 3+3:0:0:0:0, 3+3:0:0:0:1, 3+1:0:0:0:0, 2+0:0:0:0:0, 2+2:0:0:0:2, 1+0:0:0:0:0, 4+1:0:0:0:1, 4+2:0:0:0:0, 1+0:0:0:0:0, 3+0:0:0:0:0, 2+3:0:0:0:0, 3+1:0:0:0:0, 2+2:0:0:0:0, 2+0:0:0:0:0, 3+4:0:0:0:0, 2+0:0:0:0:0, 3+2:0:0:0:0, 2+2:0:0:0:1, 2+0:0:0:0:0, 1+0:0:0:0:0, 3+0:0:0:0:0, 3+1:0:0:0:0, 4+2:0:0:0:0, 5+2:0:0:0:0, 5+1:0:0:0:1, 3+3:0:0:0:1, 3+1:0:0:0:0, 3+0:0:0:0:0, 4+1:0:0:0:0, 3+4:2:0:0:2, 4+2:0:0:0:0, 4+1:0:0:0:1, 4+3:0:0:0:0, 6+3:0:0:0:1, 4+0:0:0:0:0, 4+0:0:0:0:0, 6+1:0:0:0:1, 6+3:0:0:0:1, 4+1:0:0:0:1, 4+2:0:0:0:0, 1+0:0:0:0:0, 3+0:0:0:0:0, 2+3:0:0:0:0, 2+2:0:0:0:0, 2+2:0:0:0:0, 3+2:0:0:0:0, 4+2:0:0:0:0, 5+1:0:0:0:0, 3+0:0:0:0:0, 2+4:0:0:0:2, 3+4:0:0:0:0, 1+0:0:0:0:0, 2+0:0:0:0:0, 5+2:0:1:0:1, 5+3:0:0:0:0, 4+2:0:0:0:0, 4+0:0:0:0:0, 1+1:1:0:0:1, 2+1:0:0:0:0, 3+0:0:0:0:0, 3+2:0:0:0:0, 5+2:0:0:0:0, 5+1:0:0:0:0, 4+1:0:0:0:0, 5+2:0:0:0:0, 1+3:0:0:0:1, 3+1:0:0:0:0, 4+2:0:0:0:0, 3+3:0:0:0:0, 3+4:0:0:0:3, 4+4:1:0:0:1, 3+0:0:0:0:0, 2+0:0:0:0:0, 5+1:0:0:0:0, 3+1:0:0:0:0, 2+0:0:0:0:0, 3+1:0:0:0:0, 4+1:0:0:0:0, 3+2:1:0:0:1, 4+1:0:0:0:0, 5+1:0:0:0:0, 1+1:1:0:0:1, 3+1:0:0:0:0, 4+2:0:0:0:0, 5+2:0:1:0:1, 4+3:1:0:0:0, 5+3:0:0:0:0, 5+2:0:0:0:0, 4+0:0:0:0:0, 1+1:1:0:0:1, 2+1:0:0:0:0, 3+0:0:0:0:0, 3+1:0:0:0:0, 5+2:0:0:0:0, 5+1:0:0:0:0, 4+1:0:0:0:0, 4+1:0:0:0:0, 1+3:0:0:0:1, 3+1:0:0:0:0, 4+2:0:0:0:0, 4+4:0:0:0:0, 3+3:0:0:0:2, 4+4:1:0:0:1, 3+0:0:0:0:0, 2+0:0:0:0:0, 4+1:0:0:0:0, 3+1:0:0:0:0, 2+0:0:0:0:0, 3+1:0:0:0:0, 4+1:0:0:0:0, 3+2:1:0:0:1, 4+1:0:0:0:0, 5+1:0:0:0:0, 1+1:1:0:0:1, 3+1:0:0:0:0, 4+2:0:0:0:0, 4+1:0:0:0:0, 4+3:1:0:0:0, 4+2:0:0:0:0, 4+2:0:0:0:0, 5+2:0:0:0:0, 3+2:1:0:0:2, 3+1:0:0:0:0, 2+1:1:0:0:0, 6+2:0:0:0:0, 3+3:1:0:0:1, 3+2:0:0:0:0, 4+2:0:0:0:0, 5+2:0:0:0:0, 1+1:1:0:0:1, 3+1:0:0:0:0, 3+0:0:0:0:0, 2+3:0:0:0:3, 1+0:0:0:0:0, 4+1:0:0:0:1, 4+1:0:0:0:0, 3+0:0:0:0:0, 3+2:0:0:0:0, 2+1:0:0:0:0, 2+0:0:0:0:0, 3+0:0:0:0:0, 3+0:0:0:0:0, 3+2:0:0:0:0, 6+2:0:0:0:0, 3+2:0:0:0:0, 1+1:1:0:0:1, 3+1:0:0:0:0, 3+1:0:0:0:0, 1+0:0:0:0:0, 587+271:20:4:0:52
Db major (5b), 0+0:0:0:0:0, 1+1:0:0:0:1, 1+1:0:0:0:1, 1+0:0:0:0:0, 1+0:0:0:0:0, 1+2:0:0:0:2, 0+0:0:0:0:0, 1+0:0:0:0:0, 2+1:0:0:0:1, 1+0:0:0:0:0, 0+0:0:0:0:0, 1+0:0:0:0:0, 2+0:0:0:0:0, 3+3:0:0:0:1, 1+0:0:0:0:0, 1+1:0:0:0:0, 0+0:0:0:0:0, 2+3:0:0:0:0, 1+1:0:0:0:0, 2+1:0:0:0:0, 1+0:0:0:0:0, 1+1:0:0:0:1, 3+0:0:0:0:0, 4+0:0:0:0:0, 1+0:0:0:0:0, 1+0:0:0:0:0, 1+0:0:0:0:0, 1+0:0:0:0:0, 2+0:0:0:0:0, 1+2:0:0:0:2, 0+0:0:0:0:0, 0+0:0:0:0:0, 0+0:0:0:0:0, 0+0:0:0:0:0, 1+0:0:0:0:0, 2+0:0:0:0:0, 1+0:0:0:0:0, 3+3:0:0:0:1, 1+1:0:0:0:1, 1+1:0:0:0:0, 2+0:0:0:0:0, 0+0:0:0:0:0, 0+0:0:0:0:0, 3+1:0:0:0:0, 2+1:0:0:0:0, 3+3:0:0:0:1, 2+1:0:0:0:1, 0+0:0:0:0:0, 1+2:0:0:0:0, 2+3:0:0:0:0, 1+1:0:0:0:0, 1+1:0:0:0:0, 1+0:0:0:0:0, 0+0:0:0:0:0, 3+0:0:0:0:0, 4+0:0:0:0:0, 2+1:0:0:0:0, 1+2:0:0:0:0, 0+0:0:0:0:0, 1+0:0:0:0:0, 2+1:0:0:0:1, 2+3:0:0:0:3, 0+0:0:0:0:0, 0+0:0:0:0:0, 0+0:0:0:0:0, 1+0:0:0:0:0, 2+1:0:0:0:0, 2+0:0:0:0:0, 4+1:0:0:0:0, 2+2:0:0:0:2, 2+1:0:0:0:0, 1+0:0:0:0:0, 2+1:0:0:0:0, 1+0:0:0:0:0, 2+1:0:0:0:0, 4+2:0:0:0:0, 2+0:0:0:0:0, 2+2:0:0:0:1, 1+0:0:0:0:0, 1+0:0:0:0:0, 3+1:0:0:0:0, 2+2:0:0:0:2, 1+1:0:0:0:0, 1+1:0:0:0:0, 1+0:0:0:0:0, 0+0:0:0:0:0, 3+0:0:0:0:0, 2+0:0:0:0:0, 2+1:0:0:0:0, 1+0:0:0:0:0, 0+0:0:0:0:0, 1+0:0:0:0:0, 1+0:0:0:0:0, 4+2:0:0:0:2, 0+0:0:0:0:0, 0+0:0:0:0:0, 0+0:0:0:0:0, 3+1:0:0:0:1, 2+0:0:0:0:0, 3+1:0:0:0:0, 1+0:0:0:0:0, 2+2:0:0:0:1, 1+1:0:0:0:1, 1+0:0:0:0:0, 1+2:0:0:0:0, 1+0:0:0:0:0, 1+0:0:0:0:0, 1+0:0:0:0:0, 2+0:0:0:0:0, 2+3:0:0:0:3, 2+1:0:0:0:0, 3+1:0:0:0:1, 0+0:0:0:0:0, 2+5:0:0:0:2, 0+1:0:0:0:0, 1+0:0:0:0:0, 1+0:0:0:0:0, 1+0:0:0:0:0, 3+1:0:0:0:0, 3+0:0:0:0:0, 2+0:0:0:0:0, 1+0:0:0:0:0, 2+1:0:0:0:0, 1+0:0:0:0:0, 1+0:0:0:0:0, 3+4:0:0:0:2, 2+1:0:0:0:1, 2+1:0:0:0:1, 3+1:0:0:0:0, 2+1:0:0:0:0, 2+0:0:0:0:0, 4+1:0:0:0:0, 1+0:0:0:0:0, 2+2:0:0:0:1, 1+1:0:0:0:1, 1+0:0:0:0:0, 1+1:0:0:0:0, 1+0:0:0:0:0, 1+0:0:0:0:0, 1+0:0:0:0:0, 1+0:0:0:0:0, 2+3:0:0:0:3, 2+1:0:0:0:0, 3+1:0:0:0:1, 1+1:0:0:0:0, 4+3:0:0:0:2, 0+1:0:0:0:0, 1+0:0:0:0:0, 1+0:0:0:0:0, 0+0:0:0:0:0, 3+1:0:0:0:0, 3+0:0:0:0:0, 2+0:0:0:0:0, 1+0:0:0:0:0, 2+1:0:0:0:0, 1+0:0:0:0:0, 1+0:0:0:0:0, 3+4:0:0:0:2, 2+1:0:0:0:1, 2+1:0:0:0:1, 1+0:0:0:0:0, 2+1:0:0:0:0, 1+1:0:0:0:0, 2+0:0:0:0:0, 2+1:0:1:0:0, 5+5:0:0:0:2, 2+1:0:0:0:0, 3+1:0:0:0:0, 2+1:0:0:0:0, 1+0:0:0:0:0, 1+0:0:0:0:0, 2+0:0:0:0:0, 2+1:0:1:0:0, 3+4:0:0:0:2, 2+1:0:0:0:1, 1+0:0:0:0:0, 0+0:0:0:0:0, 1+3:0:0:0:0, 1+1:0:0:0:0, 2+1:0:0:0:0, 1+0:0:0:0:0, 1+0:0:0:0:0, 3+1:0:0:0:1, 2+0:0:0:0:0, 2+0:0:0:0:0, 1+0:0:0:0:0, 1+0:0:0:0:0, 2+0:0:0:0:0, 1+0:0:0:0:0, 2+2:0:0:0:2, 2+1:0:0:0:0, 0+0:0:0:0:0, 0+0:0:0:0:0, 291+138:0:2:0:57
B major (5#), 2+0:0:0:0:0, 2+0:0:0:0:0, 5+5:0:0:0:0, 3+0:0:0:0:0, 4+1:0:0:0:0, 2+2:0:0:0:1, 2+0:0:0:0:0, 1+0:0:0:0:0, 4+1:0:0:0:0, 3+0:0:0:0:0, 4+2:0:0:0:0, 2+3:0:0:0:0, 3+4:0:0:0:3, 2+2:1:0:0:1, 3+1:0:0:0:0, 2+0:0:0:0:0, 3+2:0:0:0:2, 1+0:0:0:0:0, 3+1:1:1:0:1, 3+2:0:1:0:1, 1+0:0:0:0:0, 2+2:1:0:0:1, 2+0:0:0:0:0, 3+0:0:0:0:0, 3+0:0:0:0:0, 2+1:0:1:0:1, 3+5:1:0:0:1, 2+0:0:0:0:0, 3+0:0:0:0:0, 1+1:1:0:0:1, 2+0:0:0:0:0, 2+0:0:0:0:0, 1+0:0:0:0:0, 1+0:0:0:0:0, 4+2:0:0:0:0, 3+0:0:0:0:0, 2+0:0:0:0:0, 1+1:1:0:0:1, 2+4:0:0:0:0, 2+0:0:0:0:0, 6+3:0:0:0:0, 2+0:0:0:0:0, 2+2:0:0:0:0, 3+3:0:0:0:0, 3+2:0:0:0:2, 2+1:1:0:0:1, 3+3:0:0:0:2, 2+0:0:0:0:0, 3+2:0:0:0:2, 2+0:0:0:0:0, 3+1:1:1:0:1, 4+2:0:0:0:0, 2+0:0:0:0:0, 3+0:0:0:0:0, 2+3:0:0:0:0, 4+1:0:0:0:0, 3+2:0:0:0:0, 2+0:0:0:0:0, 3+4:0:0:0:0, 2+0:0:0:0:0, 3+2:0:0:0:0, 3+2:0:0:0:1, 2+0:0:0:0:0, 1+0:0:0:0:0, 3+0:0:0:0:0, 3+0:0:0:0:0, 4+2:0:0:0:0, 5+2:0:0:0:0, 6+1:0:0:0:1, 4+3:0:0:0:1, 4+1:0:0:0:0, 3+0:0:0:0:0, 4+1:0:0:0:0, 3+2:2:0:0:0, 4+4:0:0:0:0, 4+3:0:0:0:3, 4+3:0:0:0:1, 3+2:1:0:0:1, 2+1:0:0:0:0, 4+1:0:0:0:0, 6+1:0:0:0:1, 4+4:1:0:0:2, 3+1:1:1:0:1, 4+2:0:0:0:0, 2+0:0:0:0:0, 3+0:0:0:0:0, 2+3:0:0:0:0, 2+2:0:0:0:0, 3+2:0:0:0:0, 3+0:0:0:0:0, 4+2:0:0:0:0, 5+3:0:0:0:1, 3+1:0:0:0:1, 2+1:1:0:0:1, 2+1:1:0:0:0, 1+0:0:0:0:0, 2+1:0:0:0:0, 4+3:1:0:0:1, 5+3:0:0:0:0, 5+1:0:0:0:1, 4+4:0:0:0:0, 1+1:1:0:0:1, 2+1:0:0:0:0, 3+0:0:0:0:0, 3+2:0:0:0:0, 5+2:0:0:0:0, 4+1:1:0:0:1, 3+1:1:0:0:1, 5+1:0:0:0:1, 2+3:0:0:0:1, 4+1:0:0:0:0, 5+2:0:0:0:0, 3+3:0:0:0:0, 2+4:0:0:0:4, 5+0:0:0:0:0, 2+1:1:0:0:1, 3+0:0:0:0:0, 4+4:1:0:0:3, 3+1:0:0:0:0, 3+0:0:0:0:0, 4+1:0:0:0:0, 4+1:0:0:0:0, 4+2:1:0:0:1, 3+1:1:0:0:1, 4+1:1:0:0:1, 2+1:1:0:0:1, 4+1:0:0:0:0, 4+2:0:0:0:0, 5+2:0:1:0:1, 4+3:1:0:0:0, 5+3:0:0:0:0, 6+1:0:0:0:1, 4+4:0:0:0:0, 1+1:1:0:0:1, 2+1:0:0:0:0, 3+0:0:0:0:0, 3+1:0:0:0:0, 5+2:0:0:0:0, 4+1:1:0:0:1, 3+1:1:0:0:1, 3+1:1:0:0:1, 2+3:0:0:0:1, 4+1:0:0:0:0, 5+2:0:0:0:0, 4+4:0:0:0:0, 4+3:0:0:0:2, 5+0:0:0:0:0, 2+2:2:0:0:2, 3+0:0:0:0:0, 4+1:0:0:0:0, 3+1:0:0:0:0, 3+0:0:0:0:0, 4+1:0:0:0:0, 4+1:0:0:0:0, 4+2:1:0:0:1, 3+1:1:0:0:1, 4+1:1:0:0:1, 2+1:1:0:0:1, 4+1:0:0:0:0, 4+2:0:0:0:0, 4+1:0:0:0:0, 4+3:1:0:0:0, 4+2:0:0:0:0, 4+2:0:0:0:0, 4+2:0:0:0:1, 4+2:1:0:0:2, 4+1:0:0:0:0, 3+1:1:0:0:0, 6+2:0:0:0:0, 3+1:1:0:0:0, 3+2:0:0:0:0, 4+2:0:0:0:0, 4+2:0:0:0:1, 2+1:1:0:0:1, 4+1:0:0:0:0, 3+0:0:0:0:0, 2+3:0:0:0:3, 1+0:0:0:0:0, 3+1:1:1:0:1, 4+1:0:0:0:0, 4+0:0:0:0:0, 3+2:0:0:0:0, 3+1:0:0:0:0, 2+0:0:0:0:0, 4+0:0:0:0:0, 3+0:0:0:0:0, 3+2:0:0:0:0, 6+2:0:0:0:1, 3+2:0:0:0:0, 2+1:1:0:0:1, 4+1:0:0:0:0, 3+1:0:0:0:0, 1+0:0:0:0:0, 608+264:43:7:0:82
Bb minor (5b), 0+0:0:0:0:0, 1+1:0:0:0:0, 1+1:0:0:0:0, 1+0:0:0:0:0, 1+0:0:0:0:0, 1+2:0:0:0:2, 0+0:0:0:0:0, 1+0:0:0:0:0, 2+1:0:0:0:0, 1+0:0:0:0:0, 0+0:0:0:0:0, 1+2:0:0:0:0, 2+0:0:0:0:0, 2+5:0:0:0:4, 1+0:0:0:0:0, 1+0:0:0:0:0, 0+4:0:0:0:0, 2+3:0:0:0:0, 1+1:0:0:0:0, 2+1:0:0:0:0, 1+0:0:0:0:0, 1+4:0:0:0:1, 3+1:0:0:0:0, 4+1:0:0:0:0, 1+0:0:0:0:0, 1+0:0:0:0:0, 1+0:0:0:0:0, 1+0:0:0:0:0, 2+0:0:0:0:0, 2+1:0:0:0:1, 0+0:0:0:0:0, 0+0:0:0:0:0, 0+0:0:0:0:0, 0+0:0:0:0:0, 1+1:0:0:0:0, 2+0:0:0:0:0, 1+0:0:0:0:0, 2+2:0:0:0:2, 1+1:0:0:0:0, 1+0:0:0:0:0, 2+2:0:0:0:0, 0+0:0:0:0:0, 0+0:0:0:0:0, 3+1:0:0:0:0, 2+1:0:0:0:0, 2+5:0:0:0:4, 2+0:0:0:0:0, 0+0:0:0:0:0, 1+2:0:0:0:0, 2+3:0:0:0:0, 1+1:0:0:0:0, 1+1:0:0:0:0, 1+0:0:0:0:0, 0+4:0:0:0:0, 3+1:0:0:0:0, 4+0:0:0:0:0, 2+1:0:0:0:0, 1+0:0:0:0:0, 0+4:0:0:0:0, 1+0:0:0:0:0, 2+1:0:0:0:0, 2+4:0:0:0:0, 0+0:0:0:0:0, 0+0:0:0:0:0, 0+0:0:0:0:0, 1+0:0:0:0:0, 2+1:0:0:0:0, 2+0:0:0:0:0, 4+1:0:0:0:0, 2+2:0:0:0:2, 2+1:0:0:0:0, 1+0:0:0:0:0, 2+1:0:0:0:0, 1+2:0:0:0:0, 2+1:0:0:0:0, 4+1:0:0:0:0, 2+2:0:0:0:0, 2+3:0:0:0:1, 1+0:0:0:0:0, 1+0:0:0:0:0, 3+1:0:0:0:0, 2+3:0:0:0:2, 1+1:0:0:0:0, 1+1:0:0:0:0, 1+0:0:0:0:0, 0+3:0:0:0:0, 3+1:0:0:0:0, 2+0:0:0:0:0, 2+1:0:0:0:0, 1+0:0:0:0:0, 0+0:0:0:0:0, 1+0:0:0:0:0, 1+0:0:0:0:0, 3+4:0:0:0:3, 0+0:0:0:0:0, 0+0:0:0:0:0, 0+0:0:0:0:0, 3+1:0:0:0:1, 2+1:0:0:0:0, 3+1:0:0:0:0, 1+0:0:0:0:0, 2+2:0:0:0:1, 1+1:0:0:0:1, 1+0:0:0:0:0, 1+2:0:0:0:0, 1+0:0:0:0:0, 1+1:0:0:0:0, 1+0:0:0:0:0, 2+2:0:0:0:0, 2+3:0:0:0:3, 2+1:0:0:0:0, 3+1:0:0:0:1, 0+0:0:0:0:0, 2+5:0:0:0:2, 0+1:0:0:0:0, 1+0:0:0:0:0, 1+0:0:0:0:0, 1+0:0:0:0:0, 3+1:0:0:0:0, 3+1:0:0:0:0, 2+0:0:0:0:0, 1+0:0:0:0:0, 2+1:0:0:0:0, 1+0:0:0:0:0, 1+1:0:0:0:0, 3+3:0:0:0:1, 2+1:0:0:0:0, 2+1:0:0:0:1, 3+1:0:0:0:0, 2+1:0:0:0:0, 2+1:0:0:0:0, 4+1:0:0:0:0, 1+0:0:0:0:0, 2+2:0:0:0:1, 1+1:0:0:0:1, 1+0:0:0:0:0, 1+1:0:0:0:0, 1+0:0:0:0:0, 1+1:0:0:0:0, 1+0:0:0:0:0, 1+0:0:0:0:0, 2+3:0:0:0:3, 2+1:0:0:0:0, 3+1:0:0:0:1, 1+1:0:0:0:0, 4+3:0:0:0:2, 0+1:0:0:0:0, 1+0:0:0:0:0, 1+0:0:0:0:0, 0+0:0:0:0:0, 3+1:0:0:0:0, 3+0:0:0:0:0, 2+0:0:0:0:0, 1+0:0:0:0:0, 2+1:0:0:0:0, 1+0:0:0:0:0, 1+1:0:0:0:0, 3+3:0:0:0:1, 2+1:0:0:0:0, 2+1:0:0:0:1, 1+0:0:0:0:0, 2+1:0:0:0:0, 1+1:0:0:0:0, 2+0:0:0:0:0, 2+1:0:1:0:0, 5+5:0:0:0:2, 2+1:0:0:0:0, 3+1:0:0:0:0, 2+1:0:0:0:0, 1+1:0:0:0:0, 1+0:0:0:0:0, 2+0:0:0:0:0, 2+1:0:1:0:0, 3+3:0:0:0:1, 2+1:0:0:0:0, 1+0:0:0:0:0, 0+3:0:0:0:0, 1+3:0:0:0:0, 1+1:0:0:0:0, 2+1:0:0:0:0, 1+0:0:0:0:0, 1+2:0:0:0:0, 3+1:0:0:0:1, 2+0:0:0:0:0, 2+0:0:0:0:0, 1+0:0:0:0:0, 1+0:0:0:0:0, 2+1:0:0:0:0, 1+0:0:0:0:0, 2+2:0:0:0:2, 2+1:0:0:0:0, 0+1:0:0:0:0, 0+1:0:0:0:0, 288+185:0:2:0:49
G# minor (5#), 2+0:0:0:0:0, 2+0:0:0:0:0, 5+5:0:0:0:0, 3+0:0:0:0:0, 4+1:0:0:0:0, 2+2:0:0:0:1, 2+0:0:0:0:0, 1+0:0:0:0:0, 4+1:0:0:0:0, 3+0:0:0:0:0, 4+2:0:0:0:0, 2+0:0:0:0:0, 3+2:0:0:0:0, 2+2:1:0:0:1, 3+1:0:0:0:0, 2+0:0:0:0:0, 3+4:0:0:0:0, 1+0:0:0:0:0, 3+1:1:1:0:1, 3+2:0:1:0:1, 1+0:0:0:0:0, 2+2:1:0:0:1, 2+0:0:0:0:0, 3+0:0:0:0:0, 3+0:0:0:0:0, 2+1:0:1:0:1, 3+5:1:0:0:1, 2+0:0:0:0:0, 3+0:0:0:0:0, 1+3:0:0:0:1, 2+0:0:0:0:0, 2+0:0:0:0:0, 1+0:0:0:0:0, 1+0:0:0:0:0, 4+2:0:0:0:0, 3+0:0:0:0:0, 2+0:0:0:0:0, 1+2:0:0:0:1, 2+0:0:0:0:0, 2+0:0:0:0:0, 6+3:0:0:0:0, 2+0:0:0:0:0, 2+2:0:0:0:0, 3+2:0:0:0:0, 3+3:0:0:0:0, 2+3:0:0:0:2, 3+1:0:0:0:0, 2+0:0:0:0:0, 3+2:0:0:0:2, 2+0:0:0:0:0, 4+1:0:0:0:1, 4+2:0:0:0:0, 2+0:0:0:0:0, 3+0:0:0:0:0, 2+3:0:0:0:0, 4+1:0:0:0:0, 3+0:0:0:0:0, 2+0:0:0:0:0, 3+4:0:0:0:0, 2+0:0:0:0:0, 3+2:0:0:0:0, 3+2:0:0:0:1, 2+0:0:0:0:0, 1+0:0:0:0:0, 3+0:0:0:0:0, 3+0:0:0:0:0, 4+2:0:0:0:0, 5+2:0:0:0:0, 6+1:0:0:0:1, 4+3:0:0:0:1, 4+1:0:0:0:0, 3+0:0:0:0:0, 4+1:0:0:0:0, 3+2:2:0:0:0, 4+2:0:0:0:0, 4+1:0:0:0:1, 4+2:0:0:0:2, 3+2:1:0:0:1, 2+1:0:0:0:0, 4+1:0:0:0:0, 6+1:0:0:0:1, 4+4:1:0:0:2, 3+1:1:1:0:1, 4+2:0:0:0:0, 2+0:0:0:0:0, 3+0:0:0:0:0, 2+3:0:0:0:0, 2+2:0:0:0:0, 3+0:0:0:0:0, 3+0:0:0:0:0, 4+2:0:0:0:0, 5+3:0:0:0:1, 3+1:0:0:0:1, 2+1:1:0:0:1, 2+1:1:0:0:0, 1+0:0:0:0:0, 2+1:0:0:0:0, 4+3:1:0:0:1, 5+3:0:0:0:0, 5+1:0:0:0:1, 4+4:0:0:0:0, 1+1:1:0:0:1, 2+1:0:0:0:0, 3+0:0:0:0:0, 3+2:0:0:0:0, 5+2:0:0:0:0, 4+1:1:0:0:1, 3+1:1:0:0:1, 5+1:0:0:0:1, 2+3:0:0:0:1, 4+1:0:0:0:0, 5+2:0:0:0:0, 3+3:0:0:0:0, 2+4:0:0:0:4, 5+0:0:0:0:0, 2+1:1:0:0:1, 3+0:0:0:0:0, 5+1:0:0:0:0, 3+1:0:0:0:0, 3+0:0:0:0:0, 4+1:0:0:0:0, 4+1:0:0:0:0, 4+2:1:0:0:1, 3+1:1:0:0:1, 4+1:1:0:0:1, 2+1:1:0:0:1, 4+1:0:0:0:0, 4+2:0:0:0:0, 5+2:0:1:0:1, 4+3:1:0:0:0, 5+3:0:0:0:0, 6+1:0:0:0:1, 4+4:0:0:0:0, 1+1:1:0:0:1, 2+1:0:0:0:0, 3+0:0:0:0:0, 3+1:0:0:0:0, 5+2:0:0:0:0, 4+1:1:0:0:1, 3+1:1:0:0:1, 3+1:1:0:0:1, 2+3:0:0:0:1, 4+1:0:0:0:0, 5+2:0:0:0:0, 4+4:0:0:0:0, 4+3:0:0:0:2, 5+0:0:0:0:0, 2+2:2:0:0:2, 3+0:0:0:0:0, 4+1:0:0:0:0, 3+1:0:0:0:0, 3+0:0:0:0:0, 4+1:0:0:0:0, 4+1:0:0:0:0, 4+2:1:0:0:1, 3+1:1:0:0:1, 4+1:1:0:0:1, 2+1:1:0:0:1, 4+1:0:0:0:0, 4+2:0:0:0:0, 4+1:0:0:0:0, 4+3:1:0:0:0, 4+2:0:0:0:0, 4+2:0:0:0:0, 4+2:0:0:0:1, 4+2:1:0:0:2, 4+1:0:0:0:0, 3+1:1:0:0:0, 6+2:0:0:0:0, 3+1:1:0:0:0, 3+2:0:0:0:0, 4+2:0:0:0:0, 4+2:0:0:0:1, 2+1:1:0:0:1, 4+1:0:0:0:0, 3+0:0:0:0:0, 2+3:0:0:0:0, 1+0:0:0:0:0, 3+1:1:1:0:1, 4+1:0:0:0:0, 4+0:0:0:0:0, 3+2:0:0:0:0, 4+1:0:0:0:0, 2+3:0:0:0:0, 4+2:0:0:0:0, 3+0:0:0:0:0, 3+2:0:0:0:0, 6+2:0:0:0:1, 3+2:0:0:0:0, 2+2:0:0:0:1, 4+1:0:0:0:0, 3+1:0:0:0:0, 1+0:0:0:0:0, 611+254:37:6:0:67
Gb major (6b), 0+0:0:0:0:0, 1+1:0:0:0:1, 2+1:0:0:0:1, 1+0:0:0:0:0, 2+0:0:0:0:0, 1+1:0:0:0:1, 1+0:0:0:0:0, 1+0:0:0:0:0, 3+1:0:0:0:1, 1+0:0:0:0:0, 0+0:0:0:0:0, 1+1:0:0:0:0, 2+0:0:0:0:0, 2+3:0:0:0:1, 1+0:0:0:0:0, 1+1:0:0:0:0, 0+0:0:0:0:0, 3+3:0:0:0:0, 2+1:0:0:0:0, 2+1:0:0:0:0, 1+4:0:0:0:0, 1+1:0:0:0:0, 3+0:0:0:0:0, 5+0:0:0:0:0, 2+0:0:0:0:0, 0+0:0:0:0:0, 0+0:0:0:0:0, 1+0:0:0:0:0, 2+0:0:0:0:0, 1+1:0:0:0:1, 0+0:0:0:0:0, 0+0:0:0:0:0, 0+0:0:0:0:0, 0+0:0:0:0:0, 1+1:0:0:0:1, 2+0:0:0:0:0, 1+0:0:0:0:0, 2+3:0:0:0:1, 2+1:0:0:0:1, 1+1:0:0:0:1, 3+0:0:0:0:0, 0+0:0:0:0:0, 0+0:0:0:0:0, 3+0:0:0:0:0, 2+1:0:0:0:0, 2+1:0:0:0:1, 2+1:0:0:0:1, 0+0:0:0:0:0, 1+2:0:0:0:0, 3+3:0:0:0:0, 2+1:0:0:0:0, 2+1:0:0:0:0, 1+4:0:0:0:0, 1+0:0:0:0:0, 3+0:0:0:0:0, 5+0:0:0:0:0, 3+0:0:0:0:0, 1+0:0:0:0:0, 0+0:0:0:0:0, 1+0:0:0:0:0, 1+1:0:1:0:0, 3+3:0:0:0:3, 0+0:0:0:0:0, 0+0:0:0:0:0, 1+0:0:0:0:0, 1+0:0:0:0:0, 2+1:0:0:0:1, 3+0:0:0:0:0, 4+1:0:0:0:0, 3+2:0:0:0:2, 2+1:0:0:0:0, 1+0:0:0:0:0, 3+1:0:0:0:1, 1+0:0:0:0:0, 2+1:0:0:0:0, 4+1:0:0:0:0, 2+0:0:0:0:0, 2+2:0:0:0:1, 0+0:0:0:0:0, 1+0:0:0:0:0, 4+1:0:0:0:0, 3+2:0:0:0:2, 2+1:0:0:0:0, 2+1:0:0:0:0, 1+4:0:0:0:0, 1+0:0:0:0:0, 3+0:0:0:0:0, 3+0:0:0:0:0, 3+0:0:0:0:0, 1+0:0:0:0:0, 0+0:0:0:0:0, 2+0:0:0:0:0, 1+0:0:0:0:0, 3+4:0:0:0:3, 0+0:0:0:0:0, 0+0:0:0:0:0, 1+0:0:0:0:0, 2+1:0:1:0:0, 2+0:0:0:0:0, 3+1:0:0:0:0, 1+0:0:0:0:0, 1+2:0:0:0:1, 2+1:0:0:0:1, 1+0:0:0:0:0, 2+2:0:0:0:2, 2+0:0:0:0:0, 1+0:0:0:0:0, 1+0:0:0:0:0, 2+0:0:0:0:0, 2+3:0:0:0:3, 2+1:0:0:0:0, 3+1:0:1:0:0, 0+0:0:0:0:0, 3+2:0:0:0:2, 1+0:0:0:0:0, 1+0:0:0:0:0, 2+3:0:0:0:0, 2+0:0:0:0:0, 3+1:0:0:0:0, 4+0:0:0:0:0, 3+0:0:0:0:0, 2+0:0:0:0:0, 2+1:0:0:0:0, 1+0:0:0:0:0, 1+0:0:0:0:0, 2+3:0:0:0:1, 2+1:0:0:0:0, 2+1:0:1:0:0, 4+1:0:0:0:1, 2+1:0:0:0:0, 2+0:0:0:0:0, 4+1:0:0:0:0, 1+0:0:0:0:0, 1+2:0:0:0:1, 2+1:0:0:0:1, 1+0:0:0:0:0, 2+1:0:0:0:1, 2+0:0:0:0:0, 1+0:0:0:0:0, 1+0:0:0:0:0, 1+0:0:0:0:0, 2+3:0:0:0:3, 2+1:0:0:0:0, 3+1:0:1:0:0, 1+1:0:0:0:0, 5+3:0:0:0:2, 1+0:0:0:0:0, 1+0:0:0:0:0, 2+3:0:0:0:0, 1+0:0:0:0:0, 3+1:0:0:0:0, 4+0:0:0:0:0, 3+0:0:0:0:0, 2+0:0:0:0:0, 2+1:0:0:0:0, 1+0:0:0:0:0, 1+0:0:0:0:0, 2+3:0:0:0:1, 2+1:0:0:0:0, 2+1:0:1:0:0, 2+0:0:0:0:0, 2+1:0:0:0:0, 1+1:0:0:0:0, 2+0:0:0:0:0, 3+1:0:1:0:0, 5+4:0:0:0:2, 2+1:0:0:0:0, 3+1:0:0:0:0, 3+1:0:0:0:0, 1+0:0:0:0:0, 1+0:0:0:0:0, 2+0:0:0:0:0, 3+1:0:1:0:0, 2+3:0:0:0:1, 2+1:0:0:0:0, 1+0:0:0:0:0, 0+0:0:0:0:0, 2+3:0:0:0:3, 2+1:0:0:0:0, 2+1:0:0:0:1, 2+2:0:0:0:0, 1+0:0:0:0:0, 2+1:0:1:0:0, 3+0:0:0:0:0, 3+0:0:0:0:0, 1+0:0:0:0:0, 1+0:0:0:0:0, 3+0:0:0:0:0, 1+0:0:0:0:0, 2+2:0:0:0:2, 2+1:0:0:0:0, 0+0:0:0:0:0, 0+0:0:0:0:0, 337+143:0:9:0:54
F# major (6#), 2+0:0:0:0:0, 3+0:0:0:0:0, 5+5:0:0:0:0, 3+0:0:0:0:0, 4+1:0:0:0:0, 2+2:0:0:0:1, 2+0:0:0:0:0, 2+0:0:0:0:0, 4+1:0:0:0:0, 3+0:0:0:0:0, 4+2:0:0:0:0, 2+0:0:0:0:0, 3+2:0:0:0:0, 2+2:1:0:0:1, 3+1:0:0:0:0, 3+0:0:0:0:0, 3+4:0:0:0:0, 2+0:0:0:0:0, 4+3:0:0:0:0, 3+2:0:1:0:1, 2+0:0:0:0:0, 3+0:0:0:0:0, 2+0:0:0:0:0, 4+1:0:0:0:0, 3+0:0:0:0:0, 2+2:1:0:0:1, 3+2:1:0:0:2, 2+0:0:0:0:0, 3+2:0:0:0:0, 1+3:0:0:0:1, 2+0:0:0:0:0, 2+0:0:0:0:0, 1+0:0:0:0:0, 1+0:0:0:0:0, 4+2:0:0:0:0, 3+0:0:0:0:0, 2+2:0:0:0:0, 2+1:1:0:0:1, 2+0:0:0:0:0, 3+0:0:0:0:0, 6+3:0:0:0:0, 2+0:0:0:0:0, 2+2:0:0:0:0, 3+2:0:0:0:0, 3+3:0:0:0:0, 2+3:0:0:0:2, 4+1:0:0:0:0, 2+0:0:0:0:0, 3+2:0:0:0:2, 2+0:0:0:0:0, 3+1:1:1:0:1, 4+2:0:0:0:0, 2+0:0:0:0:0, 3+0:0:0:0:0, 2+0:0:0:0:0, 5+1:0:0:0:0, 3+0:0:0:0:0, 3+0:0:0:0:0, 3+4:0:0:0:0, 2+0:0:0:0:0, 3+2:0:0:0:0, 3+2:0:0:0:1, 2+0:0:0:0:0, 1+0:0:0:0:0, 3+0:0:0:0:0, 3+0:0:0:0:0, 4+2:0:0:0:0, 5+2:0:0:0:0, 6+1:0:0:0:1, 4+3:0:0:0:1, 4+1:0:0:0:0, 3+0:0:0:0:0, 4+1:0:0:0:0, 3+2:2:0:0:0, 4+4:0:0:0:2, 5+2:0:0:0:0, 4+3:0:0:0:0, 4+2:1:0:0:2, 2+3:0:0:0:1, 4+2:0:0:0:0, 5+2:1:0:0:1, 3+4:2:0:0:2, 4+1:0:0:0:0, 4+2:0:0:0:0, 2+0:0:0:0:0, 3+0:0:0:0:0, 2+0:0:0:0:0, 3+0:0:0:0:0, 3+0:0:0:0:0, 3+0:0:0:0:0, 4+2:0:0:0:0, 5+1:0:0:0:0, 3+0:0:0:0:0, 2+4:0:0:0:2, 1+5:5:0:0:5, 1+0:0:0:0:0, 2+1:0:0:0:0, 4+3:1:0:0:1, 5+3:0:0:0:0, 5+2:0:0:0:0, 4+0:0:0:0:0, 1+1:1:0:0:1, 2+1:0:0:0:0, 3+0:0:0:0:0, 3+2:0:0:0:0, 5+2:0:0:0:0, 4+1:1:0:0:1, 3+1:1:0:0:1, 4+2:2:0:0:2, 2+3:0:0:0:1, 4+1:0:0:0:0, 5+2:0:0:0:0, 3+3:0:0:0:0, 2+4:0:0:0:4, 5+0:0:0:0:0, 2+1:1:0:0:1, 3+0:0:0:0:0, 5+1:0:0:0:0, 3+1:0:0:0:0, 3+1:0:0:0:0, 4+1:0:0:0:0, 4+1:0:0:0:0, 4+2:1:0:0:1, 3+1:1:0:0:1, 4+1:1:0:0:1, 2+1:1:0:0:1, 4+1:0:0:0:0, 4+2:0:0:0:0, 5+2:0:1:0:1, 4+3:1:0:0:0, 5+0:0:0:0:0, 6+2:0:0:0:0, 4+0:0:0:0:0, 1+1:1:0:0:1, 2+1:0:0:0:0, 3+0:0:0:0:0, 3+1:0:0:0:0, 5+2:0:0:0:0, 4+1:1:0:0:1, 3+1:1:0:0:1, 3+1:1:0:0:1, 2+3:0:0:0:1, 4+1:0:0:0:0, 5+2:0:0:0:0, 4+4:0:0:0:0, 4+3:0:0:0:2, 5+0:0:0:0:0, 2+2:2:0:0:2, 3+0:0:0:0:0, 4+1:0:0:0:0, 3+1:0:0:0:0, 4+1:0:0:0:0, 4+1:0:0:0:0, 4+1:0:0:0:0, 4+2:1:0:0:1, 3+1:1:0:0:1, 4+1:1:0:0:1, 2+1:1:0:0:1, 4+1:0:0:0:0, 4+2:0:0:0:0, 4+1:0:0:0:0, 4+3:1:0:0:0, 4+2:0:0:0:0, 4+2:0:0:0:0, 4+2:0:0:0:1, 4+2:1:0:0:2, 4+1:0:0:0:0, 3+1:1:0:0:0, 6+2:0:0:0:0, 4+2:0:0:0:0, 3+0:0:0:0:0, 4+0:0:0:0:0, 4+2:0:0:0:1, 2+1:1:0:0:1, 4+1:0:0:0:0, 3+0:0:0:0:0, 2+6:0:0:0:2, 1+0:0:0:0:0, 3+1:1:1:0:1, 4+1:0:0:0:0, 4+0:0:0:0:0, 3+2:0:0:0:0, 4+1:0:0:0:0, 3+1:0:0:0:0, 4+0:0:0:0:0, 3+0:0:0:0:0, 3+2:0:0:0:0, 5+1:1:0:0:1, 3+0:0:0:0:0, 2+2:0:0:0:1, 4+1:0:0:0:0, 3+4:0:0:0:0, 1+0:0:0:0:0, 625+250:44:4:0:71
Eb minor (6b), 0+0:0:0:0:0, 1+1:0:0:0:0, 2+1:0:0:0:0, 1+0:0:0:0:0, 2+0:0:0:0:0, 1+1:0:0:0:1, 1+0:0:0:0:0, 1+0:0:0:0:0, 3+1:0:0:0:1, 1+0:0:0:0:0, 0+0:0:0:0:0, 1+1:0:0:0:0, 2+0:0:0:0:0, 2+3:0:0:0:1, 1+0:0:0:0:0, 1+1:0:0:0:0, 0+0:0:0:0:0, 3+3:0:0:0:0, 2+1:0:0:0:0, 2+1:0:0:0:0, 1+0:0:0:0:0, 1+1:0:1:0:0, 3+0:0:0:0:0, 5+0:0:0:0:0, 2+0:0:0:0:0, 0+0:0:0:0:0, 0+0:0:0:0:0, 1+0:0:0:0:0, 2+0:0:0:0:0, 1+1:0:0:0:1, 0+0:0:0:0:0, 0+0:0:0:0:0, 0+0:0:0:0:0, 0+0:0:0:0:0, 1+0:0:0:0:0, 2+0:0:0:0:0, 1+0:0:0:0:0, 2+3:0:0:0:1, 2+1:0:0:0:1, 1+1:0:0:0:0, 3+0:0:0:0:0, 0+0:0:0:0:0, 0+0:0:0:0:0, 3+0:0:0:0:0, 2+1:0:0:0:0, 2+1:0:0:0:1, 2+1:0:0:0:1, 0+0:0:0:0:0, 1+2:0:0:0:0, 3+0:0:0:0:0, 2+1:0:0:0:0, 1+1:0:0:0:0, 1+0:0:0:0:0, 1+0:0:0:0:0, 3+0:0:0:0:0, 5+0:0:0:0:0, 3+0:0:0:0:0, 1+2:0:0:0:0, 0+0:0:0:0:0, 1+1:0:0:0:0, 1+1:0:1:0:0, 3+4:0:0:0:2, 0+0:0:0:0:0, 0+0:0:0:0:0, 1+0:0:0:0:0, 1+0:0:0:0:0, 2+1:0:0:0:1, 3+0:0:0:0:0, 4+1:0:0:0:0, 3+2:0:0:0:2, 2+1:0:0:0:0, 1+0:0:0:0:0, 3+1:0:0:0:1, 1+0:0:0:0:0, 2+1:0:0:0:1, 4+2:0:0:0:0, 2+0:0:0:0:0, 2+2:0:0:0:1, 0+0:0:0:0:0, 1+0:0:0:0:0, 4+1:0:0:0:0, 3+3:0:0:0:2, 2+1:0:0:0:0, 1+1:0:0:0:0, 1+0:0:0:0:0, 1+0:0:0:0:0, 3+0:0:0:0:0, 3+0:0:0:0:0, 3+0:0:0:0:0, 1+0:0:0:0:0, 0+0:0:0:0:0, 2+0:0:0:0:0, 1+0:0:0:0:0, 3+4:0:0:0:3, 0+0:0:0:0:0, 0+0:0:0:0:0, 1+0:0:0:0:0, 2+1:0:1:0:0, 2+0:0:0:0:0, 3+1:0:0:0:0, 1+0:0:0:0:0, 1+2:0:0:0:1, 2+1:0:0:0:1, 1+0:0:0:0:0, 2+2:0:0:0:2, 2+0:0:0:0:0, 1+0:0:0:0:0, 1+0:0:0:0:0, 2+0:0:0:0:0, 2+3:0:0:0:3, 2+1:0:0:0:0, 3+1:0:1:0:0, 0+0:0:0:0:0, 3+5:0:0:0:2, 1+1:0:0:0:0, 1+0:0:0:0:0, 2+3:0:0:0:0, 2+0:0:0:0:0, 3+1:0:0:0:0, 4+0:0:0:0:0, 3+0:0:0:0:0, 2+0:0:0:0:0, 2+1:0:0:0:0, 1+0:0:0:0:0, 1+0:0:0:0:0, 2+3:0:0:0:1, 2+1:0:0:0:0, 2+1:0:1:0:0, 4+1:0:0:0:1, 2+1:0:0:0:0, 2+0:0:0:0:0, 4+1:0:0:0:0, 1+0:0:0:0:0, 1+2:0:0:0:1, 2+1:0:0:0:1, 1+0:0:0:0:0, 2+1:0:0:0:1, 2+0:0:0:0:0, 1+0:0:0:0:0, 1+0:0:0:0:0, 1+0:0:0:0:0, 2+3:0:0:0:3, 2+1:0:0:0:0, 3+1:0:1:0:0, 1+1:0:0:0:0, 5+3:0:0:0:2, 1+1:0:0:0:0, 1+0:0:0:0:0, 2+3:0:0:0:0, 1+0:0:0:0:0, 3+1:0:0:0:0, 4+0:0:0:0:0, 3+0:0:0:0:0, 2+0:0:0:0:0, 2+1:0:0:0:0, 1+0:0:0:0:0, 1+0:0:0:0:0, 2+3:0:0:0:1, 2+1:0:0:0:0, 2+1:0:1:0:0, 2+0:0:0:0:0, 2+1:0:0:0:0, 1+1:0:0:0:0, 2+0:0:0:0:0, 3+1:0:1:0:0, 5+4:0:0:0:2, 2+1:0:0:0:0, 3+1:0:0:0:0, 3+1:0:0:0:0, 1+0:0:0:0:0, 1+0:0:0:0:0, 2+0:0:0:0:0, 3+1:0:1:0:0, 2+3:0:0:0:1, 2+1:0:0:0:0, 1+0:0:0:0:0, 0+3:0:0:0:0, 2+0:0:0:0:0, 2+1:0:0:0:0, 2+1:0:0:0:1, 2+2:0:0:0:0, 1+0:0:0:0:0, 2+1:0:1:0:0, 3+0:0:0:0:0, 3+0:0:0:0:0, 1+0:0:0:0:0, 1+0:0:0:0:0, 3+0:0:0:0:0, 1+0:0:0:0:0, 2+2:0:0:0:2, 2+1:0:0:0:0, 0+0:0:0:0:0, 0+0:0:0:0:0, 335+138:0:10:0:47
D# minor (6#), 2+0:0:0:0:0, 3+0:0:0:0:0, 5+5:0:0:0:0, 3+0:0:0:0:0, 4+1:0:0:0:0, 2+2:0:0:0:1, 2+0:0:0:0:0, 2+0:0:0:0:0, 4+1:0:0:0:0, 3+0:0:0:0:0, 4+2:0:0:0:0, 2+0:0:0:0:0, 3+2:0:0:0:0, 2+2:1:0:0:1, 3+1:0:0:0:0, 3+0:0:0:0:0, 3+4:0:0:0:0, 2+0:0:0:0:0, 4+3:0:0:0:0, 3+2:0:1:0:1, 2+0:0:0:0:0, 3+0:0:0:0:0, 2+0:0:0:0:0, 4+1:0:0:0:0, 3+0:0:0:0:0, 2+2:1:0:0:1, 3+2:1:0:0:2, 2+0:0:0:0:0, 3+2:0:0:0:0, 1+3:0:0:0:1, 2+0:0:0:0:0, 2+0:0:0:0:0, 1+0:0:0:0:0, 1+0:0:0:0:0, 4+2:0:0:0:0, 3+0:0:0:0:0, 2+2:0:0:0:0, 2+2:0:0:0:1, 2+0:0:0:0:0, 3+0:0:0:0:0, 6+3:0:0:0:0, 2+0:0:0:0:0, 2+2:0:0:0:0, 3+2:0:0:0:0, 3+3:0:0:0:0, 2+3:0:0:0:2, 4+1:0:0:0:0, 2+0:0:0:0:0, 3+2:0:0:0:2, 2+0:0:0:0:0, 3+1:1:1:0:1, 4+2:0:0:0:0, 2+0:0:0:0:0, 3+0:0:0:0:0, 2+0:0:0:0:0, 5+1:0:0:0:0, 3+0:0:0:0:0, 3+0:0:0:0:0, 3+4:0:0:0:0, 2+0:0:0:0:0, 3+2:0:0:0:0, 3+2:0:0:0:1, 2+0:0:0:0:0, 1+0:0:0:0:0, 3+0:0:0:0:0, 3+0:0:0:0:0, 4+2:0:0:0:0, 5+2:0:0:0:0, 6+1:0:0:0:1, 4+3:0:0:0:1, 4+1:0:0:0:0, 3+0:0:0:0:0, 4+1:0:0:0:0, 3+2:2:0:0:0, 4+4:0:0:0:2, 5+2:0:0:0:0, 4+3:0:0:0:0, 4+2:1:0:0:2, 2+3:0:0:0:1, 4+2:0:0:0:0, 5+2:1:0:0:1, 3+4:2:0:0:2, 4+1:0:0:0:0, 4+2:0:0:0:0, 2+0:0:0:0:0, 3+0:0:0:0:0, 2+0:0:0:0:0, 3+0:0:0:0:0, 3+0:0:0:0:0, 3+0:0:0:0:0, 4+2:0:0:0:0, 5+1:0:0:0:0, 3+0:0:0:0:0, 2+4:0:0:0:2, 1+5:5:0:0:5, 1+0:0:0:0:0, 2+1:0:0:0:0, 4+3:1:0:0:1, 5+3:0:0:0:0, 5+2:0:0:0:0, 4+0:0:0:0:0, 1+1:1:0:0:1, 2+1:0:0:0:0, 3+0:0:0:0:0, 3+2:0:0:0:0, 5+2:0:0:0:0, 4+1:1:0:0:1, 3+1:1:0:0:1, 4+2:2:0:0:2, 2+3:0:0:0:1, 4+1:0:0:0:0, 5+2:0:0:0:0, 3+3:0:0:0:0, 2+4:0:0:0:4, 5+0:0:0:0:0, 2+1:1:0:0:1, 3+0:0:0:0:0, 5+1:0:0:0:0, 3+1:0:0:0:0, 3+1:0:0:0:0, 4+1:0:0:0:0, 4+1:0:0:0:0, 4+2:1:0:0:1, 3+1:1:0:0:1, 4+1:1:0:0:1, 2+1:1:0:0:1, 4+1:0:0:0:0, 4+2:0:0:0:0, 5+2:0:1:0:1, 4+3:1:0:0:0, 5+0:0:0:0:0, 6+2:0:0:0:0, 4+0:0:0:0:0, 1+1:1:0:0:1, 2+1:0:0:0:0, 3+0:0:0:0:0, 3+1:0:0:0:0, 5+2:0:0:0:0, 4+1:1:0:0:1, 3+1:1:0:0:1, 3+1:1:0:0:1, 2+3:0:0:0:1, 4+1:0:0:0:0, 5+2:0:0:0:0, 4+4:0:0:0:0, 4+3:0:0:0:2, 5+0:0:0:0:0, 2+2:2:0:0:2, 3+0:0:0:0:0, 4+1:0:0:0:0, 3+1:0:0:0:0, 4+1:0:0:0:0, 4+1:0:0:0:0, 4+1:0:0:0:0, 4+2:1:0:0:1, 3+1:1:0:0:1, 4+1:1:0:0:1, 2+1:1:0:0:1, 4+1:0:0:0:0, 4+2:0:0:0:0, 4+1:0:0:0:0, 4+3:1:0:0:0, 4+2:0:0:0:0, 4+2:0:0:0:0, 4+2:0:0:0:1, 4+2:1:0:0:2, 4+1:0:0:0:0, 3+1:1:0:0:0, 6+2:0:0:0:0, 4+2:0:0:0:0, 3+0:0:0:0:0, 4+0:0:0:0:0, 4+2:0:0:0:1, 2+1:1:0:0:1, 4+1:0:0:0:0, 3+0:0:0:0:0, 2+6:0:0:0:2, 1+0:0:0:0:0, 3+1:1:1:0:1, 4+1:0:0:0:0, 4+0:0:0:0:0, 3+2:0:0:0:0, 4+1:0:0:0:0, 3+1:0:0:0:0, 4+0:0:0:0:0, 3+0:0:0:0:0, 3+2:0:0:0:0, 5+1:1:0:0:1, 3+0:0:0:0:0, 2+2:0:0:0:1, 4+1:0:0:0:0, 3+4:0:0:0:0, 1+0:0:0:0:0, 625+251:43:4:0:71
Cb major (7b), 1+0:0:0:0:0, 2+1:0:0:0:1, 2+1:0:1:0:0, 2+0:0:0:0:0, 3+0:0:0:0:0, 2+2:0:0:0:2, 2+0:0:0:0:0, 0+0:0:0:0:0, 2+1:0:1:0:0, 2+0:0:0:0:0, 1+0:0:0:0:0, 2+1:0:0:0:0, 3+0:0:0:0:0, 2+3:0:0:0:1, 2+0:0:0:0:0, 2+0:0:0:0:0, 0+4:0:0:0:0, 3+3:0:0:0:0, 2+1:0:0:0:0, 1+1:0:0:0:0, 1+4:0:0:0:0, 1+1:0:0:0:0, 3+0:0:0:0:0, 5+0:0:0:0:0, 3+0:0:0:0:0, 0+0:0:0:0:0, 1+0:0:0:0:0, 2+0:0:0:0:0, 3+0:0:0:0:0, 1+1:0:0:0:1, 1+0:0:0:0:0, 0+0:0:0:0:0, 0+0:0:0:0:0, 0+0:0:0:0:0, 2+1:0:0:0:1, 3+0:0:0:0:0, 2+0:0:0:0:0, 1+3:0:0:0:1, 3+1:0:0:0:1, 2+1:0:0:0:1, 4+1:0:0:0:0, 1+0:0:0:0:0, 1+0:0:0:0:0, 3+1:0:1:0:1, 3+1:0:0:0:0, 2+3:0:0:0:1, 3+1:0:0:0:1, 1+0:0:0:0:0, 1+2:0:0:0:2, 3+3:0:0:0:0, 2+1:0:0:0:0, 1+1:0:0:0:0, 1+4:0:0:0:0, 1+0:0:0:0:0, 3+0:0:0:0:0, 5+0:0:0:0:0, 4+1:0:0:0:0, 2+0:0:0:0:0, 1+4:0:0:0:0, 2+0:0:0:0:0, 2+1:0:1:0:0, 3+3:0:0:0:3, 1+0:0:0:0:0, 0+0:0:0:0:0, 1+0:0:0:0:0, 2+0:0:0:0:0, 3+1:0:0:0:1, 4+0:0:0:0:0, 5+1:0:0:0:0, 3+3:0:0:0:3, 3+1:0:0:0:1, 2+0:0:0:0:0, 2+1:0:1:0:0, 2+0:0:0:0:0, 3+1:0:0:0:0, 5+1:0:0:0:0, 3+1:0:0:0:0, 2+2:0:0:0:1, 1+0:0:0:0:0, 2+0:0:0:0:0, 4+1:0:0:0:0, 3+2:0:0:0:2, 2+1:0:0:0:0, 1+1:0:0:0:0, 1+4:0:0:0:0, 1+0:0:0:0:0, 3+0:0:0:0:0, 3+0:0:0:0:0, 4+1:0:0:0:0, 2+0:0:0:0:0, 1+0:0:0:0:0, 3+0:0:0:0:0, 2+0:0:0:0:0, 3+5:0:0:0:1, 1+0:0:0:0:0, 0+0:0:0:0:0, 1+0:0:0:0:0, 3+1:0:1:0:0, 3+0:0:0:0:0, 4+1:0:0:0:0, 2+0:0:0:0:0, 1+4:0:0:0:1, 3+1:0:0:0:1, 2+0:0:0:0:0, 1+2:0:2:0:0, 3+0:0:0:0:0, 2+0:0:0:0:0, 2+0:0:0:0:0, 3+0:0:0:0:0, 2+3:0:0:0:3, 3+1:0:0:0:0, 3+1:0:1:0:1, 1+3:0:0:0:0, 4+2:0:0:0:2, 2+0:0:0:0:0, 1+0:0:0:0:0, 2+3:0:0:0:0, 2+0:0:0:0:0, 3+1:0:0:0:0, 4+0:0:0:0:0, 4+0:0:0:0:0, 3+0:0:0:0:0, 3+1:0:0:0:0, 2+0:0:0:0:0, 2+0:0:0:0:0, 2+4:0:0:0:2, 3+1:0:0:0:1, 2+1:0:1:0:0, 3+1:0:1:0:0, 3+1:0:0:0:0, 3+0:0:0:0:0, 5+1:0:0:0:0, 2+0:0:0:0:0, 1+4:0:0:0:1, 3+1:0:0:0:1, 2+0:0:0:0:0, 1+1:0:1:0:0, 3+0:0:0:0:0, 2+0:0:0:0:0, 2+0:0:0:0:0, 2+0:0:0:0:0, 2+3:0:0:0:3, 3+1:0:0:0:0, 3+1:0:1:0:1, 2+4:0:0:0:0, 6+3:0:0:0:0, 2+0:0:0:0:0, 1+0:0:0:0:0, 2+3:0:0:0:0, 1+0:0:0:0:0, 3+1:0:0:0:0, 4+0:0:0:0:0, 4+0:0:0:0:0, 3+0:0:0:0:0, 3+1:0:0:0:0, 2+0:0:0:0:0, 2+0:0:0:0:0, 2+4:0:0:0:2, 3+1:0:0:0:1, 2+1:0:1:0:0, 3+0:0:0:0:0, 3+1:0:0:0:0, 2+1:0:0:0:0, 3+0:0:0:0:0, 4+1:0:1:0:0, 5+4:0:0:0:2, 3+1:0:0:0:0, 3+1:0:0:0:0, 4+1:0:0:0:0, 2+0:0:0:0:0, 2+0:0:0:0:0, 3+0:0:0:0:0, 4+1:0:1:0:0, 2+4:0:0:0:2, 3+1:0:0:0:1, 2+0:0:0:0:0, 0+0:0:0:0:0, 2+3:0:0:0:0, 2+1:0:0:0:0, 1+1:0:1:0:0, 2+2:0:0:0:0, 1+0:0:0:0:0, 2+1:0:1:0:1, 3+0:0:0:0:0, 4+0:0:0:0:0, 2+0:0:0:0:0, 2+0:0:0:0:0, 4+0:0:0:0:0, 2+0:0:0:0:0, 2+2:0:0:0:2, 3+1:0:0:0:0, 1+0:0:0:0:0, 0+0:0:0:0:0, 438+173:0:18:0:54
C# major (7#), 2+0:0:0:0:0, 3+0:0:0:0:0, 5+5:0:0:0:0, 3+2:0:0:0:0, 2+2:2:1:0:2, 3+2:0:0:0:1, 2+0:0:0:0:0, 2+0:0:0:0:0, 4+1:0:0:0:0, 3+2:0:0:0:0, 4+2:0:0:0:0, 2+0:0:0:0:0, 3+2:0:0:0:0, 3+2:1:0:0:1, 3+1:0:0:0:0, 3+0:0:0:0:0, 3+2:0:0:0:2, 3+0:0:0:0:0, 4+1:0:0:0:1, 3+2:0:1:0:1, 2+0:0:0:0:0, 4+0:0:0:0:0, 3+3:0:0:0:0, 5+0:0:0:0:0, 3+0:0:0:0:0, 2+1:0:1:0:1, 5+4:0:0:0:0, 2+0:0:0:0:0, 3+2:0:0:0:0, 2+3:0:0:0:1, 2+0:0:0:0:0, 2+0:0:0:0:0, 1+0:0:0:0:0, 1+0:0:0:0:0, 4+2:0:0:0:0, 3+0:0:0:0:0, 2+2:0:0:0:0, 3+2:0:0:0:1, 3+0:0:0:0:0, 3+0:0:0:0:0, 6+3:0:0:0:0, 2+2:0:0:0:0, 2+2:0:0:0:0, 4+2:0:0:0:0, 3+3:0:0:0:0, 3+3:0:0:0:2, 4+1:0:0:0:0, 2+0:0:0:0:0, 3+2:0:0:0:2, 3+0:0:0:0:0, 4+1:0:0:0:1, 4+2:0:0:0:0, 2+0:0:0:0:0, 3+0:0:0:0:0, 3+3:0:0:0:0, 5+1:0:0:0:0, 4+0:0:0:0:0, 3+0:0:0:0:0, 3+4:0:0:0:0, 2+0:0:0:0:0, 4+2:0:0:0:0, 4+2:0:0:0:1, 2+0:0:0:0:0, 1+0:0:0:0:0, 3+0:0:0:0:0, 3+1:0:0:0:0, 4+2:0:0:0:0, 5+2:0:0:0:0, 6+1:0:0:0:1, 3+4:0:1:0:2, 4+1:0:0:0:0, 3+0:0:0:0:0, 4+1:0:0:0:0, 3+4:2:0:0:2, 4+2:0:0:0:0, 5+1:0:0:0:1, 4+3:0:0:0:0, 6+3:0:0:0:1, 4+0:0:0:0:0, 4+0:0:0:0:0, 6+1:0:0:0:1, 6+3:0:0:0:1, 4+1:0:0:0:1, 4+2:0:0:0:0, 2+0:0:0:0:0, 3+0:0:0:0:0, 3+3:0:0:0:0, 3+2:0:0:0:0, 4+0:0:0:0:0, 3+0:0:0:0:0, 4+2:0:0:0:0, 5+1:0:0:0:0, 3+0:0:0:0:0, 3+4:0:0:0:2, 1+5:5:0:0:5, 1+0:0:0:0:0, 2+0:0:0:0:0, 5+2:0:1:0:1, 5+3:0:0:0:0, 5+2:0:0:0:0, 4+0:0:0:0:0, 2+1:1:0:0:1, 3+1:0:0:0:0, 3+0:0:0:0:0, 3+2:0:0:0:0, 5+2:0:0:0:0, 4+1:1:0:0:1, 3+1:1:0:0:1, 4+2:2:0:0:2, 3+3:0:0:0:1, 4+1:0:0:0:0, 5+2:0:0:0:0, 3+3:0:0:0:0, 3+4:0:0:0:4, 4+4:1:0:0:1, 3+0:0:0:0:0, 3+0:0:0:0:0, 5+1:0:0:0:0, 4+1:0:0:0:0, 4+0:0:0:0:0, 4+1:0:0:0:0, 4+1:0:0:0:0, 4+2:1:0:0:1, 3+1:1:0:0:1, 4+1:1:0:0:1, 3+1:1:0:0:1, 4+1:0:0:0:0, 4+2:0:0:0:0, 5+2:0:1:0:1, 4+3:1:0:0:0, 5+3:0:0:0:0, 6+2:0:0:0:0, 4+0:0:0:0:0, 2+1:1:0:0:1, 3+1:0:0:0:0, 3+0:0:0:0:0, 3+1:0:0:0:0, 5+2:0:0:0:0, 4+1:1:0:0:1, 3+1:1:0:0:1, 3+1:1:0:0:1, 3+3:0:0:0:1, 4+1:0:0:0:0, 5+2:0:0:0:0, 4+4:0:0:0:0, 5+3:0:0:0:2, 4+4:1:0:0:1, 3+0:0:0:0:0, 3+0:0:0:0:0, 4+1:0:0:0:0, 4+1:0:0:0:0, 4+0:0:0:0:0, 4+1:0:0:0:0, 4+1:0:0:0:0, 4+2:1:0:0:1, 3+1:1:0:0:1, 4+1:1:0:0:1, 3+1:1:0:0:1, 4+1:0:0:0:0, 4+2:0:0:0:0, 4+1:0:0:0:0, 4+3:1:0:0:0, 4+2:0:0:0:0, 4+2:0:0:0:0, 5+2:0:0:0:1, 5+2:1:0:0:2, 4+1:0:0:0:0, 3+1:1:0:0:0, 6+2:0:0:0:0, 3+3:1:0:0:1, 3+2:0:0:0:0, 4+2:0:0:0:0, 5+2:0:0:0:1, 3+1:1:0:0:1, 4+1:0:0:0:0, 3+0:0:0:0:0, 2+3:0:0:0:3, 2+0:0:0:0:0, 4+1:0:0:0:1, 4+1:0:0:0:0, 4+0:0:0:0:0, 3+2:0:0:0:0, 4+1:0:0:0:1, 3+0:0:0:0:0, 4+0:0:0:0:0, 3+0:0:0:0:0, 3+2:0:0:0:0, 6+2:0:0:0:0, 3+2:0:0:0:0, 3+2:0:0:0:1, 4+1:0:0:0:0, 2+1:1:1:0:1, 1+0:0:0:0:0, 672+265:36:7:0:76
Ab minor (7b), 1+0:0:0:0:0, 2+1:0:0:0:1, 2+1:0:1:0:0, 2+0:0:0:0:0, 3+0:0:0:0:0, 2+2:0:0:0:2, 2+0:0:0:0:0, 0+0:0:0:0:0, 2+1:0:1:0:0, 2+0:0:0:0:0, 1+0:0:0:0:0, 2+0:0:0:0:0, 3+1:0:0:0:0, 2+4:0:0:0:1, 2+0:0:0:0:0, 2+1:0:0:0:1, 0+0:0:0:0:0, 3+3:0:0:0:0, 2+1:0:0:0:0, 1+1:0:0:0:0, 1+4:0:0:0:0, 1+1:0:0:0:0, 3+0:0:0:0:0, 5+0:0:0:0:0, 3+0:0:0:0:0, 0+0:0:0:0:0, 1+0:0:0:0:0, 2+0:0:0:0:0, 3+0:0:0:0:0, 1+1:0:0:0:1, 1+0:0:0:0:0, 0+0:0:0:0:0, 0+0:0:0:0:0, 0+0:0:0:0:0, 2+1:0:0:0:0, 3+1:0:0:0:0, 2+0:0:0:0:0, 1+3:0:0:0:1, 3+1:0:0:0:1, 2+1:0:0:0:1, 4+1:0:0:0:0, 1+0:0:0:0:0, 1+0:0:0:0:0, 3+1:0:1:0:1, 3+1:0:0:0:0, 2+3:0:0:0:1, 3+1:0:0:0:1, 1+0:0:0:0:0, 1+2:0:0:0:2, 3+3:0:0:0:0, 2+1:0:0:0:0, 1+1:0:0:0:0, 1+4:0:0:0:0, 1+0:0:0:0:0, 3+0:0:0:0:0, 5+0:0:0:0:0, 4+1:0:0:0:0, 2+0:0:0:0:0, 1+4:0:0:0:0, 2+0:0:0:0:0, 2+1:0:1:0:0, 3+3:0:0:0:3, 1+0:0:0:0:0, 0+0:0:0:0:0, 1+0:0:0:0:0, 2+0:0:0:0:0, 3+1:0:0:0:1, 4+0:0:0:0:0, 5+1:0:0:0:0, 3+2:0:0:0:2, 3+1:0:0:0:0, 2+0:0:0:0:0, 2+1:0:1:0:0, 2+0:0:0:0:0, 3+1:0:0:0:0, 5+1:0:0:0:0, 3+1:0:0:0:0, 2+3:0:0:0:1, 1+0:0:0:0:0, 2+0:0:0:0:0, 4+1:0:0:0:0, 3+2:0:0:0:2, 2+1:0:0:0:0, 1+1:0:0:0:0, 1+4:0:0:0:0, 1+0:0:0:0:0, 3+0:0:0:0:0, 3+0:0:0:0:0, 4+0:0:0:0:0, 2+0:0:0:0:0, 1+0:0:0:0:0, 3+0:0:0:0:0, 2+0:0:0:0:0, 3+5:0:0:0:1, 1+0:0:0:0:0, 0+0:0:0:0:0, 1+0:0:0:0:0, 3+1:0:1:0:0, 3+0:0:0:0:0, 4+2:0:0:0:0, 2+0:0:0:0:0, 1+4:0:0:0:1, 3+1:0:0:0:1, 2+0:0:0:0:0, 1+2:0:2:0:0, 3+0:0:0:0:0, 2+0:0:0:0:0, 2+0:0:0:0:0, 3+0:0:0:0:0, 2+3:0:0:0:3, 3+1:0:0:0:0, 3+2:0:1:0:0, 1+0:0:0:0:0, 4+2:0:0:0:2, 2+0:0:0:0:0, 1+0:0:0:0:0, 2+3:0:0:0:0, 2+0:0:0:0:0, 3+1:0:0:0:0, 4+0:0:0:0:0, 4+0:0:0:0:0, 3+0:0:0:0:0, 3+1:0:0:0:0, 2+0:0:0:0:0, 2+0:0:0:0:0, 2+4:0:0:0:2, 3+1:0:0:0:1, 2+1:0:1:0:0, 3+1:0:1:0:0, 3+1:0:0:0:0, 3+0:0:0:0:0, 5+1:0:0:0:0, 2+0:0:0:0:0, 1+4:0:0:0:1, 3+1:0:0:0:1, 2+0:0:0:0:0, 1+1:0:1:0:0, 3+0:0:0:0:0, 2+0:0:0:0:0, 2+0:0:0:0:0, 2+0:0:0:0:0, 2+3:0:0:0:3, 3+1:0:0:0:0, 3+1:0:1:0:1, 2+4:0:0:0:0, 6+3:0:0:0:0, 2+0:0:0:0:0, 1+0:0:0:0:0, 2+3:0:0:0:0, 1+0:0:0:0:0, 3+1:0:0:0:0, 4+0:0:0:0:0, 4+0:0:0:0:0, 3+0:0:0:0:0, 3+1:0:0:0:0, 2+0:0:0:0:0, 2+0:0:0:0:0, 2+4:0:0:0:2, 3+1:0:0:0:1, 2+1:0:1:0:0, 3+0:0:0:0:0, 3+1:0:0:0:0, 2+1:0:0:0:0, 3+0:0:0:0:0, 4+1:0:1:0:0, 5+4:0:0:0:2, 3+1:0:0:0:0, 3+1:0:0:0:0, 4+1:0:0:0:1, 2+0:0:0:0:0, 2+0:0:0:0:0, 3+0:0:0:0:0, 4+1:0:1:0:0, 2+4:0:0:0:2, 3+1:0:0:0:1, 2+0:0:0:0:0, 0+0:0:0:0:0, 2+3:0:0:0:0, 2+1:0:0:0:0, 1+1:0:1:0:0, 2+2:0:0:0:0, 1+0:0:0:0:0, 2+1:0:1:0:1, 3+0:0:0:0:0, 4+0:0:0:0:0, 2+0:0:0:0:0, 2+0:0:0:0:0, 4+0:0:0:0:0, 2+0:0:0:0:0, 2+2:0:0:0:2, 3+1:0:0:0:0, 1+0:0:0:0:0, 0+0:0:0:0:0, 438+170:0:18:0:52
A# minor (7#), 2+0:0:0:0:0, 3+0:0:0:0:0, 5+5:0:0:0:0, 3+2:0:0:0:0, 2+2:2:1:0:2, 3+2:0:0:0:1, 2+0:0:0:0:0, 2+0:0:0:0:0, 4+1:0:0:0:0, 3+2:0:0:0:0, 4+2:0:0:0:0, 2+0:0:0:0:0, 3+2:0:0:0:0, 3+2:1:0:0:1, 3+1:0:0:0:0, 3+0:0:0:0:0, 3+2:0:0:0:2, 3+0:0:0:0:0, 4+1:0:0:0:1, 3+2:0:1:0:1, 2+0:0:0:0:0, 4+0:0:0:0:0, 3+3:0:0:0:0, 5+0:0:0:0:0, 3+0:0:0:0:0, 2+1:0:1:0:1, 5+4:0:0:0:0, 2+0:0:0:0:0, 3+2:0:0:0:0, 2+3:0:0:0:1, 2+0:0:0:0:0, 2+0:0:0:0:0, 1+0:0:0:0:0, 1+0:0:0:0:0, 4+2:0:0:0:0, 3+0:0:0:0:0, 2+2:0:0:0:0, 3+2:0:0:0:1, 3+0:0:0:0:0, 3+0:0:0:0:0, 6+3:0:0:0:0, 2+2:0:0:0:0, 2+2:0:0:0:0, 4+2:0:0:0:0, 3+3:0:0:0:0, 3+3:0:0:0:2, 4+1:0:0:0:0, 2+0:0:0:0:0, 3+2:0:0:0:2, 3+0:0:0:0:0, 4+1:0:0:0:1, 4+2:0:0:0:0, 2+0:0:0:0:0, 3+0:0:0:0:0, 3+3:0:0:0:0, 5+1:0:0:0:0, 4+0:0:0:0:0, 3+0:0:0:0:0, 3+4:0:0:0:0, 2+0:0:0:0:0, 4+2:0:0:0:0, 4+2:0:0:0:1, 2+0:0:0:0:0, 1+0:0:0:0:0, 3+0:0:0:0:0, 3+1:0:0:0:0, 4+2:0:0:0:0, 5+2:0:0:0:0, 6+1:0:0:0:1, 3+4:0:1:0:2, 4+1:0:0:0:0, 3+0:0:0:0:0, 4+1:0:0:0:0, 3+4:2:0:0:2, 4+2:0:0:0:0, 5+1:0:0:0:1, 4+3:0:0:0:0, 6+3:0:0:0:1, 4+0:0:0:0:0, 4+0:0:0:0:0, 6+1:0:0:0:1, 6+3:0:0:0:1, 4+1:0:0:0:1, 4+2:0:0:0:0, 2+0:0:0:0:0, 3+0:0:0:0:0, 3+3:0:0:0:0, 3+2:0:0:0:0, 4+0:0:0:0:0, 3+0:0:0:0:0, 4+2:0:0:0:0, 5+1:0:0:0:0, 3+0:0:0:0:0, 3+4:0:0:0:2, 1+5:5:0:0:5, 1+0:0:0:0:0, 2+0:0:0:0:0, 5+2:0:1:0:1, 5+3:0:0:0:0, 5+2:0:0:0:0, 4+0:0:0:0:0, 2+1:1:0:0:1, 3+1:0:0:0:0, 3+0:0:0:0:0, 3+2:0:0:0:0, 5+2:0:0:0:0, 4+1:1:0:0:1, 3+1:1:0:0:1, 4+2:2:0:0:2, 3+3:0:0:0:1, 4+1:0:0:0:0, 5+2:0:0:0:0, 3+3:0:0:0:0, 3+4:0:0:0:4, 4+4:1:0:0:1, 3+0:0:0:0:0, 3+0:0:0:0:0, 5+1:0:0:0:0, 4+1:0:0:0:0, 4+0:0:0:0:0, 4+1:0:0:0:0, 4+1:0:0:0:0, 4+2:1:0:0:1, 3+1:1:0:0:1, 4+1:1:0:0:1, 3+1:1:0:0:1, 4+1:0:0:0:0, 4+2:0:0:0:0, 5+2:0:1:0:1, 4+3:1:0:0:0, 5+3:0:0:0:0, 6+2:0:0:0:0, 4+0:0:0:0:0, 2+1:1:0:0:1, 3+1:0:0:0:0, 3+0:0:0:0:0, 3+1:0:0:0:0, 5+2:0:0:0:0, 4+1:1:0:0:1, 3+1:1:0:0:1, 3+1:1:0:0:1, 3+3:0:0:0:1, 4+1:0:0:0:0, 5+2:0:0:0:0, 4+4:0:0:0:0, 5+3:0:0:0:2, 4+4:1:0:0:1, 3+0:0:0:0:0, 3+0:0:0:0:0, 4+1:0:0:0:0, 4+1:0:0:0:0, 4+0:0:0:0:0, 4+1:0:0:0:0, 4+1:0:0:0:0, 4+2:1:0:0:1, 3+1:1:0:0:1, 4+1:1:0:0:1, 3+1:1:0:0:1, 4+1:0:0:0:0, 4+2:0:0:0:0, 4+1:0:0:0:0, 4+3:1:0:0:0, 4+2:0:0:0:0, 4+2:0:0:0:0, 5+2:0:0:0:1, 5+2:1:0:0:2, 4+1:0:0:0:0, 3+1:1:0:0:0, 6+2:0:0:0:0, 3+3:1:0:0:1, 3+2:0:0:0:0, 4+2:0:0:0:0, 5+2:0:0:0:1, 3+1:1:0:0:1, 4+1:0:0:0:0, 3+0:0:0:0:0, 2+3:0:0:0:3, 2+0:0:0:0:0, 4+1:0:0:0:1, 4+1:0:0:0:0, 4+0:0:0:0:0, 3+2:0:0:0:0, 4+1:0:0:0:1, 3+0:0:0:0:0, 4+0:0:0:0:0, 3+0:0:0:0:0, 3+2:0:0:0:0, 6+2:0:0:0:0, 3+2:0:0:0:0, 3+2:0:0:0:1, 4+1:0:0:0:0, 2+1:1:1:0:1, 1+0:0:0:0:0, 672+265:36:7:0:76
