 , 0, 1, 2, 3, 4, 5, 6, 7, 8, 9, 10, 11, 12, 13, 14, 15, 16, 17, 18, 19, 20, 21, 22, 23, 24, 25, 26, 27, 28, 29, 30, 31, 32, 33, 34, 35, 36, 37, 38, 39, 40, 41, 42, 43, 44, 45, 46, 47, 48, 49, 50, 51, 52, 53, 54, 55, 56, 57, 58, 59, 60, 61, 62, 63, 64, 65, 66, 67, 68, 69, 70, 71, 72, 73, 74, 75, 76, 77, 78, 79, 80, 81, 82, 83, 84, 85, 86, 87, 88, 89, 90, 91, 92, 93, 94, 95, 96, 97, 98, 99, 100, 101, 102, 103, 104, 105, 106, 107, 108, 109, 110, 111, 112, 113, 114, 115, 116, 117, 118, 119, 120, 121, 122, 123, 124, 125, 126, 127, 128, 129, 130, 131, 132, 133, 134, 135, 136, 137, 138, 139, 140, 141, 142, 143, 144, 145, 146, 147, 148, 149, 150, 151, 152, 153, 154, 155, 156, 157, 158, 159, 160, 161, 162, 163, 164, 165, 166, 167, 168, 169, 170, 171, 172, 173, 174, 175, 176, 177, rowcost
C major (0), 0+0:0:0:0:0, 5+2:0:0:0:0, 1+2:0:0:0:0, 1+1:0:0:0:0, 1+1:0:0:0:1, 5+7:0:0:0:0, 3+1:0:0:0:0, 4+6:0:1:0:1, 0+2:0:0:0:0, 5+2:0:0:0:0, 1+2:0:0:0:0, 1+1:0:0:0:0, 1+1:0:0:0:1, 5+7:0:0:0:0, 3+1:0:0:0:0, 6+6:0:1:0:1, 0+2:0:0:0:0, 3+2:0:0:0:0, 2+3:0:0:0:0, 5+2:0:1:0:1, 2+1:0:0:0:0, 3+5:0:0:0:0, 6+3:1:0:0:1, 2+4:0:0:0:1, 3+3:0:0:0:0, 5+2:0:0:0:0, 1+2:0:0:0:0, 1+1:0:0:0:0, 1+1:0:0:0:1, 5+7:0:0:0:0, 3+1:0:0:0:0, 4+3:0:1:0:1, 3+2:0:0:0:0, 2+0:0:0:0:0, 0+0:0:0:0:0, 7+4:0:0:0:2, 2+3:0:0:0:3, 6+5:0:0:0:0, 1+2:0:0:0:0, 6+8:0:0:0:0, 6+5:0:0:0:0, 7+7:0:1:0:1, 1+4:0:0:0:1, 5+5:0:0:0:4, 3+6:0:0:0:5, 2+4:0:0:0:3, 1+1:0:0:0:0, 6+6:0:0:0:0, 4+3:0:0:0:0, 7+4:0:1:0:1, 0+0:0:0:0:0, 4+3:0:0:0:1, 3+5:0:0:0:0, 7+4:0:0:0:2, 3+3:0:0:0:0, 6+7:0:0:0:2, 5+3:1:0:0:0, 3+6:0:0:0:0, 8+5:1:0:0:2, 7+4:0:0:0:1, 4+5:0:0:0:5, 2+1:0:0:0:0, 2+2:0:0:0:0, 5+4:0:0:0:0, 4+2:0:0:0:0, 4+2:0:1:0:1, 2+1:0:0:0:0, 2+0:0:0:0:0, 1+0:0:0:0:0, 4+4:0:0:0:1, 1+0:0:0:0:0, 1+2:0:0:0:0, 1+1:0:0:0:1, 6+12:1:0:0:0, 4+3:0:0:0:0, 4+10:0:1:0:1, 0+2:0:0:0:0, 4+1:0:0:0:0, 1+2:0:0:0:0, 3+2:0:0:0:0, 0+0:0:0:0:0, 6+8:0:0:0:0, 4+2:0:0:0:0, 4+2:0:1:0:1, 0+0:0:0:0:0, 5+2:0:0:0:0, 4+1:0:0:0:0, 4+1:0:0:0:0, 4+1:0:0:0:0, 4+2:1:1:0:1, 7+5:2:0:0:1, 3+3:0:0:0:0, 5+3:0:0:0:1, 4+3:0:0:0:2, 1+0:0:0:0:0, 2+2:0:0:0:0, 1+0:0:0:0:0, 6+4:0:0:0:0, 3+3:0:0:0:0, 3+2:0:1:0:1, 1+1:0:0:0:0, 3+1:0:0:0:0, 1+1:0:0:0:0, 7+5:0:0:0:4, 1+0:0:0:0:0, 2+2:0:0:0:1, 5+4:0:0:0:2, 6+10:0:0:0:0, 3+1:0:0:0:0, 8+8:0:1:0:2, 0+0:0:0:0:0, 4+3:1:0:0:1, 3+1:0:0:0:1, 1+2:0:0:0:0, 1+1:0:0:0:1, 6+7:0:0:0:0, 4+2:0:0:0:0, 4+4:0:1:0:1, 0+1:0:0:0:0, 3+1:0:0:0:0, 2+1:0:0:0:0, 3+1:0:0:0:0, 5+2:0:0:0:0, 4+2:1:1:0:1, 6+4:2:0:0:0, 3+9:0:0:0:0, 7+10:0:0:0:1, 4+2:0:0:0:1, 1+5:0:0:0:0, 2+3:0:0:0:0, 1+0:0:0:0:0, 8+5:0:0:0:0, 5+2:0:0:0:1, 4+8:0:1:0:3, 4+3:0:0:0:1, 2+0:0:0:0:0, 3+2:0:0:0:1, 4+2:0:0:0:1, 1+0:0:0:0:0, 5+5:0:0:0:0, 2+1:0:0:0:0, 5+7:0:0:0:0, 5+3:2:0:0:0, 3+7:0:1:0:1, 0+0:0:0:0:0, 4+3:0:0:0:1, 1+0:0:0:0:0, 4+3:0:0:0:1, 0+0:0:0:0:0, 6+10:0:0:0:2, 3+1:0:0:0:0, 5+3:0:1:0:1, 0+0:0:0:0:0, 4+1:0:0:0:0, 3+1:0:0:0:0, 4+1:0:0:0:0, 3+1:0:0:0:0, 4+4:1:0:0:0, 5+4:2:0:0:0, 4+6:0:0:0:1, 6+6:0:0:0:0, 5+2:0:0:0:0, 3+3:0:0:0:0, 6+5:0:0:0:0, 1+0:0:0:0:0, 6+2:0:0:0:0, 3+2:0:0:0:0, 5+6:0:1:0:1, 1+1:0:0:0:0, 2+0:0:0:0:0, 4+1:0:0:0:0, 2+0:0:0:0:0, 4+9:0:0:0:0, 3+1:0:0:0:0, 9+6:2:0:0:2, 11+11:0:1:0:7, 2+0:0:0:0:0, 0+0:0:0:0:0, 603+525:18:19:0:93
A minor (0), 0+0:0:0:0:0, 5+2:0:0:0:0, 1+2:0:0:0:0, 1+3:0:0:0:1, 1+1:0:0:0:1, 5+7:0:0:0:0, 3+1:0:0:0:0, 4+6:0:1:0:1, 0+2:0:0:0:0, 5+2:0:0:0:0, 1+2:0:0:0:0, 1+3:0:0:0:1, 1+1:0:0:0:1, 5+7:0:0:0:0, 3+1:0:0:0:0, 6+6:0:1:0:1, 0+2:0:0:0:0, 3+2:0:0:0:0, 2+0:0:0:0:0, 5+1:0:1:0:1, 2+0:0:0:0:0, 3+5:0:0:0:0, 6+3:1:0:0:1, 2+4:0:0:0:1, 3+3:0:0:0:0, 5+2:0:0:0:0, 1+2:0:0:0:0, 1+3:0:0:0:1, 1+1:0:0:0:1, 5+7:0:0:0:0, 3+1:0:0:0:0, 4+6:0:1:0:1, 3+2:0:0:0:0, 2+0:0:0:0:0, 0+0:0:0:0:0, 7+4:0:0:0:2, 2+5:0:0:0:0, 6+7:0:0:0:2, 1+2:0:0:0:0, 6+8:0:0:0:0, 6+5:0:0:0:0, 7+7:0:1:0:1, 1+4:0:0:0:1, 5+5:0:0:0:4, 3+7:0:0:0:0, 2+5:0:0:0:1, 1+1:0:0:0:0, 6+6:0:0:0:0, 4+3:0:0:0:0, 7+4:0:1:0:1, 0+2:0:0:0:0, 4+2:0:0:0:0, 3+1:0:0:0:0, 7+3:0:0:0:0, 3+3:0:0:0:0, 6+10:0:0:0:0, 5+4:1:0:0:1, 4+7:0:0:0:1, 8+8:1:0:0:0, 7+4:0:0:0:1, 4+7:0:0:0:0, 2+3:0:0:0:1, 2+6:0:0:0:0, 5+9:0:0:0:0, 4+3:0:0:0:0, 4+2:0:1:0:1, 2+1:0:0:0:0, 2+0:0:0:0:0, 3+1:0:0:0:0, 4+2:0:0:0:0, 1+2:0:0:0:0, 1+5:0:0:0:2, 1+1:0:0:0:1, 6+12:1:0:0:0, 4+3:0:0:0:0, 4+10:0:1:0:1, 0+2:0:0:0:0, 4+1:0:0:0:0, 1+2:0:0:0:0, 4+3:0:0:0:1, 0+0:0:0:0:0, 6+8:0:0:0:0, 4+2:0:0:0:0, 4+2:0:1:0:1, 0+1:0:0:0:0, 5+2:0:0:0:0, 4+0:0:0:0:0, 4+0:0:0:0:0, 4+0:0:0:0:0, 4+5:1:1:0:1, 7+5:2:0:0:2, 4+3:0:0:0:1, 5+4:0:0:0:0, 4+5:0:0:0:0, 1+1:0:0:0:0, 2+3:0:0:0:1, 1+3:0:0:0:0, 6+11:0:0:0:1, 3+1:0:0:0:0, 3+8:0:1:0:1, 1+1:0:0:0:0, 3+1:0:0:0:0, 2+3:0:0:0:0, 7+4:0:0:0:1, 1+4:0:0:0:0, 2+5:0:0:0:1, 5+5:0:0:0:1, 6+4:0:0:0:3, 3+1:0:0:0:0, 8+8:0:1:0:2, 0+3:0:0:0:0, 4+2:1:0:0:0, 3+4:0:0:0:0, 1+4:0:0:0:2, 1+1:0:0:0:1, 6+7:0:0:0:0, 4+2:0:0:0:0, 4+4:0:1:0:1, 0+1:0:0:0:0, 3+1:0:0:0:0, 2+1:0:0:0:0, 3+1:0:0:0:0, 5+1:0:0:0:0, 5+5:1:0:0:1, 7+4:1:0:0:1, 5+11:0:0:0:2, 7+10:0:0:0:1, 4+2:0:0:0:1, 1+5:0:0:0:0, 2+6:0:0:0:2, 1+3:0:0:0:0, 8+9:0:0:0:1, 5+2:0:0:0:1, 4+8:0:1:0:3, 4+3:0:0:0:1, 2+0:0:0:0:0, 3+2:0:0:0:1, 4+4:0:0:0:0, 1+2:0:0:0:0, 6+8:0:0:0:1, 2+5:0:0:0:0, 5+5:0:0:0:4, 5+3:2:0:0:0, 3+7:0:1:0:1, 0+5:0:0:0:0, 4+2:0:0:0:0, 1+2:0:0:0:0, 4+4:0:0:0:2, 0+0:0:0:0:0, 6+10:0:0:0:2, 3+1:0:0:0:0, 4+7:0:1:0:3, 0+1:0:0:0:0, 4+1:0:0:0:0, 3+0:0:0:0:0, 4+0:0:0:0:0, 3+0:0:0:0:0, 4+5:1:0:0:1, 6+5:1:0:0:1, 6+6:0:0:0:1, 6+6:0:0:0:0, 5+2:0:0:0:0, 3+3:0:0:0:0, 6+8:0:0:0:2, 1+3:0:0:0:0, 6+9:0:0:0:0, 3+2:0:0:0:0, 5+6:0:1:0:1, 1+1:0:0:0:0, 2+0:0:0:0:0, 4+6:0:0:0:0, 2+0:0:0:0:0, 4+9:0:0:0:0, 3+1:0:0:0:0, 9+7:2:0:0:3, 11+12:0:1:0:5, 2+0:0:0:0:0, 0+0:0:0:0:0, 616+642:16:18:0:96
F major (1b), 0+1:0:0:0:0, 6+3:0:0:0:1, 1+0:0:0:0:0, 2+1:0:0:0:0, 2+1:0:0:0:1, 4+4:0:0:0:0, 3+2:0:0:0:0, 5+6:0:1:0:1, 1+0:0:0:0:0, 6+3:0:0:0:1, 1+1:0:0:0:0, 2+1:0:0:0:0, 2+1:0:0:0:1, 4+4:0:0:0:0, 3+2:0:0:0:0, 7+6:0:1:0:1, 1+0:0:0:0:0, 4+2:0:0:0:0, 3+0:0:0:0:0, 6+2:0:1:0:1, 3+1:0:0:0:0, 4+2:1:0:0:1, 6+4:1:0:0:0, 3+2:0:0:0:1, 2+2:0:0:0:0, 6+3:0:0:0:1, 1+0:0:0:0:0, 2+1:0:0:0:0, 2+1:0:0:0:1, 4+4:0:0:0:0, 3+2:0:0:0:0, 5+6:0:1:0:1, 2+2:0:0:0:0, 2+1:0:0:0:0, 0+0:0:0:0:0, 8+6:0:0:0:2, 3+3:0:0:0:3, 7+5:0:0:0:0, 2+2:0:0:0:0, 5+3:0:0:0:0, 4+3:0:1:0:1, 8+7:0:1:0:1, 2+1:0:0:0:0, 6+6:0:0:0:4, 4+6:0:0:0:5, 3+4:0:0:0:3, 2+1:0:0:0:0, 5+3:0:0:0:0, 3+1:0:0:0:0, 8+4:0:1:0:1, 1+0:0:0:0:0, 5+3:0:0:0:1, 4+5:0:0:0:0, 8+4:0:0:0:2, 4+3:0:0:0:0, 7+3:1:0:0:0, 5+3:1:0:0:0, 4+7:0:0:0:4, 7+5:1:0:0:2, 8+6:0:0:0:1, 3+5:1:0:0:4, 3+1:0:0:0:0, 1+2:0:0:0:0, 4+4:0:0:0:0, 3+2:0:0:0:0, 5+2:0:1:0:1, 1+1:0:0:0:0, 2+1:0:0:0:0, 1+0:0:0:0:0, 5+4:0:0:0:1, 2+0:0:0:0:0, 2+2:0:0:0:0, 2+1:0:0:0:1, 5+4:1:0:0:1, 3+2:0:0:0:0, 5+10:0:1:0:1, 1+0:0:0:0:0, 5+2:0:0:0:0, 2+0:0:0:0:0, 4+2:0:0:0:0, 1+0:0:0:0:0, 5+2:0:0:0:0, 3+1:0:0:0:0, 5+2:0:1:0:1, 1+0:0:0:0:0, 6+2:0:0:0:0, 5+0:0:0:0:0, 5+1:0:0:0:0, 5+1:0:0:0:0, 5+2:1:1:0:1, 7+5:2:0:0:1, 4+3:0:0:0:2, 4+2:0:0:0:0, 5+3:0:0:0:0, 1+0:0:0:0:0, 3+2:0:0:0:0, 0+0:0:0:0:0, 5+4:0:0:0:0, 3+3:0:0:0:0, 4+8:0:1:0:1, 0+0:0:0:0:0, 3+1:0:0:0:0, 1+1:0:0:0:0, 8+5:0:0:0:1, 2+2:0:0:0:0, 3+2:0:0:0:1, 6+4:0:0:0:2, 5+4:0:0:0:0, 3+2:0:0:0:0, 9+8:0:1:0:2, 1+0:0:0:0:0, 5+3:1:0:0:1, 3+1:0:0:0:1, 2+2:0:0:0:0, 2+1:0:0:0:1, 5+3:0:0:0:0, 4+1:0:0:0:0, 5+5:0:1:0:1, 1+0:0:0:0:0, 4+1:0:0:0:0, 3+1:0:0:0:0, 4+1:0:0:0:0, 6+2:0:0:0:0, 5+2:1:1:0:1, 6+5:2:0:0:0, 4+7:0:0:0:4, 6+6:0:0:0:2, 5+4:0:0:0:1, 2+0:0:0:0:0, 3+3:0:0:0:0, 0+0:0:0:0:0, 7+5:0:0:0:0, 5+3:0:0:0:0, 5+8:0:1:0:3, 3+3:0:0:0:0, 2+1:0:0:0:0, 3+1:0:0:0:0, 5+2:0:0:0:1, 1+1:0:0:0:0, 6+5:0:0:0:0, 3+1:0:0:0:0, 4+5:0:0:0:0, 5+4:2:0:0:2, 4+8:0:1:0:1, 1+0:0:0:0:0, 5+3:0:0:0:1, 1+0:0:0:0:0, 5+3:0:0:0:1, 1+0:0:0:0:0, 5+5:0:0:0:0, 3+3:0:0:0:0, 6+3:0:1:0:1, 1+0:0:0:0:0, 5+1:0:0:0:0, 4+0:0:0:0:0, 5+1:0:0:0:0, 4+0:0:0:0:0, 5+4:1:0:0:0, 5+4:2:0:0:0, 5+6:2:0:0:4, 4+3:1:1:0:2, 6+3:0:0:0:1, 3+1:0:0:0:0, 7+5:0:0:0:0, 0+0:0:0:0:0, 5+2:0:0:0:0, 3+3:0:0:0:0, 6+6:0:1:0:1, 0+0:0:0:0:0, 2+1:0:0:0:0, 3+1:0:0:0:0, 2+1:0:0:0:0, 5+2:0:0:0:0, 3+1:0:0:0:0, 8+6:2:0:0:2, 12+11:0:1:0:7, 2+1:0:0:0:0, 0+0:0:0:0:0, 668+455:24:21:0:102
G major (1#), 1+0:0:0:0:0, 4+3:0:0:0:2, 0+0:0:0:0:0, 2+1:0:0:0:0, 2+1:0:0:0:1, 6+7:0:0:0:0, 4+1:0:0:0:0, 5+6:0:1:0:1, 1+0:0:0:0:0, 4+3:0:0:0:2, 0+0:0:0:0:0, 2+1:0:0:0:0, 2+1:0:0:0:1, 6+7:0:0:0:0, 4+1:0:0:0:0, 7+6:0:1:0:1, 0+0:0:0:0:0, 2+0:0:0:0:0, 2+0:0:0:0:0, 4+1:0:1:0:1, 2+0:0:0:0:0, 3+2:1:0:0:1, 5+3:1:0:0:1, 3+4:0:0:0:1, 4+2:0:0:0:0, 4+3:0:0:0:1, 0+0:0:0:0:0, 2+1:0:0:0:0, 2+1:0:0:0:1, 6+7:0:0:0:0, 4+1:0:0:0:0, 5+6:0:1:0:1, 4+2:0:0:0:0, 3+0:0:0:0:0, 1+0:0:0:0:0, 6+4:0:0:0:2, 1+3:0:0:0:3, 7+5:0:0:0:0, 2+2:0:0:0:0, 7+8:0:0:0:0, 7+5:0:0:0:0, 8+7:0:1:0:1, 1+1:0:0:0:0, 4+5:0:0:0:4, 2+6:0:0:0:5, 3+4:0:0:0:3, 2+1:0:0:0:0, 7+6:0:0:0:0, 5+3:0:0:0:0, 8+4:0:1:0:1, 0+0:0:0:0:0, 3+3:0:0:0:1, 3+1:0:1:0:1, 6+3:0:0:0:0, 2+0:0:0:0:0, 7+3:1:0:0:0, 4+3:1:0:0:0, 4+6:0:0:0:0, 7+5:1:0:0:2, 6+6:0:0:0:1, 3+5:0:0:0:5, 3+1:0:0:0:0, 3+1:0:0:0:0, 6+9:0:0:0:0, 5+3:0:0:0:0, 5+2:0:1:0:1, 3+1:0:0:0:0, 3+0:0:0:0:0, 1+0:0:0:0:0, 3+4:0:0:0:1, 0+0:0:0:0:0, 2+2:0:0:0:0, 2+1:0:0:0:1, 7+12:1:0:0:0, 5+3:0:0:0:0, 5+10:0:1:0:1, 0+0:0:0:0:0, 3+2:0:0:0:0, 0+0:0:0:0:0, 4+2:0:0:0:0, 1+0:0:0:0:0, 7+8:0:0:0:0, 5+2:0:0:0:0, 5+2:0:1:0:1, 0+0:0:0:0:0, 4+1:0:0:0:0, 3+0:0:0:0:0, 3+0:0:0:0:0, 3+0:0:0:0:0, 3+2:1:1:0:1, 6+5:2:0:0:1, 4+3:0:0:0:0, 6+3:0:0:0:1, 3+3:0:0:0:2, 0+0:0:0:0:0, 3+2:0:0:0:0, 2+1:0:0:0:0, 7+11:0:0:0:1, 4+1:0:0:0:0, 4+2:0:1:0:1, 2+1:0:0:0:0, 4+1:0:0:0:0, 1+1:0:0:0:0, 6+5:0:0:0:4, 0+0:0:0:0:0, 3+2:0:0:0:1, 5+4:0:0:0:1, 7+10:0:0:0:0, 4+1:0:0:0:0, 9+8:0:1:0:2, 0+0:0:0:0:0, 3+3:1:0:0:0, 2+1:0:0:0:1, 2+2:0:0:0:0, 1+2:0:0:0:0, 7+7:0:0:0:0, 5+2:0:0:0:0, 5+4:0:1:0:1, 0+0:0:0:0:0, 2+0:0:0:0:0, 2+0:0:0:0:0, 2+0:0:0:0:0, 5+1:0:0:0:0, 3+2:1:1:0:1, 5+5:2:0:0:0, 4+9:0:0:0:0, 8+6:0:0:0:2, 3+4:0:0:0:3, 0+0:0:0:0:0, 3+3:0:0:0:0, 2+1:0:0:0:0, 9+9:0:0:0:1, 4+2:1:0:0:0, 5+8:0:1:0:3, 5+3:0:0:0:1, 3+0:0:0:0:0, 2+2:1:0:0:0, 3+4:0:0:0:0, 0+0:0:0:0:0, 6+5:0:0:0:0, 1+2:0:0:0:0, 6+7:0:0:0:0, 6+3:2:0:0:0, 4+7:0:1:0:1, 1+0:0:0:0:0, 3+3:0:0:0:1, 0+0:0:0:0:0, 5+3:0:0:0:1, 1+0:0:0:0:0, 7+10:0:0:0:2, 4+1:0:0:0:0, 5+7:0:1:0:3, 0+0:0:0:0:0, 3+0:0:0:0:0, 2+0:0:0:0:0, 3+0:0:0:0:0, 2+0:0:0:0:0, 3+4:1:0:0:0, 4+4:2:0:0:0, 5+6:0:0:0:1, 7+4:0:0:0:1, 4+3:0:0:0:2, 2+1:0:0:0:0, 7+5:0:0:0:0, 2+1:0:0:0:0, 7+9:0:0:0:0, 4+2:0:0:0:0, 6+6:0:1:0:1, 2+1:0:0:0:0, 3+0:0:0:0:0, 5+6:0:0:0:0, 3+0:0:0:0:0, 5+9:0:0:0:0, 4+1:0:0:0:0, 8+7:4:0:0:1, 12+11:0:1:0:7, 3+0:0:0:0:0, 0+0:0:0:0:0, 645+510:24:20:0:98
D minor (1b), 0+0:0:0:0:0, 6+2:0:0:0:0, 1+2:0:0:0:0, 2+3:0:0:0:1, 2+2:0:0:0:0, 4+7:0:0:0:0, 3+1:0:0:0:0, 5+8:0:1:0:5, 1+2:0:0:0:0, 6+2:0:0:0:0, 1+2:0:0:0:0, 2+3:0:0:0:1, 2+2:0:0:0:0, 4+7:0:0:0:0, 3+1:0:0:0:0, 8+7:0:1:0:4, 1+2:0:0:0:0, 4+2:0:0:0:0, 3+3:0:0:0:0, 6+2:0:1:0:1, 3+1:0:0:0:0, 4+2:1:0:0:1, 6+3:1:0:0:1, 3+4:0:0:0:1, 2+2:0:0:0:0, 6+2:0:0:0:0, 1+2:0:0:0:0, 2+3:0:0:0:1, 2+2:0:0:0:0, 4+7:0:0:0:0, 3+2:0:0:0:0, 5+3:0:1:0:1, 2+2:0:0:0:0, 2+0:0:0:0:0, 0+0:0:0:0:0, 8+4:0:0:0:2, 3+8:0:0:0:0, 7+7:0:0:0:3, 2+3:0:0:0:0, 5+3:0:0:0:0, 4+3:0:1:0:1, 8+7:0:1:0:1, 2+4:0:0:0:1, 6+5:0:0:0:4, 4+3:0:0:0:0, 3+5:0:0:0:1, 2+7:0:0:0:0, 5+3:0:0:0:0, 3+1:0:0:0:0, 8+4:0:1:0:1, 1+0:0:0:0:0, 5+3:0:0:0:1, 4+5:0:0:0:0, 8+4:0:0:0:2, 4+3:0:0:0:0, 7+3:1:0:0:0, 5+3:1:0:0:0, 4+7:0:0:0:4, 7+5:1:0:0:2, 8+6:0:0:0:1, 3+12:5:0:0:0, 3+6:0:0:0:1, 1+2:0:0:0:0, 4+4:0:0:0:0, 3+2:0:0:0:0, 5+2:0:1:0:1, 1+1:0:0:0:0, 2+0:0:0:0:0, 1+0:0:0:0:0, 5+4:0:0:0:1, 2+1:0:0:0:0, 2+5:0:0:0:2, 2+4:0:0:0:0, 5+12:1:0:0:0, 3+3:0:0:0:0, 6+7:0:1:0:4, 1+2:0:0:0:0, 5+1:0:0:0:0, 2+2:0:0:0:0, 5+3:0:0:0:1, 1+3:0:0:0:0, 5+2:0:0:0:0, 3+1:0:0:0:0, 5+2:0:1:0:1, 1+1:0:0:0:0, 6+2:0:0:0:0, 5+1:0:0:0:0, 5+1:0:0:0:0, 5+1:0:0:0:0, 5+2:1:1:0:1, 7+5:2:0:0:1, 4+3:0:0:0:2, 4+2:0:0:0:0, 5+3:0:0:0:0, 1+2:0:0:0:0, 3+4:0:0:0:1, 0+0:0:0:0:0, 5+4:0:0:0:0, 3+3:0:0:0:0, 4+2:0:1:0:1, 0+1:0:0:0:0, 3+1:0:0:0:0, 2+3:0:0:0:0, 8+4:0:0:0:1, 2+4:0:0:0:0, 3+5:0:0:0:1, 6+5:0:0:0:1, 5+4:0:0:0:3, 3+7:0:0:0:1, 10+8:0:1:0:6, 1+3:0:0:0:0, 5+2:1:0:0:0, 3+4:0:0:0:0, 2+4:0:0:0:2, 2+4:0:0:0:1, 5+3:0:0:0:0, 4+1:0:0:0:0, 5+5:0:1:0:4, 1+1:0:0:0:0, 4+1:0:0:0:0, 3+1:0:0:0:0, 4+1:0:0:0:0, 6+2:0:0:0:0, 5+2:1:1:0:1, 6+5:2:0:0:0, 4+7:0:0:0:4, 6+6:0:0:0:2, 5+2:0:0:0:1, 2+5:0:0:0:0, 3+6:0:0:0:2, 0+3:0:0:0:0, 7+5:0:0:0:0, 5+3:0:0:0:0, 5+5:2:1:0:3, 3+3:0:0:0:1, 2+0:0:0:0:0, 3+1:0:0:0:0, 5+4:0:0:0:0, 1+2:0:0:0:0, 6+6:1:0:0:3, 3+5:0:0:0:0, 4+5:0:0:0:4, 5+4:2:0:0:2, 4+8:0:1:0:7, 1+5:0:0:0:0, 5+2:0:0:0:0, 1+2:0:0:0:0, 5+4:0:0:0:2, 1+4:0:0:0:0, 5+5:0:0:0:0, 3+3:0:0:0:0, 6+3:0:1:0:1, 1+1:0:0:0:0, 5+1:0:0:0:0, 4+1:0:0:0:0, 5+1:0:0:0:0, 4+1:0:0:0:0, 5+3:1:0:0:0, 5+4:2:0:0:0, 5+6:2:0:0:4, 4+3:1:1:0:2, 6+2:0:0:0:0, 3+3:0:0:0:0, 7+8:0:0:0:2, 0+3:0:0:0:0, 5+2:0:0:0:0, 3+3:0:0:0:0, 6+5:0:1:0:1, 0+0:0:0:0:0, 2+1:0:0:0:0, 3+1:0:0:0:0, 2+1:0:0:0:0, 5+2:0:0:0:0, 3+1:0:0:0:0, 8+6:2:0:0:2, 12+11:0:1:0:7, 2+0:0:0:0:0, 0+0:0:0:0:0, 673+577:31:21:0:129
E minor (1#), 1+0:0:0:0:0, 4+2:0:0:0:0, 0+1:0:0:0:0, 2+3:0:0:0:1, 2+2:0:0:0:0, 6+7:0:0:0:0, 4+1:0:0:0:0, 5+8:0:1:0:5, 1+2:0:0:0:0, 4+2:0:0:0:0, 0+1:0:0:0:0, 2+3:0:0:0:1, 2+2:0:0:0:0, 6+7:0:0:0:0, 4+1:0:0:0:0, 8+7:0:1:0:4, 0+0:0:0:0:0, 2+0:0:0:0:0, 2+0:0:0:0:0, 4+1:0:1:0:1, 2+0:0:0:0:0, 3+3:1:0:0:1, 5+10:1:0:0:2, 3+4:0:0:0:1, 4+3:0:0:0:0, 4+2:0:0:0:0, 0+1:0:0:0:0, 2+3:0:0:0:1, 2+2:0:0:0:0, 6+7:0:0:0:0, 4+1:0:0:0:0, 5+6:0:1:0:1, 4+2:0:0:0:0, 3+0:0:0:0:0, 1+0:0:0:0:0, 6+4:0:0:0:2, 1+5:0:0:0:0, 7+7:0:0:0:2, 2+6:0:0:0:0, 7+8:0:0:0:0, 7+5:0:0:0:0, 8+7:0:1:0:5, 1+4:0:0:0:1, 4+5:0:0:0:4, 2+7:0:0:0:0, 3+5:0:0:0:1, 2+4:0:0:0:0, 7+5:0:0:0:2, 5+6:0:0:0:1, 7+10:0:2:0:4, 0+1:0:0:0:0, 3+7:0:0:0:0, 3+1:0:1:0:0, 6+3:0:0:0:0, 2+0:0:0:0:0, 7+10:0:0:0:0, 4+4:1:0:0:1, 5+7:0:0:0:1, 7+7:1:0:0:1, 6+8:0:0:0:0, 3+7:0:0:0:0, 3+3:0:0:0:1, 3+6:0:0:0:0, 6+8:0:0:0:5, 5+7:0:0:0:1, 5+2:0:1:0:1, 3+2:0:0:0:0, 3+3:0:0:0:0, 3+1:0:0:0:0, 3+6:0:0:0:0, 0+1:0:0:0:0, 2+5:0:0:0:2, 2+4:0:0:0:0, 7+5:0:0:0:3, 5+6:0:0:0:2, 6+7:0:1:0:4, 0+0:0:0:0:0, 3+3:0:0:0:1, 0+1:0:0:0:0, 5+3:0:0:0:1, 1+2:0:0:0:0, 7+7:0:0:0:4, 5+9:0:0:0:1, 5+11:0:1:0:5, 0+0:0:0:0:0, 4+1:0:0:0:0, 3+0:0:0:0:0, 3+0:0:0:0:0, 3+0:0:0:0:0, 4+4:1:0:0:1, 6+7:2:0:0:3, 5+3:0:0:0:1, 6+4:0:0:0:0, 3+5:0:0:0:0, 0+1:0:0:0:0, 3+3:0:0:0:1, 2+4:0:0:0:0, 7+11:0:0:0:1, 4+1:0:0:0:0, 5+12:0:1:0:7, 2+1:0:0:0:0, 5+8:0:0:0:4, 2+3:0:0:0:0, 6+7:0:0:0:0, 0+2:0:0:0:0, 3+5:0:0:0:1, 5+5:0:0:0:0, 7+4:0:0:0:3, 5+7:0:0:0:5, 10+8:0:1:0:6, 0+0:0:0:0:0, 4+4:0:0:0:1, 2+2:0:0:0:0, 2+4:0:0:0:2, 1+2:0:0:0:0, 7+5:0:0:0:2, 5+7:0:0:0:1, 5+6:0:1:0:4, 0+0:0:0:0:0, 2+0:0:0:0:0, 2+0:0:0:0:0, 2+0:0:0:0:0, 5+1:0:0:0:0, 4+5:1:0:0:1, 6+4:1:0:0:1, 6+11:0:0:0:2, 8+10:0:0:0:1, 3+2:0:0:0:1, 0+1:0:0:0:0, 3+6:0:0:0:2, 2+3:0:0:0:0, 9+6:0:0:0:3, 4+6:0:0:0:1, 6+8:0:1:0:7, 5+5:0:0:0:2, 3+4:0:0:0:0, 2+2:1:0:0:1, 3+5:0:0:0:3, 0+1:0:0:0:0, 7+8:0:0:0:1, 1+3:0:0:0:0, 6+5:0:0:0:4, 6+11:0:0:0:5, 6+8:0:1:0:5, 1+5:0:0:0:0, 3+6:0:0:0:0, 0+1:0:0:0:0, 5+4:0:0:0:2, 1+2:0:0:0:0, 7+5:0:0:0:3, 4+8:0:0:0:1, 5+10:0:1:0:5, 0+0:0:0:0:0, 3+0:0:0:0:0, 2+0:0:0:0:0, 3+0:0:0:0:0, 2+0:0:0:0:0, 3+5:1:0:0:1, 4+6:2:0:0:3, 7+6:0:0:0:1, 7+6:0:0:0:0, 4+2:0:0:0:0, 2+4:0:0:0:0, 7+8:0:0:0:2, 2+3:0:0:0:0, 7+7:0:0:0:3, 4+7:0:0:0:2, 6+7:0:1:0:4, 2+3:0:0:0:0, 3+3:0:0:0:0, 6+8:0:0:0:5, 4+2:0:0:0:2, 7+8:0:0:0:5, 4+3:0:0:0:3, 8+7:4:0:0:4, 12+12:0:1:0:5, 3+6:0:0:0:3, 0+1:0:0:0:0, 672+745:17:19:0:211
Bb major (2b), 0+1:0:0:0:0, 5+3:1:0:0:1, 2+0:0:0:0:0, 3+1:0:0:0:0, 3+1:0:0:0:1, 3+5:0:0:0:0, 2+1:0:0:0:0, 5+3:0:1:0:1, 2+0:0:0:0:0, 5+3:1:0:0:1, 2+0:0:0:0:0, 3+1:0:0:0:0, 3+1:0:0:0:1, 3+5:0:0:0:0, 2+1:0:0:0:0, 7+4:0:1:0:1, 2+0:0:0:0:0, 5+2:0:0:0:0, 4+0:0:0:0:0, 7+1:0:1:0:1, 4+0:0:0:0:0, 5+2:1:0:0:1, 5+4:1:0:0:1, 4+2:0:0:0:0, 3+1:1:0:0:1, 5+3:1:0:0:1, 2+0:0:0:0:0, 3+1:0:0:0:0, 3+1:0:0:0:1, 3+5:0:0:0:0, 2+1:0:0:0:0, 5+3:0:1:0:1, 2+1:0:0:0:0, 1+0:0:0:0:0, 0+0:0:0:0:0, 9+7:0:0:0:4, 4+3:0:0:0:3, 8+5:0:0:0:0, 3+3:0:0:0:0, 4+3:0:0:0:0, 3+3:0:1:0:1, 8+7:0:1:0:1, 3+1:0:0:0:0, 7+9:0:0:0:5, 5+6:0:0:0:5, 4+4:0:0:0:3, 3+4:0:0:0:0, 4+3:0:0:0:0, 2+1:0:0:0:0, 7+4:0:1:0:1, 2+0:0:0:0:0, 6+4:0:0:0:3, 5+1:0:0:0:0, 9+3:0:0:0:0, 5+3:0:0:0:0, 8+7:0:0:0:2, 4+3:1:0:0:0, 5+6:0:0:0:0, 8+5:1:0:0:2, 9+6:0:0:0:3, 4+5:1:0:0:4, 4+1:0:0:0:0, 2+2:0:0:0:0, 3+4:0:0:0:0, 2+0:0:0:0:0, 4+4:0:1:0:2, 1+0:0:0:0:0, 1+0:0:0:0:0, 1+0:0:0:0:0, 6+4:0:0:0:1, 3+0:0:0:0:0, 2+2:0:0:0:0, 3+1:0:0:0:1, 4+6:1:0:0:1, 2+2:0:0:0:0, 5+3:0:1:0:1, 2+0:0:0:0:0, 6+5:0:0:0:1, 3+0:0:0:0:0, 4+2:0:0:0:0, 2+1:0:0:0:0, 4+2:0:0:0:0, 2+1:0:0:0:0, 4+2:0:1:0:1, 2+0:0:0:0:0, 7+1:0:0:0:0, 6+0:0:0:0:0, 6+0:0:0:0:0, 6+0:0:0:0:0, 7+3:1:0:0:0, 5+4:3:1:0:4, 5+3:0:0:0:0, 5+2:1:0:0:1, 6+3:0:0:0:2, 2+0:0:0:0:0, 4+2:0:0:0:0, 1+0:0:0:0:0, 4+4:0:0:0:0, 2+0:0:0:0:0, 4+3:0:1:0:1, 0+0:0:0:0:0, 2+1:0:0:0:1, 2+1:0:0:0:0, 9+5:0:0:0:4, 3+0:0:0:0:0, 4+2:0:0:0:1, 7+4:0:0:0:2, 6+4:0:0:0:0, 2+2:0:0:0:0, 9+8:0:1:0:2, 2+0:0:0:0:0, 6+3:1:0:0:1, 4+1:0:0:0:1, 2+2:0:0:0:0, 3+2:0:0:0:0, 4+3:0:0:0:0, 3+1:0:0:0:0, 6+5:0:1:0:1, 2+0:0:0:0:0, 5+0:0:0:0:0, 4+0:0:0:0:0, 5+0:0:0:0:0, 7+1:0:0:0:0, 7+4:1:0:0:0, 5+4:2:0:0:0, 5+9:0:0:0:0, 7+5:2:0:0:2, 6+4:0:0:0:3, 3+0:0:0:0:0, 2+3:0:0:0:0, 1+0:0:0:0:0, 6+5:0:0:0:0, 4+1:0:0:0:0, 5+6:0:2:0:2, 3+2:0:0:0:0, 1+0:0:0:0:0, 3+2:0:0:0:0, 6+2:0:0:0:1, 2+0:0:0:0:0, 6+5:0:0:0:0, 4+1:0:0:0:0, 5+5:0:0:0:0, 4+4:2:0:0:2, 5+8:0:1:0:1, 2+0:0:0:0:0, 6+3:0:0:0:1, 2+0:0:0:0:0, 4+3:0:0:0:1, 2+2:0:0:0:0, 4+5:0:0:0:0, 2+3:0:0:0:0, 5+3:0:1:0:1, 2+0:0:0:0:0, 6+0:0:0:0:0, 5+0:0:0:0:0, 6+0:0:0:0:0, 5+0:0:0:0:0, 6+4:1:0:0:0, 6+4:2:0:0:0, 6+6:0:0:0:1, 6+3:1:0:0:1, 5+3:1:0:0:1, 4+1:0:0:0:0, 6+5:0:0:0:0, 1+0:0:0:0:0, 4+2:0:0:0:0, 2+0:0:0:0:0, 6+3:0:1:0:1, 1+1:0:0:0:0, 1+2:0:0:0:0, 4+1:0:0:0:0, 1+2:0:0:0:0, 6+2:0:0:0:0, 2+1:0:0:0:0, 9+6:2:0:0:2, 13+11:0:1:0:7, 1+0:0:0:0:0, 0+0:0:0:0:0, 724+421:30:20:0:106
D major (2#), 2+1:0:0:0:0, 4+3:0:0:0:1, 1+0:0:0:0:0, 3+1:0:0:0:0, 3+1:0:0:0:1, 6+4:0:0:0:0, 5+2:0:0:0:0, 5+6:0:1:0:1, 2+2:0:0:0:0, 4+2:0:0:0:0, 1+0:0:0:0:0, 3+1:0:0:0:0, 3+1:0:0:0:1, 6+4:0:0:0:0, 5+2:0:0:0:0, 7+6:0:1:0:1, 1+0:0:0:0:0, 1+0:0:0:0:0, 2+0:0:0:0:0, 3+1:0:1:0:1, 2+0:0:0:0:0, 2+2:1:0:0:1, 4+3:1:0:0:1, 3+4:0:0:0:1, 3+2:0:0:0:0, 4+3:0:0:0:1, 1+0:0:0:0:0, 3+1:0:0:0:0, 3+1:0:0:0:1, 6+4:0:0:0:0, 5+2:0:0:0:0, 5+6:0:1:0:1, 5+2:0:0:0:0, 4+1:0:0:0:0, 1+0:0:0:0:0, 5+6:0:0:0:2, 2+3:0:0:0:3, 8+5:0:0:0:0, 3+2:0:0:0:0, 8+3:0:0:0:0, 7+3:0:1:0:1, 8+7:0:1:0:1, 2+4:0:0:0:1, 3+5:0:0:0:4, 3+7:0:0:0:0, 4+6:1:0:0:0, 3+1:0:0:0:0, 8+3:0:0:0:0, 6+1:0:0:0:0, 8+4:0:1:0:1, 1+0:0:0:0:0, 2+3:0:0:0:1, 3+1:0:1:0:0, 5+3:0:0:0:0, 2+3:0:0:0:0, 6+3:1:0:0:0, 3+3:1:0:0:0, 5+7:0:0:0:4, 6+5:1:0:0:2, 5+4:0:0:0:1, 4+5:0:0:0:5, 4+1:0:0:0:0, 4+2:0:0:0:0, 7+4:0:0:0:0, 6+2:0:0:0:0, 5+2:0:1:0:1, 4+2:0:0:0:0, 4+3:0:0:0:0, 1+2:0:0:0:0, 4+4:0:0:0:1, 1+0:0:0:0:0, 3+2:0:0:0:0, 3+1:0:0:0:1, 8+4:1:0:0:1, 6+2:0:0:0:0, 5+10:0:1:0:1, 1+0:0:0:0:0, 2+2:0:0:0:0, 1+0:0:0:0:0, 5+2:0:0:0:0, 2+0:0:0:0:0, 8+2:0:0:0:0, 6+1:0:0:0:0, 5+2:0:1:0:1, 1+0:0:0:0:0, 3+1:0:0:0:0, 2+0:0:0:0:0, 2+0:0:0:0:0, 2+0:0:0:0:0, 2+5:1:1:0:2, 5+5:2:0:0:1, 4+3:0:0:0:2, 5+2:0:0:0:0, 3+3:0:0:0:0, 1+0:0:0:0:0, 4+2:0:0:0:0, 3+0:0:0:0:0, 7+4:0:0:0:0, 5+3:0:0:0:0, 4+8:0:1:0:1, 3+1:0:0:0:0, 5+6:0:0:0:0, 1+1:0:0:0:1, 7+5:0:0:0:4, 1+0:0:0:0:0, 4+6:1:0:0:1, 6+4:0:0:0:1, 7+4:0:0:0:0, 5+2:0:0:0:0, 10+8:0:1:0:2, 1+0:0:0:0:0, 3+3:1:0:0:0, 3+1:0:0:0:1, 3+2:0:0:0:0, 2+2:0:0:0:0, 7+7:0:0:0:0, 6+2:0:0:0:0, 5+4:0:1:0:1, 1+0:0:0:0:0, 1+0:0:0:0:0, 2+0:0:0:0:0, 1+0:0:0:0:0, 4+1:0:0:0:0, 2+4:1:1:0:2, 4+5:2:0:0:0, 4+7:0:0:0:4, 7+6:0:0:0:2, 3+4:0:0:0:1, 1+0:0:0:0:0, 4+3:0:0:0:0, 3+0:0:0:0:0, 10+5:0:0:0:0, 5+3:1:0:0:1, 5+8:0:1:0:3, 6+5:0:0:0:2, 4+4:0:0:0:0, 3+2:1:0:0:0, 3+4:0:0:0:0, 1+0:0:0:0:0, 7+5:0:0:0:0, 2+2:0:0:0:0, 6+5:0:0:0:4, 6+6:1:1:0:2, 4+8:0:1:0:7, 2+5:0:0:0:0, 4+2:0:0:0:0, 1+0:0:0:0:0, 6+3:0:0:0:1, 2+0:0:0:0:0, 8+5:0:0:0:0, 5+3:0:0:0:0, 5+7:0:1:0:3, 1+0:0:0:0:0, 2+0:0:0:0:0, 2+0:0:0:0:0, 2+0:0:0:0:0, 2+0:0:0:0:0, 4+4:1:0:0:0, 3+4:2:0:0:0, 5+6:2:0:0:4, 5+3:1:1:0:2, 4+3:0:0:0:1, 3+1:0:0:0:0, 8+5:0:0:0:0, 3+0:0:0:0:0, 8+2:0:0:0:0, 5+3:0:0:0:0, 7+9:0:1:0:4, 3+3:0:0:0:0, 4+3:0:0:0:0, 7+8:0:0:0:5, 4+0:0:0:0:0, 6+9:0:0:0:0, 5+1:0:0:0:0, 9+7:2:0:0:3, 11+10:3:1:0:4, 4+4:0:0:0:2, 0+0:0:0:0:0, 714+506:29:23:0:118
G minor (2b), 0+1:0:0:0:0, 5+3:1:0:0:1, 2+0:0:0:0:0, 3+1:0:0:0:0, 3+1:0:0:0:1, 3+7:0:0:0:0, 2+1:0:0:0:0, 5+3:0:1:0:1, 2+0:0:0:0:0, 5+3:1:0:0:1, 2+0:0:0:0:0, 3+1:0:0:0:0, 3+1:0:0:0:1, 3+7:0:0:0:0, 2+1:0:0:0:0, 7+4:0:1:0:1, 2+0:0:0:0:0, 5+0:0:0:0:0, 4+0:0:0:0:0, 7+1:0:1:0:1, 4+0:0:0:0:0, 5+2:1:0:0:1, 5+4:1:0:0:0, 4+2:0:0:0:1, 3+2:0:0:0:0, 5+3:1:0:0:0, 2+0:0:0:0:0, 3+1:0:0:0:0, 3+1:0:0:0:1, 3+7:0:0:0:0, 2+1:0:0:0:0, 5+3:0:1:0:1, 2+2:0:0:0:0, 1+0:0:0:0:0, 0+2:0:0:0:0, 9+7:0:0:0:4, 4+3:0:0:0:3, 8+5:0:0:0:0, 3+2:0:0:0:0, 4+8:0:0:0:0, 4+5:0:0:0:0, 8+7:0:1:0:1, 3+1:1:0:0:0, 7+6:0:0:0:4, 5+6:0:0:0:5, 4+6:1:0:0:0, 3+1:0:0:0:0, 4+6:0:0:0:0, 2+3:0:0:0:0, 7+4:0:1:0:1, 2+0:0:0:0:0, 6+3:0:0:0:1, 5+1:0:0:0:0, 9+3:0:0:0:0, 5+0:0:0:0:0, 8+3:1:0:0:0, 4+3:1:0:0:0, 5+7:0:0:0:4, 8+5:1:0:0:2, 9+6:0:0:0:1, 4+5:1:0:0:4, 4+1:0:0:0:0, 2+2:0:0:0:0, 3+4:0:0:0:0, 2+2:0:0:0:0, 4+2:0:1:0:1, 1+1:0:0:0:0, 1+0:0:0:0:0, 1+0:0:0:0:0, 6+4:0:0:0:1, 3+0:0:0:0:0, 2+2:0:0:0:0, 3+1:0:0:0:1, 4+12:1:0:0:0, 2+3:0:0:0:0, 5+4:0:1:0:1, 2+0:0:0:0:0, 6+2:0:0:0:0, 3+0:0:0:0:0, 4+2:0:0:0:0, 2+0:0:0:0:0, 4+8:0:0:0:0, 2+2:0:0:0:0, 4+2:0:1:0:1, 2+0:0:0:0:0, 7+1:0:0:0:0, 6+0:0:0:0:0, 6+0:0:0:0:0, 6+0:0:0:0:0, 6+2:1:1:0:1, 6+5:3:0:0:0, 5+3:0:0:0:2, 5+2:0:0:0:0, 6+3:0:0:0:0, 2+0:0:0:0:0, 4+2:0:0:0:0, 1+0:0:0:0:0, 4+4:0:0:0:0, 2+3:0:0:0:0, 4+2:0:1:0:1, 0+1:0:0:0:0, 2+1:0:0:0:0, 2+1:0:0:0:0, 9+5:0:0:0:4, 3+0:0:0:0:0, 4+6:1:0:0:1, 7+4:0:0:0:2, 6+10:0:0:0:0, 2+1:0:0:0:0, 9+8:0:1:0:2, 2+0:0:0:0:0, 6+3:1:0:0:1, 4+1:0:0:0:1, 2+2:0:0:0:0, 4+2:0:0:0:0, 4+7:0:0:0:0, 3+2:0:0:0:0, 6+4:0:1:0:1, 2+0:0:0:0:0, 5+0:0:0:0:0, 4+0:0:0:0:0, 5+0:0:0:0:0, 7+1:0:0:0:0, 6+2:1:1:0:1, 5+5:2:0:0:0, 5+7:0:0:0:4, 7+6:0:0:0:2, 6+4:0:0:0:1, 3+0:0:0:0:0, 2+7:0:0:0:0, 1+4:0:0:0:0, 6+9:0:0:0:1, 4+2:0:0:0:1, 5+5:2:1:0:3, 3+3:0:0:0:1, 1+0:0:0:0:0, 3+2:0:0:0:1, 6+4:0:0:0:1, 2+0:0:0:0:0, 6+5:0:0:0:0, 4+2:0:0:0:0, 5+7:0:0:0:0, 4+3:2:0:0:0, 5+7:0:1:0:1, 2+0:0:0:0:0, 6+3:0:0:0:1, 2+0:0:0:0:0, 4+3:0:0:0:1, 2+0:0:0:0:0, 4+10:0:0:0:2, 2+1:0:0:0:0, 5+3:0:1:0:1, 2+0:0:0:0:0, 6+0:0:0:0:0, 5+0:0:0:0:0, 6+0:0:0:0:0, 5+0:0:0:0:0, 6+4:1:0:0:0, 6+4:2:0:0:0, 6+6:2:0:0:4, 5+3:1:1:0:2, 5+3:1:0:0:0, 4+1:0:0:0:0, 6+8:0:0:0:0, 1+4:0:0:0:0, 4+9:0:0:0:0, 2+2:0:0:0:0, 6+4:0:1:0:1, 1+2:0:0:0:0, 1+0:0:0:0:0, 4+1:0:0:0:0, 1+0:0:0:0:0, 6+2:0:0:0:0, 2+1:0:0:0:0, 9+6:2:0:0:2, 13+11:0:1:0:7, 1+0:0:0:0:0, 0+0:0:0:0:0, 724+486:34:20:0:100
B minor (2#), 2+0:0:0:0:0, 4+2:0:0:0:0, 1+1:0:0:0:0, 3+3:0:0:0:1, 3+2:0:0:0:0, 6+7:0:0:0:0, 5+1:0:0:0:0, 5+8:0:1:0:5, 2+2:0:0:0:0, 4+2:0:0:0:0, 1+1:0:0:0:0, 3+3:0:0:0:1, 3+2:0:0:0:0, 6+7:0:0:0:0, 5+1:0:0:0:0, 8+7:0:1:0:4, 1+0:0:0:0:0, 1+0:0:0:0:0, 2+0:0:0:0:0, 3+3:0:1:0:1, 2+0:0:0:0:0, 2+3:1:0:0:1, 4+3:1:0:0:3, 3+4:0:0:0:1, 3+3:0:0:0:0, 4+2:0:0:0:0, 1+1:0:0:0:0, 3+3:0:0:0:1, 3+2:0:0:0:0, 6+7:0:0:0:0, 5+1:0:0:0:0, 6+6:0:1:0:4, 5+3:0:0:0:1, 4+3:0:0:0:1, 1+0:0:0:0:0, 5+4:0:0:0:2, 2+5:0:0:0:0, 8+7:0:0:0:2, 3+6:0:0:0:0, 8+8:0:0:0:0, 8+5:0:0:0:0, 8+7:0:1:0:5, 2+4:0:0:0:1, 3+6:0:0:0:1, 3+10:0:0:0:0, 4+8:1:0:0:1, 3+4:0:0:0:0, 8+7:0:0:0:4, 6+7:0:0:0:4, 8+10:0:1:0:7, 1+1:0:0:0:0, 2+7:0:0:0:0, 3+1:0:1:0:0, 5+7:0:0:0:0, 2+6:0:0:0:0, 6+6:1:0:0:2, 3+6:1:0:0:2, 6+7:0:0:0:1, 6+8:1:0:0:2, 5+7:0:0:0:3, 4+7:0:0:0:0, 4+3:0:0:0:1, 4+6:0:0:0:0, 7+4:0:0:0:0, 6+2:0:0:0:0, 5+2:0:1:0:1, 4+2:0:0:0:1, 4+4:0:0:0:2, 3+1:0:0:0:0, 4+6:0:0:0:0, 1+1:0:0:0:0, 3+5:0:0:0:2, 3+4:0:0:0:0, 8+8:1:0:0:4, 6+10:0:0:0:4, 6+7:0:1:0:4, 1+0:0:0:0:0, 2+3:0:0:0:1, 1+1:0:0:0:0, 6+3:0:0:0:1, 2+2:0:0:0:0, 8+10:0:0:0:6, 6+10:0:0:0:7, 5+11:0:1:0:5, 1+0:0:0:0:0, 3+1:0:0:0:0, 2+0:0:0:0:0, 2+2:0:0:0:0, 2+0:0:0:0:0, 2+5:1:1:0:2, 5+7:2:0:0:3, 5+3:0:0:0:1, 5+2:0:0:0:0, 3+4:0:0:0:1, 1+1:0:0:0:0, 4+3:0:0:0:1, 3+3:0:0:0:0, 7+4:0:0:0:0, 5+1:0:0:0:0, 5+12:0:1:0:7, 3+1:0:0:0:0, 5+6:0:0:0:4, 2+3:0:0:0:0, 7+7:0:0:0:0, 1+2:0:0:0:0, 4+7:1:0:0:1, 6+5:0:0:0:0, 7+4:0:0:0:3, 5+8:0:0:0:4, 11+8:0:1:0:6, 1+0:0:0:0:0, 4+4:0:0:0:1, 3+2:0:0:0:0, 3+4:0:0:0:2, 2+2:0:0:0:0, 7+9:8:0:0:8, 6+6:0:0:0:4, 5+6:0:1:0:4, 1+0:0:0:0:0, 1+0:0:0:0:0, 2+0:0:0:0:0, 1+0:0:0:0:0, 4+1:0:0:0:0, 2+4:1:1:0:2, 4+9:2:0:0:3, 6+11:0:0:0:2, 7+10:0:0:0:1, 3+2:0:0:0:1, 1+1:0:0:0:0, 4+6:0:0:0:2, 3+3:0:0:0:0, 10+5:0:0:0:0, 5+2:1:0:0:0, 6+8:0:1:0:7, 6+5:0:0:0:2, 4+2:0:0:0:2, 3+2:1:0:0:1, 3+5:0:0:0:3, 1+1:0:0:0:0, 8+8:0:0:0:1, 2+3:0:0:0:0, 6+5:0:0:0:4, 7+11:0:0:0:5, 6+8:0:1:0:5, 2+5:0:0:0:0, 4+6:0:0:0:0, 1+1:0:0:0:0, 6+4:0:0:0:2, 2+2:0:0:0:0, 8+9:0:0:0:6, 5+9:0:0:0:4, 5+10:0:1:0:5, 1+0:0:0:0:0, 2+0:0:0:0:0, 2+0:0:0:0:0, 2+2:0:0:0:0, 2+0:0:0:0:0, 3+5:1:1:0:3, 3+6:2:0:0:3, 7+6:0:0:0:1, 6+6:0:0:0:0, 4+2:0:0:0:0, 3+4:0:0:0:0, 8+8:0:0:0:2, 3+3:0:0:0:0, 8+2:0:0:0:0, 5+2:0:0:0:0, 7+7:0:1:0:4, 3+3:0:0:0:0, 4+4:0:0:0:2, 7+8:0:0:0:5, 4+4:0:0:0:2, 8+8:0:0:0:4, 5+3:0:0:0:3, 9+7:2:0:0:3, 11+12:0:1:0:5, 4+6:0:0:0:3, 0+0:0:0:0:0, 738+757:29:21:0:250
Eb major (3b), 0+0:0:0:0:0, 6+3:0:0:0:1, 3+1:0:0:0:0, 4+1:0:0:0:0, 4+1:0:0:0:1, 2+7:0:0:0:0, 1+1:0:0:0:0, 4+3:0:1:0:1, 2+0:0:0:0:0, 6+3:0:0:0:1, 3+1:0:0:0:0, 4+1:0:0:0:0, 4+1:0:0:0:1, 2+7:0:0:0:0, 1+1:0:0:0:0, 6+4:0:1:0:1, 2+0:0:0:0:0, 6+2:0:0:0:0, 4+0:0:0:0:0, 8+1:0:1:0:1, 4+0:0:0:0:0, 6+5:0:0:0:0, 6+3:1:0:0:1, 3+2:0:0:0:0, 4+1:1:0:0:1, 6+3:0:0:0:1, 3+1:0:0:0:0, 4+1:0:0:0:0, 4+1:0:0:0:1, 2+7:0:0:0:0, 1+1:0:0:0:0, 4+3:0:1:0:1, 1+1:0:0:0:0, 0+0:0:0:0:0, 0+0:0:0:0:0, 10+6:0:0:0:3, 5+6:0:0:0:3, 9+5:0:0:0:0, 4+2:0:0:0:0, 3+8:0:0:0:0, 3+5:0:0:0:0, 7+4:0:1:0:2, 4+1:0:0:0:0, 8+5:0:0:0:4, 6+7:0:0:0:5, 5+4:0:0:0:3, 4+1:0:0:0:0, 3+6:0:0:0:0, 1+3:0:0:0:0, 6+4:0:1:0:1, 3+0:0:0:0:0, 7+3:0:0:0:1, 5+1:0:0:0:1, 10+3:0:0:0:0, 6+3:0:0:0:0, 9+7:0:0:0:2, 5+3:1:0:0:0, 4+6:0:0:0:0, 9+7:3:0:0:3, 10+5:0:0:0:2, 5+8:5:0:0:5, 5+1:0:0:0:0, 3+2:0:0:0:0, 2+1:0:0:0:1, 1+0:0:0:0:0, 3+4:0:1:0:2, 0+0:0:0:0:0, 0+0:0:0:0:0, 0+0:0:0:0:0, 7+4:0:0:0:3, 4+1:0:0:0:0, 3+2:0:0:0:0, 4+1:0:0:0:1, 3+12:1:0:0:0, 1+3:0:0:0:0, 4+4:0:1:0:1, 2+0:0:0:0:0, 7+1:0:0:0:0, 4+1:0:0:0:0, 5+2:0:0:0:0, 3+0:0:0:0:0, 3+8:0:0:0:0, 1+2:0:0:0:0, 3+2:0:1:0:1, 2+0:0:0:0:0, 8+2:0:0:0:0, 6+0:0:0:0:0, 7+0:0:0:0:0, 6+0:0:0:0:0, 8+3:1:0:0:0, 6+4:3:1:0:4, 4+3:0:0:0:0, 6+2:1:0:0:1, 7+5:0:0:0:2, 3+2:0:0:0:0, 5+2:0:0:0:0, 2+0:0:0:0:0, 3+3:0:0:0:2, 1+0:0:0:0:0, 3+3:0:1:0:1, 0+0:0:0:0:0, 1+1:0:0:0:0, 1+1:0:0:0:0, 10+5:0:0:0:1, 4+2:0:0:0:0, 5+2:0:0:0:1, 8+4:0:0:0:2, 5+10:0:0:0:0, 1+1:0:0:0:0, 8+5:1:1:0:2, 2+0:0:0:0:0, 7+3:0:0:0:1, 5+3:0:0:0:0, 3+2:0:0:0:0, 4+1:0:0:0:1, 3+7:0:0:0:0, 2+2:0:0:0:0, 5+4:0:1:0:1, 2+0:0:0:0:0, 6+1:0:0:0:0, 5+0:0:0:0:0, 6+0:0:0:0:0, 7+1:0:0:0:0, 8+4:1:0:0:0, 6+4:2:0:0:0, 4+9:0:0:0:0, 8+5:2:0:0:2, 7+4:0:0:0:3, 4+3:0:0:0:0, 3+3:0:0:0:0, 2+0:0:0:0:0, 5+4:0:0:0:2, 3+1:0:0:0:0, 4+6:0:2:0:2, 2+2:0:0:0:0, 0+0:0:0:0:0, 2+2:0:0:0:1, 7+2:0:0:0:1, 3+1:0:0:0:0, 7+5:0:0:0:0, 5+1:0:0:0:0, 4+7:0:0:0:0, 3+3:2:0:0:0, 4+7:0:1:0:1, 2+0:0:0:0:0, 7+3:0:0:0:1, 3+1:0:0:0:0, 5+3:0:0:0:1, 3+0:0:0:0:0, 3+10:0:0:0:2, 1+1:0:0:0:0, 4+3:0:1:0:1, 2+0:0:0:0:0, 7+1:0:0:0:0, 5+0:0:0:0:0, 7+0:0:0:0:0, 5+0:0:0:0:0, 7+4:1:0:0:0, 7+4:2:0:0:0, 5+6:0:0:0:1, 7+3:1:0:0:1, 6+4:0:0:0:1, 5+2:0:0:0:0, 7+5:0:0:0:0, 2+0:0:0:0:0, 3+1:0:0:0:1, 1+0:0:0:0:0, 5+3:0:1:0:1, 1+1:0:0:0:0, 0+0:0:0:0:0, 3+1:0:0:0:1, 0+0:0:0:0:0, 5+2:0:0:0:2, 1+0:0:0:0:0, 10+6:2:0:0:2, 14+11:0:1:0:7, 0+0:0:0:0:0, 0+0:0:0:0:0, 750+463:31:19:0:109
A major (3#), 2+0:0:0:0:0, 3+2:0:0:0:0, 2+2:0:0:0:0, 4+3:0:0:0:1, 4+2:0:0:0:0, 7+7:0:0:0:0, 6+1:0:0:0:0, 6+8:0:1:0:5, 3+2:0:0:0:0, 3+2:0:0:0:0, 2+2:0:0:0:0, 4+3:0:0:0:1, 4+2:0:0:0:0, 7+7:0:0:0:0, 6+1:0:0:0:0, 9+7:0:1:0:4, 2+2:0:0:0:0, 1+2:0:0:0:0, 1+0:0:0:0:0, 2+1:0:1:0:1, 1+0:0:0:0:0, 3+2:1:0:0:1, 3+3:1:0:0:1, 4+4:0:0:0:1, 4+3:0:0:0:0, 3+2:0:0:0:0, 2+2:0:0:0:0, 4+3:0:0:0:1, 4+2:0:0:0:0, 7+7:0:0:0:0, 6+1:0:0:0:0, 6+6:0:1:0:1, 6+2:0:0:0:0, 4+0:0:0:0:0, 1+0:0:0:0:0, 4+4:0:0:0:2, 3+4:0:0:0:0, 9+7:0:0:0:2, 4+6:0:0:0:0, 9+8:0:0:0:0, 9+5:0:0:0:0, 9+7:0:1:0:5, 3+4:0:0:0:1, 2+5:0:0:0:4, 4+3:0:0:0:0, 5+5:0:0:0:1, 4+4:0:0:0:0, 9+6:0:0:0:0, 7+3:0:0:0:0, 9+4:0:1:0:1, 2+2:0:0:0:0, 3+2:0:0:0:0, 2+1:0:1:0:1, 6+3:0:0:0:0, 1+0:0:0:0:0, 7+6:1:0:0:0, 4+3:1:0:0:0, 7+7:0:0:0:1, 7+7:1:0:0:1, 4+4:0:0:0:1, 5+7:0:0:0:0, 5+3:0:0:0:1, 5+4:0:0:0:0, 8+9:0:0:0:0, 7+3:0:0:0:0, 7+9:0:1:0:5, 5+2:0:0:0:1, 5+5:0:0:0:3, 2+1:0:0:0:0, 3+2:0:0:0:0, 2+2:0:0:0:0, 4+5:0:0:0:2, 4+4:0:0:0:0, 9+12:1:0:0:0, 7+3:0:0:0:0, 7+7:0:1:0:4, 2+2:0:0:0:0, 1+1:0:0:0:0, 2+2:0:0:0:0, 7+3:0:0:0:1, 3+2:0:0:0:0, 9+8:0:0:0:0, 7+2:0:0:0:0, 6+11:0:1:0:5, 2+1:0:0:0:0, 2+2:0:0:0:0, 1+0:0:0:0:0, 1+0:0:0:0:0, 1+0:0:0:0:0, 3+5:1:1:0:1, 5+5:2:0:0:2, 6+3:0:0:0:1, 6+2:0:0:0:0, 4+3:0:0:0:0, 2+2:0:0:0:0, 5+3:0:0:0:1, 4+4:0:0:0:0, 8+11:0:0:0:1, 6+1:0:0:0:0, 6+12:0:1:0:7, 4+1:0:0:0:0, 7+8:0:0:0:4, 3+3:0:0:0:0, 6+4:0:0:0:1, 2+4:0:0:0:0, 5+5:0:0:0:1, 7+5:0:0:0:0, 8+4:0:0:0:3, 7+7:0:0:0:5, 12+8:0:1:0:6, 2+3:0:0:0:0, 2+2:1:0:0:0, 4+4:0:0:0:0, 4+3:0:0:0:1, 3+2:0:0:0:0, 8+7:0:0:0:0, 7+2:0:0:0:0, 6+6:0:1:0:4, 2+1:0:0:0:0, 1+1:0:0:0:0, 1+0:0:0:0:0, 1+0:0:0:0:0, 3+1:0:0:0:0, 3+6:1:1:0:1, 5+5:2:0:0:0, 7+11:0:0:0:2, 8+10:0:0:0:1, 2+2:0:0:0:1, 2+5:0:0:0:0, 5+6:0:0:0:2, 4+3:0:0:0:0, 11+9:0:0:0:1, 6+2:1:0:0:0, 7+8:0:1:0:7, 7+5:0:0:0:2, 4+2:0:0:0:2, 2+2:0:1:0:1, 2+4:0:0:0:0, 2+2:0:0:0:0, 9+8:0:0:0:1, 3+5:0:0:0:0, 7+5:0:0:0:4, 8+11:0:0:0:5, 7+8:0:1:0:5, 3+5:0:0:0:0, 3+2:0:0:0:0, 2+2:0:0:0:0, 7+4:0:0:0:2, 3+2:0:0:0:0, 9+10:0:0:0:2, 6+1:0:0:0:0, 6+10:0:1:0:5, 2+1:0:0:0:0, 1+1:0:0:0:0, 1+0:0:0:0:0, 1+0:0:0:0:0, 1+0:0:0:0:0, 4+3:1:1:0:1, 3+4:2:0:0:0, 8+6:0:0:0:1, 7+6:0:0:0:0, 3+2:0:0:0:0, 4+3:0:0:0:0, 8+8:0:0:0:3, 4+2:0:0:0:0, 9+9:0:0:0:0, 6+2:0:0:0:0, 8+7:0:1:0:4, 4+2:0:0:0:0, 4+2:0:0:0:2, 8+8:0:0:0:5, 4+2:0:0:0:2, 7+8:0:0:0:4, 5+3:0:0:0:3, 10+7:2:0:0:3, 12+12:0:1:0:5, 5+6:0:0:0:3, 1+1:0:0:0:0, 838+707:19:22:0:177
C minor (3b), 0+0:0:0:0:0, 6+3:0:0:0:1, 3+1:0:0:0:0, 4+1:0:0:0:0, 4+1:0:0:0:1, 2+7:0:0:0:0, 1+2:0:0:0:0, 4+3:0:1:0:1, 2+0:0:0:0:0, 6+3:0:0:0:1, 3+1:0:0:0:0, 4+1:0:0:0:0, 4+1:0:0:0:1, 2+7:0:0:0:0, 1+2:0:0:0:0, 6+4:0:1:0:1, 2+0:0:0:0:0, 6+2:0:0:0:0, 4+0:0:0:0:0, 8+2:0:1:0:1, 4+1:0:0:0:0, 6+5:0:0:0:0, 6+3:1:0:0:1, 3+2:0:0:0:0, 4+2:0:0:0:1, 6+3:0:0:0:1, 3+1:0:0:0:0, 4+1:0:0:0:0, 4+1:0:0:0:1, 2+7:0:0:0:0, 1+2:0:0:0:0, 4+3:0:1:0:1, 1+2:0:0:0:0, 0+0:0:0:0:0, 0+0:0:0:0:0, 10+7:0:0:0:4, 5+3:0:0:0:3, 9+5:0:0:0:0, 4+2:0:0:0:0, 3+8:0:0:0:0, 3+5:0:0:0:0, 7+7:0:1:0:1, 4+1:0:0:0:0, 8+9:0:0:0:5, 6+6:0:0:0:5, 5+4:0:0:0:3, 4+1:0:0:0:0, 3+6:0:0:0:0, 1+1:0:0:0:0, 6+4:0:1:0:1, 3+0:0:0:0:0, 7+4:0:0:0:3, 5+8:0:0:0:5, 10+4:0:0:0:2, 6+3:0:0:0:0, 9+7:0:0:0:2, 5+3:1:0:0:0, 4+6:0:0:0:0, 9+5:1:0:0:2, 10+6:0:0:0:3, 5+5:1:0:0:4, 5+1:0:0:0:0, 3+2:0:0:0:0, 2+4:0:0:0:0, 1+2:0:0:0:0, 3+2:0:1:0:1, 0+1:0:0:0:0, 0+0:0:0:0:0, 0+0:0:0:0:0, 7+4:0:0:0:1, 4+0:0:0:0:0, 3+2:0:0:0:0, 4+1:0:0:0:1, 3+12:1:0:0:0, 1+2:0:0:0:0, 4+4:0:1:0:1, 2+0:0:0:0:0, 7+5:0:0:0:1, 4+0:0:0:0:0, 5+2:0:0:0:0, 3+0:0:0:0:0, 3+8:0:0:0:0, 1+1:0:0:0:0, 3+2:0:1:0:1, 2+0:0:0:0:0, 8+2:0:0:0:0, 6+0:0:0:0:0, 7+1:0:0:0:0, 6+0:0:0:0:0, 8+3:1:0:0:0, 6+3:1:1:0:1, 4+3:0:0:0:0, 6+3:0:0:0:1, 7+3:0:0:0:2, 3+0:0:0:0:0, 5+2:0:0:0:0, 2+0:0:0:0:0, 3+4:0:0:0:0, 1+3:0:0:0:0, 3+2:0:1:0:1, 0+1:0:0:0:0, 1+1:0:0:0:0, 1+1:0:0:0:0, 10+5:0:0:0:4, 4+0:0:0:0:0, 5+2:0:0:0:1, 8+4:0:0:0:2, 5+3:0:0:0:0, 1+2:0:0:0:0, 8+5:1:1:0:2, 2+0:0:0:0:0, 7+3:1:0:0:1, 5+1:0:0:0:1, 3+2:0:0:0:0, 4+1:0:0:0:1, 3+7:0:0:0:0, 2+2:0:0:0:0, 5+4:0:1:0:1, 2+0:0:0:0:0, 6+1:0:0:0:0, 5+1:0:0:0:0, 6+1:0:0:0:0, 7+1:0:0:0:0, 8+4:1:0:0:0, 6+4:2:0:0:0, 4+9:0:0:0:0, 8+6:0:0:0:2, 7+4:0:0:0:3, 4+0:0:0:0:0, 3+3:0:0:0:0, 2+0:0:0:0:0, 5+5:0:0:0:0, 3+3:0:0:0:0, 4+5:2:1:0:3, 2+3:0:0:0:1, 0+0:0:0:0:0, 2+1:0:0:0:0, 7+2:0:0:0:1, 3+1:0:0:0:0, 7+5:0:0:0:0, 5+1:0:0:0:0, 4+2:0:0:0:0, 3+4:2:0:0:2, 4+7:0:1:0:1, 2+0:0:0:0:0, 7+3:0:0:0:1, 3+0:0:0:0:0, 5+3:0:0:0:1, 3+0:0:0:0:0, 3+10:0:0:0:2, 1+3:0:0:0:0, 4+3:0:1:0:1, 2+0:0:0:0:0, 7+1:0:0:0:0, 5+0:0:0:0:0, 7+1:0:0:0:0, 5+0:0:0:0:0, 7+4:1:0:0:0, 7+4:2:0:0:0, 5+6:0:0:0:1, 7+4:0:0:0:1, 6+4:0:0:0:1, 5+2:0:0:0:0, 7+5:0:0:0:0, 2+0:0:0:0:0, 3+2:0:0:0:0, 1+3:0:0:0:0, 5+4:0:1:0:1, 1+1:0:0:0:0, 0+0:0:0:0:0, 3+1:0:0:0:0, 0+1:0:0:0:0, 5+2:0:0:0:0, 1+1:0:0:0:0, 10+6:2:0:0:2, 14+11:0:1:0:7, 0+0:0:0:0:0, 0+0:0:0:0:0, 750+480:21:18:0:110
F# minor (3#), 2+0:0:0:0:0, 3+2:0:0:0:0, 2+2:0:0:0:0, 4+3:0:0:0:1, 4+2:0:0:0:0, 7+7:0:0:0:0, 6+1:0:0:0:0, 6+8:0:1:0:5, 3+2:0:0:0:0, 3+2:0:0:0:0, 2+2:0:0:0:0, 4+3:0:0:0:1, 4+2:0:0:0:0, 7+7:0:0:0:0, 6+1:0:0:0:0, 9+7:0:1:0:4, 2+0:0:0:0:0, 1+2:0:0:0:0, 1+1:0:0:0:0, 2+3:0:0:0:0, 1+1:0:0:0:0, 3+3:1:0:0:1, 3+3:1:0:0:3, 4+4:0:0:0:1, 4+3:0:0:0:0, 3+2:0:0:0:0, 2+2:0:0:0:0, 4+3:0:0:0:1, 4+2:0:0:0:0, 7+7:0:0:0:0, 6+1:0:0:0:0, 7+6:0:1:0:4, 6+2:0:0:0:0, 4+0:0:0:0:0, 1+0:0:0:0:0, 4+4:0:0:0:2, 3+5:0:0:0:0, 9+7:0:0:0:2, 4+6:0:0:0:0, 9+8:0:0:0:0, 9+5:0:0:0:0, 9+7:0:1:0:5, 3+4:0:0:0:1, 2+5:0:0:0:4, 4+7:0:0:0:0, 5+5:0:0:0:1, 4+4:0:0:0:0, 9+6:0:0:0:0, 7+3:0:0:0:0, 9+4:0:1:0:1, 2+2:0:0:0:0, 3+5:0:0:0:0, 2+2:0:1:0:0, 6+5:0:0:0:1, 1+3:0:0:0:0, 7+9:1:0:0:1, 4+6:1:0:0:2, 7+7:0:0:0:1, 7+8:1:0:0:0, 4+4:0:0:0:1, 5+7:0:0:0:0, 5+3:0:0:0:1, 5+4:0:0:0:0, 8+9:0:0:0:0, 7+3:0:0:0:0, 6+2:0:1:0:1, 5+1:0:0:0:0, 5+0:0:0:0:0, 2+1:0:0:0:0, 3+2:0:0:0:0, 2+2:0:0:0:0, 4+5:0:0:0:2, 4+4:0:0:0:0, 9+12:1:0:0:0, 7+3:0:0:0:0, 7+7:0:1:0:4, 2+2:0:0:0:0, 1+1:0:0:0:0, 2+2:0:0:0:0, 7+3:0:0:0:1, 3+2:0:0:0:0, 9+8:0:0:0:0, 7+2:0:0:0:0, 6+11:0:1:0:5, 2+0:0:0:0:0, 2+2:0:0:0:1, 1+3:0:0:0:0, 1+1:0:0:0:0, 1+1:0:0:0:0, 3+8:1:1:0:1, 5+7:2:0:0:3, 6+3:0:0:0:1, 6+4:0:0:0:0, 4+4:0:0:0:1, 2+1:0:0:0:0, 5+3:0:0:0:1, 4+4:0:0:0:0, 8+11:0:0:0:1, 6+1:0:0:0:0, 6+12:0:1:0:7, 4+1:0:0:0:0, 7+8:0:0:0:4, 3+3:0:0:0:0, 6+4:0:0:0:1, 2+4:0:0:0:0, 5+5:0:0:0:1, 7+5:0:0:0:0, 8+4:0:0:0:3, 7+7:0:0:0:5, 12+8:0:1:0:6, 2+3:0:0:0:0, 2+2:1:0:0:0, 4+4:0:0:0:0, 4+3:0:0:0:1, 3+2:0:0:0:0, 8+7:0:0:0:0, 7+2:0:0:0:0, 6+6:0:1:0:4, 2+0:0:0:0:0, 1+4:0:0:0:0, 1+2:0:0:0:0, 1+5:0:0:0:0, 3+3:0:0:0:1, 3+10:1:1:0:1, 5+9:2:0:0:3, 7+11:0:0:0:2, 8+10:0:0:0:1, 2+2:0:0:0:1, 2+5:0:0:0:0, 5+6:0:0:0:2, 4+3:0:0:0:0, 11+9:0:0:0:1, 6+2:1:0:0:0, 7+8:0:1:0:7, 7+5:0:0:0:2, 4+2:0:0:0:2, 3+2:0:0:0:0, 2+5:0:0:0:3, 2+1:0:0:0:0, 9+8:0:0:0:1, 3+5:0:0:0:0, 7+5:0:0:0:4, 8+11:0:0:0:5, 7+8:0:1:0:5, 3+5:0:0:0:0, 3+2:0:0:0:0, 2+2:0:0:0:0, 7+4:0:0:0:2, 3+2:0:0:0:0, 9+10:0:0:0:2, 6+1:0:0:0:0, 6+10:0:1:0:5, 2+0:0:0:0:0, 1+1:0:0:0:0, 1+1:0:0:0:0, 1+1:0:0:0:0, 1+1:0:0:0:0, 4+5:1:1:0:3, 3+6:2:0:0:3, 8+6:0:0:0:1, 7+6:0:0:0:0, 3+2:0:0:0:0, 4+3:0:0:0:0, 8+8:0:0:0:3, 4+2:0:0:0:0, 9+9:0:0:0:0, 6+2:0:0:0:0, 8+7:0:1:0:4, 4+2:0:0:0:0, 4+0:0:0:0:0, 7+1:0:0:0:0, 4+0:0:0:0:0, 7+8:0:0:0:4, 5+3:0:0:0:3, 10+7:4:0:0:4, 12+12:0:1:0:5, 5+6:0:0:0:3, 1+1:0:0:0:0, 838+743:21:20:0:181
Ab major (4b), 0+0:0:0:0:0, 7+3:0:0:0:1, 4+1:0:0:0:0, 5+2:0:0:0:0, 5+2:1:0:0:1, 1+4:0:0:0:0, 0+0:0:0:0:0, 5+3:0:1:0:1, 2+1:0:0:0:0, 7+3:0:0:0:1, 4+1:0:0:0:0, 5+2:0:0:0:0, 5+2:1:0:0:1, 1+4:0:0:0:0, 0+0:0:0:0:0, 7+4:0:1:0:1, 2+0:0:0:0:0, 6+2:0:0:0:0, 4+0:0:0:0:0, 8+1:0:1:0:1, 4+0:0:0:0:0, 7+2:1:0:0:1, 7+4:1:0:0:0, 4+2:0:0:0:0, 5+1:1:0:0:1, 7+3:0:0:0:1, 4+1:0:0:0:0, 5+2:0:0:0:0, 5+2:1:0:0:1, 1+4:0:0:0:0, 0+0:0:0:0:0, 5+3:0:1:0:1, 2+1:0:0:0:0, 0+0:0:0:0:0, 0+0:0:0:0:0, 11+6:0:0:0:2, 6+3:0:0:0:3, 10+5:0:0:0:0, 4+3:0:0:0:0, 2+3:0:0:0:0, 1+1:0:1:0:0, 8+5:0:1:0:2, 5+1:0:0:0:0, 9+5:0:0:0:4, 7+6:0:0:0:5, 6+4:0:0:0:3, 5+4:0:0:0:0, 2+3:0:0:0:0, 0+0:0:0:0:0, 6+5:0:2:0:1, 4+0:0:0:0:0, 8+3:0:0:0:1, 5+1:0:0:0:1, 10+3:0:0:0:0, 6+3:0:0:0:0, 10+3:1:0:0:0, 6+3:1:0:0:0, 5+7:0:0:0:4, 9+5:1:0:0:2, 11+6:0:0:0:1, 6+8:5:0:0:5, 6+3:0:0:0:0, 4+2:0:0:0:0, 1+4:0:0:0:0, 0+0:0:0:0:0, 4+4:0:1:0:2, 1+0:0:0:0:0, 0+0:0:0:0:0, 0+0:0:0:0:0, 8+4:0:0:0:1, 5+1:0:0:0:0, 4+3:0:0:0:0, 4+2:1:0:0:1, 2+4:1:0:0:1, 0+0:0:0:0:0, 5+3:0:1:0:1, 2+0:0:0:0:0, 8+2:0:0:0:0, 5+0:0:0:0:0, 6+2:0:0:0:0, 3+1:0:0:0:0, 2+2:0:0:0:0, 0+0:0:0:0:0, 4+3:0:1:0:1, 2+0:0:0:0:0, 8+2:0:0:0:0, 6+0:0:0:0:0, 7+0:0:0:0:0, 6+0:0:0:0:0, 8+2:1:1:0:1, 8+5:3:0:0:0, 5+3:0:0:0:0, 7+2:1:0:0:1, 8+3:0:0:0:0, 4+0:0:0:0:0, 6+2:0:0:0:0, 2+0:0:0:0:0, 2+4:0:0:0:0, 0+0:0:0:0:0, 4+3:0:1:0:1, 1+0:0:0:0:0, 1+1:0:0:0:1, 1+1:0:0:0:0, 11+5:0:0:0:4, 5+2:0:0:0:0, 6+3:1:0:0:1, 8+4:0:0:0:3, 4+3:0:0:0:0, 0+0:0:0:0:0, 10+6:0:1:0:2, 2+0:0:0:0:0, 8+3:1:0:0:1, 6+3:0:0:0:0, 4+3:0:0:0:0, 4+2:0:0:0:0, 2+3:0:0:0:0, 1+1:0:0:0:0, 6+5:0:1:0:1, 2+0:0:0:0:0, 6+1:0:0:0:0, 5+0:0:0:0:0, 6+0:0:0:0:0, 7+1:0:0:0:0, 8+2:1:1:0:1, 7+5:2:0:0:0, 5+7:0:0:0:0, 9+5:1:0:0:1, 8+4:0:0:0:1, 5+0:0:0:0:0, 4+3:0:0:0:0, 2+0:0:0:0:0, 4+5:0:0:0:0, 2+1:0:0:0:0, 5+6:0:2:0:2, 3+2:0:0:0:0, 0+0:0:0:0:0, 1+1:0:0:0:0, 8+2:0:0:0:1, 4+1:0:0:0:0, 8+5:1:0:0:1, 6+2:0:0:0:0, 3+2:0:0:0:0, 2+4:2:0:0:2, 5+8:0:1:0:1, 2+1:0:0:0:0, 8+3:0:0:0:1, 4+0:0:0:0:0, 6+3:0:0:0:1, 3+2:0:0:0:0, 2+5:0:0:0:0, 0+0:0:0:0:0, 5+4:0:1:0:2, 2+0:0:0:0:0, 7+1:0:0:0:0, 5+0:0:0:0:0, 7+0:0:0:0:0, 5+0:0:0:0:0, 8+4:1:0:0:0, 8+4:2:0:0:0, 6+6:2:0:0:2, 6+3:1:0:0:1, 7+3:1:0:0:0, 4+1:1:0:0:1, 8+5:0:0:0:0, 2+0:0:0:0:0, 2+2:0:0:0:0, 0+0:0:0:0:0, 6+3:0:1:0:1, 1+1:0:0:0:0, 0+0:0:0:0:0, 2+1:0:0:0:1, 0+0:0:0:0:0, 4+2:0:0:0:2, 0+1:0:0:0:0, 10+6:2:0:0:2, 15+11:0:1:0:7, 0+0:0:0:0:0, 0+0:0:0:0:0, 803+406:40:22:0:100
E major (4#), 2+0:0:0:0:0, 4+2:0:0:0:0, 3+1:0:0:0:0, 5+3:0:0:0:1, 5+2:0:0:0:0, 7+7:0:0:0:0, 6+1:0:0:0:0, 7+8:0:1:0:5, 3+2:0:0:0:0, 4+2:0:0:0:0, 3+1:0:0:0:0, 5+3:0:0:0:1, 5+2:0:0:0:0, 7+7:0:0:0:0, 6+1:0:0:0:0, 10+7:0:1:0:4, 2+0:0:0:0:0, 0+0:0:0:0:0, 0+0:0:0:0:0, 1+1:0:1:0:1, 0+0:0:0:0:0, 4+4:1:0:0:0, 4+3:1:0:0:1, 5+4:0:0:0:1, 5+3:0:0:0:0, 4+2:0:0:0:0, 3+1:0:0:0:0, 5+3:0:0:0:1, 5+2:0:0:0:0, 7+7:0:0:0:0, 6+1:0:0:0:0, 8+6:0:1:0:4, 7+3:0:0:0:1, 4+2:0:0:0:2, 1+0:0:0:0:0, 5+4:0:0:0:2, 4+5:0:0:0:0, 10+7:0:0:0:2, 3+6:0:0:0:0, 9+8:0:0:0:0, 9+5:0:0:0:0, 10+7:0:1:0:5, 3+4:0:0:0:0, 3+5:0:0:0:4, 5+7:0:0:0:0, 6+8:1:0:0:1, 5+4:0:0:0:0, 9+6:0:0:0:0, 7+3:0:0:0:0, 9+10:0:2:0:4, 3+1:0:0:0:0, 4+7:0:0:0:0, 1+1:0:1:0:0, 5+3:0:0:0:0, 0+0:0:0:0:0, 8+10:0:0:0:0, 5+4:1:0:0:1, 8+7:0:0:0:1, 6+7:1:0:0:1, 5+8:0:0:0:0, 6+7:0:0:0:0, 6+3:0:0:0:1, 6+4:0:0:0:0, 8+9:0:0:0:0, 7+3:0:0:0:0, 8+9:0:1:0:5, 6+2:0:0:0:1, 5+5:0:0:0:3, 2+1:0:0:0:0, 4+6:0:0:0:0, 3+1:0:0:0:0, 5+5:0:0:0:2, 3+4:0:0:0:0, 9+12:1:0:0:0, 7+3:0:0:0:0, 8+7:0:1:0:4, 2+0:0:0:0:0, 2+5:0:0:0:0, 3+1:0:0:0:0, 8+3:0:0:0:1, 3+2:0:0:0:0, 9+8:0:0:0:0, 7+2:0:0:0:0, 7+11:0:1:0:5, 2+0:0:0:0:0, 1+1:0:0:0:0, 0+0:0:0:0:0, 0+0:0:0:0:0, 0+0:0:0:0:0, 4+5:1:1:0:1, 6+5:2:0:0:2, 7+3:0:0:0:1, 7+4:0:0:0:0, 5+5:0:0:0:0, 3+1:0:0:0:0, 6+3:0:0:0:1, 4+4:0:0:0:0, 8+11:0:0:0:1, 6+1:0:0:0:0, 7+12:0:1:0:7, 5+1:0:0:0:0, 7+8:0:0:0:4, 3+3:0:0:0:0, 7+7:0:0:0:0, 3+2:0:0:0:0, 6+7:1:0:0:1, 6+5:0:0:0:0, 8+4:0:0:0:3, 7+7:0:0:0:4, 13+8:0:1:0:6, 2+0:0:0:0:0, 3+5:1:0:0:1, 5+2:0:0:0:0, 5+3:0:0:0:1, 3+2:0:0:0:0, 8+9:8:0:0:8, 7+6:0:0:0:4, 7+6:0:1:0:4, 2+0:0:0:0:0, 0+0:0:0:0:0, 0+0:0:0:0:0, 0+0:0:0:0:0, 2+1:0:0:0:0, 5+5:1:0:0:1, 7+4:1:0:0:1, 8+11:0:0:0:2, 8+10:0:0:0:0, 3+2:0:0:0:1, 3+1:0:0:0:0, 6+6:0:0:0:2, 4+3:0:0:0:0, 11+9:0:0:0:1, 6+2:1:0:0:0, 8+8:0:1:0:7, 8+5:0:0:0:2, 4+2:0:0:0:2, 3+2:0:0:0:0, 3+6:0:0:0:0, 3+1:0:0:0:0, 10+8:0:0:0:1, 4+3:0:0:0:0, 7+5:0:0:0:4, 8+11:0:0:0:4, 8+8:0:1:0:5, 3+5:0:0:0:0, 4+6:0:0:0:0, 3+1:0:0:0:0, 8+4:0:0:0:2, 3+2:0:0:0:0, 9+10:0:0:0:2, 6+1:0:0:0:0, 7+10:0:1:0:5, 2+0:0:0:0:0, 0+0:0:0:0:0, 0+0:0:0:0:0, 0+0:0:0:0:0, 0+0:0:0:0:0, 6+5:1:0:0:1, 5+5:1:0:0:1, 9+6:0:0:0:1, 7+6:0:0:0:1, 4+2:0:0:0:0, 4+4:1:0:0:1, 9+8:0:0:0:3, 4+2:0:0:0:0, 9+9:0:0:0:0, 6+2:0:0:0:0, 9+7:0:1:0:4, 4+2:0:0:0:0, 4+0:0:0:0:0, 7+1:0:0:0:0, 4+0:0:0:0:0, 7+8:0:0:0:4, 5+3:0:0:0:3, 9+7:4:0:0:4, 13+12:0:1:0:5, 5+6:0:0:0:3, 1+0:0:0:0:0, 907+728:29:20:0:187
F minor (4b), 0+0:0:0:0:0, 7+3:0:0:0:1, 4+1:0:0:0:0, 5+1:0:0:0:0, 5+1:0:0:0:1, 1+4:0:0:0:0, 0+2:0:0:0:0, 5+3:0:1:0:1, 2+0:0:0:0:0, 7+3:0:0:0:1, 4+1:0:0:0:0, 5+1:0:0:0:0, 5+1:0:0:0:1, 1+4:0:0:0:0, 0+2:0:0:0:0, 7+4:0:1:0:1, 2+0:0:0:0:0, 6+2:0:0:0:0, 4+0:0:0:0:0, 8+1:0:1:0:1, 4+0:0:0:0:0, 7+2:1:0:0:1, 7+4:1:0:0:0, 4+2:0:0:0:0, 5+1:1:0:0:1, 7+3:0:0:0:1, 4+1:0:0:0:0, 5+1:0:0:0:0, 5+1:0:0:0:1, 1+4:0:0:0:0, 0+2:0:0:0:0, 5+3:0:1:0:1, 2+2:0:0:0:0, 0+1:0:0:0:0, 0+0:0:0:0:0, 11+6:0:0:0:2, 6+3:0:0:0:3, 10+5:0:0:0:0, 4+3:0:0:0:0, 2+3:0:0:0:0, 1+3:0:1:0:1, 8+4:0:1:0:2, 5+1:0:0:0:0, 9+6:0:0:0:4, 7+6:0:0:0:5, 6+4:0:0:0:3, 5+4:0:0:0:0, 2+3:0:0:0:0, 0+1:0:0:0:0, 7+4:0:1:0:1, 4+0:0:0:0:0, 8+3:0:0:0:1, 5+1:0:0:0:1, 10+4:0:0:0:2, 6+3:0:0:0:0, 10+7:0:0:0:2, 6+3:1:0:0:0, 5+6:0:0:0:0, 9+5:1:0:0:2, 11+6:0:0:0:1, 6+8:5:0:0:5, 6+3:0:0:0:0, 4+2:0:0:0:0, 1+4:0:0:0:0, 0+2:0:0:0:0, 4+2:0:1:0:1, 1+1:0:0:0:0, 0+0:0:0:0:0, 0+0:0:0:0:0, 8+4:0:0:0:3, 5+1:0:0:0:0, 4+2:0:0:0:0, 4+1:0:0:0:1, 2+4:1:0:0:1, 0+2:0:0:0:0, 5+4:0:1:0:1, 2+0:0:0:0:0, 8+2:0:0:0:0, 5+1:0:0:0:0, 6+2:0:0:0:0, 3+1:0:0:0:0, 2+2:0:0:0:0, 0+1:0:0:0:0, 4+2:0:1:0:1, 2+0:0:0:0:0, 8+2:0:0:0:0, 6+0:0:0:0:0, 7+0:0:0:0:0, 6+0:0:0:0:0, 8+2:1:1:0:1, 8+5:3:0:0:0, 5+3:0:0:0:0, 7+2:1:0:0:1, 8+5:0:0:0:2, 4+2:0:0:0:0, 6+2:0:0:0:0, 2+0:0:0:0:0, 2+4:0:0:0:0, 0+3:0:0:0:0, 4+2:0:1:0:1, 1+1:0:0:0:0, 1+1:0:0:0:0, 1+1:0:0:0:0, 11+5:0:0:0:1, 5+2:0:0:0:0, 6+2:0:0:0:1, 8+4:0:0:0:3, 4+3:0:0:0:0, 0+2:0:0:0:0, 9+5:1:1:0:2, 2+0:0:0:0:0, 8+3:0:0:0:1, 6+3:0:0:0:0, 4+2:0:0:0:0, 4+2:0:0:0:0, 2+3:0:0:0:0, 1+1:0:0:0:0, 6+5:0:1:0:1, 2+0:0:0:0:0, 6+1:0:0:0:0, 5+0:0:0:0:0, 6+0:0:0:0:0, 7+1:0:0:0:0, 8+2:1:1:0:1, 7+5:2:0:0:0, 5+7:0:0:0:0, 9+5:1:0:0:1, 8+4:0:0:0:3, 5+3:0:0:0:0, 4+3:0:0:0:0, 2+0:0:0:0:0, 4+5:0:0:0:0, 2+3:0:0:0:0, 5+5:2:1:0:3, 3+3:0:0:0:1, 0+1:0:0:0:0, 1+1:0:0:0:0, 8+2:0:0:0:1, 4+1:0:0:0:0, 8+5:0:0:0:0, 6+1:0:0:0:0, 3+2:0:0:0:0, 2+4:2:0:0:2, 5+8:0:1:0:1, 2+0:0:0:0:0, 8+3:0:0:0:1, 4+1:0:0:0:0, 6+3:0:0:0:1, 3+2:0:0:0:0, 2+5:0:0:0:0, 0+3:0:0:0:0, 5+3:0:1:0:1, 2+0:0:0:0:0, 7+1:0:0:0:0, 5+0:0:0:0:0, 7+0:0:0:0:0, 5+0:0:0:0:0, 8+4:1:0:0:0, 8+4:2:0:0:0, 6+6:2:0:0:2, 6+3:1:0:0:1, 7+4:0:0:0:1, 4+2:0:0:0:0, 8+5:0:0:0:0, 2+0:0:0:0:0, 2+2:0:0:0:0, 0+3:0:0:0:0, 6+4:0:1:0:1, 1+0:0:0:0:0, 0+1:0:0:0:0, 2+1:0:0:0:0, 0+1:0:0:0:0, 4+2:0:0:0:0, 0+1:0:0:0:0, 10+6:2:0:0:2, 15+11:0:1:0:7, 0+0:0:0:0:0, 0+0:0:0:0:0, 803+436:33:20:0:99
C# minor (4#), 2+0:0:0:0:0, 4+5:0:0:0:1, 3+1:0:0:0:0, 5+3:0:0:0:1, 5+2:0:0:0:0, 7+7:0:0:0:0, 6+1:0:0:0:0, 7+8:0:1:0:5, 3+1:0:0:0:0, 4+4:0:0:0:0, 3+1:0:0:0:0, 5+3:0:0:0:1, 5+2:0:0:0:0, 7+7:0:0:0:0, 6+1:0:0:0:0, 10+7:0:1:0:4, 2+0:0:0:0:0, 0+0:0:0:0:0, 0+1:0:0:0:0, 1+3:0:0:0:0, 0+1:0:0:0:0, 4+7:1:0:0:1, 4+3:1:0:0:3, 5+4:0:0:0:1, 5+7:1:0:0:3, 4+5:0:0:0:1, 3+1:0:0:0:0, 5+3:0:0:0:1, 5+2:0:0:0:0, 7+7:0:0:0:0, 6+1:0:0:0:0, 7+6:0:1:0:1, 7+2:0:0:0:0, 4+0:0:0:0:0, 1+0:0:0:0:0, 5+4:0:0:0:2, 4+5:0:0:0:0, 10+7:0:0:0:2, 3+6:0:0:0:0, 9+8:0:0:0:0, 9+5:0:0:0:0, 10+7:0:1:0:5, 3+1:0:0:0:0, 3+7:0:0:0:0, 5+7:0:0:0:0, 6+8:1:0:0:1, 5+4:0:0:0:0, 9+6:0:0:0:0, 7+3:0:0:0:0, 9+10:0:2:0:4, 3+1:0:0:0:0, 4+7:0:0:0:0, 1+4:0:1:0:0, 5+5:0:0:0:1, 0+3:0:0:0:0, 8+9:1:0:0:1, 5+6:1:0:0:2, 7+9:5:0:0:5, 6+7:1:0:0:1, 5+8:0:0:0:0, 6+7:0:0:0:0, 6+3:0:0:0:1, 6+6:0:0:0:0, 8+4:0:0:0:0, 7+2:0:0:0:0, 7+2:0:1:0:1, 6+1:0:0:0:0, 5+0:0:0:0:0, 2+1:0:0:0:0, 4+6:0:0:0:0, 3+1:0:0:0:0, 5+5:0:0:0:2, 3+4:0:0:0:0, 9+12:1:0:0:0, 7+3:0:0:0:0, 8+7:0:1:0:4, 2+0:0:0:0:0, 2+5:0:0:0:0, 3+1:0:0:0:0, 8+3:0:0:0:1, 3+2:0:0:0:0, 9+8:0:0:0:0, 7+2:0:0:0:0, 7+11:0:1:0:5, 2+0:0:0:0:0, 1+1:0:0:0:0, 0+3:0:0:0:0, 0+1:0:0:0:0, 0+1:0:0:0:0, 4+8:1:1:0:1, 6+7:2:0:0:3, 6+6:3:0:0:3, 7+7:1:0:0:2, 5+4:0:0:0:1, 3+1:0:0:0:0, 6+3:0:0:0:1, 4+3:0:0:0:0, 8+4:0:0:0:0, 6+3:0:0:0:0, 6+2:0:1:0:1, 5+1:0:0:0:0, 6+1:0:0:0:0, 3+3:0:0:0:0, 7+7:0:0:0:0, 3+2:0:0:0:0, 6+7:1:0:0:1, 6+3:1:0:0:1, 8+4:0:0:0:3, 6+1:0:0:0:0, 13+8:0:1:0:6, 2+0:0:0:0:0, 3+3:1:0:0:2, 5+2:0:0:0:0, 5+3:0:0:0:1, 3+2:0:0:0:0, 8+7:0:0:0:0, 7+2:0:0:0:0, 7+6:0:1:0:4, 2+0:0:0:0:0, 0+0:0:0:0:0, 0+2:0:0:0:0, 0+5:0:0:0:0, 2+3:0:0:0:1, 4+10:1:1:0:1, 6+9:2:0:0:3, 6+12:7:0:0:7, 7+15:1:1:0:4, 3+4:0:0:0:1, 3+1:0:0:0:0, 6+6:0:0:0:2, 4+3:0:0:0:0, 11+5:0:0:0:0, 6+2:1:0:0:0, 7+8:0:1:0:3, 8+3:0:0:0:1, 4+0:0:0:0:0, 2+1:0:0:0:1, 3+6:0:0:0:3, 3+1:0:0:0:0, 10+8:0:0:0:1, 4+3:0:0:0:0, 7+5:0:0:0:4, 8+3:2:0:0:0, 8+8:0:1:0:5, 3+1:0:0:0:0, 4+6:0:0:0:0, 3+1:0:0:0:0, 8+4:0:0:0:2, 3+2:0:0:0:0, 9+10:0:0:0:2, 6+1:0:0:0:0, 7+10:0:1:0:5, 2+0:0:0:0:0, 0+0:0:0:0:0, 0+1:0:0:0:0, 0+1:0:0:0:0, 0+0:0:0:0:0, 6+5:1:0:0:1, 4+6:2:0:0:3, 7+8:4:0:0:4, 7+10:1:1:0:6, 4+5:0:0:0:1, 4+4:1:0:0:1, 9+8:0:0:0:3, 4+3:0:0:0:0, 9+2:0:0:0:0, 6+2:0:0:0:0, 9+6:0:1:0:1, 4+1:0:0:0:0, 4+0:0:0:0:0, 7+1:0:0:0:0, 4+0:0:0:0:0, 7+9:0:0:0:0, 5+1:0:0:0:0, 9+7:2:0:0:3, 13+12:0:1:0:5, 5+6:0:0:0:3, 1+0:0:0:0:0, 890+721:48:22:0:168
Db major (5b), 0+0:0:0:0:0, 7+3:1:0:0:1, 5+0:0:0:0:0, 6+1:0:0:0:0, 6+1:0:0:0:1, 2+4:0:0:0:0, 1+0:0:0:0:0, 6+3:0:1:0:1, 3+0:0:0:0:0, 7+3:1:0:0:1, 5+0:0:0:0:0, 6+1:0:0:0:0, 6+1:0:0:0:1, 2+4:0:0:0:0, 1+0:0:0:0:0, 8+4:0:1:0:1, 3+0:0:0:0:0, 6+2:0:0:0:0, 4+0:0:0:0:0, 8+1:0:1:0:1, 4+0:0:0:0:0, 8+2:1:0:0:1, 7+3:1:0:0:1, 5+4:0:0:0:1, 6+2:0:0:0:0, 7+3:1:0:0:0, 5+0:0:0:0:0, 6+1:0:0:0:0, 6+1:0:0:0:1, 2+4:0:0:0:0, 1+0:0:0:0:0, 6+3:0:1:0:1, 3+1:0:0:0:0, 0+0:0:0:0:0, 0+0:0:0:0:0, 11+6:0:0:0:2, 7+3:0:0:0:3, 11+5:0:0:0:0, 5+3:0:0:0:0, 3+3:0:0:0:0, 2+1:0:1:0:0, 9+5:0:1:0:2, 6+1:0:0:0:0, 9+5:0:0:0:4, 8+6:0:0:0:5, 7+4:0:0:0:3, 6+4:0:0:0:0, 3+3:0:0:0:0, 1+0:0:0:0:0, 7+5:0:2:0:1, 5+0:0:0:0:0, 9+3:0:0:0:1, 5+1:0:0:0:1, 11+3:0:0:0:0, 6+3:0:0:0:0, 11+7:0:0:0:2, 7+3:1:0:0:0, 6+6:0:0:0:0, 10+5:1:0:0:2, 11+4:0:0:0:1, 7+5:1:0:0:4, 7+1:0:0:0:0, 5+2:0:0:0:0, 2+4:0:0:0:0, 1+0:0:0:0:0, 5+4:0:1:0:2, 2+0:0:0:0:0, 1+0:0:0:0:0, 1+0:0:0:0:0, 8+4:0:0:0:1, 6+0:0:0:0:0, 5+2:0:0:0:0, 5+1:0:0:0:1, 3+4:1:0:0:1, 1+0:0:0:0:0, 6+3:0:1:0:1, 3+0:0:0:0:0, 8+2:0:0:0:0, 6+0:0:0:0:0, 7+2:0:0:0:0, 4+1:0:0:0:0, 3+2:0:0:0:0, 1+0:0:0:0:0, 5+3:0:1:0:1, 3+0:0:0:0:0, 8+2:0:0:0:0, 6+0:0:0:0:0, 7+0:0:0:0:0, 6+0:0:0:0:0, 10+3:1:0:0:0, 7+4:2:1:0:3, 6+3:0:0:0:0, 8+2:1:0:0:1, 9+3:0:0:0:0, 5+0:0:0:0:0, 7+2:0:0:0:0, 3+0:0:0:0:0, 3+4:0:0:0:0, 1+0:0:0:0:0, 5+3:0:1:0:1, 2+0:0:0:0:0, 2+1:0:0:0:1, 2+1:0:0:0:0, 11+5:0:0:0:4, 6+0:0:0:0:0, 7+2:0:0:0:1, 9+4:0:0:0:3, 5+3:0:0:0:0, 1+0:0:0:0:0, 11+6:0:1:0:2, 3+0:0:0:0:0, 8+3:1:0:0:1, 7+1:0:0:0:1, 5+2:0:0:0:0, 5+2:0:0:0:0, 3+3:0:0:0:0, 2+1:0:0:0:0, 7+4:0:1:0:1, 3+0:0:0:0:0, 6+0:0:0:0:0, 5+0:0:0:0:0, 6+0:0:0:0:0, 7+1:0:0:0:0, 10+5:1:0:0:1, 8+4:2:0:0:0, 6+9:0:0:0:0, 10+5:1:0:0:1, 8+4:0:0:0:1, 6+0:0:0:0:0, 5+3:0:0:0:1, 3+3:0:0:0:0, 5+4:0:0:0:2, 3+1:0:0:0:0, 6+6:0:2:0:2, 4+2:0:0:0:0, 0+0:0:0:0:0, 2+1:0:0:0:0, 8+4:0:0:0:0, 5+0:0:0:0:0, 9+5:0:0:0:0, 7+1:0:0:0:0, 4+2:0:0:0:0, 3+2:2:0:0:2, 6+4:0:1:0:2, 3+0:0:0:0:0, 8+3:0:0:0:1, 5+0:0:0:0:0, 8+5:0:0:0:2, 4+2:0:0:0:0, 3+5:0:0:0:0, 1+0:0:0:0:0, 6+4:0:1:0:2, 3+0:0:0:0:0, 7+1:0:0:0:0, 5+0:0:0:0:0, 7+0:0:0:0:0, 5+0:0:0:0:0, 9+4:1:0:0:0, 8+4:2:0:0:0, 7+6:2:0:0:4, 7+4:0:0:0:2, 7+3:1:0:0:0, 5+1:1:0:0:1, 7+5:0:0:0:1, 3+3:0:0:0:0, 3+1:0:0:0:1, 1+0:0:0:0:0, 7+3:0:1:0:1, 2+1:0:0:0:0, 0+0:0:0:0:0, 3+1:0:0:0:1, 0+0:0:0:0:0, 5+2:0:0:0:2, 0+0:0:0:0:0, 11+6:2:0:0:2, 16+11:0:1:0:7, 1+0:0:0:0:0, 1+0:0:0:0:0, 939+386:29:21:0:108
B major (5#), 2+0:0:0:0:0, 5+4:0:0:0:0, 4+1:0:0:0:0, 6+3:0:0:0:1, 6+2:0:0:0:0, 7+7:0:0:0:0, 6+1:0:0:0:0, 7+8:0:1:0:5, 3+1:0:0:0:0, 5+4:0:0:0:0, 4+1:0:0:0:0, 6+3:0:0:0:1, 6+2:0:0:0:0, 7+7:0:0:0:0, 6+1:0:0:0:0, 10+7:0:1:0:4, 2+0:0:0:0:0, 1+0:0:0:0:0, 0+0:0:0:0:0, 2+1:0:1:0:1, 0+0:0:0:0:0, 5+3:1:0:0:1, 5+10:1:0:0:2, 5+4:2:0:0:4, 6+7:1:0:0:3, 5+5:0:0:0:1, 4+5:0:0:0:0, 6+7:1:0:0:1, 6+2:0:0:0:0, 7+7:0:0:0:0, 6+2:0:0:0:0, 7+3:0:1:0:1, 7+2:0:0:0:0, 4+0:0:0:0:0, 1+0:0:0:0:0, 6+4:0:0:0:2, 5+5:0:0:0:0, 11+7:0:0:0:2, 4+6:0:0:0:0, 9+8:0:0:0:0, 9+5:0:0:0:0, 10+7:0:1:0:5, 4+1:0:0:0:0, 4+7:0:0:0:0, 6+7:0:0:0:0, 7+8:1:0:0:1, 6+4:0:0:0:0, 9+6:0:0:0:0, 7+1:0:0:0:0, 10+4:0:1:0:1, 4+1:0:0:0:0, 5+7:0:0:0:0, 1+1:0:1:0:0, 6+3:0:0:0:0, 1+0:0:0:0:0, 9+6:1:0:0:2, 6+6:1:0:0:2, 7+9:5:0:0:5, 7+7:1:0:0:1, 6+8:0:0:0:0, 7+7:0:0:0:0, 7+3:0:0:0:1, 7+6:0:0:0:0, 8+4:0:0:0:0, 7+2:0:0:0:0, 7+2:0:1:0:1, 6+1:0:0:0:0, 5+0:0:0:0:0, 2+1:0:0:0:0, 5+6:0:0:0:0, 4+1:0:0:0:0, 6+5:0:0:0:2, 4+4:0:0:0:0, 9+12:1:0:0:0, 7+3:0:0:0:0, 8+7:0:1:0:4, 2+0:0:0:0:0, 3+3:0:0:0:1, 4+1:0:0:0:0, 9+3:0:0:0:1, 4+2:0:0:0:0, 9+8:0:0:0:0, 7+2:0:0:0:0, 7+11:0:1:0:5, 2+0:0:0:0:0, 2+1:0:0:0:0, 0+0:0:0:0:0, 1+0:0:0:0:0, 0+0:0:0:0:0, 5+5:1:1:0:2, 7+7:2:0:0:3, 6+5:3:0:0:4, 8+7:1:0:0:2, 6+4:0:0:0:1, 4+1:0:0:0:0, 7+3:0:0:0:1, 5+3:0:0:0:0, 8+4:0:0:0:0, 6+3:0:0:0:0, 6+2:0:1:0:1, 5+1:0:0:0:0, 6+1:0:0:0:0, 3+3:0:0:0:0, 8+7:0:0:0:0, 4+2:0:0:0:0, 7+7:1:0:0:1, 6+3:0:0:0:0, 8+4:0:0:0:3, 6+1:0:0:0:0, 13+8:0:1:0:6, 2+0:0:0:0:0, 5+4:0:0:0:1, 6+2:0:0:0:0, 6+3:0:0:0:1, 4+2:0:0:0:0, 8+7:0:0:0:0, 7+2:0:0:0:0, 7+6:0:1:0:4, 2+0:0:0:0:0, 1+0:0:0:0:0, 1+0:0:0:0:0, 1+0:0:0:0:0, 2+1:0:0:0:0, 5+4:1:1:0:2, 7+9:2:0:0:3, 6+11:6:0:0:9, 8+15:1:1:0:4, 4+6:0:0:0:1, 4+1:0:0:0:0, 7+6:0:0:0:2, 5+3:0:0:0:0, 11+5:0:0:0:0, 6+3:1:0:0:1, 7+8:0:1:0:3, 8+3:0:0:0:1, 4+0:0:0:0:0, 3+2:0:0:0:0, 4+5:0:0:0:3, 4+1:0:0:0:0, 11+8:0:0:0:1, 5+3:0:0:0:0, 7+5:0:0:0:4, 8+3:2:0:0:0, 8+8:0:1:0:5, 3+1:0:0:0:0, 5+6:0:0:0:0, 4+1:0:0:0:0, 9+4:0:0:0:2, 4+2:0:0:0:0, 9+10:0:0:0:2, 6+1:0:0:0:0, 7+10:0:1:0:5, 2+0:0:0:0:0, 1+0:0:0:0:0, 0+0:0:0:0:0, 1+0:0:0:0:0, 0+0:0:0:0:0, 6+5:1:1:0:3, 5+6:2:0:0:3, 7+6:4:0:0:5, 8+10:1:1:0:6, 5+4:0:0:0:1, 5+4:1:0:0:1, 10+8:0:0:0:3, 5+3:0:0:0:0, 9+2:0:0:0:0, 6+3:0:0:0:0, 9+6:0:1:0:1, 4+0:0:0:0:0, 4+1:0:0:0:0, 7+1:0:0:0:0, 4+0:0:0:0:0, 7+9:0:0:0:0, 5+1:0:0:0:0, 10+7:2:0:0:3, 14+10:3:1:0:4, 5+4:0:0:0:2, 1+0:0:0:0:0, 982+675:51:23:0:171
Bb minor (5b), 0+0:0:0:0:0, 7+3:1:0:0:1, 5+0:0:0:0:0, 6+1:0:0:0:0, 6+2:1:0:0:1, 2+4:0:0:0:0, 1+2:0:0:0:0, 6+3:0:1:0:1, 3+0:0:0:0:0, 7+3:1:0:0:1, 5+0:0:0:0:0, 6+1:0:0:0:0, 6+2:1:0:0:1, 2+4:0:0:0:0, 1+2:0:0:0:0, 8+4:0:1:0:1, 3+0:0:0:0:0, 6+0:0:0:0:0, 4+0:0:0:0:0, 8+1:0:1:0:1, 4+0:0:0:0:0, 8+2:1:0:0:1, 7+4:1:0:0:0, 5+2:0:0:0:0, 6+1:1:0:0:1, 7+3:1:0:0:1, 5+0:0:0:0:0, 6+1:0:0:0:0, 6+2:1:0:0:1, 2+4:0:0:0:0, 1+2:0:0:0:0, 6+3:0:1:0:1, 3+1:0:0:0:0, 0+1:0:0:0:0, 0+0:0:0:0:0, 11+7:0:0:0:4, 7+3:0:0:0:3, 11+5:0:0:0:0, 5+3:0:0:0:0, 3+3:0:0:0:0, 2+3:0:1:0:1, 9+4:0:1:0:2, 6+1:0:0:0:0, 9+5:0:0:0:4, 8+6:0:0:0:5, 7+4:0:0:0:3, 6+4:0:0:0:0, 3+3:0:0:0:0, 1+1:0:0:0:0, 8+4:0:1:0:1, 5+0:0:0:0:0, 9+3:0:0:0:1, 5+1:0:0:0:1, 11+3:0:0:0:0, 6+3:0:0:0:0, 11+7:0:0:0:2, 7+2:2:0:0:2, 6+5:0:0:0:0, 10+5:1:0:0:2, 11+6:0:0:0:1, 7+8:5:0:0:5, 7+3:0:0:0:0, 5+2:0:0:0:0, 2+4:0:0:0:0, 1+2:0:0:0:0, 5+2:0:1:0:1, 2+1:0:0:0:0, 1+1:0:0:0:0, 1+0:0:0:0:0, 8+4:0:0:0:1, 6+0:0:0:0:0, 5+2:0:0:0:0, 5+2:1:0:0:1, 3+4:1:0:0:1, 1+2:0:0:0:0, 6+4:0:1:0:1, 3+0:0:0:0:0, 8+5:0:0:0:1, 6+0:0:0:0:0, 7+2:0:0:0:0, 4+1:0:0:0:0, 3+2:0:0:0:0, 1+1:0:0:0:0, 5+2:0:1:0:1, 3+0:0:0:0:0, 8+1:0:0:0:0, 6+0:0:0:0:0, 7+0:0:0:0:0, 6+0:0:0:0:0, 10+3:1:0:0:0, 7+4:2:1:0:3, 6+3:0:0:0:0, 8+2:1:0:0:1, 9+3:0:0:0:2, 5+0:0:0:0:0, 7+2:0:0:0:0, 3+0:0:0:0:0, 3+4:0:0:0:0, 1+3:0:0:0:0, 5+2:0:1:0:1, 2+1:0:0:0:0, 2+1:0:0:0:0, 2+1:0:0:0:0, 11+5:0:0:0:4, 6+0:0:0:0:0, 7+2:0:0:0:1, 9+4:0:0:0:3, 5+3:0:0:0:0, 1+2:0:0:0:0, 10+5:1:1:0:2, 3+0:0:0:0:0, 8+3:1:0:0:1, 7+1:0:0:0:1, 5+2:0:0:0:0, 5+2:0:0:0:0, 3+3:0:0:0:0, 2+1:0:0:0:0, 7+5:0:1:0:1, 3+0:0:0:0:0, 6+0:0:0:0:0, 5+0:0:0:0:0, 6+0:0:0:0:0, 7+1:0:0:0:0, 10+4:1:0:0:0, 8+5:2:0:0:2, 6+7:0:0:0:0, 10+5:1:0:0:1, 8+4:0:0:0:3, 6+0:0:0:0:0, 5+3:0:0:0:1, 3+0:0:0:0:0, 5+5:0:0:0:0, 3+3:0:0:0:0, 6+5:2:1:0:3, 4+3:0:0:0:1, 0+1:0:0:0:0, 2+1:0:0:0:0, 8+2:0:0:0:1, 5+1:0:0:0:0, 9+5:1:0:0:1, 7+2:0:0:0:0, 4+2:0:0:0:0, 3+4:2:0:0:2, 6+8:0:1:0:1, 3+1:0:0:0:0, 8+3:0:0:0:1, 5+0:0:0:0:0, 8+5:0:0:0:2, 4+2:0:0:0:0, 3+5:0:0:0:0, 1+3:0:0:0:0, 6+3:0:1:0:1, 3+0:0:0:0:0, 7+0:0:0:0:0, 5+0:0:0:0:0, 7+0:0:0:0:0, 5+0:0:0:0:0, 9+4:1:0:0:0, 8+4:2:0:0:0, 7+6:2:0:0:2, 7+3:1:0:0:1, 7+3:1:0:0:1, 5+1:1:0:0:1, 7+5:0:0:0:1, 3+0:0:0:0:0, 3+2:0:0:0:0, 1+3:0:0:0:0, 7+3:0:1:0:1, 2+0:0:0:0:0, 0+1:0:0:0:0, 3+1:0:0:0:0, 0+1:0:0:0:0, 5+2:0:0:0:0, 0+1:0:0:0:0, 11+6:2:0:0:2, 16+11:0:1:0:7, 1+1:0:0:0:0, 1+0:0:0:0:0, 939+422:44:19:0:112
G# minor (5#), 2+0:0:0:0:0, 5+5:0:0:0:1, 4+5:0:0:0:0, 6+3:0:0:0:1, 6+1:0:0:0:1, 7+4:0:0:0:0, 6+2:0:0:0:0, 7+6:0:1:0:1, 3+2:0:0:0:0, 5+5:0:0:0:1, 4+5:0:0:0:0, 6+3:0:0:0:1, 6+2:0:0:0:0, 7+7:0:0:0:0, 6+1:0:0:0:0, 10+7:0:1:0:4, 2+0:0:0:0:0, 1+0:0:0:0:0, 0+1:0:0:0:0, 2+3:0:0:0:0, 0+0:0:0:0:0, 5+3:1:0:0:1, 5+3:1:0:0:3, 5+4:2:0:0:4, 6+7:1:0:0:3, 5+5:0:0:0:1, 4+5:0:0:0:0, 6+3:0:0:0:1, 6+1:0:0:0:1, 7+4:0:0:0:0, 6+2:0:0:0:0, 7+3:0:1:0:1, 7+2:0:0:0:0, 4+0:0:0:0:0, 1+0:0:0:0:0, 6+7:0:0:0:2, 5+13:0:0:0:0, 11+7:0:0:0:2, 4+2:0:0:0:2, 9+3:0:0:0:0, 8+3:0:1:0:1, 10+7:0:1:0:1, 4+4:0:0:0:0, 4+6:0:0:0:1, 6+10:0:0:0:0, 7+8:1:0:0:1, 6+4:0:0:0:0, 9+6:0:0:0:0, 7+1:0:0:0:0, 10+4:0:1:0:1, 4+2:0:0:0:0, 5+7:0:0:0:0, 1+4:0:1:0:0, 6+5:0:0:0:1, 1+3:0:0:0:0, 9+6:1:0:0:2, 6+6:1:0:0:2, 8+7:0:0:0:1, 7+7:1:0:0:1, 6+8:0:0:0:0, 7+7:0:0:0:0, 7+3:0:0:0:1, 7+6:0:0:0:0, 8+4:0:0:0:0, 7+2:0:0:0:0, 7+2:0:1:0:1, 6+1:0:0:0:0, 5+0:0:0:0:0, 2+1:0:0:0:0, 5+3:0:0:0:2, 4+7:0:0:0:0, 6+5:0:0:0:2, 4+4:0:0:0:0, 9+12:1:0:0:0, 7+3:0:0:0:0, 8+7:0:1:0:4, 2+0:0:0:0:0, 3+3:0:0:0:1, 4+1:0:0:0:0, 9+3:0:0:0:1, 4+2:0:0:0:0, 9+8:0:0:0:0, 7+2:0:0:0:0, 7+11:0:1:0:5, 2+0:0:0:0:0, 2+1:0:0:0:0, 0+3:0:0:0:0, 1+1:0:0:0:0, 0+2:0:0:0:0, 5+5:1:1:0:2, 7+7:2:0:0:3, 6+5:3:0:0:4, 8+7:1:0:0:2, 6+4:0:0:0:1, 4+1:0:0:0:0, 7+3:0:0:0:1, 5+3:0:0:0:0, 8+4:0:0:0:0, 6+3:0:0:0:0, 6+2:0:1:0:1, 5+1:0:0:0:0, 6+1:0:0:0:0, 3+3:0:0:0:0, 8+6:0:0:0:2, 4+6:0:0:0:0, 7+7:1:0:0:1, 6+5:0:0:0:1, 8+4:0:0:0:3, 6+1:0:0:0:0, 13+8:0:1:0:6, 2+0:0:0:0:0, 5+4:0:0:0:1, 6+2:0:0:0:0, 6+3:0:0:0:1, 4+2:0:0:0:0, 8+7:0:0:0:0, 7+2:0:0:0:0, 7+6:0:1:0:4, 2+0:0:0:0:0, 1+0:0:0:0:0, 1+2:0:0:0:0, 1+5:0:0:0:0, 2+0:0:0:0:0, 5+4:1:1:0:2, 7+9:2:0:0:3, 6+11:6:0:0:9, 8+15:1:1:0:4, 4+4:0:0:0:1, 4+5:0:0:0:0, 7+6:0:0:0:2, 5+3:0:0:0:0, 11+5:0:0:0:0, 6+3:1:0:0:1, 7+8:0:1:0:3, 8+3:0:0:0:1, 4+0:0:0:0:0, 2+1:0:0:0:1, 4+6:0:0:0:3, 4+4:0:0:0:0, 11+8:0:0:0:1, 5+3:0:0:0:0, 7+5:0:0:0:4, 8+4:2:0:0:2, 6+7:0:1:0:1, 3+5:0:0:0:0, 5+3:0:0:0:2, 4+7:0:0:0:0, 9+4:0:0:0:2, 4+2:0:0:0:0, 9+10:0:0:0:2, 6+1:0:0:0:0, 7+10:0:1:0:5, 2+0:0:0:0:0, 1+0:0:0:0:0, 0+1:0:0:0:0, 1+1:0:0:0:0, 0+4:0:0:0:0, 6+5:1:1:0:3, 5+6:2:0:0:3, 7+6:4:0:0:5, 8+10:1:1:0:6, 5+5:0:0:0:1, 6+5:0:0:0:0, 10+8:0:0:0:3, 5+3:0:0:0:0, 9+2:0:0:0:0, 6+3:0:0:0:0, 9+6:0:1:0:1, 4+0:0:0:0:0, 4+1:0:0:0:0, 7+1:0:0:0:0, 4+0:0:0:0:0, 7+9:0:0:0:0, 5+1:0:0:0:0, 10+7:2:0:0:3, 14+12:0:1:0:5, 5+6:0:0:0:3, 1+0:0:0:0:0, 980+725:41:23:0:175
Gb major (6b), 1+0:0:0:0:0, 7+3:0:0:0:1, 6+1:0:0:0:0, 7+1:0:0:0:0, 7+1:0:0:0:1, 2+5:0:0:0:0, 2+0:0:0:0:0, 5+3:0:1:0:1, 4+0:0:0:0:0, 7+2:1:0:0:1, 6+2:0:0:0:0, 7+1:0:0:0:0, 7+1:0:0:0:1, 2+5:0:0:0:0, 2+0:0:0:0:0, 7+4:0:1:0:1, 4+0:0:0:0:0, 6+2:0:0:0:0, 4+0:0:0:0:0, 8+1:0:1:0:1, 4+0:0:0:0:0, 8+2:1:0:0:1, 7+3:1:0:0:1, 5+4:0:0:0:1, 6+3:0:0:0:0, 7+2:1:0:0:1, 6+2:0:0:0:0, 7+1:0:0:0:0, 7+1:0:0:0:1, 2+5:0:0:0:0, 2+0:0:0:0:0, 5+3:0:1:0:1, 4+1:0:0:0:0, 1+0:0:0:0:0, 0+0:0:0:0:0, 11+4:0:0:0:2, 8+3:0:0:0:3, 12+5:0:0:0:0, 6+2:0:0:0:0, 4+4:0:0:0:0, 3+1:0:1:0:0, 8+5:0:1:0:2, 7+1:0:0:0:0, 9+5:0:0:0:4, 9+6:0:0:0:5, 8+4:0:0:0:3, 7+1:0:0:0:0, 4+3:0:0:0:0, 2+0:0:0:0:0, 6+5:0:2:0:1, 6+0:0:0:0:0, 9+3:0:0:0:1, 5+1:0:0:0:1, 11+3:0:0:0:0, 6+3:0:0:0:0, 11+7:0:0:0:2, 7+3:1:0:0:0, 7+6:0:0:0:0, 10+5:1:0:0:2, 11+4:0:0:0:1, 8+5:1:0:0:4, 8+1:0:0:0:0, 6+2:0:0:0:0, 3+1:0:0:0:1, 2+0:0:0:0:0, 4+4:0:1:0:2, 3+0:0:0:0:0, 2+0:0:0:0:0, 1+0:0:0:0:0, 9+4:0:0:0:1, 7+0:0:0:0:0, 6+2:0:0:0:0, 6+1:0:0:0:1, 4+6:1:0:0:1, 2+0:0:0:0:0, 5+3:0:1:0:1, 4+0:0:0:0:0, 8+1:0:0:0:0, 7+2:0:0:0:0, 8+2:0:0:0:0, 5+0:0:0:0:0, 4+5:0:0:0:0, 2+0:0:0:0:0, 4+3:0:1:0:1, 4+0:0:0:0:0, 8+2:0:0:0:0, 6+0:0:0:0:0, 7+0:0:0:0:0, 6+0:0:0:0:0, 9+2:1:1:0:1, 8+5:3:0:0:0, 6+3:0:0:0:0, 8+3:0:0:0:1, 9+3:0:0:0:2, 6+0:0:0:0:0, 8+2:0:0:0:0, 4+0:0:0:0:0, 3+3:0:0:0:2, 2+0:0:0:0:0, 4+3:0:1:0:1, 3+0:0:0:0:0, 3+1:0:0:0:1, 2+1:0:0:0:0, 12+5:0:0:0:4, 7+0:0:0:0:0, 8+2:0:0:0:1, 10+4:0:0:0:3, 5+3:0:0:0:0, 2+0:0:0:0:0, 9+8:2:4:0:3, 4+0:0:0:0:0, 8+3:1:0:0:1, 8+1:0:0:0:1, 6+2:0:0:0:0, 6+1:0:0:0:1, 3+4:0:0:0:0, 3+1:0:0:0:1, 6+4:0:1:0:2, 4+0:0:0:0:0, 6+1:0:0:0:0, 5+0:0:0:0:0, 6+0:0:0:0:0, 7+1:0:0:0:0, 10+5:1:0:0:1, 8+4:2:0:0:0, 6+9:0:0:0:0, 10+6:0:0:0:1, 8+2:0:0:0:1, 7+5:0:0:0:0, 6+3:0:0:0:0, 4+0:0:0:0:0, 6+4:0:0:0:2, 4+1:0:0:0:0, 5+6:0:2:0:2, 5+2:0:0:0:0, 1+0:0:0:0:0, 3+1:0:0:0:0, 8+4:0:0:0:0, 6+0:0:0:0:0, 10+5:0:0:0:0, 8+1:0:0:0:0, 4+2:0:0:0:0, 4+2:2:0:0:2, 5+4:0:1:0:2, 4+0:0:0:0:0, 9+3:0:0:0:1, 6+0:0:0:0:0, 8+3:0:0:0:1, 5+0:0:0:0:0, 4+7:0:0:0:0, 2+0:0:0:0:0, 5+4:0:1:0:2, 4+0:0:0:0:0, 7+1:0:0:0:0, 5+0:0:0:0:0, 7+0:0:0:0:0, 5+0:0:0:0:0, 10+4:1:0:0:0, 8+4:2:0:0:0, 7+6:0:0:0:1, 7+3:1:0:0:1, 7+4:0:0:0:1, 6+2:0:0:0:0, 8+5:0:0:0:1, 4+0:0:0:0:0, 4+1:0:0:0:1, 2+0:0:0:0:0, 8+3:0:1:0:1, 3+1:0:0:0:0, 1+0:0:0:0:0, 4+1:0:0:0:1, 1+0:0:0:0:0, 4+3:0:0:0:2, 1+0:0:0:0:0, 12+6:2:0:0:2, 16+11:0:1:0:7, 2+0:0:0:0:0, 1+0:0:0:0:0, 1023+391:26:24:0:110
F# major (6#), 1+0:0:0:0:0, 5+5:1:0:0:2, 5+5:0:0:0:0, 7+3:0:0:0:1, 7+2:0:0:0:0, 7+7:0:0:0:0, 6+1:0:0:0:0, 7+6:0:1:0:1, 4+2:0:0:0:0, 5+5:1:0:0:2, 5+5:0:0:0:0, 7+3:0:0:0:1, 7+2:0:0:0:0, 7+7:0:0:0:0, 6+1:0:0:0:0, 10+7:0:1:0:4, 3+0:0:0:0:0, 2+0:0:0:0:0, 1+0:0:0:0:0, 3+3:0:1:0:1, 1+0:0:0:0:0, 6+3:1:0:0:1, 5+3:1:0:0:3, 6+4:0:0:0:1, 7+7:1:0:0:3, 5+5:1:0:0:2, 5+5:0:0:0:0, 7+3:0:0:0:1, 7+2:0:0:0:0, 7+7:0:0:0:0, 6+1:0:0:0:0, 7+6:0:1:0:1, 7+2:0:0:0:0, 4+0:0:0:0:0, 1+0:0:0:0:0, 7+7:0:0:0:2, 6+13:0:0:0:0, 12+7:0:0:0:2, 5+6:0:0:0:0, 9+8:0:0:0:0, 9+5:0:0:0:0, 10+7:0:1:0:1, 5+4:0:0:0:0, 5+6:0:0:0:1, 7+10:0:0:0:0, 8+5:0:0:0:1, 7+4:0:0:0:0, 9+6:0:0:0:0, 7+3:0:0:0:0, 10+4:0:1:0:1, 5+2:0:0:0:0, 6+7:0:0:0:0, 2+1:0:1:0:0, 7+3:0:0:0:0, 2+1:0:0:0:0, 10+6:1:0:0:2, 6+6:1:0:0:2, 9+7:0:0:0:1, 8+10:1:0:0:3, 7+7:0:0:0:3, 8+7:0:0:0:0, 8+3:0:0:0:1, 8+6:0:0:0:0, 8+4:0:0:0:0, 7+2:0:0:0:0, 7+2:0:1:0:1, 6+1:0:0:0:0, 5+0:0:0:0:0, 2+1:0:0:0:0, 6+3:0:0:0:2, 5+7:0:0:0:0, 6+5:0:0:0:2, 5+4:0:0:0:0, 9+12:1:0:0:0, 7+3:0:0:0:0, 7+10:0:1:0:1, 3+2:0:0:0:0, 4+2:0:0:0:1, 5+6:0:0:0:0, 9+3:0:0:0:1, 5+2:0:0:0:0, 9+8:0:0:0:0, 7+2:0:0:0:0, 7+11:0:1:0:5, 3+0:0:0:0:0, 3+1:0:0:0:0, 1+0:0:0:0:0, 2+2:0:0:0:0, 1+0:0:0:0:0, 6+5:1:1:0:2, 7+7:3:0:0:4, 8+3:0:0:0:1, 9+7:1:0:0:2, 7+4:0:0:0:1, 5+1:0:0:0:0, 8+3:0:0:0:1, 6+3:0:0:0:0, 8+4:0:0:0:0, 6+1:0:0:0:0, 6+8:0:1:0:1, 5+1:0:0:0:0, 6+1:0:0:0:0, 4+3:0:0:0:0, 9+6:0:0:0:2, 5+6:0:0:0:0, 8+5:0:0:0:1, 7+5:0:0:0:1, 9+4:0:0:0:3, 6+1:0:0:0:0, 12+8:0:1:0:2, 3+3:0:0:0:0, 5+3:1:0:0:2, 7+5:0:0:0:0, 6+3:0:0:0:1, 5+2:0:0:0:0, 8+7:0:0:0:0, 7+2:0:0:0:0, 8+6:0:1:0:4, 3+0:0:0:0:0, 2+0:0:0:0:0, 2+0:0:0:0:0, 2+0:0:0:0:0, 3+1:0:0:0:0, 6+4:1:1:0:2, 7+9:2:0:0:3, 9+11:0:0:0:2, 9+15:1:1:0:4, 5+4:0:0:0:1, 5+5:0:0:0:0, 7+6:0:0:0:2, 6+3:0:0:0:0, 11+5:0:0:0:0, 6+2:1:0:0:0, 7+8:0:1:0:3, 8+3:0:0:0:1, 4+0:0:0:0:0, 2+1:0:0:0:1, 5+5:0:0:0:2, 5+4:0:0:0:0, 11+8:0:0:0:1, 6+5:0:0:0:0, 8+5:0:0:0:4, 8+3:2:0:0:0, 7+7:0:1:0:1, 4+5:0:0:0:0, 6+3:0:0:0:2, 5+7:0:0:0:0, 9+4:0:0:0:3, 5+2:0:0:0:0, 9+10:0:0:0:2, 6+1:0:0:0:0, 8+10:0:1:0:5, 3+0:0:0:0:0, 2+0:0:0:0:0, 1+0:0:0:0:0, 2+2:0:0:0:0, 1+0:0:0:0:0, 7+5:1:1:0:3, 6+6:2:0:0:3, 10+6:0:0:0:1, 9+10:1:1:0:6, 5+5:1:0:0:2, 7+5:0:0:0:0, 10+8:0:0:0:3, 6+3:0:0:0:0, 9+2:0:0:0:0, 6+2:0:0:0:0, 9+6:0:1:0:1, 5+1:0:0:0:0, 4+0:0:0:0:0, 8+1:0:0:0:0, 4+0:0:0:0:0, 8+9:0:0:0:0, 5+1:0:0:0:0, 11+6:2:0:0:2, 15+11:0:1:0:7, 5+0:0:0:0:0, 1+0:0:0:0:0, 1088+728:30:23:0:152
Eb minor (6b), 1+0:0:0:0:0, 7+3:0:0:0:1, 6+1:0:0:0:0, 7+1:0:0:0:0, 7+1:0:0:0:1, 2+5:0:0:0:0, 2+1:0:0:0:0, 5+3:0:1:0:1, 4+0:0:0:0:0, 7+2:1:0:0:1, 6+2:0:0:0:0, 7+1:0:0:0:0, 7+1:0:0:0:1, 2+5:0:0:0:0, 2+1:0:0:0:0, 7+4:0:1:0:1, 4+0:0:0:0:0, 6+2:0:0:0:0, 4+0:0:0:0:0, 8+1:0:1:0:1, 4+0:0:0:0:0, 8+2:1:0:0:1, 7+3:1:0:0:1, 5+4:0:0:0:1, 6+3:0:0:0:0, 7+2:1:0:0:1, 6+2:0:0:0:0, 7+1:0:0:0:0, 7+1:0:0:0:1, 2+5:0:0:0:0, 2+1:0:0:0:0, 5+3:0:1:0:1, 4+1:0:0:0:0, 1+0:0:0:0:0, 0+0:0:0:0:0, 11+4:0:0:0:2, 8+3:0:0:0:3, 12+5:0:0:0:0, 6+2:0:0:0:0, 4+4:0:0:0:0, 3+2:0:1:0:0, 8+5:0:1:0:2, 7+1:0:0:0:0, 9+5:0:0:0:4, 9+6:0:0:0:5, 8+4:0:0:0:3, 7+1:0:0:0:0, 4+3:0:0:0:0, 2+1:0:0:0:0, 6+5:0:2:0:1, 6+0:0:0:0:0, 9+3:0:0:0:1, 5+1:0:0:0:1, 11+3:0:0:0:0, 6+3:0:0:0:0, 11+7:0:0:0:2, 7+3:1:0:0:0, 7+6:0:0:0:0, 10+5:1:0:0:2, 11+4:0:0:0:1, 8+5:1:0:0:4, 8+1:0:0:0:0, 6+2:0:0:0:0, 3+4:0:0:0:0, 2+0:0:0:0:0, 4+4:0:1:0:2, 3+0:0:0:0:0, 2+0:0:0:0:0, 1+0:0:0:0:0, 9+4:0:0:0:1, 7+0:0:0:0:0, 6+2:0:0:0:0, 6+1:0:0:0:1, 4+6:1:0:0:1, 2+2:0:0:0:0, 5+3:0:1:0:1, 4+0:0:0:0:0, 8+1:0:0:0:0, 7+2:0:0:0:0, 8+2:0:0:0:0, 5+0:0:0:0:0, 4+5:0:0:0:0, 2+1:0:0:0:0, 4+3:0:1:0:1, 4+0:0:0:0:0, 8+2:0:0:0:0, 6+0:0:0:0:0, 7+0:0:0:0:0, 6+0:0:0:0:0, 10+3:1:0:0:0, 7+4:2:1:0:3, 6+4:0:0:0:3, 8+4:1:0:0:1, 9+3:0:0:0:2, 6+0:0:0:0:0, 8+2:0:0:0:0, 4+0:0:0:0:0, 3+4:0:0:0:0, 2+0:0:0:0:0, 4+3:0:1:0:1, 3+0:0:0:0:0, 3+1:0:0:0:1, 2+1:0:0:0:0, 12+5:0:0:0:4, 7+0:0:0:0:0, 8+2:0:0:0:1, 10+4:0:0:0:3, 5+3:0:0:0:0, 2+2:0:0:0:0, 11+5:1:1:0:2, 4+0:0:0:0:0, 8+3:1:0:0:1, 8+1:0:0:0:1, 6+2:0:0:0:0, 6+1:0:0:0:1, 3+4:0:0:0:0, 3+2:0:0:0:1, 6+4:0:1:0:2, 4+0:0:0:0:0, 6+1:0:0:0:0, 5+0:0:0:0:0, 6+0:0:0:0:0, 7+1:0:0:0:0, 10+5:1:0:0:1, 8+4:2:0:0:0, 6+9:0:0:0:0, 10+6:0:0:0:1, 8+2:0:0:0:1, 7+0:0:0:0:0, 6+3:0:0:0:1, 4+3:0:0:0:0, 6+6:0:0:0:1, 4+2:0:0:0:0, 5+6:0:2:0:2, 5+2:0:0:0:0, 1+0:0:0:0:0, 3+2:0:0:0:0, 8+2:0:0:0:1, 6+1:0:0:0:0, 10+5:0:0:0:0, 8+1:0:0:0:0, 4+2:0:0:0:0, 4+4:2:0:0:2, 5+3:0:1:0:1, 4+0:0:0:0:0, 9+3:0:0:0:1, 6+0:0:0:0:0, 8+3:0:0:0:1, 5+0:0:0:0:0, 4+7:0:0:0:0, 2+1:0:0:0:0, 5+4:0:1:0:2, 4+0:0:0:0:0, 7+1:0:0:0:0, 5+0:0:0:0:0, 7+0:0:0:0:0, 5+0:0:0:0:0, 10+4:1:0:0:0, 8+4:2:0:0:0, 7+6:0:0:0:1, 7+3:1:0:0:1, 7+4:0:0:0:1, 6+2:0:0:0:0, 8+5:0:0:0:1, 4+3:0:0:0:0, 4+4:0:0:0:0, 2+2:0:0:0:0, 8+3:0:1:0:1, 3+1:0:0:0:0, 1+0:0:0:0:0, 4+1:0:0:0:1, 1+0:0:0:0:0, 4+7:0:0:0:1, 1+1:0:0:0:0, 12+6:2:0:0:2, 16+11:0:1:0:7, 2+0:0:0:0:0, 1+0:0:0:0:0, 1025+421:25:21:0:109
D# minor (6#), 1+0:0:0:0:0, 5+5:1:0:0:2, 5+1:0:0:0:0, 7+3:0:0:0:1, 7+2:0:0:0:0, 7+7:0:0:0:0, 6+1:0:0:0:0, 7+6:0:1:0:1, 4+2:0:0:0:0, 5+2:1:0:0:1, 5+2:0:0:0:0, 7+3:0:0:0:1, 7+2:0:0:0:0, 7+7:0:0:0:0, 6+1:0:0:0:0, 10+7:0:1:0:4, 3+0:0:0:0:0, 2+2:0:0:0:0, 1+0:0:0:0:0, 3+5:0:1:0:0, 1+0:0:0:0:0, 6+3:1:0:0:1, 5+3:1:0:0:3, 6+4:0:0:0:1, 7+3:0:0:0:0, 5+2:1:0:0:1, 5+2:0:0:0:0, 7+3:0:0:0:1, 7+2:0:0:0:0, 7+7:0:0:0:0, 6+1:0:0:0:0, 7+6:0:1:0:1, 7+2:0:0:0:0, 4+0:0:0:0:0, 1+0:0:0:0:0, 7+4:0:0:0:2, 6+5:0:0:0:0, 12+7:0:0:0:2, 5+6:0:0:0:0, 9+8:0:0:0:0, 9+5:0:0:0:0, 10+7:0:1:0:1, 5+4:0:0:0:0, 5+5:0:0:0:4, 7+7:0:0:0:0, 8+5:0:0:0:1, 7+4:0:0:0:0, 9+6:0:0:0:0, 7+3:0:0:0:0, 10+4:0:1:0:1, 5+2:0:0:0:0, 6+7:0:0:0:0, 2+4:0:1:0:0, 7+5:0:0:0:1, 2+3:0:0:0:0, 10+9:1:0:0:1, 6+6:1:0:0:2, 9+7:0:0:0:1, 8+10:1:0:0:3, 7+7:0:0:0:3, 8+7:0:0:0:0, 8+3:0:0:0:1, 8+6:0:0:0:0, 8+4:0:0:0:0, 7+2:0:0:0:0, 7+2:0:1:0:1, 6+1:0:0:0:0, 5+0:0:0:0:0, 2+1:0:0:0:0, 6+2:0:0:0:0, 5+2:0:0:0:0, 6+5:0:0:0:2, 5+4:0:0:0:0, 9+12:1:0:0:0, 7+3:0:0:0:0, 7+10:0:1:0:1, 3+2:0:0:0:0, 4+1:0:0:0:0, 5+2:0:0:0:0, 9+3:0:0:0:1, 5+2:0:0:0:0, 9+8:0:0:0:0, 7+2:0:0:0:0, 7+11:0:1:0:5, 3+0:0:0:0:0, 3+2:0:0:0:1, 1+1:0:0:0:0, 2+7:0:0:0:0, 1+2:0:0:0:0, 6+5:1:1:0:2, 7+7:3:0:0:4, 8+3:0:0:0:1, 9+4:0:0:0:0, 7+4:0:0:0:1, 5+1:0:0:0:0, 8+3:0:0:0:1, 6+3:0:0:0:0, 8+4:0:0:0:0, 6+1:0:0:0:0, 6+8:0:1:0:1, 5+1:0:0:0:0, 6+1:0:0:0:0, 4+3:0:0:0:0, 9+4:0:0:0:1, 5+4:0:0:0:0, 8+5:0:0:0:1, 7+5:0:0:0:1, 9+4:0:0:0:3, 6+1:0:0:0:0, 12+8:0:1:0:2, 3+3:0:0:0:0, 5+2:1:0:0:0, 7+4:0:0:0:0, 6+3:0:0:0:1, 5+2:0:0:0:0, 8+7:0:0:0:0, 7+2:0:0:0:0, 8+6:0:1:0:4, 3+0:0:0:0:0, 2+4:0:0:0:0, 2+2:0:0:0:0, 2+5:0:0:0:0, 3+3:0:0:0:1, 6+10:1:1:0:1, 7+9:2:0:0:3, 9+11:0:0:0:2, 10+10:0:0:0:0, 5+2:0:0:0:1, 5+5:0:0:0:0, 7+6:0:0:0:2, 6+3:0:0:0:0, 11+5:0:0:0:0, 6+2:1:0:0:0, 7+8:0:1:0:3, 8+3:0:0:0:1, 4+0:0:0:0:0, 2+1:0:0:0:1, 5+5:0:0:0:2, 5+1:0:0:0:0, 11+8:0:0:0:1, 6+5:0:0:0:0, 8+5:0:0:0:4, 8+3:2:0:0:0, 7+7:0:1:0:1, 4+5:0:0:0:0, 6+2:0:0:0:0, 5+2:0:0:0:0, 9+4:0:0:0:3, 5+2:0:0:0:0, 9+10:0:0:0:2, 6+1:0:0:0:0, 8+10:0:1:0:5, 3+0:0:0:0:0, 2+1:0:0:0:0, 1+4:0:0:0:0, 2+8:0:0:0:0, 1+4:0:0:0:0, 7+5:1:1:0:3, 6+6:2:0:0:3, 10+6:0:0:0:1, 9+6:0:0:0:1, 5+2:1:0:0:1, 6+3:0:0:0:1, 10+8:0:0:0:3, 6+3:0:0:0:0, 9+2:0:0:0:0, 6+2:0:0:0:0, 9+6:0:1:0:1, 5+1:0:0:0:0, 4+0:0:0:0:0, 8+1:0:0:0:0, 4+0:0:0:0:0, 8+9:0:0:0:0, 5+1:0:0:0:0, 11+6:2:0:0:2, 15+11:0:1:0:7, 5+0:0:0:0:0, 1+0:0:0:0:0, 1088+705:26:21:0:131
Cb major (7b), 2+0:0:0:0:0, 7+3:1:0:0:0, 6+0:0:0:0:0, 8+1:0:0:0:0, 8+1:0:0:0:1, 3+4:0:0:0:0, 3+0:0:0:0:0, 6+3:0:1:0:1, 5+0:0:0:0:0, 7+2:1:0:0:1, 6+2:0:0:0:0, 8+1:0:0:0:0, 8+1:0:0:0:1, 3+4:0:0:0:0, 3+0:0:0:0:0, 8+4:0:1:0:1, 4+0:0:0:0:0, 6+2:0:0:0:0, 4+0:0:0:0:0, 8+1:0:1:0:1, 4+0:0:0:0:0, 8+2:1:0:0:1, 7+3:1:0:0:1, 6+4:0:0:0:1, 7+2:0:0:0:0, 7+3:1:0:0:0, 6+0:0:0:0:0, 8+1:0:0:0:0, 8+1:0:0:0:1, 3+4:0:0:0:0, 3+0:0:0:0:0, 6+3:0:1:0:1, 5+1:0:0:0:0, 2+0:0:0:0:0, 1+0:0:0:0:0, 11+6:0:0:0:2, 8+3:0:0:0:3, 13+5:0:0:0:0, 7+3:0:0:0:0, 5+3:0:0:0:0, 4+1:0:1:0:0, 9+5:0:1:0:2, 7+1:0:0:0:0, 9+5:0:0:0:4, 9+6:0:0:0:5, 9+4:0:0:0:3, 8+4:0:0:0:0, 5+3:0:0:0:0, 3+0:0:0:0:0, 7+5:0:2:0:1, 6+0:0:0:0:0, 9+3:0:0:0:1, 6+1:0:0:0:1, 11+3:0:0:0:0, 6+3:0:0:0:0, 12+3:1:0:0:0, 7+3:1:0:0:0, 8+7:0:0:0:4, 10+5:1:0:0:2, 11+4:0:0:0:1, 8+5:1:0:0:4, 9+1:0:0:0:0, 7+2:0:0:0:0, 4+4:0:0:0:0, 3+0:0:0:0:0, 5+4:0:1:0:2, 4+0:0:0:0:0, 3+0:0:0:0:0, 1+0:0:0:0:0, 9+4:0:0:0:1, 7+0:0:0:0:0, 7+2:0:0:0:0, 7+1:0:0:0:1, 5+4:1:0:0:1, 3+0:0:0:0:0, 6+3:0:1:0:1, 4+0:0:0:0:0, 8+2:0:0:0:0, 7+0:0:0:0:0, 9+2:0:0:0:0, 6+1:0:0:0:0, 5+2:0:0:0:0, 3+0:0:0:0:0, 5+3:0:1:0:1, 4+0:0:0:0:0, 8+2:0:0:0:0, 6+0:0:0:0:0, 7+0:0:0:0:0, 6+0:0:0:0:0, 9+2:1:1:0:1, 8+5:3:0:0:0, 7+3:0:0:0:2, 9+2:0:0:0:0, 9+3:0:0:0:0, 6+0:0:0:0:0, 9+2:0:0:0:0, 5+0:0:0:0:0, 4+4:0:0:0:0, 3+0:0:0:0:0, 5+3:0:1:0:1, 4+0:0:0:0:0, 4+1:0:0:0:1, 2+1:0:0:0:0, 12+5:0:0:0:4, 7+0:0:0:0:0, 9+2:0:0:0:1, 11+4:0:0:0:2, 6+3:0:0:0:0, 3+0:0:0:0:0, 10+8:2:4:0:3, 4+0:0:0:0:0, 8+3:1:0:0:1, 8+1:0:0:0:1, 7+2:0:0:0:0, 7+2:0:0:0:0, 4+3:0:0:0:0, 4+1:0:0:0:0, 7+5:0:1:0:1, 4+0:0:0:0:0, 6+1:0:0:0:0, 5+0:0:0:0:0, 6+0:0:0:0:0, 7+1:0:0:0:0, 9+2:1:1:0:1, 8+5:2:0:0:0, 7+7:0:0:0:4, 11+6:0:0:0:2, 8+4:0:0:0:1, 7+0:0:0:0:0, 7+3:0:0:0:0, 5+0:0:0:0:0, 7+5:0:0:0:0, 4+1:1:0:0:1, 6+6:0:2:0:2, 6+2:0:0:0:0, 2+0:0:0:0:0, 3+1:0:0:0:0, 8+4:0:0:0:0, 6+0:0:0:0:0, 11+5:0:0:0:0, 8+1:0:0:0:0, 5+2:0:0:0:0, 5+4:2:0:0:2, 6+8:0:1:0:1, 5+0:0:0:0:0, 9+3:0:0:0:1, 6+0:0:0:0:0, 9+3:0:0:0:1, 6+2:0:0:0:0, 5+5:0:0:0:0, 3+0:0:0:0:0, 6+4:0:1:0:2, 4+0:0:0:0:0, 7+1:0:0:0:0, 5+0:0:0:0:0, 7+0:0:0:0:0, 5+0:0:0:0:0, 10+4:1:0:0:0, 8+4:2:0:0:0, 8+6:2:0:0:4, 8+4:0:0:0:2, 7+3:1:0:0:0, 6+1:1:0:0:1, 9+5:0:0:0:1, 5+0:0:0:0:0, 5+2:0:0:0:0, 3+0:0:0:0:0, 9+3:0:1:0:1, 4+1:0:0:0:1, 2+0:0:0:0:0, 5+1:0:0:0:1, 2+0:0:0:0:0, 5+2:0:1:0:1, 2+0:0:0:0:0, 12+6:2:0:0:2, 17+11:0:1:0:7, 3+0:0:0:0:0, 1+0:0:0:0:0, 1126+385:32:26:0:108
C# major (7#), 0+0:0:0:0:0, 7+7:0:0:0:1, 5+1:0:0:0:0, 8+3:0:0:0:1, 8+2:0:0:0:0, 7+7:0:0:0:0, 6+1:0:0:0:0, 8+8:0:1:0:5, 5+1:0:0:0:0, 7+4:0:0:0:0, 5+1:0:0:0:0, 8+3:0:0:0:1, 8+2:0:0:0:0, 7+7:0:0:0:0, 6+1:0:0:0:0, 11+7:0:1:0:4, 4+0:0:0:0:0, 3+0:0:0:0:0, 2+1:0:0:0:0, 4+3:0:0:0:0, 2+1:0:0:0:0, 7+7:1:0:0:1, 5+3:1:0:0:3, 7+4:0:0:0:1, 7+3:0:0:0:0, 6+5:1:0:0:2, 5+1:0:0:0:0, 8+3:0:0:0:1, 8+2:0:0:0:0, 7+7:0:0:0:0, 6+1:0:0:0:0, 8+6:0:1:0:1, 7+2:0:0:0:0, 4+0:0:0:0:0, 1+0:0:0:0:0, 8+7:0:0:0:2, 7+5:0:0:0:0, 13+7:0:0:0:2, 6+6:0:0:0:0, 9+8:0:0:0:0, 9+5:0:0:0:0, 11+7:0:1:0:5, 6+1:0:0:0:0, 6+7:0:0:0:0, 8+7:0:0:0:0, 9+5:0:0:0:1, 8+4:0:0:0:0, 9+6:0:0:0:0, 7+3:0:0:0:0, 11+4:0:1:0:1, 6+2:0:0:0:0, 7+5:0:0:0:0, 3+2:0:1:0:0, 8+5:0:0:0:1, 3+3:0:0:0:0, 11+9:1:0:0:1, 6+6:1:0:0:2, 10+7:0:0:0:1, 8+7:1:0:0:1, 8+8:0:0:0:0, 8+7:1:0:0:1, 9+3:0:0:0:1, 8+6:0:0:0:0, 8+4:0:0:0:0, 7+2:0:0:0:0, 8+2:0:1:0:1, 6+1:0:0:0:0, 5+0:0:0:0:0, 2+1:0:0:0:0, 7+3:0:0:0:2, 6+1:0:0:0:0, 7+5:0:0:0:2, 6+4:0:0:0:0, 9+12:1:0:0:0, 7+3:0:0:0:0, 9+7:0:1:0:4, 4+0:0:0:0:0, 5+5:0:0:0:0, 6+1:0:0:0:0, 10+3:0:0:0:1, 6+2:0:0:0:0, 9+8:0:0:0:0, 7+2:0:0:0:0, 8+11:0:1:0:5, 4+0:0:0:0:0, 4+1:0:0:0:0, 2+3:0:0:0:0, 3+1:0:0:0:0, 2+1:0:0:0:0, 7+8:1:1:0:1, 6+6:4:1:0:6, 9+3:0:0:0:1, 9+4:0:0:0:0, 8+5:0:0:0:0, 5+1:0:0:0:0, 9+3:0:0:0:1, 6+3:0:0:0:0, 8+4:0:0:0:0, 6+3:0:0:0:0, 7+2:0:1:0:1, 5+1:0:0:0:0, 6+1:0:0:0:0, 4+3:0:0:0:0, 10+6:0:0:0:2, 6+2:0:0:0:0, 9+5:0:0:0:1, 8+5:0:0:0:1, 9+4:0:0:0:3, 6+1:0:0:0:0, 14+8:0:1:0:6, 4+0:0:0:0:0, 6+3:1:0:0:2, 7+2:0:0:0:0, 7+3:0:0:0:1, 6+2:0:0:0:0, 8+7:0:0:0:0, 7+2:0:0:0:0, 9+6:0:1:0:4, 4+0:0:0:0:0, 3+0:0:0:0:0, 3+2:0:0:0:0, 3+5:0:0:0:0, 4+3:0:0:0:1, 7+10:1:1:0:1, 7+9:2:0:0:3, 10+11:0:0:0:2, 10+10:0:0:0:0, 6+4:0:0:0:1, 6+1:0:0:0:0, 8+6:0:0:0:2, 6+3:0:0:0:0, 11+5:0:0:0:0, 6+2:1:0:0:0, 8+8:0:1:0:3, 8+3:0:0:0:1, 4+0:0:0:0:0, 1+1:0:0:0:1, 6+8:0:0:0:4, 5+1:0:0:0:0, 12+8:0:0:0:1, 7+3:0:0:0:0, 8+5:0:0:0:4, 8+3:2:0:0:0, 8+7:0:1:0:1, 5+5:0:0:0:0, 7+3:0:0:0:2, 5+1:0:0:0:0, 10+4:0:0:0:3, 6+2:0:0:0:0, 9+10:0:0:0:2, 6+1:0:0:0:0, 9+10:0:1:0:5, 4+0:0:0:0:0, 3+0:0:0:0:0, 2+1:0:0:0:0, 3+1:0:0:0:0, 2+1:0:0:0:0, 9+5:1:0:0:1, 6+6:2:0:0:3, 11+6:0:0:0:1, 9+6:0:0:0:1, 6+5:1:0:0:2, 6+4:1:0:0:1, 11+8:0:0:0:3, 6+3:0:0:0:0, 9+2:0:0:0:0, 6+2:0:0:0:0, 10+6:0:1:0:1, 5+1:0:0:0:0, 4+0:0:0:0:0, 8+1:0:0:0:0, 4+0:0:0:0:0, 9+9:0:0:0:0, 5+1:0:0:0:0, 11+6:2:0:0:2, 16+11:0:1:0:7, 5+0:0:0:0:0, 1+0:0:0:0:0, 1194+681:27:20:0:144
Ab minor (7b), 2+0:0:0:0:0, 7+3:1:0:0:0, 6+0:0:0:0:0, 8+1:0:0:0:0, 8+1:0:0:0:1, 3+4:0:0:0:0, 3+0:0:0:0:0, 6+3:0:1:0:1, 5+0:0:0:0:0, 7+2:1:0:0:1, 6+2:0:0:0:0, 8+1:0:0:0:0, 8+1:0:0:0:1, 3+4:0:0:0:0, 3+0:0:0:0:0, 8+4:0:1:0:1, 4+0:0:0:0:0, 6+2:0:0:0:0, 4+0:0:0:0:0, 8+1:0:1:0:1, 4+0:0:0:0:0, 8+2:1:0:0:1, 7+3:1:0:0:1, 6+4:0:0:0:1, 7+2:0:0:0:0, 7+3:1:0:0:0, 6+0:0:0:0:0, 8+1:0:0:0:0, 8+1:0:0:0:1, 3+4:0:0:0:0, 3+0:0:0:0:0, 6+3:0:1:0:1, 5+1:0:0:0:0, 2+0:0:0:0:0, 1+0:0:0:0:0, 11+6:0:0:0:2, 8+3:0:0:0:3, 13+5:0:0:0:0, 7+3:0:0:0:0, 5+3:0:0:0:0, 4+1:0:1:0:0, 9+5:0:1:0:2, 7+1:0:0:0:0, 9+5:0:0:0:4, 9+6:0:0:0:5, 9+4:0:0:0:3, 8+4:0:0:0:0, 5+3:0:0:0:0, 3+0:0:0:0:0, 7+5:0:2:0:1, 6+0:0:0:0:0, 9+3:0:0:0:1, 6+1:0:0:0:1, 11+3:0:0:0:0, 6+3:0:0:0:0, 12+3:1:0:0:0, 7+3:1:0:0:0, 8+7:0:0:0:4, 10+5:1:0:0:2, 11+4:0:0:0:1, 8+5:1:0:0:4, 9+1:0:0:0:0, 7+2:0:0:0:0, 4+4:0:0:0:0, 3+0:0:0:0:0, 5+4:0:1:0:2, 4+0:0:0:0:0, 3+0:0:0:0:0, 1+0:0:0:0:0, 9+4:0:0:0:1, 7+0:0:0:0:0, 7+2:0:0:0:0, 7+1:0:0:0:1, 5+4:1:0:0:1, 3+0:0:0:0:0, 6+3:0:1:0:1, 4+0:0:0:0:0, 8+2:0:0:0:0, 7+0:0:0:0:0, 9+2:0:0:0:0, 6+1:0:0:0:0, 5+2:0:0:0:0, 3+0:0:0:0:0, 5+3:0:1:0:1, 4+0:0:0:0:0, 8+2:0:0:0:0, 6+0:0:0:0:0, 7+0:0:0:0:0, 6+0:0:0:0:0, 9+2:1:1:0:1, 8+5:3:0:0:0, 7+3:0:0:0:2, 9+2:0:0:0:0, 9+3:0:0:0:0, 6+0:0:0:0:0, 9+2:0:0:0:0, 5+0:0:0:0:0, 4+4:0:0:0:0, 3+0:0:0:0:0, 5+3:0:1:0:1, 4+0:0:0:0:0, 4+1:0:0:0:1, 2+1:0:0:0:0, 12+5:0:0:0:4, 7+0:0:0:0:0, 9+2:0:0:0:1, 11+4:0:0:0:2, 6+3:0:0:0:0, 3+0:0:0:0:0, 10+8:2:4:0:3, 4+0:0:0:0:0, 8+3:1:0:0:1, 8+1:0:0:0:1, 7+2:0:0:0:0, 7+2:0:0:0:0, 4+3:0:0:0:0, 4+1:0:0:0:0, 7+5:0:1:0:1, 4+0:0:0:0:0, 6+1:0:0:0:0, 5+0:0:0:0:0, 6+0:0:0:0:0, 7+1:0:0:0:0, 9+2:1:1:0:1, 8+5:2:0:0:0, 7+7:0:0:0:4, 11+6:0:0:0:2, 8+4:0:0:0:1, 7+0:0:0:0:0, 7+3:0:0:0:0, 5+0:0:0:0:0, 7+5:0:0:0:0, 4+1:1:0:0:1, 6+6:0:2:0:2, 6+2:0:0:0:0, 2+0:0:0:0:0, 3+1:0:0:0:0, 8+4:0:0:0:0, 6+0:0:0:0:0, 11+5:0:0:0:0, 8+1:0:0:0:0, 5+2:0:0:0:0, 5+4:2:0:0:2, 6+8:0:1:0:1, 5+0:0:0:0:0, 9+3:0:0:0:1, 6+0:0:0:0:0, 9+3:0:0:0:1, 6+2:0:0:0:0, 5+5:0:0:0:0, 3+0:0:0:0:0, 6+4:0:1:0:2, 4+0:0:0:0:0, 7+1:0:0:0:0, 5+0:0:0:0:0, 7+0:0:0:0:0, 5+0:0:0:0:0, 10+4:1:0:0:0, 8+4:2:0:0:0, 8+6:2:0:0:4, 8+4:0:0:0:2, 7+3:1:0:0:0, 6+1:1:0:0:1, 9+5:0:0:0:1, 5+0:0:0:0:0, 5+2:0:0:0:0, 3+0:0:0:0:0, 9+3:0:1:0:1, 4+1:0:0:0:1, 2+0:0:0:0:0, 5+1:0:0:0:1, 2+0:0:0:0:0, 5+2:0:1:0:1, 2+0:0:0:0:0, 12+6:2:0:0:2, 17+11:0:1:0:7, 3+0:0:0:0:0, 1+0:0:0:0:0, 1126+385:32:26:0:108
A# minor (7#), 0+0:0:0:0:0, 7+7:0:0:0:1, 5+1:0:0:0:0, 8+3:0:0:0:1, 8+2:0:0:0:0, 7+7:0:0:0:0, 6+1:0:0:0:0, 8+8:0:1:0:5, 5+1:0:0:0:0, 7+4:0:0:0:0, 5+1:0:0:0:0, 8+3:0:0:0:1, 8+2:0:0:0:0, 7+7:0:0:0:0, 6+1:0:0:0:0, 11+7:0:1:0:4, 4+0:0:0:0:0, 3+0:0:0:0:0, 2+1:0:0:0:0, 4+3:0:0:0:0, 2+1:0:0:0:0, 7+3:1:0:0:1, 5+3:1:0:0:3, 7+4:0:0:0:1, 7+3:0:0:0:0, 6+2:1:0:0:1, 5+1:0:0:0:0, 8+3:0:0:0:1, 8+2:0:0:0:0, 7+7:0:0:0:0, 6+1:0:0:0:0, 8+6:0:1:0:1, 7+2:0:0:0:0, 4+0:0:0:0:0, 1+0:0:0:0:0, 8+4:0:0:0:2, 7+5:0:0:0:0, 13+7:0:0:0:2, 6+6:0:0:0:0, 9+8:0:0:0:0, 9+5:0:0:0:0, 11+7:0:1:0:5, 6+1:0:0:0:0, 6+7:0:0:0:0, 8+7:0:0:0:0, 9+5:0:0:0:1, 8+4:0:0:0:0, 9+6:0:0:0:0, 7+3:0:0:0:0, 10+10:0:2:0:4, 6+1:0:0:0:0, 7+7:0:0:0:0, 3+4:0:1:0:0, 8+5:0:0:0:1, 3+3:0:0:0:0, 11+9:1:0:0:1, 6+6:1:0:0:2, 10+7:0:0:0:1, 8+7:1:0:0:1, 8+8:0:0:0:0, 8+7:1:0:0:1, 9+3:0:0:0:1, 8+6:0:0:0:0, 8+4:0:0:0:0, 7+2:0:0:0:0, 8+2:0:1:0:1, 6+1:0:0:0:0, 5+0:0:0:0:0, 2+1:0:0:0:0, 7+6:0:0:0:0, 6+1:0:0:0:0, 7+5:0:0:0:2, 6+4:0:0:0:0, 9+12:1:0:0:0, 7+3:0:0:0:0, 9+7:0:1:0:4, 4+0:0:0:0:0, 5+5:0:0:0:0, 6+1:0:0:0:0, 10+3:0:0:0:1, 6+2:0:0:0:0, 9+8:0:0:0:0, 7+2:0:0:0:0, 8+11:0:1:0:5, 4+0:0:0:0:0, 4+1:0:0:0:0, 2+3:0:0:0:0, 3+1:0:0:0:0, 2+1:0:0:0:0, 7+8:1:1:0:1, 7+7:3:0:0:4, 9+3:0:0:0:1, 9+4:0:0:0:0, 8+5:0:0:0:0, 5+1:0:0:0:0, 9+3:0:0:0:1, 6+3:0:0:0:0, 8+4:0:0:0:0, 6+3:0:0:0:0, 7+2:0:1:0:1, 5+1:0:0:0:0, 6+1:0:0:0:0, 4+3:0:0:0:0, 10+7:0:0:0:0, 6+2:0:0:0:0, 9+5:0:0:0:1, 8+5:0:0:0:1, 9+4:0:0:0:3, 6+1:0:0:0:0, 14+8:0:1:0:6, 4+0:0:0:0:0, 7+4:0:0:0:1, 7+2:0:0:0:0, 7+3:0:0:0:1, 6+2:0:0:0:0, 8+7:0:0:0:0, 7+2:0:0:0:0, 9+6:0:1:0:4, 4+0:0:0:0:0, 3+0:0:0:0:0, 3+2:0:0:0:0, 3+5:0:0:0:0, 4+3:0:0:0:1, 7+10:1:1:0:1, 7+9:2:0:0:3, 10+11:0:0:0:2, 10+10:0:0:0:0, 6+2:0:0:0:1, 6+1:0:0:0:0, 8+6:0:0:0:2, 6+3:0:0:0:0, 11+5:0:0:0:0, 6+2:1:0:0:0, 8+8:0:1:0:3, 8+3:0:0:0:1, 4+0:0:0:0:0, 1+1:0:0:0:1, 6+8:0:0:0:4, 5+1:0:0:0:0, 12+8:0:0:0:1, 7+3:0:0:0:0, 8+5:0:0:0:4, 8+3:2:0:0:0, 8+7:0:1:0:1, 5+5:0:0:0:0, 7+6:0:0:0:0, 5+1:0:0:0:0, 10+4:0:0:0:3, 6+2:0:0:0:0, 9+10:0:0:0:2, 6+1:0:0:0:0, 9+10:0:1:0:5, 4+0:0:0:0:0, 3+0:0:0:0:0, 2+1:0:0:0:0, 3+1:0:0:0:0, 2+1:0:0:0:0, 9+5:1:0:0:1, 6+6:2:0:0:3, 11+6:0:0:0:1, 9+6:0:0:0:1, 6+2:1:0:0:1, 6+4:1:0:0:1, 11+8:0:0:0:3, 6+3:0:0:0:0, 9+2:0:0:0:0, 6+2:0:0:0:0, 10+6:0:1:0:1, 5+1:0:0:0:0, 4+0:0:0:0:0, 8+1:0:0:0:0, 4+0:0:0:0:0, 9+9:0:0:0:0, 5+1:0:0:0:0, 11+6:2:0:0:2, 16+11:0:1:0:7, 5+0:0:0:0:0, 1+0:0:0:0:0, 1195+684:25:20:0:136
