 , 0, 1, 2, 3, 4, 5, 6, 7, 8, 9, 10, 11, 12, 13, 14, 15, 16, 17, 18, 19, 20, 21, 22, 23, 24, 25, 26, 27, 28, 29, 30, 31, 32, 33, 34, 35, 36, 37, 38, 39, 40, 41, 42, 43, 44, 45, 46, 47, 48, 49, 50, 51, 52, 53, 54, 55, 56, 57, 58, 59, 60, 61, 62, 63, 64, 65, 66, 67, 68, 69, 70, 71, 72, 73, 74, 75, 76, 77, 78, 79, 80, 81, 82, 83, 84, 85, 86, 87, 88, 89, 90, 91, 92, 93, 94, 95, 96, 97, 98, 99, 100, 101, 102, 103, 104, 105, 106, 107, 108, 109, 110, 111, 112, 113, 114, 115, 116, 117, 118, 119, 120, 121, 122, 123, 124, 125, 126, 127, 128, 129, 130, 131, 132, 133, 134, 135, 136, 137, 138, 139, 140, 141, 142, 143, 144, 145, 146, 147, 148, 149, 150, 151, 152, 153, 154, 155, 156, 157, 158, 159, 160, 161, 162, 163, 164, 165, 166, 167, 168, 169, 170, 171, 172, 173, 174, 175, 176, 177, 178, 179, 180, 181, 182, 183, 184, 185, 186, 187, 188, 189, 190, 191, 192, 193, 194, 195, 196, 197, 198, 199, 200, 201, 202, 203, 204, 205, 206, 207, 208, 209, 210, 211, 212, 213, 214, 215, 216, 217, 218, 219, 220, 221, 222, 223, 224, 225, rowcost
C major (0), 0+0:0:0:0:0, 0+0:0:0:0:0, 0+0:0:0:0:0, 1+0:0:0:0:0, 0+0:0:0:0:0, 2+3:0:0:0:0, 1+0:0:0:0:0, 2+1:0:0:0:0, 0+0:0:0:0:0, 0+0:0:0:0:0, 1+0:0:0:0:0, 2+1:0:0:0:0, 0+0:0:0:0:0, 1+0:0:0:0:0, 0+0:0:0:0:0, 0+0:0:0:0:0, 0+0:0:0:0:0, 1+1:0:0:0:0, 1+1:0:0:0:0, 1+0:0:0:0:0, 0+0:0:0:0:0, 2+1:0:0:0:0, 2+0:0:0:0:0, 2+1:0:0:0:0, 0+0:0:0:0:0, 1+0:0:0:0:0, 1+0:0:0:0:0, 0+0:0:0:0:0, 1+0:0:0:0:0, 1+0:0:0:0:0, 0+0:0:0:0:0, 0+0:0:0:0:0, 1+0:0:0:0:0, 1+1:0:0:0:1, 2+1:0:0:0:0, 1+1:0:0:0:0, 0+0:0:0:0:0, 1+3:0:0:0:0, 1+0:0:0:0:0, 2+1:0:0:0:0, 1+0:0:0:0:0, 1+1:0:0:0:0, 1+0:0:0:0:0, 3+1:0:0:0:0, 0+0:0:0:0:0, 1+0:0:0:0:0, 2+2:0:0:0:0, 0+0:0:0:0:0, 0+0:0:0:0:0, 1+1:0:0:0:1, 2+2:0:0:0:0, 2+0:0:0:0:0, 1+1:0:0:0:0, 1+0:0:0:0:0, 3+1:0:0:0:0, 0+0:0:0:0:0, 1+1:0:0:0:0, 0+0:0:0:0:0, 0+0:0:0:0:0, 0+0:0:0:0:0, 1+0:0:0:0:0, 0+0:0:0:0:0, 1+1:0:0:0:0, 0+0:0:0:0:0, 2+1:0:0:0:0, 0+0:0:0:0:0, 2+1:0:0:0:0, 1+1:0:0:0:0, 1+0:0:0:0:0, 2+1:0:0:0:0, 0+0:0:0:0:0, 3+2:0:0:0:0, 1+0:0:0:0:0, 2+2:0:0:0:0, 2+1:0:0:0:0, 0+0:0:0:0:0, 1+0:0:0:0:0, 1+0:0:0:0:0, 0+0:0:0:0:0, 0+0:0:0:0:0, 1+1:0:0:0:0, 0+0:0:0:0:0, 2+2:0:0:0:0, 2+0:0:0:0:0, 1+1:0:0:0:0, 1+0:0:0:0:0, 4+1:0:0:0:0, 0+0:0:0:0:0, 2+1:0:0:0:0, 1+0:0:0:0:0, 1+1:0:0:0:0, 1+1:0:0:0:0, 2+1:0:0:0:0, 2+1:0:0:0:1, 0+0:0:0:0:0, 0+0:0:0:0:0, 2+1:0:0:0:0, 0+0:0:0:0:0, 2+1:0:0:0:0, 1+1:0:0:0:0, 0+0:0:0:0:0, 1+2:0:0:0:0, 1+1:0:0:0:1, 2+1:0:0:0:0, 1+1:0:0:0:0, 1+0:0:0:0:0, 1+0:0:0:0:0, 2+1:0:0:0:0, 1+0:0:0:0:0, 1+0:0:0:0:0, 0+0:0:0:0:0, 0+0:0:0:0:0, 1+0:0:0:0:0, 1+1:0:0:0:0, 3+3:0:0:0:0, 1+1:0:0:0:0, 1+0:0:0:0:0, 0+0:0:0:0:0, 3+1:0:0:0:0, 0+0:0:0:0:0, 1+1:0:0:0:1, 1+0:0:0:0:0, 1+1:0:0:0:0, 1+1:0:0:0:0, 0+0:0:0:0:0, 1+0:0:0:0:0, 0+0:0:0:0:0, 1+1:0:0:0:0, 2+1:0:0:0:0, 0+0:0:0:0:0, 0+0:0:0:0:0, 1+0:0:0:0:0, 0+0:0:0:0:0, 2+2:2:0:0:0, 1+0:0:0:0:0, 1+1:0:0:0:0, 2+1:0:0:0:0, 0+0:0:0:0:0, 1+0:0:0:0:0, 0+0:0:0:0:0, 1+1:0:0:0:1, 2+1:0:0:0:0, 1+1:0:0:0:1, 0+0:0:0:0:0, 1+1:0:0:0:0, 0+0:0:0:0:0, 2+2:0:0:0:0, 2+0:0:0:0:0, 1+1:0:0:0:0, 1+0:0:0:0:0, 2+0:0:0:0:0, 0+0:0:0:0:0, 1+2:0:0:0:0, 1+0:0:0:0:0, 1+1:0:0:0:0, 1+1:0:0:0:0, 2+1:0:0:0:0, 1+0:0:0:0:0, 0+0:0:0:0:0, 0+0:0:0:0:0, 1+1:0:0:0:0, 2+1:1:0:0:0, 0+0:0:0:0:0, 1+1:0:0:0:0, 1+0:0:0:0:0, 1+3:0:0:0:0, 1+0:0:0:0:0, 2+1:0:0:0:0, 1+0:0:0:0:0, 1+1:0:0:0:0, 0+0:0:0:0:0, 2+1:0:0:0:0, 0+0:0:0:0:0, 1+0:0:0:0:0, 0+0:0:0:0:0, 0+0:0:0:0:0, 0+0:0:0:0:0, 1+1:0:0:0:1, 4+3:0:0:0:0, 0+0:0:0:0:0, 1+0:0:0:0:0, 0+0:0:0:0:0, 1+3:0:0:0:0, 1+1:0:0:0:0, 2+1:0:0:0:0, 1+0:0:0:0:0, 1+1:0:0:0:0, 1+1:0:0:0:0, 2+1:0:0:0:0, 1+2:0:0:0:0, 1+1:0:0:0:0, 1+1:0:0:0:0, 0+0:0:0:0:0, 1+1:0:0:0:0, 1+1:0:0:0:0, 2+1:0:0:0:0, 1+0:0:0:0:0, 1+2:0:0:0:2, 0+0:0:0:0:0, 1+1:0:0:0:0, 1+0:0:0:0:0, 1+0:0:0:0:0, 1+1:0:0:0:0, 0+0:0:0:0:0, 2+1:0:0:0:0, 1+1:0:0:0:0, 1+1:0:0:0:0, 1+1:0:0:0:0, 0+0:0:0:0:0, 1+0:0:0:0:0, 1+1:0:0:0:0, 1+1:0:0:0:0, 1+0:0:0:0:0, 3+2:0:0:0:0, 1+1:0:0:0:0, 1+1:0:0:0:0, 1+1:0:0:0:0, 2+1:0:0:0:0, 0+0:0:0:0:0, 1+1:0:0:0:0, 0+0:0:0:0:0, 2+1:1:0:0:1, 0+0:0:0:0:0, 0+0:0:0:0:0, 0+0:0:0:0:0, 0+0:0:0:0:0, 216+128:4:0:0:11
A minor (0), 0+1:0:0:0:0, 0+1:0:0:0:0, 0+1:0:0:0:0, 1+0:0:0:0:0, 0+0:0:0:0:0, 2+3:0:0:0:3, 1+0:0:0:0:0, 2+3:0:0:0:1, 0+2:0:0:0:0, 0+2:0:0:0:0, 1+0:0:0:0:0, 2+3:0:0:0:1, 0+0:0:0:0:0, 1+2:0:0:0:0, 0+0:0:0:0:0, 0+0:0:0:0:0, 0+1:0:0:0:0, 1+1:0:0:0:0, 1+1:0:0:0:0, 1+0:0:0:0:0, 0+0:0:0:0:0, 2+1:0:0:0:1, 3+2:0:0:0:2, 2+4:0:0:0:0, 0+2:0:0:0:0, 1+1:0:0:0:0, 1+0:0:0:0:0, 0+0:0:0:0:0, 1+0:0:0:0:0, 1+2:0:0:0:0, 0+0:0:0:0:0, 0+2:0:0:0:0, 1+0:0:0:0:0, 1+1:0:0:0:0, 2+1:0:0:0:0, 1+1:0:0:0:0, 0+0:0:0:0:0, 2+1:0:0:0:1, 1+0:0:0:0:0, 2+3:0:0:0:1, 1+1:0:0:0:0, 1+1:0:0:0:1, 1+0:0:0:0:0, 2+1:0:0:0:0, 0+3:0:0:0:0, 1+2:0:0:0:0, 2+1:0:0:0:1, 0+3:0:0:0:0, 0+0:0:0:0:0, 1+1:0:0:0:0, 2+2:0:0:0:0, 2+0:0:0:0:0, 1+3:0:0:0:0, 1+0:0:0:0:0, 3+2:0:0:0:0, 0+0:0:0:0:0, 1+1:0:0:0:0, 0+1:0:0:0:0, 0+2:0:0:0:0, 0+0:0:0:0:0, 1+0:0:0:0:0, 0+1:0:0:0:0, 1+1:0:0:0:0, 0+2:0:0:0:0, 2+1:0:0:0:1, 0+1:0:0:0:0, 2+1:0:0:0:0, 1+1:0:0:0:0, 1+1:0:0:0:0, 3+3:0:0:0:1, 0+2:0:0:0:0, 2+1:0:0:0:0, 1+0:0:0:0:0, 2+2:0:0:0:2, 2+1:0:0:0:0, 0+2:0:0:0:0, 1+0:0:0:0:0, 1+2:0:0:0:0, 0+1:0:0:0:0, 0+3:0:0:0:0, 1+3:0:0:0:1, 0+0:0:0:0:0, 2+2:0:0:0:0, 2+0:0:0:0:0, 1+3:0:0:0:0, 1+0:0:0:0:0, 4+2:0:0:0:0, 0+1:0:0:0:0, 2+1:0:0:0:0, 1+1:0:0:0:0, 1+2:0:0:0:0, 1+1:0:0:0:0, 2+2:0:0:0:0, 2+1:0:0:0:0, 0+1:0:0:0:0, 0+2:0:0:0:0, 2+1:0:0:0:1, 0+1:0:0:0:0, 2+1:0:0:0:0, 1+1:0:0:0:0, 0+2:0:0:0:0, 2+1:0:0:0:1, 1+3:0:0:0:1, 2+2:0:0:0:0, 1+3:0:0:0:0, 1+0:0:0:0:0, 1+0:0:0:0:0, 2+3:0:0:0:1, 1+0:0:0:0:0, 1+2:0:0:0:0, 0+0:0:0:0:0, 0+3:0:0:0:0, 1+4:0:0:0:0, 1+0:0:0:0:0, 3+1:0:0:0:1, 1+0:0:0:0:0, 1+0:0:0:0:0, 0+1:0:0:0:0, 3+1:0:0:0:0, 0+0:0:0:0:0, 1+1:0:0:0:1, 1+1:0:0:0:0, 1+1:0:0:0:0, 1+1:0:0:0:0, 0+2:0:0:0:0, 1+2:0:0:0:0, 0+1:0:0:0:0, 1+3:0:0:0:1, 2+1:0:0:0:1, 0+1:0:0:0:0, 0+2:0:0:0:0, 1+2:0:0:0:0, 0+1:0:0:0:0, 3+1:1:0:0:1, 1+5:0:0:0:0, 1+2:0:0:0:0, 2+1:0:0:0:1, 0+0:0:0:0:0, 1+0:0:0:0:0, 0+2:0:0:0:0, 2+1:0:0:0:0, 2+1:0:0:0:0, 1+1:0:0:0:0, 0+2:0:0:0:0, 1+4:0:0:0:1, 0+0:0:0:0:0, 2+2:0:0:0:0, 2+0:0:0:0:0, 1+3:0:0:0:0, 1+0:0:0:0:0, 2+0:0:0:0:0, 0+0:0:0:0:0, 1+2:0:0:0:0, 1+2:0:0:0:0, 1+1:0:0:0:0, 1+1:0:0:0:0, 3+3:0:0:0:0, 1+2:0:0:0:0, 0+1:0:0:0:0, 0+2:0:0:0:0, 1+1:0:0:0:0, 2+3:0:0:0:0, 0+0:0:0:0:0, 1+2:0:0:0:0, 1+1:0:0:0:0, 2+1:0:0:0:1, 1+0:0:0:0:0, 2+3:0:0:0:0, 1+1:0:0:0:0, 1+2:0:0:0:0, 0+2:0:0:0:0, 2+3:0:0:0:1, 0+0:0:0:0:0, 1+2:0:0:0:0, 0+1:0:0:0:0, 0+3:0:0:0:0, 0+0:0:0:0:0, 1+1:0:0:0:1, 4+3:0:0:0:0, 0+1:0:0:0:0, 1+1:0:0:0:0, 0+3:0:0:0:0, 1+4:0:0:0:3, 1+2:0:0:0:0, 2+1:0:0:0:0, 1+1:0:0:0:0, 1+2:0:0:0:0, 1+1:0:0:0:0, 3+3:0:0:0:0, 1+3:0:0:0:0, 1+3:0:0:0:0, 1+0:0:0:0:0, 0+2:0:0:0:0, 1+1:0:0:0:0, 1+1:0:0:0:0, 2+1:0:0:0:0, 1+2:0:0:0:0, 1+2:0:0:0:2, 0+0:0:0:0:0, 1+2:0:0:0:0, 1+0:0:0:0:0, 1+1:0:0:0:0, 1+2:0:0:0:0, 0+0:0:0:0:0, 2+1:0:0:0:0, 1+1:0:0:0:0, 1+1:0:0:0:0, 1+1:0:0:0:0, 0+2:0:0:0:0, 1+3:0:0:0:0, 1+2:0:0:0:0, 1+1:0:0:0:0, 1+0:0:0:0:0, 4+3:0:0:0:1, 1+2:0:0:0:0, 1+0:0:0:0:0, 1+2:0:0:0:0, 2+3:0:0:0:1, 0+0:0:0:0:0, 1+2:0:0:0:1, 0+0:0:0:0:0, 2+2:1:0:0:1, 0+0:0:0:0:0, 0+0:0:0:0:0, 0+0:0:0:0:0, 0+0:0:0:0:0, 224+296:2:0:0:40
F major (1b), 0+0:0:0:0:0, 0+0:0:0:0:0, 0+0:0:0:0:0, 0+0:0:0:0:0, 0+0:0:0:0:0, 1+3:0:0:0:0, 0+0:0:0:0:0, 1+1:0:0:0:0, 0+0:0:0:0:0, 0+0:0:0:0:0, 0+0:0:0:0:0, 1+1:0:0:0:0, 0+0:0:0:0:0, 0+0:0:0:0:0, 0+0:0:0:0:0, 0+0:0:0:0:0, 0+0:0:0:0:0, 1+1:0:1:0:0, 1+0:0:0:0:0, 0+0:0:0:0:0, 0+0:0:0:0:0, 1+1:0:0:0:0, 2+0:0:0:0:0, 1+1:0:0:0:0, 0+0:0:0:0:0, 0+0:0:0:0:0, 1+0:0:0:0:0, 0+0:0:0:0:0, 0+0:0:0:0:0, 0+0:0:0:0:0, 0+0:0:0:0:0, 0+0:0:0:0:0, 0+0:0:0:0:0, 1+1:0:0:0:1, 1+1:0:0:0:0, 2+1:0:0:0:0, 0+0:0:0:0:0, 2+3:0:0:0:0, 0+0:0:0:0:0, 1+1:0:0:0:0, 0+0:0:0:0:0, 1+1:0:0:0:0, 0+0:0:0:0:0, 3+1:0:0:0:0, 0+0:0:0:0:0, 0+0:0:0:0:0, 2+1:0:0:0:0, 0+0:0:0:0:0, 0+0:0:0:0:0, 2+1:0:0:0:1, 1+2:0:0:0:0, 2+0:0:0:0:0, 1+1:0:0:0:0, 0+0:0:0:0:0, 3+1:0:0:0:0, 1+0:0:0:0:0, 1+1:0:0:0:0, 0+0:0:0:0:0, 0+0:0:0:0:0, 0+0:0:0:0:0, 0+0:0:0:0:0, 0+0:0:0:0:0, 1+1:0:0:0:0, 1+0:0:0:0:0, 1+1:0:0:0:0, 1+0:0:0:0:0, 1+1:0:0:0:0, 2+1:0:0:0:0, 0+0:0:0:0:0, 2+1:0:0:0:0, 0+0:0:0:0:0, 3+2:0:0:0:0, 0+0:0:0:0:0, 1+2:0:0:0:0, 1+1:0:0:0:0, 0+0:0:0:0:0, 0+0:0:0:0:0, 0+0:0:0:0:0, 0+0:0:0:0:0, 0+0:0:0:0:0, 1+1:0:0:0:0, 1+3:0:0:0:0, 1+2:0:0:0:0, 2+0:0:0:0:0, 1+1:0:0:0:0, 0+0:0:0:0:0, 4+1:0:0:0:0, 1+0:0:0:0:0, 1+1:0:0:0:0, 0+0:0:0:0:0, 1+0:0:0:0:0, 1+1:0:0:0:0, 2+1:0:0:0:0, 2+1:0:0:0:1, 0+0:0:0:0:0, 0+0:0:0:0:0, 1+1:0:0:0:0, 1+0:0:0:0:0, 1+1:0:0:0:0, 2+1:0:0:0:0, 0+0:0:0:0:0, 2+2:0:0:0:0, 1+1:0:0:0:0, 3+2:0:0:0:0, 1+1:0:0:0:0, 0+0:0:0:0:0, 0+0:0:0:0:0, 1+1:0:0:0:0, 0+0:0:0:0:0, 0+0:0:0:0:0, 0+0:0:0:0:0, 0+0:0:0:0:0, 1+4:0:0:0:0, 2+0:0:0:0:0, 2+2:0:0:0:0, 2+1:0:0:0:0, 0+0:0:0:0:0, 0+0:0:0:0:0, 3+1:0:0:0:0, 1+0:0:0:0:0, 1+1:0:0:0:0, 1+1:0:0:0:0, 2+1:0:0:0:0, 1+1:0:0:0:0, 0+0:0:0:0:0, 0+0:0:0:0:0, 0+0:0:0:0:0, 1+1:0:0:0:0, 1+1:0:0:0:0, 1+0:0:0:0:0, 0+0:0:0:0:0, 0+0:0:0:0:0, 0+0:0:0:0:0, 3+3:0:0:0:0, 0+0:0:0:0:0, 2+1:0:0:0:0, 1+1:0:0:0:0, 0+0:0:0:0:0, 0+0:0:0:0:0, 0+0:0:0:0:0, 1+1:0:0:0:0, 2+1:0:1:0:1, 1+1:1:0:0:1, 0+0:0:0:0:0, 1+1:0:0:0:0, 1+3:0:0:0:0, 1+2:0:0:0:0, 2+0:0:0:0:0, 1+1:0:0:0:0, 0+0:0:0:0:0, 2+0:0:0:0:0, 1+0:0:0:0:0, 1+2:0:0:0:0, 1+0:0:0:0:0, 2+1:0:0:0:0, 1+1:0:0:0:0, 2+2:0:0:0:0, 0+0:0:0:0:0, 0+0:0:0:0:0, 0+0:0:0:0:0, 1+1:0:0:0:0, 2+1:1:0:0:1, 0+0:0:0:0:0, 1+1:0:0:0:0, 0+0:0:0:0:0, 2+3:0:0:0:0, 0+0:0:0:0:0, 3+3:0:0:0:0, 0+0:0:0:0:0, 1+1:0:0:0:0, 0+0:0:0:0:0, 1+1:0:0:0:0, 0+0:0:0:0:0, 0+0:0:0:0:0, 0+0:0:0:0:0, 0+0:0:0:0:0, 0+0:0:0:0:0, 2+1:0:0:0:1, 3+3:0:0:0:0, 0+0:0:0:0:0, 0+0:0:0:0:0, 0+0:0:0:0:0, 2+3:0:0:0:0, 2+1:0:0:0:0, 1+1:0:0:0:0, 0+0:0:0:0:0, 1+0:0:0:0:0, 1+1:0:0:0:0, 2+1:0:0:0:0, 0+0:0:0:0:0, 1+0:0:0:0:0, 1+1:0:0:0:0, 0+0:0:0:0:0, 2+1:0:0:0:0, 2+1:0:0:0:0, 2+1:0:0:0:0, 1+0:0:0:0:0, 2+2:0:0:0:0, 1+0:0:0:0:0, 1+1:0:0:0:0, 0+0:0:0:0:0, 0+0:0:0:0:0, 1+0:0:0:0:0, 0+0:0:0:0:0, 1+1:0:0:0:0, 2+1:0:0:0:0, 2+1:0:0:0:0, 1+1:0:0:0:0, 0+0:0:0:0:0, 0+0:0:0:0:0, 1+0:0:0:0:0, 1+1:0:0:0:0, 0+0:0:0:0:0, 2+2:0:0:0:0, 1+2:0:0:0:0, 1+0:0:0:0:0, 1+2:0:0:0:1, 1+1:0:0:0:0, 0+0:0:0:0:0, 1+1:0:0:0:0, 0+0:0:0:0:0, 2+1:0:0:0:0, 0+0:0:0:0:0, 0+0:0:0:0:0, 0+0:0:0:0:0, 0+0:0:0:0:0, 180+134:2:2:0:8
G major (1#), 1+0:0:0:0:0, 1+0:0:0:0:0, 1+0:0:0:0:0, 2+3:0:0:0:0, 0+0:0:0:0:0, 3+4:0:0:0:0, 1+0:0:0:0:0, 2+1:0:0:0:0, 0+0:0:0:0:0, 0+0:0:0:0:0, 1+0:0:0:0:0, 2+2:0:0:0:0, 0+0:0:0:0:0, 1+0:0:0:0:0, 1+3:0:0:0:0, 1+0:0:0:0:0, 1+0:0:0:0:0, 2+1:0:0:0:0, 1+0:0:0:0:0, 1+0:0:0:0:0, 0+0:0:0:0:0, 3+2:0:0:0:0, 2+3:0:0:0:0, 1+1:0:0:0:1, 1+3:0:0:0:0, 2+3:0:0:0:0, 1+0:0:0:0:0, 0+0:0:0:0:0, 1+0:0:0:0:0, 1+1:0:0:0:0, 1+2:0:0:0:0, 1+2:0:0:0:0, 2+3:0:0:0:0, 2+1:0:0:0:1, 2+1:0:0:0:1, 2+1:0:0:0:0, 0+0:0:0:0:0, 2+3:0:0:0:0, 1+0:0:0:0:0, 2+1:0:0:0:0, 1+0:0:0:0:0, 2+1:0:0:0:1, 1+0:0:0:0:0, 2+1:1:0:0:1, 0+0:0:0:0:0, 1+0:0:0:0:0, 3+2:0:0:0:0, 1+1:0:0:0:0, 1+3:0:0:0:0, 1+1:0:0:0:1, 2+2:0:0:0:0, 1+0:0:0:0:0, 2+1:0:0:0:0, 1+0:0:0:0:0, 3+2:0:0:0:0, 0+0:0:0:0:0, 2+1:0:0:0:0, 1+0:0:0:0:0, 0+0:0:0:0:0, 0+0:0:0:0:0, 1+0:0:0:0:0, 0+0:0:0:0:0, 2+1:0:0:0:0, 0+0:0:0:0:0, 3+4:0:0:0:0, 1+1:0:0:0:0, 3+3:0:0:0:0, 2+2:0:0:0:0, 1+0:0:0:0:0, 3+1:0:0:0:1, 1+0:0:0:0:0, 2+1:1:0:0:1, 1+0:0:0:0:0, 1+0:0:0:0:0, 1+1:0:0:0:1, 0+0:0:0:0:0, 1+0:0:0:0:0, 1+0:0:0:0:0, 1+3:0:0:0:0, 1+1:0:0:0:0, 1+2:0:0:0:0, 1+0:0:0:0:0, 2+2:0:0:0:0, 1+0:0:0:0:0, 2+1:0:0:0:0, 1+0:0:0:0:0, 4+2:0:0:0:0, 0+0:0:0:0:0, 3+3:0:0:0:0, 2+2:0:0:0:0, 1+0:0:0:0:0, 1+1:0:0:0:1, 2+1:0:0:0:0, 1+1:0:0:0:1, 1+0:0:0:0:0, 0+0:0:0:0:0, 3+3:0:0:0:0, 1+1:0:0:0:0, 2+1:0:0:0:1, 2+1:0:0:0:0, 1+0:0:0:0:0, 2+2:0:0:0:0, 1+1:0:0:0:1, 1+1:0:0:0:0, 2+1:0:0:0:0, 1+0:0:0:0:0, 1+0:0:0:0:0, 2+1:0:0:0:0, 1+0:0:0:0:0, 1+0:0:0:0:0, 1+0:0:0:0:0, 1+1:0:0:0:0, 2+3:0:0:0:0, 1+1:0:0:0:0, 3+1:0:0:0:1, 1+1:0:0:0:1, 1+0:0:0:0:0, 0+0:0:0:0:0, 4+1:0:0:0:0, 0+0:0:0:0:0, 2+1:0:0:0:1, 2+1:0:0:0:0, 1+1:0:0:0:0, 2+1:0:0:0:0, 1+0:0:0:0:0, 1+0:0:0:0:0, 1+0:0:0:0:0, 1+1:0:0:0:0, 3+3:0:0:0:0, 1+1:0:0:0:0, 1+2:0:0:0:0, 2+1:0:0:0:0, 1+1:0:0:0:0, 1+2:2:0:0:0, 1+0:0:0:0:0, 1+1:0:0:0:0, 2+1:0:0:0:0, 1+0:0:0:0:0, 1+0:0:0:0:0, 0+0:0:0:0:0, 1+1:0:0:0:1, 2+1:0:0:0:0, 2+1:0:0:0:1, 1+0:0:0:0:0, 1+2:0:0:0:0, 1+0:0:0:0:0, 2+2:0:0:0:0, 1+0:0:0:0:0, 2+1:0:0:0:0, 1+0:0:0:0:0, 3+2:0:0:0:0, 0+0:0:0:0:0, 2+2:0:0:0:0, 2+0:0:0:0:0, 1+1:0:0:0:0, 1+1:0:0:0:0, 2+1:0:0:0:0, 1+0:0:0:0:0, 1+3:0:0:0:0, 0+0:0:0:0:0, 2+1:0:0:0:0, 3+1:1:0:0:0, 1+2:0:0:0:0, 2+2:0:0:0:0, 1+0:0:0:0:0, 1+3:0:0:0:0, 1+0:0:0:0:0, 1+1:0:0:0:0, 1+0:0:0:0:0, 2+1:0:0:0:0, 1+0:0:0:0:0, 2+1:0:0:0:0, 1+0:0:0:0:0, 1+2:0:0:0:0, 1+0:0:0:0:0, 1+0:0:0:0:0, 1+0:0:0:0:0, 1+1:0:0:0:1, 4+3:0:0:0:0, 0+0:0:0:0:0, 1+0:0:0:0:0, 0+0:0:0:0:0, 1+3:0:0:0:0, 0+0:0:0:0:0, 3+4:0:0:0:0, 2+2:0:0:0:0, 1+0:0:0:0:0, 1+1:0:0:0:1, 2+1:0:0:0:0, 1+0:0:0:0:0, 1+0:0:0:0:0, 1+1:0:0:0:0, 1+0:0:0:0:0, 1+1:0:0:0:0, 1+1:0:0:0:0, 2+1:0:0:0:0, 1+2:0:0:0:0, 1+2:0:0:0:2, 0+0:0:0:0:0, 2+1:0:0:0:0, 1+0:0:0:0:0, 1+0:0:0:0:0, 1+0:0:0:0:0, 1+0:0:0:0:0, 1+1:0:0:0:1, 1+1:0:0:0:0, 1+1:0:0:0:0, 2+1:0:0:0:0, 1+0:0:0:0:0, 1+0:0:0:0:0, 1+0:0:0:0:0, 1+1:0:0:0:1, 1+0:0:0:0:0, 2+1:0:0:0:1, 1+0:0:0:0:0, 1+0:0:0:0:0, 2+2:0:0:0:1, 1+0:0:0:0:0, 1+3:0:0:0:0, 3+4:0:0:0:0, 1+2:0:0:0:0, 4+4:0:0:0:0, 1+1:0:0:0:0, 1+1:0:0:0:0, 1+1:0:0:0:0, 1+1:0:0:0:0, 296+207:5:0:0:26
D minor (1b), 0+1:0:0:0:0, 0+0:0:0:0:0, 0+1:0:0:0:0, 0+0:0:0:0:0, 0+0:0:0:0:0, 1+3:0:0:0:3, 0+0:0:0:0:0, 1+3:0:0:0:1, 0+0:0:0:0:0, 0+0:0:0:0:0, 0+0:0:0:0:0, 1+3:0:0:0:1, 0+0:0:0:0:0, 0+2:0:0:0:0, 0+2:0:0:0:0, 0+1:0:0:0:0, 0+1:0:0:0:0, 1+3:0:1:0:1, 1+0:0:0:0:0, 0+0:0:0:0:0, 0+0:0:0:0:0, 1+1:0:0:0:1, 3+2:0:0:0:2, 1+4:0:0:0:0, 0+2:0:0:0:0, 0+1:0:0:0:0, 1+0:0:0:0:0, 0+0:0:0:0:0, 0+0:0:0:0:0, 0+2:0:0:0:0, 0+0:0:0:0:0, 0+1:0:0:0:0, 0+0:0:0:0:0, 1+1:0:0:0:0, 1+1:0:0:0:0, 2+1:0:0:0:0, 0+0:0:0:0:0, 3+1:0:0:0:1, 0+0:0:0:0:0, 1+3:0:0:0:1, 0+1:0:0:0:0, 1+1:0:0:0:1, 0+0:0:0:0:0, 3+1:0:0:0:0, 0+0:0:0:0:0, 0+2:0:0:0:0, 2+2:0:0:0:0, 0+0:0:0:0:0, 0+3:0:0:0:0, 2+1:0:0:0:0, 1+2:0:0:0:0, 2+0:0:0:0:0, 1+1:0:0:0:0, 0+0:0:0:0:0, 3+1:0:0:0:0, 1+1:0:0:0:0, 1+0:0:0:0:0, 0+1:0:0:0:0, 0+1:0:0:0:0, 0+1:0:0:0:0, 0+0:0:0:0:0, 0+2:0:0:0:0, 1+1:0:0:0:1, 1+2:0:0:0:0, 1+1:0:0:0:1, 1+1:0:0:0:0, 1+1:0:0:0:0, 2+1:0:0:0:0, 0+1:0:0:0:0, 2+3:0:0:0:3, 0+0:0:0:0:0, 3+2:0:0:0:0, 0+0:0:0:0:0, 1+2:0:0:0:2, 1+1:0:0:0:0, 0+2:0:0:0:0, 0+0:0:0:0:0, 0+2:0:0:0:0, 0+0:0:0:0:0, 0+1:0:0:0:0, 1+3:0:0:0:1, 1+0:0:0:0:0, 1+2:0:0:0:0, 2+0:0:0:0:0, 1+1:0:0:0:0, 0+0:0:0:0:0, 4+1:0:0:0:0, 1+1:0:0:0:0, 1+1:0:0:0:0, 0+1:0:0:0:0, 1+0:0:0:0:0, 1+1:0:0:0:1, 2+1:0:0:0:0, 2+1:1:0:0:0, 0+2:0:0:0:0, 0+2:0:0:0:0, 1+1:0:0:0:1, 1+1:0:0:0:0, 1+1:0:0:0:0, 2+1:0:0:0:0, 0+2:0:0:0:0, 3+1:0:0:0:1, 1+1:0:0:0:0, 2+2:0:0:0:0, 1+1:0:0:0:0, 0+0:0:0:0:0, 0+0:0:0:0:0, 1+3:0:0:0:1, 0+0:0:0:0:0, 0+2:0:0:0:0, 0+0:0:0:0:0, 0+1:0:0:0:0, 1+3:0:0:0:0, 2+0:0:0:0:0, 2+1:0:0:0:1, 2+0:0:0:0:0, 0+0:0:0:0:0, 0+0:0:0:0:0, 3+1:0:0:0:0, 1+1:0:0:0:0, 1+1:0:0:0:0, 1+2:0:0:0:1, 2+1:0:0:0:0, 1+1:0:0:0:1, 0+0:0:0:0:0, 0+2:0:0:0:0, 0+0:0:0:0:0, 2+2:0:0:0:0, 1+1:0:0:0:1, 1+1:0:0:0:0, 0+0:0:0:0:0, 0+2:0:0:0:0, 0+1:0:0:0:0, 3+2:2:0:0:2, 0+0:0:0:0:0, 1+2:0:0:0:0, 1+1:0:0:0:1, 0+0:0:0:0:0, 0+0:0:0:0:0, 0+2:0:0:0:0, 1+1:0:0:0:0, 3+1:0:0:0:0, 1+1:0:0:0:0, 0+1:0:0:0:0, 1+4:0:0:0:1, 1+0:0:0:0:0, 1+2:0:0:0:0, 2+0:0:0:0:0, 1+1:0:0:0:0, 0+0:0:0:0:0, 2+0:0:0:0:0, 1+1:0:0:0:0, 1+2:0:0:0:2, 1+2:0:0:0:2, 2+1:0:0:0:0, 1+1:0:0:0:0, 2+1:1:0:0:1, 0+2:0:0:0:0, 0+0:0:0:0:0, 0+2:0:0:0:0, 1+1:0:0:0:0, 2+1:1:0:0:1, 0+0:0:0:0:0, 1+1:0:0:0:1, 0+1:0:0:0:0, 3+1:0:0:0:1, 0+0:0:0:0:0, 2+2:0:0:0:0, 0+1:0:0:0:0, 1+1:0:0:0:1, 0+0:0:0:0:0, 1+3:0:0:0:1, 0+0:0:0:0:0, 0+2:0:0:0:0, 0+0:0:0:0:0, 0+1:0:0:0:0, 0+3:0:0:0:0, 2+2:0:0:0:0, 3+3:0:0:0:0, 0+0:0:0:0:0, 0+1:0:0:0:0, 0+0:0:0:0:0, 2+4:0:0:0:3, 2+2:0:0:0:0, 1+1:0:0:0:0, 0+1:0:0:0:0, 1+0:0:0:0:0, 1+1:0:0:0:0, 2+1:1:0:0:1, 0+3:0:0:0:0, 1+0:0:0:0:0, 1+1:0:0:0:1, 0+0:0:0:0:0, 2+1:0:0:0:0, 2+1:0:0:0:0, 2+2:0:0:0:1, 1+2:0:0:0:2, 2+2:0:0:0:0, 1+0:0:0:0:0, 1+1:0:0:0:1, 0+0:0:0:0:0, 0+1:0:0:0:0, 1+0:0:0:0:0, 0+0:0:0:0:0, 1+1:0:0:0:0, 2+1:0:0:0:0, 2+1:0:0:0:0, 1+1:0:0:0:1, 0+0:0:0:0:0, 0+3:0:0:0:0, 1+0:0:0:0:0, 1+1:0:0:0:0, 0+0:0:0:0:0, 3+3:0:0:0:1, 1+2:0:0:0:0, 1+0:0:0:0:0, 1+2:0:0:0:1, 1+3:0:0:0:1, 0+0:0:0:0:0, 1+2:0:0:0:1, 0+0:0:0:0:0, 2+4:0:0:0:0, 0+0:0:0:0:0, 0+0:0:0:0:0, 0+0:0:0:0:0, 0+0:0:0:0:0, 184+238:6:1:0:56
E minor (1#), 1+1:0:0:0:0, 1+1:0:0:0:0, 1+1:0:0:0:0, 2+0:0:0:0:0, 0+0:0:0:0:0, 3+3:0:0:0:3, 1+0:0:0:0:0, 2+3:0:0:0:1, 0+2:0:0:0:0, 0+2:0:0:0:0, 1+0:0:0:0:0, 2+3:0:0:0:1, 0+2:0:0:0:0, 1+2:0:0:0:0, 1+0:0:0:0:0, 1+0:0:0:0:0, 1+1:0:0:0:0, 2+1:0:0:0:0, 1+1:0:0:0:0, 1+0:0:0:0:0, 0+2:0:0:0:0, 3+1:0:0:0:1, 3+3:0:0:0:2, 1+2:0:0:0:1, 1+0:0:0:0:0, 2+1:0:0:0:0, 1+0:0:0:0:0, 0+0:0:0:0:0, 1+0:0:0:0:0, 1+2:0:0:0:0, 1+0:0:0:0:0, 1+2:0:0:0:0, 2+0:0:0:0:0, 2+1:0:0:0:0, 2+1:0:0:0:1, 2+1:0:0:0:0, 0+0:0:0:0:0, 3+1:0:0:0:1, 1+0:0:0:0:0, 2+3:0:0:0:1, 1+1:0:0:0:0, 2+2:0:0:0:0, 1+0:0:0:0:0, 2+1:0:0:0:0, 0+3:0:0:0:0, 1+2:0:0:0:0, 3+1:0:0:0:1, 1+3:0:0:0:0, 1+0:0:0:0:0, 1+1:0:0:0:0, 2+2:0:0:0:0, 1+0:0:0:0:0, 2+1:0:0:0:0, 1+0:0:0:0:0, 3+2:0:0:0:0, 0+1:0:0:0:0, 2+1:0:0:0:0, 1+1:0:0:0:0, 0+2:0:0:0:0, 0+0:0:0:0:0, 1+0:0:0:0:0, 0+1:0:0:0:0, 2+1:0:0:0:0, 0+2:0:0:0:0, 3+1:0:0:0:1, 1+1:0:0:0:0, 2+1:0:0:0:1, 2+1:0:0:0:0, 1+1:0:0:0:0, 4+3:0:0:0:1, 1+2:0:0:0:0, 2+1:0:0:0:0, 1+0:0:0:0:0, 1+2:2:0:0:0, 2+1:0:0:0:0, 0+1:0:0:0:0, 1+0:0:0:0:0, 1+2:0:0:0:0, 1+1:0:0:0:0, 1+3:0:0:0:0, 1+3:0:0:0:0, 1+0:0:0:0:0, 2+2:0:0:0:0, 1+0:0:0:0:0, 2+1:0:0:0:0, 1+0:0:0:0:0, 4+2:0:0:0:0, 0+1:0:0:0:0, 2+1:0:0:0:1, 2+1:0:0:0:0, 1+2:0:0:0:0, 1+1:0:0:0:0, 2+2:0:0:0:0, 1+1:0:0:0:0, 1+1:0:0:0:0, 0+2:0:0:0:0, 3+1:0:0:0:1, 1+1:0:0:0:0, 2+1:0:0:0:1, 2+1:0:0:0:0, 1+2:0:0:0:0, 3+1:0:0:0:1, 1+1:0:0:0:0, 1+2:0:0:0:0, 2+3:0:0:0:0, 1+0:0:0:0:0, 1+0:0:0:0:0, 2+3:0:0:0:1, 1+0:0:0:0:0, 1+2:0:0:0:0, 1+0:0:0:0:0, 1+3:0:0:0:0, 2+3:0:0:0:0, 1+1:0:0:0:0, 3+1:0:0:0:1, 1+0:0:0:0:0, 1+3:0:0:0:0, 0+1:0:0:0:0, 4+2:1:1:0:2, 0+0:0:0:0:0, 2+1:0:0:0:1, 2+1:0:0:0:0, 1+1:0:0:0:0, 2+1:0:0:0:0, 1+2:0:0:0:0, 1+2:0:0:0:0, 1+1:0:0:0:0, 1+3:0:0:0:1, 3+1:0:0:0:1, 1+1:0:0:0:0, 1+2:0:0:0:0, 2+2:0:0:0:0, 1+1:0:0:0:0, 1+3:2:0:0:2, 1+5:0:0:0:0, 1+2:0:0:0:0, 3+4:0:0:0:0, 1+3:0:0:0:0, 1+3:0:0:0:0, 0+1:0:0:0:0, 1+1:0:0:0:0, 2+2:0:0:0:0, 2+2:0:0:0:1, 1+2:0:0:0:0, 1+2:0:0:0:0, 1+0:0:0:0:0, 2+2:0:0:0:0, 1+0:0:0:0:0, 2+1:0:0:0:0, 1+0:0:0:0:0, 3+2:0:0:0:2, 0+1:0:0:0:0, 2+2:0:0:0:0, 2+2:0:0:0:0, 1+1:0:0:0:0, 1+3:0:0:0:0, 2+1:1:0:0:1, 1+2:0:0:0:0, 1+1:0:0:0:0, 0+2:0:0:0:0, 2+1:0:0:0:0, 3+3:0:0:0:0, 1+0:0:0:0:0, 2+2:0:0:0:0, 1+1:0:0:0:0, 2+1:0:0:0:1, 1+3:0:0:0:0, 1+3:0:0:0:0, 1+3:0:0:0:0, 2+2:0:0:0:0, 1+2:0:0:0:0, 2+3:0:0:0:1, 1+3:0:0:0:0, 1+3:0:0:0:0, 1+1:0:0:0:0, 1+3:0:0:0:0, 1+0:0:0:0:0, 1+2:0:0:0:0, 4+3:0:0:0:0, 0+1:0:0:0:0, 1+1:0:0:0:0, 0+3:0:0:0:0, 1+4:0:0:0:3, 0+0:0:0:0:0, 2+1:0:0:0:1, 2+1:0:0:0:0, 1+2:0:0:0:0, 1+1:0:0:0:0, 3+3:0:0:0:0, 1+3:0:0:0:0, 1+3:0:0:0:0, 1+0:0:0:0:0, 1+2:0:0:0:0, 1+1:0:0:0:0, 1+1:0:0:0:0, 2+1:0:0:0:0, 3+2:0:0:0:0, 1+2:0:0:0:0, 0+0:0:0:0:0, 2+2:0:0:0:0, 1+0:0:0:0:0, 1+1:0:0:0:0, 1+2:0:0:0:0, 1+0:0:0:0:0, 1+3:0:0:0:1, 1+1:0:0:0:0, 1+1:0:0:0:0, 2+1:0:0:0:0, 1+2:0:0:0:0, 1+3:0:0:0:0, 1+2:0:0:0:0, 1+1:0:0:0:0, 1+0:0:0:0:0, 3+3:1:0:0:0, 1+2:0:0:0:0, 1+0:0:0:0:0, 2+2:0:0:0:0, 1+3:1:0:0:0, 1+0:0:0:0:0, 2+2:0:0:0:1, 1+0:0:0:0:0, 3+3:0:0:0:0, 1+0:0:0:0:0, 1+0:0:0:0:0, 1+0:0:0:0:0, 1+0:0:0:0:0, 302+318:8:1:0:41
Bb major (2b), 0+0:0:0:0:0, 1+0:0:0:0:0, 0+0:0:0:0:0, 0+0:0:0:0:0, 0+0:0:0:0:0, 1+0:0:0:0:0, 0+0:0:0:0:0, 1+1:0:0:0:0, 0+0:0:0:0:0, 0+0:0:0:0:0, 0+0:0:0:0:0, 2+1:0:0:0:0, 0+0:0:0:0:0, 0+0:0:0:0:0, 0+0:0:0:0:0, 1+0:0:0:0:0, 0+0:0:0:0:0, 1+1:0:1:0:0, 0+0:0:0:0:0, 0+0:0:0:0:0, 0+0:0:0:0:0, 1+1:0:0:0:0, 3+0:0:0:0:0, 1+1:0:0:0:0, 0+0:0:0:0:0, 0+0:0:0:0:0, 0+0:0:0:0:0, 0+0:0:0:0:0, 0+0:0:0:0:0, 1+0:0:0:0:0, 0+0:0:0:0:0, 0+0:0:0:0:0, 0+0:0:0:0:0, 2+1:1:0:0:1, 1+1:0:0:0:0, 1+1:0:1:0:0, 0+0:0:0:0:0, 2+3:0:0:0:0, 0+0:0:0:0:0, 1+1:0:0:0:0, 0+0:0:0:0:0, 2+1:0:0:0:0, 0+0:0:0:0:0, 3+2:0:0:0:0, 0+0:0:0:0:0, 0+0:0:0:0:0, 1+1:0:0:0:0, 0+0:0:0:0:0, 1+0:0:0:0:0, 2+1:0:0:0:0, 2+2:0:0:0:0, 2+1:0:0:0:0, 2+1:0:0:0:0, 0+0:0:0:0:0, 2+3:0:0:0:0, 2+1:0:0:0:0, 1+1:0:0:0:0, 1+0:0:0:0:0, 1+0:0:0:0:0, 0+0:0:0:0:0, 0+0:0:0:0:0, 1+0:0:0:0:0, 2+1:0:0:0:0, 2+0:0:0:0:0, 1+1:0:0:0:0, 2+1:0:0:0:0, 1+1:0:0:0:0, 1+1:0:1:0:0, 0+0:0:0:0:0, 2+1:0:0:0:0, 1+0:0:0:0:0, 3+2:0:0:0:0, 0+0:0:0:0:0, 1+2:0:0:0:0, 1+1:0:0:0:0, 1+0:0:0:0:0, 0+0:0:0:0:0, 0+0:0:0:0:0, 0+0:0:0:0:0, 0+0:0:0:0:0, 1+1:0:0:0:0, 2+3:0:0:0:0, 2+2:0:0:0:0, 2+1:0:0:0:0, 2+1:0:0:0:0, 0+0:0:0:0:0, 4+1:0:0:0:0, 2+1:0:0:0:0, 1+1:0:0:0:0, 0+0:0:0:0:0, 0+0:0:0:0:0, 1+1:0:0:0:0, 2+1:0:0:0:0, 2+1:0:0:0:1, 0+0:0:0:0:0, 1+0:0:0:0:0, 1+1:0:0:0:0, 2+1:0:0:0:0, 1+1:0:0:0:0, 1+1:0:1:0:0, 0+0:0:0:0:0, 2+1:0:0:0:1, 1+1:0:0:0:1, 3+1:0:0:0:0, 2+1:0:0:0:0, 0+0:0:0:0:0, 0+0:0:0:0:0, 1+1:0:0:0:0, 0+0:0:0:0:0, 0+0:0:0:0:0, 1+0:0:0:0:0, 0+0:0:0:0:0, 0+3:0:0:0:0, 3+1:0:0:0:0, 1+1:0:0:0:1, 2+1:0:0:0:0, 0+0:0:0:0:0, 0+0:0:0:0:0, 3+1:0:0:0:0, 2+1:0:0:0:0, 1+1:0:0:0:0, 1+1:0:0:0:0, 2+1:0:0:0:0, 2+1:0:0:0:0, 1+0:0:0:0:0, 0+0:0:0:0:0, 1+0:0:0:0:0, 2+1:0:0:0:0, 1+1:0:0:0:0, 2+1:0:0:0:0, 0+0:0:0:0:0, 0+0:0:0:0:0, 0+0:0:0:0:0, 3+0:0:0:0:0, 0+0:0:0:0:0, 2+1:0:0:0:0, 1+1:0:0:0:0, 1+0:0:0:0:0, 0+0:0:0:0:0, 1+0:0:0:0:0, 1+1:0:0:0:0, 2+1:0:1:0:0, 1+1:1:0:0:1, 0+0:0:0:0:0, 1+1:0:0:0:0, 2+3:0:0:0:0, 2+2:0:0:0:0, 2+1:0:0:0:0, 2+1:0:0:0:0, 0+0:0:0:0:0, 2+3:0:0:0:0, 2+1:0:0:0:0, 1+2:0:0:0:0, 1+0:0:0:0:0, 2+1:0:0:0:0, 1+1:0:0:0:0, 2+1:0:0:0:0, 0+0:0:0:0:0, 0+0:0:0:0:0, 1+0:0:0:0:0, 2+1:0:0:0:0, 2+1:1:0:0:1, 0+0:0:0:0:0, 1+1:0:0:0:0, 0+0:0:0:0:0, 2+1:0:0:0:1, 0+0:0:0:0:0, 3+2:0:0:0:0, 0+0:0:0:0:0, 2+1:0:0:0:0, 1+0:0:0:0:0, 1+1:0:0:0:0, 1+0:0:0:0:0, 1+0:0:0:0:0, 1+0:0:0:0:0, 0+0:0:0:0:0, 1+0:0:0:0:0, 2+1:0:0:0:0, 2+1:0:0:0:0, 0+0:0:0:0:0, 0+0:0:0:0:0, 0+0:0:0:0:0, 2+3:0:0:0:0, 2+1:0:0:0:0, 1+1:0:0:0:0, 0+0:0:0:0:0, 0+0:0:0:0:0, 1+1:0:0:0:0, 2+1:0:0:0:0, 0+0:0:0:0:0, 0+0:0:0:0:0, 1+1:0:0:0:0, 1+0:0:0:0:0, 2+1:0:0:0:0, 2+1:0:0:0:0, 2+1:0:0:0:0, 1+0:0:0:0:0, 2+2:0:0:0:0, 1+0:0:0:0:0, 2+1:0:0:0:0, 0+0:0:0:0:0, 0+0:0:0:0:0, 0+0:0:0:0:0, 1+0:0:0:0:0, 1+1:0:0:0:0, 2+1:0:0:0:0, 2+1:0:0:0:0, 2+1:0:0:0:0, 1+0:0:0:0:0, 0+0:0:0:0:0, 0+0:0:0:0:0, 1+1:0:0:0:0, 0+0:0:0:0:0, 2+2:0:0:0:0, 0+0:0:0:0:0, 2+1:0:0:0:0, 2+1:0:0:0:0, 1+1:0:0:0:0, 0+0:0:0:0:0, 1+1:0:0:0:0, 0+0:0:0:0:0, 1+1:0:0:0:0, 0+0:0:0:0:0, 0+0:0:0:0:0, 0+0:0:0:0:0, 0+0:0:0:0:0, 218+133:3:5:0:8
D major (2#), 2+1:0:0:0:0, 1+0:0:0:0:0, 2+1:0:0:0:0, 2+0:0:0:0:0, 0+0:0:0:0:0, 3+3:0:0:0:3, 1+0:0:0:0:0, 3+3:0:0:0:1, 0+0:0:0:0:0, 0+0:0:0:0:0, 1+0:0:0:0:0, 3+3:0:0:0:1, 0+0:0:0:0:0, 2+2:0:0:0:0, 2+2:0:0:0:0, 2+1:0:0:0:0, 2+1:0:0:0:0, 3+2:0:0:0:0, 1+0:0:0:0:0, 1+0:0:0:0:0, 0+0:0:0:0:0, 3+1:0:0:0:1, 2+2:0:0:0:2, 3+4:0:0:0:0, 2+2:0:0:0:0, 3+1:0:0:0:0, 1+0:0:0:0:0, 0+0:0:0:0:0, 1+0:0:0:0:0, 2+2:0:0:0:0, 1+0:0:0:0:0, 2+1:0:0:0:0, 2+0:0:0:0:0, 2+1:1:1:0:1, 3+1:0:0:0:0, 3+1:0:0:0:0, 1+1:0:0:0:0, 3+1:0:0:0:1, 1+0:0:0:0:0, 3+3:0:0:0:1, 2+1:0:0:0:0, 2+1:0:0:0:1, 1+0:0:0:0:0, 3+2:0:0:0:0, 0+0:0:0:0:0, 2+2:0:0:0:0, 3+2:0:0:0:1, 1+0:0:0:0:0, 2+3:0:0:0:0, 1+1:0:0:0:1, 2+2:0:0:0:0, 0+0:0:0:0:0, 2+1:0:0:0:0, 1+0:0:0:0:0, 4+5:0:0:0:2, 1+0:0:0:0:0, 1+2:0:0:0:0, 2+1:0:0:0:0, 1+1:0:0:0:0, 1+1:0:0:0:0, 1+0:0:0:0:0, 1+2:0:0:0:0, 2+1:0:0:0:1, 1+2:0:0:0:0, 3+1:0:0:0:1, 2+2:0:0:0:0, 3+1:0:0:0:0, 3+1:0:0:0:0, 2+1:0:0:0:0, 3+3:0:0:0:3, 1+0:0:0:0:0, 3+2:0:0:0:0, 1+0:0:0:0:0, 1+2:2:0:0:0, 2+1:0:0:0:0, 1+2:0:0:0:0, 1+0:0:0:0:0, 2+2:0:0:0:0, 1+0:0:0:0:0, 2+1:0:0:0:0, 2+3:1:0:0:0, 1+3:0:0:0:0, 2+2:0:0:0:0, 0+0:0:0:0:0, 2+1:0:0:0:0, 1+0:0:0:0:0, 5+1:0:0:0:0, 1+3:0:0:0:0, 3+1:0:0:0:0, 3+1:0:0:0:0, 1+1:0:0:0:0, 1+1:1:1:0:1, 2+1:0:0:0:0, 2+1:0:0:0:1, 1+0:0:0:0:0, 1+2:0:0:0:0, 3+1:0:0:0:1, 2+2:0:0:0:0, 3+1:0:0:0:0, 3+1:0:0:0:0, 2+1:0:0:0:0, 3+1:0:0:0:1, 2+1:0:0:0:0, 2+2:0:0:0:0, 2+1:0:0:0:0, 1+0:0:0:0:0, 1+0:0:0:0:0, 3+3:0:0:0:1, 1+0:0:0:0:0, 2+2:0:0:0:0, 1+0:0:0:0:0, 2+1:0:0:0:0, 3+4:0:0:0:0, 0+0:0:0:0:0, 3+1:1:0:0:0, 2+0:0:0:0:0, 1+0:0:0:0:0, 1+1:0:0:0:0, 4+1:0:0:0:0, 1+3:0:0:0:0, 3+1:0:0:0:0, 3+2:0:0:0:1, 2+1:0:0:0:0, 2+1:0:0:0:1, 1+0:0:0:0:0, 2+2:0:0:0:0, 1+0:0:0:0:0, 1+2:0:0:0:0, 3+1:0:0:0:1, 2+2:0:0:0:0, 1+0:0:0:0:0, 3+2:0:0:0:0, 2+1:0:0:0:0, 1+2:2:0:0:2, 1+0:0:0:0:0, 2+1:0:0:0:0, 2+1:0:0:0:1, 1+0:0:0:0:0, 1+0:0:0:0:0, 1+2:0:0:0:0, 1+1:0:0:0:1, 3+2:0:0:0:0, 1+1:0:0:0:0, 2+1:0:0:0:0, 2+4:1:0:0:0, 1+3:0:0:0:0, 2+2:0:0:0:0, 0+0:0:0:0:0, 2+1:0:0:0:0, 1+0:0:0:0:0, 3+0:0:0:0:0, 1+3:0:0:0:0, 2+2:0:0:0:2, 2+2:0:0:0:2, 2+1:0:0:0:0, 2+1:0:0:0:0, 1+1:1:0:0:1, 2+2:0:0:0:0, 1+0:0:0:0:0, 1+2:0:0:0:0, 2+1:0:0:0:1, 3+2:1:0:0:1, 2+1:0:0:0:0, 2+1:0:0:0:1, 2+1:0:0:0:0, 2+1:0:0:0:1, 1+0:0:0:0:0, 2+2:0:0:0:0, 2+1:0:0:0:0, 2+1:0:0:0:1, 1+0:0:0:0:0, 3+3:0:0:0:1, 1+0:0:0:0:0, 2+2:0:0:0:0, 1+0:0:0:0:0, 2+1:0:0:0:0, 2+3:0:0:0:0, 1+1:0:0:0:1, 3+3:1:0:0:0, 0+0:0:0:0:0, 2+1:0:0:0:0, 0+0:0:0:0:0, 1+4:0:0:0:1, 1+2:0:0:0:0, 3+1:0:0:0:0, 3+1:0:0:0:0, 1+1:0:0:0:0, 1+1:1:1:0:1, 1+1:1:0:0:1, 2+3:0:0:0:0, 1+1:0:0:0:0, 1+1:0:0:0:1, 1+0:0:0:0:0, 2+1:0:0:0:0, 2+1:0:0:0:0, 2+2:1:1:0:2, 1+2:0:0:0:2, 2+2:0:0:0:2, 1+0:0:0:0:0, 2+1:0:0:0:1, 1+0:0:0:0:0, 2+1:0:0:0:0, 2+2:0:0:0:0, 1+0:0:0:0:0, 2+1:0:0:0:0, 2+1:0:0:0:0, 2+1:0:0:0:0, 2+1:0:0:0:1, 1+0:0:0:0:0, 2+3:0:0:0:0, 1+1:0:0:0:0, 1+1:1:1:0:1, 1+0:0:0:0:0, 4+3:1:0:0:0, 2+2:0:0:0:0, 0+0:0:0:0:0, 3+2:0:0:0:1, 2+3:1:0:0:0, 1+0:0:0:0:0, 3+2:0:0:0:1, 1+0:0:0:0:0, 4+2:1:0:0:1, 1+0:0:0:0:0, 1+0:0:0:0:0, 1+0:0:0:0:0, 1+0:0:0:0:0, 390+263:19:5:0:61
G minor (2b), 0+2:0:0:0:0, 1+0:0:0:0:0, 0+2:0:0:0:0, 0+3:0:0:0:0, 0+0:0:0:0:0, 1+1:0:0:0:0, 0+0:0:0:0:0, 1+1:0:0:0:0, 0+0:0:0:0:0, 0+0:0:0:0:0, 0+0:0:0:0:0, 2+3:0:0:0:1, 0+0:0:0:0:0, 0+0:0:0:0:0, 0+3:0:0:0:0, 1+1:0:0:0:0, 0+2:0:0:0:0, 1+3:0:1:0:1, 0+0:0:0:0:0, 0+0:0:0:0:0, 0+0:0:0:0:0, 1+2:0:0:0:0, 4+2:0:0:0:2, 1+4:0:0:0:0, 0+3:0:0:0:0, 0+3:0:0:0:0, 0+0:0:0:0:0, 0+0:0:0:0:0, 0+0:0:0:0:0, 1+2:0:0:0:0, 0+2:0:0:0:0, 0+2:0:0:0:0, 0+3:0:0:0:0, 2+1:0:0:0:0, 1+1:0:0:0:0, 1+2:0:1:0:1, 0+1:0:0:0:0, 3+1:0:0:0:1, 0+0:0:0:0:0, 1+1:0:0:0:0, 0+0:0:0:0:0, 2+1:0:0:0:1, 0+0:0:0:0:0, 2+1:1:0:0:1, 0+0:0:0:0:0, 0+0:0:0:0:0, 1+2:0:0:0:0, 0+1:0:0:0:0, 1+3:0:0:0:0, 2+1:0:0:0:1, 2+2:0:0:0:0, 2+0:0:0:0:0, 2+1:0:0:0:0, 0+0:0:0:0:0, 2+2:0:0:0:0, 2+0:0:0:0:0, 1+3:0:0:0:1, 1+1:0:0:0:0, 1+1:0:0:0:0, 0+0:0:0:0:0, 0+0:0:0:0:0, 1+2:0:0:0:0, 2+1:0:0:0:1, 2+0:0:0:0:0, 1+4:0:0:0:0, 2+2:0:0:0:0, 1+1:0:0:0:0, 1+2:0:1:0:1, 0+0:0:0:0:0, 2+1:0:0:0:1, 1+0:0:0:0:0, 2+1:1:0:0:1, 0+0:0:0:0:0, 1+0:0:0:0:0, 1+1:0:0:0:0, 1+2:0:0:0:0, 0+0:0:0:0:0, 0+0:0:0:0:0, 0+3:0:0:0:0, 0+1:0:0:0:0, 2+2:0:0:0:0, 2+3:0:0:0:0, 2+2:0:0:0:0, 2+0:0:0:0:0, 2+1:0:0:0:0, 0+0:0:0:0:0, 4+2:0:0:0:0, 2+0:0:0:0:0, 1+3:0:0:0:0, 0+2:0:0:0:0, 0+0:0:0:0:0, 1+1:0:0:0:1, 2+1:0:0:0:0, 2+1:1:0:0:0, 0+2:0:0:0:0, 1+2:0:0:0:0, 1+1:0:0:0:1, 2+2:0:0:0:0, 1+1:0:0:0:0, 1+2:0:1:0:1, 0+1:0:0:0:0, 2+0:0:0:0:0, 1+1:0:0:0:0, 2+1:0:0:0:0, 2+1:0:0:0:0, 0+0:0:0:0:0, 0+0:0:0:0:0, 1+1:0:0:0:0, 0+0:0:0:0:0, 0+0:0:0:0:0, 1+0:0:0:0:0, 0+1:0:0:0:0, 0+3:0:0:0:0, 3+1:0:0:0:0, 1+1:0:0:0:1, 2+1:0:0:0:1, 0+0:0:0:0:0, 0+0:0:0:0:0, 3+1:0:0:0:0, 2+0:0:0:0:0, 1+4:0:0:0:0, 1+2:0:0:0:0, 2+1:0:0:0:0, 2+1:0:0:0:1, 1+0:0:0:0:0, 0+2:0:0:0:0, 1+0:0:0:0:0, 3+2:0:0:0:0, 1+1:0:0:0:1, 2+2:0:0:0:0, 0+2:0:0:0:0, 0+1:0:0:0:0, 0+1:0:0:0:0, 3+2:2:0:0:0, 0+0:0:0:0:0, 1+1:0:0:0:0, 1+1:0:0:0:0, 1+0:0:0:0:0, 0+0:0:0:0:0, 1+2:0:0:0:0, 1+1:0:0:0:0, 3+1:0:0:0:0, 1+2:1:0:0:0, 0+1:0:0:0:0, 2+2:0:0:0:0, 2+3:0:0:0:0, 2+2:0:0:0:0, 2+0:0:0:0:0, 2+1:0:0:0:0, 0+0:0:0:0:0, 2+2:0:0:0:0, 2+0:0:0:0:0, 1+3:0:0:0:0, 1+0:0:0:0:0, 2+1:0:0:0:0, 1+1:0:0:0:1, 2+1:0:0:0:0, 0+0:0:0:0:0, 0+3:0:0:0:0, 1+2:0:0:0:0, 2+1:0:0:0:1, 2+1:1:0:0:0, 0+2:0:0:0:0, 1+2:0:0:0:0, 0+0:0:0:0:0, 2+0:0:0:0:0, 0+0:0:0:0:0, 2+1:0:0:0:0, 0+0:0:0:0:0, 2+1:0:0:0:1, 1+0:0:0:0:0, 1+3:0:0:0:1, 1+0:0:0:0:0, 1+2:0:0:0:0, 1+0:0:0:0:0, 0+1:0:0:0:0, 1+3:0:0:0:0, 2+2:0:0:0:1, 2+3:0:0:0:0, 0+0:0:0:0:0, 0+0:0:0:0:0, 0+0:0:0:0:0, 2+3:0:0:0:0, 2+0:0:0:0:0, 1+4:0:0:0:0, 0+2:0:0:0:0, 0+0:0:0:0:0, 1+1:0:0:0:1, 2+1:0:0:0:0, 0+0:0:0:0:0, 0+0:0:0:0:0, 1+1:0:0:0:0, 1+0:0:0:0:0, 2+1:0:0:0:0, 2+1:0:0:0:0, 2+1:0:0:0:0, 1+0:0:0:0:0, 2+2:0:0:0:2, 1+0:0:0:0:0, 2+1:0:0:0:1, 0+0:0:0:0:0, 0+0:0:0:0:0, 0+0:0:0:0:0, 1+0:0:0:0:0, 1+1:0:0:0:0, 2+1:0:0:0:0, 2+1:0:0:0:0, 2+1:0:0:0:1, 1+0:0:0:0:0, 0+0:0:0:0:0, 0+0:0:0:0:0, 1+1:0:0:0:1, 0+0:0:0:0:0, 2+1:0:0:0:1, 0+0:0:0:0:0, 2+0:0:0:0:0, 2+2:0:0:0:1, 1+0:0:0:0:0, 0+3:0:0:0:0, 2+4:0:0:0:0, 0+2:0:0:0:0, 1+4:0:0:0:0, 0+1:0:0:0:0, 0+1:0:0:0:0, 0+1:0:0:0:0, 0+1:0:0:0:0, 220+248:7:4:0:34
B minor (2#), 2+1:0:0:0:0, 1+0:0:0:0:0, 2+1:0:0:0:0, 2+0:0:0:0:0, 0+0:0:0:0:0, 3+3:0:0:0:3, 1+0:0:0:0:0, 3+3:0:0:0:1, 0+0:0:0:0:0, 0+0:0:0:0:0, 1+0:0:0:0:0, 3+3:0:0:0:1, 0+0:0:0:0:0, 2+2:0:0:0:0, 2+2:0:0:0:0, 2+1:0:0:0:0, 2+1:0:0:0:0, 3+1:0:0:0:0, 1+1:0:0:0:0, 1+0:0:0:0:0, 0+0:0:0:0:0, 3+1:0:0:0:1, 2+2:0:0:0:2, 3+4:0:0:0:0, 2+2:0:0:0:0, 3+1:0:0:0:0, 1+1:0:0:0:0, 0+0:0:0:0:0, 1+0:0:0:0:0, 2+2:0:0:0:0, 1+0:0:0:0:0, 2+1:0:0:0:0, 2+0:0:0:0:0, 3+1:0:0:0:0, 3+1:0:0:0:0, 3+1:0:0:0:0, 1+0:0:0:0:0, 3+1:0:0:0:1, 1+0:0:0:0:0, 3+3:0:0:0:1, 2+1:0:0:0:0, 2+1:0:0:0:1, 1+0:0:0:0:0, 3+2:0:0:0:0, 0+0:0:0:0:0, 2+2:0:0:0:0, 3+2:0:0:0:1, 1+0:0:0:0:0, 2+3:0:0:0:0, 1+1:0:0:0:1, 2+2:0:0:0:0, 0+0:0:0:0:0, 2+1:0:0:0:0, 1+0:0:0:0:0, 4+3:0:0:0:3, 1+0:0:0:0:0, 1+3:0:0:0:2, 2+2:0:0:0:0, 1+0:0:0:0:0, 1+3:0:0:0:0, 1+0:0:0:0:0, 1+2:0:0:0:0, 2+1:0:0:0:1, 1+2:0:0:0:0, 3+1:0:0:0:1, 2+1:0:0:0:0, 3+1:0:0:0:0, 3+1:0:0:0:0, 2+1:0:0:0:0, 3+3:0:0:0:3, 1+0:0:0:0:0, 3+1:0:0:0:0, 1+0:0:0:0:0, 1+2:2:0:0:0, 2+1:0:0:0:0, 1+2:0:0:0:0, 1+0:0:0:0:0, 2+2:0:0:0:0, 1+0:0:0:0:0, 2+3:0:0:0:0, 2+3:0:0:0:0, 1+0:0:0:0:0, 2+2:0:0:0:0, 0+0:0:0:0:0, 2+1:0:0:0:0, 1+0:0:0:0:0, 5+1:0:0:0:0, 1+3:0:0:0:0, 3+1:0:0:0:0, 3+1:0:0:0:0, 1+2:0:0:0:0, 2+3:0:0:0:0, 2+2:0:0:0:0, 2+1:0:0:0:0, 1+1:0:0:0:0, 1+2:0:0:0:0, 3+1:0:0:0:1, 2+1:0:0:0:0, 3+1:0:0:0:0, 3+1:0:0:0:0, 2+2:0:0:0:0, 3+1:0:0:0:1, 1+1:0:0:0:0, 2+2:0:0:0:0, 2+3:0:0:0:0, 1+0:0:0:0:0, 1+0:0:0:0:0, 3+3:0:0:0:1, 1+0:0:0:0:0, 2+2:0:0:0:0, 1+0:0:0:0:0, 2+1:0:0:0:0, 3+4:0:0:0:0, 0+0:0:0:0:0, 3+1:1:0:0:0, 2+0:0:0:0:0, 1+0:0:0:0:0, 1+1:0:0:0:0, 3+2:1:1:0:1, 1+0:0:0:0:0, 2+1:0:0:0:1, 3+1:0:0:0:0, 2+1:0:0:0:0, 2+1:0:0:0:0, 1+2:0:0:0:0, 2+2:0:0:0:0, 1+0:0:0:0:0, 1+2:0:0:0:0, 3+1:0:0:0:1, 2+1:0:0:0:0, 1+2:0:0:0:0, 3+2:0:0:0:0, 2+1:0:0:0:0, 1+2:2:0:0:2, 1+0:0:0:0:0, 2+2:0:0:0:0, 2+1:0:0:0:1, 1+0:0:0:0:0, 1+0:0:0:0:0, 1+1:0:0:0:0, 1+1:0:0:0:0, 3+2:0:0:0:0, 1+2:0:0:0:1, 2+2:0:0:0:0, 2+2:0:0:0:0, 1+0:0:0:0:0, 2+2:0:0:0:0, 0+0:0:0:0:0, 2+1:0:0:0:0, 1+0:0:0:0:0, 3+2:0:0:0:1, 1+0:0:0:0:0, 2+2:0:0:0:0, 2+2:0:0:0:0, 2+1:0:0:0:0, 2+3:0:0:0:0, 1+1:1:0:0:1, 2+2:0:0:0:0, 1+1:0:0:0:0, 1+1:0:0:0:0, 2+1:0:0:0:0, 3+3:0:0:0:0, 2+0:0:0:0:0, 2+2:0:0:0:0, 2+1:0:0:0:0, 2+1:0:0:0:1, 1+0:0:0:0:0, 2+3:0:0:0:0, 2+1:0:0:0:0, 2+1:0:0:0:1, 1+0:0:0:0:0, 3+3:0:0:0:1, 1+0:0:0:0:0, 2+2:0:0:0:0, 1+0:0:0:0:0, 2+1:0:0:0:0, 2+3:0:0:0:0, 1+1:0:0:0:1, 3+3:1:0:0:0, 0+0:0:0:0:0, 2+1:0:0:0:0, 0+0:0:0:0:0, 1+4:0:0:0:1, 1+0:0:0:0:0, 3+1:0:0:0:0, 3+1:0:0:0:0, 1+1:0:0:0:0, 1+1:1:1:0:1, 1+1:1:0:0:1, 2+3:0:0:0:0, 1+1:0:0:0:0, 1+1:0:0:0:0, 1+0:0:0:0:0, 2+1:0:0:0:0, 2+1:0:0:0:0, 2+1:0:1:0:1, 3+2:0:0:0:0, 2+2:0:0:0:0, 1+0:0:0:0:0, 2+2:0:0:0:0, 1+0:0:0:0:0, 2+1:0:0:0:0, 2+2:0:0:0:0, 1+0:0:0:0:0, 2+1:0:0:0:0, 2+1:0:0:0:0, 2+1:0:0:0:0, 2+1:0:0:0:0, 1+2:0:0:0:0, 2+3:0:0:0:0, 1+1:0:0:0:0, 1+1:1:1:0:1, 1+0:0:0:0:0, 4+3:1:0:0:0, 2+2:0:0:0:0, 0+0:0:0:0:0, 3+2:0:0:0:1, 2+3:1:0:0:0, 1+0:0:0:0:0, 3+2:0:0:0:1, 1+0:0:0:0:0, 4+2:1:0:0:1, 1+0:0:0:0:0, 1+0:0:0:0:0, 1+0:0:0:0:0, 1+0:0:0:0:0, 391+268:14:4:0:47
Eb major (3b), 1+0:0:0:0:0, 2+0:0:0:0:0, 1+0:0:0:0:0, 1+0:0:0:0:0, 1+0:0:0:0:0, 0+0:0:0:0:0, 0+0:0:0:0:0, 2+1:0:0:0:0, 0+0:0:0:0:0, 0+0:0:0:0:0, 1+0:0:0:0:0, 3+2:0:0:0:0, 0+0:0:0:0:0, 0+0:0:0:0:0, 0+0:0:0:0:0, 1+0:0:0:0:0, 0+0:0:0:0:0, 2+1:0:1:0:0, 1+0:0:0:0:0, 0+0:0:0:0:0, 0+0:0:0:0:0, 2+1:0:0:0:0, 2+1:0:0:0:1, 1+1:0:0:0:1, 0+0:0:0:0:0, 0+0:0:0:0:0, 1+0:0:0:0:0, 0+0:0:0:0:0, 0+0:0:0:0:0, 1+1:0:0:0:0, 0+0:0:0:0:0, 1+0:0:0:0:0, 1+0:0:0:0:0, 2+1:1:0:0:1, 2+1:0:0:0:0, 1+1:0:1:0:0, 1+0:0:0:0:0, 1+0:0:0:0:0, 1+0:0:0:0:0, 2+1:0:0:0:0, 1+0:0:0:0:0, 2+1:0:0:0:0, 1+0:0:0:0:0, 1+1:1:0:0:1, 1+0:0:0:0:0, 0+0:0:0:0:0, 2+1:0:0:0:0, 1+0:0:0:0:0, 1+0:0:0:0:0, 3+1:0:0:0:0, 2+2:0:0:0:0, 3+0:0:0:0:0, 2+1:0:0:0:0, 1+0:0:0:0:0, 1+2:0:0:0:0, 2+0:0:0:0:0, 2+1:0:0:0:0, 1+0:0:0:0:0, 2+0:0:0:0:0, 1+0:0:0:0:0, 1+0:0:0:0:0, 1+0:0:0:0:0, 2+1:0:0:0:0, 2+0:0:0:0:0, 2+1:0:0:0:0, 2+0:0:0:0:0, 2+1:0:0:0:0, 1+1:0:1:0:0, 1+0:0:0:0:0, 1+1:0:0:0:0, 1+1:0:0:0:0, 1+1:1:0:0:1, 1+0:0:0:0:0, 1+2:0:0:0:0, 2+1:0:0:0:1, 2+0:0:0:0:0, 1+0:0:0:0:0, 0+0:0:0:0:0, 1+0:0:0:0:0, 0+0:0:0:0:0, 1+1:0:0:0:1, 2+0:0:0:0:0, 2+2:0:0:0:0, 3+0:0:0:0:0, 2+1:0:0:0:0, 1+0:0:0:0:0, 3+1:0:0:0:0, 2+0:0:0:0:0, 2+1:0:0:0:0, 0+0:0:0:0:0, 1+0:0:0:0:0, 2+1:0:0:0:0, 1+1:0:0:0:0, 2+1:0:0:0:1, 1+0:0:0:0:0, 1+0:0:0:0:0, 2+1:0:0:0:0, 2+0:0:0:0:0, 2+1:0:0:0:0, 1+1:0:1:0:0, 1+0:0:0:0:0, 1+1:0:0:0:1, 2+1:0:0:0:1, 3+1:0:0:0:0, 2+1:0:0:0:0, 1+0:0:0:0:0, 0+0:0:0:0:0, 2+1:0:0:0:0, 1+0:0:0:0:0, 1+0:0:0:0:0, 2+2:0:0:0:0, 0+0:0:0:0:0, 0+0:0:0:0:0, 3+1:0:0:0:1, 1+3:0:0:0:0, 3+1:0:0:0:0, 1+0:0:0:0:0, 1+0:0:0:0:0, 2+2:0:0:0:0, 2+0:0:0:0:0, 2+1:0:0:0:0, 0+0:0:0:0:0, 3+1:0:0:0:0, 2+1:0:0:0:0, 1+0:0:0:0:0, 1+0:0:0:0:0, 2+0:0:0:0:0, 2+1:0:0:0:0, 2+1:0:0:0:0, 2+1:0:0:0:0, 1+0:0:0:0:0, 0+0:0:0:0:0, 1+0:0:0:0:0, 2+0:0:0:0:0, 1+1:0:0:0:0, 2+1:0:0:0:0, 2+1:0:0:0:0, 1+0:0:0:0:0, 1+0:0:0:0:0, 2+0:0:0:0:0, 2+1:0:0:0:1, 1+1:0:1:0:0, 2+1:1:0:0:1, 0+0:0:0:0:0, 1+1:0:0:0:1, 2+0:0:0:0:0, 2+2:0:0:0:0, 3+0:0:0:0:0, 2+1:0:0:0:0, 1+0:0:0:0:0, 1+0:0:0:0:0, 2+0:0:0:0:0, 1+2:0:0:0:2, 0+0:0:0:0:0, 3+1:0:0:0:0, 2+1:0:0:0:0, 1+1:0:0:0:0, 1+0:0:0:0:0, 1+0:0:0:0:0, 1+0:0:0:0:0, 2+1:0:0:0:0, 1+1:1:0:0:1, 1+0:0:0:0:0, 2+1:0:0:0:0, 1+0:0:0:0:0, 1+1:0:0:0:1, 1+0:0:0:0:0, 3+2:0:0:0:0, 1+0:0:0:0:0, 2+1:0:0:0:0, 1+0:0:0:0:0, 2+1:0:0:0:0, 1+0:0:0:0:0, 1+0:0:0:0:0, 2+0:0:0:0:0, 0+0:0:0:0:0, 1+0:0:0:0:0, 2+1:0:0:0:0, 1+1:0:0:0:0, 1+0:0:0:0:0, 1+0:0:0:0:0, 0+0:0:0:0:0, 2+3:0:0:0:0, 2+1:0:0:0:0, 2+1:0:0:0:0, 0+0:0:0:0:0, 1+0:0:0:0:0, 2+1:0:0:0:0, 1+1:0:0:0:0, 0+0:0:0:0:0, 1+0:0:0:0:0, 2+1:0:0:0:0, 1+0:0:0:0:0, 2+1:0:0:0:0, 3+1:0:0:0:0, 1+1:0:0:0:0, 0+0:0:0:0:0, 2+2:0:0:0:0, 2+0:0:0:0:0, 2+1:0:0:0:0, 1+0:0:0:0:0, 1+0:0:0:0:0, 1+0:0:0:0:0, 2+0:0:0:0:0, 2+1:0:0:0:0, 2+1:0:0:0:0, 3+1:0:0:0:0, 2+1:0:0:0:0, 1+0:0:0:0:0, 0+0:0:0:0:0, 1+0:0:0:0:0, 2+1:0:0:0:0, 1+0:0:0:0:0, 2+2:0:0:0:0, 1+0:0:0:0:0, 2+1:0:0:0:0, 2+1:0:0:0:0, 1+2:0:0:0:1, 0+0:0:0:0:0, 2+1:0:0:0:0, 0+0:0:0:0:0, 2+1:0:0:0:0, 0+0:0:0:0:0, 0+0:0:0:0:0, 0+0:0:0:0:0, 0+0:0:0:0:0, 296+116:5:5:0:19
A major (3#), 3+1:0:0:0:0, 2+1:0:0:0:0, 3+1:0:0:0:0, 3+0:0:0:0:0, 0+0:0:0:0:0, 3+3:0:0:0:3, 2+0:0:0:0:0, 2+3:1:0:0:0, 1+2:0:0:0:0, 1+2:0:0:0:0, 2+0:0:0:0:0, 4+3:0:0:0:1, 1+2:0:0:0:0, 3+2:0:0:0:0, 2+0:0:0:0:0, 2+0:0:0:0:0, 3+1:0:0:0:0, 3+1:0:0:0:0, 1+1:0:0:0:0, 1+0:0:0:0:0, 1+2:0:0:0:0, 4+1:0:0:0:1, 2+3:0:0:0:1, 3+2:0:0:0:1, 2+0:0:0:0:0, 3+1:0:0:0:0, 1+1:0:0:0:0, 0+0:0:0:0:0, 2+0:0:0:0:0, 3+2:0:0:0:0, 1+0:0:0:0:0, 3+2:0:0:0:0, 3+0:0:0:0:0, 3+1:0:0:0:0, 2+1:0:0:0:1, 3+1:0:0:0:0, 1+0:0:0:0:0, 2+1:0:0:0:1, 2+0:0:0:0:0, 2+3:1:0:0:0, 3+1:0:0:0:0, 3+2:0:0:0:0, 2+4:0:0:0:0, 2+2:0:0:0:0, 1+3:0:0:0:0, 3+2:0:0:0:0, 2+1:0:0:0:1, 2+3:0:0:0:0, 2+0:0:0:0:0, 1+1:0:0:0:0, 2+2:0:0:0:0, 0+0:0:0:0:0, 3+3:0:0:0:0, 2+0:0:0:0:0, 3+3:0:0:0:3, 2+1:0:0:0:0, 1+1:0:0:0:0, 3+1:0:0:0:0, 2+2:0:0:0:0, 1+0:0:0:0:0, 2+0:0:0:0:0, 2+1:0:0:0:0, 2+1:0:0:0:0, 2+2:0:0:0:0, 2+1:1:0:0:0, 3+1:0:0:0:0, 2+1:0:0:0:1, 3+1:0:0:0:0, 2+1:0:0:0:0, 5+3:0:0:0:1, 2+2:0:0:0:0, 2+2:0:0:0:0, 2+0:0:0:0:0, 2+2:2:0:0:0, 3+1:0:0:0:0, 2+1:0:0:0:0, 2+0:0:0:0:0, 3+2:0:0:0:0, 2+1:0:0:0:0, 3+3:0:0:0:0, 2+3:1:0:0:0, 1+0:0:0:0:0, 2+2:0:0:0:0, 0+0:0:0:0:0, 3+3:0:0:0:0, 2+3:0:0:0:0, 3+2:1:1:0:2, 2+1:0:0:0:0, 2+1:0:0:0:1, 4+1:0:0:0:0, 2+2:0:0:0:0, 2+1:0:0:0:0, 3+2:0:0:0:0, 2+1:0:0:0:0, 2+1:0:0:0:0, 2+2:0:0:0:0, 2+1:1:0:0:0, 3+1:0:0:0:0, 2+1:0:0:0:1, 3+1:0:0:0:0, 3+2:0:0:0:0, 2+1:0:0:0:1, 2+3:0:0:0:1, 2+2:0:0:0:0, 3+3:0:0:0:0, 2+0:0:0:0:0, 2+0:0:0:0:0, 2+3:1:0:0:0, 2+0:0:0:0:0, 3+2:0:0:0:0, 1+0:0:0:0:0, 3+3:0:0:0:0, 4+3:0:0:0:2, 0+0:0:0:0:0, 3+5:0:0:0:2, 1+0:0:0:0:0, 2+0:0:0:0:0, 2+3:0:0:0:0, 2+2:1:1:0:2, 2+1:0:0:0:0, 2+1:0:0:0:1, 4+1:0:0:0:0, 2+1:0:0:0:0, 2+1:0:0:0:0, 2+2:0:0:0:0, 3+2:0:0:0:0, 2+1:0:0:0:0, 2+3:0:0:0:0, 2+1:1:0:0:0, 3+1:0:0:0:0, 2+2:0:0:0:0, 3+2:0:0:0:0, 3+1:0:0:0:0, 1+1:1:0:0:1, 2+5:0:0:0:0, 3+2:0:0:0:0, 3+1:0:0:0:1, 2+3:0:0:0:0, 2+0:0:0:0:0, 2+2:0:0:0:0, 2+1:0:0:0:1, 2+2:0:0:0:0, 1+1:0:0:0:0, 3+2:0:0:0:0, 2+4:1:0:0:0, 1+0:0:0:0:0, 2+2:0:0:0:0, 0+0:0:0:0:0, 3+3:0:0:0:0, 2+0:0:0:0:0, 2+2:0:0:0:1, 2+1:0:0:0:0, 2+2:0:0:0:0, 3+2:0:0:0:0, 2+1:0:0:0:0, 2+1:0:0:0:0, 3+3:0:0:0:0, 3+2:0:0:0:0, 2+1:0:0:0:0, 2+2:0:0:0:0, 2+1:0:0:0:0, 4+3:0:0:0:0, 2+0:0:0:0:0, 3+2:0:0:0:0, 2+1:0:0:0:0, 1+1:0:0:0:1, 2+0:0:0:0:0, 2+2:0:0:0:0, 3+1:0:0:0:0, 3+2:0:0:0:0, 2+2:0:0:0:0, 3+3:1:0:0:0, 2+3:0:0:0:0, 3+3:0:0:0:0, 2+1:0:0:0:0, 3+3:0:0:0:0, 2+0:0:0:0:0, 2+2:0:0:0:0, 2+4:1:0:0:1, 1+1:0:0:0:0, 3+1:0:0:0:0, 1+3:0:0:0:0, 2+4:0:0:0:1, 2+2:0:0:0:0, 2+1:0:0:0:1, 4+1:0:0:0:0, 2+2:0:0:0:0, 2+1:0:0:0:0, 3+3:0:0:0:0, 2+3:0:0:0:0, 2+3:0:0:0:0, 0+0:0:0:0:0, 2+2:0:0:0:0, 2+1:0:0:0:0, 2+1:0:0:0:0, 1+1:0:1:0:1, 4+2:0:0:0:0, 2+2:0:0:0:2, 1+0:0:0:0:0, 3+2:0:0:0:0, 2+0:0:0:0:0, 3+1:0:0:0:0, 3+2:0:0:0:0, 1+0:0:0:0:0, 2+3:0:0:0:1, 2+1:0:0:0:0, 2+1:0:0:0:0, 2+1:0:0:0:0, 2+2:0:0:0:0, 2+3:0:0:0:0, 2+2:0:0:0:0, 2+1:0:0:0:0, 2+0:0:0:0:0, 4+3:1:0:0:0, 3+2:0:0:0:0, 0+0:0:0:0:0, 4+2:0:0:0:0, 3+3:1:0:0:0, 1+0:0:0:0:0, 3+2:0:0:0:1, 1+0:0:0:0:0, 5+3:0:0:0:0, 1+0:0:0:0:0, 1+0:0:0:0:0, 1+0:0:0:0:0, 1+0:0:0:0:0, 491+331:17:3:0:41
C minor (3b), 1+0:0:0:0:0, 2+0:0:0:0:0, 1+0:0:0:0:0, 1+3:0:0:0:0, 1+0:0:0:0:0, 0+1:0:0:0:0, 0+1:0:0:0:0, 2+1:0:0:0:0, 0+0:0:0:0:0, 0+0:0:0:0:0, 1+0:0:0:0:0, 3+2:0:0:0:0, 0+0:0:0:0:0, 0+1:0:0:0:0, 0+0:0:0:0:0, 1+0:0:0:0:0, 0+0:0:0:0:0, 3+1:0:0:0:0, 1+0:0:0:0:0, 0+1:0:0:0:0, 0+0:0:0:0:0, 2+2:0:0:0:0, 2+0:0:0:0:0, 1+1:0:0:0:0, 0+0:0:0:0:0, 0+1:0:0:0:0, 1+0:0:0:0:0, 0+0:0:0:0:0, 0+1:0:0:0:0, 1+1:0:0:0:0, 0+2:0:0:0:0, 1+2:0:0:0:0, 1+3:0:0:0:0, 2+1:0:0:0:1, 2+1:0:0:0:0, 2+1:0:0:0:0, 1+0:0:0:0:0, 1+3:0:0:0:0, 1+0:0:0:0:0, 2+1:0:0:0:0, 1+0:0:0:0:0, 2+1:0:0:0:1, 1+0:0:0:0:0, 1+1:1:0:0:1, 1+0:0:0:0:0, 0+1:0:0:0:0, 2+1:0:0:0:0, 1+0:0:0:0:0, 1+0:0:0:0:0, 3+1:0:0:0:0, 1+4:0:1:0:1, 3+1:0:0:0:0, 2+1:0:0:0:0, 1+0:0:0:0:0, 1+1:0:0:0:0, 2+0:0:0:0:0, 2+1:0:0:0:0, 1+0:0:0:0:0, 2+0:0:0:0:0, 1+0:0:0:0:0, 1+0:0:0:0:0, 1+0:0:0:0:0, 2+1:0:0:0:0, 2+0:0:0:0:0, 2+1:0:0:0:0, 2+0:0:0:0:0, 2+1:0:0:0:0, 2+1:0:0:0:0, 1+0:0:0:0:0, 1+1:0:0:0:1, 1+0:0:0:0:0, 1+1:1:0:0:1, 1+0:0:0:0:0, 1+3:0:0:0:2, 2+1:0:0:0:0, 2+0:0:0:0:0, 1+0:0:0:0:0, 0+0:0:0:0:0, 1+3:0:0:0:0, 0+0:0:0:0:0, 1+1:0:0:0:1, 2+0:0:0:0:0, 1+4:0:1:0:1, 3+1:0:0:0:0, 2+1:0:0:0:0, 1+0:0:0:0:0, 3+1:0:0:0:0, 2+0:0:0:0:0, 2+1:0:0:0:0, 0+1:0:0:0:0, 1+0:0:0:0:0, 2+1:0:0:0:1, 1+1:0:0:0:0, 2+1:1:0:0:0, 1+0:0:0:0:0, 1+0:0:0:0:0, 2+1:0:0:0:0, 2+0:0:0:0:0, 2+1:0:0:0:0, 2+1:0:0:0:0, 1+0:0:0:0:0, 1+2:0:0:0:0, 2+1:0:0:0:0, 2+1:0:0:0:0, 2+1:0:0:0:0, 1+0:0:0:0:0, 0+0:0:0:0:0, 2+1:0:0:0:0, 1+0:0:0:0:0, 1+0:0:0:0:0, 2+0:0:0:0:0, 0+0:0:0:0:0, 0+3:0:0:0:0, 3+1:0:0:0:0, 1+3:0:0:0:0, 3+1:0:0:0:0, 1+0:0:0:0:0, 1+0:0:0:0:0, 2+1:0:0:0:0, 2+0:0:0:0:0, 2+1:0:0:0:0, 0+0:0:0:0:0, 3+1:0:0:0:0, 2+1:0:0:0:0, 1+0:0:0:0:0, 1+0:0:0:0:0, 2+0:0:0:0:0, 2+1:0:0:0:0, 2+1:0:0:0:0, 2+0:0:0:0:0, 1+0:0:0:0:0, 0+2:0:0:0:0, 1+0:0:0:0:0, 2+2:2:0:0:0, 1+0:0:0:0:0, 1+1:0:0:0:0, 2+1:0:0:0:0, 1+0:0:0:0:0, 1+0:0:0:0:0, 2+0:0:0:0:0, 2+1:0:0:0:0, 2+1:0:0:0:0, 2+1:0:0:0:1, 0+0:0:0:0:0, 1+1:0:0:0:1, 2+0:0:0:0:0, 1+4:0:1:0:1, 3+1:0:0:0:0, 2+1:0:0:0:0, 1+0:0:0:0:0, 1+0:0:0:0:0, 2+0:0:0:0:0, 1+2:0:0:0:2, 0+0:0:0:0:0, 3+1:0:0:0:0, 2+1:0:0:0:0, 1+1:0:0:0:0, 1+0:0:0:0:0, 1+3:0:0:0:0, 1+0:0:0:0:0, 2+1:0:0:0:0, 1+1:1:0:0:0, 1+2:0:0:0:0, 2+2:0:0:0:0, 1+0:0:0:0:0, 1+0:0:0:0:0, 1+0:0:0:0:0, 2+1:0:0:0:0, 1+0:0:0:0:0, 2+1:0:0:0:0, 1+0:0:0:0:0, 2+1:0:0:0:0, 1+0:0:0:0:0, 1+2:0:0:0:0, 2+0:0:0:0:0, 0+0:0:0:0:0, 1+0:0:0:0:0, 2+1:0:0:0:0, 1+3:0:0:0:0, 1+0:0:0:0:0, 1+0:0:0:0:0, 0+0:0:0:0:0, 2+3:0:0:0:0, 2+1:0:0:0:0, 2+1:0:0:0:0, 0+1:0:0:0:0, 1+0:0:0:0:0, 2+1:0:0:0:1, 1+1:0:0:0:0, 0+2:0:0:0:0, 1+3:0:0:0:0, 2+1:0:0:0:0, 1+0:0:0:0:0, 2+1:0:0:0:0, 3+1:0:0:0:0, 1+1:0:0:0:0, 0+0:0:0:0:0, 2+2:0:0:0:0, 2+0:0:0:0:0, 2+1:0:0:0:0, 1+0:0:0:0:0, 1+0:0:0:0:0, 1+0:0:0:0:0, 2+0:0:0:0:0, 2+1:0:0:0:0, 2+1:0:0:0:0, 3+1:0:0:0:0, 2+1:0:0:0:0, 1+0:0:0:0:0, 0+2:0:0:0:0, 1+0:0:0:0:0, 2+1:0:0:0:1, 1+0:0:0:0:0, 2+1:0:0:0:1, 1+0:0:0:0:0, 2+1:0:0:0:0, 2+1:0:0:0:0, 1+2:0:0:0:1, 0+0:0:0:0:0, 3+4:0:0:0:0, 0+2:0:0:0:0, 2+4:0:0:0:0, 0+0:0:0:0:0, 0+0:0:0:0:0, 0+0:0:0:0:0, 0+0:0:0:0:0, 296+174:6:3:0:20
F# minor (3#), 3+1:0:0:0:0, 2+1:0:0:0:0, 3+1:0:0:0:0, 3+3:0:0:0:0, 0+0:0:0:0:0, 3+3:0:0:0:3, 2+0:0:0:0:0, 2+3:1:0:0:0, 1+2:0:0:0:0, 1+2:0:0:0:0, 2+5:0:0:0:0, 4+3:0:0:0:0, 1+2:0:0:0:0, 3+2:0:0:0:0, 2+0:0:0:0:0, 2+0:0:0:0:0, 3+1:0:0:0:0, 3+1:0:0:0:0, 1+1:0:0:0:0, 1+0:0:0:0:0, 1+2:0:0:0:0, 4+5:0:0:0:0, 2+3:0:0:0:1, 3+2:0:0:0:1, 2+0:0:0:0:0, 3+1:0:0:0:0, 1+1:0:0:0:0, 0+0:0:0:0:0, 2+5:0:0:0:0, 3+2:0:0:0:0, 1+0:0:0:0:0, 3+2:0:0:0:0, 3+2:0:0:0:0, 3+1:0:0:0:0, 2+1:0:0:0:1, 3+1:0:0:0:0, 1+0:0:0:0:0, 2+1:0:0:0:1, 2+4:0:0:0:0, 2+1:0:0:0:0, 3+3:0:0:0:0, 3+2:0:0:0:0, 2+4:0:0:0:0, 2+2:0:0:0:0, 1+3:0:0:0:0, 3+2:0:0:0:0, 2+1:0:0:0:1, 2+3:0:0:0:0, 2+0:0:0:0:0, 1+1:0:0:0:0, 2+2:0:0:0:0, 0+0:0:0:0:0, 3+3:0:0:0:0, 2+3:0:0:0:0, 3+3:0:0:0:3, 2+1:0:0:0:0, 1+2:0:0:0:0, 3+1:0:0:0:0, 2+2:0:0:0:0, 1+0:0:0:0:0, 2+3:0:0:0:0, 2+1:0:0:0:0, 2+1:0:0:0:0, 2+2:0:0:0:0, 2+1:0:0:0:0, 3+1:0:0:0:0, 2+1:0:0:0:1, 3+1:0:0:0:0, 2+1:0:0:0:0, 5+3:0:0:0:1, 2+2:0:0:0:0, 2+2:0:0:0:0, 2+5:0:0:0:0, 2+2:2:0:0:0, 2+3:0:0:0:1, 2+1:0:0:0:0, 2+4:0:0:0:0, 3+2:0:0:0:0, 2+1:0:0:0:0, 3+3:0:0:0:0, 2+3:0:0:0:0, 1+0:0:0:0:0, 2+2:0:0:0:0, 0+0:0:0:0:0, 3+3:0:0:0:0, 2+3:0:0:0:0, 3+2:1:1:0:2, 2+1:0:0:0:0, 2+1:0:0:0:1, 4+1:0:0:0:0, 2+2:0:0:0:0, 2+3:0:0:0:0, 3+2:0:0:0:0, 2+1:0:0:0:0, 2+1:0:0:0:0, 2+2:0:0:0:0, 2+1:0:0:0:0, 3+1:0:0:0:0, 2+1:0:0:0:1, 3+1:0:0:0:0, 3+2:0:0:0:0, 2+1:0:0:0:1, 2+3:0:0:0:1, 2+2:0:0:0:0, 3+3:0:0:0:0, 2+2:0:0:0:0, 2+0:0:0:0:0, 2+3:1:0:0:0, 2+0:0:0:0:0, 3+2:0:0:0:0, 1+0:0:0:0:0, 3+3:0:0:0:0, 4+3:0:0:0:2, 0+0:0:0:0:0, 3+5:0:0:0:2, 1+1:0:0:0:0, 2+3:0:0:0:0, 2+3:0:0:0:0, 2+2:1:1:0:2, 2+1:0:0:0:0, 2+1:0:0:0:1, 4+1:0:0:0:0, 2+1:0:0:0:0, 2+1:0:0:0:0, 2+2:0:0:0:0, 3+3:0:0:0:0, 2+1:0:0:0:0, 2+3:0:0:0:0, 2+1:0:0:0:0, 3+1:0:0:0:0, 2+2:0:0:0:0, 3+2:0:0:0:0, 3+1:0:0:0:0, 1+1:1:0:0:1, 2+5:0:0:0:0, 3+2:0:0:0:0, 4+4:0:0:0:0, 2+3:0:0:0:0, 2+3:0:0:0:0, 2+1:0:0:0:0, 2+1:0:0:0:0, 2+2:0:0:0:0, 1+2:0:0:0:1, 3+2:0:0:0:0, 2+2:0:0:0:0, 1+0:0:0:0:0, 2+2:0:0:0:0, 0+0:0:0:0:0, 3+3:0:0:0:0, 2+3:0:0:0:0, 2+2:0:0:0:1, 2+1:0:0:0:0, 2+2:0:0:0:0, 3+2:0:0:0:0, 2+1:0:0:0:0, 2+3:0:0:0:0, 2+1:1:0:0:1, 3+3:0:0:0:0, 2+1:0:0:0:0, 2+2:0:0:0:0, 2+1:0:0:0:0, 4+3:0:0:0:0, 2+0:0:0:0:0, 3+2:0:0:0:0, 2+2:0:0:0:0, 1+1:0:0:0:1, 2+3:0:0:0:0, 2+3:0:0:0:0, 3+3:0:0:0:0, 3+2:0:0:0:0, 2+2:0:0:0:0, 3+2:0:0:0:0, 2+3:0:0:0:0, 3+3:0:0:0:0, 2+1:0:0:0:0, 3+3:0:0:0:0, 2+0:0:0:0:0, 2+2:0:0:0:0, 2+4:1:0:0:1, 1+1:0:0:0:0, 3+3:0:0:0:0, 1+3:0:0:0:0, 2+4:0:0:0:1, 2+0:0:0:0:0, 2+1:0:0:0:1, 4+1:0:0:0:0, 2+2:0:0:0:0, 2+3:0:0:0:0, 2+1:1:0:0:1, 2+3:0:0:0:0, 2+3:0:0:0:0, 0+0:0:0:0:0, 2+2:0:0:0:0, 2+1:0:0:0:0, 2+1:0:0:0:0, 1+1:0:1:0:1, 4+2:0:0:0:0, 2+2:0:0:0:2, 1+0:0:0:0:0, 3+2:0:0:0:0, 2+2:0:0:0:0, 3+4:0:0:0:0, 3+2:0:0:0:0, 1+0:0:0:0:0, 2+3:0:0:0:1, 2+1:0:0:0:0, 2+1:0:0:0:0, 2+1:0:0:0:0, 2+2:0:0:0:0, 2+3:0:0:0:0, 2+2:0:0:0:0, 2+1:0:0:0:0, 2+5:0:0:0:0, 4+3:1:0:0:0, 3+2:0:0:0:0, 0+0:0:0:0:0, 4+2:0:0:0:0, 3+3:1:0:0:0, 1+0:0:0:0:0, 3+1:0:0:0:1, 1+0:0:0:0:0, 5+3:0:0:0:0, 1+0:0:0:0:0, 1+0:0:0:0:0, 1+0:0:0:0:0, 1+0:0:0:0:0, 489+404:12:3:0:41
Ab major (4b), 1+0:0:0:0:0, 3+0:0:0:0:0, 1+0:0:0:0:0, 2+0:0:0:0:0, 2+0:0:0:0:0, 1+0:0:0:0:0, 1+0:0:0:0:0, 2+1:0:0:0:0, 1+0:0:0:0:0, 1+0:0:0:0:0, 1+0:0:0:0:0, 3+2:0:0:0:0, 1+0:0:0:0:0, 0+0:0:0:0:0, 0+0:0:0:0:0, 2+0:0:0:0:0, 0+0:0:0:0:0, 2+1:0:1:0:0, 1+0:0:0:0:0, 1+0:0:0:0:0, 1+0:0:0:0:0, 3+1:0:0:0:0, 1+1:0:0:0:1, 1+1:0:0:0:1, 0+0:0:0:0:0, 0+0:0:0:0:0, 1+0:0:0:0:0, 1+0:0:0:0:0, 1+0:0:0:0:0, 1+0:0:0:0:0, 0+0:0:0:0:0, 1+0:0:0:0:0, 1+0:0:0:0:0, 2+1:0:0:0:0, 2+1:0:0:0:0, 1+1:0:1:0:1, 1+0:0:0:0:0, 1+1:0:0:0:0, 1+0:0:0:0:0, 2+1:0:0:0:0, 1+0:0:0:0:0, 3+1:0:0:0:0, 1+0:0:0:0:0, 1+1:0:0:0:0, 2+0:0:0:0:0, 1+0:0:0:0:0, 3+1:0:0:0:0, 2+0:0:0:0:0, 1+0:0:0:0:0, 3+1:0:0:0:0, 2+2:0:0:0:0, 4+0:0:0:0:0, 2+1:0:0:0:0, 2+0:0:0:0:0, 0+1:0:0:0:0, 2+1:0:0:0:0, 3+1:0:0:0:0, 1+0:0:0:0:0, 2+0:0:0:0:0, 2+0:0:0:0:0, 2+0:0:0:0:0, 2+0:0:0:0:0, 2+1:0:0:0:0, 2+2:0:0:0:0, 2+1:0:0:0:0, 2+1:0:0:0:0, 2+1:0:0:0:0, 1+1:0:1:0:1, 2+0:0:0:0:0, 1+1:0:0:0:0, 2+0:0:0:0:0, 1+2:0:0:0:0, 1+0:0:0:0:0, 2+2:0:0:0:0, 2+1:0:0:0:0, 3+0:0:0:0:0, 2+0:0:0:0:0, 0+0:0:0:0:0, 2+0:0:0:0:0, 1+0:0:0:0:0, 2+1:0:0:0:0, 2+3:0:0:0:0, 2+2:0:0:0:0, 4+0:0:0:0:0, 2+1:0:0:0:0, 2+0:0:0:0:0, 2+1:0:0:0:0, 2+1:0:0:0:0, 2+1:0:0:0:0, 0+0:0:0:0:0, 1+0:0:0:0:0, 3+1:0:0:0:0, 2+1:0:0:0:0, 2+1:0:0:0:1, 2+0:0:0:0:0, 2+0:0:0:0:0, 2+1:0:0:0:0, 2+1:0:0:0:0, 2+1:0:0:0:0, 1+1:0:1:0:0, 1+0:0:0:0:0, 2+1:0:0:0:1, 2+1:0:0:0:0, 2+2:0:0:0:0, 3+1:0:0:0:0, 2+0:0:0:0:0, 1+0:0:0:0:0, 2+1:0:0:0:0, 2+0:0:0:0:0, 1+0:0:0:0:0, 3+0:0:0:0:0, 1+0:0:0:0:0, 1+0:0:0:0:0, 4+3:1:0:0:1, 0+2:0:0:0:0, 4+1:0:0:0:0, 2+0:0:0:0:0, 2+0:0:0:0:0, 1+1:0:0:0:0, 2+1:0:0:0:0, 2+1:0:0:0:0, 1+1:0:0:0:0, 2+1:0:0:0:0, 3+1:0:0:0:0, 2+0:0:0:0:0, 1+0:0:0:0:0, 3+0:0:0:0:0, 1+1:0:0:0:0, 2+1:0:0:0:0, 2+1:0:0:0:0, 2+0:0:0:0:0, 0+0:0:0:0:0, 1+0:0:0:0:0, 3+0:0:0:0:0, 1+1:0:0:0:0, 1+1:0:0:0:0, 2+1:0:0:0:0, 2+0:0:0:0:0, 2+0:0:0:0:0, 3+0:0:0:0:0, 2+1:0:0:0:0, 1+1:0:1:0:1, 2+1:0:0:0:0, 1+0:0:0:0:0, 1+1:0:0:0:0, 2+3:0:0:0:0, 2+2:0:0:0:0, 4+0:0:0:0:0, 2+1:0:0:0:0, 2+0:0:0:0:0, 0+0:0:0:0:0, 2+1:0:0:0:0, 1+2:0:0:0:0, 0+0:0:0:0:0, 2+1:0:0:0:0, 3+1:0:0:0:0, 2+1:0:0:0:0, 1+0:0:0:0:0, 2+0:0:0:0:0, 2+0:0:0:0:0, 2+1:0:0:0:0, 1+1:1:0:0:1, 2+0:0:0:0:0, 3+1:0:0:0:0, 1+0:0:0:0:0, 2+1:0:0:0:1, 2+0:0:0:0:0, 2+2:0:0:0:0, 1+0:0:0:0:0, 3+1:0:0:0:0, 2+0:0:0:0:0, 2+1:0:0:0:0, 2+0:0:0:0:0, 1+0:0:0:0:0, 3+0:0:0:0:0, 1+0:0:0:0:0, 1+0:0:0:0:0, 2+1:0:0:0:0, 1+1:0:0:0:0, 2+0:0:0:0:0, 1+0:0:0:0:0, 1+0:0:0:0:0, 1+1:0:0:0:0, 2+1:0:0:0:0, 2+1:0:0:0:0, 0+0:0:0:0:0, 1+0:0:0:0:0, 3+1:0:0:0:0, 2+1:0:0:0:0, 0+0:0:0:0:0, 1+3:0:0:0:0, 3+1:0:0:0:0, 2+0:0:0:0:0, 2+1:0:0:0:0, 2+1:0:0:0:0, 2+1:0:0:0:0, 1+0:0:0:0:0, 2+2:0:0:0:0, 2+0:0:0:0:0, 3+1:0:0:0:0, 2+0:0:0:0:0, 1+0:0:0:0:0, 1+0:0:0:0:0, 3+0:0:0:0:0, 2+1:0:0:0:0, 2+1:0:0:0:0, 2+1:0:0:0:0, 3+1:0:0:0:0, 2+0:0:0:0:0, 0+0:0:0:0:0, 1+0:0:0:0:0, 3+1:0:0:0:0, 1+0:0:0:0:0, 3+2:0:0:0:0, 1+0:0:0:0:0, 3+1:1:0:0:1, 2+1:0:0:0:0, 1+1:0:0:0:0, 1+0:0:0:0:0, 2+1:0:0:0:0, 0+0:0:0:0:0, 2+1:0:0:0:0, 0+0:0:0:0:0, 0+0:0:0:0:0, 0+0:0:0:0:0, 0+0:0:0:0:0, 374+129:3:5:0:11
E major (4#), 3+1:0:0:0:0, 3+1:0:0:0:0, 3+1:0:0:0:0, 4+3:0:0:0:0, 1+0:0:0:0:0, 4+3:0:0:0:3, 3+0:0:0:0:0, 2+1:0:0:0:0, 2+1:0:0:0:0, 2+2:0:0:0:0, 2+5:0:0:0:0, 4+3:0:0:0:0, 2+2:0:0:0:0, 3+2:0:0:0:0, 2+0:0:0:0:0, 3+0:0:0:0:0, 3+1:0:0:0:0, 3+1:0:0:0:0, 0+0:0:0:0:0, 2+4:0:0:0:0, 2+1:0:0:0:0, 5+5:0:0:0:0, 2+3:0:0:0:1, 3+1:0:0:0:0, 2+0:0:0:0:0, 3+1:0:0:0:0, 0+0:0:0:0:0, 1+4:0:0:0:0, 3+5:0:0:0:0, 3+2:0:0:0:0, 1+0:0:0:0:0, 3+2:0:0:0:0, 3+2:0:0:0:0, 4+1:0:0:0:0, 2+1:0:0:0:1, 3+1:0:0:0:0, 1+0:0:0:0:0, 2+1:0:0:0:1, 2+4:0:0:0:0, 2+1:0:0:0:0, 3+3:0:0:0:0, 4+2:0:0:0:0, 2+4:0:0:0:0, 3+2:0:0:0:0, 2+3:0:0:0:0, 4+2:0:0:0:0, 2+1:0:0:0:0, 3+3:0:0:0:0, 2+0:0:0:0:0, 0+1:0:0:0:0, 2+2:0:0:0:0, 1+0:0:0:0:0, 2+3:0:0:0:0, 3+3:0:0:0:0, 3+3:0:0:0:3, 2+1:0:0:0:0, 2+2:0:0:0:0, 3+1:0:0:0:0, 2+0:0:0:0:0, 2+3:0:0:0:0, 3+3:0:0:0:0, 3+1:0:0:0:0, 2+1:0:0:0:0, 2+0:0:0:0:0, 2+4:0:0:0:0, 3+1:0:0:0:0, 2+1:0:0:0:1, 3+1:0:0:0:0, 3+1:0:0:0:0, 5+3:0:0:0:1, 3+2:0:0:0:0, 3+2:0:0:0:0, 2+5:0:0:0:0, 3+2:0:0:0:0, 2+1:0:0:0:0, 3+1:0:0:0:0, 3+4:0:0:0:0, 3+2:0:0:0:0, 3+1:0:0:0:0, 4+3:0:0:0:0, 3+3:0:0:0:0, 1+0:0:0:0:0, 2+2:0:0:0:0, 1+0:0:0:0:0, 2+3:0:0:0:0, 3+3:0:0:0:0, 3+3:1:1:0:2, 2+0:0:0:0:0, 2+1:0:0:0:1, 4+1:0:0:0:0, 1+2:0:0:0:0, 3+3:0:0:0:0, 4+2:0:0:0:0, 2+1:0:0:0:0, 3+1:0:0:0:0, 3+1:0:0:0:0, 2+1:0:0:0:0, 3+1:0:0:0:0, 2+1:0:0:0:1, 3+1:0:0:0:0, 3+2:0:0:0:0, 3+1:0:0:0:1, 2+1:0:0:0:0, 3+2:0:0:0:0, 4+3:0:0:0:0, 3+2:0:0:0:0, 3+0:0:0:0:0, 2+3:1:0:0:0, 3+0:0:0:0:0, 3+2:0:0:0:0, 2+0:0:0:0:0, 4+3:0:0:0:0, 4+3:0:0:0:0, 1+0:0:0:0:0, 3+5:0:0:0:1, 2+1:0:0:0:0, 3+3:0:0:0:0, 3+1:0:0:0:0, 2+2:1:1:0:2, 2+0:0:0:0:0, 2+1:0:0:0:1, 5+1:0:0:0:0, 2+1:0:0:0:0, 3+1:0:0:0:0, 3+2:0:0:0:0, 3+3:0:0:0:0, 3+1:0:0:0:0, 2+3:0:0:0:0, 2+1:0:0:0:0, 3+1:0:0:0:0, 3+2:0:0:0:0, 3+2:0:0:0:0, 3+1:0:0:0:0, 2+1:1:0:0:1, 2+5:0:0:0:0, 4+2:0:0:0:0, 4+4:0:0:0:0, 3+3:0:0:0:0, 3+3:0:0:0:0, 3+1:0:0:0:0, 2+1:0:0:0:0, 2+2:0:0:0:0, 2+1:0:0:0:0, 4+2:0:0:0:0, 2+2:0:0:0:0, 1+0:0:0:0:0, 2+2:0:0:0:0, 1+0:0:0:0:0, 2+3:0:0:0:0, 3+3:0:0:0:0, 2+2:0:0:0:1, 2+0:0:0:0:0, 2+2:0:0:0:0, 3+2:0:0:0:0, 2+1:0:0:0:0, 3+3:0:0:0:0, 4+3:0:0:0:0, 3+3:0:0:0:0, 3+1:0:0:0:0, 3+1:0:0:0:0, 2+1:0:0:0:0, 4+3:0:0:0:0, 3+0:0:0:0:0, 4+2:0:0:0:0, 2+2:0:0:0:0, 2+1:0:0:0:1, 3+3:0:0:0:0, 3+3:0:0:0:0, 3+3:0:0:0:0, 4+2:0:0:0:0, 3+2:0:0:0:0, 3+2:0:0:0:0, 3+3:0:0:0:0, 3+3:0:0:0:0, 3+1:0:0:0:0, 4+3:0:0:0:0, 2+0:0:0:0:0, 1+1:0:0:0:0, 2+3:3:0:0:3, 2+2:0:0:0:0, 3+3:0:0:0:0, 2+2:0:0:0:0, 2+4:0:0:0:1, 2+0:0:0:0:0, 2+1:0:0:0:1, 4+1:0:0:0:0, 1+2:0:0:0:0, 3+3:0:0:0:0, 3+1:1:0:0:1, 2+3:0:0:0:0, 1+2:0:0:0:0, 1+0:0:0:0:0, 3+2:0:0:0:0, 2+1:0:0:0:0, 2+1:0:0:0:0, 2+1:0:1:0:1, 5+2:0:0:0:0, 2+2:0:0:0:0, 1+0:0:0:0:0, 4+2:0:0:0:0, 3+2:0:0:0:0, 3+4:0:0:0:0, 2+2:0:0:0:0, 2+0:0:0:0:0, 2+1:0:0:0:0, 2+1:0:0:0:0, 2+1:0:0:0:0, 3+1:0:0:0:0, 3+2:0:0:0:0, 2+3:0:0:0:0, 1+2:0:0:0:0, 3+3:0:0:0:0, 2+5:0:0:0:0, 5+3:1:0:0:0, 2+2:0:0:0:0, 1+0:0:0:0:0, 4+2:0:0:0:0, 3+3:1:0:0:0, 2+0:0:0:0:0, 3+1:0:0:0:1, 1+0:0:0:0:0, 4+3:0:0:0:0, 1+0:0:0:0:0, 1+0:0:0:0:0, 1+0:0:0:0:0, 1+0:0:0:0:0, 574+395:10:3:0:31
F minor (4b), 1+0:0:0:0:0, 3+0:0:0:0:0, 1+0:0:0:0:0, 2+0:0:0:0:0, 2+0:0:0:0:0, 1+3:0:0:0:0, 1+0:0:0:0:0, 2+1:0:0:0:0, 1+0:0:0:0:0, 1+0:0:0:0:0, 1+0:0:0:0:0, 3+1:0:0:0:0, 1+0:0:0:0:0, 0+0:0:0:0:0, 0+0:0:0:0:0, 2+0:0:0:0:0, 0+0:0:0:0:0, 2+1:0:1:0:1, 1+0:0:0:0:0, 1+0:0:0:0:0, 1+0:0:0:0:0, 3+1:0:0:0:0, 1+0:0:0:0:0, 1+1:0:0:0:0, 0+0:0:0:0:0, 0+0:0:0:0:0, 1+0:0:0:0:0, 1+0:0:0:0:0, 1+0:0:0:0:0, 1+0:0:0:0:0, 0+0:0:0:0:0, 1+0:0:0:0:0, 1+0:0:0:0:0, 2+1:0:0:0:0, 2+1:0:0:0:0, 1+1:0:1:0:1, 1+0:0:0:0:0, 1+3:0:0:0:0, 1+0:0:0:0:0, 2+1:0:0:0:0, 1+0:0:0:0:0, 3+1:0:0:0:0, 1+0:0:0:0:0, 1+1:0:0:0:0, 2+0:0:0:0:0, 1+0:0:0:0:0, 3+2:0:0:0:0, 2+0:0:0:0:0, 1+0:0:0:0:0, 3+1:0:0:0:0, 2+2:0:0:0:0, 4+0:0:0:0:0, 2+1:0:0:0:0, 2+0:0:0:0:0, 0+1:0:0:0:0, 2+1:0:0:0:0, 3+1:0:0:0:0, 1+0:0:0:0:0, 2+0:0:0:0:0, 2+0:0:0:0:0, 2+0:0:0:0:0, 2+0:0:0:0:0, 2+1:0:0:0:0, 2+0:0:0:0:0, 2+1:0:0:0:0, 2+1:0:0:0:0, 2+1:0:0:0:0, 1+1:0:1:0:1, 2+0:0:0:0:0, 1+1:0:0:0:0, 2+0:0:0:0:0, 1+2:0:0:0:0, 1+0:0:0:0:0, 2+2:0:0:0:0, 2+1:0:0:0:0, 3+0:0:0:0:0, 2+0:0:0:0:0, 0+0:0:0:0:0, 2+0:0:0:0:0, 1+0:0:0:0:0, 2+1:0:0:0:0, 2+3:0:0:0:0, 2+2:0:0:0:0, 4+0:0:0:0:0, 2+1:0:0:0:0, 2+0:0:0:0:0, 2+1:0:0:0:0, 2+1:0:0:0:0, 2+1:0:0:0:0, 0+0:0:0:0:0, 1+1:0:0:0:0, 3+1:0:0:0:0, 2+1:0:0:0:0, 2+1:0:0:0:1, 2+0:0:0:0:0, 2+0:0:0:0:0, 2+1:0:0:0:0, 2+1:0:0:0:0, 2+1:0:0:0:0, 1+1:0:1:0:1, 1+0:0:0:0:0, 2+2:0:0:0:0, 2+1:0:0:0:0, 2+2:0:0:0:0, 3+1:0:0:0:0, 2+0:0:0:0:0, 1+0:0:0:0:0, 2+1:0:0:0:0, 2+0:0:0:0:0, 1+0:0:0:0:0, 3+0:0:0:0:0, 1+0:0:0:0:0, 1+0:0:0:0:0, 4+1:0:0:0:1, 0+2:0:0:0:0, 4+1:0:0:0:0, 2+0:0:0:0:0, 2+0:0:0:0:0, 1+1:0:0:0:0, 2+1:0:0:0:0, 2+1:0:0:0:0, 1+1:0:0:0:0, 2+1:0:0:0:0, 3+1:0:0:0:0, 2+0:0:0:0:0, 1+0:0:0:0:0, 3+0:0:0:0:0, 1+1:0:0:0:0, 2+1:0:0:0:0, 2+1:0:0:0:0, 2+0:0:0:0:0, 0+0:0:0:0:0, 1+0:0:0:0:0, 3+0:0:0:0:0, 1+0:0:0:0:0, 1+1:0:0:0:0, 2+1:0:0:0:0, 2+0:0:0:0:0, 2+0:0:0:0:0, 3+0:0:0:0:0, 2+1:0:0:0:0, 1+1:0:1:0:1, 2+1:0:0:0:0, 1+0:0:0:0:0, 1+1:0:0:0:0, 2+3:0:0:0:0, 2+2:0:0:0:0, 4+0:0:0:0:0, 2+1:0:0:0:0, 2+0:0:0:0:0, 0+0:0:0:0:0, 2+1:0:0:0:0, 1+0:0:0:0:0, 0+0:0:0:0:0, 2+1:0:0:0:0, 3+1:0:0:0:0, 2+2:0:0:0:0, 1+0:0:0:0:0, 2+0:0:0:0:0, 2+0:0:0:0:0, 2+1:0:0:0:0, 1+1:1:0:0:1, 2+0:0:0:0:0, 3+1:0:0:0:0, 1+0:0:0:0:0, 2+3:0:0:0:0, 2+0:0:0:0:0, 2+3:0:0:0:0, 1+0:0:0:0:0, 3+1:0:0:0:0, 2+0:0:0:0:0, 2+1:0:0:0:0, 2+0:0:0:0:0, 1+0:0:0:0:0, 3+0:0:0:0:0, 1+0:0:0:0:0, 1+0:0:0:0:0, 2+1:0:0:0:0, 1+3:0:0:0:0, 2+0:0:0:0:0, 1+0:0:0:0:0, 1+0:0:0:0:0, 1+3:0:0:0:0, 2+1:0:0:0:0, 2+1:0:0:0:0, 0+0:0:0:0:0, 1+1:0:0:0:0, 3+1:0:0:0:0, 2+1:0:0:0:0, 0+0:0:0:0:0, 1+1:0:0:0:0, 3+1:0:0:0:0, 2+0:0:0:0:0, 2+1:0:0:0:0, 2+1:0:0:0:0, 2+1:0:0:0:0, 1+0:0:0:0:0, 2+2:0:0:0:0, 2+0:0:0:0:0, 3+1:0:0:0:0, 2+0:0:0:0:0, 1+0:0:0:0:0, 1+1:0:0:0:0, 3+0:0:0:0:0, 2+1:0:0:0:0, 2+1:0:0:0:0, 2+1:0:0:0:0, 3+1:0:0:0:0, 2+0:0:0:0:0, 0+0:0:0:0:0, 1+1:0:0:0:0, 3+1:0:0:0:0, 1+0:0:0:0:0, 3+2:0:0:0:0, 1+1:0:0:0:0, 3+0:0:0:0:0, 2+1:0:0:0:0, 1+1:0:0:0:0, 1+0:0:0:0:0, 2+1:0:0:0:0, 0+0:0:0:0:0, 2+1:0:0:0:0, 0+0:0:0:0:0, 0+0:0:0:0:0, 0+0:0:0:0:0, 0+0:0:0:0:0, 374+137:1:5:0:8
C# minor (4#), 3+2:0:0:0:0, 3+1:0:0:0:0, 3+1:0:0:0:0, 4+0:0:0:0:0, 1+0:0:0:0:0, 4+3:0:0:0:3, 3+0:0:0:0:0, 2+3:1:0:0:0, 2+1:0:0:0:0, 2+2:0:0:0:0, 2+0:0:0:0:0, 4+3:0:0:0:0, 2+1:0:0:0:0, 3+2:0:0:0:0, 2+0:0:0:0:0, 3+0:0:0:0:0, 3+1:0:0:0:0, 3+1:0:0:0:0, 0+0:0:0:0:0, 2+4:0:0:0:0, 2+0:0:0:0:0, 5+1:0:0:0:1, 2+3:0:0:0:1, 3+1:0:0:0:0, 2+0:0:0:0:0, 3+1:0:0:0:0, 0+0:0:0:0:0, 1+4:0:0:0:0, 3+0:0:0:0:0, 3+2:0:0:0:0, 1+0:0:0:0:0, 3+2:0:0:0:0, 3+0:0:0:0:0, 4+1:0:0:0:0, 2+1:0:0:0:1, 3+1:0:0:0:0, 1+0:0:0:0:0, 2+1:0:0:0:1, 2+0:0:0:0:0, 2+3:1:0:0:0, 3+1:0:0:0:0, 4+2:0:0:0:0, 2+4:0:0:0:0, 3+2:0:0:0:2, 2+2:0:0:0:0, 4+2:0:0:0:0, 2+2:0:0:0:0, 3+3:0:0:0:0, 2+0:0:0:0:0, 0+1:0:0:0:0, 2+2:0:0:0:0, 1+0:0:0:0:0, 2+3:0:0:0:0, 3+0:0:0:0:0, 3+5:3:0:0:5, 2+0:0:0:0:0, 2+3:0:0:0:2, 3+2:0:0:0:0, 2+0:0:0:0:0, 2+3:0:0:0:0, 3+2:1:0:0:1, 3+1:0:0:0:0, 2+1:0:0:0:0, 2+0:0:0:0:0, 2+4:0:0:0:0, 3+1:0:0:0:0, 2+1:0:0:0:1, 3+1:0:0:0:0, 3+1:0:0:0:0, 5+3:0:0:0:1, 3+2:0:0:0:0, 3+2:0:0:0:0, 2+5:0:0:0:0, 3+2:0:0:0:0, 2+1:0:0:0:0, 3+1:0:0:0:0, 3+0:0:0:0:0, 3+2:0:0:0:0, 3+1:0:0:0:0, 4+3:0:0:0:0, 3+3:0:0:0:0, 1+1:0:0:0:0, 2+2:0:0:0:0, 1+0:0:0:0:0, 2+3:0:0:0:0, 3+4:1:0:0:1, 3+2:1:0:0:1, 2+0:0:0:0:0, 2+1:0:0:0:1, 4+1:0:0:0:0, 1+2:0:0:0:0, 3+3:0:0:0:0, 4+2:0:0:0:0, 2+1:0:0:0:0, 3+1:0:0:0:0, 3+1:0:0:0:0, 2+1:0:0:0:0, 3+1:0:0:0:0, 2+1:0:0:0:1, 3+1:0:0:0:0, 3+2:0:0:0:0, 3+1:0:0:0:1, 2+1:0:0:0:0, 3+2:0:0:0:0, 4+3:0:0:0:0, 3+0:0:0:0:0, 3+0:0:0:0:0, 2+3:1:0:0:0, 3+0:0:0:0:0, 3+2:0:0:0:0, 2+0:0:0:0:0, 4+3:0:0:0:0, 4+3:0:0:0:0, 1+2:0:0:0:0, 4+3:2:0:0:3, 2+1:0:0:0:1, 3+1:0:0:0:0, 3+1:0:0:0:0, 2+2:1:1:0:2, 2+0:0:0:0:0, 2+1:0:0:0:1, 5+1:0:0:0:0, 2+1:0:0:0:0, 3+1:0:0:0:0, 3+2:0:0:0:0, 3+2:0:0:0:0, 3+1:0:0:0:0, 2+2:0:0:0:0, 2+3:0:0:0:0, 3+1:0:0:0:0, 3+2:0:0:0:0, 3+2:0:0:0:0, 3+1:0:0:0:0, 2+1:1:0:0:1, 2+5:0:0:0:0, 4+2:0:0:0:0, 3+1:0:0:0:1, 3+3:0:0:0:0, 3+0:0:0:0:0, 3+1:0:0:0:0, 2+1:0:0:0:0, 2+2:0:0:0:2, 2+1:0:0:0:1, 4+2:0:0:0:0, 2+2:0:0:0:0, 1+1:0:0:0:0, 2+2:0:0:0:0, 1+0:0:0:0:0, 2+3:0:0:0:0, 3+0:0:0:0:0, 3+0:0:0:0:0, 2+0:0:0:0:0, 2+2:0:0:0:0, 3+2:0:0:0:0, 2+1:0:0:0:0, 3+3:0:0:0:0, 3+1:1:0:0:1, 3+2:0:0:0:0, 3+1:0:0:0:0, 3+1:0:0:0:0, 2+1:0:0:0:0, 4+3:0:0:0:0, 3+0:0:0:0:0, 4+2:0:0:0:0, 2+1:0:0:0:0, 2+1:0:0:0:1, 3+0:0:0:0:0, 3+3:0:0:0:0, 3+1:0:0:0:0, 4+2:0:0:0:0, 3+2:0:0:0:0, 3+3:1:0:0:0, 3+3:0:0:0:0, 3+3:0:0:0:0, 3+1:0:0:0:0, 4+3:0:0:0:0, 2+2:0:0:0:0, 1+1:0:0:0:0, 2+3:3:0:0:3, 2+2:0:0:0:0, 3+1:0:0:0:0, 2+2:0:0:0:0, 2+4:0:0:0:1, 2+0:0:0:0:0, 2+1:0:0:0:1, 4+1:0:0:0:0, 1+2:0:0:0:0, 3+3:0:0:0:0, 3+1:1:0:0:1, 2+3:0:0:0:3, 1+2:0:0:0:2, 1+0:0:0:0:0, 3+1:0:0:0:1, 2+3:0:0:0:3, 1+1:0:0:0:0, 2+2:0:0:0:0, 5+2:0:0:0:0, 2+2:0:0:0:0, 1+0:0:0:0:0, 4+2:0:0:0:0, 3+0:0:0:0:0, 3+1:0:0:0:0, 2+2:0:0:0:0, 2+3:0:0:0:0, 2+1:0:0:0:0, 2+3:0:0:0:3, 1+1:0:0:0:0, 2+1:0:0:0:0, 3+1:0:0:0:1, 2+3:0:0:0:0, 1+1:0:0:0:0, 3+3:0:0:0:0, 2+0:0:0:0:0, 5+3:1:0:0:0, 2+2:0:0:0:0, 1+0:0:0:0:0, 4+2:0:0:0:0, 3+3:1:0:0:0, 2+0:0:0:0:0, 3+2:0:0:0:1, 1+0:0:0:0:0, 4+3:0:0:0:0, 1+0:0:0:0:0, 1+0:0:0:0:0, 1+0:0:0:0:0, 1+0:0:0:0:0, 571+343:21:1:0:58
Db major (5b), 2+0:0:0:0:0, 4+0:0:0:0:0, 2+0:0:0:0:0, 3+0:0:0:0:0, 2+0:0:0:0:0, 1+0:0:0:0:0, 2+0:0:0:0:0, 2+1:0:0:0:0, 2+0:0:0:0:0, 2+0:0:0:0:0, 2+0:0:0:0:0, 4+2:0:0:0:0, 2+0:0:0:0:0, 1+0:0:0:0:0, 0+0:0:0:0:0, 2+1:0:0:0:0, 1+0:0:0:0:0, 2+1:0:1:0:0, 1+0:0:0:0:0, 1+0:0:0:0:0, 2+0:0:0:0:0, 4+1:0:0:0:0, 2+1:0:0:0:1, 2+1:0:0:0:1, 0+0:0:0:0:0, 0+0:0:0:0:0, 1+0:0:0:0:0, 1+0:0:0:0:0, 2+0:0:0:0:0, 2+1:0:0:0:0, 0+0:0:0:0:0, 2+0:0:0:0:0, 2+0:0:0:0:0, 2+1:0:0:0:0, 2+1:0:0:0:1, 1+1:0:1:0:0, 1+0:0:0:0:0, 1+0:0:0:0:0, 2+0:0:0:0:0, 2+1:0:0:0:0, 2+0:0:0:0:0, 4+1:0:0:0:0, 2+0:0:0:0:0, 1+2:0:0:0:0, 3+0:0:0:0:0, 2+0:0:0:0:0, 3+1:0:0:0:0, 3+0:0:0:0:0, 1+0:0:0:0:0, 3+1:0:0:0:0, 2+2:0:0:0:0, 4+0:0:0:0:0, 3+1:0:0:0:0, 3+0:0:0:0:0, 0+3:0:0:0:0, 3+1:0:0:0:0, 3+1:0:0:0:0, 2+0:0:0:0:0, 3+0:0:0:0:0, 2+0:0:0:0:0, 3+0:0:0:0:0, 3+0:0:0:0:0, 1+1:0:0:0:0, 3+0:0:0:0:0, 2+1:0:0:0:0, 3+1:0:0:0:0, 2+1:0:0:0:1, 1+1:0:1:0:0, 2+0:0:0:0:0, 2+1:0:0:0:0, 3+1:0:0:0:0, 1+3:0:0:0:0, 2+0:0:0:0:0, 3+2:0:0:0:0, 3+1:0:0:0:1, 4+0:0:0:0:0, 3+0:0:0:0:0, 1+0:0:0:0:0, 3+0:0:0:0:0, 2+0:0:0:0:0, 1+1:0:0:0:0, 2+3:0:0:0:0, 2+2:0:0:0:0, 4+0:0:0:0:0, 3+1:0:0:0:0, 3+0:0:0:0:0, 2+1:0:0:0:0, 3+1:0:0:0:0, 2+1:0:0:0:1, 1+0:0:0:0:0, 2+0:0:0:0:0, 3+1:0:0:0:0, 3+1:0:0:0:0, 1+1:0:0:0:1, 3+0:0:0:0:0, 3+0:0:0:0:0, 2+1:0:0:0:0, 3+1:0:0:0:0, 2+1:0:0:0:1, 1+1:0:1:0:0, 2+0:0:0:0:0, 2+1:0:0:0:1, 3+1:0:0:0:1, 1+1:0:0:0:0, 4+1:0:0:0:0, 3+0:0:0:0:0, 2+0:0:0:0:0, 2+1:0:0:0:0, 3+0:0:0:0:0, 2+0:0:0:0:0, 3+0:0:0:0:0, 2+0:0:0:0:0, 2+0:0:0:0:0, 4+1:0:0:0:0, 0+1:0:0:0:0, 4+1:0:0:0:0, 3+0:0:0:0:0, 3+0:0:0:0:0, 0+1:0:0:0:0, 3+1:0:0:0:0, 2+1:0:0:0:1, 2+0:0:0:0:0, 2+1:0:0:0:0, 2+1:0:0:0:0, 3+0:0:0:0:0, 2+0:0:0:0:0, 4+0:0:0:0:0, 2+1:0:0:0:0, 2+1:0:0:0:0, 3+1:0:0:0:0, 3+0:0:0:0:0, 0+0:0:0:0:0, 2+0:0:0:0:0, 2+0:0:0:0:0, 2+0:0:0:0:0, 2+1:0:0:0:0, 3+1:0:0:0:0, 3+0:0:0:0:0, 3+0:0:0:0:0, 4+0:0:0:0:0, 3+1:0:0:0:1, 1+2:0:1:0:0, 2+1:0:0:0:0, 2+0:0:0:0:0, 0+0:0:0:0:0, 2+3:0:0:0:0, 2+2:0:0:0:0, 4+0:0:0:0:0, 3+1:0:0:0:0, 3+0:0:0:0:0, 0+3:0:0:0:0, 3+1:0:0:0:0, 0+0:0:0:0:0, 1+0:0:0:0:0, 2+1:0:0:0:0, 3+1:0:0:0:0, 3+1:0:0:0:0, 2+0:0:0:0:0, 3+0:0:0:0:0, 3+0:0:0:0:0, 1+1:0:0:0:0, 2+1:1:0:0:1, 2+0:0:0:0:0, 4+1:0:0:0:0, 1+0:0:0:0:0, 2+1:0:0:0:1, 3+0:0:0:0:0, 1+2:0:0:0:0, 2+0:0:0:0:0, 4+1:0:0:0:0, 3+0:0:0:0:0, 3+1:0:0:0:0, 3+0:0:0:0:0, 2+1:0:0:0:0, 4+0:0:0:0:0, 2+0:0:0:0:0, 1+0:0:0:0:0, 3+1:0:0:0:0, 1+1:0:0:0:0, 3+0:0:0:0:0, 2+0:0:0:0:0, 2+0:0:0:0:0, 2+1:0:0:0:1, 2+2:0:0:0:1, 2+1:0:0:0:1, 1+0:0:0:0:0, 2+0:0:0:0:0, 3+1:0:0:0:0, 3+1:0:0:0:0, 0+0:0:0:0:0, 2+0:0:0:0:0, 3+1:0:0:0:0, 3+0:0:0:0:0, 2+1:0:0:0:0, 2+1:0:0:0:0, 2+1:0:0:0:0, 2+0:0:0:0:0, 2+2:0:0:0:0, 2+0:0:0:0:0, 4+1:0:0:0:0, 3+0:0:0:0:0, 2+0:0:0:0:0, 2+0:0:0:0:0, 3+0:0:0:0:0, 3+1:0:0:0:0, 2+1:0:0:0:0, 2+1:0:0:0:0, 2+1:0:0:0:0, 3+0:0:0:0:0, 0+0:0:0:0:0, 2+0:0:0:0:0, 3+1:0:0:0:0, 2+0:0:0:0:0, 2+2:0:0:0:0, 2+0:0:0:0:0, 3+1:0:0:0:0, 3+1:0:0:0:0, 2+1:0:0:0:0, 1+0:0:0:0:0, 1+1:0:0:0:0, 0+0:0:0:0:0, 3+1:0:0:0:0, 0+0:0:0:0:0, 0+0:0:0:0:0, 0+0:0:0:0:0, 0+0:0:0:0:0, 485+127:1:5:0:17
B major (5#), 4+2:0:0:0:0, 4+1:0:0:0:0, 4+1:0:0:0:0, 5+0:0:0:0:0, 2+0:0:0:0:0, 4+3:0:0:0:3, 3+0:0:0:0:0, 3+3:1:0:0:0, 2+0:0:0:0:0, 2+0:0:0:0:0, 3+0:0:0:0:0, 5+3:0:0:0:1, 2+0:0:0:0:0, 3+2:0:0:0:0, 2+2:0:0:0:0, 3+1:0:0:0:0, 3+1:0:0:0:0, 4+1:0:0:0:0, 1+0:0:0:0:0, 1+4:0:0:0:0, 2+0:0:0:0:0, 6+1:0:0:0:1, 2+2:1:0:0:1, 2+5:1:0:0:1, 2+2:0:0:0:0, 3+1:0:0:0:0, 1+0:0:0:0:0, 1+4:0:0:0:0, 3+0:0:0:0:0, 3+2:0:0:0:0, 1+0:0:0:0:0, 4+1:0:0:0:0, 4+0:0:0:0:0, 4+1:0:0:0:0, 4+1:0:0:0:0, 2+1:0:0:0:1, 2+0:0:0:0:0, 2+1:0:0:0:1, 3+0:0:0:0:0, 3+3:1:0:0:0, 4+1:0:0:0:0, 4+1:0:0:0:1, 3+0:0:0:0:0, 3+2:0:0:0:0, 3+0:0:0:0:0, 4+2:0:0:0:0, 3+2:2:0:0:1, 4+0:0:0:0:0, 2+0:0:0:0:0, 1+1:0:0:0:0, 2+2:0:0:0:0, 2+0:0:0:0:0, 2+1:1:0:0:1, 4+0:0:0:0:0, 4+1:0:0:0:0, 2+0:0:0:0:0, 3+3:0:0:0:2, 3+2:0:0:0:0, 3+0:0:0:0:0, 3+3:0:0:0:0, 3+2:0:0:0:0, 3+1:0:0:0:0, 2+1:0:0:0:0, 2+0:0:0:0:0, 3+4:0:0:0:0, 3+1:0:0:0:0, 3+1:0:0:0:1, 2+1:0:0:0:1, 4+1:0:0:0:0, 4+3:0:0:0:3, 3+2:0:0:0:0, 3+2:0:0:0:0, 3+0:0:0:0:0, 3+2:2:0:0:0, 3+1:0:0:0:0, 4+1:0:0:0:0, 4+0:0:0:0:0, 3+2:0:0:0:0, 4+0:0:0:0:0, 4+3:0:0:0:0, 3+3:0:0:0:0, 1+1:0:0:0:1, 2+2:0:0:0:0, 2+0:0:0:0:0, 2+1:1:0:0:1, 4+0:0:0:0:0, 5+1:0:0:0:0, 2+3:0:0:0:0, 4+1:0:0:0:0, 4+1:0:0:0:0, 2+2:0:0:0:0, 4+3:0:0:0:0, 4+2:1:0:0:1, 1+2:0:0:0:0, 4+4:0:0:0:2, 3+1:0:0:0:0, 3+1:1:0:0:0, 3+1:0:0:0:0, 4+1:0:0:0:0, 2+1:0:0:0:1, 4+2:0:0:0:0, 3+1:0:0:0:1, 3+1:0:0:0:0, 3+2:0:0:0:0, 4+3:0:0:0:0, 4+0:0:0:0:0, 3+0:0:0:0:0, 3+3:1:0:0:0, 4+0:0:0:0:0, 4+2:0:0:0:0, 3+0:0:0:0:0, 4+1:0:0:0:0, 4+4:2:0:0:2, 1+0:0:0:0:0, 3+3:2:0:0:2, 3+1:0:0:0:1, 4+1:0:0:0:0, 4+1:0:0:0:0, 2+2:1:1:0:2, 2+0:0:0:0:0, 3+1:0:0:0:1, 5+1:0:0:0:0, 3+1:0:0:0:0, 2+1:0:1:0:0, 3+1:0:0:0:1, 4+2:0:0:0:0, 4+4:0:0:0:2, 2+2:0:0:0:0, 3+3:0:0:0:0, 3+1:0:0:0:0, 4+2:0:0:0:0, 3+2:0:0:0:0, 4+1:0:0:0:0, 2+1:1:0:0:1, 3+0:0:0:0:0, 4+2:0:0:0:0, 4+1:0:0:0:1, 3+0:0:0:0:0, 4+0:0:0:0:0, 4+1:0:0:0:0, 3+1:0:0:0:0, 1+2:0:0:0:0, 3+2:0:0:0:1, 4+2:0:0:0:0, 2+2:0:0:0:0, 1+1:0:0:0:1, 2+2:0:0:0:0, 2+0:0:0:0:0, 2+1:1:0:0:1, 4+0:0:0:0:0, 3+0:0:0:0:0, 2+0:0:0:0:0, 2+2:0:0:0:0, 3+2:0:0:0:0, 3+1:0:0:0:0, 4+3:0:0:0:0, 3+1:1:0:0:1, 4+2:0:0:0:0, 4+1:0:0:0:0, 3+1:0:0:0:0, 2+1:0:0:0:0, 4+3:0:0:0:0, 4+0:0:0:0:0, 5+2:0:0:0:0, 3+1:0:0:0:0, 2+1:0:0:0:1, 4+0:0:0:0:0, 3+3:0:0:0:0, 4+1:0:0:0:0, 4+1:0:0:0:1, 3+0:0:0:0:0, 4+3:1:0:0:0, 3+0:0:0:0:0, 3+2:0:0:0:0, 4+0:0:0:0:0, 4+3:0:0:0:0, 2+2:0:0:0:0, 1+1:0:0:0:0, 3+3:3:0:0:3, 3+2:0:0:0:0, 4+1:0:0:0:0, 2+2:0:0:0:0, 2+4:0:0:0:1, 2+0:0:0:0:0, 4+1:0:0:0:0, 4+1:0:0:0:0, 2+2:0:0:0:0, 4+3:0:0:0:0, 3+1:1:0:0:1, 1+3:0:0:0:0, 2+2:0:0:0:0, 2+3:0:0:0:0, 3+1:0:0:0:1, 1+3:0:0:0:0, 2+1:0:1:0:1, 2+1:0:1:0:1, 5+2:0:0:0:0, 1+2:0:0:0:0, 2+0:0:0:0:0, 4+2:0:0:0:0, 4+0:0:0:0:0, 4+1:0:0:0:0, 3+2:1:0:0:1, 3+2:0:0:0:1, 3+1:0:0:0:0, 1+3:0:0:0:0, 2+3:0:1:0:1, 2+1:0:1:0:0, 3+1:0:0:0:1, 1+3:0:0:0:0, 2+1:0:0:0:0, 4+3:0:0:0:0, 3+0:0:0:0:0, 5+3:1:0:0:0, 3+2:1:0:0:1, 1+0:0:0:0:0, 4+2:0:0:0:1, 3+3:1:0:0:0, 2+0:0:0:0:0, 4+2:0:0:0:1, 1+0:0:0:0:0, 5+3:0:0:0:0, 1+0:0:0:0:0, 1+0:0:0:0:0, 1+0:0:0:0:0, 1+0:0:0:0:0, 666+309:30:6:0:60
Bb minor (5b), 2+0:0:0:0:0, 4+0:0:0:0:0, 2+0:0:0:0:0, 3+0:0:0:0:0, 2+0:0:0:0:0, 1+3:0:0:0:0, 2+0:0:0:0:0, 2+1:0:0:0:0, 2+0:0:0:0:0, 2+0:0:0:0:0, 2+0:0:0:0:0, 4+2:0:0:0:0, 2+0:0:0:0:0, 1+0:0:0:0:0, 0+0:0:0:0:0, 2+0:0:0:0:0, 1+0:0:0:0:0, 2+1:0:1:0:0, 1+0:0:0:0:0, 1+0:0:0:0:0, 2+0:0:0:0:0, 4+1:0:0:0:0, 2+0:0:0:0:0, 2+1:0:0:0:0, 0+0:0:0:0:0, 0+0:0:0:0:0, 1+0:0:0:0:0, 1+0:0:0:0:0, 2+0:0:0:0:0, 2+1:0:0:0:0, 0+0:0:0:0:0, 2+0:0:0:0:0, 2+0:0:0:0:0, 2+1:0:0:0:0, 2+1:0:0:0:0, 1+1:0:1:0:0, 1+0:0:0:0:0, 1+0:0:0:0:0, 2+0:0:0:0:0, 2+1:0:0:0:0, 2+0:0:0:0:0, 4+1:0:0:0:0, 2+0:0:0:0:0, 1+2:0:0:0:0, 3+0:0:0:0:0, 2+0:0:0:0:0, 3+1:0:0:0:0, 3+0:0:0:0:0, 1+0:0:0:0:0, 3+1:0:0:0:0, 2+2:0:0:0:0, 4+0:0:0:0:0, 3+1:0:0:0:0, 3+0:0:0:0:0, 0+3:0:0:0:0, 3+1:0:0:0:0, 3+1:0:0:0:0, 2+0:0:0:0:0, 3+0:0:0:0:0, 2+0:0:0:0:0, 3+0:0:0:0:0, 3+0:0:0:0:0, 1+1:0:0:0:0, 3+2:0:0:0:0, 2+1:0:0:0:0, 3+1:0:0:0:0, 2+1:0:0:0:0, 1+1:0:1:0:0, 2+0:0:0:0:0, 2+1:0:0:0:0, 3+0:0:0:0:0, 1+2:0:0:0:0, 2+0:0:0:0:0, 3+2:0:0:0:0, 3+1:0:0:0:1, 4+0:0:0:0:0, 3+0:0:0:0:0, 1+0:0:0:0:0, 3+0:0:0:0:0, 2+0:0:0:0:0, 1+1:0:0:0:0, 2+3:0:0:0:0, 2+2:0:0:0:0, 4+0:0:0:0:0, 3+1:0:0:0:0, 3+0:0:0:0:0, 2+1:0:0:0:0, 3+1:0:0:0:0, 2+1:0:0:0:0, 1+0:0:0:0:0, 2+0:0:0:0:0, 3+1:0:0:0:0, 3+1:0:0:0:0, 1+1:0:0:0:1, 3+0:0:0:0:0, 3+0:0:0:0:0, 2+1:0:0:0:0, 3+1:0:0:0:0, 2+1:0:0:0:0, 1+1:0:1:0:0, 2+0:0:0:0:0, 2+1:0:0:0:1, 3+1:0:0:0:1, 1+1:0:0:0:0, 4+1:0:0:0:0, 3+0:0:0:0:0, 2+0:0:0:0:0, 2+1:0:0:0:0, 3+0:0:0:0:0, 2+0:0:0:0:0, 3+0:0:0:0:0, 2+0:0:0:0:0, 2+0:0:0:0:0, 4+3:1:0:0:1, 0+2:0:0:0:0, 4+2:0:0:0:0, 3+0:0:0:0:0, 3+0:0:0:0:0, 0+1:0:0:0:0, 3+1:0:0:0:0, 2+1:0:0:0:0, 2+1:0:0:0:0, 2+1:0:0:0:0, 2+1:0:0:0:0, 3+0:0:0:0:0, 2+0:0:0:0:0, 4+0:0:0:0:0, 2+1:0:0:0:0, 2+1:0:0:0:0, 3+1:0:0:0:0, 3+0:0:0:0:0, 0+0:0:0:0:0, 2+0:0:0:0:0, 2+0:0:0:0:0, 2+0:0:0:0:0, 2+1:0:0:0:0, 3+1:0:0:0:0, 3+0:0:0:0:0, 3+0:0:0:0:0, 4+0:0:0:0:0, 3+1:0:0:0:1, 1+2:0:1:0:0, 2+1:0:0:0:0, 2+0:0:0:0:0, 0+0:0:0:0:0, 2+3:0:0:0:0, 2+2:0:0:0:0, 4+0:0:0:0:0, 3+1:0:0:0:0, 3+0:0:0:0:0, 0+3:0:0:0:0, 3+1:0:0:0:0, 0+0:0:0:0:0, 1+0:0:0:0:0, 2+1:0:0:0:0, 3+1:0:0:0:0, 3+1:0:0:0:0, 2+0:0:0:0:0, 3+0:0:0:0:0, 3+0:0:0:0:0, 1+1:0:0:0:0, 2+1:1:0:0:1, 2+0:0:0:0:0, 4+1:0:0:0:0, 1+0:0:0:0:0, 2+1:0:0:0:1, 3+0:0:0:0:0, 1+2:0:0:0:0, 2+0:0:0:0:0, 4+1:0:0:0:0, 3+0:0:0:0:0, 3+1:0:0:0:0, 3+0:0:0:0:0, 2+0:0:0:0:0, 4+0:0:0:0:0, 2+0:0:0:0:0, 1+0:0:0:0:0, 3+1:0:0:0:0, 1+3:0:0:0:0, 3+0:0:0:0:0, 2+0:0:0:0:0, 2+0:0:0:0:0, 2+1:0:0:0:0, 2+1:0:0:0:1, 2+1:0:0:0:0, 1+0:0:0:0:0, 2+0:0:0:0:0, 3+1:0:0:0:0, 3+1:0:0:0:0, 0+0:0:0:0:0, 2+0:0:0:0:0, 3+1:0:0:0:0, 3+0:0:0:0:0, 2+1:0:0:0:0, 2+1:0:0:0:0, 2+1:0:0:0:0, 2+0:0:0:0:0, 2+2:0:0:0:0, 2+0:0:0:0:0, 4+1:0:0:0:0, 3+0:0:0:0:0, 2+0:0:0:0:0, 2+0:0:0:0:0, 3+0:0:0:0:0, 3+1:0:0:0:0, 2+1:0:0:0:0, 2+1:0:0:0:0, 2+1:0:0:0:0, 3+0:0:0:0:0, 0+0:0:0:0:0, 2+0:0:0:0:0, 3+1:0:0:0:0, 2+0:0:0:0:0, 2+2:0:0:0:0, 2+0:0:0:0:0, 3+1:0:0:0:0, 3+1:0:0:0:0, 2+1:0:0:0:0, 1+0:0:0:0:0, 1+1:0:0:0:0, 0+0:0:0:0:0, 3+1:0:0:0:0, 0+0:0:0:0:0, 0+0:0:0:0:0, 0+0:0:0:0:0, 0+0:0:0:0:0, 485+133:2:5:0:9
G# minor (5#), 4+1:0:0:0:0, 4+0:0:0:0:0, 4+1:0:0:0:0, 5+0:0:0:0:0, 2+0:0:0:0:0, 4+3:0:0:0:3, 3+0:0:0:0:0, 3+3:1:0:0:0, 2+0:0:0:0:0, 2+0:0:0:0:0, 3+0:0:0:0:0, 5+3:0:0:0:1, 2+0:0:0:0:0, 3+2:0:0:0:0, 2+2:0:0:0:0, 3+1:0:0:0:0, 3+1:0:0:0:0, 4+1:0:0:0:0, 1+0:0:0:0:0, 1+4:0:0:0:0, 2+0:0:0:0:0, 6+1:0:0:0:1, 2+2:1:0:0:1, 2+5:1:0:0:1, 2+2:0:0:0:0, 3+1:0:0:0:0, 1+0:0:0:0:0, 1+0:0:0:0:0, 3+0:0:0:0:0, 3+2:0:0:0:0, 1+0:0:0:0:0, 4+1:0:0:0:0, 4+0:0:0:0:0, 4+1:0:0:0:0, 4+1:0:0:0:0, 2+1:0:0:0:1, 2+0:0:0:0:0, 2+1:0:0:0:1, 3+0:0:0:0:0, 3+3:1:0:0:0, 4+1:0:0:0:0, 3+1:0:1:0:0, 3+1:0:0:0:0, 3+2:0:0:0:2, 3+2:0:0:0:0, 4+2:0:0:0:0, 3+2:2:0:0:1, 4+0:0:0:0:0, 2+0:0:0:0:0, 1+1:0:0:0:0, 2+2:0:0:0:0, 2+0:0:0:0:0, 2+1:1:0:0:1, 4+0:0:0:0:0, 4+1:0:0:0:0, 2+0:0:0:0:0, 3+1:0:0:0:0, 3+1:0:0:0:0, 3+0:0:0:0:0, 3+3:0:0:0:0, 4+0:0:0:0:0, 3+2:0:0:0:0, 2+1:0:0:0:1, 2+2:0:0:0:0, 3+1:1:0:0:0, 3+1:0:0:0:0, 4+1:0:0:0:0, 2+1:0:0:0:1, 4+1:0:0:0:0, 4+3:0:0:0:3, 3+0:0:0:0:0, 4+2:0:0:0:0, 3+0:0:0:0:0, 3+2:2:0:0:0, 4+1:0:0:0:0, 4+2:0:0:0:0, 4+0:0:0:0:0, 3+2:0:0:0:0, 4+0:0:0:0:0, 4+3:0:0:0:0, 3+3:0:0:0:0, 1+1:0:0:0:1, 2+2:0:0:0:0, 2+0:0:0:0:0, 2+1:1:0:0:1, 4+0:0:0:0:0, 5+1:0:0:0:0, 2+0:0:0:0:0, 4+1:0:0:0:0, 4+1:0:0:0:0, 2+2:0:0:0:0, 4+3:0:0:0:0, 4+2:1:0:0:1, 1+2:0:0:0:0, 4+4:0:0:0:2, 3+1:0:0:0:0, 3+1:1:0:0:0, 3+1:0:0:0:0, 4+1:0:0:0:0, 2+1:0:0:0:1, 4+2:0:0:0:0, 3+1:0:0:0:1, 3+1:0:0:0:0, 3+2:0:0:0:0, 4+3:0:0:0:0, 4+0:0:0:0:0, 3+0:0:0:0:0, 3+3:1:0:0:0, 4+0:0:0:0:0, 4+2:0:0:0:0, 3+0:0:0:0:0, 4+1:0:0:0:0, 4+4:2:0:0:2, 1+0:0:0:0:0, 3+3:2:0:0:2, 3+1:0:0:0:1, 4+1:0:0:0:0, 4+1:0:0:0:0, 2+2:1:1:0:1, 2+2:0:0:0:0, 4+1:0:0:0:0, 5+1:0:0:0:0, 3+1:0:0:0:0, 3+1:0:0:0:0, 3+2:0:0:0:0, 4+2:0:0:0:0, 4+0:0:0:0:0, 2+2:0:0:0:0, 3+1:1:0:0:0, 3+1:0:0:0:0, 4+2:0:0:0:0, 3+2:0:0:0:0, 4+1:0:0:0:0, 2+1:1:0:0:1, 3+1:0:0:0:0, 4+2:0:0:0:0, 4+1:0:0:0:1, 3+0:0:0:0:0, 4+0:0:0:0:0, 4+1:0:0:0:0, 3+1:0:0:0:0, 1+2:0:0:0:0, 3+2:0:0:0:1, 4+2:0:0:0:0, 2+2:0:0:0:0, 1+1:0:0:0:1, 2+2:0:0:0:0, 2+0:0:0:0:0, 2+1:1:0:0:1, 4+0:0:0:0:0, 3+0:0:0:0:0, 2+0:0:0:0:0, 2+2:0:0:0:0, 3+2:0:0:0:0, 3+1:0:0:0:0, 4+3:0:0:0:0, 3+1:1:0:0:1, 4+2:0:0:0:0, 4+1:0:0:0:0, 3+1:0:0:0:0, 2+1:0:0:0:0, 4+3:0:0:0:0, 4+0:0:0:0:0, 5+2:0:0:0:0, 3+1:0:0:0:0, 2+1:0:0:0:1, 4+0:0:0:0:0, 3+3:0:0:0:0, 4+1:0:0:0:0, 4+1:0:0:0:1, 3+0:0:0:0:0, 4+3:1:0:0:0, 3+0:0:0:0:0, 3+2:0:0:0:0, 4+0:0:0:0:0, 4+1:0:0:0:0, 2+0:0:0:0:0, 1+1:0:0:0:0, 3+3:3:0:0:3, 3+4:0:0:0:0, 4+1:0:0:0:0, 2+0:0:0:0:0, 2+1:1:0:0:1, 2+2:0:0:0:0, 4+1:0:0:0:0, 4+1:0:0:0:0, 2+2:0:0:0:0, 4+3:0:0:0:0, 3+1:1:0:0:1, 1+3:0:0:0:3, 2+2:0:0:0:2, 2+0:0:0:0:0, 3+1:0:0:0:1, 1+3:0:0:0:3, 2+1:0:0:0:0, 2+2:0:0:0:0, 3+2:2:0:0:2, 1+2:0:0:0:0, 2+5:0:0:0:0, 3+1:0:1:0:0, 4+0:0:0:0:0, 4+1:0:0:0:0, 3+2:1:0:0:1, 3+2:0:0:0:1, 3+1:0:0:0:0, 1+3:0:0:0:0, 2+3:0:1:0:1, 2+1:0:1:0:0, 3+1:0:0:0:1, 1+3:0:0:0:0, 2+1:0:0:0:0, 4+3:0:0:0:0, 3+0:0:0:0:0, 5+3:1:0:0:0, 3+2:1:0:0:1, 1+0:0:0:0:0, 4+2:0:0:0:1, 3+3:1:0:0:0, 2+0:0:0:0:0, 4+2:0:0:0:1, 1+0:0:0:0:0, 5+3:0:0:0:0, 1+0:0:0:0:0, 1+0:0:0:0:0, 1+0:0:0:0:0, 1+0:0:0:0:0, 668+292:35:5:0:62
Gb major (6b), 3+0:0:0:0:0, 4+0:0:0:0:0, 3+0:0:0:0:0, 3+0:0:0:0:0, 2+0:0:0:0:0, 1+0:0:0:0:0, 2+0:0:0:0:0, 3+1:0:0:0:0, 2+0:0:0:0:0, 2+0:0:0:0:0, 2+0:0:0:0:0, 5+2:0:0:0:0, 2+0:0:0:0:0, 2+0:0:0:0:0, 1+0:0:0:0:0, 3+1:0:0:0:0, 2+0:0:0:0:0, 3+1:0:1:0:0, 1+0:0:0:0:0, 1+0:0:0:0:0, 2+0:0:0:0:0, 4+1:0:0:0:0, 2+1:0:0:0:1, 3+1:0:0:0:1, 1+0:0:0:0:0, 1+0:0:0:0:0, 1+0:0:0:0:0, 1+0:0:0:0:0, 2+0:0:0:0:0, 3+1:0:0:0:0, 0+0:0:0:0:0, 3+0:0:0:0:0, 2+0:0:0:0:0, 3+2:0:0:0:2, 1+1:0:0:0:1, 2+1:0:1:0:0, 2+0:0:0:0:0, 0+0:0:0:0:0, 2+0:0:0:0:0, 3+1:0:0:0:0, 3+0:0:0:0:0, 4+1:0:0:0:0, 2+0:0:0:0:0, 2+2:0:0:0:0, 3+0:0:0:0:0, 3+0:0:0:0:0, 3+1:0:0:0:0, 3+0:0:0:0:0, 2+0:0:0:0:0, 3+1:0:0:0:0, 2+2:0:0:0:0, 4+0:0:0:0:0, 3+1:0:0:0:0, 3+0:0:0:0:0, 1+1:0:0:0:0, 4+0:0:0:0:0, 3+1:0:0:0:0, 3+0:0:0:0:0, 4+0:0:0:0:0, 3+0:0:0:0:0, 3+0:0:0:0:0, 4+0:0:0:0:0, 1+1:0:0:0:0, 4+0:0:0:0:0, 2+1:0:0:0:0, 4+0:0:0:0:0, 1+1:0:1:0:1, 2+1:0:1:0:0, 3+0:0:0:0:0, 2+1:0:0:0:0, 3+1:0:0:0:0, 2+3:0:0:0:0, 2+0:0:0:0:0, 3+2:0:0:0:0, 2+1:0:1:0:0, 5+0:0:0:0:0, 3+0:0:0:0:0, 2+0:0:0:0:0, 3+0:0:0:0:0, 3+0:0:0:0:0, 2+1:0:0:0:0, 2+0:0:0:0:0, 2+2:0:0:0:0, 4+0:0:0:0:0, 3+1:0:0:0:0, 3+0:0:0:0:0, 3+1:0:0:0:0, 4+0:0:0:0:0, 1+1:0:1:0:1, 2+0:0:0:0:0, 2+0:0:0:0:0, 4+1:0:0:0:0, 3+1:0:0:0:0, 2+1:0:0:0:1, 3+0:0:0:0:0, 4+0:0:0:0:0, 2+1:0:0:0:0, 3+1:0:1:0:1, 1+1:0:1:0:0, 2+1:0:1:0:0, 3+0:0:0:0:0, 1+1:0:1:0:0, 2+1:0:1:0:0, 2+1:0:0:0:0, 4+1:0:0:0:0, 3+0:0:0:0:0, 2+0:0:0:0:0, 3+1:0:0:0:0, 3+0:0:0:0:0, 3+0:0:0:0:0, 3+0:0:0:0:0, 3+0:0:0:0:0, 3+0:0:0:0:0, 4+1:0:0:0:0, 1+3:0:0:0:0, 5+1:0:0:0:0, 3+0:0:0:0:0, 4+0:0:0:0:0, 0+1:0:0:0:0, 4+1:0:0:0:0, 1+1:0:1:0:0, 3+0:0:0:0:0, 3+1:0:0:0:0, 2+1:0:0:0:1, 3+0:0:0:0:0, 3+0:0:0:0:0, 4+0:0:0:0:0, 3+1:0:0:0:0, 2+1:0:0:0:0, 3+1:0:1:0:1, 3+0:0:0:0:0, 1+0:0:0:0:0, 3+0:0:0:0:0, 1+0:0:0:0:0, 2+1:0:0:0:0, 3+1:0:0:0:0, 3+1:0:0:0:0, 3+0:0:0:0:0, 3+0:0:0:0:0, 5+0:0:0:0:0, 2+1:0:1:0:0, 2+1:0:1:0:0, 2+1:0:0:0:0, 3+0:0:0:0:0, 1+1:0:0:0:0, 2+0:0:0:0:0, 2+2:0:0:0:0, 4+0:0:0:0:0, 3+1:0:0:0:0, 3+0:0:0:0:0, 0+0:0:0:0:0, 4+0:0:0:0:0, 0+0:0:0:0:0, 1+0:0:0:0:0, 3+1:0:0:0:0, 4+1:0:0:0:0, 3+1:0:0:0:0, 3+0:0:0:0:0, 3+0:0:0:0:0, 4+0:0:0:0:0, 1+1:0:0:0:0, 2+1:1:0:0:1, 3+0:0:0:0:0, 4+1:0:0:0:0, 2+0:0:0:0:0, 1+1:0:1:0:0, 3+0:0:0:0:0, 2+2:0:0:0:0, 3+0:0:0:0:0, 4+1:0:0:0:0, 3+0:0:0:0:0, 4+1:0:0:0:0, 3+0:0:0:0:0, 3+0:0:0:0:0, 4+0:0:0:0:0, 3+0:0:0:0:0, 2+0:0:0:0:0, 3+1:0:0:0:0, 1+1:0:0:0:0, 3+0:0:0:0:0, 3+0:0:0:0:0, 2+0:0:0:0:0, 1+4:0:0:0:0, 3+2:0:0:0:1, 1+1:0:0:0:0, 2+0:0:0:0:0, 2+3:0:0:0:0, 4+1:0:0:0:0, 3+1:0:0:0:0, 1+0:0:0:0:0, 2+3:0:0:0:0, 3+1:0:0:0:0, 3+0:0:0:0:0, 3+1:0:0:0:0, 3+1:0:0:0:0, 3+1:0:0:0:0, 2+0:0:0:0:0, 3+2:0:0:0:0, 3+0:0:0:0:0, 4+1:0:0:0:0, 3+0:0:0:0:0, 3+0:0:0:0:0, 3+0:0:0:0:0, 3+0:0:0:0:0, 2+1:0:1:0:1, 3+1:0:0:0:0, 3+1:0:0:0:0, 2+1:0:0:0:1, 3+0:0:0:0:0, 1+0:0:0:0:0, 2+3:0:0:0:0, 4+1:0:0:0:0, 2+0:0:0:0:0, 3+2:0:0:0:0, 3+0:0:0:0:0, 3+1:0:0:0:0, 4+1:0:0:0:0, 3+1:0:0:0:0, 1+0:0:0:0:0, 2+1:0:0:0:0, 0+0:0:0:0:0, 4+2:0:0:0:1, 0+0:0:0:0:0, 0+0:0:0:0:0, 0+0:0:0:0:0, 0+0:0:0:0:0, 570+128:1:17:0:16
F# major (6#), 4+1:0:0:0:0, 5+1:0:0:0:0, 4+1:0:0:0:0, 5+0:0:0:0:0, 2+0:0:0:0:0, 4+3:0:0:0:3, 3+0:0:0:0:0, 3+3:1:0:0:0, 2+0:0:0:0:0, 2+0:0:0:0:0, 3+0:0:0:0:0, 6+3:0:0:0:1, 2+2:0:0:0:0, 3+2:0:0:0:0, 2+0:0:0:0:0, 4+0:0:0:0:0, 3+1:0:0:0:0, 4+1:0:0:0:0, 1+0:0:0:0:0, 1+4:0:0:0:0, 2+0:0:0:0:0, 6+1:0:0:0:1, 3+3:0:0:0:1, 2+2:0:0:0:1, 2+0:0:0:0:0, 3+1:0:0:0:0, 1+1:0:0:0:0, 1+0:0:0:0:0, 3+0:0:0:0:0, 4+2:0:0:0:0, 1+0:0:0:0:0, 4+2:0:0:0:0, 4+0:0:0:0:0, 5+1:0:0:0:0, 3+1:0:0:0:1, 2+1:0:0:0:1, 2+0:0:0:0:0, 2+1:0:0:0:1, 3+0:0:0:0:0, 3+3:1:0:0:0, 4+1:0:0:0:0, 5+2:0:0:0:0, 3+4:0:0:0:0, 3+2:0:0:0:2, 3+2:0:0:0:0, 4+2:0:0:0:0, 3+1:0:0:0:0, 4+3:0:0:0:0, 3+0:0:0:0:0, 2+1:0:0:0:0, 3+2:0:0:0:0, 2+0:0:0:0:0, 3+3:0:0:0:0, 4+0:0:0:0:0, 4+2:0:0:0:0, 3+1:0:0:0:0, 3+2:0:0:0:0, 4+1:0:0:0:0, 4+2:0:0:0:0, 3+0:0:0:0:0, 4+0:0:0:0:0, 4+1:0:0:0:0, 3+1:0:0:0:0, 3+2:0:0:0:0, 3+1:1:0:0:0, 4+1:0:0:0:0, 3+1:0:0:0:1, 2+1:0:0:0:1, 4+1:0:0:0:0, 3+4:0:1:0:2, 4+2:0:0:0:0, 3+2:0:0:0:0, 3+0:0:0:0:0, 3+2:2:0:0:0, 4+1:0:0:0:0, 5+1:0:0:0:0, 4+0:0:0:0:0, 3+2:0:0:0:0, 4+1:0:0:0:0, 4+3:0:0:0:0, 3+3:0:0:0:0, 2+0:0:0:0:0, 3+2:0:0:0:0, 2+0:0:0:0:0, 3+3:0:0:0:0, 4+0:0:0:0:0, 5+1:0:0:0:0, 3+0:0:0:0:0, 3+1:0:0:0:1, 4+1:0:0:0:0, 2+2:0:0:0:0, 4+3:0:0:0:0, 4+2:1:0:0:1, 1+2:0:0:0:0, 4+4:0:0:0:2, 4+1:0:0:0:0, 3+1:1:0:0:0, 4+1:0:0:0:0, 3+1:0:0:0:1, 2+1:0:0:0:1, 4+2:0:0:0:0, 3+1:0:0:0:1, 3+1:0:0:0:0, 3+2:0:0:0:0, 5+3:0:0:0:0, 4+0:0:0:0:0, 3+0:0:0:0:0, 3+3:1:0:0:0, 4+0:0:0:0:0, 4+2:0:0:0:0, 4+0:0:0:0:0, 4+3:0:0:0:0, 4+3:0:0:0:0, 2+0:0:0:0:0, 3+5:0:0:0:1, 3+1:0:0:0:0, 4+0:0:0:0:0, 4+3:0:0:0:0, 1+2:1:1:0:2, 3+1:0:0:0:0, 3+1:0:0:0:1, 5+1:0:0:0:0, 3+1:0:0:0:0, 4+1:0:0:0:0, 4+2:0:0:0:0, 4+2:0:0:0:0, 5+1:0:0:0:0, 3+3:0:0:0:0, 3+1:1:0:0:0, 4+1:0:0:0:0, 4+2:0:0:0:0, 3+2:0:0:0:0, 4+1:0:0:0:0, 2+1:1:0:0:1, 3+5:0:0:0:0, 4+2:0:0:0:0, 4+1:0:0:0:1, 4+3:0:0:0:0, 4+0:0:0:0:0, 5+1:0:0:0:0, 3+1:0:0:0:0, 1+2:0:0:0:0, 3+2:0:0:0:1, 4+2:0:0:0:0, 2+2:0:0:0:0, 2+0:0:0:0:0, 3+2:0:0:0:0, 2+0:0:0:0:0, 3+3:0:0:0:0, 4+0:0:0:0:0, 3+0:0:0:0:0, 3+0:0:0:0:0, 2+2:0:0:0:0, 3+2:0:0:0:0, 3+1:0:0:0:0, 4+3:0:0:0:0, 3+1:1:0:0:1, 4+2:0:0:0:0, 4+1:0:0:0:0, 4+2:0:0:0:0, 3+1:0:0:0:0, 4+3:0:0:0:0, 4+0:0:0:0:0, 5+2:0:0:0:0, 3+1:0:0:0:0, 2+1:0:0:0:1, 4+0:0:0:0:0, 3+3:0:0:0:0, 4+1:0:0:0:0, 5+2:0:0:0:0, 4+2:0:0:0:0, 4+3:1:0:0:0, 4+3:0:0:0:0, 3+3:0:0:0:2, 5+1:0:0:0:0, 4+3:0:0:0:0, 3+0:0:0:0:0, 2+1:0:0:0:0, 3+3:3:0:0:3, 3+4:0:0:0:0, 4+1:0:0:0:0, 2+3:0:0:0:0, 2+4:0:0:0:1, 2+0:0:0:0:0, 3+1:0:0:0:1, 4+1:0:0:0:0, 2+2:0:0:0:0, 4+3:0:0:0:0, 3+1:1:0:0:1, 1+3:0:0:0:0, 2+2:0:0:0:0, 2+0:0:0:0:0, 3+1:0:1:0:0, 1+3:0:0:0:0, 2+1:0:1:0:0, 2+1:0:1:0:0, 5+2:0:0:0:0, 1+2:0:0:0:2, 2+0:0:0:0:0, 5+2:0:0:0:0, 4+0:0:0:0:0, 4+1:0:0:0:0, 3+2:0:0:0:0, 3+1:1:1:0:1, 3+1:0:0:0:0, 1+3:0:0:0:0, 2+1:0:1:0:0, 3+1:0:0:0:0, 4+2:0:0:0:0, 2+3:0:0:0:0, 2+2:0:0:0:0, 4+1:0:0:0:0, 3+0:0:0:0:0, 5+3:1:0:0:0, 3+2:0:0:0:0, 2+0:0:0:0:0, 5+2:0:0:0:0, 3+3:1:0:0:0, 2+0:0:0:0:0, 4+2:0:0:0:1, 1+0:0:0:0:0, 6+3:0:0:0:0, 0+0:0:0:0:0, 0+0:0:0:0:0, 0+0:0:0:0:0, 0+0:0:0:0:0, 715+323:20:7:0:44
Eb minor (6b), 3+0:0:0:0:0, 4+0:0:0:0:0, 3+0:0:0:0:0, 3+0:0:0:0:0, 2+0:0:0:0:0, 1+0:0:0:0:0, 2+0:0:0:0:0, 3+1:0:0:0:0, 2+0:0:0:0:0, 2+0:0:0:0:0, 2+0:0:0:0:0, 5+2:0:0:0:0, 2+0:0:0:0:0, 2+0:0:0:0:0, 1+0:0:0:0:0, 3+1:0:0:0:0, 2+0:0:0:0:0, 3+1:0:1:0:0, 1+0:0:0:0:0, 1+0:0:0:0:0, 2+0:0:0:0:0, 4+1:0:0:0:0, 2+1:0:0:0:1, 3+1:0:0:0:1, 1+0:0:0:0:0, 1+0:0:0:0:0, 1+0:0:0:0:0, 1+0:0:0:0:0, 2+0:0:0:0:0, 3+1:0:0:0:0, 0+0:0:0:0:0, 3+0:0:0:0:0, 2+0:0:0:0:0, 3+2:0:0:0:0, 1+1:0:0:0:0, 2+1:0:1:0:0, 2+0:0:0:0:0, 0+0:0:0:0:0, 2+0:0:0:0:0, 3+1:0:0:0:0, 3+0:0:0:0:0, 4+1:0:0:0:0, 2+0:0:0:0:0, 2+2:0:0:0:0, 3+0:0:0:0:0, 3+0:0:0:0:0, 3+1:0:0:0:0, 3+0:0:0:0:0, 2+0:0:0:0:0, 3+1:0:0:0:0, 2+2:0:0:0:0, 4+0:0:0:0:0, 3+1:0:0:0:0, 3+0:0:0:0:0, 1+3:0:0:0:0, 4+1:0:0:0:0, 3+1:0:0:0:0, 3+0:0:0:0:0, 4+0:0:0:0:0, 3+0:0:0:0:0, 3+0:0:0:0:0, 4+0:0:0:0:0, 1+1:0:0:0:0, 4+0:0:0:0:0, 2+1:0:0:0:0, 3+1:0:1:0:1, 1+1:0:1:0:0, 2+1:0:1:0:0, 3+0:0:0:0:0, 2+1:0:0:0:0, 3+1:0:0:0:0, 2+3:0:0:0:0, 2+0:0:0:0:0, 3+2:0:0:0:0, 2+1:0:1:0:0, 5+0:0:0:0:0, 3+0:0:0:0:0, 2+0:0:0:0:0, 3+0:0:0:0:0, 3+0:0:0:0:0, 2+1:0:0:0:0, 2+0:0:0:0:0, 2+2:0:0:0:0, 4+0:0:0:0:0, 3+1:0:0:0:0, 3+0:0:0:0:0, 3+1:0:0:0:0, 4+0:0:0:0:0, 1+1:0:1:0:0, 2+0:0:0:0:0, 2+3:0:0:0:0, 4+1:0:0:0:0, 3+1:0:0:0:0, 2+1:0:0:0:1, 3+0:0:0:0:0, 4+0:0:0:0:0, 2+1:0:0:0:0, 3+1:0:1:0:1, 1+1:0:1:0:0, 2+1:0:1:0:0, 3+0:0:0:0:0, 1+1:0:1:0:0, 2+1:0:1:0:0, 2+1:0:0:0:0, 3+1:0:1:0:0, 3+0:0:0:0:0, 2+0:0:0:0:0, 3+1:0:0:0:0, 3+0:0:0:0:0, 3+0:0:0:0:0, 3+2:0:0:0:0, 3+0:0:0:0:0, 3+0:0:0:0:0, 4+1:0:0:0:1, 1+2:0:0:0:0, 5+1:0:0:0:0, 3+0:0:0:0:0, 4+0:0:0:0:0, 0+1:0:0:0:0, 4+1:0:0:0:0, 1+1:0:1:0:0, 3+0:0:0:0:0, 3+1:0:0:0:0, 2+1:0:0:0:1, 3+0:0:0:0:0, 3+0:0:0:0:0, 4+0:0:0:0:0, 3+1:0:0:0:0, 2+1:0:0:0:0, 3+1:0:1:0:1, 3+0:0:0:0:0, 1+0:0:0:0:0, 3+0:0:0:0:0, 1+0:0:0:0:0, 2+1:0:0:0:0, 3+1:0:0:0:0, 3+1:0:0:0:0, 3+0:0:0:0:0, 3+0:0:0:0:0, 5+0:0:0:0:0, 2+1:0:1:0:0, 2+1:0:1:0:0, 2+1:0:0:0:0, 3+0:0:0:0:0, 1+1:0:0:0:0, 2+0:0:0:0:0, 2+2:0:0:0:0, 4+0:0:0:0:0, 3+1:0:0:0:0, 3+0:0:0:0:0, 0+3:0:0:0:0, 4+1:0:0:0:0, 0+0:0:0:0:0, 1+0:0:0:0:0, 3+1:0:0:0:0, 4+1:0:0:0:0, 3+1:0:0:0:0, 3+0:0:0:0:0, 3+0:0:0:0:0, 4+0:0:0:0:0, 1+1:0:0:0:0, 2+1:1:0:0:1, 3+0:0:0:0:0, 4+1:0:0:0:0, 2+0:0:0:0:0, 1+1:0:1:0:0, 3+0:0:0:0:0, 2+2:0:0:0:0, 3+0:0:0:0:0, 4+1:0:0:0:0, 3+0:0:0:0:0, 4+1:0:0:0:0, 3+0:0:0:0:0, 3+1:0:0:0:0, 4+0:0:0:0:0, 3+0:0:0:0:0, 2+0:0:0:0:0, 3+1:0:0:0:0, 1+1:0:0:0:0, 3+0:0:0:0:0, 3+0:0:0:0:0, 2+0:0:0:0:0, 1+4:0:0:0:0, 3+2:0:0:0:1, 1+1:0:0:0:0, 2+0:0:0:0:0, 2+3:0:0:0:0, 4+1:0:0:0:0, 3+1:0:0:0:0, 1+0:0:0:0:0, 2+3:0:0:0:0, 3+1:0:0:0:0, 3+0:0:0:0:0, 3+1:0:0:0:0, 3+1:0:0:0:0, 3+1:0:0:0:0, 2+0:0:0:0:0, 3+2:0:0:0:0, 3+0:0:0:0:0, 4+1:0:0:0:0, 3+0:0:0:0:0, 3+0:0:0:0:0, 3+0:0:0:0:0, 3+0:0:0:0:0, 2+1:0:1:0:1, 3+1:0:0:0:0, 3+1:0:0:0:0, 2+1:0:0:0:1, 3+0:0:0:0:0, 1+0:0:0:0:0, 2+3:0:0:0:0, 4+1:0:0:0:0, 2+0:0:0:0:0, 3+2:0:0:0:0, 3+0:0:0:0:0, 3+1:0:0:0:0, 4+1:0:0:0:0, 3+1:0:0:0:0, 1+0:0:0:0:0, 2+1:0:0:0:0, 0+0:0:0:0:0, 4+1:0:0:0:0, 0+0:0:0:0:0, 0+0:0:0:0:0, 0+0:0:0:0:0, 0+0:0:0:0:0, 568+140:1:19:0:12
D# minor (6#), 4+1:0:0:0:0, 5+1:0:0:0:0, 4+1:0:0:0:0, 5+0:0:0:0:0, 2+0:0:0:0:0, 4+3:0:0:0:3, 3+0:0:0:0:0, 3+3:1:0:0:0, 2+2:0:0:0:0, 2+2:0:0:0:0, 3+0:0:0:0:0, 6+3:0:0:0:1, 2+2:0:0:0:0, 3+2:0:0:0:0, 2+0:0:0:0:0, 4+0:0:0:0:0, 3+1:0:0:0:0, 4+1:0:0:0:0, 1+0:0:0:0:0, 1+4:0:0:0:0, 2+0:0:0:0:0, 6+1:0:0:0:1, 3+3:0:0:0:1, 2+2:0:0:0:1, 2+0:0:0:0:0, 3+1:0:0:0:0, 1+1:0:0:0:0, 1+0:0:0:0:0, 3+0:0:0:0:0, 4+2:0:0:0:0, 1+0:0:0:0:0, 4+2:0:0:0:0, 4+0:0:0:0:0, 5+1:0:0:0:0, 3+1:0:0:0:1, 2+1:0:0:0:1, 2+0:0:0:0:0, 2+1:0:0:0:1, 3+0:0:0:0:0, 3+3:1:0:0:0, 4+1:0:0:0:0, 5+2:0:0:0:0, 3+0:0:0:0:0, 3+2:0:0:0:0, 3+3:0:0:0:0, 4+2:0:0:0:0, 3+1:0:0:0:0, 4+3:0:0:0:0, 3+0:0:0:0:0, 2+1:0:0:0:0, 3+2:0:0:0:0, 2+0:0:0:0:0, 3+3:0:0:0:0, 4+0:0:0:0:0, 4+2:0:0:0:0, 3+1:0:0:0:0, 3+2:0:0:0:0, 4+1:0:0:0:0, 4+2:0:0:0:0, 3+0:0:0:0:0, 4+0:0:0:0:0, 4+1:0:0:0:0, 3+1:0:0:0:0, 3+2:0:0:0:0, 3+1:1:0:0:0, 4+1:0:0:0:0, 3+1:0:0:0:1, 2+1:0:0:0:1, 4+1:0:0:0:0, 3+4:0:1:0:2, 4+2:0:0:0:0, 3+2:0:0:0:0, 3+0:0:0:0:0, 3+2:2:0:0:0, 4+1:0:0:0:0, 5+1:0:0:0:0, 4+0:0:0:0:0, 3+2:0:0:0:0, 4+1:0:0:0:0, 4+3:0:0:0:0, 3+3:0:0:0:0, 2+0:0:0:0:0, 3+2:0:0:0:0, 2+0:0:0:0:0, 3+3:0:0:0:0, 4+0:0:0:0:0, 5+1:0:0:0:0, 3+0:0:0:0:0, 3+1:0:0:0:1, 4+1:0:0:0:0, 2+2:0:0:0:0, 4+3:0:0:0:0, 4+2:1:0:0:1, 1+2:0:0:0:0, 4+1:0:0:0:0, 4+2:0:0:0:0, 3+1:1:0:0:0, 4+1:0:0:0:0, 3+1:0:0:0:1, 2+1:0:0:0:1, 4+2:0:0:0:0, 3+1:0:0:0:1, 3+3:0:0:0:1, 3+2:0:0:0:0, 5+3:0:0:0:0, 4+0:0:0:0:0, 3+0:0:0:0:0, 3+3:1:0:0:0, 4+0:0:0:0:0, 4+2:0:0:0:0, 4+0:0:0:0:0, 4+3:0:0:0:0, 4+3:0:0:0:0, 2+0:0:0:0:0, 3+5:0:0:0:1, 3+0:0:0:0:0, 4+0:0:0:0:0, 4+3:0:0:0:0, 1+1:1:0:0:1, 3+1:0:0:0:0, 3+1:0:0:0:1, 5+1:0:0:0:0, 3+1:0:0:0:0, 4+1:0:0:0:0, 4+2:0:0:0:0, 4+2:0:0:0:0, 5+1:0:0:0:0, 3+3:0:0:0:0, 3+1:1:0:0:0, 4+1:0:0:0:0, 4+2:0:0:0:0, 3+2:0:0:0:0, 4+1:0:0:0:0, 2+1:1:0:0:1, 3+5:0:0:0:0, 4+2:0:0:0:0, 4+1:0:0:0:1, 4+3:0:0:0:0, 4+0:0:0:0:0, 5+1:0:0:0:0, 3+1:0:0:0:0, 1+2:0:0:0:0, 3+2:0:0:0:1, 4+2:0:0:0:0, 2+2:0:0:0:0, 2+0:0:0:0:0, 3+2:0:0:0:0, 2+0:0:0:0:0, 3+3:0:0:0:0, 4+0:0:0:0:0, 3+0:0:0:0:0, 3+0:0:0:0:0, 2+2:0:0:0:0, 3+2:0:0:0:0, 3+1:0:0:0:0, 4+3:0:0:0:0, 3+1:1:0:0:1, 4+2:0:0:0:0, 4+1:0:0:0:0, 4+2:0:0:0:0, 3+1:0:0:0:0, 4+3:0:0:0:0, 4+0:0:0:0:0, 5+2:0:0:0:0, 3+1:0:0:0:0, 2+1:0:0:0:1, 4+0:0:0:0:0, 3+3:0:0:0:0, 4+1:0:0:0:0, 5+2:0:0:0:0, 4+2:0:0:0:0, 4+3:1:0:0:0, 4+3:0:0:0:0, 3+3:0:0:0:2, 5+1:0:0:0:0, 4+3:0:0:0:0, 3+0:0:0:0:0, 2+2:0:0:0:0, 4+3:0:0:0:0, 3+1:0:0:0:0, 4+1:0:0:0:0, 2+3:0:0:0:0, 2+4:0:0:0:1, 2+0:0:0:0:0, 3+1:0:0:0:1, 4+1:0:0:0:0, 2+2:0:0:0:0, 4+3:0:0:0:0, 3+1:1:0:0:1, 1+3:0:0:0:3, 2+2:0:0:0:2, 2+0:0:0:0:0, 3+1:0:1:0:0, 1+3:0:0:0:3, 2+1:0:0:0:0, 2+2:0:0:0:0, 5+2:0:0:0:0, 1+2:0:0:0:2, 2+0:0:0:0:0, 5+2:0:0:0:0, 4+0:0:0:0:0, 4+1:0:0:0:0, 3+2:0:0:0:0, 4+0:0:0:0:0, 3+3:0:0:0:1, 1+1:0:0:0:1, 3+1:0:0:0:0, 4+1:0:0:0:0, 4+2:0:0:0:0, 2+3:0:0:0:0, 2+2:0:0:0:0, 4+1:0:0:0:0, 3+0:0:0:0:0, 5+3:1:0:0:0, 3+2:0:0:0:0, 2+0:0:0:0:0, 5+2:0:0:0:0, 3+3:1:0:0:0, 2+0:0:0:0:0, 4+2:0:0:0:1, 1+0:0:0:0:0, 6+3:0:0:0:0, 0+0:0:0:0:0, 0+0:0:0:0:0, 0+0:0:0:0:0, 0+0:0:0:0:0, 719+320:16:2:0:46
Cb major (7b), 4+0:0:0:0:0, 5+0:0:0:0:0, 4+0:0:0:0:0, 4+0:0:0:0:0, 2+0:0:0:0:0, 2+0:0:0:0:0, 2+0:0:0:0:0, 3+1:0:0:0:0, 2+0:0:0:0:0, 2+0:0:0:0:0, 2+0:0:0:0:0, 4+2:0:1:0:1, 2+0:0:0:0:0, 2+0:0:0:0:0, 2+0:0:0:0:0, 4+0:0:0:0:0, 3+0:0:0:0:0, 4+1:0:1:0:0, 1+0:0:0:0:0, 1+0:0:0:0:0, 2+0:0:0:0:0, 5+1:0:0:0:0, 1+1:0:1:0:0, 3+1:0:0:0:1, 2+0:0:0:0:0, 2+0:0:0:0:0, 1+0:0:0:0:0, 1+0:0:0:0:0, 2+0:0:0:0:0, 3+0:0:0:0:0, 1+0:0:0:0:0, 4+0:0:0:0:0, 3+0:0:0:0:0, 4+1:0:0:0:0, 2+1:0:1:0:1, 3+1:0:1:0:0, 2+0:0:0:0:0, 1+0:0:0:0:0, 2+0:0:0:0:0, 3+1:0:0:0:0, 3+0:0:0:0:0, 5+1:0:0:0:0, 2+0:0:0:0:0, 2+1:0:0:0:0, 3+0:0:0:0:0, 3+0:0:0:0:0, 4+1:0:0:0:0, 4+0:0:0:0:0, 3+0:0:0:0:0, 3+1:0:0:0:0, 0+3:0:1:0:1, 4+0:0:0:0:0, 4+1:0:0:0:0, 3+0:0:0:0:0, 1+1:0:0:0:0, 4+0:0:0:0:0, 4+1:0:0:0:0, 4+0:0:0:0:0, 4+0:0:0:0:0, 3+0:0:0:0:0, 3+0:0:0:0:0, 4+0:0:0:0:0, 2+1:0:0:0:0, 4+0:0:0:0:0, 3+1:0:0:0:0, 4+1:0:1:0:1, 2+1:0:1:0:1, 3+1:0:1:0:1, 3+0:0:0:0:0, 3+1:0:0:0:0, 4+0:0:0:0:0, 2+2:0:0:0:0, 2+0:0:0:0:0, 3+2:0:0:0:0, 2+1:0:1:0:1, 5+0:0:0:0:0, 3+0:0:0:0:0, 2+0:0:0:0:0, 4+0:0:0:0:0, 4+0:0:0:0:0, 3+1:0:0:0:0, 3+3:0:0:0:0, 0+3:0:1:0:1, 4+0:0:0:0:0, 4+1:0:0:0:0, 3+0:0:0:0:0, 3+1:0:0:0:0, 4+0:0:0:0:0, 2+1:0:1:0:1, 3+0:0:0:0:0, 2+0:0:0:0:0, 4+1:0:0:0:0, 3+1:0:0:0:0, 2+1:0:0:0:1, 4+0:0:0:0:0, 4+0:0:0:0:0, 3+1:0:0:0:0, 4+1:0:1:0:1, 2+1:0:1:0:1, 3+1:0:1:0:1, 4+0:0:0:0:0, 3+2:0:0:0:0, 2+1:0:1:0:1, 2+2:0:0:0:0, 5+1:0:0:0:0, 3+0:0:0:0:0, 2+0:0:0:0:0, 3+1:0:0:0:0, 3+0:0:0:0:0, 3+0:0:0:0:0, 4+0:0:0:0:0, 4+0:0:0:0:0, 4+3:0:0:0:0, 4+0:0:0:0:0, 1+2:0:0:0:0, 5+1:0:0:0:0, 3+0:0:0:0:0, 4+0:0:0:0:0, 1+1:0:0:0:0, 4+1:0:0:0:0, 2+1:0:1:0:1, 4+1:0:0:0:0, 3+1:0:0:0:0, 3+1:0:0:0:0, 4+0:0:0:0:0, 3+0:0:0:0:0, 5+0:0:0:0:0, 3+1:0:0:0:0, 3+1:0:0:0:0, 4+1:0:1:0:1, 4+0:0:0:0:0, 2+0:0:0:0:0, 4+0:0:0:0:0, 1+0:0:0:0:0, 2+1:0:0:0:0, 3+1:0:0:0:0, 3+1:0:0:0:0, 4+0:0:0:0:0, 3+0:0:0:0:0, 5+0:0:0:0:0, 2+1:0:1:0:1, 2+1:0:1:0:1, 3+1:0:0:0:0, 4+0:0:0:0:0, 2+1:0:0:0:0, 3+3:0:0:0:0, 0+3:0:1:0:1, 4+0:0:0:0:0, 4+1:0:0:0:0, 3+0:0:0:0:0, 1+0:0:0:0:0, 4+1:0:0:0:0, 1+0:0:0:0:0, 2+0:0:0:0:0, 3+1:0:0:0:0, 4+1:0:0:0:0, 3+1:0:0:0:0, 3+0:0:0:0:0, 4+0:0:0:0:0, 4+0:0:0:0:0, 2+1:0:0:0:0, 3+1:1:0:0:1, 4+0:0:0:0:0, 5+1:0:0:0:0, 2+0:0:0:0:0, 1+1:0:1:0:0, 3+0:0:0:0:0, 2+2:0:0:0:0, 3+0:0:0:0:0, 5+1:0:0:0:0, 4+0:0:0:0:0, 4+1:0:0:0:0, 4+0:0:0:0:0, 3+0:0:0:0:0, 5+0:0:0:0:0, 4+0:0:0:0:0, 3+0:0:0:0:0, 3+1:0:0:0:0, 1+1:0:0:0:0, 3+0:0:0:0:0, 3+0:0:0:0:0, 2+0:0:0:0:0, 1+1:0:1:0:0, 3+2:0:0:0:1, 2+1:0:0:0:1, 3+0:0:0:0:0, 2+3:0:0:0:0, 4+1:0:0:0:0, 3+1:0:0:0:0, 1+0:0:0:0:0, 2+3:0:0:0:0, 3+1:0:0:0:0, 4+0:0:0:0:0, 3+1:0:0:0:0, 3+1:0:0:0:0, 3+1:0:0:0:0, 2+0:0:0:0:0, 3+2:0:0:0:0, 3+0:0:0:0:0, 5+1:0:0:0:0, 3+0:0:0:0:0, 3+0:0:0:0:0, 3+0:0:0:0:0, 4+0:0:0:0:0, 2+1:0:1:0:1, 3+1:0:0:0:0, 3+1:0:0:0:0, 3+1:0:0:0:0, 4+0:0:0:0:0, 1+0:0:0:0:0, 2+0:0:0:0:0, 4+1:0:0:0:0, 2+0:0:0:0:0, 3+2:0:0:0:0, 3+0:0:0:0:0, 3+0:0:0:0:0, 5+1:0:0:0:0, 3+1:0:0:0:0, 2+0:0:0:0:0, 3+1:0:0:0:0, 1+0:0:0:0:0, 5+1:0:0:0:0, 1+0:0:0:0:0, 1+0:0:0:0:0, 1+0:0:0:0:0, 1+0:0:0:0:0, 660+129:1:24:0:24
C# major (7#), 4+1:0:0:0:0, 5+1:0:0:0:0, 4+1:0:0:0:0, 5+0:0:0:0:0, 2+0:0:0:0:0, 4+3:0:0:0:3, 3+0:0:0:0:0, 3+3:1:0:0:0, 2+2:0:0:0:0, 2+2:0:0:0:0, 3+0:0:0:0:0, 6+3:0:0:0:1, 2+2:0:0:0:0, 3+2:0:0:0:0, 2+0:0:0:0:0, 4+0:0:0:0:0, 3+1:0:0:0:0, 5+1:0:0:0:0, 1+0:0:0:0:0, 1+4:0:0:0:0, 2+0:0:0:0:0, 6+1:0:0:0:1, 3+3:0:0:0:1, 3+1:0:0:0:0, 2+0:0:0:0:0, 2+1:1:1:0:1, 2+0:0:0:0:0, 1+0:0:0:0:0, 3+0:0:0:0:0, 4+2:0:0:0:0, 1+0:0:0:0:0, 4+2:0:0:0:0, 4+0:0:0:0:0, 3+2:0:1:0:1, 4+1:0:0:0:0, 3+1:0:0:0:1, 2+0:0:0:0:0, 3+1:0:0:0:1, 3+0:0:0:0:0, 3+3:1:0:0:0, 4+1:0:0:0:0, 5+2:0:0:0:0, 3+4:0:0:0:0, 3+2:0:0:0:2, 3+2:0:0:0:0, 4+2:0:0:0:0, 3+1:0:0:0:0, 4+3:0:0:0:0, 3+0:0:0:0:0, 3+1:0:0:0:0, 3+2:0:0:0:0, 2+0:0:0:0:0, 3+1:1:0:0:1, 4+0:0:0:0:0, 4+2:0:0:0:0, 4+1:0:0:0:0, 3+2:0:0:0:0, 4+1:0:0:0:0, 4+0:0:0:0:0, 3+3:0:0:0:0, 3+3:0:0:0:1, 4+1:0:0:0:0, 3+1:0:0:0:0, 4+0:0:0:0:0, 3+4:0:0:0:0, 5+1:0:0:0:0, 4+1:0:0:0:0, 3+1:0:0:0:1, 4+1:0:0:0:0, 3+4:0:1:0:2, 4+2:0:0:0:0, 3+2:0:0:0:0, 3+0:0:0:0:0, 3+2:2:0:0:0, 4+1:0:0:0:0, 5+1:0:0:0:0, 4+0:0:0:0:0, 3+2:0:0:0:0, 4+1:0:0:0:0, 4+3:0:0:0:0, 3+3:0:0:0:0, 3+0:0:0:0:0, 3+2:0:0:0:0, 2+0:0:0:0:0, 3+3:0:0:0:0, 4+0:0:0:0:0, 5+1:0:0:0:0, 4+0:0:0:0:0, 4+1:0:0:0:0, 3+1:1:1:0:1, 2+2:0:0:0:0, 2+4:0:1:0:1, 4+2:1:0:0:1, 2+1:0:0:0:0, 4+1:0:0:0:0, 4+2:0:0:0:0, 3+1:1:0:0:0, 5+1:0:0:0:0, 4+1:0:0:0:0, 3+1:0:0:0:1, 4+2:0:0:0:0, 4+1:0:0:0:1, 4+1:0:0:0:0, 3+2:0:0:0:0, 5+3:0:0:0:0, 4+0:0:0:0:0, 3+0:0:0:0:0, 3+3:1:0:0:0, 4+0:0:0:0:0, 4+2:0:0:0:0, 4+0:0:0:0:0, 4+3:0:0:0:0, 4+3:0:0:0:0, 3+2:0:0:0:0, 3+2:2:0:0:2, 3+1:0:1:0:0, 4+3:0:0:0:0, 4+1:0:0:0:0, 1+1:1:0:0:1, 4+0:0:0:0:0, 4+1:0:0:0:0, 5+1:0:0:0:0, 4+1:0:0:0:0, 4+1:0:0:0:0, 4+2:0:0:0:0, 4+2:0:0:0:0, 5+1:0:0:0:0, 3+3:0:0:0:0, 3+1:1:0:0:0, 5+1:0:0:0:0, 4+2:0:0:0:0, 2+2:2:2:0:2, 4+1:0:0:0:0, 3+1:1:0:0:1, 3+5:0:0:0:0, 4+2:0:0:0:0, 4+1:0:0:0:1, 4+3:0:0:0:0, 4+0:0:0:0:0, 5+1:0:0:0:0, 4+1:0:0:0:0, 2+2:0:0:0:0, 3+1:0:0:0:1, 4+2:0:0:0:0, 2+2:0:0:0:0, 3+0:0:0:0:0, 3+2:0:0:0:0, 2+0:0:0:0:0, 3+3:0:0:0:0, 4+0:0:0:0:0, 3+0:0:0:0:0, 4+0:0:0:0:0, 2+2:0:0:0:0, 3+2:0:0:0:0, 4+1:0:0:0:0, 2+4:0:1:0:1, 3+1:1:0:0:1, 4+2:0:0:0:0, 4+1:0:0:0:0, 4+1:0:0:0:0, 3+1:0:0:0:0, 4+3:0:0:0:0, 4+0:0:0:0:0, 5+2:0:0:0:0, 3+1:0:0:0:0, 3+1:0:0:0:1, 4+0:0:0:0:0, 3+3:0:0:0:0, 4+1:0:0:0:0, 5+2:0:0:0:0, 4+2:0:0:0:0, 4+3:1:0:0:0, 4+3:0:0:0:0, 3+3:0:0:0:2, 5+1:0:0:0:0, 4+3:0:0:0:0, 3+0:0:0:0:0, 3+1:0:0:0:0, 3+3:3:0:0:3, 3+2:0:0:0:0, 4+3:0:0:0:0, 2+2:0:0:0:0, 3+4:0:0:0:1, 3+0:0:0:0:0, 4+1:0:0:0:0, 3+1:1:1:0:1, 2+2:0:0:0:0, 2+4:0:1:0:1, 3+1:1:0:0:1, 1+3:0:0:0:0, 2+2:0:0:0:2, 2+0:0:0:0:0, 3+1:0:1:0:0, 2+3:0:0:0:0, 3+1:0:0:0:0, 1+2:0:0:0:0, 5+2:0:0:0:0, 2+2:0:0:0:0, 3+0:0:0:0:0, 5+2:0:0:0:0, 4+0:0:0:0:0, 4+1:0:0:0:0, 3+2:0:0:0:0, 4+0:0:0:0:0, 4+1:0:0:0:0, 2+3:0:0:0:0, 4+1:0:0:0:0, 4+1:0:0:0:0, 4+2:0:0:0:0, 2+3:0:0:0:0, 2+2:0:0:0:0, 2+2:0:1:0:1, 3+0:0:0:0:0, 4+3:2:1:0:1, 3+2:0:0:0:0, 2+0:0:0:0:0, 5+2:0:0:0:0, 3+3:1:0:0:0, 2+0:0:0:0:0, 3+2:1:1:0:2, 1+0:0:0:0:0, 6+3:0:0:0:0, 0+0:0:0:0:0, 0+0:0:0:0:0, 0+0:0:0:0:0, 0+0:0:0:0:0, 744+325:28:15:0:48
Ab minor (7b), 4+0:0:0:0:0, 5+0:0:0:0:0, 4+0:0:0:0:0, 4+0:0:0:0:0, 2+0:0:0:0:0, 2+0:0:0:0:0, 2+0:0:0:0:0, 3+1:0:0:0:0, 2+0:0:0:0:0, 2+0:0:0:0:0, 2+0:0:0:0:0, 4+2:0:1:0:1, 2+0:0:0:0:0, 2+0:0:0:0:0, 2+0:0:0:0:0, 4+0:0:0:0:0, 3+0:0:0:0:0, 4+1:0:1:0:0, 1+0:0:0:0:0, 1+0:0:0:0:0, 2+0:0:0:0:0, 5+1:0:0:0:0, 1+1:0:1:0:0, 3+1:0:0:0:1, 2+0:0:0:0:0, 2+0:0:0:0:0, 1+3:0:0:0:0, 1+0:0:0:0:0, 2+0:0:0:0:0, 2+1:0:1:0:0, 1+0:0:0:0:0, 4+0:0:0:0:0, 3+0:0:0:0:0, 4+1:0:0:0:0, 2+1:0:1:0:1, 3+1:0:1:0:1, 2+0:0:0:0:0, 1+0:0:0:0:0, 2+1:0:0:0:0, 3+1:0:0:0:0, 3+0:0:0:0:0, 5+1:0:0:0:0, 2+0:0:0:0:0, 2+1:0:0:0:0, 3+0:0:0:0:0, 3+0:0:0:0:0, 4+1:0:0:0:0, 4+0:0:0:0:0, 3+0:0:0:0:0, 3+1:0:0:0:0, 0+3:0:1:0:1, 4+0:0:0:0:0, 4+1:0:0:0:0, 3+0:0:0:0:0, 1+1:0:0:0:0, 4+0:0:0:0:0, 4+1:0:0:0:0, 4+0:0:0:0:0, 4+0:0:0:0:0, 3+0:0:0:0:0, 3+0:0:0:0:0, 4+0:0:0:0:0, 2+1:0:0:0:0, 4+0:0:0:0:0, 3+1:0:0:0:0, 4+1:0:1:0:1, 2+1:0:1:0:1, 3+1:0:1:0:1, 3+0:0:0:0:0, 3+1:0:0:0:0, 4+0:0:0:0:0, 2+2:0:0:0:0, 2+0:0:0:0:0, 3+2:0:0:0:0, 2+1:0:1:0:1, 5+0:0:0:0:0, 3+0:0:0:0:0, 2+0:0:0:0:0, 4+0:0:0:0:0, 4+0:0:0:0:0, 3+1:0:0:0:0, 3+0:0:0:0:0, 0+3:0:1:0:1, 4+0:0:0:0:0, 4+1:0:0:0:0, 3+0:0:0:0:0, 3+1:0:0:0:0, 4+0:0:0:0:0, 2+1:0:1:0:1, 3+0:0:0:0:0, 2+3:0:0:0:0, 4+1:0:0:0:0, 3+1:0:0:0:0, 2+1:0:0:0:1, 4+0:0:0:0:0, 4+0:0:0:0:0, 3+1:0:0:0:0, 4+1:0:1:0:1, 2+1:0:1:0:1, 3+1:0:1:0:1, 4+0:0:0:0:0, 3+2:0:0:0:0, 2+1:0:1:0:1, 2+2:0:0:0:0, 5+1:0:0:0:0, 3+0:0:0:0:0, 2+0:0:0:0:0, 3+1:0:0:0:0, 3+0:0:0:0:0, 3+0:0:0:0:0, 4+0:0:0:0:0, 4+0:0:0:0:0, 4+0:0:0:0:0, 4+1:0:0:0:1, 1+2:0:0:0:0, 5+1:0:0:0:0, 3+0:0:0:0:0, 4+0:0:0:0:0, 1+1:0:0:0:0, 4+1:0:0:0:0, 2+1:0:1:0:1, 4+0:0:0:0:0, 3+1:0:0:0:0, 3+1:0:0:0:0, 4+0:0:0:0:0, 3+0:0:0:0:0, 5+0:0:0:0:0, 3+1:0:0:0:0, 3+1:0:0:0:0, 4+1:0:1:0:1, 4+0:0:0:0:0, 2+0:0:0:0:0, 4+0:0:0:0:0, 1+0:0:0:0:0, 2+1:0:0:0:0, 3+1:0:0:0:0, 3+1:0:0:0:0, 4+0:0:0:0:0, 3+0:0:0:0:0, 5+0:0:0:0:0, 2+1:0:1:0:1, 2+1:0:1:0:1, 3+1:0:0:0:0, 4+0:0:0:0:0, 2+1:0:0:0:0, 3+3:0:0:0:0, 0+3:0:1:0:1, 4+0:0:0:0:0, 4+1:0:0:0:0, 3+0:0:0:0:0, 1+0:0:0:0:0, 4+1:0:0:0:0, 1+0:0:0:0:0, 2+0:0:0:0:0, 3+1:0:0:0:0, 4+1:0:0:0:0, 3+1:0:0:0:0, 3+0:0:0:0:0, 4+0:0:0:0:0, 4+0:0:0:0:0, 2+1:0:0:0:0, 3+1:1:0:0:1, 4+0:0:0:0:0, 5+1:0:0:0:0, 2+0:0:0:0:0, 1+1:0:1:0:0, 3+0:0:0:0:0, 2+2:0:0:0:0, 3+0:0:0:0:0, 5+1:0:0:0:0, 4+0:0:0:0:0, 4+1:0:0:0:0, 4+0:0:0:0:0, 3+0:0:0:0:0, 5+0:0:0:0:0, 4+0:0:0:0:0, 3+0:0:0:0:0, 3+1:0:0:0:0, 1+1:0:0:0:0, 3+0:0:0:0:0, 3+0:0:0:0:0, 2+0:0:0:0:0, 1+4:0:0:0:0, 3+2:0:0:0:1, 2+1:0:0:0:0, 3+0:0:0:0:0, 2+3:0:0:0:0, 4+1:0:0:0:0, 3+1:0:0:0:0, 1+0:0:0:0:0, 2+3:0:0:0:0, 3+1:0:0:0:0, 4+0:0:0:0:0, 3+1:0:0:0:0, 3+1:0:0:0:0, 3+1:0:0:0:0, 2+0:0:0:0:0, 3+2:0:0:0:0, 3+0:0:0:0:0, 5+1:0:0:0:0, 3+0:0:0:0:0, 3+0:0:0:0:0, 3+0:0:0:0:0, 4+0:0:0:0:0, 2+1:0:1:0:1, 3+1:0:0:0:0, 3+1:0:0:0:0, 3+1:0:0:0:0, 4+0:0:0:0:0, 1+0:0:0:0:0, 2+3:0:0:0:0, 4+1:0:0:0:0, 2+0:0:0:0:0, 3+2:0:0:0:0, 3+0:0:0:0:0, 3+0:0:0:0:0, 5+1:0:0:0:0, 3+1:0:0:0:0, 2+0:0:0:0:0, 3+1:0:0:0:0, 1+0:0:0:0:0, 5+2:0:0:0:1, 1+0:0:0:0:0, 1+0:0:0:0:0, 1+0:0:0:0:0, 1+0:0:0:0:0, 659+138:1:24:0:26
A# minor (7#), 4+1:0:0:0:0, 5+1:0:0:0:0, 4+1:0:0:0:0, 5+0:0:0:0:0, 2+0:0:0:0:0, 4+3:0:0:0:3, 3+0:0:0:0:0, 3+3:1:0:0:0, 2+2:0:0:0:0, 2+2:0:0:0:0, 3+0:0:0:0:0, 6+3:0:0:0:1, 2+2:0:0:0:0, 3+2:0:0:0:0, 2+0:0:0:0:0, 4+0:0:0:0:0, 3+1:0:0:0:0, 5+1:0:0:0:0, 1+0:0:0:0:0, 1+4:0:0:0:0, 2+0:0:0:0:0, 6+1:0:0:0:1, 3+3:0:0:0:1, 3+1:0:0:0:0, 2+0:0:0:0:0, 2+1:1:1:0:1, 2+0:0:0:0:0, 1+0:0:0:0:0, 3+0:0:0:0:0, 4+2:0:0:0:0, 1+0:0:0:0:0, 4+2:0:0:0:0, 4+0:0:0:0:0, 3+2:0:1:0:1, 4+1:0:0:0:0, 3+1:0:0:0:1, 2+0:0:0:0:0, 3+1:0:0:0:1, 3+0:0:0:0:0, 3+3:1:0:0:0, 4+1:0:0:0:0, 5+2:0:0:0:0, 3+0:0:0:0:0, 3+2:0:0:0:0, 3+3:0:0:0:0, 4+2:0:0:0:0, 3+1:0:0:0:0, 4+3:0:0:0:0, 3+0:0:0:0:0, 3+1:0:0:0:0, 3+2:0:0:0:0, 2+0:0:0:0:0, 3+1:1:0:0:1, 4+0:0:0:0:0, 4+2:0:0:0:0, 4+1:0:0:0:0, 3+2:0:0:0:0, 4+1:0:0:0:0, 4+0:0:0:0:0, 3+3:0:0:0:0, 3+3:0:0:0:1, 4+1:0:0:0:0, 3+1:0:0:0:0, 4+0:0:0:0:0, 3+4:0:0:0:0, 5+1:0:0:0:0, 4+1:0:0:0:0, 3+1:0:0:0:1, 4+1:0:0:0:0, 3+4:0:1:0:2, 4+2:0:0:0:0, 3+2:0:0:0:0, 3+0:0:0:0:0, 3+2:2:0:0:0, 4+1:0:0:0:0, 5+1:0:0:0:0, 4+0:0:0:0:0, 3+2:0:0:0:0, 4+1:0:0:0:0, 4+3:0:0:0:0, 3+3:0:0:0:0, 3+0:0:0:0:0, 3+2:0:0:0:0, 2+0:0:0:0:0, 3+3:0:0:0:0, 4+0:0:0:0:0, 5+1:0:0:0:0, 4+0:0:0:0:0, 4+1:0:0:0:0, 3+1:1:1:0:1, 2+2:0:0:0:0, 2+4:0:1:0:1, 4+2:1:0:0:1, 2+1:0:0:0:0, 4+1:0:0:0:0, 4+2:0:0:0:0, 3+1:1:0:0:0, 5+1:0:0:0:0, 4+1:0:0:0:0, 3+1:0:0:0:1, 4+2:0:0:0:0, 4+1:0:0:0:1, 4+1:0:0:0:0, 3+2:0:0:0:0, 5+3:0:0:0:0, 4+0:0:0:0:0, 3+0:0:0:0:0, 3+3:1:0:0:0, 4+0:0:0:0:0, 4+2:0:0:0:0, 4+0:0:0:0:0, 4+3:0:0:0:0, 4+3:0:0:0:0, 3+0:0:0:0:0, 3+1:1:0:0:0, 4+0:0:0:0:0, 4+0:0:0:0:0, 4+1:0:0:0:0, 1+1:1:0:0:1, 4+0:0:0:0:0, 4+1:0:0:0:0, 5+1:0:0:0:0, 4+1:0:0:0:0, 4+1:0:0:0:0, 4+2:0:0:0:0, 4+2:0:0:0:0, 5+1:0:0:0:0, 3+3:0:0:0:0, 3+1:1:0:0:0, 5+1:0:0:0:0, 4+2:0:0:0:0, 2+2:2:2:0:2, 4+1:0:0:0:0, 3+1:1:0:0:1, 3+5:0:0:0:0, 4+2:0:0:0:0, 4+1:0:0:0:1, 4+3:0:0:0:0, 4+0:0:0:0:0, 5+1:0:0:0:0, 4+1:0:0:0:0, 2+2:0:0:0:0, 3+2:0:0:0:1, 4+2:0:0:0:0, 2+2:0:0:0:0, 3+0:0:0:0:0, 3+2:0:0:0:0, 2+0:0:0:0:0, 3+3:0:0:0:0, 4+0:0:0:0:0, 3+0:0:0:0:0, 4+0:0:0:0:0, 2+2:0:0:0:0, 3+2:0:0:0:0, 4+1:0:0:0:0, 2+4:0:1:0:1, 3+1:1:0:0:1, 4+2:0:0:0:0, 4+1:0:0:0:0, 4+1:0:0:0:0, 3+1:0:0:0:0, 4+3:0:0:0:0, 4+0:0:0:0:0, 5+2:0:0:0:0, 3+1:0:0:0:0, 3+1:0:0:0:1, 4+0:0:0:0:0, 3+3:0:0:0:0, 4+1:0:0:0:0, 5+2:0:0:0:0, 4+2:0:0:0:0, 4+3:1:0:0:0, 4+3:0:0:0:0, 3+3:0:0:0:2, 5+1:0:0:0:0, 4+3:0:0:0:0, 3+0:0:0:0:0, 3+1:0:0:0:0, 3+3:3:0:0:3, 3+2:0:0:0:0, 4+3:0:0:0:0, 2+2:0:0:0:0, 3+4:0:0:0:1, 3+0:0:0:0:0, 4+1:0:0:0:0, 3+1:1:1:0:1, 2+2:0:0:0:0, 2+4:0:1:0:1, 3+1:1:0:0:1, 1+3:0:0:0:3, 2+2:0:0:0:2, 2+0:0:0:0:0, 3+1:0:1:0:0, 2+3:0:0:0:3, 3+1:0:0:0:0, 1+2:0:0:0:0, 5+2:0:0:0:0, 2+2:0:0:0:0, 3+0:0:0:0:0, 5+2:0:0:0:0, 4+0:0:0:0:0, 4+1:0:0:0:0, 3+2:0:0:0:0, 4+0:0:0:0:0, 4+1:0:0:0:0, 2+1:0:0:0:1, 4+1:0:0:0:0, 4+1:0:0:0:0, 4+2:0:0:0:0, 2+3:0:0:0:0, 2+2:0:0:0:0, 2+2:0:1:0:1, 3+0:0:0:0:0, 4+3:2:1:0:1, 3+2:0:0:0:0, 2+0:0:0:0:0, 5+2:0:0:0:0, 3+3:1:0:0:0, 2+0:0:0:0:0, 3+2:1:1:0:2, 1+0:0:0:0:0, 6+3:0:0:0:0, 0+0:0:0:0:0, 0+0:0:0:0:0, 0+0:0:0:0:0, 0+0:0:0:0:0, 745+314:27:14:0:51
