 , 0, 1, 2, 3, 4, 5, 6, 7, 8, 9, 10, 11, 12, 13, 14, 15, 16, 17, 18, 19, 20, 21, 22, 23, 24, 25, 26, 27, 28, 29, 30, 31, 32, 33, 34, 35, 36, 37, 38, 39, 40, 41, 42, 43, 44, 45, 46, 47, 48, 49, 50, 51, 52, 53, 54, 55, 56, 57, 58, 59, 60, 61, 62, 63, 64, 65, 66, 67, 68, 69, 70, 71, 72, 73, 74, 75, 76, 77, 78, 79, 80, 81, 82, 83, 84, 85, 86, 87, 88, 89, 90, 91, 92, 93, 94, 95, 96, 97, 98, 99, 100, 101, 102, 103, 104, 105, 106, 107, 108, 109, 110, 111, 112, 113, 114, 115, 116, 117, 118, 119, 120, 121, 122, 123, 124, 125, 126, 127, 128, 129, 130, 131, 132, 133, 134, 135, 136, 137, 138, 139, 140, 141, 142, 143, 144, 145, 146, 147, 148, 149, 150, 151, 152, 153, 154, 155, 156, 157, 158, 159, 160, 161, 162, 163, 164, 165, 166, 167, 168, 169, 170, 171, 172, 173, 174, 175, rowcost
C major (0), 0+0:0:0:0:0, 0+0:0:0:0:0, 0+0:0:0:0:0, 0+0:0:0:0:0, 1+0:0:0:0:0, 1+0:0:0:0:0, 0+0:0:0:0:0, 0+0:0:0:0:0, 1+1:0:0:0:0, 0+0:0:0:0:0, 0+0:0:0:0:0, 0+0:0:0:0:0, 1+0:0:0:0:0, 0+0:0:0:0:0, 0+0:0:0:0:0, 2+2:2:0:0:0, 0+0:0:0:0:0, 0+0:0:0:0:0, 0+0:0:0:0:0, 0+0:0:0:0:0, 1+0:0:0:0:0, 1+0:0:0:0:0, 0+0:0:0:0:0, 0+0:0:0:0:0, 1+0:0:0:0:0, 2+1:1:0:0:1, 1+0:0:0:0:0, 2+2:0:0:0:0, 4+2:1:0:0:1, 4+2:0:0:0:2, 2+3:0:0:0:0, 1+0:0:0:0:0, 0+0:0:0:0:0, 2+1:0:1:0:1, 0+0:0:0:0:0,  , 1+7:0:0:0:0, 1+1:0:0:0:0, 1+3:0:0:0:1, 1+1:0:0:0:0, 2+1:0:0:0:0, 1+0:0:0:0:0, 1+1:0:0:0:1, 1+1:0:0:0:1, 2+3:0:0:0:0, 1+0:0:0:0:0, 2+1:0:0:0:1, 4+4:3:0:0:1, 1+1:0:0:0:1, 0+0:0:0:0:0, 1+2:0:0:0:2, 0+0:0:0:0:0, 2+1:1:0:0:1, 4+3:1:0:0:1, 1+1:0:0:0:0, 1+1:0:0:0:0, 4+2:1:0:0:1, 3+3:1:0:0:1, 2+1:1:0:0:1, 3+3:0:0:0:0, 4+2:1:0:0:1, 4+2:0:0:0:2, 2+2:0:0:0:0, 3+4:1:0:0:0, 0+0:0:0:0:0, 0+0:0:0:0:0, 0+0:0:0:0:0, 0+0:0:0:0:0, 1+0:0:0:0:0, 1+0:0:0:0:0, 0+0:0:0:0:0,  , 1+1:0:0:0:0, 1+0:0:0:0:0, 1+0:0:0:0:0, 0+0:0:0:0:0, 1+0:0:0:0:0, 2+1:0:0:0:0, 1+1:0:0:0:0, 2+4:0:0:0:0, 3+3:0:0:0:0, 0+0:0:0:0:0, 0+0:0:0:0:0, 0+0:0:0:0:0, 3+1:0:0:0:0, 0+0:0:0:0:0,  , 2+1:0:0:0:0, 1+0:0:0:0:0, 3+5:2:0:0:2, 1+0:0:0:0:0, 2+2:0:0:0:0, 4+3:2:0:0:2, 4+1:0:0:0:1, 2+4:0:0:0:0, 5+8:1:0:0:1, 1+1:0:0:0:0, 0+0:0:0:0:0, 2+1:0:0:0:0, 0+0:0:0:0:0, 1+0:0:0:0:0, 0+0:0:0:0:0,  , 1+0:0:0:0:0, 1+2:0:0:0:0, 0+0:0:0:0:0, 1+0:0:0:0:0,  , 1+1:0:0:0:0, 1+0:0:0:0:0, 1+1:0:0:0:0, 2+3:3:0:0:0, 0+0:0:0:0:0, 1+1:0:0:0:0, 0+0:0:0:0:0,  , 2+1:0:0:0:0, 2+2:0:0:0:0, 0+0:0:0:0:0, 2+1:0:0:0:0, 2+1:1:0:0:0, 3+6:5:0:0:0, 1+1:0:0:0:0, 2+2:0:0:0:0, 5+7:1:0:0:1, 7+3:0:0:0:1, 2+4:0:0:0:0, 3+4:1:0:0:0, 0+0:0:0:0:0, 0+0:0:0:0:0, 1+1:0:0:0:0, 0+0:0:0:0:0, 1+0:0:0:0:0, 1+0:0:0:0:0, 1+0:0:0:0:0, 0+0:0:0:0:0, 2+1:0:0:0:0, 1+0:0:0:0:0, 1+0:0:0:0:0, 1+0:0:0:0:0, 1+0:0:0:0:0, 1+0:0:0:0:0, 2+2:0:0:0:0, 3+6:2:0:0:0, 1+1:0:0:0:0, 2+1:0:0:0:1, 0+0:0:0:0:0, 0+0:0:0:0:0, 2+1:1:0:0:0, 1+0:0:0:0:0, 1+0:0:0:0:0, 1+2:0:0:0:0, 2+2:2:0:0:0, 3+0:0:0:0:0, 3+2:1:0:0:1, 4+4:0:0:0:1, 4+10:2:0:0:2, 5+2:1:0:0:2, 2+4:0:0:0:0, 1+0:0:0:0:0, 4+3:2:0:0:2, 5+2:1:0:0:2, 3+6:0:0:0:0, 1+0:0:0:0:0, 4+3:2:0:0:2, 4+1:0:0:0:1, 1+2:0:0:0:0, 0+0:0:0:0:0, 2+1:0:0:0:0, 1+0:0:0:0:0, 4+4:0:0:0:0, 3+6:0:1:0:6, 3+4:0:0:0:0, 1+0:0:0:0:0, 1+0:0:0:0:0, 1+0:0:0:0:0, 251+213:44:2:0:49
A minor (0), 0+3:0:0:0:0, 0+0:0:0:0:0, 0+2:0:0:0:0, 0+1:0:0:0:0, 1+1:0:0:0:0, 1+0:0:0:0:0, 0+1:0:0:0:0, 0+0:0:0:0:0, 1+2:0:0:0:1, 0+0:0:0:0:0, 0+0:0:0:0:0, 0+3:0:0:0:0, 1+0:0:0:0:0, 0+3:0:0:0:0, 0+0:0:0:0:0, 2+3:2:0:0:2, 0+3:0:0:0:0, 0+0:0:0:0:0, 0+2:0:0:0:0, 0+1:0:0:0:0, 1+1:0:0:0:0, 1+0:0:0:0:0, 0+1:0:0:0:0, 0+0:0:0:0:0, 1+0:0:0:0:0, 2+0:0:0:0:0, 1+0:0:0:0:0, 2+5:0:0:0:0, 4+1:0:0:0:1, 4+2:0:0:0:2, 2+2:0:0:0:0, 1+0:0:0:0:0, 0+1:0:0:0:0, 2+1:0:1:0:1, 0+4:0:0:0:0,  , 1+7:0:0:0:0, 1+1:0:0:0:0, 1+3:0:0:0:1, 1+2:0:0:0:1, 2+3:0:0:0:1, 1+0:0:0:0:0, 1+1:0:0:0:0, 1+1:0:0:0:0, 2+2:0:0:0:0, 1+1:0:0:0:0, 2+1:0:0:0:1, 4+5:3:0:0:3, 1+3:0:0:0:1, 0+3:0:0:0:0, 1+2:0:0:0:2, 0+2:0:0:0:0, 2+1:0:0:0:0, 4+3:1:0:0:1, 1+2:0:0:0:0, 1+1:0:0:0:1, 4+2:0:0:0:0, 3+7:1:0:0:0, 2+1:0:0:0:0, 3+5:0:0:0:1, 4+1:0:0:0:1, 4+2:0:0:0:2, 2+1:0:0:0:0, 3+3:1:0:0:0, 0+2:0:0:0:0, 0+1:0:0:0:0, 0+1:0:0:0:0, 0+0:0:0:0:0, 1+2:0:0:0:0, 1+0:0:0:0:0, 0+1:0:0:0:0,  , 1+3:0:0:0:0, 1+0:0:0:0:0, 1+1:0:0:0:0, 0+1:0:0:0:0, 1+1:0:0:0:0, 1+2:0:0:0:0, 1+1:0:0:0:0, 2+6:0:0:0:3, 3+6:0:0:0:0, 0+1:0:0:0:0, 0+1:0:0:0:0, 0+0:0:0:0:0, 3+3:0:0:0:1, 0+2:0:0:0:0,  , 2+1:0:0:0:1, 1+0:0:0:0:0, 3+10:2:0:0:0, 1+0:0:0:0:0, 2+4:0:0:0:0, 4+1:0:0:0:1, 5+5:0:0:0:3, 2+7:0:0:0:0, 5+5:1:0:0:1, 1+4:0:0:0:0, 0+1:0:0:0:0, 2+2:0:0:0:0, 0+1:0:0:0:0, 1+2:0:0:0:0, 0+0:0:0:0:0,  , 1+1:0:0:0:0, 1+2:0:0:0:2, 0+1:0:0:0:0, 1+2:0:0:0:0,  , 1+2:0:0:0:0, 1+2:0:0:0:2, 1+3:0:0:0:0, 3+4:2:0:0:2, 0+1:0:0:0:0, 1+2:0:0:0:1, 0+1:0:0:0:0,  , 2+4:0:0:0:1, 2+2:0:0:0:2, 0+0:0:0:0:0, 2+2:0:0:0:1, 2+3:1:0:0:1, 3+10:5:0:0:5, 1+2:0:0:0:0, 2+7:0:0:0:0, 5+2:0:0:0:2, 7+7:0:0:0:4, 2+7:0:0:0:0, 3+3:1:0:0:0, 0+4:0:0:0:0, 0+1:0:0:0:0, 1+4:0:0:0:0, 0+0:0:0:0:0, 1+1:0:0:0:0, 1+0:0:0:0:0, 1+0:0:0:0:0, 0+0:0:0:0:0, 2+2:0:0:0:0, 1+1:0:0:0:0, 1+1:0:0:0:0, 1+1:0:0:0:0, 1+0:0:0:0:0, 1+1:0:0:0:0, 2+1:0:0:0:0, 3+10:2:0:0:0, 1+3:0:0:0:0, 2+1:0:0:0:0, 0+1:0:0:0:0, 0+1:0:0:0:0, 2+4:2:0:0:0, 1+2:0:0:0:0, 1+0:0:0:0:0, 1+1:0:0:0:0, 2+3:2:0:0:0, 3+9:2:0:0:0, 3+2:1:0:0:0, 4+4:0:0:0:1, 4+1:0:0:0:1, 5+2:1:0:0:2, 2+1:0:0:0:0, 1+0:0:0:0:0, 4+1:0:0:0:1, 5+2:1:0:0:2, 3+7:0:0:0:1, 1+0:0:0:0:0, 4+1:0:0:0:1, 4+4:0:0:0:3, 1+2:0:0:0:0, 0+0:0:0:0:0, 2+3:0:0:0:0, 1+1:0:0:0:0, 4+4:0:0:0:2, 3+4:0:1:0:1, 3+7:0:0:0:1, 1+0:0:0:0:0, 1+0:0:0:0:0, 1+0:0:0:0:0, 252+355:31:2:0:72
F major (1b), 1+0:0:0:0:0, 1+0:0:0:0:0, 1+0:0:0:0:0, 0+0:0:0:0:0, 0+0:0:0:0:0, 0+0:0:0:0:0, 0+0:0:0:0:0, 0+0:0:0:0:0, 1+0:0:0:0:0, 0+0:0:0:0:0, 0+0:0:0:0:0, 0+0:0:0:0:0, 0+0:0:0:0:0, 0+0:0:0:0:0, 0+0:0:0:0:0, 2+1:1:0:0:1, 1+3:0:0:0:0, 1+0:0:0:0:0, 1+0:0:0:0:0, 0+0:0:0:0:0, 0+0:0:0:0:0, 0+0:0:0:0:0, 0+0:0:0:0:0, 0+0:0:0:0:0, 0+0:0:0:0:0, 2+1:1:0:0:1, 0+0:0:0:0:0, 1+0:0:0:0:0, 3+2:1:0:0:1, 5+4:0:0:0:1, 1+0:0:0:0:0, 0+0:0:0:0:0, 1+0:0:0:0:0, 1+1:0:1:0:1, 0+0:0:0:0:0,  , 0+0:0:0:0:0, 1+1:0:0:0:1, 1+1:0:0:0:0, 1+1:0:0:0:0, 3+1:0:0:0:0, 0+0:0:0:0:0, 2+1:0:0:0:0, 2+3:0:0:0:0, 1+0:0:0:0:0, 1+0:0:0:0:0, 2+1:0:0:0:0, 4+4:3:0:0:3, 2+1:0:0:0:1, 0+0:0:0:0:0, 2+2:0:0:0:0, 0+0:0:0:0:0, 1+1:0:0:0:0, 3+3:1:0:0:1, 1+1:0:0:0:0, 1+1:0:0:0:0, 3+2:1:0:0:1, 2+1:1:0:0:1, 1+1:1:0:0:1, 2+1:0:0:0:0, 3+2:1:0:0:1, 5+4:0:0:0:1, 1+0:0:0:0:0, 2+1:1:0:0:1, 1+1:0:0:0:0, 1+0:0:0:0:0, 0+0:0:0:0:0, 0+0:0:0:0:0, 0+0:0:0:0:0, 0+0:0:0:0:0, 0+0:0:0:0:0,  , 1+0:0:0:0:0, 1+0:0:0:0:0, 1+0:0:0:0:0, 0+0:0:0:0:0, 0+0:0:0:0:0, 2+1:0:0:0:0, 0+0:0:0:0:0, 2+1:1:0:0:1, 4+3:1:0:0:1, 0+0:0:0:0:0, 0+0:0:0:0:0, 0+0:0:0:0:0, 2+1:0:0:0:0, 0+0:0:0:0:0,  , 1+1:0:0:0:0, 0+0:0:0:0:0, 2+2:2:0:0:2, 0+0:0:0:0:0, 1+0:0:0:0:0, 3+3:2:0:0:2, 5+5:0:0:0:1, 1+0:0:0:0:0, 4+2:1:0:0:1, 2+3:0:0:0:0, 0+0:0:0:0:0, 3+1:0:0:0:0, 0+0:0:0:0:0, 0+0:0:0:0:0, 0+0:0:0:0:0,  , 0+0:0:0:0:0, 1+0:0:0:0:0, 0+0:0:0:0:0, 1+0:0:0:0:0,  , 0+0:0:0:0:0, 1+0:0:0:0:0, 1+0:0:0:0:0, 2+1:1:0:0:1, 1+2:0:0:0:0, 1+1:0:0:0:0, 1+0:0:0:0:0,  , 1+1:0:0:0:0, 1+2:0:0:0:0, 0+0:0:0:0:0, 1+1:0:0:0:0, 1+1:1:0:0:1, 3+1:1:0:0:1, 0+0:0:0:0:0, 1+0:0:0:0:0, 4+3:1:0:0:1, 8+4:0:0:0:2, 1+0:0:0:0:0, 2+1:1:0:0:1, 1+1:0:0:0:0, 1+0:0:0:0:0, 2+1:0:0:0:0, 0+0:0:0:0:0, 0+0:0:0:0:0, 0+0:0:0:0:0, 0+0:0:0:0:0, 0+0:0:0:0:0, 1+0:0:0:0:0, 0+0:0:0:0:0, 0+0:0:0:0:0, 0+0:0:0:0:0, 0+0:0:0:0:0, 1+0:0:0:0:0, 1+0:0:0:0:0, 2+2:2:0:0:2, 2+1:0:0:0:0, 2+1:1:0:0:0, 1+0:0:0:0:0, 0+0:0:0:0:0, 1+2:2:0:0:2, 0+2:0:0:0:0, 1+0:0:0:0:0, 0+1:0:0:0:0, 1+2:2:0:0:2, 2+2:2:0:0:2, 2+2:1:0:0:1, 3+2:0:0:0:0, 3+3:2:0:0:2, 5+4:0:0:0:2, 1+0:0:0:0:0, 0+0:0:0:0:0, 3+3:2:0:0:2, 5+5:0:0:0:2, 2+3:0:0:0:0, 0+0:0:0:0:0, 3+3:2:0:0:2, 5+3:0:0:0:1, 0+0:0:0:0:0, 0+0:0:0:0:0, 2+1:0:0:0:0, 1+0:0:0:0:0, 3+4:0:0:0:0, 4+6:0:1:0:6, 2+4:0:0:0:0, 0+0:0:0:0:0, 0+0:0:0:0:0, 0+0:0:0:0:0, 202+146:40:2:0:58
G major (1#), 1+0:0:0:0:0, 0+0:0:0:0:0, 0+0:0:0:0:0, 0+0:0:0:0:0, 1+3:0:0:0:0, 1+1:0:0:0:0, 0+0:0:0:0:0, 0+0:0:0:0:0, 2+3:0:0:0:0, 0+0:0:0:0:0, 1+2:0:0:0:0, 1+2:0:0:0:0, 2+1:0:0:0:0, 1+2:0:0:0:0, 0+0:0:0:0:0, 1+0:0:0:0:0, 1+1:0:0:0:0, 0+0:0:0:0:0, 0+0:0:0:0:0, 0+0:0:0:0:0, 1+3:0:0:0:0, 1+1:0:0:0:0, 0+0:0:0:0:0, 0+0:0:0:0:0, 1+1:0:0:0:0, 1+0:0:0:0:0, 1+1:0:0:0:0, 3+1:0:0:0:0, 5+6:1:0:0:1, 5+2:0:0:0:2, 3+2:0:0:0:0, 2+1:0:0:0:0, 1+1:0:0:0:0, 2+2:0:0:0:2, 0+0:0:0:0:0,  , 1+4:0:0:0:0, 1+1:0:0:0:1, 1+1:0:0:0:0, 1+1:0:0:0:0, 3+1:0:0:0:0, 1+0:0:0:0:0, 2+1:0:0:0:1, 3+8:0:0:0:0, 3+3:0:0:0:0, 2+1:0:0:0:0, 2+1:0:0:0:1, 3+4:3:0:0:1, 2+1:0:0:0:1, 0+0:0:0:0:0, 1+2:0:0:0:2, 0+0:0:0:0:0, 2+2:1:0:0:0, 3+3:1:0:0:1, 1+1:0:0:0:0, 1+1:0:0:0:1, 4+2:0:0:0:0, 2+0:0:0:0:0, 2+1:0:0:0:0, 3+1:0:0:0:0, 5+5:1:0:0:1, 5+2:0:0:0:2, 3+1:0:0:0:0, 4+1:0:0:0:0, 1+1:0:0:0:0, 0+0:0:0:0:0, 0+0:0:0:0:0, 1+0:0:0:0:0, 1+1:0:0:0:0, 1+0:0:0:0:0, 0+0:0:0:0:0,  , 2+1:0:0:0:0, 1+0:0:0:0:0, 2+1:0:0:0:0, 0+0:0:0:0:0, 2+1:0:0:0:0, 3+1:0:0:0:0, 1+0:0:0:0:0, 1+0:0:0:0:0, 4+3:0:0:0:0, 0+0:0:0:0:0, 1+0:0:0:0:0, 0+0:0:0:0:0, 3+1:0:0:0:0, 1+0:0:0:0:0,  , 2+1:0:0:0:0, 1+0:0:0:0:0, 2+0:0:0:0:0, 1+1:0:0:0:0, 3+1:0:0:0:0, 5+9:2:0:0:2, 5+1:0:0:0:1, 3+1:0:0:0:0, 5+3:1:1:0:1, 2+1:0:0:0:0, 0+0:0:0:0:0, 2+1:0:0:0:0, 1+0:0:0:0:0, 2+3:0:0:0:0, 1+0:0:0:0:0,  , 1+1:0:0:0:0, 2+2:0:0:0:0, 1+1:0:0:0:0, 2+1:0:0:0:0,  , 2+1:0:0:0:0, 2+2:0:0:0:0, 2+2:0:0:0:0, 1+0:0:0:0:0, 1+2:0:0:0:0, 1+0:0:0:0:0, 0+0:0:0:0:0,  , 3+2:0:0:0:0, 1+2:2:0:0:0, 0+0:0:0:0:0, 2+1:0:0:0:0, 1+1:1:0:0:0, 2+1:0:0:0:0, 1+1:0:0:0:0, 3+1:0:0:0:0, 6+7:1:0:0:1, 8+3:0:0:0:1, 3+1:0:0:0:0, 4+1:0:0:0:0, 1+1:0:0:0:0, 0+0:0:0:0:0, 1+1:0:0:0:0, 0+0:0:0:0:0, 1+1:0:0:0:0, 1+0:0:0:0:0, 1+0:0:0:0:0, 0+0:0:0:0:0, 3+1:0:0:0:0, 1+0:0:0:0:0, 1+0:0:0:0:0, 1+0:0:0:0:0, 2+2:0:0:0:0, 2+1:0:0:0:0, 3+1:0:0:0:0, 2+0:0:0:0:0, 2+1:0:0:0:0, 1+1:0:0:0:1, 0+0:0:0:0:0, 0+0:0:0:0:0, 1+1:1:0:0:0, 1+0:0:0:0:0, 0+0:0:0:0:0, 1+2:0:0:0:0, 1+2:2:0:0:0, 2+0:0:0:0:0, 2+2:1:0:0:1, 5+4:0:0:0:1, 5+10:2:0:0:2, 6+2:1:0:0:2, 3+1:0:0:0:0, 2+2:0:0:0:0, 5+10:2:0:0:2, 6+2:1:0:0:2, 4+2:0:0:0:0, 2+1:0:0:0:0, 5+9:2:0:0:2, 5+1:0:0:0:1, 1+2:0:0:0:0, 1+0:0:0:0:0, 3+4:0:0:0:0, 2+1:0:0:0:0, 4+4:0:0:0:2, 4+10:0:1:0:3, 4+3:0:0:0:1, 2+1:0:0:0:0, 1+0:0:0:0:0, 1+0:0:0:0:0, 310+236:26:2:0:43
D minor (1b), 1+3:0:0:0:0, 1+0:0:0:0:0, 1+2:0:0:0:0, 0+0:0:0:0:0, 0+1:0:0:0:0, 0+0:0:0:0:0, 0+1:0:0:0:0, 0+1:0:0:0:0, 1+3:0:0:0:0, 0+2:0:0:0:0, 0+1:0:0:0:0, 0+0:0:0:0:0, 0+0:0:0:0:0, 0+0:0:0:0:0, 0+0:0:0:0:0, 2+0:0:0:0:0, 1+3:0:0:0:0, 1+0:0:0:0:0, 1+2:0:0:0:0, 0+0:0:0:0:0, 0+1:0:0:0:0, 0+0:0:0:0:0, 0+1:0:0:0:0, 0+1:0:0:0:0, 0+0:0:0:0:0, 2+0:0:0:0:0, 0+0:0:0:0:0, 1+1:0:0:0:0, 3+1:0:0:0:1, 5+6:0:0:0:2, 1+2:0:0:0:0, 0+0:0:0:0:0, 1+1:0:0:0:0, 1+1:0:1:0:1, 0+0:0:0:0:0,  , 0+2:0:0:0:0, 1+1:0:0:0:0, 1+3:0:0:0:1, 1+2:0:0:0:1, 3+3:0:0:0:1, 0+0:0:0:0:0, 1+1:0:0:0:0, 2+8:0:0:0:0, 1+3:0:0:0:0, 1+1:0:0:0:0, 2+1:0:0:0:1, 4+1:0:0:0:0, 2+3:0:0:0:1, 0+3:0:0:0:0, 2+2:0:0:0:0, 0+0:0:0:0:0, 1+1:0:0:0:0, 3+3:1:0:0:1, 1+1:0:0:0:0, 1+1:0:0:0:1, 3+2:0:0:0:0, 2+0:0:0:0:0, 1+1:0:0:0:0, 3+1:0:0:0:0, 3+1:0:0:0:1, 5+6:0:0:0:2, 1+1:0:0:0:0, 2+1:0:0:0:0, 1+1:0:0:0:0, 1+1:0:0:0:0, 0+0:0:0:0:0, 0+0:0:0:0:0, 0+2:0:0:0:0, 0+0:0:0:0:0, 0+0:0:0:0:0,  , 1+1:0:0:0:0, 1+0:0:0:0:0, 1+1:0:0:0:0, 0+0:0:0:0:0, 0+1:0:0:0:0, 2+1:0:0:0:0, 0+0:0:0:0:0, 2+0:0:0:0:0, 4+3:1:0:0:0, 0+0:0:0:0:0, 0+0:0:0:0:0, 0+0:0:0:0:0, 2+3:0:0:0:1, 0+0:0:0:0:0,  , 1+1:0:0:0:1, 0+0:0:0:0:0, 2+0:0:0:0:0, 0+0:0:0:0:0, 1+1:0:0:0:0, 3+1:0:0:0:1, 5+6:0:0:0:1, 1+1:0:0:0:0, 3+3:1:1:0:1, 2+3:0:0:0:1, 0+0:0:0:0:0, 3+2:0:0:0:0, 0+1:0:0:0:0, 0+2:0:0:0:0, 0+1:0:0:0:0,  , 0+1:0:0:0:0, 1+2:0:0:0:0, 0+1:0:0:0:0, 1+1:0:0:0:0,  , 0+1:0:0:0:0, 1+2:0:0:0:0, 1+2:0:0:0:0, 2+0:0:0:0:0, 1+3:0:0:0:0, 1+1:0:0:0:0, 1+1:0:0:0:0,  , 1+4:0:0:0:1, 1+2:0:0:0:2, 0+0:0:0:0:0, 1+2:0:0:0:1, 1+1:1:0:0:0, 3+1:0:0:0:0, 0+0:0:0:0:0, 1+1:0:0:0:0, 4+2:0:0:0:2, 8+3:0:0:0:1, 1+1:0:0:0:0, 2+1:0:0:0:0, 1+1:0:0:0:0, 1+1:0:0:0:0, 2+4:0:0:0:0, 0+0:0:0:0:0, 0+1:0:0:0:0, 0+0:0:0:0:0, 0+0:0:0:0:0, 0+0:0:0:0:0, 1+1:0:0:0:0, 0+1:0:0:0:0, 0+1:0:0:0:0, 0+1:0:0:0:0, 0+0:0:0:0:0, 1+1:0:0:0:0, 1+1:0:0:0:0, 2+0:0:0:0:0, 2+1:0:0:0:0, 2+1:1:0:0:0, 1+0:0:0:0:0, 0+0:0:0:0:0, 1+4:2:0:0:0, 0+2:0:0:0:0, 1+0:0:0:0:0, 0+1:0:0:0:0, 1+3:2:0:0:0, 2+0:0:0:0:0, 2+2:1:0:0:0, 3+4:0:0:0:1, 3+1:0:0:0:1, 5+5:0:0:0:1, 1+1:0:0:0:0, 0+0:0:0:0:0, 3+1:0:0:0:1, 5+6:0:0:0:1, 2+7:0:0:0:1, 0+0:0:0:0:0, 3+1:0:0:0:1, 5+4:0:0:0:3, 0+2:0:0:0:0, 0+0:0:0:0:0, 2+4:0:0:0:0, 1+1:0:0:0:0, 3+4:0:0:0:2, 4+4:0:1:0:1, 2+7:0:0:0:1, 0+0:0:0:0:0, 0+0:0:0:0:0, 0+0:0:0:0:0, 201+235:10:3:0:41
E minor (1#), 1+3:0:0:0:0, 0+2:0:0:0:0, 0+1:0:0:0:0, 0+0:0:0:0:0, 1+6:0:0:0:0, 1+1:0:0:0:0, 0+1:0:0:0:0, 0+0:0:0:0:0, 2+2:0:0:0:1, 0+0:0:0:0:0, 1+0:0:0:0:0, 1+3:0:0:0:0, 2+0:0:0:0:0, 1+3:0:0:0:0, 0+2:0:0:0:0, 1+3:2:0:0:2, 1+3:0:0:0:0, 0+2:0:0:0:0, 0+1:0:0:0:0, 0+0:0:0:0:0, 1+6:0:0:0:0, 1+1:0:0:0:0, 0+1:0:0:0:0, 0+0:0:0:0:0, 1+0:0:0:0:0, 1+0:0:0:0:0, 1+0:0:0:0:0, 3+1:0:0:0:0, 5+1:0:0:0:1, 5+6:0:0:0:2, 3+2:0:0:0:0, 2+0:0:0:0:0, 1+1:0:0:0:0, 2+1:0:1:0:1, 0+4:0:0:0:0,  , 1+7:0:0:0:0, 1+1:0:0:0:0, 1+3:0:0:0:1, 1+2:0:0:0:1, 3+3:0:0:0:1, 1+0:0:0:0:0, 2+1:0:0:0:0, 2+1:0:0:0:0, 3+3:0:0:0:0, 2+1:0:0:0:0, 2+1:0:0:0:1, 3+4:3:0:0:1, 2+4:0:0:0:0, 0+0:0:0:0:0, 1+1:0:0:0:0, 0+1:0:0:0:0, 2+3:1:0:0:1, 4+3:0:0:0:0, 1+2:0:0:0:0, 1+1:0:0:0:1, 4+2:0:0:0:0, 2+0:0:0:0:0, 2+1:0:0:0:0, 3+1:0:0:0:0, 5+1:0:0:0:1, 5+6:0:0:0:2, 3+1:0:0:0:0, 4+1:0:0:0:0, 1+2:0:0:0:0, 0+0:0:0:0:0, 0+0:0:0:0:0, 1+0:0:0:0:0, 1+2:0:0:0:0, 1+0:0:0:0:0, 0+0:0:0:0:0,  , 2+1:0:0:0:0, 1+0:0:0:0:0, 2+1:0:0:0:0, 0+0:0:0:0:0, 2+1:0:0:0:0, 3+1:0:0:0:0, 1+0:0:0:0:0, 1+0:0:0:0:0, 4+6:0:0:0:0, 0+1:0:0:0:0, 1+1:0:0:0:0, 0+0:0:0:0:0, 3+3:0:0:0:1, 1+2:0:0:0:0,  , 2+3:0:0:0:0, 1+0:0:0:0:0, 2+0:0:0:0:0, 1+0:0:0:0:0, 3+1:0:0:0:0, 5+1:0:0:0:1, 5+6:0:0:0:1, 3+1:0:0:0:0, 5+3:1:1:0:1, 2+4:0:0:0:0, 0+1:0:0:0:0, 2+2:0:0:0:0, 1+1:0:0:0:0, 2+6:0:0:0:0, 1+0:0:0:0:0,  , 1+3:0:0:0:0, 2+2:0:0:0:2, 1+1:0:0:0:0, 2+1:0:0:0:0,  , 2+1:0:0:0:0, 2+2:0:0:0:0, 2+2:0:0:0:0, 1+0:0:0:0:0, 1+1:0:0:0:0, 1+2:0:0:0:1, 0+0:0:0:0:0,  , 3+4:0:0:0:0, 1+2:2:0:0:2, 0+0:0:0:0:0, 2+1:0:0:0:0, 1+1:1:0:0:0, 2+1:0:0:0:0, 1+0:0:0:0:0, 3+1:0:0:0:0, 6+2:0:0:0:2, 8+7:0:0:0:4, 3+1:0:0:0:0, 4+1:0:0:0:0, 1+4:0:0:0:0, 0+1:0:0:0:0, 1+4:0:0:0:0, 0+0:0:0:0:0, 1+5:0:0:0:0, 1+0:0:0:0:0, 1+0:0:0:0:0, 0+0:0:0:0:0, 3+1:0:0:0:0, 1+0:0:0:0:0, 1+0:0:0:0:0, 1+0:0:0:0:0, 2+2:0:0:0:0, 2+1:0:0:0:0, 3+1:0:0:0:0, 2+0:0:0:0:0, 2+3:0:0:0:0, 1+1:0:0:0:0, 0+0:0:0:0:0, 0+0:0:0:0:0, 1+2:1:0:0:1, 1+4:0:0:0:0, 0+1:0:0:0:0, 1+5:0:0:0:0, 1+4:2:0:0:2, 2+0:0:0:0:0, 2+2:1:0:0:1, 5+4:0:0:0:1, 5+1:0:0:0:1, 7+5:0:0:0:1, 3+1:0:0:0:0, 2+2:0:0:0:0, 5+1:0:0:0:1, 7+6:0:0:0:1, 4+7:0:0:0:1, 2+0:0:0:0:0, 5+1:0:0:0:1, 5+4:0:0:0:3, 1+5:0:0:0:0, 1+2:0:0:0:0, 3+1:0:0:0:1, 2+1:0:0:0:1, 4+4:0:0:0:2, 4+4:0:1:0:1, 4+7:0:0:0:1, 2+0:0:0:0:0, 1+0:0:0:0:0, 1+0:0:0:0:0, 312+295:14:3:0:52
Bb major (2b), 1+3:0:0:0:0, 2+0:0:0:0:0, 1+0:0:0:0:0, 0+0:0:0:0:0, 1+0:0:0:0:0, 1+0:0:0:0:0, 1+0:0:0:0:0, 0+0:0:0:0:0, 0+0:0:0:0:0, 0+0:0:0:0:0, 0+0:0:0:0:0, 0+0:0:0:0:0, 0+0:0:0:0:0, 0+0:0:0:0:0, 0+0:0:0:0:0, 1+1:1:0:0:1, 1+3:0:0:0:0, 2+0:0:0:0:0, 1+0:0:0:0:0, 0+0:0:0:0:0, 1+0:0:0:0:0, 1+0:0:0:0:0, 1+0:0:0:0:0, 0+0:0:0:0:0, 1+0:0:0:0:0, 1+1:1:0:0:1, 1+0:0:0:0:0, 0+0:0:0:0:0, 4+3:1:0:0:2, 4+3:0:0:0:1, 0+0:0:0:0:0, 0+0:0:0:0:0, 1+3:0:0:0:0, 2+1:0:1:0:1, 1+0:0:0:0:0,  , 1+0:0:0:0:0, 1+1:0:0:0:1, 2+1:0:0:0:0, 1+1:0:0:0:0, 2+2:0:0:0:1, 0+0:0:0:0:0, 2+1:0:0:0:0, 1+3:0:0:0:0, 0+0:0:0:0:0, 0+0:0:0:0:0, 1+1:0:0:0:0, 3+4:3:0:0:3, 3+1:0:0:0:1, 0+0:0:0:0:0, 2+2:0:0:0:0, 1+0:0:0:0:0, 2+1:1:0:0:1, 3+4:2:0:0:2, 2+1:1:0:0:1, 1+1:0:0:0:0, 4+2:1:0:0:1, 1+1:1:0:0:1, 2+1:1:0:0:1, 1+1:0:0:0:0, 4+4:1:0:0:2, 4+3:0:0:0:1, 0+0:0:0:0:0, 1+1:1:0:0:1, 1+1:0:0:0:0, 1+0:0:0:0:0, 1+0:0:0:0:0, 1+0:0:0:0:0, 1+0:0:0:0:0, 0+0:0:0:0:0, 1+0:0:0:0:0,  , 0+0:0:0:0:0, 0+0:0:0:0:0, 0+0:0:0:0:0, 0+0:0:0:0:0, 0+0:0:0:0:0, 2+1:0:0:0:0, 0+0:0:0:0:0, 1+1:1:0:0:1, 4+3:1:0:0:1, 0+0:0:0:0:0, 1+0:0:0:0:0, 0+0:0:0:0:0, 3+1:0:0:0:0, 1+0:0:0:0:0,  , 2+1:0:0:0:0, 1+0:0:0:0:0, 1+2:2:0:0:2, 1+0:0:0:0:0, 0+0:0:0:0:0, 4+6:2:0:0:3, 4+2:0:0:0:1, 0+0:0:0:0:0, 3+2:1:0:0:1, 2+3:0:0:0:0, 0+0:0:0:0:0, 3+1:0:0:0:0, 1+0:0:0:0:0, 1+0:0:0:0:0, 1+0:0:0:0:0,  , 1+0:0:0:0:0, 0+0:0:0:0:0, 0+0:0:0:0:0, 0+0:0:0:0:0,  , 0+0:0:0:0:0, 0+0:0:0:0:0, 0+0:0:0:0:0, 1+1:1:0:0:1, 1+2:0:0:0:0, 0+0:0:0:0:0, 1+1:0:0:0:0,  , 2+1:0:0:0:0, 2+2:0:0:0:0, 1+0:0:0:0:0, 1+1:0:0:0:0, 2+1:1:0:0:1, 2+1:1:0:0:1, 1+0:0:0:0:0, 0+0:0:0:0:0, 5+4:1:0:0:3, 7+4:0:0:0:2, 0+0:0:0:0:0, 1+1:1:0:0:1, 1+1:0:0:0:0, 1+0:0:0:0:0, 1+1:0:0:0:0, 0+0:0:0:0:0, 1+0:0:0:0:0, 0+0:0:0:0:0, 0+0:0:0:0:0, 0+0:0:0:0:0, 0+0:0:0:0:0, 0+0:0:0:0:0, 0+0:0:0:0:0, 0+0:0:0:0:0, 0+0:0:0:0:0, 0+0:0:0:0:0, 0+0:0:0:0:0, 1+2:2:0:0:2, 2+1:0:0:0:0, 2+1:1:0:0:0, 1+0:0:0:0:0, 0+0:0:0:0:0, 2+1:1:0:0:0, 0+0:0:0:0:0, 2+0:0:0:0:0, 1+0:0:0:0:0, 2+2:2:0:0:2, 1+2:2:0:0:2, 3+2:1:0:0:1, 2+2:0:0:0:0, 4+8:2:0:0:5, 4+3:0:0:0:2, 0+0:0:0:0:0, 0+0:0:0:0:0, 4+7:2:0:0:4, 4+3:0:0:0:2, 3+2:0:0:0:0, 0+0:0:0:0:0, 4+7:2:0:0:4, 4+4:0:0:0:3, 1+2:0:0:0:0, 1+0:0:0:0:0, 1+1:0:0:0:0, 0+0:0:0:0:0, 4+4:0:0:0:0, 5+6:0:1:0:6, 1+1:0:0:0:0, 0+0:0:0:0:0, 0+0:0:0:0:0, 0+0:0:0:0:0, 208+161:42:2:0:74
D major (2#), 1+1:0:0:0:0, 0+0:0:0:0:0, 0+0:0:0:0:0, 0+0:0:0:0:0, 2+1:0:0:0:0, 1+0:0:0:0:0, 1+1:0:0:0:0, 1+1:0:0:0:0, 3+2:0:0:0:0, 1+2:0:0:0:0, 2+1:0:0:0:0, 1+0:0:0:0:0, 2+0:0:0:0:0, 1+0:0:0:0:0, 0+0:0:0:0:0, 2+2:2:0:0:0, 1+1:0:0:0:0, 0+0:0:0:0:0, 0+0:0:0:0:0, 0+0:0:0:0:0, 2+1:0:0:0:0, 1+0:0:0:0:0, 1+1:0:0:0:0, 1+1:0:0:0:0, 1+0:0:0:0:0, 2+0:0:0:0:0, 1+0:0:0:0:0, 4+5:0:0:0:0, 4+1:0:0:0:1, 6+6:0:0:0:2, 4+2:0:0:0:0, 2+0:0:0:0:0, 1+3:0:0:0:0, 2+1:0:1:0:1, 0+0:0:0:0:0,  , 2+2:0:0:0:0, 2+1:0:0:0:0, 2+2:0:0:0:0, 1+2:2:2:0:2, 4+3:0:0:0:1, 1+0:0:0:0:0, 2+1:1:1:0:1, 4+8:0:0:0:0, 4+3:0:0:0:0, 2+1:0:0:0:0, 3+1:0:0:0:1, 4+4:3:0:0:1, 2+2:0:0:0:1, 0+0:0:0:0:0, 1+1:0:0:0:0, 0+0:0:0:0:0, 3+1:0:0:0:0, 3+3:1:0:0:1, 2+1:0:0:0:0, 1+2:2:2:0:2, 4+2:0:1:0:1, 3+7:1:0:0:0, 3+1:0:0:0:0, 4+5:1:0:0:0, 4+1:0:0:0:1, 6+6:0:0:0:2, 4+1:0:0:0:0, 5+3:1:0:0:0, 1+1:0:0:0:0, 0+0:0:0:0:0, 0+0:0:0:0:0, 1+0:0:0:0:0, 2+2:0:0:0:0, 1+0:0:0:0:0, 0+0:0:0:0:0,  , 3+3:0:0:0:0, 1+0:0:0:0:0, 3+1:0:0:0:0, 1+1:0:0:0:0, 3+1:0:0:0:0, 2+2:0:0:0:0, 2+1:0:0:0:0, 2+0:0:0:0:0, 4+3:1:0:0:0, 0+0:0:0:0:0, 1+0:0:0:0:0, 0+0:0:0:0:0, 4+3:0:0:0:1, 1+0:0:0:0:0,  , 2+1:0:0:0:1, 1+0:0:0:0:0, 3+10:2:0:0:0, 1+0:0:0:0:0, 4+4:0:0:0:0, 4+1:0:0:0:1, 6+6:0:0:0:1, 4+1:0:0:0:0, 7+5:1:0:0:1, 2+1:0:0:0:0, 0+0:0:0:0:0, 3+1:0:0:0:0, 2+1:0:0:0:0, 3+2:0:0:0:0, 2+1:0:0:0:0,  , 2+1:0:0:0:0, 3+4:0:0:0:0, 1+0:0:0:0:0, 3+1:0:0:0:0,  , 3+2:0:0:0:0, 2+2:0:0:0:0, 2+2:0:0:0:0, 2+0:0:0:0:0, 2+2:0:0:0:0, 1+0:0:0:0:0, 1+0:0:0:0:0,  , 4+4:0:0:0:1, 1+2:2:0:0:0, 0+0:0:0:0:0, 3+2:0:0:0:1, 1+1:1:0:0:0, 3+6:5:0:0:0, 1+0:0:0:0:0, 4+7:0:0:0:0, 5+2:0:0:0:2, 9+7:0:0:0:4, 4+7:0:0:0:0, 5+3:1:0:0:0, 1+1:0:0:0:0, 0+0:0:0:0:0, 1+1:0:0:0:1, 0+0:0:0:0:0, 2+1:0:0:0:0, 1+0:0:0:0:0, 1+0:0:0:0:0, 0+0:0:0:0:0, 4+2:0:0:0:0, 2+1:0:0:0:0, 2+1:0:0:0:0, 2+1:0:0:0:0, 2+0:0:0:0:0, 2+1:0:0:0:0, 3+1:0:0:0:0, 3+10:2:0:0:0, 2+1:0:0:0:0, 1+1:0:0:0:1, 0+0:0:0:0:0, 0+0:0:0:0:0, 2+4:2:0:0:0, 2+2:0:0:0:0, 0+0:0:0:0:0, 2+1:0:0:0:0, 2+3:2:0:0:0, 3+9:2:0:0:0, 2+2:1:0:0:0, 6+4:0:0:0:1, 4+1:0:0:0:1, 8+5:0:0:0:1, 4+1:0:0:0:0, 2+0:0:0:0:0, 4+1:0:0:0:1, 8+6:0:0:0:1, 5+7:0:0:0:1, 2+0:0:0:0:0, 4+1:0:0:0:1, 6+4:0:0:0:3, 2+2:0:0:0:0, 1+0:0:0:0:0, 4+3:0:0:0:0, 3+1:0:0:0:0, 4+4:0:0:0:2, 5+4:0:1:0:1, 5+7:0:0:0:1, 2+0:0:0:0:0, 1+0:0:0:0:0, 1+0:0:0:0:0, 388+298:36:8:0:47
G minor (2b), 1+1:0:0:0:0, 2+0:0:0:0:0, 1+0:0:0:0:0, 0+0:0:0:0:0, 1+1:0:0:0:0, 1+0:0:0:0:0, 1+1:0:0:0:0, 0+0:0:0:0:0, 0+3:0:0:0:0, 0+0:0:0:0:0, 0+2:0:0:0:0, 0+2:0:0:0:0, 0+1:0:0:0:0, 0+2:0:0:0:0, 0+0:0:0:0:0, 1+0:0:0:0:0, 1+1:0:0:0:0, 2+0:0:0:0:0, 1+0:0:0:0:0, 0+0:0:0:0:0, 1+1:0:0:0:0, 1+0:0:0:0:0, 1+1:0:0:0:0, 0+1:0:0:0:0, 1+0:0:0:0:0, 1+0:0:0:0:0, 1+0:0:0:0:0, 0+1:0:0:0:0, 4+6:1:0:0:1, 4+2:0:0:0:2, 0+2:0:0:0:0, 0+1:0:0:0:0, 1+3:0:0:0:0, 2+1:0:1:0:1, 1+0:0:0:0:0,  , 1+2:0:0:0:0, 1+0:0:0:0:0, 2+2:0:0:0:0, 1+1:0:0:0:1, 2+3:0:0:0:0, 0+0:0:0:0:0, 2+1:0:0:0:0, 1+8:0:0:0:0, 0+3:0:0:0:0, 0+1:0:0:0:0, 1+1:0:0:0:1, 3+4:3:0:0:1, 3+2:0:0:0:1, 0+0:0:0:0:0, 2+2:0:0:0:2, 1+0:0:0:0:0, 2+1:0:0:0:0, 3+3:2:0:0:0, 2+1:0:0:0:0, 1+1:0:0:0:1, 4+2:0:0:0:0, 1+0:0:0:0:0, 2+1:0:0:0:0, 2+1:0:0:0:0, 4+5:1:0:0:1, 4+2:0:0:0:2, 0+1:0:0:0:0, 1+1:0:0:0:0, 1+1:0:0:0:0, 1+0:0:0:0:0, 1+0:0:0:0:0, 1+0:0:0:0:0, 1+2:0:0:0:0, 0+0:0:0:0:0, 1+0:0:0:0:0,  , 0+1:0:0:0:0, 0+0:0:0:0:0, 0+1:0:0:0:0, 0+0:0:0:0:0, 0+1:0:0:0:0, 2+1:0:0:0:0, 0+0:0:0:0:0, 1+0:0:0:0:0, 4+3:1:0:0:0, 0+0:0:0:0:0, 1+0:0:0:0:0, 0+0:0:0:0:0, 3+3:0:0:0:1, 1+0:0:0:0:0,  , 2+1:0:0:0:1, 1+0:0:0:0:0, 1+0:0:0:0:0, 1+0:0:0:0:0, 0+1:0:0:0:0, 4+9:2:0:0:2, 4+1:0:0:0:1, 0+1:0:0:0:0, 2+3:1:1:0:1, 2+1:0:0:0:0, 0+0:0:0:0:0, 3+1:0:0:0:0, 1+1:0:0:0:0, 1+2:0:0:0:0, 1+1:0:0:0:0,  , 1+1:0:0:0:0, 0+2:0:0:0:0, 0+1:0:0:0:0, 0+1:0:0:0:0,  , 0+1:0:0:0:0, 0+2:0:0:0:0, 0+2:0:0:0:0, 1+0:0:0:0:0, 1+2:0:0:0:0, 0+0:0:0:0:0, 1+0:0:0:0:0,  , 2+3:0:0:0:0, 2+2:0:0:0:2, 1+0:0:0:0:0, 1+1:0:0:0:0, 2+1:1:0:0:0, 2+1:0:0:0:0, 1+0:0:0:0:0, 0+1:0:0:0:0, 5+7:1:0:0:1, 7+3:0:0:0:1, 0+1:0:0:0:0, 1+1:0:0:0:0, 1+1:0:0:0:0, 1+0:0:0:0:0, 1+1:0:0:0:0, 0+0:0:0:0:0, 1+1:0:0:0:0, 0+0:0:0:0:0, 0+0:0:0:0:0, 0+0:0:0:0:0, 0+1:0:0:0:0, 0+0:0:0:0:0, 0+0:0:0:0:0, 0+0:0:0:0:0, 0+2:0:0:0:0, 0+1:0:0:0:0, 0+1:0:0:0:0, 1+0:0:0:0:0, 2+1:0:0:0:0, 2+1:1:0:0:0, 1+0:0:0:0:0, 0+0:0:0:0:0, 2+1:1:0:0:0, 0+0:0:0:0:0, 2+0:0:0:0:0, 1+1:0:0:0:0, 2+2:2:0:0:0, 1+0:0:0:0:0, 3+2:1:0:0:1, 2+4:0:0:0:1, 4+10:2:0:0:2, 4+2:0:0:0:1, 0+1:0:0:0:0, 0+2:0:0:0:0, 4+10:2:0:0:2, 4+2:0:0:0:1, 3+2:0:0:0:0, 0+1:0:0:0:0, 4+9:2:0:0:2, 4+1:0:0:0:1, 1+2:0:0:0:0, 1+0:0:0:0:0, 1+4:0:0:0:0, 0+1:0:0:0:0, 4+4:0:0:0:2, 5+4:0:1:0:1, 1+3:0:0:0:1, 0+1:0:0:0:0, 0+0:0:0:0:0, 0+0:0:0:0:0, 208+229:24:3:0:39
B minor (2#), 1+2:0:0:0:1, 0+0:0:0:0:0, 0+0:0:0:0:0, 0+0:0:0:0:0, 2+1:0:0:0:0, 1+0:0:0:0:0, 1+1:0:0:0:0, 1+0:0:0:0:0, 3+2:0:0:0:1, 1+2:0:0:0:0, 2+0:0:0:0:0, 1+3:0:0:0:0, 2+0:0:0:0:0, 1+3:0:0:0:0, 0+2:0:0:0:0, 2+3:2:0:0:2, 1+2:0:0:0:1, 0+0:0:0:0:0, 0+0:0:0:0:0, 0+0:0:0:0:0, 2+1:0:0:0:0, 1+0:0:0:0:0, 1+1:0:0:0:0, 1+0:0:0:0:0, 1+2:0:0:0:0, 2+6:2:0:0:2, 1+0:0:0:0:0, 4+5:0:0:0:0, 4+1:0:0:0:1, 6+7:0:0:0:4, 4+5:0:0:0:0, 2+0:0:0:0:0, 1+1:0:0:0:0, 2+1:0:1:0:1, 0+0:0:0:0:0,  , 2+2:0:0:0:0, 2+1:0:0:0:0, 2+3:0:0:0:1, 2+2:0:0:0:1, 4+3:0:0:0:1, 1+0:0:0:0:0, 3+1:0:0:0:0, 3+1:0:0:0:0, 4+2:0:0:0:0, 2+1:0:0:0:0, 3+4:0:0:0:0, 4+5:3:0:0:3, 2+1:0:0:0:1, 0+0:0:0:0:0, 1+1:0:0:0:0, 0+1:0:0:0:0, 3+3:1:0:0:1, 4+3:0:0:0:0, 2+2:0:0:0:0, 2+1:0:0:0:1, 4+2:0:1:0:1, 3+7:1:0:0:0, 3+1:0:0:0:0, 4+5:1:0:0:0, 4+1:0:0:0:1, 6+6:0:0:0:4, 4+4:0:0:0:0, 5+3:1:0:0:0, 1+1:0:0:0:0, 0+0:0:0:0:0, 0+0:0:0:0:0, 1+0:0:0:0:0, 2+2:0:0:0:0, 1+0:0:0:0:0, 0+0:0:0:0:0,  , 3+3:0:0:0:0, 1+0:0:0:0:0, 3+1:0:0:0:0, 1+1:0:0:0:0, 3+1:0:0:0:0, 2+2:0:0:0:0, 2+1:0:0:0:0, 3+3:2:0:0:2, 4+6:0:0:0:0, 0+0:0:0:0:0, 1+1:0:0:0:0, 0+0:0:0:0:0, 4+3:0:0:0:1, 1+0:0:0:0:0,  , 2+1:0:0:0:1, 1+0:0:0:0:0, 3+10:2:0:0:0, 1+0:0:0:0:0, 4+4:0:0:0:0, 4+1:0:0:0:1, 7+5:0:0:0:3, 4+7:0:0:0:0, 7+5:1:0:0:1, 2+1:0:0:0:0, 0+0:0:0:0:0, 3+2:0:0:0:0, 2+1:0:0:0:0, 3+2:0:0:0:0, 2+1:0:0:0:0,  , 2+1:0:0:0:0, 3+4:0:0:0:0, 1+0:0:0:0:0, 3+3:0:0:0:0,  , 3+2:0:0:0:0, 2+2:0:0:0:0, 2+3:0:0:0:0, 3+4:2:0:0:2, 2+3:0:0:0:0, 1+2:0:0:0:1, 1+0:0:0:0:0,  , 4+4:0:0:0:1, 1+2:2:0:0:0, 0+0:0:0:0:0, 3+2:0:0:0:1, 1+3:1:0:0:1, 3+10:5:0:0:5, 1+0:0:0:0:0, 4+7:0:0:0:0, 5+2:0:0:0:2, 9+7:0:0:0:4, 4+7:0:0:0:0, 5+3:1:0:0:0, 1+1:0:0:0:0, 0+1:0:0:0:0, 1+2:0:0:0:0, 0+0:0:0:0:0, 2+1:0:0:0:0, 1+0:0:0:0:0, 1+0:0:0:0:0, 0+0:0:0:0:0, 4+2:0:0:0:0, 2+1:0:0:0:0, 2+1:0:0:0:0, 2+1:0:0:0:0, 2+0:0:0:0:0, 2+1:0:0:0:0, 3+1:0:0:0:0, 3+10:2:0:0:0, 2+1:0:0:0:0, 1+1:0:0:0:0, 0+1:0:0:0:0, 0+0:0:0:0:0, 2+2:1:0:0:1, 2+2:0:0:0:0, 0+0:0:0:0:0, 2+1:0:0:0:0, 2+3:2:0:0:0, 3+9:2:0:0:0, 2+2:1:0:0:1, 6+7:0:0:0:1, 4+1:0:0:0:1, 8+5:0:0:0:1, 4+8:0:0:0:0, 2+0:0:0:0:0, 4+1:0:0:0:1, 8+6:0:0:0:1, 5+7:0:0:0:1, 2+0:0:0:0:0, 4+1:0:0:0:1, 6+4:0:0:0:3, 2+2:0:0:0:0, 1+0:0:0:0:0, 4+3:0:0:0:0, 3+2:0:0:0:0, 4+4:0:0:0:2, 5+4:0:1:0:1, 5+7:0:0:0:1, 2+0:0:0:0:0, 1+0:0:0:0:0, 1+0:0:0:0:0, 394+359:35:3:0:70
Eb major (3b), 2+0:0:0:0:0, 2+0:0:0:0:0, 1+0:0:0:0:0, 0+0:0:0:0:0, 2+0:0:0:0:0, 1+0:0:0:0:0, 1+0:0:0:0:0, 0+0:0:0:0:0, 1+0:0:0:0:0, 1+0:0:0:0:0, 1+0:0:0:0:0, 0+0:0:0:0:0, 1+0:0:0:0:0, 0+0:0:0:0:0, 0+0:0:0:0:0, 2+1:1:0:0:1, 2+0:0:0:0:0, 2+0:0:0:0:0, 1+0:0:0:0:0, 0+0:0:0:0:0, 2+0:0:0:0:0, 1+0:0:0:0:0, 1+0:0:0:0:0, 0+0:0:0:0:0, 1+1:0:0:0:0, 2+1:1:0:0:1, 1+1:0:0:0:0, 1+0:0:0:0:0, 3+3:1:0:0:2, 3+3:0:0:0:1, 1+0:0:0:0:0, 1+0:0:0:0:0, 2+3:0:0:0:0, 3+1:0:1:0:1, 2+0:0:0:0:0,  , 2+0:0:0:0:0, 2+1:0:0:0:1, 3+1:0:0:0:0, 1+1:0:0:0:0, 3+2:0:0:0:1, 1+0:0:0:0:0, 2+1:0:0:0:0, 2+3:0:0:0:0, 1+0:0:0:0:0, 0+0:0:0:0:0, 2+1:0:0:0:0, 4+4:3:0:0:3, 3+1:0:0:0:1, 0+0:0:0:0:0, 2+2:0:0:0:0, 2+0:0:0:0:0, 3+1:1:0:0:1, 4+4:2:0:0:2, 2+1:1:0:0:1, 1+1:0:0:0:0, 4+2:1:0:0:1, 2+1:1:0:0:1, 2+1:1:0:0:1, 2+1:0:0:0:0, 3+4:1:0:0:2, 3+3:0:0:0:1, 1+0:0:0:0:0, 2+1:1:0:0:1, 1+0:0:0:0:0, 1+0:0:0:0:0, 1+0:0:0:0:0, 1+0:0:0:0:0, 1+0:0:0:0:0, 1+0:0:0:0:0, 2+0:0:0:0:0,  , 1+0:0:0:0:0, 0+0:0:0:0:0, 0+0:0:0:0:0, 0+0:0:0:0:0, 1+0:0:0:0:0, 1+1:0:0:0:0, 0+0:0:0:0:0, 2+1:1:0:0:1, 5+3:1:0:0:3, 0+0:0:0:0:0, 2+0:0:0:0:0, 0+0:0:0:0:0, 2+3:0:0:0:2, 1+1:0:0:0:0,  , 3+2:0:0:0:0, 2+2:0:0:0:0, 2+2:2:0:0:2, 2+1:0:0:0:0, 1+0:0:0:0:0, 3+6:2:0:0:3, 3+2:0:0:0:1, 1+0:0:0:0:0, 4+2:1:0:0:1, 3+1:0:0:0:0, 0+0:0:0:0:0, 4+1:0:0:0:0, 1+0:0:0:0:0, 2+0:0:0:0:0, 1+0:0:0:0:0,  , 2+0:0:0:0:0, 1+0:0:0:0:0, 1+0:0:0:0:0, 0+0:0:0:0:0,  , 1+0:0:0:0:0, 0+0:0:0:0:0, 1+0:0:0:0:0, 2+1:1:0:0:1, 2+2:0:0:0:0, 1+0:0:0:0:0, 1+0:0:0:0:0,  , 3+1:0:0:0:0, 3+2:0:0:0:0, 1+0:0:0:0:0, 2+1:0:0:0:0, 3+1:1:0:0:1, 3+1:1:0:0:1, 1+1:0:0:0:0, 1+0:0:0:0:0, 4+4:1:0:0:3, 6+4:0:0:0:2, 1+0:0:0:0:0, 2+1:1:0:0:1, 2+0:0:0:0:0, 2+0:0:0:0:0, 2+1:0:0:0:0, 0+0:0:0:0:0, 2+1:0:0:0:0, 1+0:0:0:0:0, 1+0:0:0:0:0, 0+0:0:0:0:0, 1+0:0:0:0:0, 1+0:0:0:0:0, 1+0:0:0:0:0, 0+0:0:0:0:0, 1+0:0:0:0:0, 0+0:0:0:0:0, 0+0:0:0:0:0, 2+2:2:0:0:2, 3+1:0:0:0:0, 3+1:1:0:0:0, 2+0:0:0:0:0, 0+0:0:0:0:0, 3+2:2:0:0:2, 1+0:0:0:0:0, 3+2:0:0:0:0, 2+0:0:0:0:0, 3+2:2:0:0:2, 2+2:2:0:0:2, 4+2:1:0:0:1, 3+2:0:0:0:0, 3+8:2:0:0:5, 3+3:0:0:0:2, 1+0:0:0:0:0, 1+0:0:0:0:0, 3+7:2:0:0:4, 3+3:0:0:0:2, 4+2:0:0:0:0, 1+0:0:0:0:0, 3+7:2:0:0:4, 3+4:0:0:0:3, 2+2:0:0:0:0, 2+0:0:0:0:0, 2+1:0:0:0:0, 0+0:0:0:0:0, 4+4:0:0:0:0, 6+6:0:1:0:6, 2+1:0:0:0:0, 1+0:0:0:0:0, 0+0:0:0:0:0, 0+0:0:0:0:0, 289+164:43:2:0:80
A major (3#), 2+3:0:0:0:0, 0+0:0:0:0:0, 1+2:0:0:0:0, 1+1:0:0:0:0, 3+6:0:0:0:0, 1+1:0:0:0:0, 2+1:0:0:0:0, 1+0:0:0:0:0, 4+2:0:0:0:1, 1+0:0:0:0:0, 2+0:0:0:0:0, 2+3:0:0:0:0, 2+0:0:0:0:0, 2+3:0:0:0:0, 0+0:0:0:0:0, 3+4:0:0:0:2, 2+3:0:0:0:0, 0+0:0:0:0:0, 1+2:0:0:0:0, 1+1:0:0:0:0, 3+6:0:0:0:0, 1+1:0:0:0:0, 2+1:0:0:0:0, 1+0:0:0:0:0, 2+2:0:0:0:0, 3+4:0:0:0:2, 2+2:0:0:0:0, 5+5:0:0:0:0, 5+1:0:0:0:1, 6+7:0:0:0:4, 5+5:0:0:0:0, 3+0:0:0:0:0, 2+1:0:0:0:0, 3+1:0:1:0:1, 1+4:0:0:0:0,  , 3+7:0:0:0:0, 1+1:0:0:0:0, 3+3:0:0:0:1, 3+2:0:0:0:1, 5+3:0:0:0:1, 2+0:0:0:0:0, 3+1:0:0:0:0, 3+1:0:0:0:0, 5+2:0:0:0:0, 3+2:0:0:0:1, 4+4:0:0:0:0, 5+5:3:0:0:3, 3+3:0:0:0:1, 1+3:0:0:0:0, 1+2:0:0:0:2, 1+2:0:0:0:0, 4+3:0:0:0:0, 4+2:1:0:0:1, 3+2:0:0:0:0, 2+1:0:0:0:1, 6+6:0:0:0:0, 4+7:1:0:0:0, 4+1:0:0:0:0, 5+5:1:0:0:0, 5+1:0:0:0:1, 6+6:0:0:0:4, 5+4:0:0:0:0, 5+3:1:0:0:0, 2+2:0:0:0:0, 1+1:0:0:0:0, 1+1:0:0:0:0, 1+0:0:0:0:0, 3+3:0:0:0:0, 2+0:0:0:0:0, 1+1:0:0:0:0,  , 3+1:0:0:0:1, 2+2:0:0:0:0, 4+2:0:0:0:0, 1+0:0:0:0:0, 3+2:0:0:0:0, 1+2:0:0:0:0, 2+1:0:0:0:0, 3+6:0:0:0:3, 5+6:0:0:0:0, 1+1:0:0:0:0, 2+1:0:0:0:0, 0+0:0:0:0:0, 5+3:0:0:0:1, 2+2:0:0:0:0,  , 3+3:0:0:0:0, 2+5:0:0:0:0, 4+10:2:0:0:0, 2+0:0:0:0:0, 5+4:0:0:0:0, 5+1:0:0:0:1, 7+5:0:0:0:3, 5+7:0:0:0:0, 7+5:1:0:0:1, 3+4:0:0:0:0, 1+1:0:0:0:0, 4+2:0:0:0:0, 3+1:0:0:0:0, 4+6:0:0:0:0, 2+0:0:0:0:0,  , 3+3:0:0:0:0, 3+2:0:0:0:2, 2+1:0:0:0:0, 4+2:0:0:0:0,  , 3+2:0:0:0:0, 2+2:0:0:0:2, 3+3:0:0:0:0, 3+5:0:0:0:3, 3+1:0:0:0:0, 2+2:0:0:0:1, 2+1:0:0:0:0,  , 5+4:0:0:0:0, 2+2:2:0:0:0, 1+1:0:0:0:0, 4+2:0:0:0:1, 2+1:1:0:0:0, 4+7:0:0:0:5, 2+2:0:0:0:0, 5+7:0:0:0:0, 6+2:0:0:0:2, 9+7:0:0:0:4, 5+7:0:0:0:0, 5+3:1:0:0:0, 2+4:0:0:0:0, 1+1:0:0:0:0, 2+4:0:0:0:0, 0+0:0:0:0:0, 3+5:0:0:0:0, 2+0:0:0:0:0, 2+0:0:0:0:0, 0+0:0:0:0:0, 4+2:0:0:0:0, 2+1:0:0:0:0, 2+1:0:0:0:0, 2+1:0:0:0:0, 2+0:0:0:0:0, 3+1:0:0:0:0, 3+1:0:0:0:0, 4+10:2:0:0:0, 3+1:0:0:0:0, 2+1:0:0:0:1, 1+0:0:0:0:0, 1+0:0:0:0:0, 3+4:2:0:0:0, 3+2:0:0:0:0, 0+0:0:0:0:0, 3+1:0:0:0:0, 3+3:2:0:0:0, 4+9:2:0:0:0, 3+2:1:0:0:1, 7+7:0:0:0:1, 5+1:0:0:0:1, 7+2:1:0:0:2, 5+8:0:0:0:0, 2+0:0:0:0:0, 5+1:0:0:0:1, 7+2:1:0:0:2, 6+7:0:0:0:1, 2+0:0:0:0:0, 5+1:0:0:0:1, 6+4:0:0:0:3, 3+5:0:0:0:0, 2+2:0:0:0:0, 4+1:0:0:0:1, 3+1:0:0:0:1, 5+4:0:0:0:2, 4+4:0:1:0:1, 6+7:0:0:0:1, 2+0:0:0:0:0, 1+0:0:0:0:0, 1+0:0:0:0:0, 504+425:25:2:0:78
C minor (3b), 2+0:0:0:0:0, 2+0:0:0:0:0, 1+0:0:0:0:0, 0+0:0:0:0:0, 2+3:0:0:0:0, 1+1:0:0:0:0, 1+0:0:0:0:0, 0+0:0:0:0:0, 1+3:0:0:0:0, 1+0:0:0:0:0, 1+2:0:0:0:0, 0+2:0:0:0:0, 1+1:0:0:0:0, 0+0:0:0:0:0, 0+0:0:0:0:0, 2+0:0:0:0:0, 2+0:0:0:0:0, 2+0:0:0:0:0, 1+0:0:0:0:0, 0+0:0:0:0:0, 2+3:0:0:0:0, 1+1:0:0:0:0, 1+0:0:0:0:0, 0+0:0:0:0:0, 1+1:0:0:0:0, 2+0:0:0:0:0, 1+1:0:0:0:0, 1+1:0:0:0:0, 3+6:1:0:0:1, 3+2:0:0:0:2, 1+2:0:0:0:0, 1+1:0:0:0:0, 2+0:0:0:0:0, 3+1:0:1:0:1, 2+0:0:0:0:0,  , 2+4:0:0:0:0, 2+1:0:0:0:1, 3+1:0:0:0:0, 1+1:0:0:0:0, 3+1:0:0:0:0, 1+0:0:0:0:0, 2+1:0:0:0:0, 2+8:0:0:0:0, 1+3:0:0:0:0, 0+1:0:0:0:0, 2+1:0:0:0:1, 4+4:3:0:0:1, 3+1:0:0:0:1, 0+0:0:0:0:0, 2+2:0:0:0:0, 2+0:0:0:0:0, 3+2:0:0:0:1, 4+3:2:0:0:1, 2+1:0:0:0:0, 1+1:0:0:0:1, 4+2:0:0:0:0, 2+0:0:0:0:0, 2+1:0:0:0:0, 3+1:0:0:0:0, 3+5:1:0:0:1, 3+2:0:0:0:2, 1+1:0:0:0:0, 2+1:0:0:0:0, 1+0:0:0:0:0, 1+0:0:0:0:0, 1+0:0:0:0:0, 1+0:0:0:0:0, 1+1:0:0:0:0, 1+0:0:0:0:0, 2+0:0:0:0:0,  , 1+2:0:0:0:0, 0+0:0:0:0:0, 0+0:0:0:0:0, 0+0:0:0:0:0, 1+1:0:0:0:0, 1+1:0:0:0:0, 0+1:0:0:0:0, 2+0:0:0:0:0, 5+3:0:0:0:0, 0+0:0:0:0:0, 2+0:0:0:0:0, 0+0:0:0:0:0, 2+5:0:0:0:0, 1+0:0:0:0:0,  , 3+1:0:0:0:0, 2+0:0:0:0:0, 2+0:0:0:0:0, 2+1:0:0:0:0, 1+1:0:0:0:0, 3+9:2:0:0:2, 3+1:0:0:0:1, 1+1:0:0:0:0, 3+3:1:1:0:1, 3+1:0:0:0:0, 0+0:0:0:0:0, 4+1:0:0:0:0, 1+0:0:0:0:0, 2+3:0:0:0:0, 1+0:0:0:0:0,  , 2+1:0:0:0:0, 1+2:0:0:0:0, 1+0:0:0:0:0, 0+0:0:0:0:0,  , 1+1:0:0:0:0, 0+2:0:0:0:0, 1+2:0:0:0:0, 2+0:0:0:0:0, 2+0:0:0:0:0, 1+1:0:0:0:0, 1+0:0:0:0:0,  , 3+2:0:0:0:0, 3+2:0:0:0:0, 1+0:0:0:0:0, 2+1:0:0:0:0, 3+1:1:0:0:0, 3+1:0:0:0:0, 1+1:0:0:0:0, 1+1:0:0:0:0, 4+7:1:0:0:1, 6+3:0:0:0:1, 1+1:0:0:0:0, 2+1:0:0:0:0, 2+0:0:0:0:0, 2+0:0:0:0:0, 2+1:0:0:0:0, 0+0:0:0:0:0, 2+1:0:0:0:0, 1+0:0:0:0:0, 1+0:0:0:0:0, 0+0:0:0:0:0, 1+1:0:0:0:0, 1+0:0:0:0:0, 1+0:0:0:0:0, 0+0:0:0:0:0, 1+2:0:0:0:0, 0+0:0:0:0:0, 0+2:0:0:0:0, 2+6:2:0:0:0, 3+1:0:0:0:0, 3+1:1:0:0:0, 2+0:0:0:0:0, 0+0:0:0:0:0, 3+1:1:0:0:0, 1+0:0:0:0:0, 3+0:0:0:0:0, 2+2:0:0:0:0, 3+2:2:0:0:0, 2+0:0:0:0:0, 4+2:1:0:0:1, 3+4:0:0:0:1, 3+10:2:0:0:2, 3+2:0:0:0:1, 1+1:0:0:0:0, 1+2:0:0:0:0, 3+10:2:0:0:2, 3+2:0:0:0:1, 4+2:0:0:0:0, 1+1:0:0:0:0, 3+9:2:0:0:2, 3+1:0:0:0:1, 2+2:0:0:0:0, 2+0:0:0:0:0, 2+1:0:0:0:0, 0+0:0:0:0:0, 4+9:0:0:0:1, 6+6:0:1:0:6, 2+5:0:0:0:1, 1+1:0:0:0:0, 0+1:0:0:0:0, 0+1:0:0:0:0, 289+238:25:3:0:39
F# minor (3#), 2+2:0:0:0:1, 0+0:0:0:0:0, 1+0:0:0:0:0, 1+0:0:0:0:0, 3+6:0:0:0:0, 1+1:0:0:0:0, 2+1:0:0:0:0, 1+0:0:0:0:0, 4+2:0:0:0:1, 1+0:0:0:0:0, 2+0:0:0:0:0, 2+3:0:0:0:0, 2+1:0:0:0:0, 2+3:0:0:0:0, 0+0:0:0:0:0, 3+3:2:0:0:2, 2+2:0:0:0:1, 0+0:0:0:0:0, 1+0:0:0:0:0, 1+0:0:0:0:0, 3+6:0:0:0:0, 1+1:0:0:0:0, 2+1:0:0:0:0, 1+0:0:0:0:0, 2+2:0:0:0:0, 3+6:2:0:0:2, 2+2:0:0:0:0, 5+4:0:0:0:2, 5+7:0:0:0:1, 6+7:0:0:0:4, 5+5:0:0:0:2, 3+4:0:0:0:0, 2+1:0:0:0:0, 3+1:0:0:0:0, 1+2:0:0:0:0,  , 3+7:0:0:0:0, 1+1:0:0:0:0, 3+3:0:0:0:1, 3+2:0:0:0:1, 5+3:0:0:0:1, 2+2:0:0:0:0, 3+1:0:0:0:0, 3+1:0:0:0:0, 5+3:0:0:0:1, 3+2:0:0:0:1, 4+4:0:0:0:0, 5+5:3:0:0:3, 3+1:0:0:0:1, 1+0:0:0:0:0, 1+1:0:0:0:0, 1+1:0:0:0:0, 4+3:1:0:0:1, 5+3:0:0:0:0, 3+2:0:0:0:0, 2+1:0:0:0:1, 6+6:0:0:0:0, 4+7:1:0:0:0, 4+5:0:0:0:0, 5+6:0:0:0:2, 5+5:0:0:0:1, 6+6:0:0:0:4, 5+4:0:0:0:0, 5+3:1:0:0:0, 2+2:0:0:0:0, 1+1:0:0:0:0, 1+1:0:0:0:0, 1+0:0:0:0:0, 3+3:0:0:0:0, 2+3:0:0:0:0, 1+1:0:0:0:0,  , 3+1:0:0:0:1, 2+2:0:0:0:0, 4+2:0:0:0:0, 1+0:0:0:0:0, 3+2:0:0:0:0, 1+2:0:0:0:0, 2+1:0:0:0:0, 4+3:2:0:0:2, 5+6:0:0:0:0, 1+1:0:0:0:0, 2+1:0:0:0:0, 0+0:0:0:0:0, 5+3:0:0:0:1, 2+2:0:0:0:0,  , 3+3:0:0:0:0, 2+5:0:0:0:0, 4+10:2:0:0:0, 2+5:0:0:0:0, 5+4:0:0:0:0, 5+1:0:0:0:1, 7+5:0:0:0:3, 5+7:0:0:0:4, 7+5:0:0:0:1, 3+4:0:0:0:0, 1+1:0:0:0:0, 4+2:0:0:0:0, 3+1:0:0:0:0, 4+6:0:0:0:0, 2+0:0:0:0:0,  , 3+3:0:0:0:0, 3+2:0:0:0:2, 2+1:0:0:0:0, 4+2:0:0:0:0,  , 3+4:0:0:0:0, 2+2:0:0:0:2, 3+3:0:0:0:0, 4+4:2:0:0:2, 3+1:0:0:0:0, 2+2:0:0:0:1, 2+1:0:0:0:0,  , 5+4:0:0:0:0, 3+2:0:0:0:0, 1+0:0:0:0:0, 4+4:0:0:0:0, 2+3:1:0:0:1, 4+10:5:0:0:5, 2+2:0:0:0:0, 5+5:0:0:0:3, 6+7:0:0:0:1, 9+7:0:0:0:4, 5+7:0:0:0:3, 5+3:0:0:0:1, 2+4:0:0:0:0, 1+1:0:0:0:0, 2+4:0:0:0:0, 0+0:0:0:0:0, 3+5:0:0:0:0, 2+2:0:0:0:0, 2+4:0:0:0:0, 0+0:0:0:0:0, 4+2:0:0:0:0, 2+1:0:0:0:0, 2+1:0:0:0:0, 2+1:0:0:0:0, 2+0:0:0:0:0, 3+1:0:0:0:0, 3+1:0:0:0:0, 4+10:2:0:0:0, 3+2:0:0:0:1, 2+1:0:0:0:0, 1+1:0:0:0:0, 1+0:0:0:0:0, 3+2:1:0:0:1, 3+4:0:0:0:0, 0+0:0:0:0:0, 3+5:0:0:0:0, 3+4:2:0:0:2, 4+7:4:0:0:4, 3+4:1:0:0:1, 7+4:0:0:0:1, 5+1:0:0:0:1, 7+2:1:0:0:2, 5+1:0:0:0:0, 2+0:0:0:0:0, 5+1:0:0:0:1, 7+2:1:0:0:2, 6+7:0:0:0:2, 2+1:0:0:0:0, 5+6:0:0:0:1, 6+4:0:0:0:3, 3+5:0:0:0:0, 2+2:0:0:0:0, 4+1:0:0:0:1, 3+1:0:0:0:1, 5+11:0:0:0:4, 4+4:0:1:0:1, 6+7:0:0:0:4, 2+2:0:0:0:0, 1+0:0:0:0:0, 1+0:0:0:0:0, 508+465:34:1:0:105
Ab major (4b), 3+3:0:0:0:0, 3+0:0:0:0:0, 2+0:0:0:0:0, 0+0:0:0:0:0, 2+0:0:0:0:0, 2+0:0:0:0:0, 2+0:0:0:0:0, 0+0:0:0:0:0, 1+0:0:0:0:0, 2+0:0:0:0:0, 1+0:0:0:0:0, 0+0:0:0:0:0, 2+0:0:0:0:0, 0+0:0:0:0:0, 1+0:0:0:0:0, 3+1:1:0:0:1, 3+3:0:0:0:0, 3+0:0:0:0:0, 2+0:0:0:0:0, 0+0:0:0:0:0, 2+0:0:0:0:0, 2+0:0:0:0:0, 2+0:0:0:0:0, 0+0:0:0:0:0, 2+0:0:0:0:0, 3+1:1:0:0:1, 2+0:0:0:0:0, 2+0:0:0:0:0, 4+3:1:0:0:2, 4+3:0:0:0:1, 2+1:0:0:0:0, 2+0:0:0:0:0, 3+3:0:0:0:0, 3+1:0:1:0:1, 2+0:0:0:0:0,  , 2+0:0:0:0:0, 2+1:1:0:0:1, 4+1:0:0:0:0, 2+1:0:0:0:0, 3+2:0:0:0:1, 1+0:0:0:0:0, 1+1:0:0:0:0, 2+3:0:0:0:0, 2+0:0:0:0:0, 1+0:0:0:0:0, 1+1:0:0:0:0, 5+4:3:0:0:3, 5+2:0:0:0:0, 0+0:0:0:0:0, 2+1:0:0:0:0, 2+0:0:0:0:0, 3+1:0:0:0:0, 4+4:2:0:0:2, 2+1:0:0:0:0, 2+1:0:0:0:0, 5+2:1:0:0:1, 3+1:1:0:0:1, 3+1:1:0:0:1, 3+1:0:0:0:0, 4+4:1:0:0:2, 4+3:0:0:0:1, 1+1:0:0:0:0, 3+1:1:0:0:1, 2+1:0:0:0:0, 1+0:0:0:0:0, 1+0:0:0:0:0, 1+0:0:0:0:0, 1+0:0:0:0:0, 1+0:0:0:0:0, 2+0:0:0:0:0,  , 1+0:0:0:0:0, 0+0:0:0:0:0, 0+0:0:0:0:0, 0+0:0:0:0:0, 2+0:0:0:0:0, 1+1:0:0:0:0, 1+0:0:0:0:0, 3+1:1:0:0:1, 6+3:1:0:0:1, 0+0:0:0:0:0, 3+0:0:0:0:0, 1+0:0:0:0:0, 2+1:0:0:0:0, 1+0:0:0:0:0,  , 3+1:0:0:0:0, 3+0:0:0:0:0, 3+2:2:0:0:2, 3+0:0:0:0:0, 1+0:0:0:0:0, 4+6:2:0:0:3, 4+2:0:0:0:1, 2+2:0:0:0:0, 5+2:1:0:0:1, 4+3:0:0:0:0, 1+0:0:0:0:0, 3+1:0:0:0:0, 2+0:0:0:0:0, 2+0:0:0:0:0, 2+0:0:0:0:0,  , 2+0:0:0:0:0, 1+0:0:0:0:0, 1+0:0:0:0:0, 0+0:0:0:0:0,  , 2+0:0:0:0:0, 1+0:0:0:0:0, 1+1:0:0:0:0, 3+1:1:0:0:1, 3+2:0:0:0:0, 2+0:0:0:0:0, 1+1:0:0:0:0,  , 3+1:0:0:0:0, 3+2:0:0:0:0, 1+0:0:0:0:0, 2+1:0:0:0:0, 4+1:1:0:0:1, 4+1:1:0:0:1, 2+0:0:0:0:0, 2+0:0:0:0:0, 5+4:1:0:0:3, 7+4:0:0:0:2, 2+1:0:0:0:0, 3+1:1:0:0:1, 3+1:0:0:0:0, 3+0:0:0:0:0, 2+1:0:0:0:0, 1+0:0:0:0:0, 2+0:0:0:0:0, 2+0:0:0:0:0, 2+0:0:0:0:0, 1+0:0:0:0:0, 1+4:0:0:0:0, 2+0:0:0:0:0, 1+0:0:0:0:0, 1+0:0:0:0:0, 2+0:0:0:0:0, 0+0:0:0:0:0, 1+0:0:0:0:0, 3+5:2:0:0:2, 4+1:0:0:0:0, 3+1:1:0:0:0, 2+0:0:0:0:0, 0+0:0:0:0:0, 4+2:2:0:0:2, 1+0:0:0:0:0, 4+2:0:0:0:0, 2+0:0:0:0:0, 4+2:2:0:0:2, 3+2:2:0:0:2, 5+2:1:0:0:1, 2+2:0:0:0:0, 4+8:2:0:0:5, 4+3:0:0:0:2, 2+2:0:0:0:0, 2+0:0:0:0:0, 4+7:2:0:0:4, 4+3:0:0:0:2, 5+2:0:0:0:0, 2+0:0:0:0:0, 4+7:2:0:0:4, 4+4:0:0:0:3, 3+0:0:0:0:0, 2+0:0:0:0:0, 2+1:0:0:0:0, 1+0:0:0:0:0, 5+4:0:0:0:0, 7+6:0:1:0:6, 3+1:0:0:0:0, 2+0:0:0:0:0, 0+0:0:0:0:0, 0+0:0:0:0:0, 387+177:42:2:0:73
E major (4#), 3+2:0:0:0:0, 1+2:0:0:0:0, 2+1:0:0:0:0, 1+0:0:0:0:0, 3+6:0:0:0:0, 2+1:0:0:0:0, 3+1:0:0:0:0, 1+0:0:0:0:0, 4+2:0:0:0:1, 2+2:0:0:0:0, 2+0:0:0:0:0, 2+3:0:0:0:0, 3+1:0:0:0:0, 2+3:0:0:0:0, 1+2:0:0:0:0, 4+3:2:0:0:2, 3+2:0:0:0:0, 1+2:0:0:0:0, 2+1:0:0:0:0, 1+0:0:0:0:0, 3+6:0:0:0:0, 2+1:0:0:0:0, 3+1:0:0:0:0, 1+0:0:0:0:0, 3+2:0:0:0:0, 4+6:2:0:0:2, 3+2:0:0:0:0, 6+4:0:0:0:2, 6+1:0:0:0:1, 7+6:0:0:0:2, 6+2:0:0:0:0, 4+0:0:0:0:0, 3+1:0:0:0:0, 3+2:0:0:0:0, 1+0:0:0:0:0,  , 3+7:0:0:0:0, 1+1:0:0:0:0, 3+3:0:0:0:0, 4+2:0:0:0:1, 5+3:0:0:0:1, 2+2:0:0:0:0, 4+1:0:0:0:0, 2+1:0:0:0:0, 6+3:0:0:0:1, 3+2:0:0:0:0, 3+4:0:0:0:0, 6+4:2:0:0:2, 4+4:0:0:0:0, 1+0:0:0:0:0, 2+1:0:0:0:0, 1+0:0:0:0:0, 5+3:1:0:0:1, 3+2:1:0:0:1, 4+2:0:0:0:0, 3+1:0:0:0:1, 7+6:0:0:0:0, 5+4:3:0:0:3, 5+5:0:0:0:0, 6+6:0:0:0:2, 6+1:0:0:0:1, 7+6:0:0:0:2, 5+1:0:0:0:0, 6+1:0:0:0:0, 3+2:0:0:0:0, 1+0:0:0:0:0, 1+0:0:0:0:0, 1+0:0:0:0:0, 3+3:0:0:0:0, 2+3:0:0:0:0, 1+0:0:0:0:0,  , 3+1:0:0:0:1, 1+2:0:0:0:0, 3+2:0:0:0:0, 1+0:0:0:0:0, 4+2:0:0:0:0, 1+2:0:0:0:0, 3+1:0:0:0:0, 5+3:2:0:0:2, 6+6:0:0:0:0, 1+0:0:0:0:0, 3+1:0:0:0:0, 1+0:0:0:0:0, 5+3:0:0:0:1, 2+2:0:0:0:0,  , 3+3:0:0:0:0, 3+5:0:0:0:0, 5+5:2:0:0:2, 3+5:0:0:0:0, 5+4:0:0:0:0, 6+1:0:0:0:1, 8+5:0:0:0:3, 6+7:0:0:0:2, 8+5:0:0:0:1, 4+4:0:0:0:0, 2+1:0:0:0:0, 4+2:1:0:0:1, 4+1:0:0:0:0, 4+6:0:0:0:0, 3+0:0:0:0:0,  , 3+3:0:0:0:0, 3+2:0:0:0:1, 2+1:0:0:0:0, 3+2:0:0:0:0,  , 4+4:0:0:0:0, 3+2:0:0:0:2, 2+3:0:0:0:0, 5+4:2:0:0:2, 4+3:0:0:0:0, 2+2:0:0:0:0, 2+0:0:0:0:0,  , 5+4:0:0:0:0, 2+2:2:0:0:2, 1+0:0:0:0:0, 4+4:0:0:0:0, 3+3:1:0:0:1, 5+9:4:0:0:4, 3+2:0:0:0:0, 6+5:0:0:0:2, 7+7:0:0:0:1, 10+7:0:0:0:3, 6+7:0:0:0:2, 6+3:0:0:0:1, 3+4:0:0:0:0, 2+1:0:0:0:0, 1+3:0:0:0:0, 1+1:0:0:0:0, 3+5:0:0:0:0, 3+2:0:0:0:0, 3+4:0:0:0:0, 1+1:0:0:0:0, 4+1:0:0:0:0, 3+0:0:0:0:0, 2+0:0:0:0:0, 3+0:0:0:0:0, 3+2:0:0:0:0, 3+1:0:0:0:0, 4+1:0:0:0:0, 5+0:0:0:0:0, 4+4:0:0:0:0, 2+1:0:0:0:0, 1+0:0:0:0:0, 1+0:0:0:0:0, 4+2:1:0:0:1, 3+4:0:0:0:0, 1+1:0:0:0:0, 3+5:0:0:0:0, 4+4:2:0:0:2, 5+7:4:0:0:4, 4+4:1:0:0:1, 7+4:0:0:0:1, 6+1:0:0:0:1, 9+5:0:0:0:1, 6+1:0:0:0:0, 3+2:0:0:0:0, 6+1:0:0:0:1, 9+6:0:0:0:1, 7+7:0:0:0:1, 3+1:0:0:0:0, 6+6:0:0:0:1, 7+4:0:0:0:3, 4+5:0:0:0:0, 2+2:0:0:0:0, 4+1:0:0:0:1, 4+1:0:0:0:1, 6+11:0:0:0:4, 5+4:0:1:0:1, 7+7:0:0:0:3, 3+2:0:0:0:0, 1+0:0:0:0:0, 1+0:0:0:0:0, 602+439:33:1:0:89
F minor (4b), 3+3:0:0:0:0, 3+0:0:0:0:0, 2+0:0:0:0:0, 0+0:0:0:0:0, 2+0:0:0:0:0, 2+0:0:0:0:0, 2+0:0:0:0:0, 0+0:0:0:0:0, 1+1:0:0:0:0, 2+0:0:0:0:0, 1+0:0:0:0:0, 0+0:0:0:0:0, 2+0:0:0:0:0, 0+0:0:0:0:0, 1+0:0:0:0:0, 3+1:1:0:0:1, 3+3:0:0:0:0, 3+0:0:0:0:0, 2+0:0:0:0:0, 0+0:0:0:0:0, 2+0:0:0:0:0, 2+0:0:0:0:0, 2+0:0:0:0:0, 0+0:0:0:0:0, 2+0:0:0:0:0, 3+1:1:0:0:1, 2+0:0:0:0:0, 2+2:0:0:0:0, 4+2:1:0:0:1, 4+6:0:0:0:0, 2+2:0:0:0:0, 2+0:0:0:0:0, 3+3:0:0:0:0, 3+1:0:1:0:1, 2+0:0:0:0:0,  , 2+0:0:0:0:0, 2+1:0:0:0:1, 4+1:0:0:0:0, 2+1:0:0:0:0, 3+1:0:0:0:0, 1+0:0:0:0:0, 1+1:0:0:0:0, 2+8:0:0:0:0, 2+3:0:0:0:0, 1+0:0:0:0:0, 1+1:0:0:0:1, 5+1:0:0:0:0, 4+1:0:0:0:1, 0+0:0:0:0:0, 3+2:0:0:0:0, 2+0:0:0:0:0, 3+1:0:0:0:0, 4+4:2:0:0:2, 2+1:0:0:0:0, 2+1:0:0:0:0, 5+2:1:0:0:1, 3+3:1:0:0:1, 3+1:1:0:0:1, 3+3:0:0:0:0, 4+2:1:0:0:1, 4+2:0:0:0:2, 1+2:0:0:0:0, 3+4:1:0:0:0, 2+0:0:0:0:0, 1+0:0:0:0:0, 1+0:0:0:0:0, 1+0:0:0:0:0, 1+0:0:0:0:0, 1+0:0:0:0:0, 2+0:0:0:0:0,  , 1+1:0:0:0:0, 0+1:0:0:0:0, 0+1:0:0:0:0, 0+0:0:0:0:0, 2+0:0:0:0:0, 1+1:0:0:0:0, 1+1:0:0:0:0, 3+0:0:0:0:0, 6+3:1:0:0:1, 0+0:0:0:0:0, 3+0:0:0:0:0, 1+0:0:0:0:0, 2+1:0:0:0:0, 1+0:0:0:0:0,  , 3+1:0:0:0:0, 3+0:0:0:0:0, 3+5:2:0:0:2, 3+0:0:0:0:0, 1+2:0:0:0:0, 4+3:2:0:0:2, 4+1:0:0:0:1, 2+4:0:0:0:0, 5+8:1:0:0:1, 4+1:0:0:0:0, 1+0:0:0:0:0, 3+1:0:0:0:0, 2+0:0:0:0:0, 2+0:0:0:0:0, 2+0:0:0:0:0,  , 2+0:0:0:0:0, 1+2:0:0:0:0, 1+0:0:0:0:0, 0+1:0:0:0:0,  , 2+0:0:0:0:0, 1+0:0:0:0:0, 1+0:0:0:0:0, 3+1:1:0:0:1, 3+2:0:0:0:0, 2+1:0:0:0:0, 1+1:0:0:0:0,  , 3+1:0:0:0:0, 3+2:0:0:0:0, 1+0:0:0:0:0, 2+1:0:0:0:0, 4+1:1:0:0:1, 4+1:1:0:0:1, 2+0:0:0:0:0, 2+3:0:0:0:0, 5+3:1:0:0:1, 7+3:0:0:0:1, 2+4:0:0:0:0, 3+4:1:0:0:0, 3+0:0:0:0:0, 3+0:0:0:0:0, 2+1:0:0:0:0, 1+0:0:0:0:0, 2+0:0:0:0:0, 2+0:0:0:0:0, 2+0:0:0:0:0, 1+0:0:0:0:0, 1+1:0:0:0:0, 2+0:0:0:0:0, 1+0:0:0:0:0, 1+0:0:0:0:0, 2+0:0:0:0:0, 0+1:0:0:0:0, 1+2:0:0:0:0, 3+6:2:0:0:0, 4+1:0:0:0:0, 3+1:1:0:0:0, 2+0:0:0:0:0, 0+0:0:0:0:0, 4+2:2:0:0:2, 1+0:0:0:0:0, 4+2:0:0:0:0, 2+0:0:0:0:0, 4+2:2:0:0:2, 3+5:2:0:0:2, 5+2:1:0:0:1, 2+6:0:0:0:0, 4+10:2:0:0:2, 4+2:0:0:0:1, 2+4:0:0:0:0, 2+0:0:0:0:0, 4+3:2:0:0:2, 4+6:0:0:0:0, 5+3:0:0:0:0, 2+0:0:0:0:0, 4+3:2:0:0:2, 4+1:0:0:0:1, 3+0:0:0:0:0, 2+0:0:0:0:0, 2+1:0:0:0:0, 1+0:0:0:0:0, 5+4:0:0:0:0, 7+6:0:1:0:6, 3+4:0:0:0:0, 2+0:0:0:0:0, 0+0:0:0:0:0, 0+0:0:0:0:0, 387+217:37:2:0:48
C# minor (4#), 3+2:0:0:0:1, 1+2:0:0:0:0, 2+0:0:0:0:0, 1+0:0:0:0:0, 3+6:0:0:0:0, 2+1:0:0:0:0, 3+1:0:0:0:0, 1+0:0:0:0:0, 4+2:0:0:0:1, 2+2:0:0:0:0, 2+0:0:0:0:0, 2+3:0:0:0:0, 3+0:0:0:0:0, 2+3:0:0:0:0, 1+2:0:0:0:0, 4+3:2:0:0:2, 3+2:0:0:0:1, 1+2:0:0:0:0, 2+0:0:0:0:0, 1+0:0:0:0:0, 3+6:0:0:0:0, 2+1:0:0:0:0, 3+1:0:0:0:0, 1+0:0:0:0:0, 3+2:0:0:0:0, 4+6:2:0:0:2, 3+0:0:0:0:0, 6+1:0:0:0:0, 6+1:0:0:0:1, 7+2:0:0:0:2, 6+2:0:0:0:0, 4+0:0:0:0:0, 3+2:0:0:0:1, 3+2:0:0:0:0, 1+2:0:0:0:0,  , 3+4:4:0:0:4, 1+1:0:0:0:0, 3+1:0:0:0:0, 4+2:0:0:0:1, 5+3:0:0:0:1, 2+0:0:0:0:0, 4+1:0:0:0:0, 2+9:1:0:0:1, 6+3:0:0:0:0, 4+1:0:0:0:0, 4+1:0:0:0:1, 6+4:2:0:0:2, 4+4:0:0:0:0, 1+0:0:0:0:0, 2+1:0:0:0:0, 1+1:0:0:0:0, 5+3:1:0:0:1, 3+2:1:0:0:1, 4+2:0:0:0:0, 3+1:0:0:0:1, 6+2:0:1:0:1, 5+0:0:0:0:0, 5+1:0:0:0:0, 6+1:0:0:0:0, 6+1:0:0:0:1, 7+2:0:0:0:2, 5+1:0:0:0:0, 6+1:0:0:0:0, 3+2:0:0:0:0, 1+0:0:0:0:0, 1+0:0:0:0:0, 1+0:0:0:0:0, 3+2:0:0:0:0, 2+0:0:0:0:0, 1+0:0:0:0:0,  , 3+1:0:0:0:0, 2+0:0:0:0:0, 4+1:0:0:0:0, 1+0:0:0:0:0, 4+2:0:0:0:0, 1+2:0:0:0:0, 3+1:0:0:0:0, 5+3:2:0:0:2, 6+6:0:0:0:0, 1+0:0:0:0:0, 3+4:0:0:0:0, 1+1:0:0:0:0, 5+3:0:0:0:1, 2+1:0:0:0:0,  , 3+3:0:0:0:0, 3+0:0:0:0:0, 5+0:0:0:0:0, 3+0:0:0:0:0, 5+1:0:0:0:0, 6+1:0:0:0:1, 7+1:0:0:0:1, 6+1:0:0:0:0, 7+3:1:1:0:1, 4+3:0:0:0:0, 2+1:0:0:0:0, 4+2:1:0:0:1, 4+1:0:0:0:0, 4+6:0:0:0:0, 3+3:0:0:0:0,  , 3+3:0:0:0:0, 3+2:0:0:0:1, 2+1:0:0:0:0, 4+1:0:0:0:0,  , 4+1:0:0:0:0, 3+2:0:0:0:0, 3+2:0:0:0:0, 5+4:2:0:0:2, 4+3:0:0:0:0, 2+2:0:0:0:0, 2+0:0:0:0:0,  , 4+2:1:1:0:2, 2+2:2:0:0:2, 1+0:0:0:0:0, 4+4:0:0:0:0, 3+3:1:0:0:1, 5+9:4:0:0:4, 3+0:0:0:0:0, 6+1:0:0:0:0, 7+2:0:0:0:2, 10+3:0:0:0:1, 6+1:0:0:0:0, 6+1:0:0:0:0, 3+2:0:0:0:0, 2+1:0:0:0:0, 1+3:0:0:0:0, 1+1:0:0:0:0, 3+5:0:0:0:0, 3+0:0:0:0:0, 3+0:0:0:0:0, 1+1:0:0:0:0, 4+1:0:0:0:0, 3+0:0:0:0:0, 2+0:0:0:0:0, 3+0:0:0:0:0, 3+2:0:0:0:0, 3+1:0:0:0:0, 4+1:0:0:0:0, 5+0:0:0:0:0, 4+4:0:0:0:0, 2+1:0:0:0:0, 1+0:0:0:0:0, 1+0:0:0:0:0, 4+2:1:0:0:1, 3+4:0:0:0:0, 1+1:0:0:0:0, 3+2:2:0:0:2, 4+4:2:0:0:2, 5+7:4:0:0:4, 4+4:1:0:0:1, 7+4:0:0:0:1, 6+1:0:0:0:1, 8+2:1:0:0:2, 6+1:0:0:0:0, 3+2:0:0:0:0, 6+1:0:0:0:1, 9+6:0:0:0:1, 7+7:0:0:0:1, 3+0:0:0:0:0, 6+1:0:0:0:1, 7+4:0:0:0:3, 4+2:0:0:0:0, 2+0:0:0:0:0, 4+4:0:0:0:0, 4+1:0:0:0:0, 6+4:0:0:0:2, 5+4:0:1:0:1, 7+7:0:0:0:1, 3+0:0:0:0:0, 1+0:0:0:0:0, 1+0:0:0:0:0, 603+314:38:4:0:75
Db major (5b), 4+3:0:0:0:0, 3+0:0:0:0:0, 3+0:0:0:0:0, 1+0:0:0:0:0, 3+1:0:0:0:0, 2+2:0:0:0:0, 3+0:0:0:0:0, 0+0:0:0:0:0, 2+0:0:0:0:0, 2+0:0:0:0:0, 1+0:0:0:0:0, 1+0:0:0:0:0, 2+0:0:0:0:0, 1+0:0:0:0:0, 1+0:0:0:0:0, 4+1:1:0:0:1, 4+3:0:0:0:0, 3+0:0:0:0:0, 3+0:0:0:0:0, 1+0:0:0:0:0, 3+1:0:0:0:0, 2+2:0:0:0:0, 3+0:0:0:0:0, 0+0:0:0:0:0, 3+1:0:0:0:0, 4+1:1:0:0:1, 3+1:0:0:0:0, 3+0:0:0:0:0, 5+3:1:0:0:2, 3+3:0:0:0:1, 3+0:0:0:0:0, 3+0:0:0:0:0, 4+3:0:0:0:0, 4+1:0:1:0:1, 3+0:0:0:0:0,  , 3+2:0:0:0:0, 2+1:1:0:0:1, 5+1:0:0:0:0, 3+1:0:0:0:0, 4+2:0:0:0:1, 2+0:0:0:0:0, 1+1:0:0:0:0, 2+3:0:0:0:0, 3+0:0:0:0:0, 2+0:0:0:0:0, 2+1:0:0:0:0, 6+4:3:0:0:3, 5+1:0:0:0:1, 1+0:0:0:0:0, 2+0:0:0:0:0, 3+0:0:0:0:0, 4+1:0:0:0:0, 5+4:0:0:0:0, 3+1:0:0:0:0, 2+1:0:0:0:0, 6+2:1:0:0:1, 4+1:1:0:0:1, 4+1:1:0:0:1, 4+1:0:0:0:0, 5+4:1:0:0:2, 3+3:0:0:0:1, 2+0:0:0:0:0, 3+1:1:0:0:1, 3+1:0:0:0:0, 2+0:0:0:0:0, 2+0:0:0:0:0, 1+0:0:0:0:0, 2+1:0:0:0:0, 2+0:0:0:0:0, 3+0:0:0:0:0,  , 1+0:0:0:0:0, 1+0:0:0:0:0, 1+0:0:0:0:0, 0+0:0:0:0:0, 2+0:0:0:0:0, 1+1:0:0:0:0, 1+0:0:0:0:0, 4+1:1:0:0:1, 7+3:1:0:0:3, 1+0:0:0:0:0, 4+0:0:0:0:0, 1+0:0:0:0:0, 3+3:0:0:0:2, 2+1:0:0:0:0,  , 4+2:0:0:0:0, 4+2:0:0:0:0, 4+2:2:0:0:2, 4+1:0:0:0:0, 2+0:0:0:0:0, 5+6:2:0:0:3, 3+2:0:0:0:1, 3+0:0:0:0:0, 4+2:1:0:0:1, 5+3:0:0:0:0, 2+0:0:0:0:0, 4+1:0:0:0:0, 3+0:0:0:0:0, 3+1:0:0:0:0, 2+2:0:0:0:0,  , 3+1:0:0:0:0, 1+0:0:0:0:0, 2+0:0:0:0:0, 1+0:0:0:0:0,  , 2+0:0:0:0:0, 1+0:0:0:0:0, 2+0:0:0:0:0, 4+1:1:0:0:1, 4+2:0:0:0:0, 3+0:0:0:0:0, 2+1:0:0:0:1,  , 4+3:0:0:0:0, 4+2:0:0:0:0, 2+0:0:0:0:0, 3+1:0:0:0:0, 5+1:1:0:0:1, 5+1:1:0:0:1, 3+1:0:0:0:0, 3+0:0:0:0:0, 6+4:1:0:0:3, 6+4:0:0:0:2, 3+0:0:0:0:0, 3+1:1:0:0:1, 4+1:0:0:0:0, 4+0:0:0:0:0, 3+1:0:0:0:1, 1+0:0:0:0:0, 3+1:0:0:0:0, 3+0:0:0:0:0, 3+0:0:0:0:0, 1+0:0:0:0:0, 1+0:0:0:0:0, 2+0:0:0:0:0, 1+0:0:0:0:0, 1+0:0:0:0:0, 2+0:0:0:0:0, 1+0:0:0:0:0, 1+0:0:0:0:0, 4+2:2:0:0:2, 5+1:0:0:0:0, 4+1:1:0:0:0, 3+0:0:0:0:0, 1+0:0:0:0:0, 5+2:2:0:0:2, 2+0:0:0:0:0, 4+0:0:0:0:0, 3+1:0:0:0:0, 5+2:2:0:0:2, 4+2:2:0:0:2, 6+2:1:0:0:1, 3+2:0:0:0:0, 5+8:2:0:0:5, 3+3:0:0:0:2, 3+0:0:0:0:0, 2+0:0:0:0:0, 5+7:2:0:0:4, 3+3:0:0:0:2, 6+2:0:0:0:0, 2+0:0:0:0:0, 5+7:2:0:0:4, 3+4:0:0:0:3, 4+2:0:0:0:0, 3+0:0:0:0:0, 2+1:0:0:0:0, 1+0:0:0:0:0, 6+4:0:0:0:0, 7+6:0:1:0:6, 4+1:0:0:0:0, 2+0:0:0:0:0, 0+0:0:0:0:0, 0+0:0:0:0:0, 495+187:40:2:0:78
B major (5#), 4+2:0:0:0:1, 1+0:0:0:0:0, 2+0:0:0:0:0, 1+0:0:0:0:0, 4+3:3:0:0:3, 1+2:0:0:0:0, 3+1:0:0:0:0, 1+0:0:0:0:0, 5+2:0:0:0:1, 3+2:0:0:0:0, 3+0:0:0:0:0, 2+3:0:0:0:0, 4+0:0:0:0:0, 2+0:0:0:0:0, 1+0:0:0:0:0, 5+3:2:0:0:2, 4+2:0:0:0:1, 1+0:0:0:0:0, 2+0:0:0:0:0, 1+0:0:0:0:0, 4+3:3:0:0:3, 1+2:0:0:0:0, 3+1:0:0:0:0, 1+0:0:0:0:0, 3+2:0:0:0:0, 5+6:2:0:0:2, 3+0:0:0:0:0, 7+5:0:0:0:0, 6+1:0:0:0:1, 7+2:0:0:0:2, 7+2:0:0:0:0, 5+0:0:0:0:0, 4+2:0:0:0:1, 2+2:0:0:0:0, 2+2:0:0:0:0,  , 4+4:3:0:0:3, 2+1:0:0:0:0, 4+1:0:0:0:0, 4+2:0:0:0:1, 6+3:0:0:0:1, 3+0:0:0:0:0, 4+1:0:0:0:0, 3+1:0:0:0:0, 7+2:0:0:0:0, 4+1:0:0:0:0, 5+1:0:0:0:1, 7+4:2:0:0:2, 3+1:0:0:0:1, 1+0:0:0:0:0, 1+1:0:0:0:0, 2+1:0:0:0:0, 6+3:1:0:0:1, 3+3:0:0:0:0, 4+2:0:0:0:0, 3+1:0:0:0:1, 6+2:0:1:0:1, 6+7:1:0:0:0, 5+1:0:0:0:0, 7+5:1:0:0:0, 6+1:0:0:0:1, 7+2:0:0:0:2, 6+1:0:0:0:0, 7+3:1:0:0:0, 3+1:0:0:0:1, 1+0:0:0:0:0, 1+0:0:0:0:0, 1+1:0:0:0:1, 3+2:0:0:0:0, 3+0:0:0:0:0, 2+1:0:0:0:0,  , 4+3:0:0:0:0, 2+0:0:0:0:0, 4+1:0:0:0:0, 1+1:0:0:0:0, 5+1:0:0:0:0, 2+2:0:0:0:0, 3+1:0:0:0:0, 6+3:2:0:0:2, 6+2:0:0:0:1, 1+0:0:0:0:0, 4+4:0:0:0:3, 1+0:0:0:0:0, 5+3:0:0:0:1, 2+1:0:0:0:1,  , 4+1:0:0:0:1, 4+0:0:0:0:0, 6+10:2:0:0:0, 4+0:0:0:0:0, 6+4:0:0:0:0, 6+1:0:0:0:1, 8+5:0:0:0:3, 7+7:0:0:0:0, 9+5:1:0:0:1, 5+2:0:0:0:1, 2+0:0:0:0:0, 5+2:1:0:0:1, 4+1:0:0:0:0, 5+2:0:0:0:0, 3+1:0:0:0:0,  , 4+1:0:0:0:0, 4+4:0:0:0:0, 3+0:0:0:0:0, 4+1:0:0:0:0,  , 5+2:0:0:0:0, 3+2:0:0:0:0, 4+2:0:0:0:0, 6+4:2:0:0:2, 5+3:0:0:0:0, 3+2:0:0:0:0, 2+0:0:0:0:0,  , 5+2:1:1:0:2, 2+2:0:0:0:0, 1+0:0:0:0:0, 5+2:0:0:0:1, 4+3:1:0:0:1, 6+9:4:0:0:4, 3+0:0:0:0:0, 7+7:0:0:0:0, 7+2:0:0:0:2, 10+7:0:0:0:3, 7+7:0:0:0:0, 7+3:1:0:0:0, 4+2:0:0:0:1, 3+1:0:0:0:0, 2+2:0:0:0:0, 1+0:0:0:0:0, 4+1:0:0:0:0, 4+0:0:0:0:0, 4+0:0:0:0:0, 1+0:0:0:0:0, 5+2:0:0:0:0, 4+1:0:0:0:0, 3+1:0:0:0:0, 3+1:0:0:0:0, 4+0:0:0:0:0, 3+1:0:0:0:0, 4+1:0:0:0:0, 6+10:2:0:0:0, 5+2:0:0:0:1, 3+1:0:0:0:0, 2+1:0:0:0:0, 1+0:0:0:0:0, 5+2:1:0:0:1, 4+2:0:0:0:0, 2+0:0:0:0:0, 4+1:0:0:0:0, 5+4:2:0:0:2, 6+7:4:0:0:4, 5+4:1:0:0:1, 8+4:0:0:0:1, 6+1:0:0:0:1, 8+2:1:0:0:2, 7+1:0:0:0:0, 4+0:0:0:0:0, 6+1:0:0:0:1, 9+6:0:0:0:1, 8+7:0:0:0:1, 4+0:0:0:0:0, 6+1:0:0:0:1, 7+4:0:0:0:3, 5+2:0:0:0:0, 3+0:0:0:0:0, 5+3:0:0:0:0, 4+1:0:0:0:0, 6+4:0:0:0:2, 6+4:0:1:0:1, 8+7:0:0:0:1, 4+0:0:0:0:0, 0+0:0:0:0:0, 0+0:0:0:0:0, 692+333:45:3:0:90
Bb minor (5b), 4+3:0:0:0:0, 3+0:0:0:0:0, 3+0:0:0:0:0, 1+0:0:0:0:0, 3+0:0:0:0:0, 2+0:0:0:0:0, 3+0:0:0:0:0, 0+0:0:0:0:0, 2+0:0:0:0:0, 2+0:0:0:0:0, 1+0:0:0:0:0, 1+0:0:0:0:0, 2+0:0:0:0:0, 1+0:0:0:0:0, 1+0:0:0:0:0, 4+1:1:0:0:1, 4+3:0:0:0:0, 3+0:0:0:0:0, 3+0:0:0:0:0, 1+0:0:0:0:0, 3+0:0:0:0:0, 2+0:0:0:0:0, 3+0:0:0:0:0, 0+0:0:0:0:0, 3+1:0:0:0:0, 4+1:1:0:0:1, 3+1:0:0:0:0, 3+0:0:0:0:0, 5+3:1:0:0:2, 3+3:0:0:0:1, 3+0:0:0:0:0, 3+0:0:0:0:0, 4+3:0:0:0:0, 4+1:0:1:0:1, 3+0:0:0:0:0,  , 3+0:0:0:0:0, 2+1:1:0:0:1, 5+1:0:0:0:0, 3+1:0:0:0:0, 4+2:0:0:0:1, 2+0:0:0:0:0, 1+1:0:0:0:0, 2+3:0:0:0:0, 3+0:0:0:0:0, 2+0:0:0:0:0, 2+1:0:0:0:0, 6+4:3:0:0:3, 6+2:0:0:0:0, 1+0:0:0:0:0, 2+0:0:0:0:0, 3+0:0:0:0:0, 4+1:0:0:0:0, 5+4:0:0:0:0, 3+1:0:0:0:0, 2+1:0:0:0:0, 6+2:1:0:0:1, 4+1:1:0:0:1, 4+1:1:0:0:1, 4+1:0:0:0:0, 5+4:1:0:0:2, 3+3:0:0:0:1, 2+0:0:0:0:0, 3+1:1:0:0:1, 3+1:0:0:0:0, 2+0:0:0:0:0, 2+0:0:0:0:0, 1+0:0:0:0:0, 2+0:0:0:0:0, 2+0:0:0:0:0, 3+0:0:0:0:0,  , 1+0:0:0:0:0, 1+0:0:0:0:0, 1+0:0:0:0:0, 0+0:0:0:0:0, 2+0:0:0:0:0, 1+1:0:0:0:0, 1+0:0:0:0:0, 4+1:1:0:0:1, 7+3:1:0:0:3, 1+0:0:0:0:0, 4+0:0:0:0:0, 1+0:0:0:0:0, 3+1:0:0:0:0, 2+0:0:0:0:0,  , 4+1:0:0:0:0, 4+0:0:0:0:0, 4+2:2:0:0:2, 4+1:0:0:0:0, 2+0:0:0:0:0, 5+6:2:0:0:3, 3+2:0:0:0:1, 3+0:0:0:0:0, 4+2:1:0:0:1, 5+3:0:0:0:0, 2+0:0:0:0:0, 4+1:0:0:0:0, 3+0:0:0:0:0, 3+0:0:0:0:0, 2+0:0:0:0:0,  , 3+0:0:0:0:0, 1+0:0:0:0:0, 2+0:0:0:0:0, 1+0:0:0:0:0,  , 2+0:0:0:0:0, 1+0:0:0:0:0, 2+0:0:0:0:0, 4+1:1:0:0:1, 4+2:0:0:0:0, 3+0:0:0:0:0, 2+1:0:0:0:1,  , 4+3:0:0:0:0, 4+2:0:0:0:0, 2+0:0:0:0:0, 3+1:0:0:0:0, 5+1:1:0:0:1, 5+1:1:0:0:1, 3+1:0:0:0:0, 3+0:0:0:0:0, 6+4:1:0:0:3, 6+4:0:0:0:2, 3+0:0:0:0:0, 3+1:1:0:0:1, 4+1:0:0:0:0, 4+0:0:0:0:0, 3+1:0:0:0:1, 1+0:0:0:0:0, 3+1:0:0:0:0, 3+0:0:0:0:0, 3+0:0:0:0:0, 1+0:0:0:0:0, 1+0:0:0:0:0, 2+0:0:0:0:0, 1+0:0:0:0:0, 1+0:0:0:0:0, 2+0:0:0:0:0, 1+0:0:0:0:0, 1+0:0:0:0:0, 4+2:2:0:0:2, 5+1:0:0:0:0, 4+1:1:0:0:0, 3+0:0:0:0:0, 1+0:0:0:0:0, 5+2:2:0:0:2, 2+0:0:0:0:0, 3+2:0:0:0:0, 3+0:0:0:0:0, 5+2:2:0:0:2, 4+2:2:0:0:2, 6+2:1:0:0:1, 3+2:0:0:0:0, 5+8:2:0:0:5, 3+3:0:0:0:2, 3+0:0:0:0:0, 2+0:0:0:0:0, 5+7:2:0:0:4, 3+3:0:0:0:2, 6+2:0:0:0:0, 2+0:0:0:0:0, 5+7:2:0:0:4, 3+4:0:0:0:3, 4+2:0:0:0:0, 3+0:0:0:0:0, 2+1:0:0:0:0, 1+0:0:0:0:0, 6+4:0:0:0:0, 7+6:0:1:0:6, 4+1:0:0:0:0, 2+0:0:0:0:0, 0+0:0:0:0:0, 0+0:0:0:0:0, 495+170:40:2:0:75
G# minor (5#), 4+2:0:0:0:1, 1+0:0:0:0:0, 2+0:0:0:0:0, 1+0:0:0:0:0, 4+1:0:0:0:0, 2+0:0:0:0:0, 3+1:0:0:0:0, 1+0:0:0:0:0, 5+2:0:0:0:1, 3+2:0:0:0:0, 3+0:0:0:0:0, 2+3:0:0:0:0, 4+0:0:0:0:0, 2+0:0:0:0:0, 1+0:0:0:0:0, 5+3:2:0:0:2, 4+2:0:0:0:1, 1+0:0:0:0:0, 2+0:0:0:0:0, 1+0:0:0:0:0, 4+1:0:0:0:0, 2+0:0:0:0:0, 3+1:0:0:0:0, 1+1:0:0:0:0, 3+0:0:0:0:0, 5+0:0:0:0:0, 3+0:0:0:0:0, 7+5:0:0:0:0, 6+1:0:0:0:1, 7+2:0:0:0:2, 7+2:0:0:0:0, 5+0:0:0:0:0, 4+2:0:0:0:1, 2+2:0:0:0:0, 2+2:0:0:0:0,  , 4+4:3:0:0:3, 2+1:0:0:0:0, 4+3:0:0:0:0, 4+2:0:0:0:1, 6+3:0:0:0:1, 3+0:0:0:0:0, 4+1:0:0:0:0, 3+1:0:0:0:0, 7+2:0:0:0:0, 4+1:0:0:0:0, 5+1:0:0:0:1, 7+4:2:0:0:2, 3+1:0:0:0:1, 1+0:0:0:0:0, 1+1:0:0:0:0, 2+1:0:0:0:0, 6+3:1:0:0:1, 3+3:0:0:0:0, 4+2:0:0:0:0, 3+1:0:0:0:1, 6+2:0:1:0:1, 6+7:1:0:0:0, 5+1:0:0:0:0, 7+5:1:0:0:0, 6+1:0:0:0:1, 7+2:0:0:0:2, 6+1:0:0:0:0, 7+3:1:0:0:0, 3+1:0:0:0:1, 1+0:0:0:0:0, 1+0:0:0:0:0, 1+1:0:0:0:1, 3+2:0:0:0:0, 3+0:0:0:0:0, 2+1:0:0:0:0,  , 4+3:0:0:0:0, 2+0:0:0:0:0, 4+1:0:0:0:0, 1+1:0:0:0:0, 5+1:0:0:0:0, 2+2:0:0:0:0, 3+1:0:0:0:0, 6+3:2:0:0:2, 6+2:0:0:0:1, 1+0:0:0:0:0, 4+4:0:0:0:3, 1+0:0:0:0:0, 5+3:0:0:0:1, 2+1:0:0:0:1,  , 4+1:0:0:0:1, 4+0:0:0:0:0, 6+10:2:0:0:0, 4+0:0:0:0:0, 6+4:0:0:0:0, 6+1:0:0:0:1, 8+5:0:0:0:3, 7+7:0:0:0:0, 9+5:1:0:0:1, 5+2:0:0:0:1, 2+0:0:0:0:0, 5+2:1:0:0:1, 4+1:0:0:0:0, 5+2:0:0:0:0, 3+1:0:0:0:0,  , 4+1:0:0:0:0, 4+4:0:0:0:0, 3+0:0:0:0:0, 4+1:0:0:0:0,  , 5+2:0:0:0:0, 3+2:0:0:0:0, 4+2:0:0:0:0, 5+3:3:0:0:0, 5+3:0:0:0:0, 3+2:0:0:0:0, 2+1:0:0:0:0,  , 6+4:0:0:0:1, 2+2:0:0:0:0, 1+0:0:0:0:0, 5+2:0:0:0:1, 4+3:1:0:0:1, 6+9:4:0:0:4, 3+0:0:0:0:0, 7+7:0:0:0:0, 7+2:0:0:0:2, 10+7:0:0:0:3, 7+7:0:0:0:0, 7+3:1:0:0:0, 4+2:0:0:0:1, 3+1:0:0:0:0, 2+4:0:0:0:3, 1+0:0:0:0:0, 4+1:0:0:0:0, 4+0:0:0:0:0, 4+0:0:0:0:0, 1+0:0:0:0:0, 5+2:0:0:0:0, 4+1:0:0:0:0, 3+1:0:0:0:0, 3+1:0:0:0:0, 4+0:0:0:0:0, 3+1:0:0:0:0, 4+1:0:0:0:0, 6+10:2:0:0:0, 5+2:0:0:0:1, 3+1:0:0:0:0, 2+1:0:0:0:0, 1+0:0:0:0:0, 5+2:1:0:0:1, 4+2:0:0:0:0, 2+0:0:0:0:0, 4+1:0:0:0:0, 5+3:2:0:0:0, 6+9:2:0:0:0, 5+2:1:0:0:0, 8+4:0:0:0:1, 6+1:0:0:0:1, 8+2:1:0:0:2, 7+1:0:0:0:0, 4+0:0:0:0:0, 6+1:0:0:0:1, 9+6:0:0:0:1, 8+7:0:0:0:1, 4+0:0:0:0:0, 6+1:0:0:0:1, 7+4:0:0:0:3, 5+2:0:0:0:0, 3+0:0:0:0:0, 5+4:0:0:0:0, 4+1:0:0:0:0, 6+4:0:0:0:2, 6+4:0:1:0:1, 8+7:0:0:0:1, 4+0:0:0:0:0, 0+0:0:0:0:0, 0+0:0:0:0:0, 694+324:35:2:0:75
Gb major (6b), 4+0:0:0:0:0, 3+0:0:0:0:0, 3+0:0:0:0:0, 1+0:0:0:0:0, 4+1:0:0:0:0, 2+0:0:0:0:0, 4+0:0:0:0:0, 1+0:0:0:0:0, 3+0:0:0:0:0, 3+0:0:0:0:0, 2+0:0:0:0:0, 1+0:0:0:0:0, 2+0:0:0:0:0, 1+0:0:0:0:0, 1+0:0:0:0:0, 5+1:1:0:0:1, 4+0:0:0:0:0, 3+0:0:0:0:0, 3+0:0:0:0:0, 1+0:0:0:0:0, 4+1:0:0:0:0, 2+0:0:0:0:0, 4+0:0:0:0:0, 1+0:0:0:0:0, 3+1:0:0:0:0, 5+1:1:0:0:1, 3+1:0:0:0:0, 4+0:0:0:0:0, 5+3:1:0:0:2, 4+3:0:0:0:1, 4+1:0:0:0:0, 3+0:0:0:0:0, 4+3:0:0:0:0, 3+1:0:1:0:1, 3+0:0:0:0:0,  , 4+0:0:0:0:0, 3+1:0:0:0:1, 6+1:0:0:0:0, 4+1:0:0:0:0, 5+2:0:0:0:1, 2+0:0:0:0:0, 2+1:0:0:0:0, 3+3:0:0:0:0, 4+0:0:0:0:0, 2+0:0:0:0:0, 3+1:0:0:0:0, 7+4:3:0:0:3, 5+1:0:0:0:1, 1+0:0:0:0:0, 1+0:0:0:0:0, 3+0:0:0:0:0, 5+1:0:0:0:0, 5+3:2:0:0:0, 4+1:1:0:0:1, 3+1:0:0:0:0, 5+2:1:1:0:2, 5+1:1:0:0:1, 5+1:1:0:0:1, 5+1:0:0:0:0, 5+4:1:0:0:2, 4+3:0:0:0:1, 3+1:0:0:0:0, 4+3:1:0:0:1, 3+0:0:0:0:0, 2+0:0:0:0:0, 2+0:0:0:0:0, 1+0:0:0:0:0, 3+0:0:0:0:0, 2+0:0:0:0:0, 3+0:0:0:0:0,  , 2+0:0:0:0:0, 1+0:0:0:0:0, 2+0:0:0:0:0, 1+0:0:0:0:0, 3+0:0:0:0:0, 1+1:0:0:0:0, 2+0:0:0:0:0, 5+1:1:0:0:1, 6+3:1:1:0:2, 1+0:0:0:0:0, 4+1:0:0:0:0, 1+0:0:0:0:0, 4+3:0:0:0:2, 2+1:0:0:0:0,  , 4+1:0:0:0:0, 4+0:0:0:0:0, 5+2:2:0:0:2, 4+1:0:0:0:0, 3+0:0:0:0:0, 5+6:2:0:0:3, 4+2:0:0:0:1, 4+2:0:0:0:0, 5+6:1:0:0:1, 5+1:0:0:0:0, 2+0:0:0:0:0, 5+1:0:0:0:0, 4+0:0:0:0:0, 4+0:0:0:0:0, 3+0:0:0:0:0,  , 4+0:0:0:0:0, 2+0:0:0:0:0, 2+0:0:0:0:0, 2+0:0:0:0:0,  , 3+0:0:0:0:0, 1+0:0:0:0:0, 2+1:0:0:0:0, 5+1:1:0:0:1, 5+2:0:0:0:0, 3+0:0:0:0:0, 3+1:0:0:0:1,  , 5+3:0:0:0:0, 4+2:0:0:0:0, 2+0:0:0:0:0, 4+1:0:0:0:0, 5+1:1:0:0:1, 6+1:1:0:0:1, 3+1:0:0:0:0, 4+0:0:0:0:0, 6+4:1:0:0:3, 7+4:0:0:0:2, 4+1:0:0:0:0, 4+3:1:0:0:1, 4+0:0:0:0:0, 4+0:0:0:0:0, 3+1:0:0:0:0, 1+0:0:0:0:0, 4+1:0:0:0:0, 3+0:0:0:0:0, 3+0:0:0:0:0, 1+0:0:0:0:0, 2+4:0:0:0:0, 3+0:0:0:0:0, 2+0:0:0:0:0, 2+0:0:0:0:0, 2+0:0:0:0:0, 1+0:0:0:0:0, 1+0:0:0:0:0, 5+5:2:0:0:2, 5+1:0:0:0:0, 4+1:1:0:0:0, 3+0:0:0:0:0, 1+0:0:0:0:0, 6+1:1:0:0:0, 3+0:0:0:0:0, 4+0:0:0:0:0, 4+0:0:0:0:0, 6+2:2:0:0:2, 5+2:2:0:0:2, 6+2:1:0:0:1, 4+2:0:0:0:0, 5+8:2:0:0:5, 4+3:0:0:0:2, 4+2:0:0:0:0, 2+0:0:0:0:0, 5+7:2:0:0:4, 4+3:0:0:0:2, 7+2:0:0:0:0, 2+0:0:0:0:0, 5+7:2:0:0:4, 4+4:0:0:0:3, 5+2:0:0:0:0, 3+0:0:0:0:0, 3+1:0:0:0:0, 2+0:0:0:0:0, 6+4:0:0:0:0, 8+6:0:1:0:6, 5+1:0:0:0:0, 2+0:0:0:0:0, 0+0:0:0:0:0, 0+0:0:0:0:0, 577+184:41:4:0:76
F# major (6#), 4+2:0:0:0:1, 2+2:0:0:0:0, 2+0:0:0:0:0, 1+0:0:0:0:0, 5+1:0:0:0:0, 3+0:0:0:0:0, 4+1:0:0:0:0, 1+0:0:0:0:0, 5+2:0:0:0:1, 3+0:0:0:0:0, 3+0:0:0:0:0, 2+3:0:0:0:0, 4+0:0:0:0:0, 2+3:0:0:0:0, 1+0:0:0:0:0, 5+3:2:0:0:2, 4+2:0:0:0:1, 2+2:0:0:0:0, 2+0:0:0:0:0, 1+0:0:0:0:0, 5+1:0:0:0:0, 3+0:0:0:0:0, 4+1:0:0:0:0, 1+0:0:0:0:0, 4+2:0:0:0:0, 5+6:2:0:0:2, 4+2:0:0:0:0, 7+5:0:0:0:0, 7+1:0:0:0:1, 7+2:0:0:0:2, 7+2:0:0:0:0, 5+0:0:0:0:0, 4+2:0:0:0:1, 3+2:0:0:0:0, 3+2:0:0:0:0,  , 5+7:0:0:0:0, 2+1:0:0:0:0, 5+3:0:0:0:0, 4+2:0:0:0:1, 6+3:0:0:0:1, 3+0:0:0:0:0, 4+1:0:0:0:0, 4+1:0:0:0:0, 7+2:0:0:0:0, 2+2:2:1:0:2, 5+1:0:0:0:1, 7+4:2:0:0:2, 4+1:0:0:0:1, 1+0:0:0:0:0, 1+1:0:0:0:0, 3+1:0:0:0:0, 7+3:1:0:0:1, 4+2:0:0:0:0, 5+2:0:0:0:0, 3+1:0:0:0:1, 7+2:0:1:0:1, 6+7:1:0:0:0, 6+1:0:0:0:0, 7+5:1:0:0:0, 7+1:0:0:0:1, 7+2:0:0:0:2, 6+1:0:0:0:0, 7+3:1:0:0:0, 3+1:0:0:0:1, 1+0:0:0:0:0, 2+0:0:0:0:0, 1+1:0:0:0:0, 4+3:0:0:0:0, 3+0:0:0:0:0, 3+1:0:0:0:0,  , 4+3:0:0:0:0, 2+0:0:0:0:0, 3+1:1:1:0:1, 1+1:0:0:0:0, 5+1:0:0:0:0, 1+2:0:2:0:2, 3+1:0:0:0:0, 5+6:0:0:0:3, 6+6:0:0:0:2, 1+0:0:0:0:0, 5+4:0:0:0:3, 1+0:0:0:0:0, 6+3:0:0:0:1, 3+2:0:0:0:0,  , 5+1:0:0:0:1, 5+0:0:0:0:0, 6+10:2:0:0:0, 5+0:0:0:0:0, 6+4:0:0:0:0, 7+1:0:0:0:1, 8+5:0:0:0:3, 7+7:0:0:0:0, 9+5:1:0:0:1, 5+2:0:0:0:1, 2+0:0:0:0:0, 5+2:1:0:0:1, 5+1:0:0:0:0, 6+6:0:0:0:0, 4+0:0:0:0:0,  , 4+3:0:0:0:1, 4+2:0:0:0:1, 3+1:0:0:0:0, 3+2:0:0:0:0,  , 5+2:0:0:0:0, 3+2:0:0:0:2, 3+3:0:0:0:0, 6+4:2:0:0:2, 5+1:0:0:0:0, 3+2:0:0:0:0, 2+1:0:0:0:0,  , 7+4:0:0:0:0, 3+2:0:0:0:0, 2+0:0:0:0:0, 5+2:0:0:0:1, 5+3:1:0:0:1, 6+9:4:0:0:4, 4+2:0:0:0:0, 7+7:0:0:0:0, 8+2:0:0:0:2, 10+7:0:0:0:3, 7+7:0:0:0:0, 7+3:1:0:0:0, 4+2:0:0:0:1, 3+1:0:0:0:0, 2+4:0:0:0:3, 1+0:0:0:0:0, 5+5:0:0:0:0, 4+0:0:0:0:0, 4+0:0:0:0:0, 1+0:0:0:0:0, 5+2:0:0:0:0, 4+1:0:0:0:0, 3+1:0:0:0:0, 3+1:0:0:0:0, 4+0:0:0:0:0, 2+1:1:1:0:1, 4+1:0:0:0:0, 6+10:2:0:0:0, 5+2:0:0:0:1, 3+1:0:0:0:0, 2+1:0:0:0:0, 1+0:0:0:0:0, 6+2:1:0:0:1, 4+4:0:0:0:0, 3+0:0:0:0:0, 5+5:0:0:0:0, 6+4:2:0:0:2, 6+0:0:0:0:0, 6+2:1:0:0:1, 8+4:0:0:0:1, 7+1:0:0:0:1, 8+2:1:0:0:2, 7+1:0:0:0:0, 4+0:0:0:0:0, 7+1:0:0:0:1, 8+2:1:0:0:2, 9+7:0:0:0:1, 4+0:0:0:0:0, 7+1:0:0:0:1, 7+4:0:0:0:3, 6+5:0:0:0:0, 4+2:0:0:0:0, 5+1:0:0:0:1, 4+1:0:0:0:1, 7+4:0:0:0:2, 7+4:0:1:0:1, 8+7:0:0:0:1, 4+0:0:0:0:0, 0+0:0:0:0:0, 0+0:0:0:0:0, 743+357:34:7:0:91
Eb minor (6b), 4+0:0:0:0:0, 3+0:0:0:0:0, 3+0:0:0:0:0, 1+0:0:0:0:0, 4+1:0:0:0:0, 2+2:0:0:0:0, 4+0:0:0:0:0, 1+0:0:0:0:0, 3+0:0:0:0:0, 3+0:0:0:0:0, 2+0:0:0:0:0, 1+0:0:0:0:0, 2+0:0:0:0:0, 1+0:0:0:0:0, 1+0:0:0:0:0, 5+1:1:0:0:1, 4+0:0:0:0:0, 3+0:0:0:0:0, 3+0:0:0:0:0, 1+0:0:0:0:0, 4+1:0:0:0:0, 2+2:0:0:0:0, 4+0:0:0:0:0, 1+0:0:0:0:0, 3+1:0:0:0:0, 5+1:1:0:0:1, 3+1:0:0:0:0, 4+0:0:0:0:0, 5+3:1:0:0:2, 4+3:0:0:0:1, 4+1:0:0:0:0, 3+0:0:0:0:0, 4+3:0:0:0:0, 3+1:0:1:0:1, 3+0:0:0:0:0,  , 4+0:0:0:0:0, 3+1:0:0:0:1, 6+1:0:0:0:0, 4+1:0:0:0:0, 5+2:0:0:0:1, 2+0:0:0:0:0, 2+1:0:0:0:0, 3+3:0:0:0:0, 4+0:0:0:0:0, 2+0:0:0:0:0, 3+1:0:0:0:0, 7+4:3:0:0:3, 5+1:0:0:0:1, 1+0:0:0:0:0, 1+0:0:0:0:0, 3+0:0:0:0:0, 5+1:0:0:0:0, 5+4:0:0:0:0, 4+1:0:0:0:0, 3+1:0:0:0:0, 5+2:1:1:0:2, 5+1:1:0:0:1, 5+1:1:0:0:1, 5+1:0:0:0:0, 5+4:1:0:0:2, 4+3:0:0:0:1, 3+1:0:0:0:0, 4+3:1:0:0:1, 3+0:0:0:0:0, 2+0:0:0:0:0, 2+0:0:0:0:0, 1+0:0:0:0:0, 3+1:0:0:0:0, 2+0:0:0:0:0, 3+0:0:0:0:0,  , 2+0:0:0:0:0, 1+0:0:0:0:0, 2+0:0:0:0:0, 1+0:0:0:0:0, 3+0:0:0:0:0, 1+1:0:0:0:0, 2+0:0:0:0:0, 5+1:1:0:0:1, 6+3:1:1:0:2, 1+0:0:0:0:0, 4+1:0:0:0:0, 1+0:0:0:0:0, 4+3:0:0:0:2, 2+1:0:0:0:0,  , 4+2:0:0:0:0, 4+2:0:0:0:0, 5+2:2:0:0:2, 4+1:0:0:0:0, 3+0:0:0:0:0, 5+6:2:0:0:3, 4+2:0:0:0:1, 4+2:0:0:0:0, 5+6:1:0:0:1, 5+1:0:0:0:0, 2+0:0:0:0:0, 5+1:0:0:0:0, 4+0:0:0:0:0, 4+1:0:0:0:0, 3+2:0:0:0:0,  , 4+1:0:0:0:0, 2+0:0:0:0:0, 2+0:0:0:0:0, 2+0:0:0:0:0,  , 3+0:0:0:0:0, 1+0:0:0:0:0, 2+1:0:0:0:0, 5+1:1:0:0:1, 5+2:0:0:0:0, 3+0:0:0:0:0, 3+1:0:0:0:1,  , 5+3:0:0:0:0, 4+2:0:0:0:0, 2+0:0:0:0:0, 4+1:0:0:0:0, 5+1:1:0:0:1, 6+1:1:0:0:1, 3+1:0:0:0:0, 4+0:0:0:0:0, 6+4:1:0:0:3, 7+4:0:0:0:2, 4+1:0:0:0:0, 4+3:1:0:0:1, 4+0:0:0:0:0, 4+0:0:0:0:0, 3+1:0:0:0:0, 1+0:0:0:0:0, 4+1:0:0:0:0, 3+0:0:0:0:0, 3+0:0:0:0:0, 1+0:0:0:0:0, 2+4:0:0:0:0, 3+0:0:0:0:0, 2+0:0:0:0:0, 2+0:0:0:0:0, 2+0:0:0:0:0, 1+0:0:0:0:0, 1+0:0:0:0:0, 5+5:2:0:0:2, 5+1:0:0:0:0, 4+1:1:0:0:0, 3+0:0:0:0:0, 1+0:0:0:0:0, 6+2:2:0:0:2, 3+0:0:0:0:0, 4+0:0:0:0:0, 4+1:0:0:0:0, 6+2:2:0:0:2, 5+2:2:0:0:2, 6+2:1:0:0:1, 4+2:0:0:0:0, 5+8:2:0:0:5, 4+3:0:0:0:2, 4+2:0:0:0:0, 2+0:0:0:0:0, 5+7:2:0:0:4, 4+3:0:0:0:2, 7+2:0:0:0:0, 2+0:0:0:0:0, 5+7:2:0:0:4, 4+4:0:0:0:3, 5+2:0:0:0:0, 3+0:0:0:0:0, 3+1:0:0:0:0, 2+0:0:0:0:0, 6+4:0:0:0:0, 8+6:0:1:0:6, 5+1:0:0:0:0, 2+0:0:0:0:0, 0+0:0:0:0:0, 0+0:0:0:0:0, 577+199:39:4:0:77
D# minor (6#), 4+2:0:0:0:1, 2+2:0:0:0:0, 2+0:0:0:0:0, 1+0:0:0:0:0, 5+1:0:0:0:0, 3+0:0:0:0:0, 4+1:0:0:0:0, 1+0:0:0:0:0, 5+2:0:0:0:1, 3+0:0:0:0:0, 3+0:0:0:0:0, 2+3:0:0:0:0, 4+0:0:0:0:0, 2+3:0:0:0:0, 1+0:0:0:0:0, 5+3:2:0:0:2, 4+2:0:0:0:1, 2+2:0:0:0:0, 2+0:0:0:0:0, 1+0:0:0:0:0, 5+1:0:0:0:0, 3+0:0:0:0:0, 4+1:0:0:0:0, 1+0:0:0:0:0, 4+2:0:0:0:0, 5+6:2:0:0:2, 4+2:0:0:0:0, 7+5:0:0:0:0, 7+1:0:0:0:1, 7+2:0:0:0:2, 7+2:0:0:0:0, 5+0:0:0:0:0, 4+2:0:0:0:1, 3+2:0:0:0:0, 3+2:0:0:0:0,  , 5+7:0:0:0:0, 2+1:0:0:0:0, 5+3:0:0:0:0, 4+2:0:0:0:1, 6+3:0:0:0:1, 3+0:0:0:0:0, 4+1:0:0:0:0, 4+1:0:0:0:0, 7+2:0:0:0:0, 2+2:2:1:0:2, 5+1:0:0:0:1, 7+4:2:0:0:2, 4+1:0:0:0:1, 1+0:0:0:0:0, 1+1:0:0:0:0, 3+1:0:0:0:0, 7+3:1:0:0:1, 4+2:0:0:0:0, 5+2:0:0:0:0, 3+1:0:0:0:1, 7+2:0:1:0:1, 6+7:1:0:0:0, 6+1:0:0:0:0, 7+5:1:0:0:0, 7+1:0:0:0:1, 7+2:0:0:0:2, 6+1:0:0:0:0, 7+3:1:0:0:0, 3+2:0:0:0:0, 1+1:0:0:0:0, 2+1:0:0:0:0, 2+0:0:0:0:0, 4+2:0:0:0:0, 3+0:0:0:0:0, 3+1:0:0:0:0,  , 4+1:0:0:0:1, 2+0:0:0:0:0, 3+1:1:1:0:1, 1+1:0:0:0:0, 5+1:0:0:0:0, 1+2:0:2:0:2, 3+1:0:0:0:0, 5+6:0:0:0:3, 6+6:0:0:0:2, 1+1:0:0:0:0, 5+1:0:0:0:0, 1+0:0:0:0:0, 6+3:0:0:0:1, 3+2:0:0:0:0,  , 5+1:0:0:0:1, 5+0:0:0:0:0, 6+10:2:0:0:0, 5+0:0:0:0:0, 6+4:0:0:0:0, 7+1:0:0:0:1, 8+5:0:0:0:3, 7+7:0:0:0:0, 9+5:1:0:0:1, 5+4:0:0:0:0, 2+1:0:0:0:0, 5+2:0:0:0:1, 5+1:0:0:0:0, 6+6:0:0:0:0, 4+0:0:0:0:0,  , 4+3:0:0:0:1, 4+2:0:0:0:1, 3+1:0:0:0:0, 3+2:0:0:0:0,  , 5+2:0:0:0:0, 3+2:0:0:0:2, 3+3:0:0:0:0, 6+4:2:0:0:2, 5+1:0:0:0:0, 3+2:0:0:0:0, 2+1:0:0:0:0,  , 7+4:0:0:0:1, 4+2:2:0:0:0, 2+1:0:0:0:0, 5+2:0:0:0:1, 5+3:1:0:0:1, 6+9:4:0:0:4, 4+2:0:0:0:0, 7+7:0:0:0:0, 8+2:0:0:0:2, 10+7:0:0:0:3, 7+7:0:0:0:0, 7+3:1:0:0:0, 4+4:0:0:0:0, 3+1:0:0:0:0, 2+4:0:0:0:3, 1+0:0:0:0:0, 5+5:0:0:0:0, 4+0:0:0:0:0, 4+0:0:0:0:0, 1+0:0:0:0:0, 5+2:0:0:0:0, 4+1:0:0:0:0, 3+1:0:0:0:0, 3+1:0:0:0:0, 4+0:0:0:0:0, 2+1:1:1:0:1, 4+1:0:0:0:0, 6+10:2:0:0:0, 5+3:0:0:0:0, 3+1:0:0:0:0, 2+1:0:0:0:0, 1+0:0:0:0:0, 6+2:1:0:0:1, 4+4:0:0:0:0, 3+0:0:0:0:0, 5+5:0:0:0:0, 6+4:2:0:0:2, 6+0:0:0:0:0, 6+2:1:0:0:1, 8+4:0:0:0:1, 7+1:0:0:0:1, 8+2:1:0:0:2, 7+1:0:0:0:0, 4+0:0:0:0:0, 7+1:0:0:0:1, 8+2:1:0:0:2, 9+7:0:0:0:1, 4+0:0:0:0:0, 7+1:0:0:0:1, 7+4:0:0:0:3, 6+5:0:0:0:0, 4+2:0:0:0:0, 5+1:0:0:0:1, 4+1:0:0:0:1, 7+4:0:0:0:2, 7+4:0:1:0:1, 8+7:0:0:0:1, 4+0:0:0:0:0, 0+0:0:0:0:0, 0+0:0:0:0:0, 745+361:35:7:0:86
Cb major (7b), 5+3:0:0:0:0, 3+0:0:0:0:0, 3+0:0:0:0:0, 1+0:0:0:0:0, 4+0:0:0:0:0, 2+0:0:0:0:0, 4+0:0:0:0:0, 1+0:0:0:0:0, 4+0:0:0:0:0, 3+0:0:0:0:0, 3+0:0:0:0:0, 2+0:0:0:0:0, 3+0:0:0:0:0, 2+0:0:0:0:0, 1+0:0:0:0:0, 5+1:1:0:0:1, 5+3:0:0:0:0, 3+0:0:0:0:0, 3+0:0:0:0:0, 1+0:0:0:0:0, 4+0:0:0:0:0, 2+0:0:0:0:0, 4+0:0:0:0:0, 1+0:0:0:0:0, 3+0:0:0:0:0, 5+1:1:0:0:1, 3+0:0:0:0:0, 5+0:0:0:0:0, 6+3:1:0:0:2, 5+3:0:0:0:1, 5+0:0:0:0:0, 4+0:0:0:0:0, 5+3:0:0:0:0, 3+1:0:1:0:1, 3+0:0:0:0:0,  , 4+0:0:0:0:0, 3+1:0:0:0:1, 4+2:0:1:0:1, 4+1:0:0:0:0, 6+1:0:0:0:0, 2+0:0:0:0:0, 3+1:0:0:0:0, 4+3:0:0:0:0, 5+0:0:0:0:0, 3+0:0:0:0:0, 3+1:0:0:0:0, 7+4:3:0:0:3, 6+2:0:1:0:1, 1+0:0:0:0:0, 1+1:0:0:0:0, 3+0:0:0:0:0, 5+1:0:0:0:0, 4+4:0:1:0:1, 4+1:0:0:0:0, 3+1:0:0:0:0, 5+2:1:1:0:2, 5+1:1:0:0:1, 5+1:1:0:0:1, 6+1:0:0:0:0, 6+4:1:0:0:2, 5+3:0:0:0:1, 4+0:0:0:0:0, 5+1:1:0:0:1, 4+1:0:0:0:0, 2+0:0:0:0:0, 2+0:0:0:0:0, 2+0:0:0:0:0, 3+0:0:0:0:0, 2+0:0:0:0:0, 3+0:0:0:0:0,  , 3+0:0:0:0:0, 1+0:0:0:0:0, 3+0:0:0:0:0, 1+0:0:0:0:0, 4+0:0:0:0:0, 2+1:0:0:0:0, 2+0:0:0:0:0, 5+1:1:0:0:1, 7+3:1:1:0:2, 1+0:0:0:0:0, 5+0:0:0:0:0, 1+0:0:0:0:0, 4+1:0:0:0:0, 3+0:0:0:0:0,  , 4+1:0:0:0:0, 4+0:0:0:0:0, 5+2:2:0:0:2, 4+0:0:0:0:0, 4+0:0:0:0:0, 6+6:2:0:0:3, 5+2:0:0:0:1, 5+0:0:0:0:0, 6+2:1:0:0:1, 6+3:0:0:0:0, 2+0:0:0:0:0, 5+1:0:0:0:0, 5+0:0:0:0:0, 5+0:0:0:0:0, 4+0:0:0:0:0,  , 4+0:0:0:0:0, 3+0:0:0:0:0, 3+0:0:0:0:0, 3+0:0:0:0:0,  , 4+0:0:0:0:0, 2+0:0:0:0:0, 3+0:0:0:0:0, 5+1:1:0:0:1, 6+2:0:0:0:0, 3+0:0:0:0:0, 3+1:0:0:0:0,  , 6+1:0:0:0:0, 4+2:0:0:0:0, 2+0:0:0:0:0, 4+1:0:0:0:0, 5+1:1:0:0:1, 6+1:1:0:0:1, 3+0:0:0:0:0, 5+0:0:0:0:0, 7+4:1:0:0:3, 8+4:0:0:0:2, 5+0:0:0:0:0, 5+1:1:0:0:1, 5+1:0:0:0:0, 4+0:0:0:0:0, 3+1:0:0:0:0, 1+0:0:0:0:0, 4+0:0:0:0:0, 3+0:0:0:0:0, 3+0:0:0:0:0, 1+0:0:0:0:0, 3+0:0:0:0:0, 3+0:0:0:0:0, 2+0:0:0:0:0, 2+0:0:0:0:0, 3+0:0:0:0:0, 2+0:0:0:0:0, 2+0:0:0:0:0, 5+2:2:0:0:2, 6+1:0:0:0:0, 4+1:1:0:0:0, 3+0:0:0:0:0, 1+0:0:0:0:0, 6+2:2:0:0:2, 3+0:0:0:0:0, 3+2:0:0:0:0, 4+0:0:0:0:0, 6+2:2:0:0:2, 5+2:2:0:0:2, 6+2:1:0:0:1, 5+2:0:0:0:0, 6+8:2:0:0:5, 5+3:0:0:0:2, 5+0:0:0:0:0, 3+0:0:0:0:0, 6+7:2:0:0:4, 5+3:0:0:0:2, 8+2:0:0:0:0, 3+0:0:0:0:0, 6+7:2:0:0:4, 5+4:0:0:0:3, 5+0:0:0:0:0, 4+0:0:0:0:0, 4+1:0:0:0:0, 3+0:0:0:0:0, 6+4:0:0:0:0, 9+6:0:1:0:6, 6+1:0:0:0:0, 3+0:0:0:0:0, 0+0:0:0:0:0, 0+0:0:0:0:0, 651+162:39:7:0:75
C# major (7#), 5+2:0:0:0:1, 3+2:0:0:0:0, 3+0:0:0:0:0, 1+0:0:0:0:0, 5+6:0:0:0:0, 2+1:0:0:0:1, 4+1:0:0:0:0, 1+0:0:0:0:0, 5+2:0:0:0:1, 3+2:0:0:0:0, 3+0:0:0:0:0, 2+3:0:0:0:0, 4+0:0:0:0:0, 2+3:0:0:0:0, 1+2:0:0:0:0, 5+3:2:0:0:2, 5+2:0:0:0:1, 3+2:0:0:0:0, 3+0:0:0:0:0, 1+0:0:0:0:0, 5+6:0:0:0:0, 2+1:0:0:0:1, 4+1:0:0:0:0, 1+0:0:0:0:0, 4+2:0:0:0:0, 5+6:2:0:0:2, 4+0:0:0:0:0, 7+1:0:0:0:0, 7+1:0:0:0:1, 8+2:0:0:0:2, 7+2:0:0:0:0, 5+0:0:0:0:0, 5+1:0:0:0:0, 4+2:0:0:0:0, 3+0:0:0:0:0,  , 5+7:0:0:0:0, 1+1:0:1:0:1, 5+3:0:0:0:0, 4+2:0:0:0:1, 7+3:0:0:0:1, 3+0:0:0:0:0, 2+2:0:1:0:1, 3+9:6:8:0:9, 7+3:0:0:0:0, 2+2:2:1:0:2, 3+2:2:1:0:1, 7+4:2:0:0:2, 5+4:0:0:0:0, 1+0:0:0:0:0, 2+1:0:0:0:0, 3+1:0:0:0:0, 7+3:1:0:0:1, 4+2:0:0:0:0, 3+3:0:1:0:1, 3+1:0:0:0:1, 7+2:0:1:0:1, 6+0:0:0:0:0, 6+1:0:0:0:0, 7+1:0:0:0:0, 7+1:0:0:0:1, 8+2:0:0:0:2, 6+1:0:0:0:0, 7+1:0:0:0:0, 4+2:0:0:0:0, 2+0:0:0:0:0, 2+0:0:0:0:0, 2+0:0:0:0:0, 4+2:0:0:0:0, 3+0:0:0:0:0, 3+0:0:0:0:0,  , 4+1:0:0:0:0, 2+0:0:0:0:0, 3+1:1:1:0:1, 1+0:0:0:0:0, 5+1:0:0:0:0, 3+1:0:0:0:0, 3+0:0:0:0:0, 6+3:2:0:0:2, 7+6:0:0:0:2, 1+0:0:0:0:0, 5+1:0:0:0:0, 1+0:0:0:0:0, 6+3:0:0:0:1, 3+2:0:0:0:0,  , 5+1:0:0:0:1, 5+0:0:0:0:0, 6+0:0:0:0:0, 5+0:0:0:0:0, 6+1:0:0:0:0, 7+1:0:0:0:1, 8+1:0:0:0:1, 7+1:0:0:0:0, 8+3:1:1:0:1, 6+4:0:0:0:0, 2+1:0:0:0:0, 5+3:0:1:0:1, 5+1:0:0:0:0, 6+6:0:0:0:0, 4+0:0:0:0:0,  , 4+1:1:1:0:1, 4+2:0:0:0:0, 2+1:1:1:0:1, 2+2:2:1:0:2,  , 5+1:0:0:0:0, 3+2:0:0:0:0, 3+2:2:2:0:2, 6+4:2:0:0:2, 6+1:0:0:0:0, 3+2:0:0:0:0, 3+0:0:0:0:0,  , 7+4:0:0:0:0, 3+2:0:0:0:0, 2+0:0:0:0:0, 5+4:0:0:0:0, 5+3:1:0:0:1, 6+9:4:0:0:4, 4+0:0:0:0:0, 7+1:0:0:0:0, 8+2:0:0:0:2, 11+3:0:0:0:1, 7+1:0:0:0:0, 7+1:0:0:0:0, 5+4:0:0:0:0, 4+1:0:0:0:0, 3+4:0:0:0:3, 1+0:0:0:0:0, 5+5:0:0:0:0, 4+0:0:0:0:0, 4+0:0:0:0:0, 1+0:0:0:0:0, 5+1:0:0:0:0, 4+0:0:0:0:0, 3+0:0:0:0:0, 3+0:0:0:0:0, 4+2:0:0:0:0, 2+1:1:1:0:1, 4+1:0:0:0:0, 6+0:0:0:0:0, 6+3:0:0:0:0, 4+1:0:0:0:0, 3+0:0:0:0:0, 1+0:0:0:0:0, 6+2:1:0:0:1, 4+4:0:0:0:0, 3+1:0:0:0:0, 5+5:0:0:0:0, 6+4:2:0:0:2, 6+0:0:0:0:0, 6+2:1:0:0:1, 8+4:0:0:0:1, 7+1:0:0:0:1, 9+2:0:0:0:1, 7+1:0:0:0:0, 4+2:0:0:0:0, 7+1:0:0:0:1, 9+6:0:0:0:1, 9+7:0:0:0:1, 4+0:0:0:0:0, 7+1:0:0:0:1, 8+4:0:0:0:3, 6+2:0:0:0:0, 4+0:0:0:0:0, 5+4:0:0:0:0, 3+1:1:1:0:1, 7+4:0:0:0:2, 8+4:0:1:0:1, 8+7:0:0:0:1, 4+0:0:0:0:0, 0+0:0:0:0:0, 0+0:0:0:0:0, 763+304:40:25:0:87
Ab minor (7b), 5+3:0:0:0:0, 3+0:0:0:0:0, 3+0:0:0:0:0, 1+0:0:0:0:0, 4+0:0:0:0:0, 2+0:0:0:0:0, 4+0:0:0:0:0, 1+0:0:0:0:0, 4+3:0:0:0:0, 3+0:0:0:0:0, 3+0:0:0:0:0, 2+0:0:0:0:0, 3+1:0:0:0:0, 2+0:0:0:0:0, 1+0:0:0:0:0, 5+1:1:0:0:1, 5+3:0:0:0:0, 3+0:0:0:0:0, 3+0:0:0:0:0, 1+0:0:0:0:0, 4+0:0:0:0:0, 2+0:0:0:0:0, 4+0:0:0:0:0, 1+0:0:0:0:0, 3+0:0:0:0:0, 5+1:1:0:0:1, 3+0:0:0:0:0, 5+0:0:0:0:0, 6+3:1:0:0:2, 5+3:0:0:0:1, 5+1:0:0:0:0, 4+0:0:0:0:0, 5+3:0:0:0:0, 3+1:0:1:0:1, 3+0:0:0:0:0,  , 4+0:0:0:0:0, 3+1:0:0:0:1, 4+2:0:1:0:1, 4+1:0:0:0:0, 6+1:0:0:0:0, 2+0:0:0:0:0, 3+1:0:0:0:0, 4+3:0:0:0:0, 5+2:0:0:0:0, 3+0:0:0:0:0, 3+1:0:0:0:0, 7+4:3:0:0:3, 6+2:0:1:0:1, 1+0:0:0:0:0, 1+1:0:0:0:0, 3+0:0:0:0:0, 5+1:0:0:0:0, 4+4:0:1:0:1, 4+1:0:0:0:0, 3+1:0:0:0:0, 5+2:1:1:0:2, 5+1:1:0:0:1, 5+1:1:0:0:1, 6+1:0:0:0:0, 6+4:1:0:0:2, 5+3:0:0:0:1, 4+1:0:0:0:0, 5+1:1:0:0:1, 4+1:0:0:0:0, 2+0:0:0:0:0, 2+0:0:0:0:0, 2+0:0:0:0:0, 3+0:0:0:0:0, 2+0:0:0:0:0, 3+0:0:0:0:0,  , 3+2:0:0:0:0, 1+0:0:0:0:0, 3+0:0:0:0:0, 1+0:0:0:0:0, 4+1:0:0:0:0, 2+1:0:0:0:0, 2+0:0:0:0:0, 5+1:1:0:0:1, 7+3:1:1:0:2, 1+0:0:0:0:0, 5+0:0:0:0:0, 1+0:0:0:0:0, 4+1:0:0:0:0, 3+0:0:0:0:0,  , 4+1:0:0:0:0, 4+0:0:0:0:0, 5+2:2:0:0:2, 4+0:0:0:0:0, 4+0:0:0:0:0, 6+6:2:0:0:3, 5+2:0:0:0:1, 5+2:0:0:0:0, 6+2:1:0:0:1, 6+3:0:0:0:0, 2+0:0:0:0:0, 5+1:0:0:0:0, 5+0:0:0:0:0, 5+0:0:0:0:0, 4+0:0:0:0:0,  , 4+0:0:0:0:0, 3+0:0:0:0:0, 3+0:0:0:0:0, 3+0:0:0:0:0,  , 4+0:0:0:0:0, 2+0:0:0:0:0, 3+1:0:0:0:0, 5+1:1:0:0:1, 6+2:0:0:0:0, 3+1:0:0:0:0, 3+1:0:0:0:1,  , 6+1:0:0:0:0, 4+2:0:0:0:0, 2+0:0:0:0:0, 4+1:0:0:0:0, 5+1:1:0:0:1, 6+1:1:0:0:1, 3+0:0:0:0:0, 5+0:0:0:0:0, 7+4:1:0:0:3, 8+4:0:0:0:2, 5+1:0:0:0:0, 5+1:1:0:0:1, 5+1:0:0:0:0, 4+0:0:0:0:0, 3+1:0:0:0:0, 1+0:0:0:0:0, 4+0:0:0:0:0, 3+0:0:0:0:0, 3+0:0:0:0:0, 1+0:0:0:0:0, 3+4:0:0:0:0, 3+0:0:0:0:0, 2+0:0:0:0:0, 2+0:0:0:0:0, 3+1:0:0:0:0, 2+0:0:0:0:0, 2+0:0:0:0:0, 5+5:2:0:0:2, 6+1:0:0:0:0, 4+1:1:0:0:0, 3+0:0:0:0:0, 1+0:0:0:0:0, 6+2:2:0:0:2, 3+0:0:0:0:0, 3+2:0:0:0:0, 4+0:0:0:0:0, 6+2:2:0:0:2, 5+2:2:0:0:2, 6+2:1:0:0:1, 5+2:0:0:0:0, 6+8:2:0:0:5, 5+3:0:0:0:2, 5+2:0:0:0:0, 3+0:0:0:0:0, 6+7:2:0:0:4, 5+3:0:0:0:2, 8+2:0:0:0:0, 3+0:0:0:0:0, 6+7:2:0:0:4, 5+4:0:0:0:3, 5+0:0:0:0:0, 4+0:0:0:0:0, 4+1:0:0:0:0, 3+0:0:0:0:0, 6+4:0:0:0:0, 9+6:0:1:0:6, 6+3:0:0:0:0, 3+1:0:0:0:0, 0+0:0:0:0:0, 0+0:0:0:0:0, 651+191:39:7:0:76
A# minor (7#), 5+2:0:0:0:1, 3+2:0:0:0:0, 3+0:0:0:0:0, 1+0:0:0:0:0, 5+6:0:0:0:0, 2+1:0:0:0:1, 4+1:0:0:0:0, 1+0:0:0:0:0, 5+2:0:0:0:1, 3+2:0:0:0:0, 3+0:0:0:0:0, 2+3:0:0:0:0, 4+0:0:0:0:0, 2+3:0:0:0:0, 1+2:0:0:0:0, 5+3:2:0:0:2, 5+2:0:0:0:0, 3+2:0:0:0:0, 3+1:0:0:0:0, 1+0:0:0:0:0, 5+6:0:0:0:0, 2+1:0:0:0:1, 4+1:0:0:0:0, 1+0:0:0:0:0, 4+2:0:0:0:0, 5+6:2:0:0:2, 4+0:0:0:0:0, 7+1:0:0:0:0, 7+1:0:0:0:1, 8+2:0:0:0:2, 7+2:0:0:0:0, 5+0:0:0:0:0, 5+1:0:0:0:0, 4+2:0:0:0:0, 3+0:0:0:0:0,  , 5+7:0:0:0:0, 1+1:0:1:0:1, 5+3:0:0:0:0, 4+2:0:0:0:1, 7+3:0:0:0:1, 3+0:0:0:0:0, 2+2:0:1:0:1, 3+9:6:8:0:9, 7+3:0:0:0:0, 2+2:2:1:0:2, 3+2:2:1:0:1, 7+4:2:0:0:2, 5+4:0:0:0:0, 1+0:0:0:0:0, 2+1:0:0:0:0, 3+1:0:0:0:0, 7+3:1:0:0:1, 4+2:0:0:0:0, 3+3:0:1:0:1, 3+1:0:0:0:1, 7+2:0:1:0:1, 6+0:0:0:0:0, 6+1:0:0:0:0, 7+1:0:0:0:0, 7+1:0:0:0:1, 8+2:0:0:0:2, 6+1:0:0:0:0, 7+1:0:0:0:0, 4+2:0:0:0:0, 2+0:0:0:0:0, 2+0:0:0:0:0, 2+0:0:0:0:0, 4+2:0:0:0:0, 3+0:0:0:0:0, 3+0:0:0:0:0,  , 4+1:0:0:0:0, 2+0:0:0:0:0, 3+1:1:1:0:1, 1+0:0:0:0:0, 5+1:0:0:0:0, 3+1:0:0:0:0, 3+0:0:0:0:0, 6+3:2:0:0:2, 7+6:0:0:0:2, 1+0:0:0:0:0, 5+1:0:0:0:0, 1+0:0:0:0:0, 6+3:0:0:0:1, 3+2:0:0:0:0,  , 5+1:0:0:0:1, 5+0:0:0:0:0, 6+0:0:0:0:0, 5+0:0:0:0:0, 6+1:0:0:0:0, 7+1:0:0:0:1, 8+1:0:0:0:1, 7+1:0:0:0:0, 8+3:1:1:0:1, 6+4:0:0:0:0, 2+1:0:0:0:0, 5+3:0:1:0:1, 5+1:0:0:0:0, 6+6:0:0:0:0, 4+0:0:0:0:0,  , 4+1:1:1:0:1, 4+2:0:0:0:0, 2+1:1:1:0:1, 2+2:2:1:0:2,  , 5+1:0:0:0:0, 3+2:0:0:0:0, 3+2:2:2:0:2, 6+4:2:0:0:2, 6+1:0:0:0:0, 3+2:0:0:0:0, 3+0:0:0:0:0,  , 7+4:0:0:0:0, 3+2:0:0:0:0, 2+0:0:0:0:0, 5+4:0:0:0:0, 5+3:1:0:0:1, 6+9:4:0:0:4, 4+0:0:0:0:0, 7+1:0:0:0:0, 8+2:0:0:0:2, 11+3:0:0:0:1, 7+1:0:0:0:0, 7+1:0:0:0:0, 5+4:0:0:0:0, 4+1:0:0:0:0, 3+3:0:0:0:0, 1+1:0:0:0:0, 5+5:0:0:0:0, 4+0:0:0:0:0, 4+0:0:0:0:0, 1+0:0:0:0:0, 5+1:0:0:0:0, 4+0:0:0:0:0, 3+0:0:0:0:0, 3+0:0:0:0:0, 4+2:0:0:0:0, 2+1:1:1:0:1, 4+1:0:0:0:0, 6+0:0:0:0:0, 6+3:0:0:0:0, 4+1:0:0:0:0, 3+0:0:0:0:0, 1+0:0:0:0:0, 6+2:1:0:0:1, 4+4:0:0:0:0, 3+1:0:0:0:0, 5+5:0:0:0:0, 6+4:2:0:0:2, 6+0:0:0:0:0, 6+2:1:0:0:1, 8+4:0:0:0:1, 7+1:0:0:0:1, 9+2:0:0:0:1, 7+1:0:0:0:0, 4+2:0:0:0:0, 7+1:0:0:0:1, 9+6:0:0:0:1, 9+7:0:0:0:1, 4+0:0:0:0:0, 7+1:0:0:0:1, 8+4:0:0:0:3, 6+2:0:0:0:0, 4+0:0:0:0:0, 5+4:0:0:0:0, 3+1:1:1:0:1, 7+4:0:0:0:2, 8+4:0:1:0:1, 8+7:0:0:0:1, 4+0:0:0:0:0, 0+0:0:0:0:0, 0+0:0:0:0:0, 763+305:40:25:0:83
