 , 0, 1, 2, 3, 4, 5, 6, 7, 8, 9, 10, 11, 12, 13, 14, 15, 16, 17, 18, 19, 20, 21, 22, 23, 24, 25, 26, 27, 28, 29, 30, 31, 32, 33, 34, 35, 36, 37, 38, 39, 40, 41, 42, 43, 44, 45, 46, 47, 48, rowcost
C major (0), 0=0+0:0:0:0:0, 4=2+2:0:0:0:0, 0=0+0:0:0:0:0, 4=3+1:0:0:0:0, 3=3+0:0:0:0:0, 6=4+2:0:0:0:1, 0=0+0:0:0:0:0, 6=4+2:0:0:0:1, 1=1+0:0:0:0:0, 3=2+1:0:0:0:0, 0=0+0:0:0:0:0, 1=1+0:0:0:0:0, 3=2+1:0:0:0:0, 4=2+2:0:0:0:0, 3=1+2:0:0:0:0, 0=0+0:0:0:0:0, 4=2+2:0:1:0:1, 3=3+0:0:0:0:0, 2=1+1:0:0:0:0, 4=3+1:0:0:0:1, 1=1+0:0:0:0:0, 10=6+4:3:0:0:3, 4=3+1:0:0:0:0, 0=0+0:0:0:0:0, 4=2+2:2:0:0:2, 3=2+1:0:0:0:0, 3=2+1:0:0:0:0, 1=1+0:0:0:0:0, 2=2+0:0:0:0:0, 2=2+0:0:0:0:0, 3=1+2:0:0:0:0, 8=7+1:0:0:0:0, 7=4+3:1:0:0:3, 9=6+3:0:0:0:0, 1=1+0:0:0:0:0, 0=0+0:0:0:0:0, 0=0+0:0:0:0:0, 3=2+1:0:0:0:0, 3=2+1:0:0:0:0, 1=1+0:0:0:0:0, 3=3+0:0:0:0:0, 3=2+1:0:0:0:1, 0=0+0:0:0:0:0,  , 8=4+4:2:0:0:2, 7=4+3:0:0:0:0, 1=1+0:0:0:0:0, 4=2+2:0:0:0:0, 0=0+0:0:0:0:0, 142=95+47:8:1:0:15
A minor (0), 0=0+0:0:0:0:0, 3=2+1:0:0:0:0, 0=0+0:0:0:0:0, 5=3+2:0:0:0:0, 4=3+1:0:0:0:0, 6=4+2:0:0:0:1, 0=0+0:0:0:0:0, 7=4+3:0:0:0:1, 1=1+0:0:0:0:0, 3=2+1:0:0:0:0, 0=0+0:0:0:0:0, 1=1+0:0:0:0:0, 3=2+1:0:0:0:0, 4=2+2:0:0:0:0, 3=1+2:0:0:0:2, 0=0+0:0:0:0:0, 4=2+2:0:1:0:1, 3=3+0:0:0:0:0, 2=1+1:0:0:0:0, 3=2+1:1:0:0:1, 1=1+0:0:0:0:0, 10=6+4:3:0:0:3, 4=3+1:0:0:0:0, 0=0+0:0:0:0:0, 4=2+2:0:0:0:0, 3=2+1:0:0:0:0, 3=2+1:0:0:0:0, 2=1+1:0:0:0:0, 4=2+2:0:0:0:0, 2=2+0:0:0:0:0, 2=1+1:0:0:0:0, 8=5+3:0:0:0:1, 7=4+3:0:0:0:0, 9=6+3:0:0:0:0, 1=1+0:0:0:0:0, 0=0+0:0:0:0:0, 0=0+0:0:0:0:0, 3=2+1:0:0:0:0, 3=2+1:0:0:0:0, 3=1+2:0:0:0:0, 4=3+1:0:0:0:0, 3=2+1:0:0:0:1, 0=0+0:0:0:0:0,  , 8=4+4:2:0:0:2, 7=4+3:0:0:0:0, 1=1+0:0:0:0:0, 4=2+2:0:0:0:0, 0=0+0:0:0:0:0, 148=92+56:6:1:0:13
A minor mel (0),  ,  ,  ,  ,  ,  ,  ,  ,  ,  ,  ,  ,  ,  ,  ,  ,  ,  ,  ,  ,  ,  ,  ,  ,  ,  ,  ,  ,  ,  ,  ,  ,  ,  ,  ,  ,  ,  ,  ,  ,  ,  ,  ,  ,  ,  ,  ,  ,  , 0=0+0:0:0:0:0
C major blues (0),  ,  ,  ,  ,  ,  ,  ,  ,  ,  ,  ,  ,  ,  ,  ,  ,  ,  ,  ,  ,  ,  ,  ,  ,  ,  ,  ,  ,  ,  ,  ,  ,  ,  ,  ,  ,  ,  ,  ,  ,  ,  ,  ,  ,  ,  ,  ,  ,  , 0=0+0:0:0:0:0
A minor blues (0),  ,  ,  ,  ,  ,  ,  ,  ,  ,  ,  ,  ,  ,  ,  ,  ,  ,  ,  ,  ,  ,  ,  ,  ,  ,  ,  ,  ,  ,  ,  ,  ,  ,  ,  ,  ,  ,  ,  ,  ,  ,  ,  ,  ,  ,  ,  ,  ,  , 0=0+0:0:0:0:0
C dorian (0),  ,  ,  ,  ,  ,  ,  ,  ,  ,  ,  ,  ,  ,  ,  ,  ,  ,  ,  ,  ,  ,  ,  ,  ,  ,  ,  ,  ,  ,  ,  ,  ,  ,  ,  ,  ,  ,  ,  ,  ,  ,  ,  ,  ,  ,  ,  ,  ,  , 0=0+0:0:0:0:0
C phrygian (0),  ,  ,  ,  ,  ,  ,  ,  ,  ,  ,  ,  ,  ,  ,  ,  ,  ,  ,  ,  ,  ,  ,  ,  ,  ,  ,  ,  ,  ,  ,  ,  ,  ,  ,  ,  ,  ,  ,  ,  ,  ,  ,  ,  ,  ,  ,  ,  ,  , 0=0+0:0:0:0:0
C lydian (0),  ,  ,  ,  ,  ,  ,  ,  ,  ,  ,  ,  ,  ,  ,  ,  ,  ,  ,  ,  ,  ,  ,  ,  ,  ,  ,  ,  ,  ,  ,  ,  ,  ,  ,  ,  ,  ,  ,  ,  ,  ,  ,  ,  ,  ,  ,  ,  ,  , 0=0+0:0:0:0:0
C mixolydian (0),  ,  ,  ,  ,  ,  ,  ,  ,  ,  ,  ,  ,  ,  ,  ,  ,  ,  ,  ,  ,  ,  ,  ,  ,  ,  ,  ,  ,  ,  ,  ,  ,  ,  ,  ,  ,  ,  ,  ,  ,  ,  ,  ,  ,  ,  ,  ,  ,  , 0=0+0:0:0:0:0
C aeolian (0),  ,  ,  ,  ,  ,  ,  ,  ,  ,  ,  ,  ,  ,  ,  ,  ,  ,  ,  ,  ,  ,  ,  ,  ,  ,  ,  ,  ,  ,  ,  ,  ,  ,  ,  ,  ,  ,  ,  ,  ,  ,  ,  ,  ,  ,  ,  ,  ,  , 0=0+0:0:0:0:0
C locrian (0),  ,  ,  ,  ,  ,  ,  ,  ,  ,  ,  ,  ,  ,  ,  ,  ,  ,  ,  ,  ,  ,  ,  ,  ,  ,  ,  ,  ,  ,  ,  ,  ,  ,  ,  ,  ,  ,  ,  ,  ,  ,  ,  ,  ,  ,  ,  ,  ,  , 0=0+0:0:0:0:0
F major (1b), 0=0+0:0:0:0:0, 4=2+2:0:1:0:1, 0=0+0:0:0:0:0, 3=2+1:0:0:0:0, 1=1+0:0:0:0:0, 5=3+2:0:0:0:1, 0=0+0:0:0:0:0, 6=4+2:0:1:0:0, 0=0+0:0:0:0:0, 2=1+1:0:0:0:0, 0=0+0:0:0:0:0, 0=0+0:0:0:0:0, 2=1+1:0:0:0:0, 4=2+2:0:0:0:0, 1=1+0:0:0:0:0, 0=0+0:0:0:0:0, 3=1+2:0:2:0:0, 2=2+0:0:0:0:0, 2=1+1:0:0:0:0, 4=3+1:0:0:0:0, 0=0+0:0:0:0:0, 9=5+4:3:0:0:3, 2=1+1:0:0:0:0, 0=0+0:0:0:0:0, 4=2+2:2:0:0:2, 2=1+1:0:0:0:0, 3=2+1:0:0:0:0, 1=1+0:0:0:0:0, 1=1+0:0:0:0:0, 1=1+0:0:0:0:0, 0=0+0:0:0:0:0, 9=6+3:0:1:0:1, 6=3+3:1:0:0:1, 7=4+3:0:0:0:0, 0=0+0:0:0:0:0, 0=0+0:0:0:0:0, 0=0+0:0:0:0:0, 2=1+1:0:0:0:0, 3=2+1:0:0:0:0, 1=1+0:0:0:0:0, 2=2+0:0:0:0:0, 3=2+1:0:1:0:0, 0=0+0:0:0:0:0,  , 7=3+4:2:0:0:2, 6=3+3:0:0:0:0, 0=0+0:0:0:0:0, 3=1+2:0:0:0:0, 0=0+0:0:0:0:0, 111=66+45:8:6:0:11
G major (1#), 1=1+0:0:0:0:0, 4=2+2:0:0:0:0, 1=1+0:0:0:0:0, 5=4+1:0:0:0:0, 5=4+1:0:0:0:0, 7=5+2:0:0:0:1, 0=0+0:0:0:0:0, 6=4+2:0:0:0:1, 3=3+0:0:0:0:0, 3=2+1:0:0:0:0, 1=1+0:0:0:0:0, 1=1+0:0:0:0:0, 4=3+1:0:0:0:0, 5=3+2:0:0:0:0, 1=1+0:0:0:0:0, 1=1+0:0:0:0:0, 5=3+2:0:1:0:1, 5=5+0:0:0:0:0, 3=2+1:0:0:0:0, 3=2+1:1:0:0:1, 1=1+0:0:0:0:0, 10=6+4:2:0:0:3, 5=4+1:0:0:0:0, 0=0+0:0:0:0:0, 6=4+2:0:0:0:0, 4=3+1:0:0:0:0, 4=3+1:0:0:0:0, 2=2+0:0:0:0:0, 6=3+3:0:0:0:0, 4=4+0:0:0:0:0, 1=1+0:0:0:0:0, 8=5+3:0:0:0:2, 7=4+3:1:0:0:1, 10=7+3:0:0:0:0, 2=2+0:0:0:0:0, 0=0+0:0:0:0:0, 1=1+0:0:0:0:0, 4=3+1:0:0:0:0, 4=3+1:0:0:0:0, 3=1+2:0:0:0:0, 6=5+1:0:0:0:0, 4=3+1:0:0:0:1, 0=0+0:0:0:0:0,  , 8=4+4:2:0:0:2, 8=5+3:0:0:0:0, 2=2+0:0:0:0:0, 5=3+2:0:0:0:0, 1=1+0:0:0:0:0, 180=128+52:6:1:0:13
D minor (1b), 0=0+0:0:0:0:0, 3=2+1:0:1:0:1, 0=0+0:0:0:0:0, 4=2+2:0:0:0:0, 2=1+1:0:0:0:0, 5=3+2:0:0:0:1, 0=0+0:0:0:0:0, 6=4+2:0:1:0:0, 0=0+0:0:0:0:0, 2=1+1:0:0:0:0, 0=0+0:0:0:0:0, 0=0+0:0:0:0:0, 2=1+1:0:0:0:0, 4=2+2:0:0:0:0, 1=1+0:0:0:0:0, 0=0+0:0:0:0:0, 3=1+2:0:2:0:0, 3=2+1:0:0:0:0, 2=1+1:0:0:0:0, 4=3+1:0:0:0:0, 0=0+0:0:0:0:0, 9=5+4:3:0:0:3, 2=1+1:0:0:0:0, 0=0+0:0:0:0:0, 4=2+2:2:0:0:2, 3=2+1:0:0:0:0, 3=2+1:0:0:0:0, 1=1+0:0:0:0:0, 4=1+3:0:0:0:0, 1=1+0:0:0:0:0, 0=0+0:0:0:0:0, 9=6+3:0:1:0:1, 6=3+3:1:0:0:1, 7=4+3:0:0:0:0, 0=0+0:0:0:0:0, 0=0+0:0:0:0:0, 0=0+0:0:0:0:0, 2=1+1:0:0:0:0, 3=2+1:0:0:0:0, 1=1+0:0:0:0:0, 3=2+1:0:0:0:0, 3=2+1:0:1:0:1, 0=0+0:0:0:0:0,  , 7=3+4:2:0:0:2, 6=3+3:0:0:0:0, 0=0+0:0:0:0:0, 3=1+2:0:0:0:0, 0=0+0:0:0:0:0, 118=67+51:8:6:0:12
E minor (1#), 1=1+0:0:0:0:0, 3=2+1:0:0:0:0, 1=1+0:0:0:0:0, 5=4+1:0:0:0:0, 5=4+1:0:0:0:0, 7=5+2:0:0:0:1, 0=0+0:0:0:0:0, 6=3+3:0:0:0:1, 3=3+0:0:0:0:0, 4=2+2:0:0:0:0, 2=1+1:0:0:0:0, 2=1+1:1:0:0:0, 3=2+1:0:0:0:1, 6=3+3:0:0:0:0, 3=1+2:0:0:0:0, 1=1+0:0:0:0:0, 5=3+2:0:1:0:1, 7=5+2:0:0:0:0, 3=2+1:0:0:0:0, 3=2+1:1:0:0:1, 1=1+0:0:0:0:0, 11=6+5:1:0:0:4, 5=4+1:0:0:0:0, 0=0+0:0:0:0:0, 6=4+2:0:0:0:0, 6=3+3:0:0:0:0, 4=3+1:0:0:0:0, 3=2+1:0:0:0:0, 6=3+3:0:0:0:0, 4=4+0:0:0:0:0, 2=1+1:0:0:0:1, 8=4+4:0:0:0:1, 7=4+3:0:0:0:0, 11=5+6:0:0:0:3, 3=2+1:0:0:0:0, 0=0+0:0:0:0:0, 1=1+0:0:0:0:0, 6=3+3:0:0:0:0, 4=3+1:0:0:0:0, 3=1+2:0:0:0:0, 6=5+1:0:0:0:0, 5=3+2:0:0:0:0, 0=0+0:0:0:0:0,  , 8=5+3:0:1:0:1, 9=5+4:0:0:0:0, 4=2+2:0:0:0:0, 6=3+3:0:0:0:0, 1=1+0:0:0:0:0, 200=124+76:3:2:0:15
D minor mel (1b),  ,  ,  ,  ,  ,  ,  ,  ,  ,  ,  ,  ,  ,  ,  ,  ,  ,  ,  ,  ,  ,  ,  ,  ,  ,  ,  ,  ,  ,  ,  ,  ,  ,  ,  ,  ,  ,  ,  ,  ,  ,  ,  ,  ,  ,  ,  ,  ,  , 0=0+0:0:0:0:0
E minor mel (1#),  ,  ,  ,  ,  ,  ,  ,  ,  ,  ,  ,  ,  ,  ,  ,  ,  ,  ,  ,  ,  ,  ,  ,  ,  ,  ,  ,  ,  ,  ,  ,  ,  ,  ,  ,  ,  ,  ,  ,  ,  ,  ,  ,  ,  ,  ,  ,  ,  , 0=0+0:0:0:0:0
F major blues (1b),  ,  ,  ,  ,  ,  ,  ,  ,  ,  ,  ,  ,  ,  ,  ,  ,  ,  ,  ,  ,  ,  ,  ,  ,  ,  ,  ,  ,  ,  ,  ,  ,  ,  ,  ,  ,  ,  ,  ,  ,  ,  ,  ,  ,  ,  ,  ,  ,  , 0=0+0:0:0:0:0
G major blues (1#),  ,  ,  ,  ,  ,  ,  ,  ,  ,  ,  ,  ,  ,  ,  ,  ,  ,  ,  ,  ,  ,  ,  ,  ,  ,  ,  ,  ,  ,  ,  ,  ,  ,  ,  ,  ,  ,  ,  ,  ,  ,  ,  ,  ,  ,  ,  ,  ,  , 0=0+0:0:0:0:0
D minor blues (1b),  ,  ,  ,  ,  ,  ,  ,  ,  ,  ,  ,  ,  ,  ,  ,  ,  ,  ,  ,  ,  ,  ,  ,  ,  ,  ,  ,  ,  ,  ,  ,  ,  ,  ,  ,  ,  ,  ,  ,  ,  ,  ,  ,  ,  ,  ,  ,  ,  , 0=0+0:0:0:0:0
E minor blues (1#),  ,  ,  ,  ,  ,  ,  ,  ,  ,  ,  ,  ,  ,  ,  ,  ,  ,  ,  ,  ,  ,  ,  ,  ,  ,  ,  ,  ,  ,  ,  ,  ,  ,  ,  ,  ,  ,  ,  ,  ,  ,  ,  ,  ,  ,  ,  ,  ,  , 0=0+0:0:0:0:0
F dorian (1b),  ,  ,  ,  ,  ,  ,  ,  ,  ,  ,  ,  ,  ,  ,  ,  ,  ,  ,  ,  ,  ,  ,  ,  ,  ,  ,  ,  ,  ,  ,  ,  ,  ,  ,  ,  ,  ,  ,  ,  ,  ,  ,  ,  ,  ,  ,  ,  ,  , 0=0+0:0:0:0:0
G dorian (1#),  ,  ,  ,  ,  ,  ,  ,  ,  ,  ,  ,  ,  ,  ,  ,  ,  ,  ,  ,  ,  ,  ,  ,  ,  ,  ,  ,  ,  ,  ,  ,  ,  ,  ,  ,  ,  ,  ,  ,  ,  ,  ,  ,  ,  ,  ,  ,  ,  , 0=0+0:0:0:0:0
F phrygian (1b),  ,  ,  ,  ,  ,  ,  ,  ,  ,  ,  ,  ,  ,  ,  ,  ,  ,  ,  ,  ,  ,  ,  ,  ,  ,  ,  ,  ,  ,  ,  ,  ,  ,  ,  ,  ,  ,  ,  ,  ,  ,  ,  ,  ,  ,  ,  ,  ,  , 0=0+0:0:0:0:0
G phrygian (1#),  ,  ,  ,  ,  ,  ,  ,  ,  ,  ,  ,  ,  ,  ,  ,  ,  ,  ,  ,  ,  ,  ,  ,  ,  ,  ,  ,  ,  ,  ,  ,  ,  ,  ,  ,  ,  ,  ,  ,  ,  ,  ,  ,  ,  ,  ,  ,  ,  , 0=0+0:0:0:0:0
F lydian (1b),  ,  ,  ,  ,  ,  ,  ,  ,  ,  ,  ,  ,  ,  ,  ,  ,  ,  ,  ,  ,  ,  ,  ,  ,  ,  ,  ,  ,  ,  ,  ,  ,  ,  ,  ,  ,  ,  ,  ,  ,  ,  ,  ,  ,  ,  ,  ,  ,  , 0=0+0:0:0:0:0
G lydian (1#),  ,  ,  ,  ,  ,  ,  ,  ,  ,  ,  ,  ,  ,  ,  ,  ,  ,  ,  ,  ,  ,  ,  ,  ,  ,  ,  ,  ,  ,  ,  ,  ,  ,  ,  ,  ,  ,  ,  ,  ,  ,  ,  ,  ,  ,  ,  ,  ,  , 0=0+0:0:0:0:0
F mixolydian (1b),  ,  ,  ,  ,  ,  ,  ,  ,  ,  ,  ,  ,  ,  ,  ,  ,  ,  ,  ,  ,  ,  ,  ,  ,  ,  ,  ,  ,  ,  ,  ,  ,  ,  ,  ,  ,  ,  ,  ,  ,  ,  ,  ,  ,  ,  ,  ,  ,  , 0=0+0:0:0:0:0
G mixolydian (1#),  ,  ,  ,  ,  ,  ,  ,  ,  ,  ,  ,  ,  ,  ,  ,  ,  ,  ,  ,  ,  ,  ,  ,  ,  ,  ,  ,  ,  ,  ,  ,  ,  ,  ,  ,  ,  ,  ,  ,  ,  ,  ,  ,  ,  ,  ,  ,  ,  , 0=0+0:0:0:0:0
F aeolian (1b),  ,  ,  ,  ,  ,  ,  ,  ,  ,  ,  ,  ,  ,  ,  ,  ,  ,  ,  ,  ,  ,  ,  ,  ,  ,  ,  ,  ,  ,  ,  ,  ,  ,  ,  ,  ,  ,  ,  ,  ,  ,  ,  ,  ,  ,  ,  ,  ,  , 0=0+0:0:0:0:0
G aeolian (1#),  ,  ,  ,  ,  ,  ,  ,  ,  ,  ,  ,  ,  ,  ,  ,  ,  ,  ,  ,  ,  ,  ,  ,  ,  ,  ,  ,  ,  ,  ,  ,  ,  ,  ,  ,  ,  ,  ,  ,  ,  ,  ,  ,  ,  ,  ,  ,  ,  , 0=0+0:0:0:0:0
F locrian (1b),  ,  ,  ,  ,  ,  ,  ,  ,  ,  ,  ,  ,  ,  ,  ,  ,  ,  ,  ,  ,  ,  ,  ,  ,  ,  ,  ,  ,  ,  ,  ,  ,  ,  ,  ,  ,  ,  ,  ,  ,  ,  ,  ,  ,  ,  ,  ,  ,  , 0=0+0:0:0:0:0
G locrian (1#),  ,  ,  ,  ,  ,  ,  ,  ,  ,  ,  ,  ,  ,  ,  ,  ,  ,  ,  ,  ,  ,  ,  ,  ,  ,  ,  ,  ,  ,  ,  ,  ,  ,  ,  ,  ,  ,  ,  ,  ,  ,  ,  ,  ,  ,  ,  ,  ,  , 0=0+0:0:0:0:0
Bb major (2b), 1=1+0:0:0:0:0, 5=3+2:0:1:0:1, 1=1+0:0:0:0:0, 2=1+1:0:0:0:0, 1=1+0:0:0:0:0, 4=2+2:0:0:0:1, 1=1+0:0:0:0:0, 6=4+2:0:1:0:0, 0=0+0:0:0:0:0, 1=0+1:0:0:0:0, 0=0+0:0:0:0:0, 0=0+0:0:0:0:0, 3=2+1:0:0:0:0, 5=3+2:0:0:0:0, 0=0+0:0:0:0:0, 0=0+0:0:0:0:0, 3=1+2:0:2:0:0, 1=1+0:0:0:0:0, 3=2+1:0:0:0:0, 3=2+1:0:0:0:0, 0=0+0:0:0:0:0, 10=6+4:1:0:0:2, 2=1+1:0:0:0:0, 1=1+0:0:0:0:0, 5=3+2:2:0:0:2, 3=2+1:0:0:0:0, 3=2+1:0:0:0:0, 0=0+0:0:0:0:0, 1=1+0:0:0:0:0, 0=0+0:0:0:0:0, 3=1+2:0:0:0:0, 6=5+1:0:0:0:0, 5=2+3:1:0:0:1, 8=5+3:0:0:0:0, 1=1+0:0:0:0:0, 0=0+0:0:0:0:0, 0=0+0:0:0:0:0, 3=2+1:0:0:0:0, 4=3+1:0:0:0:0, 0=0+0:0:0:0:0, 1=1+0:0:0:0:0, 3=2+1:0:1:0:0, 1=1+0:0:0:0:0,  , 8=4+4:0:0:0:0, 7=4+3:0:0:0:0, 1=1+0:0:0:0:0, 4=2+2:0:0:0:0, 1=1+0:0:0:0:0, 121=76+45:4:5:0:7
D major (2#), 2=2+0:0:0:0:0, 2=1+1:0:0:0:0, 1=1+0:0:0:0:0, 5=3+2:1:0:0:1, 6=5+1:0:0:0:0, 7=5+2:1:0:0:2, 1=1+0:0:0:0:0, 5=2+3:1:0:0:0, 3=3+0:0:0:0:0, 4=3+1:0:0:0:0, 2=2+0:0:0:0:0, 2=2+0:0:0:0:0, 5=4+1:0:0:0:0, 5=3+2:0:0:0:0, 4=2+2:0:0:0:0, 1=1+0:0:0:0:0, 5=3+2:0:1:0:1, 7=6+1:0:0:0:0, 4=3+1:0:0:0:0, 3=1+2:1:0:0:1, 2=2+0:0:0:0:0, 11=7+4:3:0:0:3, 6=5+1:1:0:0:1, 0=0+0:0:0:0:0, 7=5+2:2:0:0:2, 4=3+1:0:0:0:0, 4=3+1:0:0:0:0, 3=2+1:0:0:0:0, 7=4+3:0:0:0:0, 5=5+0:0:0:0:0, 3=3+0:0:0:0:0, 8=4+4:1:0:0:1, 7=4+3:0:0:0:0, 10=7+3:0:1:0:2, 3=3+0:0:0:0:0, 1=1+0:0:0:0:0, 2=2+0:0:0:0:0, 4=3+1:0:0:0:1, 3=2+1:0:0:0:0, 1=1+0:0:0:0:0, 7=6+1:0:0:0:0, 5=4+1:0:0:0:0, 1=1+0:0:0:0:0,  , 9=5+4:2:0:0:2, 9=6+3:0:0:0:0, 3=3+0:0:0:0:0, 5=3+2:2:0:0:2, 2=2+0:0:0:0:0, 206=149+57:15:2:0:19
G minor (2b), 1=1+0:0:0:0:0, 4=3+1:0:1:0:1, 1=1+0:0:0:0:0, 2=1+1:0:0:0:0, 1=1+0:0:0:0:0, 4=2+2:0:0:0:0, 1=1+0:0:0:0:0, 6=4+2:0:1:0:0, 0=0+0:0:0:0:0, 1=0+1:0:0:0:0, 0=0+0:0:0:0:0, 0=0+0:0:0:0:0, 3=2+1:0:0:0:0, 5=3+2:0:0:0:0, 0=0+0:0:0:0:0, 0=0+0:0:0:0:0, 3=1+2:0:2:0:0, 1=1+0:0:0:0:0, 3=2+1:0:0:0:0, 2=1+1:1:0:0:1, 0=0+0:0:0:0:0, 10=6+4:1:0:0:2, 2=1+1:0:0:0:0, 1=1+0:0:0:0:0, 5=3+2:0:0:0:0, 4=3+1:0:0:0:0, 3=2+1:0:0:0:0, 0=0+0:0:0:0:0, 1=1+0:0:0:0:0, 0=0+0:0:0:0:0, 1=1+0:0:0:0:0, 8=5+3:0:1:0:1, 5=2+3:1:0:0:1, 8=5+3:0:0:0:0, 2=1+1:0:0:0:0, 0=0+0:0:0:0:0, 0=0+0:0:0:0:0, 3=2+1:0:0:0:0, 4=3+1:0:0:0:0, 0=0+0:0:0:0:0, 1=1+0:0:0:0:0, 3=2+1:0:1:0:0, 1=1+0:0:0:0:0,  , 8=4+4:0:0:0:0, 7=4+3:0:0:0:0, 1=1+0:0:0:0:0, 4=2+2:0:0:0:0, 1=1+0:0:0:0:0, 121=76+45:3:6:0:6
B minor (2#), 2=2+0:0:0:0:0, 2=1+1:0:0:0:0, 1=1+0:0:0:0:0, 5=3+2:1:0:0:1, 6=5+1:0:0:0:0, 8=6+2:0:0:0:2, 1=1+0:0:0:0:0, 5=3+2:1:0:0:2, 3=3+0:0:0:0:0, 5=3+2:0:0:0:0, 2=2+0:0:0:0:0, 3=2+1:0:0:0:0, 6=4+2:0:0:0:0, 5=3+2:0:0:0:0, 4=2+2:0:0:0:0, 1=1+0:0:0:0:0, 5=3+2:0:1:0:1, 6=6+0:0:0:0:0, 4=3+1:0:0:0:0, 3=1+2:1:0:0:1, 2=2+0:0:0:0:0, 12=7+5:1:0:0:4, 6=5+1:1:0:0:1, 0=0+0:0:0:0:0, 7=5+2:0:0:0:0, 4=3+1:0:0:0:0, 7=3+4:0:0:0:0, 3=2+1:0:0:0:0, 7=4+3:0:0:0:0, 5=5+0:0:0:0:0, 3=3+0:0:0:0:0, 7=4+3:1:0:0:3, 8=4+4:1:0:0:3, 10=7+3:1:1:0:2, 4=3+1:0:0:0:0, 4=1+3:0:0:0:0, 2=2+0:0:0:0:0, 4=3+1:0:0:0:0, 3=2+1:0:0:0:0, 3=1+2:0:0:0:0, 6=6+0:0:0:0:0, 5=4+1:0:0:0:1, 1=1+0:0:0:0:0,  , 9=5+4:2:0:0:2, 9=6+3:0:0:0:0, 4=3+1:0:0:0:0, 5=3+2:0:0:0:2, 2=2+0:0:0:0:0, 219=151+68:10:2:0:25
G minor mel (2b),  ,  ,  ,  ,  ,  ,  ,  ,  ,  ,  ,  ,  ,  ,  ,  ,  ,  ,  ,  ,  ,  ,  ,  ,  ,  ,  ,  ,  ,  ,  ,  ,  ,  ,  ,  ,  ,  ,  ,  ,  ,  ,  ,  ,  ,  ,  ,  ,  , 0=0+0:0:0:0:0
B minor mel (2#),  ,  ,  ,  ,  ,  ,  ,  ,  ,  ,  ,  ,  ,  ,  ,  ,  ,  ,  ,  ,  ,  ,  ,  ,  ,  ,  ,  ,  ,  ,  ,  ,  ,  ,  ,  ,  ,  ,  ,  ,  ,  ,  ,  ,  ,  ,  ,  ,  , 0=0+0:0:0:0:0
Bb major blues (2b),  ,  ,  ,  ,  ,  ,  ,  ,  ,  ,  ,  ,  ,  ,  ,  ,  ,  ,  ,  ,  ,  ,  ,  ,  ,  ,  ,  ,  ,  ,  ,  ,  ,  ,  ,  ,  ,  ,  ,  ,  ,  ,  ,  ,  ,  ,  ,  ,  , 0=0+0:0:0:0:0
D major blues (2#),  ,  ,  ,  ,  ,  ,  ,  ,  ,  ,  ,  ,  ,  ,  ,  ,  ,  ,  ,  ,  ,  ,  ,  ,  ,  ,  ,  ,  ,  ,  ,  ,  ,  ,  ,  ,  ,  ,  ,  ,  ,  ,  ,  ,  ,  ,  ,  ,  , 0=0+0:0:0:0:0
G minor blues (2b),  ,  ,  ,  ,  ,  ,  ,  ,  ,  ,  ,  ,  ,  ,  ,  ,  ,  ,  ,  ,  ,  ,  ,  ,  ,  ,  ,  ,  ,  ,  ,  ,  ,  ,  ,  ,  ,  ,  ,  ,  ,  ,  ,  ,  ,  ,  ,  ,  , 0=0+0:0:0:0:0
B minor blues (2#),  ,  ,  ,  ,  ,  ,  ,  ,  ,  ,  ,  ,  ,  ,  ,  ,  ,  ,  ,  ,  ,  ,  ,  ,  ,  ,  ,  ,  ,  ,  ,  ,  ,  ,  ,  ,  ,  ,  ,  ,  ,  ,  ,  ,  ,  ,  ,  ,  , 0=0+0:0:0:0:0
Bb dorian (2b),  ,  ,  ,  ,  ,  ,  ,  ,  ,  ,  ,  ,  ,  ,  ,  ,  ,  ,  ,  ,  ,  ,  ,  ,  ,  ,  ,  ,  ,  ,  ,  ,  ,  ,  ,  ,  ,  ,  ,  ,  ,  ,  ,  ,  ,  ,  ,  ,  , 0=0+0:0:0:0:0
D dorian (2#),  ,  ,  ,  ,  ,  ,  ,  ,  ,  ,  ,  ,  ,  ,  ,  ,  ,  ,  ,  ,  ,  ,  ,  ,  ,  ,  ,  ,  ,  ,  ,  ,  ,  ,  ,  ,  ,  ,  ,  ,  ,  ,  ,  ,  ,  ,  ,  ,  , 0=0+0:0:0:0:0
Bb phrygian (2b),  ,  ,  ,  ,  ,  ,  ,  ,  ,  ,  ,  ,  ,  ,  ,  ,  ,  ,  ,  ,  ,  ,  ,  ,  ,  ,  ,  ,  ,  ,  ,  ,  ,  ,  ,  ,  ,  ,  ,  ,  ,  ,  ,  ,  ,  ,  ,  ,  , 0=0+0:0:0:0:0
D phrygian (2#),  ,  ,  ,  ,  ,  ,  ,  ,  ,  ,  ,  ,  ,  ,  ,  ,  ,  ,  ,  ,  ,  ,  ,  ,  ,  ,  ,  ,  ,  ,  ,  ,  ,  ,  ,  ,  ,  ,  ,  ,  ,  ,  ,  ,  ,  ,  ,  ,  , 0=0+0:0:0:0:0
Bb lydian (2b),  ,  ,  ,  ,  ,  ,  ,  ,  ,  ,  ,  ,  ,  ,  ,  ,  ,  ,  ,  ,  ,  ,  ,  ,  ,  ,  ,  ,  ,  ,  ,  ,  ,  ,  ,  ,  ,  ,  ,  ,  ,  ,  ,  ,  ,  ,  ,  ,  , 0=0+0:0:0:0:0
D lydian (2#),  ,  ,  ,  ,  ,  ,  ,  ,  ,  ,  ,  ,  ,  ,  ,  ,  ,  ,  ,  ,  ,  ,  ,  ,  ,  ,  ,  ,  ,  ,  ,  ,  ,  ,  ,  ,  ,  ,  ,  ,  ,  ,  ,  ,  ,  ,  ,  ,  , 0=0+0:0:0:0:0
Bb mixolydian (2b),  ,  ,  ,  ,  ,  ,  ,  ,  ,  ,  ,  ,  ,  ,  ,  ,  ,  ,  ,  ,  ,  ,  ,  ,  ,  ,  ,  ,  ,  ,  ,  ,  ,  ,  ,  ,  ,  ,  ,  ,  ,  ,  ,  ,  ,  ,  ,  ,  , 0=0+0:0:0:0:0
D mixolydian (2#),  ,  ,  ,  ,  ,  ,  ,  ,  ,  ,  ,  ,  ,  ,  ,  ,  ,  ,  ,  ,  ,  ,  ,  ,  ,  ,  ,  ,  ,  ,  ,  ,  ,  ,  ,  ,  ,  ,  ,  ,  ,  ,  ,  ,  ,  ,  ,  ,  , 0=0+0:0:0:0:0
Bb aeolian (2b),  ,  ,  ,  ,  ,  ,  ,  ,  ,  ,  ,  ,  ,  ,  ,  ,  ,  ,  ,  ,  ,  ,  ,  ,  ,  ,  ,  ,  ,  ,  ,  ,  ,  ,  ,  ,  ,  ,  ,  ,  ,  ,  ,  ,  ,  ,  ,  ,  , 0=0+0:0:0:0:0
D aeolian (2#),  ,  ,  ,  ,  ,  ,  ,  ,  ,  ,  ,  ,  ,  ,  ,  ,  ,  ,  ,  ,  ,  ,  ,  ,  ,  ,  ,  ,  ,  ,  ,  ,  ,  ,  ,  ,  ,  ,  ,  ,  ,  ,  ,  ,  ,  ,  ,  ,  , 0=0+0:0:0:0:0
Bb locrian (2b),  ,  ,  ,  ,  ,  ,  ,  ,  ,  ,  ,  ,  ,  ,  ,  ,  ,  ,  ,  ,  ,  ,  ,  ,  ,  ,  ,  ,  ,  ,  ,  ,  ,  ,  ,  ,  ,  ,  ,  ,  ,  ,  ,  ,  ,  ,  ,  ,  , 0=0+0:0:0:0:0
D locrian (2#),  ,  ,  ,  ,  ,  ,  ,  ,  ,  ,  ,  ,  ,  ,  ,  ,  ,  ,  ,  ,  ,  ,  ,  ,  ,  ,  ,  ,  ,  ,  ,  ,  ,  ,  ,  ,  ,  ,  ,  ,  ,  ,  ,  ,  ,  ,  ,  ,  , 0=0+0:0:0:0:0
Eb major (3b), 2=2+0:0:0:0:0, 6=4+2:0:1:0:1, 2=2+0:0:0:0:0, 2=1+1:0:0:0:0, 0=0+0:0:0:0:0, 5=3+2:0:0:0:1, 2=2+0:0:0:0:0, 4=3+1:0:0:0:0, 0=0+0:0:0:0:0, 1=1+0:0:0:0:0, 1=1+0:0:0:0:0, 1=1+0:0:0:0:0, 3=2+1:0:0:0:0, 6=4+2:0:0:0:0, 0=0+0:0:0:0:0, 0=0+0:0:0:0:0, 1=1+0:0:0:0:0, 0=0+0:0:0:0:0, 4=3+1:0:0:0:0, 2=1+1:1:0:0:1, 1=1+0:0:0:0:0, 10=6+4:1:0:0:2, 3=2+1:0:0:0:0, 1=1+0:0:0:0:0, 6=4+2:2:0:0:2, 5=3+2:0:0:0:0, 2=1+1:0:0:0:0, 0=0+0:0:0:0:0, 0=0+0:0:0:0:0, 0=0+0:0:0:0:0, 5=3+2:0:0:0:0, 5=4+1:0:0:0:0, 5=2+3:1:0:0:3, 9=6+3:0:0:0:0, 2=2+0:0:0:0:0, 0=0+0:0:0:0:0, 1=1+0:0:0:0:0, 4=3+1:0:0:0:0, 5=4+1:0:0:0:0, 0=0+0:0:0:0:0, 0=0+0:0:0:0:0, 2=1+1:0:1:0:0, 2=2+0:0:0:0:0,  , 9=5+4:0:0:0:0, 8=5+3:0:0:0:0, 2=2+0:0:0:0:0, 5=3+2:0:0:0:0, 1=1+0:0:0:0:0, 135=93+42:5:2:0:10
A major (3#), 2=2+0:0:0:0:0, 3=2+1:0:0:0:0, 2=2+0:0:0:0:0, 6=4+2:1:0:0:1, 6=5+1:1:0:0:1, 9=6+3:1:0:0:1, 1=1+0:0:0:0:0, 5=2+3:2:0:0:1, 4=4+0:0:0:0:0, 6=4+2:0:0:0:0, 3=3+0:0:0:0:0, 4=3+1:1:0:0:0, 5=4+1:0:0:0:1, 7=4+3:2:0:0:0, 5=3+2:0:0:0:2, 1=1+0:0:0:0:0, 5=3+2:0:1:0:1, 9=7+2:0:0:0:0, 5=4+1:0:0:0:0, 2=1+1:1:0:0:1, 3=3+0:0:0:0:0, 13=8+5:1:0:0:4, 7=6+1:1:0:0:1, 0=0+0:0:0:0:0, 8=6+2:0:0:0:0, 7=4+3:0:0:0:1, 5=4+1:0:0:0:0, 3=2+1:0:0:0:0, 6=4+2:0:0:0:0, 6=6+0:0:0:0:0, 5=4+1:0:0:0:0, 6=3+3:2:0:0:1, 8=5+3:0:0:0:0, 14=8+6:0:0:0:4, 5=4+1:0:0:0:0, 1=1+0:0:0:0:0, 3=3+0:0:0:0:0, 7=4+3:0:0:0:1, 4=3+1:0:0:0:1, 3=1+2:0:0:0:0, 7=6+1:0:0:0:0, 6=4+2:0:0:0:0, 1=1+0:0:0:0:0,  , 8=4+4:0:0:0:4, 11=7+4:0:0:0:0, 6=4+2:0:0:0:0, 7=4+3:0:0:0:2, 2=2+0:0:0:0:0, 252=176+76:13:1:0:28
C minor (3b), 2=2+0:0:0:0:0, 6=4+2:0:1:0:1, 2=2+0:0:0:0:0, 2=1+1:0:0:0:0, 0=0+0:0:0:0:0, 5=3+2:0:0:0:1, 2=2+0:0:0:0:0, 4=3+1:0:0:0:0, 0=0+0:0:0:0:0, 2=1+1:0:0:0:0, 1=1+0:0:0:0:0, 2=1+1:0:0:0:0, 3=2+1:0:0:0:0, 6=4+2:0:0:0:0, 0=0+0:0:0:0:0, 0=0+0:0:0:0:0, 3=1+2:0:2:0:0, 0=0+0:0:0:0:0, 4=3+1:0:0:0:0, 3=2+1:0:0:0:0, 1=1+0:0:0:0:0, 10=6+4:2:0:0:2, 3=2+1:0:0:0:0, 1=1+0:0:0:0:0, 6=4+2:0:0:0:0, 4=3+1:0:0:0:0, 2=1+1:0:0:0:0, 0=0+0:0:0:0:0, 0=0+0:0:0:0:0, 0=0+0:0:0:0:0, 5=3+2:0:0:0:0, 5=4+1:0:0:0:0, 5=2+3:1:0:0:3, 8=6+2:0:0:0:0, 2=2+0:0:0:0:0, 0=0+0:0:0:0:0, 1=1+0:0:0:0:0, 4=3+1:0:0:0:0, 5=4+1:0:0:0:0, 0=0+0:0:0:0:0, 0=0+0:0:0:0:0, 2=1+1:0:1:0:0, 2=2+0:0:0:0:0,  , 9=5+4:0:0:0:0, 10=5+5:0:0:0:0, 2=2+0:0:0:0:0, 5=3+2:0:0:0:0, 1=1+0:0:0:0:0, 140=94+46:3:4:0:7
F# minor (3#), 2=2+0:0:0:0:0, 3=2+1:0:0:0:0, 2=2+0:0:0:0:0, 5=4+1:1:0:0:1, 6=6+0:0:0:0:0, 9=7+2:0:0:0:2, 1=1+0:0:0:0:0, 5=3+2:1:0:0:2, 4=4+0:0:0:0:0, 6=4+2:0:0:0:0, 3=3+0:0:0:0:0, 4=3+1:1:0:0:0, 8=4+4:0:0:0:0, 6=4+2:0:0:0:0, 5=3+2:0:0:0:0, 1=1+0:0:0:0:0, 5=3+2:0:1:0:1, 7=7+0:0:0:0:0, 5=4+1:0:0:0:0, 3=1+2:1:0:0:1, 4=3+1:0:0:0:0, 12=8+4:3:0:0:3, 8=7+1:0:0:0:1, 1=0+1:0:0:0:1, 8=6+2:0:0:0:0, 5=4+1:0:0:0:0, 8=4+4:0:0:0:0, 3=2+1:0:0:0:0, 4=4+0:0:0:0:0, 6=6+0:0:0:0:0, 6=4+2:0:0:0:0, 7=4+3:1:0:0:3, 8=5+3:1:0:0:3, 14=8+6:0:0:0:4, 5=4+1:0:0:0:0, 1=1+0:0:0:0:0, 3=3+0:0:0:0:0, 5=4+1:0:0:0:0, 5=3+2:0:0:0:0, 3=1+2:0:0:0:0, 6=6+0:0:0:0:0, 5=4+1:0:0:0:1, 1=1+0:0:0:0:0,  , 10=6+4:2:0:0:2, 11=7+4:0:0:0:0, 6=4+2:0:0:0:0, 7=4+3:0:0:0:2, 2=2+0:0:0:0:0, 254=183+71:11:1:0:27
C minor mel (3b),  ,  ,  ,  ,  ,  ,  ,  ,  ,  ,  ,  ,  ,  ,  ,  ,  ,  ,  ,  ,  ,  ,  ,  ,  ,  ,  ,  ,  ,  ,  ,  ,  ,  ,  ,  ,  ,  ,  ,  ,  ,  ,  ,  ,  ,  ,  ,  ,  , 0=0+0:0:0:0:0
F# minor mel (3#),  ,  ,  ,  ,  ,  ,  ,  ,  ,  ,  ,  ,  ,  ,  ,  ,  ,  ,  ,  ,  ,  ,  ,  ,  ,  ,  ,  ,  ,  ,  ,  ,  ,  ,  ,  ,  ,  ,  ,  ,  ,  ,  ,  ,  ,  ,  ,  ,  , 0=0+0:0:0:0:0
Eb major blues (3b),  ,  ,  ,  ,  ,  ,  ,  ,  ,  ,  ,  ,  ,  ,  ,  ,  ,  ,  ,  ,  ,  ,  ,  ,  ,  ,  ,  ,  ,  ,  ,  ,  ,  ,  ,  ,  ,  ,  ,  ,  ,  ,  ,  ,  ,  ,  ,  ,  , 0=0+0:0:0:0:0
A major blues (3#),  ,  ,  ,  ,  ,  ,  ,  ,  ,  ,  ,  ,  ,  ,  ,  ,  ,  ,  ,  ,  ,  ,  ,  ,  ,  ,  ,  ,  ,  ,  ,  ,  ,  ,  ,  ,  ,  ,  ,  ,  ,  ,  ,  ,  ,  ,  ,  ,  , 0=0+0:0:0:0:0
C minor blues (3b),  ,  ,  ,  ,  ,  ,  ,  ,  ,  ,  ,  ,  ,  ,  ,  ,  ,  ,  ,  ,  ,  ,  ,  ,  ,  ,  ,  ,  ,  ,  ,  ,  ,  ,  ,  ,  ,  ,  ,  ,  ,  ,  ,  ,  ,  ,  ,  ,  , 0=0+0:0:0:0:0
F# minor blues (3#),  ,  ,  ,  ,  ,  ,  ,  ,  ,  ,  ,  ,  ,  ,  ,  ,  ,  ,  ,  ,  ,  ,  ,  ,  ,  ,  ,  ,  ,  ,  ,  ,  ,  ,  ,  ,  ,  ,  ,  ,  ,  ,  ,  ,  ,  ,  ,  ,  , 0=0+0:0:0:0:0
Eb dorian (3b),  ,  ,  ,  ,  ,  ,  ,  ,  ,  ,  ,  ,  ,  ,  ,  ,  ,  ,  ,  ,  ,  ,  ,  ,  ,  ,  ,  ,  ,  ,  ,  ,  ,  ,  ,  ,  ,  ,  ,  ,  ,  ,  ,  ,  ,  ,  ,  ,  , 0=0+0:0:0:0:0
A dorian (3#),  ,  ,  ,  ,  ,  ,  ,  ,  ,  ,  ,  ,  ,  ,  ,  ,  ,  ,  ,  ,  ,  ,  ,  ,  ,  ,  ,  ,  ,  ,  ,  ,  ,  ,  ,  ,  ,  ,  ,  ,  ,  ,  ,  ,  ,  ,  ,  ,  , 0=0+0:0:0:0:0
Eb phrygian (3b),  ,  ,  ,  ,  ,  ,  ,  ,  ,  ,  ,  ,  ,  ,  ,  ,  ,  ,  ,  ,  ,  ,  ,  ,  ,  ,  ,  ,  ,  ,  ,  ,  ,  ,  ,  ,  ,  ,  ,  ,  ,  ,  ,  ,  ,  ,  ,  ,  , 0=0+0:0:0:0:0
A phrygian (3#),  ,  ,  ,  ,  ,  ,  ,  ,  ,  ,  ,  ,  ,  ,  ,  ,  ,  ,  ,  ,  ,  ,  ,  ,  ,  ,  ,  ,  ,  ,  ,  ,  ,  ,  ,  ,  ,  ,  ,  ,  ,  ,  ,  ,  ,  ,  ,  ,  , 0=0+0:0:0:0:0
Eb lydian (3b),  ,  ,  ,  ,  ,  ,  ,  ,  ,  ,  ,  ,  ,  ,  ,  ,  ,  ,  ,  ,  ,  ,  ,  ,  ,  ,  ,  ,  ,  ,  ,  ,  ,  ,  ,  ,  ,  ,  ,  ,  ,  ,  ,  ,  ,  ,  ,  ,  , 0=0+0:0:0:0:0
A lydian (3#),  ,  ,  ,  ,  ,  ,  ,  ,  ,  ,  ,  ,  ,  ,  ,  ,  ,  ,  ,  ,  ,  ,  ,  ,  ,  ,  ,  ,  ,  ,  ,  ,  ,  ,  ,  ,  ,  ,  ,  ,  ,  ,  ,  ,  ,  ,  ,  ,  , 0=0+0:0:0:0:0
Eb mixolydian (3b),  ,  ,  ,  ,  ,  ,  ,  ,  ,  ,  ,  ,  ,  ,  ,  ,  ,  ,  ,  ,  ,  ,  ,  ,  ,  ,  ,  ,  ,  ,  ,  ,  ,  ,  ,  ,  ,  ,  ,  ,  ,  ,  ,  ,  ,  ,  ,  ,  , 0=0+0:0:0:0:0
A mixolydian (3#),  ,  ,  ,  ,  ,  ,  ,  ,  ,  ,  ,  ,  ,  ,  ,  ,  ,  ,  ,  ,  ,  ,  ,  ,  ,  ,  ,  ,  ,  ,  ,  ,  ,  ,  ,  ,  ,  ,  ,  ,  ,  ,  ,  ,  ,  ,  ,  ,  , 0=0+0:0:0:0:0
Eb aeolian (3b),  ,  ,  ,  ,  ,  ,  ,  ,  ,  ,  ,  ,  ,  ,  ,  ,  ,  ,  ,  ,  ,  ,  ,  ,  ,  ,  ,  ,  ,  ,  ,  ,  ,  ,  ,  ,  ,  ,  ,  ,  ,  ,  ,  ,  ,  ,  ,  ,  , 0=0+0:0:0:0:0
A aeolian (3#),  ,  ,  ,  ,  ,  ,  ,  ,  ,  ,  ,  ,  ,  ,  ,  ,  ,  ,  ,  ,  ,  ,  ,  ,  ,  ,  ,  ,  ,  ,  ,  ,  ,  ,  ,  ,  ,  ,  ,  ,  ,  ,  ,  ,  ,  ,  ,  ,  , 0=0+0:0:0:0:0
Eb locrian (3b),  ,  ,  ,  ,  ,  ,  ,  ,  ,  ,  ,  ,  ,  ,  ,  ,  ,  ,  ,  ,  ,  ,  ,  ,  ,  ,  ,  ,  ,  ,  ,  ,  ,  ,  ,  ,  ,  ,  ,  ,  ,  ,  ,  ,  ,  ,  ,  ,  , 0=0+0:0:0:0:0
A locrian (3#),  ,  ,  ,  ,  ,  ,  ,  ,  ,  ,  ,  ,  ,  ,  ,  ,  ,  ,  ,  ,  ,  ,  ,  ,  ,  ,  ,  ,  ,  ,  ,  ,  ,  ,  ,  ,  ,  ,  ,  ,  ,  ,  ,  ,  ,  ,  ,  ,  , 0=0+0:0:0:0:0
Ab major (4b), 2=2+0:0:0:0:0, 7=5+2:0:1:0:1, 3=3+0:0:0:0:0, 3=2+1:0:0:0:0, 0=0+0:0:0:0:0, 4=2+2:0:0:0:1, 3=3+0:0:0:0:0, 4=2+2:0:1:0:0, 1=1+0:0:0:0:0, 2=1+1:0:0:0:0, 2=2+0:0:0:0:0, 2=2+0:0:0:0:0, 3=2+1:0:0:0:0, 7=5+2:0:0:0:0, 1=1+0:0:0:0:0, 0=0+0:0:0:0:0, 3=1+2:0:2:0:0, 0=0+0:0:0:0:0, 5=4+1:0:0:0:0, 2=1+1:0:0:0:0, 1=1+0:0:0:0:0, 11=7+4:2:0:0:2, 2=1+1:0:0:0:1, 1=1+0:0:0:0:0, 7=5+2:2:0:0:2, 3=2+1:0:0:0:0, 3=2+1:0:0:0:0, 0=0+0:0:0:0:0, 1=1+0:0:0:0:0, 0=0+0:0:0:0:0, 5=3+2:0:0:0:0, 4=3+1:0:0:0:0, 6=3+3:1:0:0:3, 6=4+2:0:0:0:0, 3=2+1:0:0:0:0, 1=1+0:0:0:0:0, 1=1+0:0:0:0:0, 5=4+1:0:0:0:0, 6=5+1:0:0:0:0, 1=1+0:0:0:0:0, 0=0+0:0:0:0:0, 2=1+1:0:1:0:0, 3=3+0:0:0:0:0,  , 9=5+4:0:0:0:0, 9=4+5:0:0:0:0, 2=2+0:0:0:0:0, 6=4+2:0:0:0:0, 2=2+0:0:0:0:0, 154=107+47:5:5:0:10
E major (4#), 2=2+0:0:0:0:0, 5=3+2:1:0:0:0, 5=3+2:0:0:0:0, 6=5+1:1:0:0:1, 6=6+0:0:0:0:0, 9=7+2:0:0:0:2, 2=2+0:0:0:0:0, 5=3+2:1:0:0:2, 5=5+0:0:0:0:0, 4=3+1:0:0:0:0, 4=4+0:0:0:0:0, 5=4+1:0:0:0:0, 8=4+4:0:0:0:0, 7=5+2:0:0:0:0, 6=4+2:0:0:0:0, 1=1+0:0:0:0:0, 5=3+2:0:1:0:1, 7=7+0:0:0:0:0, 6=5+1:0:0:0:0, 4=3+1:0:0:0:0, 3=3+0:0:0:0:0, 13=8+5:1:0:0:4, 7=6+1:1:0:0:1, 0=0+0:0:0:0:0, 9=7+2:0:0:0:0, 5=4+1:0:0:0:0, 9=5+4:0:0:0:0, 2=1+1:0:0:0:1, 5=5+0:0:0:0:0, 6=6+0:0:0:0:0, 8=4+4:0:0:0:4, 7=5+2:0:0:0:2, 7=4+3:0:0:0:2, 14=8+6:2:0:0:4, 5=4+1:0:0:0:1, 2=2+0:0:0:0:0, 3=3+0:0:0:0:0, 6=5+1:0:0:0:0, 6=4+2:0:0:0:0, 4=2+2:0:0:0:0, 6=6+0:0:0:0:0, 5=4+1:0:0:0:1, 2=2+0:0:0:0:0,  , 9=5+4:2:0:0:2, 11=7+4:0:0:0:0, 6=4+2:0:0:0:0, 8=5+3:0:0:0:2, 3=3+0:0:0:0:0, 273=201+72:9:1:0:30
F minor (4b), 2=2+0:0:0:0:0, 7=5+2:0:1:0:1, 3=3+0:0:0:0:0, 3=2+1:0:0:0:0, 0=0+0:0:0:0:0, 4=2+2:0:0:0:1, 3=3+0:0:0:0:0, 4=2+2:0:1:0:0, 1=1+0:0:0:0:0, 2=1+1:0:0:0:0, 2=2+0:0:0:0:0, 2=2+0:0:0:0:0, 3=2+1:0:0:0:0, 7=5+2:0:0:0:0, 1=1+0:0:0:0:0, 0=0+0:0:0:0:0, 3=1+2:0:2:0:2, 0=0+0:0:0:0:0, 5=4+1:0:0:0:0, 2=1+1:0:0:0:0, 1=1+0:0:0:0:0, 11=7+4:2:0:0:2, 2=1+1:0:0:0:0, 1=1+0:0:0:0:0, 7=5+2:2:0:0:2, 3=2+1:0:0:0:0, 3=2+1:0:0:0:0, 0=0+0:0:0:0:0, 1=1+0:0:0:0:0, 0=0+0:0:0:0:0, 5=3+2:0:0:0:0, 4=3+1:0:0:0:0, 6=3+3:1:0:0:3, 6=4+2:0:0:0:0, 2=2+0:0:0:0:0, 1=1+0:0:0:0:0, 1=1+0:0:0:0:0, 5=4+1:0:0:0:0, 6=5+1:0:0:0:0, 1=1+0:0:0:0:0, 0=0+0:0:0:0:0, 2=1+1:0:1:0:0, 3=3+0:0:0:0:0,  , 9=5+4:0:0:0:0, 7=4+3:0:0:0:0, 2=2+0:0:0:0:0, 6=4+2:0:0:0:0, 2=2+0:0:0:0:0, 151=107+44:5:5:0:11
C# minor (4#), 3=2+1:0:0:0:0, 5=3+2:1:0:0:0, 5=3+2:0:0:0:0, 6=5+1:1:0:0:1, 6=6+0:0:0:0:0, 9=7+2:0:0:0:2, 3=2+1:0:0:0:0, 5=3+2:1:0:0:2, 5=5+0:0:0:0:0, 4=4+0:0:0:0:0, 4=4+0:0:0:0:0, 4=4+0:0:0:0:0, 8=5+3:0:0:0:1, 8=5+3:1:0:0:2, 4=4+0:0:0:0:0, 1=1+0:0:0:0:0, 5=3+2:0:1:0:1, 7=7+0:0:0:0:0, 7=5+2:0:0:0:0, 4=3+1:0:0:0:0, 3=3+0:0:0:0:0, 13=8+5:3:0:0:3, 8=7+1:0:0:0:1, 0=0+0:0:0:0:0, 11=7+4:0:0:0:0, 6=4+2:1:0:0:1, 6=5+1:0:0:0:0, 2=2+0:0:0:0:0, 7=5+2:0:0:0:0, 6=6+0:0:0:0:0, 6=4+2:0:0:0:0, 7=4+3:1:0:0:3, 9=4+5:2:0:0:4, 12=10+2:0:1:0:1, 5=4+1:0:0:0:0, 2=2+0:0:0:0:0, 3=3+0:0:0:0:0, 8=5+3:1:0:0:1, 6=4+2:0:0:0:0, 2=2+0:0:0:0:0, 6=6+0:0:0:0:0, 5=4+1:0:0:0:1, 5=2+3:0:0:0:0,  , 10=6+4:1:0:0:3, 12=7+5:0:0:0:0, 5=4+1:0:0:0:0, 8=5+3:2:0:0:2, 3=3+0:0:0:0:0, 279=207+72:15:2:0:29
F minor mel (4b),  ,  ,  ,  ,  ,  ,  ,  ,  ,  ,  ,  ,  ,  ,  ,  ,  ,  ,  ,  ,  ,  ,  ,  ,  ,  ,  ,  ,  ,  ,  ,  ,  ,  ,  ,  ,  ,  ,  ,  ,  ,  ,  ,  ,  ,  ,  ,  ,  , 0=0+0:0:0:0:0
C# minor mel (4#),  ,  ,  ,  ,  ,  ,  ,  ,  ,  ,  ,  ,  ,  ,  ,  ,  ,  ,  ,  ,  ,  ,  ,  ,  ,  ,  ,  ,  ,  ,  ,  ,  ,  ,  ,  ,  ,  ,  ,  ,  ,  ,  ,  ,  ,  ,  ,  ,  , 0=0+0:0:0:0:0
Ab major blues (4b),  ,  ,  ,  ,  ,  ,  ,  ,  ,  ,  ,  ,  ,  ,  ,  ,  ,  ,  ,  ,  ,  ,  ,  ,  ,  ,  ,  ,  ,  ,  ,  ,  ,  ,  ,  ,  ,  ,  ,  ,  ,  ,  ,  ,  ,  ,  ,  ,  , 0=0+0:0:0:0:0
E major blues (4#),  ,  ,  ,  ,  ,  ,  ,  ,  ,  ,  ,  ,  ,  ,  ,  ,  ,  ,  ,  ,  ,  ,  ,  ,  ,  ,  ,  ,  ,  ,  ,  ,  ,  ,  ,  ,  ,  ,  ,  ,  ,  ,  ,  ,  ,  ,  ,  ,  , 0=0+0:0:0:0:0
F minor blues (4b),  ,  ,  ,  ,  ,  ,  ,  ,  ,  ,  ,  ,  ,  ,  ,  ,  ,  ,  ,  ,  ,  ,  ,  ,  ,  ,  ,  ,  ,  ,  ,  ,  ,  ,  ,  ,  ,  ,  ,  ,  ,  ,  ,  ,  ,  ,  ,  ,  , 0=0+0:0:0:0:0
C# minor blues (4#),  ,  ,  ,  ,  ,  ,  ,  ,  ,  ,  ,  ,  ,  ,  ,  ,  ,  ,  ,  ,  ,  ,  ,  ,  ,  ,  ,  ,  ,  ,  ,  ,  ,  ,  ,  ,  ,  ,  ,  ,  ,  ,  ,  ,  ,  ,  ,  ,  , 0=0+0:0:0:0:0
Ab dorian (4b),  ,  ,  ,  ,  ,  ,  ,  ,  ,  ,  ,  ,  ,  ,  ,  ,  ,  ,  ,  ,  ,  ,  ,  ,  ,  ,  ,  ,  ,  ,  ,  ,  ,  ,  ,  ,  ,  ,  ,  ,  ,  ,  ,  ,  ,  ,  ,  ,  , 0=0+0:0:0:0:0
E dorian (4#),  ,  ,  ,  ,  ,  ,  ,  ,  ,  ,  ,  ,  ,  ,  ,  ,  ,  ,  ,  ,  ,  ,  ,  ,  ,  ,  ,  ,  ,  ,  ,  ,  ,  ,  ,  ,  ,  ,  ,  ,  ,  ,  ,  ,  ,  ,  ,  ,  , 0=0+0:0:0:0:0
Ab phrygian (4b),  ,  ,  ,  ,  ,  ,  ,  ,  ,  ,  ,  ,  ,  ,  ,  ,  ,  ,  ,  ,  ,  ,  ,  ,  ,  ,  ,  ,  ,  ,  ,  ,  ,  ,  ,  ,  ,  ,  ,  ,  ,  ,  ,  ,  ,  ,  ,  ,  , 0=0+0:0:0:0:0
E phrygian (4#),  ,  ,  ,  ,  ,  ,  ,  ,  ,  ,  ,  ,  ,  ,  ,  ,  ,  ,  ,  ,  ,  ,  ,  ,  ,  ,  ,  ,  ,  ,  ,  ,  ,  ,  ,  ,  ,  ,  ,  ,  ,  ,  ,  ,  ,  ,  ,  ,  , 0=0+0:0:0:0:0
Ab lydian (4b),  ,  ,  ,  ,  ,  ,  ,  ,  ,  ,  ,  ,  ,  ,  ,  ,  ,  ,  ,  ,  ,  ,  ,  ,  ,  ,  ,  ,  ,  ,  ,  ,  ,  ,  ,  ,  ,  ,  ,  ,  ,  ,  ,  ,  ,  ,  ,  ,  , 0=0+0:0:0:0:0
E lydian (4#),  ,  ,  ,  ,  ,  ,  ,  ,  ,  ,  ,  ,  ,  ,  ,  ,  ,  ,  ,  ,  ,  ,  ,  ,  ,  ,  ,  ,  ,  ,  ,  ,  ,  ,  ,  ,  ,  ,  ,  ,  ,  ,  ,  ,  ,  ,  ,  ,  , 0=0+0:0:0:0:0
Ab mixolydian (4b),  ,  ,  ,  ,  ,  ,  ,  ,  ,  ,  ,  ,  ,  ,  ,  ,  ,  ,  ,  ,  ,  ,  ,  ,  ,  ,  ,  ,  ,  ,  ,  ,  ,  ,  ,  ,  ,  ,  ,  ,  ,  ,  ,  ,  ,  ,  ,  ,  , 0=0+0:0:0:0:0
E mixolydian (4#),  ,  ,  ,  ,  ,  ,  ,  ,  ,  ,  ,  ,  ,  ,  ,  ,  ,  ,  ,  ,  ,  ,  ,  ,  ,  ,  ,  ,  ,  ,  ,  ,  ,  ,  ,  ,  ,  ,  ,  ,  ,  ,  ,  ,  ,  ,  ,  ,  , 0=0+0:0:0:0:0
Ab aeolian (4b),  ,  ,  ,  ,  ,  ,  ,  ,  ,  ,  ,  ,  ,  ,  ,  ,  ,  ,  ,  ,  ,  ,  ,  ,  ,  ,  ,  ,  ,  ,  ,  ,  ,  ,  ,  ,  ,  ,  ,  ,  ,  ,  ,  ,  ,  ,  ,  ,  , 0=0+0:0:0:0:0
E aeolian (4#),  ,  ,  ,  ,  ,  ,  ,  ,  ,  ,  ,  ,  ,  ,  ,  ,  ,  ,  ,  ,  ,  ,  ,  ,  ,  ,  ,  ,  ,  ,  ,  ,  ,  ,  ,  ,  ,  ,  ,  ,  ,  ,  ,  ,  ,  ,  ,  ,  , 0=0+0:0:0:0:0
Ab locrian (4b),  ,  ,  ,  ,  ,  ,  ,  ,  ,  ,  ,  ,  ,  ,  ,  ,  ,  ,  ,  ,  ,  ,  ,  ,  ,  ,  ,  ,  ,  ,  ,  ,  ,  ,  ,  ,  ,  ,  ,  ,  ,  ,  ,  ,  ,  ,  ,  ,  , 0=0+0:0:0:0:0
E locrian (4#),  ,  ,  ,  ,  ,  ,  ,  ,  ,  ,  ,  ,  ,  ,  ,  ,  ,  ,  ,  ,  ,  ,  ,  ,  ,  ,  ,  ,  ,  ,  ,  ,  ,  ,  ,  ,  ,  ,  ,  ,  ,  ,  ,  ,  ,  ,  ,  ,  , 0=0+0:0:0:0:0
Db major (5b), 3=2+1:0:0:0:0, 9=6+3:0:1:0:0, 4=4+0:0:0:0:0, 4=3+1:0:0:0:0, 1=1+0:0:0:0:0, 5=3+2:0:0:0:1, 4=3+1:0:0:0:0, 2=1+1:0:0:0:0, 2=2+0:0:0:0:0, 2=2+0:0:0:0:0, 3=3+0:0:0:0:0, 3=3+0:0:0:0:0, 6=3+3:0:0:0:1, 9=6+3:0:0:0:1, 2=2+0:0:0:0:0, 0=0+0:0:0:0:0, 1=1+0:0:0:0:0, 1=1+0:0:0:0:0, 7=5+2:0:0:0:0, 2=1+1:0:0:0:0, 2=2+0:0:0:0:0, 11=7+4:1:0:0:1, 3=2+1:0:0:0:1, 1=1+0:0:0:0:0, 7=5+2:0:0:0:0, 5=3+2:0:0:0:0, 4=3+1:0:0:0:0, 0=0+0:0:0:0:0, 1=1+0:0:0:0:0, 1=1+0:0:0:0:0, 6=4+2:0:0:0:0, 2=2+0:0:0:0:0, 6=3+3:0:0:0:2, 8=6+2:0:0:0:0, 4=3+1:0:0:0:0, 1=1+0:0:0:0:0, 2=2+0:0:0:0:0, 8=5+3:0:0:0:0, 7=6+1:0:0:0:0, 1=1+0:0:0:0:0, 0=0+0:0:0:0:0, 2=1+1:0:1:0:0, 3=3+0:0:0:0:0,  , 8=5+3:0:1:0:3, 9=5+4:0:0:0:2, 4=3+1:0:0:0:0, 9=5+4:0:0:0:0, 2=2+0:0:0:0:0, 187=134+53:1:3:0:12
B major (5#), 4=3+1:0:0:0:0, 5=4+1:0:0:0:0, 6=4+2:0:0:0:0, 7=6+1:0:0:0:0, 6=6+0:0:0:0:0, 9=6+3:1:0:0:3, 4=3+1:0:0:0:0, 5=3+2:1:0:0:2, 5=5+0:0:0:0:0, 6=4+2:1:0:0:1, 5=5+0:0:0:0:0, 5=4+1:0:0:0:1, 7=3+4:0:0:0:0, 8=6+2:0:0:0:0, 4=4+0:0:0:0:0, 1=1+0:0:0:0:0, 5=3+2:0:1:0:1, 7=7+0:0:0:0:0, 8=6+2:0:0:0:0, 4=3+1:0:0:0:0, 5=4+1:0:0:0:0, 12=8+4:3:0:0:3, 9=8+1:0:0:0:1, 0=0+0:0:0:0:0, 10=8+2:0:0:0:0, 6=5+1:0:0:0:0, 6=5+1:0:0:0:0, 2=2+0:0:0:0:0, 7=5+2:0:0:0:0, 6=6+0:0:0:0:0, 8=6+2:0:0:0:0, 7=4+3:1:0:0:3, 9=4+5:2:0:0:4, 13=11+2:0:1:0:1, 6=5+1:0:0:0:0, 2=2+0:0:0:0:0, 4=4+0:0:0:0:0, 7=6+1:0:0:0:0, 7=5+2:0:0:0:0, 4=2+2:0:0:0:0, 6=6+0:0:0:0:0, 5=4+1:0:0:0:1, 6=3+3:0:0:0:0,  , 10=8+2:0:0:0:1, 13=8+5:0:0:0:0, 6=5+1:0:0:0:0, 9=6+3:2:0:0:2, 3=3+0:0:0:0:0, 299=229+70:11:2:0:24
Bb minor (5b), 2=2+0:0:0:0:0, 8=6+2:0:1:0:1, 4=4+0:0:0:0:0, 4=3+1:0:0:0:0, 1=1+0:0:0:0:0, 5=3+2:0:0:0:1, 3=3+0:0:0:0:0, 2=1+1:0:0:0:0, 2=2+0:0:0:0:0, 3=2+1:0:0:0:0, 3=3+0:0:0:0:0, 3=3+0:0:0:0:0, 4=3+1:0:0:0:0, 8=6+2:0:0:0:0, 2=2+0:0:0:0:0, 0=0+0:0:0:0:0, 1=1+0:0:0:0:0, 1=1+0:0:0:0:0, 6=5+1:0:0:0:0, 2=1+1:0:0:0:0, 2=2+0:0:0:0:0, 12=8+4:1:0:0:2, 3=2+1:0:0:0:0, 1=1+0:0:0:0:0, 7=5+2:0:0:0:0, 4=3+1:0:0:0:0, 4=3+1:0:0:0:0, 0=0+0:0:0:0:0, 1=1+0:0:0:0:0, 1=1+0:0:0:0:0, 6=4+2:0:0:0:0, 2=2+0:0:0:0:0, 6=3+3:0:0:0:0, 9=6+3:0:0:0:0, 3=3+0:0:0:0:0, 1=1+0:0:0:0:0, 2=2+0:0:0:0:0, 6=5+1:0:0:0:0, 7=6+1:0:0:0:0, 1=1+0:0:0:0:0, 0=0+0:0:0:0:0, 2=1+1:0:1:0:0, 3=3+0:0:0:0:0,  , 10=6+4:0:0:0:0, 10=5+5:0:0:0:0, 3=3+0:0:0:0:0, 7=5+2:0:0:0:0, 2=2+0:0:0:0:0, 179=136+43:1:2:0:4
G# minor (5#), 5=3+2:0:0:0:0, 6=4+2:1:0:0:1, 4=4+0:0:0:0:0, 6=5+1:1:0:0:1, 6=6+0:0:0:0:0, 9=6+3:1:0:0:3, 3=3+0:0:0:0:0, 5=3+2:1:0:0:2, 5=5+0:0:0:0:0, 6=4+2:1:0:0:1, 5=5+0:0:0:0:0, 6=5+1:0:0:0:0, 5=3+2:1:0:0:1, 8=6+2:1:0:0:1, 4=4+0:0:0:0:0, 1=1+0:0:0:0:0, 5=3+2:0:1:0:1, 7=7+0:0:0:0:0, 8=6+2:0:0:0:0, 4=3+1:0:0:0:0, 5=4+1:0:0:0:0, 12=8+4:3:0:0:3, 9=8+1:0:0:0:1, 0=0+0:0:0:0:0, 10=8+2:0:0:0:0, 6=5+1:1:0:0:1, 6=5+1:0:0:0:0, 2=2+0:0:0:0:0, 5=5+0:0:0:0:0, 6=6+0:0:0:0:0, 8=6+2:0:0:0:0, 7=4+3:1:0:0:3, 8=4+4:2:0:0:4, 13=11+2:0:1:0:1, 6=5+1:0:0:0:0, 2=2+0:0:0:0:0, 4=4+0:0:0:0:0, 7=6+1:1:0:0:1, 6=5+1:1:0:0:1, 2=2+0:0:0:0:0, 6=6+0:0:0:0:0, 5=4+1:0:0:0:1, 6=3+3:0:0:0:0,  , 10=8+2:0:0:0:1, 13=8+5:0:0:0:0, 6=5+1:0:0:0:0, 9=6+3:2:0:0:2, 3=3+0:0:0:0:0, 290=229+61:18:2:0:30
Bb minor mel (5b),  ,  ,  ,  ,  ,  ,  ,  ,  ,  ,  ,  ,  ,  ,  ,  ,  ,  ,  ,  ,  ,  ,  ,  ,  ,  ,  ,  ,  ,  ,  ,  ,  ,  ,  ,  ,  ,  ,  ,  ,  ,  ,  ,  ,  ,  ,  ,  ,  , 0=0+0:0:0:0:0
G# minor mel (5#),  ,  ,  ,  ,  ,  ,  ,  ,  ,  ,  ,  ,  ,  ,  ,  ,  ,  ,  ,  ,  ,  ,  ,  ,  ,  ,  ,  ,  ,  ,  ,  ,  ,  ,  ,  ,  ,  ,  ,  ,  ,  ,  ,  ,  ,  ,  ,  ,  , 0=0+0:0:0:0:0
Db major blues (5b),  ,  ,  ,  ,  ,  ,  ,  ,  ,  ,  ,  ,  ,  ,  ,  ,  ,  ,  ,  ,  ,  ,  ,  ,  ,  ,  ,  ,  ,  ,  ,  ,  ,  ,  ,  ,  ,  ,  ,  ,  ,  ,  ,  ,  ,  ,  ,  ,  , 0=0+0:0:0:0:0
B major blues (5#),  ,  ,  ,  ,  ,  ,  ,  ,  ,  ,  ,  ,  ,  ,  ,  ,  ,  ,  ,  ,  ,  ,  ,  ,  ,  ,  ,  ,  ,  ,  ,  ,  ,  ,  ,  ,  ,  ,  ,  ,  ,  ,  ,  ,  ,  ,  ,  ,  , 0=0+0:0:0:0:0
Bb minor blues (5b),  ,  ,  ,  ,  ,  ,  ,  ,  ,  ,  ,  ,  ,  ,  ,  ,  ,  ,  ,  ,  ,  ,  ,  ,  ,  ,  ,  ,  ,  ,  ,  ,  ,  ,  ,  ,  ,  ,  ,  ,  ,  ,  ,  ,  ,  ,  ,  ,  , 0=0+0:0:0:0:0
G# minor blues (5#),  ,  ,  ,  ,  ,  ,  ,  ,  ,  ,  ,  ,  ,  ,  ,  ,  ,  ,  ,  ,  ,  ,  ,  ,  ,  ,  ,  ,  ,  ,  ,  ,  ,  ,  ,  ,  ,  ,  ,  ,  ,  ,  ,  ,  ,  ,  ,  ,  , 0=0+0:0:0:0:0
Db dorian (5b),  ,  ,  ,  ,  ,  ,  ,  ,  ,  ,  ,  ,  ,  ,  ,  ,  ,  ,  ,  ,  ,  ,  ,  ,  ,  ,  ,  ,  ,  ,  ,  ,  ,  ,  ,  ,  ,  ,  ,  ,  ,  ,  ,  ,  ,  ,  ,  ,  , 0=0+0:0:0:0:0
B dorian (5#),  ,  ,  ,  ,  ,  ,  ,  ,  ,  ,  ,  ,  ,  ,  ,  ,  ,  ,  ,  ,  ,  ,  ,  ,  ,  ,  ,  ,  ,  ,  ,  ,  ,  ,  ,  ,  ,  ,  ,  ,  ,  ,  ,  ,  ,  ,  ,  ,  , 0=0+0:0:0:0:0
Db phrygian (5b),  ,  ,  ,  ,  ,  ,  ,  ,  ,  ,  ,  ,  ,  ,  ,  ,  ,  ,  ,  ,  ,  ,  ,  ,  ,  ,  ,  ,  ,  ,  ,  ,  ,  ,  ,  ,  ,  ,  ,  ,  ,  ,  ,  ,  ,  ,  ,  ,  , 0=0+0:0:0:0:0
B phrygian (5#),  ,  ,  ,  ,  ,  ,  ,  ,  ,  ,  ,  ,  ,  ,  ,  ,  ,  ,  ,  ,  ,  ,  ,  ,  ,  ,  ,  ,  ,  ,  ,  ,  ,  ,  ,  ,  ,  ,  ,  ,  ,  ,  ,  ,  ,  ,  ,  ,  , 0=0+0:0:0:0:0
Db lydian (5b),  ,  ,  ,  ,  ,  ,  ,  ,  ,  ,  ,  ,  ,  ,  ,  ,  ,  ,  ,  ,  ,  ,  ,  ,  ,  ,  ,  ,  ,  ,  ,  ,  ,  ,  ,  ,  ,  ,  ,  ,  ,  ,  ,  ,  ,  ,  ,  ,  , 0=0+0:0:0:0:0
B lydian (5#),  ,  ,  ,  ,  ,  ,  ,  ,  ,  ,  ,  ,  ,  ,  ,  ,  ,  ,  ,  ,  ,  ,  ,  ,  ,  ,  ,  ,  ,  ,  ,  ,  ,  ,  ,  ,  ,  ,  ,  ,  ,  ,  ,  ,  ,  ,  ,  ,  , 0=0+0:0:0:0:0
Db mixolydian (5b),  ,  ,  ,  ,  ,  ,  ,  ,  ,  ,  ,  ,  ,  ,  ,  ,  ,  ,  ,  ,  ,  ,  ,  ,  ,  ,  ,  ,  ,  ,  ,  ,  ,  ,  ,  ,  ,  ,  ,  ,  ,  ,  ,  ,  ,  ,  ,  ,  , 0=0+0:0:0:0:0
B mixolydian (5#),  ,  ,  ,  ,  ,  ,  ,  ,  ,  ,  ,  ,  ,  ,  ,  ,  ,  ,  ,  ,  ,  ,  ,  ,  ,  ,  ,  ,  ,  ,  ,  ,  ,  ,  ,  ,  ,  ,  ,  ,  ,  ,  ,  ,  ,  ,  ,  ,  , 0=0+0:0:0:0:0
Db aeolian (5b),  ,  ,  ,  ,  ,  ,  ,  ,  ,  ,  ,  ,  ,  ,  ,  ,  ,  ,  ,  ,  ,  ,  ,  ,  ,  ,  ,  ,  ,  ,  ,  ,  ,  ,  ,  ,  ,  ,  ,  ,  ,  ,  ,  ,  ,  ,  ,  ,  , 0=0+0:0:0:0:0
B aeolian (5#),  ,  ,  ,  ,  ,  ,  ,  ,  ,  ,  ,  ,  ,  ,  ,  ,  ,  ,  ,  ,  ,  ,  ,  ,  ,  ,  ,  ,  ,  ,  ,  ,  ,  ,  ,  ,  ,  ,  ,  ,  ,  ,  ,  ,  ,  ,  ,  ,  , 0=0+0:0:0:0:0
Db locrian (5b),  ,  ,  ,  ,  ,  ,  ,  ,  ,  ,  ,  ,  ,  ,  ,  ,  ,  ,  ,  ,  ,  ,  ,  ,  ,  ,  ,  ,  ,  ,  ,  ,  ,  ,  ,  ,  ,  ,  ,  ,  ,  ,  ,  ,  ,  ,  ,  ,  , 0=0+0:0:0:0:0
B locrian (5#),  ,  ,  ,  ,  ,  ,  ,  ,  ,  ,  ,  ,  ,  ,  ,  ,  ,  ,  ,  ,  ,  ,  ,  ,  ,  ,  ,  ,  ,  ,  ,  ,  ,  ,  ,  ,  ,  ,  ,  ,  ,  ,  ,  ,  ,  ,  ,  ,  , 0=0+0:0:0:0:0
Gb major (6b), 4=3+1:0:0:0:0, 8=5+3:0:1:0:0, 5=4+1:0:0:0:0, 4=3+1:0:0:0:0, 3=2+1:0:0:0:0, 4=3+1:0:1:0:0, 5=4+1:0:0:0:0, 1=0+1:0:0:0:0, 2=2+0:0:0:0:0, 3=3+0:0:0:0:0, 5=4+1:0:0:0:0, 4=4+0:0:0:0:0, 7=4+3:0:0:0:1, 9=6+3:0:1:0:0, 3=3+0:0:0:0:0, 0=0+0:0:0:0:0, 0=0+0:0:0:0:0, 4=2+2:0:0:0:0, 8=6+2:0:0:0:0, 2=1+1:0:0:0:1, 3=3+0:0:0:0:0, 12=8+4:1:0:0:1, 5=4+1:0:0:0:1, 2=1+1:0:0:0:1, 10=6+4:0:0:0:0, 6=4+2:0:0:0:0, 4=3+1:0:0:0:0, 0=0+0:0:0:0:0, 2=2+0:0:0:0:0, 2=2+0:0:0:0:0, 8=6+2:0:0:0:0, 0=0+0:0:0:0:0, 6=3+3:0:0:0:2, 8=6+2:0:1:0:1, 5=4+1:0:0:0:0, 2=2+0:0:0:0:0, 3=3+0:0:0:0:0, 9=6+3:0:0:0:0, 8=6+2:1:0:0:1, 1=1+0:0:0:0:0, 1=1+0:0:0:0:0, 2=1+1:0:1:0:0, 5=4+1:0:0:0:0,  , 8=5+3:0:3:0:1, 9=5+4:0:2:0:0, 5=4+1:0:0:0:0, 10=6+4:0:0:0:0, 5=3+2:0:0:0:0, 222=158+64:2:10:0:10
F# major (6#), 7=4+3:0:0:0:1, 8=5+3:1:0:0:2, 6=5+1:0:0:0:0, 6=5+1:1:0:0:1, 6=6+0:0:0:0:0, 9=6+3:1:0:0:3, 5=4+1:0:0:0:0, 5=3+2:1:0:0:2, 5=5+0:0:0:0:0, 5=5+0:0:0:0:0, 6=5+1:0:0:0:0, 5=5+0:0:0:0:0, 8=4+4:1:0:0:2, 10=7+3:1:0:0:2, 4=4+0:0:0:0:0, 1=1+0:0:0:0:0, 5=3+2:0:1:0:1, 7=7+0:0:0:0:0, 9=7+2:0:0:0:0, 4=3+1:0:0:0:0, 5=4+1:0:0:0:0, 14=10+4:3:0:0:3, 9=8+1:0:0:0:1, 2=1+1:0:0:0:1, 13=9+4:0:0:0:0, 8=6+2:1:0:0:1, 6=5+1:0:0:0:0, 2=2+0:0:0:0:0, 5=5+0:0:0:0:0, 6=6+0:0:0:0:0, 9=7+2:0:0:0:0, 7=6+1:1:0:0:1, 9=6+3:1:0:0:3, 14=12+2:0:1:0:1, 7=6+1:0:0:0:0, 2=2+0:0:0:0:0, 4=4+0:0:0:0:0, 10=7+3:1:0:0:1, 8=6+2:1:0:0:1, 2=2+0:0:0:0:0, 6=6+0:0:0:0:0, 5=4+1:0:0:0:1, 7=4+3:0:0:0:0,  , 11=8+3:0:1:0:3, 14=9+5:0:0:0:0, 7=6+1:0:0:0:0, 10=7+3:2:0:0:2, 4=4+0:0:0:0:0, 327=256+71:16:3:0:33
Eb minor (6b), 4=3+1:0:0:0:0, 8=5+3:0:1:0:0, 5=4+1:0:0:0:0, 4=3+1:0:0:0:0, 2=2+0:0:0:0:0, 5=3+2:0:1:0:0, 5=4+1:0:0:0:0, 1=0+1:0:0:0:0, 2=2+0:0:0:0:0, 3=3+0:0:0:0:0, 4=4+0:0:0:0:0, 4=4+0:0:0:0:0, 7=4+3:0:0:0:1, 9=6+3:0:1:0:0, 3=3+0:0:0:0:0, 0=0+0:0:0:0:0, 0=0+0:0:0:0:0, 2=2+0:0:0:0:0, 7=6+1:0:0:0:0, 2=1+1:0:0:0:0, 3=3+0:0:0:0:0, 13=9+4:1:0:0:2, 5=4+1:0:0:0:0, 2=1+1:0:0:0:1, 10=6+4:0:0:0:0, 6=4+2:0:0:0:0, 4=3+1:0:0:0:0, 0=0+0:0:0:0:0, 2=2+0:0:0:0:0, 2=2+0:0:0:0:0, 8=6+2:0:0:0:0, 0=0+0:0:0:0:0, 6=3+3:0:0:0:2, 8=6+2:0:1:0:1, 5=4+1:0:0:0:0, 2=2+0:0:0:0:0, 3=3+0:0:0:0:0, 9=6+3:0:0:0:0, 8=6+2:1:0:0:1, 1=1+0:0:0:0:0, 1=1+0:0:0:0:0, 2=1+1:0:1:0:0, 5=4+1:0:0:0:0,  , 8=5+3:0:3:0:1, 10=5+5:0:2:0:0, 5=4+1:0:0:0:0, 10=6+4:0:0:0:0, 3=3+0:0:0:0:0, 218=159+59:2:10:0:9
D# minor (6#), 5=4+1:0:0:0:0, 8=5+3:1:0:0:2, 6=5+1:0:0:0:0, 6=5+1:1:0:0:1, 6=6+0:0:0:0:0, 8=5+3:2:0:0:3, 5=4+1:0:0:0:0, 5=4+1:1:0:0:1, 5=5+0:0:0:0:0, 5=5+0:0:0:0:0, 5=5+0:0:0:0:0, 5=5+0:0:0:0:0, 8=4+4:1:0:0:2, 10=7+3:1:0:0:2, 4=4+0:0:0:0:0, 1=1+0:0:0:0:0, 3=3+0:0:0:0:0, 7=7+0:0:0:0:0, 8=7+1:0:0:0:0, 3=2+1:1:0:0:1, 4=4+0:0:0:0:0, 14=10+4:2:0:0:3, 8=7+1:1:0:0:1, 2=1+1:0:0:0:1, 13=9+4:0:0:0:0, 8=6+2:1:0:0:1, 6=5+1:0:0:0:0, 2=2+0:0:0:0:0, 5=5+0:0:0:0:0, 6=6+0:0:0:0:0, 9=7+2:0:0:0:0, 7=6+1:1:0:0:1, 9=6+3:1:0:0:3, 14=12+2:0:1:0:1, 7=6+1:0:0:0:0, 2=2+0:0:0:0:0, 4=4+0:0:0:0:0, 10=7+3:1:0:0:1, 8=6+2:1:0:0:1, 2=2+0:0:0:0:0, 6=6+0:0:0:0:0, 5=4+1:0:0:0:1, 4=4+0:0:0:0:0,  , 11=8+3:0:1:0:3, 14=9+5:0:0:0:2, 7=6+1:0:0:0:0, 11=7+4:2:0:0:2, 4=4+0:0:0:0:0, 315=254+61:18:2:0:33
Eb minor mel (6b),  ,  ,  ,  ,  ,  ,  ,  ,  ,  ,  ,  ,  ,  ,  ,  ,  ,  ,  ,  ,  ,  ,  ,  ,  ,  ,  ,  ,  ,  ,  ,  ,  ,  ,  ,  ,  ,  ,  ,  ,  ,  ,  ,  ,  ,  ,  ,  ,  , 0=0+0:0:0:0:0
D# minor mel (6#),  ,  ,  ,  ,  ,  ,  ,  ,  ,  ,  ,  ,  ,  ,  ,  ,  ,  ,  ,  ,  ,  ,  ,  ,  ,  ,  ,  ,  ,  ,  ,  ,  ,  ,  ,  ,  ,  ,  ,  ,  ,  ,  ,  ,  ,  ,  ,  ,  , 0=0+0:0:0:0:0
Gb major blues (6b),  ,  ,  ,  ,  ,  ,  ,  ,  ,  ,  ,  ,  ,  ,  ,  ,  ,  ,  ,  ,  ,  ,  ,  ,  ,  ,  ,  ,  ,  ,  ,  ,  ,  ,  ,  ,  ,  ,  ,  ,  ,  ,  ,  ,  ,  ,  ,  ,  , 0=0+0:0:0:0:0
F# major blues (6#),  ,  ,  ,  ,  ,  ,  ,  ,  ,  ,  ,  ,  ,  ,  ,  ,  ,  ,  ,  ,  ,  ,  ,  ,  ,  ,  ,  ,  ,  ,  ,  ,  ,  ,  ,  ,  ,  ,  ,  ,  ,  ,  ,  ,  ,  ,  ,  ,  , 0=0+0:0:0:0:0
Eb minor blues (6b),  ,  ,  ,  ,  ,  ,  ,  ,  ,  ,  ,  ,  ,  ,  ,  ,  ,  ,  ,  ,  ,  ,  ,  ,  ,  ,  ,  ,  ,  ,  ,  ,  ,  ,  ,  ,  ,  ,  ,  ,  ,  ,  ,  ,  ,  ,  ,  ,  , 0=0+0:0:0:0:0
D# minor blues (6#),  ,  ,  ,  ,  ,  ,  ,  ,  ,  ,  ,  ,  ,  ,  ,  ,  ,  ,  ,  ,  ,  ,  ,  ,  ,  ,  ,  ,  ,  ,  ,  ,  ,  ,  ,  ,  ,  ,  ,  ,  ,  ,  ,  ,  ,  ,  ,  ,  , 0=0+0:0:0:0:0
Gb dorian (6b),  ,  ,  ,  ,  ,  ,  ,  ,  ,  ,  ,  ,  ,  ,  ,  ,  ,  ,  ,  ,  ,  ,  ,  ,  ,  ,  ,  ,  ,  ,  ,  ,  ,  ,  ,  ,  ,  ,  ,  ,  ,  ,  ,  ,  ,  ,  ,  ,  , 0=0+0:0:0:0:0
F# dorian (6#),  ,  ,  ,  ,  ,  ,  ,  ,  ,  ,  ,  ,  ,  ,  ,  ,  ,  ,  ,  ,  ,  ,  ,  ,  ,  ,  ,  ,  ,  ,  ,  ,  ,  ,  ,  ,  ,  ,  ,  ,  ,  ,  ,  ,  ,  ,  ,  ,  , 0=0+0:0:0:0:0
Gb phrygian (6b),  ,  ,  ,  ,  ,  ,  ,  ,  ,  ,  ,  ,  ,  ,  ,  ,  ,  ,  ,  ,  ,  ,  ,  ,  ,  ,  ,  ,  ,  ,  ,  ,  ,  ,  ,  ,  ,  ,  ,  ,  ,  ,  ,  ,  ,  ,  ,  ,  , 0=0+0:0:0:0:0
F# phrygian (6#),  ,  ,  ,  ,  ,  ,  ,  ,  ,  ,  ,  ,  ,  ,  ,  ,  ,  ,  ,  ,  ,  ,  ,  ,  ,  ,  ,  ,  ,  ,  ,  ,  ,  ,  ,  ,  ,  ,  ,  ,  ,  ,  ,  ,  ,  ,  ,  ,  , 0=0+0:0:0:0:0
Gb lydian (6b),  ,  ,  ,  ,  ,  ,  ,  ,  ,  ,  ,  ,  ,  ,  ,  ,  ,  ,  ,  ,  ,  ,  ,  ,  ,  ,  ,  ,  ,  ,  ,  ,  ,  ,  ,  ,  ,  ,  ,  ,  ,  ,  ,  ,  ,  ,  ,  ,  , 0=0+0:0:0:0:0
F# lydian (6#),  ,  ,  ,  ,  ,  ,  ,  ,  ,  ,  ,  ,  ,  ,  ,  ,  ,  ,  ,  ,  ,  ,  ,  ,  ,  ,  ,  ,  ,  ,  ,  ,  ,  ,  ,  ,  ,  ,  ,  ,  ,  ,  ,  ,  ,  ,  ,  ,  , 0=0+0:0:0:0:0
Gb mixolydian (6b),  ,  ,  ,  ,  ,  ,  ,  ,  ,  ,  ,  ,  ,  ,  ,  ,  ,  ,  ,  ,  ,  ,  ,  ,  ,  ,  ,  ,  ,  ,  ,  ,  ,  ,  ,  ,  ,  ,  ,  ,  ,  ,  ,  ,  ,  ,  ,  ,  , 0=0+0:0:0:0:0
F# mixolydian (6#),  ,  ,  ,  ,  ,  ,  ,  ,  ,  ,  ,  ,  ,  ,  ,  ,  ,  ,  ,  ,  ,  ,  ,  ,  ,  ,  ,  ,  ,  ,  ,  ,  ,  ,  ,  ,  ,  ,  ,  ,  ,  ,  ,  ,  ,  ,  ,  ,  , 0=0+0:0:0:0:0
Gb aeolian (6b),  ,  ,  ,  ,  ,  ,  ,  ,  ,  ,  ,  ,  ,  ,  ,  ,  ,  ,  ,  ,  ,  ,  ,  ,  ,  ,  ,  ,  ,  ,  ,  ,  ,  ,  ,  ,  ,  ,  ,  ,  ,  ,  ,  ,  ,  ,  ,  ,  , 0=0+0:0:0:0:0
F# aeolian (6#),  ,  ,  ,  ,  ,  ,  ,  ,  ,  ,  ,  ,  ,  ,  ,  ,  ,  ,  ,  ,  ,  ,  ,  ,  ,  ,  ,  ,  ,  ,  ,  ,  ,  ,  ,  ,  ,  ,  ,  ,  ,  ,  ,  ,  ,  ,  ,  ,  , 0=0+0:0:0:0:0
Gb locrian (6b),  ,  ,  ,  ,  ,  ,  ,  ,  ,  ,  ,  ,  ,  ,  ,  ,  ,  ,  ,  ,  ,  ,  ,  ,  ,  ,  ,  ,  ,  ,  ,  ,  ,  ,  ,  ,  ,  ,  ,  ,  ,  ,  ,  ,  ,  ,  ,  ,  , 0=0+0:0:0:0:0
F# locrian (6#),  ,  ,  ,  ,  ,  ,  ,  ,  ,  ,  ,  ,  ,  ,  ,  ,  ,  ,  ,  ,  ,  ,  ,  ,  ,  ,  ,  ,  ,  ,  ,  ,  ,  ,  ,  ,  ,  ,  ,  ,  ,  ,  ,  ,  ,  ,  ,  ,  , 0=0+0:0:0:0:0
Cb major (7b), 5=4+1:0:0:0:0, 6=5+1:0:1:0:1, 7=5+2:0:0:0:0, 5=4+1:0:0:0:0, 3=3+0:0:0:0:0, 6=4+2:0:0:0:1, 5=4+1:0:0:0:0, 0=0+0:0:0:0:0, 5=4+1:0:0:0:0, 3=3+0:0:0:0:0, 6=5+1:0:0:0:0, 5=4+1:0:0:0:0, 6=5+1:0:0:0:0, 9=7+2:0:1:0:1, 3=3+0:0:0:0:0, 1=1+0:0:0:0:0, 1=1+0:0:0:0:0, 4=4+0:0:0:0:0, 8=5+3:0:1:0:1, 2=1+1:0:0:0:0, 4=3+1:0:0:0:0, 13=9+4:1:0:0:1, 6=5+1:0:0:0:1, 1=1+0:0:0:0:0, 10=8+2:0:0:0:0, 7=6+1:0:0:0:0, 5=4+1:0:0:0:0, 1=1+0:0:0:0:0, 5=3+2:0:0:0:0, 4=4+0:0:0:0:0, 7=5+2:0:2:0:2, 0=0+0:0:0:0:0, 7=3+4:0:2:0:0, 9=7+2:0:1:0:1, 6=5+1:0:0:0:0, 2=2+0:0:0:0:0, 4=4+0:0:0:0:0, 8=7+1:0:0:0:0, 9=7+2:0:0:0:0, 2=1+1:0:0:0:0, 3=3+0:0:0:0:0, 3=2+1:0:1:0:0, 7=4+3:0:0:0:0,  , 6=4+2:0:0:0:1, 11=6+5:0:2:0:2, 6=5+1:0:0:0:0, 10=7+3:0:0:0:0, 4=4+0:0:0:0:0, 250=192+58:1:11:0:12
C# major (7#), 5=4+1:0:0:0:0, 9=6+3:1:0:0:2, 5=5+0:0:0:0:0, 6=5+1:1:0:0:1, 6=6+0:0:0:0:0, 9=7+2:1:0:0:2, 4=4+0:0:0:0:0, 6=4+2:1:0:0:2, 5=5+0:0:0:0:0, 5=5+0:0:0:0:0, 5=5+0:0:0:0:0, 5=5+0:0:0:0:0, 9=6+3:0:0:0:1, 11=8+3:1:0:0:2, 4=4+0:0:0:0:0, 1=1+0:0:0:0:0, 5=3+2:0:2:0:0, 7=7+0:0:0:0:0, 9=7+2:0:0:0:0, 4=3+1:0:0:0:0, 4=4+0:0:0:0:0, 14=10+4:3:0:0:3, 9=8+1:0:0:0:1, 1=1+0:0:0:0:0, 11=9+2:0:0:0:0, 8=6+2:1:0:0:1, 6=5+1:0:0:0:0, 2=2+0:0:0:0:0, 5=5+0:0:0:0:0, 6=6+0:0:0:0:0, 9=7+2:0:0:0:0, 9=6+3:1:0:0:3, 9=6+3:1:0:0:3, 14=12+2:0:1:0:1, 7=6+1:0:0:0:0, 2=2+0:0:0:0:0, 4=4+0:0:0:0:0, 10=7+3:1:0:0:1, 7=6+1:1:0:0:1, 2=2+0:0:0:0:0, 6=6+0:0:0:0:0, 6=5+1:0:0:0:1, 7=4+3:0:0:0:0,  , 11=8+3:0:1:0:3, 14=9+5:0:0:0:0, 7=6+1:0:0:0:0, 10=7+3:2:0:0:2, 4=4+0:0:0:0:0, 324=263+61:15:4:0:30
Ab minor (7b), 6=4+2:0:0:0:0, 7=5+2:0:1:0:1, 5=5+0:0:0:0:0, 5=4+1:0:0:0:0, 3=3+0:0:0:0:0, 6=4+2:0:1:0:1, 5=4+1:0:0:0:0, 2=0+2:0:1:0:0, 4=4+0:0:0:0:0, 5=3+2:0:0:0:0, 6=5+1:0:0:0:0, 5=4+1:0:0:0:0, 6=5+1:0:0:0:0, 9=7+2:0:1:0:1, 3=3+0:0:0:0:0, 1=1+0:0:0:0:0, 1=1+0:0:0:0:0, 4=4+0:0:0:0:0, 8=5+3:0:1:0:1, 2=1+1:0:0:0:0, 4=3+1:0:0:0:0, 13=9+4:1:0:0:1, 6=5+1:0:0:0:1, 1=1+0:0:0:0:0, 10=8+2:0:0:0:0, 6=5+1:0:0:0:0, 5=4+1:0:0:0:0, 1=1+0:0:0:0:0, 3=3+0:0:0:0:0, 4=4+0:0:0:0:0, 8=6+2:0:0:0:0, 1=0+1:0:0:0:0, 6=3+3:0:2:0:0, 9=7+2:0:1:0:1, 6=5+1:0:0:0:0, 2=2+0:0:0:0:0, 4=4+0:0:0:0:0, 8=7+1:0:0:0:0, 8=7+1:1:0:0:1, 1=1+0:0:0:0:0, 3=3+0:0:0:0:0, 3=2+1:0:1:0:0, 7=4+3:0:0:0:0,  , 6=4+2:0:0:0:1, 11=6+5:0:2:0:2, 6=5+1:0:0:0:0, 10=7+3:0:0:0:0, 4=4+0:0:0:0:0, 249=192+57:2:11:0:11
A# minor (7#), 4=4+0:0:0:0:0, 8=6+2:1:0:0:1, 5=5+0:0:0:0:0, 6=5+1:1:0:0:1, 6=6+0:0:0:0:0, 9=7+2:1:0:0:2, 4=4+0:0:0:0:0, 6=3+3:2:0:0:3, 5=5+0:0:0:0:0, 5=4+1:1:0:0:1, 5=5+0:0:0:0:0, 5=5+0:0:0:0:0, 7=6+1:0:0:0:0, 10=8+2:1:0:0:1, 4=4+0:0:0:0:0, 1=1+0:0:0:0:0, 3=3+0:0:0:0:0, 9=7+2:0:0:0:0, 8=7+1:0:0:0:0, 4=3+1:0:0:0:1, 4=4+0:0:0:0:0, 14=10+4:2:0:0:3, 8=7+1:1:0:0:1, 1=1+0:0:0:0:0, 11=9+2:0:0:0:0, 7=6+1:1:0:0:1, 6=5+1:0:0:0:0, 2=2+0:0:0:0:0, 5=5+0:0:0:0:0, 6=6+0:0:0:0:0, 9=7+2:0:0:0:0, 9=7+2:0:0:0:2, 9=6+3:1:0:0:1, 14=11+3:1:1:0:2, 6=6+0:0:0:0:0, 2=2+0:0:0:0:0, 4=4+0:0:0:0:0, 8=7+1:1:0:0:1, 7=6+1:1:0:0:1, 2=2+0:0:0:0:0, 6=6+0:0:0:0:0, 6=5+1:0:0:0:1, 4=4+0:0:0:0:0,  , 11=7+4:2:0:0:2, 14=9+5:0:0:0:0, 6=6+0:0:0:0:0, 9=7+2:2:0:0:2, 4=4+0:0:0:0:0, 308=259+49:19:1:0:27
Ab minor mel (7b),  ,  ,  ,  ,  ,  ,  ,  ,  ,  ,  ,  ,  ,  ,  ,  ,  ,  ,  ,  ,  ,  ,  ,  ,  ,  ,  ,  ,  ,  ,  ,  ,  ,  ,  ,  ,  ,  ,  ,  ,  ,  ,  ,  ,  ,  ,  ,  ,  , 0=0+0:0:0:0:0
A# minor mel (7#),  ,  ,  ,  ,  ,  ,  ,  ,  ,  ,  ,  ,  ,  ,  ,  ,  ,  ,  ,  ,  ,  ,  ,  ,  ,  ,  ,  ,  ,  ,  ,  ,  ,  ,  ,  ,  ,  ,  ,  ,  ,  ,  ,  ,  ,  ,  ,  ,  , 0=0+0:0:0:0:0
Cb major blues (7b),  ,  ,  ,  ,  ,  ,  ,  ,  ,  ,  ,  ,  ,  ,  ,  ,  ,  ,  ,  ,  ,  ,  ,  ,  ,  ,  ,  ,  ,  ,  ,  ,  ,  ,  ,  ,  ,  ,  ,  ,  ,  ,  ,  ,  ,  ,  ,  ,  , 0=0+0:0:0:0:0
C# major blues (7#),  ,  ,  ,  ,  ,  ,  ,  ,  ,  ,  ,  ,  ,  ,  ,  ,  ,  ,  ,  ,  ,  ,  ,  ,  ,  ,  ,  ,  ,  ,  ,  ,  ,  ,  ,  ,  ,  ,  ,  ,  ,  ,  ,  ,  ,  ,  ,  ,  , 0=0+0:0:0:0:0
Ab minor blues (7b),  ,  ,  ,  ,  ,  ,  ,  ,  ,  ,  ,  ,  ,  ,  ,  ,  ,  ,  ,  ,  ,  ,  ,  ,  ,  ,  ,  ,  ,  ,  ,  ,  ,  ,  ,  ,  ,  ,  ,  ,  ,  ,  ,  ,  ,  ,  ,  ,  , 0=0+0:0:0:0:0
A# minor blues (7#),  ,  ,  ,  ,  ,  ,  ,  ,  ,  ,  ,  ,  ,  ,  ,  ,  ,  ,  ,  ,  ,  ,  ,  ,  ,  ,  ,  ,  ,  ,  ,  ,  ,  ,  ,  ,  ,  ,  ,  ,  ,  ,  ,  ,  ,  ,  ,  ,  , 0=0+0:0:0:0:0
Cb dorian (7b),  ,  ,  ,  ,  ,  ,  ,  ,  ,  ,  ,  ,  ,  ,  ,  ,  ,  ,  ,  ,  ,  ,  ,  ,  ,  ,  ,  ,  ,  ,  ,  ,  ,  ,  ,  ,  ,  ,  ,  ,  ,  ,  ,  ,  ,  ,  ,  ,  , 0=0+0:0:0:0:0
C# dorian (7#),  ,  ,  ,  ,  ,  ,  ,  ,  ,  ,  ,  ,  ,  ,  ,  ,  ,  ,  ,  ,  ,  ,  ,  ,  ,  ,  ,  ,  ,  ,  ,  ,  ,  ,  ,  ,  ,  ,  ,  ,  ,  ,  ,  ,  ,  ,  ,  ,  , 0=0+0:0:0:0:0
Cb phrygian (7b),  ,  ,  ,  ,  ,  ,  ,  ,  ,  ,  ,  ,  ,  ,  ,  ,  ,  ,  ,  ,  ,  ,  ,  ,  ,  ,  ,  ,  ,  ,  ,  ,  ,  ,  ,  ,  ,  ,  ,  ,  ,  ,  ,  ,  ,  ,  ,  ,  , 0=0+0:0:0:0:0
C# phrygian (7#),  ,  ,  ,  ,  ,  ,  ,  ,  ,  ,  ,  ,  ,  ,  ,  ,  ,  ,  ,  ,  ,  ,  ,  ,  ,  ,  ,  ,  ,  ,  ,  ,  ,  ,  ,  ,  ,  ,  ,  ,  ,  ,  ,  ,  ,  ,  ,  ,  , 0=0+0:0:0:0:0
Cb lydian (7b),  ,  ,  ,  ,  ,  ,  ,  ,  ,  ,  ,  ,  ,  ,  ,  ,  ,  ,  ,  ,  ,  ,  ,  ,  ,  ,  ,  ,  ,  ,  ,  ,  ,  ,  ,  ,  ,  ,  ,  ,  ,  ,  ,  ,  ,  ,  ,  ,  , 0=0+0:0:0:0:0
C# lydian (7#),  ,  ,  ,  ,  ,  ,  ,  ,  ,  ,  ,  ,  ,  ,  ,  ,  ,  ,  ,  ,  ,  ,  ,  ,  ,  ,  ,  ,  ,  ,  ,  ,  ,  ,  ,  ,  ,  ,  ,  ,  ,  ,  ,  ,  ,  ,  ,  ,  , 0=0+0:0:0:0:0
Cb mixolydian (7b),  ,  ,  ,  ,  ,  ,  ,  ,  ,  ,  ,  ,  ,  ,  ,  ,  ,  ,  ,  ,  ,  ,  ,  ,  ,  ,  ,  ,  ,  ,  ,  ,  ,  ,  ,  ,  ,  ,  ,  ,  ,  ,  ,  ,  ,  ,  ,  ,  , 0=0+0:0:0:0:0
C# mixolydian (7#),  ,  ,  ,  ,  ,  ,  ,  ,  ,  ,  ,  ,  ,  ,  ,  ,  ,  ,  ,  ,  ,  ,  ,  ,  ,  ,  ,  ,  ,  ,  ,  ,  ,  ,  ,  ,  ,  ,  ,  ,  ,  ,  ,  ,  ,  ,  ,  ,  , 0=0+0:0:0:0:0
Cb aeolian (7b),  ,  ,  ,  ,  ,  ,  ,  ,  ,  ,  ,  ,  ,  ,  ,  ,  ,  ,  ,  ,  ,  ,  ,  ,  ,  ,  ,  ,  ,  ,  ,  ,  ,  ,  ,  ,  ,  ,  ,  ,  ,  ,  ,  ,  ,  ,  ,  ,  , 0=0+0:0:0:0:0
C# aeolian (7#),  ,  ,  ,  ,  ,  ,  ,  ,  ,  ,  ,  ,  ,  ,  ,  ,  ,  ,  ,  ,  ,  ,  ,  ,  ,  ,  ,  ,  ,  ,  ,  ,  ,  ,  ,  ,  ,  ,  ,  ,  ,  ,  ,  ,  ,  ,  ,  ,  , 0=0+0:0:0:0:0
Cb locrian (7b),  ,  ,  ,  ,  ,  ,  ,  ,  ,  ,  ,  ,  ,  ,  ,  ,  ,  ,  ,  ,  ,  ,  ,  ,  ,  ,  ,  ,  ,  ,  ,  ,  ,  ,  ,  ,  ,  ,  ,  ,  ,  ,  ,  ,  ,  ,  ,  ,  , 0=0+0:0:0:0:0
C# locrian (7#),  ,  ,  ,  ,  ,  ,  ,  ,  ,  ,  ,  ,  ,  ,  ,  ,  ,  ,  ,  ,  ,  ,  ,  ,  ,  ,  ,  ,  ,  ,  ,  ,  ,  ,  ,  ,  ,  ,  ,  ,  ,  ,  ,  ,  ,  ,  ,  ,  , 0=0+0:0:0:0:0
