 , 0, 1, 2, 3, 4, 5, 6, 7, 8, 9, 10, 11, 12, 13, 14, 15, 16, 17, 18, 19, 20, 21, 22, 23, 24, 25, 26, 27, 28, 29, 30, 31, 32, 33, 34, 35, 36, 37, 38, 39, 40, 41, 42, 43, 44, 45, 46, 47, 48, 49, 50, 51, 52, 53, 54, 55, 56, 57, 58, 59, 60, 61, 62, 63, 64, 65, 66, 67, 68, 69, 70, 71, 72, 73, 74, 75, 76, 77, 78, 79, 80, 81, 82, 83, 84, 85, 86, 87, 88, 89, 90, 91, 92, 93, 94, 95, 96, 97, 98, 99, 100, 101, 102, 103, 104, 105, 106, 107, 108, 109, 110, 111, 112, 113, 114, 115, 116, 117, 118, 119, 120, 121, 122, 123, 124, 125, 126, 127, 128, 129, 130, 131, 132, 133, 134, 135, 136, 137, 138, 139, 140, 141, 142, 143, 144, 145, 146, 147, 148, 149, 150, 151, 152, 153, 154, 155, 156, 157, 158, 159, 160, 161, 162, 163, 164, 165, 166, 167, 168, 169, 170, 171, 172, rowcost
C major (0), 1:0:0:0:0, 0:0:0:0:0, 0:0:0:0:0,  , 0:0:0:0:0, 0:0:0:0:0, 1:0:0:0:0,  , 0:0:0:0:0, 1:0:0:0:1, 1:0:0:0:0,  , 1:0:0:0:0, 0:0:0:0:0, 0:0:0:0:0,  , 0:0:0:0:0, 0:0:0:0:0, 1:0:0:0:0,  , 0:0:0:0:0, 1:0:0:0:1, 1:0:0:0:0,  , 3:0:1:0:1, 2:0:0:0:0, 2:0:0:0:0, 1:0:0:0:2, 0:0:0:0:0, 2:0:1:0:1, 1:0:0:0:0, 1:0:0:0:0, 3:0:0:0:2, 2:0:0:0:1, 1:0:0:0:0, 0:0:0:0:0, 2:0:0:0:0, 1:0:0:0:0, 0:0:0:0:0, 1:0:0:0:0, 0:0:0:0:0, 0:0:0:0:0, 3:0:1:0:1, 0:0:0:0:0, 0:0:0:0:0, 4:0:0:0:3, 3:0:0:0:0, 0:0:0:0:0, 1:0:0:0:0, 0:0:0:0:0, 0:0:0:0:0, 0:0:0:0:0, 1:0:0:0:0, 1:0:0:0:0, 3:0:0:0:0, 1:0:0:0:0, 1:0:0:0:1, 4:0:0:0:3, 2:0:0:0:0, 0:0:0:0:0, 2:0:1:0:1, 0:0:0:0:0, 2:0:0:0:0, 1:0:0:0:1, 0:0:0:0:0, 1:0:0:0:0, 2:0:0:0:0, 1:0:0:0:0, 1:0:0:0:1, 3:0:2:0:5, 2:0:0:0:1, 0:0:0:0:0, 1:0:0:0:0, 0:0:0:0:0, 1:0:0:0:0, 0:0:0:0:0, 0:0:0:0:0, 1:0:0:0:0, 2:0:0:0:0, 0:0:0:0:0, 0:0:0:0:0, 2:0:0:0:1, 1:0:0:0:0, 1:0:0:0:0, 2:0:0:0:0, 2:0:0:0:0, 0:0:0:0:0, 0:0:0:0:0, 0:0:0:0:0, 0:0:0:0:0, 1:0:0:0:0, 0:0:0:0:0, 0:0:0:0:0, 2:0:0:0:1, 3:0:0:0:0, 0:0:0:0:0, 1:0:0:0:0, 0:0:0:0:0, 1:0:0:0:0, 0:0:0:0:0, 0:0:0:0:0, 0:0:0:0:0, 1:0:0:0:0, 1:0:0:0:0, 0:0:0:0:0, 1:0:0:0:1, 1:0:0:0:0, 1:0:0:0:0, 2:0:0:0:0, 1:0:0:0:0, 0:0:0:0:0, 1:0:0:0:0, 0:0:0:0:0, 0:0:0:0:0, 3:0:0:0:1, 1:0:0:0:0, 0:0:0:0:0, 1:0:0:0:3, 2:0:0:0:0, 0:0:0:0:0, 2:0:0:0:1, 0:0:0:0:0, 0:0:0:0:0, 0:0:0:0:0, 0:0:0:0:0, 0:0:0:0:0, 2:0:0:0:1, 0:0:0:0:0, 0:0:0:0:0, 1:0:0:0:2, 1:0:0:0:0, 0:0:0:0:0, 1:0:0:0:0, 0:0:0:0:0, 0:0:0:0:0, 0:0:0:0:0, 0:0:0:0:0, 0:0:0:0:0, 1:0:0:0:0, 0:0:0:0:0, 0:0:0:0:0, 1:0:0:0:1, 1:0:0:0:0, 0:0:0:0:0, 2:0:0:0:0, 1:0:0:0:0, 2:0:0:0:1, 1:0:0:0:0, 0:0:0:0:0, 2:0:0:0:0, 2:0:0:0:1, 0:0:0:0:0, 3:0:0:0:1, 3:0:0:0:1, 2:0:0:0:0, 0:0:0:0:0, 2:0:0:0:0, 0:0:0:0:0, 1:0:0:0:0, 0:0:0:0:0, 2:0:0:0:0, 0:0:0:0:0, 2:0:0:0:0, 1:0:0:0:0, 1:0:0:0:0, 1:0:0:0:1, 2:0:0:0:0, 1:0:0:0:1, 0:0:0:0:0, 0:0:0:0:0, 0:0:0:0:0, 0:0:0:0:0, 0:0:0:0:0, 147:0:6:0:44
A minor (0), 1:0:0:0:0, 0:0:0:0:0, 0:0:0:0:0,  , 0:0:0:0:0, 0:0:0:0:0, 1:0:0:0:0,  , 0:0:0:0:0, 1:0:0:0:1, 1:0:0:0:0,  , 1:0:0:0:0, 0:0:0:0:0, 0:0:0:0:0,  , 0:0:0:0:0, 0:0:0:0:0, 1:0:0:0:0,  , 0:0:0:0:0, 1:0:0:0:1, 1:0:0:0:0,  , 3:0:1:0:1, 2:0:0:0:0, 2:0:0:0:0, 1:0:0:0:2, 0:0:0:0:0, 2:0:1:0:1, 1:0:0:0:0, 1:0:0:0:0, 3:0:0:0:2, 2:0:0:0:1, 1:0:0:0:0, 0:0:0:0:0, 2:0:0:0:0, 1:0:0:0:0, 0:0:0:0:0, 1:0:0:0:0, 0:0:0:0:0, 0:0:0:0:0, 3:0:1:0:1, 0:0:0:0:0, 0:0:0:0:0, 4:0:0:0:3, 3:0:0:0:0, 0:0:0:0:0, 1:0:0:0:0, 0:0:0:0:0, 0:0:0:0:0, 0:0:0:0:0, 1:0:0:0:0, 1:0:0:0:0, 3:0:0:0:0, 1:0:0:0:0, 1:0:0:0:1, 4:0:0:0:3, 2:0:0:0:0, 0:0:0:0:0, 2:0:1:0:1, 0:0:0:0:0, 2:0:0:0:0, 1:0:0:0:1, 0:0:0:0:0, 1:0:0:0:0, 2:0:0:0:0, 1:0:0:0:0, 1:0:0:0:1, 3:0:2:0:5, 2:0:0:0:1, 0:0:0:0:0, 1:0:0:0:0, 0:0:0:0:0, 1:0:0:0:0, 0:0:0:0:0, 0:0:0:0:0, 1:0:0:0:0, 2:0:0:0:0, 0:0:0:0:0, 0:0:0:0:0, 2:0:0:0:1, 1:0:0:0:0, 1:0:0:0:0, 2:0:0:0:0, 2:0:0:0:0, 0:0:0:0:0, 0:0:0:0:0, 0:0:0:0:0, 0:0:0:0:0, 1:0:0:0:0, 0:0:0:0:0, 0:0:0:0:0, 2:0:0:0:1, 3:0:0:0:0, 0:0:0:0:0, 1:0:0:0:0, 0:0:0:0:0, 1:0:0:0:0, 0:0:0:0:0, 0:0:0:0:0, 0:0:0:0:0, 1:0:0:0:0, 1:0:0:0:0, 0:0:0:0:0, 1:0:0:0:1, 1:0:0:0:0, 1:0:0:0:0, 2:0:0:0:0, 1:0:0:0:0, 0:0:0:0:0, 1:0:0:0:0, 0:0:0:0:0, 0:0:0:0:0, 3:0:0:0:1, 1:0:0:0:0, 0:0:0:0:0, 1:0:0:0:3, 2:0:0:0:0, 0:0:0:0:0, 2:0:0:0:1, 0:0:0:0:0, 0:0:0:0:0, 0:0:0:0:0, 0:0:0:0:0, 0:0:0:0:0, 2:0:0:0:1, 0:0:0:0:0, 0:0:0:0:0, 1:0:0:0:2, 1:0:0:0:0, 0:0:0:0:0, 1:0:0:0:0, 0:0:0:0:0, 0:0:0:0:0, 0:0:0:0:0, 0:0:0:0:0, 0:0:0:0:0, 1:0:0:0:0, 0:0:0:0:0, 0:0:0:0:0, 1:0:0:0:1, 1:0:0:0:0, 0:0:0:0:0, 2:0:0:0:0, 1:0:0:0:0, 2:0:0:0:1, 1:0:0:0:0, 0:0:0:0:0, 2:0:0:0:0, 2:0:0:0:1, 0:0:0:0:0, 3:0:0:0:1, 3:0:0:0:1, 2:0:0:0:0, 0:0:0:0:0, 2:0:0:0:0, 0:0:0:0:0, 1:0:0:0:0, 0:0:0:0:0, 2:0:0:0:0, 0:0:0:0:0, 2:0:0:0:0, 1:0:0:0:0, 1:0:0:0:0, 1:0:0:0:1, 2:0:0:0:0, 1:0:0:0:1, 0:0:0:0:0, 0:0:0:0:0, 0:0:0:0:0, 0:0:0:0:0, 0:0:0:0:0, 147:0:6:0:44
F major (1b), 1:1:0:0:1, 0:0:0:0:0, 0:0:0:0:0,  , 1:0:0:0:0, 0:0:0:0:0, 1:1:0:0:1,  , 1:0:0:0:0, 1:1:0:0:1, 1:1:0:0:1,  , 1:1:0:0:1, 0:0:0:0:0, 0:0:0:0:0,  , 1:0:0:0:0, 0:0:0:0:0, 1:1:0:0:1,  , 1:0:0:0:0, 1:1:0:0:1, 1:1:0:0:1,  , 3:3:2:0:4, 3:0:0:0:0, 1:1:0:0:1, 1:2:0:0:2, 1:0:0:0:0, 3:0:1:0:1, 2:1:0:0:1, 1:0:0:0:0, 4:3:0:0:3, 2:2:0:0:2, 2:1:0:0:1, 0:0:0:0:0, 2:1:0:0:1, 1:0:0:0:0, 0:0:0:0:0, 2:0:0:0:0, 1:0:0:0:0, 1:0:0:0:0, 4:3:1:0:3, 0:0:0:0:0, 1:0:0:0:0, 4:2:0:0:2, 3:1:0:0:1, 0:0:0:0:0, 2:2:0:0:2, 0:0:0:0:0, 1:0:0:0:0, 1:0:0:0:0, 2:0:0:0:0, 1:0:0:0:0, 3:1:0:0:1, 1:0:0:0:0, 2:1:0:0:1, 5:2:0:0:2, 2:1:0:0:1, 1:0:0:0:0, 3:3:1:0:3, 1:0:0:0:0, 2:0:1:0:1, 2:1:0:0:1, 1:0:0:0:0, 2:0:0:0:0, 2:1:0:0:1, 1:0:0:0:0, 2:1:0:0:1, 3:5:2:0:5, 2:2:0:0:2, 0:0:0:0:0, 1:1:0:0:1, 0:0:0:0:0, 1:0:0:0:0, 0:0:0:0:0, 1:0:0:0:0, 1:0:0:0:0, 1:2:0:0:2, 1:0:0:0:0, 1:0:0:0:0, 2:1:0:0:1, 1:1:0:0:1, 0:0:0:0:0, 3:1:0:0:1, 1:0:0:0:0, 1:0:0:0:0, 0:0:0:0:0, 1:0:0:0:0, 1:0:0:0:0, 2:3:0:0:3, 0:0:0:0:0, 1:0:0:0:0, 2:3:0:0:3, 3:2:0:0:2, 0:0:0:0:0, 2:1:0:0:1, 0:0:0:0:0, 2:0:0:0:0, 0:0:0:0:0, 1:0:0:0:0, 0:0:0:0:0, 1:3:0:0:3, 1:0:0:0:0, 1:0:0:0:0, 1:1:0:0:1, 1:5:0:0:5, 1:0:0:0:0, 3:1:0:0:1, 1:0:0:0:0, 1:0:0:0:0, 1:0:0:0:0, 1:0:0:0:0, 0:0:0:0:0, 3:1:0:0:1, 2:0:0:0:0, 1:0:0:0:0, 1:3:0:0:3, 2:2:0:0:2, 1:0:0:0:0, 3:2:0:0:2, 0:0:0:0:0, 1:0:0:0:0, 0:0:0:0:0, 1:0:0:0:0, 0:0:0:0:0, 2:3:0:0:3, 0:0:0:0:0, 1:0:0:0:0, 2:2:0:0:2, 1:1:0:0:1, 0:0:0:0:0, 1:1:0:0:1, 0:0:0:0:0, 0:0:0:0:0, 0:0:0:0:0, 1:0:0:0:0, 0:0:0:0:0, 1:2:0:0:2, 0:0:0:0:0, 1:0:0:0:0, 1:1:0:0:1, 2:1:0:0:1, 0:0:0:0:0, 3:2:0:0:2, 2:0:0:0:0, 2:0:2:0:2, 1:0:2:0:2, 1:0:0:0:0, 3:2:0:0:2, 2:5:0:0:5, 0:0:0:0:0, 4:1:0:0:1, 3:3:0:0:3, 1:2:0:0:2, 1:0:0:0:0, 3:1:0:0:1, 1:0:0:0:0, 2:0:0:0:0, 1:0:0:0:0, 3:0:0:0:0, 0:0:0:0:0, 2:2:0:0:2, 1:1:0:0:1, 2:0:0:0:0, 1:1:0:0:1, 2:2:0:0:2, 2:1:0:0:1, 0:0:0:0:0, 0:0:0:0:0, 0:0:0:0:0, 0:0:0:0:0, 0:0:0:0:0, 210:115:12:0:122
G major (1#), 0:0:0:0:0, 0:0:0:0:0, 0:0:0:0:0,  , 1:0:0:0:0, 0:0:0:0:0, 0:0:0:0:0,  , 0:0:0:0:0, 1:0:0:0:0, 0:0:0:0:0,  , 0:0:0:0:0, 0:0:0:0:0, 0:0:0:0:0,  , 1:0:0:0:0, 0:0:0:0:0, 0:0:0:0:0,  , 0:0:0:0:0, 1:0:0:0:0, 0:0:0:0:0,  , 2:1:1:0:1, 3:0:0:0:1, 1:0:0:0:1, 2:0:0:0:0, 1:0:0:0:0, 2:3:1:0:1, 0:0:0:0:0, 1:1:0:0:0, 2:0:0:0:2, 1:0:0:0:0, 0:0:0:0:0, 0:0:0:0:0, 1:0:0:0:0, 0:0:0:0:0, 0:0:0:0:0, 1:0:1:0:1, 1:0:0:0:0, 0:0:0:0:0, 2:0:1:0:2, 0:0:0:0:0, 0:0:0:0:0, 3:0:0:0:3, 2:0:1:0:1, 0:0:0:0:0, 0:0:0:0:0, 1:0:0:0:0, 0:0:0:0:0, 0:0:0:0:0, 2:3:0:0:0, 2:2:0:0:0, 2:3:0:0:0, 2:1:0:0:0, 1:0:0:0:1, 4:0:2:0:4, 1:1:0:0:0, 0:0:0:0:0, 1:0:1:0:1, 0:0:0:0:0, 2:0:1:0:2, 1:0:0:0:0, 1:0:0:0:0, 2:0:0:0:1, 1:0:0:0:1, 1:0:0:0:1, 1:0:0:0:1, 3:0:2:0:3, 1:0:0:0:0, 1:0:0:0:0, 0:0:0:0:0, 1:0:0:0:0, 1:0:1:0:1, 1:0:0:0:0, 1:0:0:0:0, 1:0:1:0:1, 1:0:0:0:1, 0:0:0:0:0, 0:0:0:0:0, 2:0:0:0:0, 0:0:0:0:0, 1:0:0:0:1, 1:0:0:0:0, 1:0:0:0:1, 1:0:0:0:0, 0:0:0:0:0, 1:0:0:0:0, 1:0:0:0:0, 0:0:0:0:0, 0:0:0:0:0, 0:0:0:0:0, 1:0:0:0:0, 2:0:0:0:0, 0:0:0:0:0, 0:0:0:0:0, 0:0:0:0:0, 0:0:0:0:0, 0:0:0:0:0, 1:0:0:0:0, 1:0:0:0:0, 0:0:0:0:0, 0:0:0:0:0, 0:0:0:0:0, 1:0:0:0:0, 0:0:0:0:0, 0:0:0:0:0, 1:0:0:0:0, 0:0:0:0:0, 1:0:0:0:0, 0:0:0:0:0, 1:0:0:0:0, 1:0:0:0:0, 2:0:0:0:1, 0:0:0:0:0, 0:0:0:0:0, 1:0:0:0:0, 1:0:0:0:1, 0:0:0:0:0, 1:0:0:0:0, 0:0:0:0:0, 0:0:0:0:0, 0:0:0:0:0, 1:0:0:0:0, 1:0:0:0:0, 1:0:0:0:0, 0:0:0:0:0, 0:0:0:0:0, 1:0:0:0:0, 0:0:0:0:0, 0:0:0:0:0, 0:0:0:0:0, 0:0:0:0:0, 0:0:0:0:0, 0:0:0:0:0, 1:0:0:0:0, 0:0:0:0:0, 0:0:0:0:0, 0:0:0:0:0, 0:0:0:0:0, 1:0:0:0:0, 0:0:0:0:0, 1:0:0:0:0, 1:0:0:0:0, 0:0:0:0:0, 2:0:1:0:2, 1:0:0:0:1, 1:0:0:0:0, 1:1:0:0:0, 1:0:0:0:1, 0:0:0:0:0, 2:1:0:0:1, 2:0:0:0:0, 1:0:0:0:1, 0:0:0:0:0, 1:0:0:0:0, 0:0:0:0:0, 1:1:0:0:1, 0:0:0:0:0, 3:0:0:0:1, 0:0:0:0:0, 1:1:0:0:0, 0:0:0:0:0, 0:0:0:0:0, 1:0:0:0:0, 1:0:0:0:1, 2:0:0:0:0, 1:0:0:0:0, 1:0:0:0:0, 1:0:0:0:0, 1:0:0:0:0, 1:0:0:0:0, 122:19:14:0:44
D minor (1b), 1:1:0:0:1, 0:0:0:0:0, 0:0:0:0:0,  , 1:0:0:0:0, 0:0:0:0:0, 1:1:0:0:1,  , 1:0:0:0:0, 1:1:0:0:1, 1:1:0:0:1,  , 1:1:0:0:1, 0:0:0:0:0, 0:0:0:0:0,  , 1:0:0:0:0, 0:0:0:0:0, 1:1:0:0:1,  , 1:0:0:0:0, 1:1:0:0:1, 1:1:0:0:1,  , 3:3:2:0:4, 3:0:0:0:0, 1:1:0:0:1, 1:2:0:0:2, 1:0:0:0:0, 3:0:1:0:1, 2:1:0:0:1, 1:0:0:0:0, 4:3:0:0:3, 2:2:0:0:2, 2:1:0:0:1, 0:0:0:0:0, 2:1:0:0:1, 1:0:0:0:0, 0:0:0:0:0, 2:0:0:0:0, 1:0:0:0:0, 1:0:0:0:0, 4:3:1:0:3, 0:0:0:0:0, 1:0:0:0:0, 4:2:0:0:2, 3:1:0:0:1, 0:0:0:0:0, 2:2:0:0:2, 0:0:0:0:0, 1:0:0:0:0, 1:0:0:0:0, 2:0:0:0:0, 1:0:0:0:0, 3:1:0:0:1, 1:0:0:0:0, 2:1:0:0:1, 5:2:0:0:2, 2:1:0:0:1, 1:0:0:0:0, 3:3:1:0:3, 1:0:0:0:0, 2:0:1:0:1, 2:1:0:0:1, 1:0:0:0:0, 2:0:0:0:0, 2:1:0:0:1, 1:0:0:0:0, 2:1:0:0:1, 3:5:2:0:5, 2:2:0:0:2, 0:0:0:0:0, 1:1:0:0:1, 0:0:0:0:0, 1:0:0:0:0, 0:0:0:0:0, 1:0:0:0:0, 1:0:0:0:0, 1:2:0:0:2, 1:0:0:0:0, 1:0:0:0:0, 2:1:0:0:1, 1:1:0:0:1, 0:0:0:0:0, 3:1:0:0:1, 1:0:0:0:0, 1:0:0:0:0, 0:0:0:0:0, 1:0:0:0:0, 1:0:0:0:0, 2:3:0:0:3, 0:0:0:0:0, 1:0:0:0:0, 2:3:0:0:3, 3:2:0:0:2, 0:0:0:0:0, 2:1:0:0:1, 0:0:0:0:0, 2:0:0:0:0, 0:0:0:0:0, 1:0:0:0:0, 0:0:0:0:0, 1:3:0:0:3, 1:0:0:0:0, 1:0:0:0:0, 1:1:0:0:1, 1:5:0:0:5, 1:0:0:0:0, 3:1:0:0:1, 1:0:0:0:0, 1:0:0:0:0, 1:0:0:0:0, 1:0:0:0:0, 0:0:0:0:0, 3:1:0:0:1, 2:0:0:0:0, 1:0:0:0:0, 1:3:0:0:3, 2:2:0:0:2, 1:0:0:0:0, 3:2:0:0:2, 0:0:0:0:0, 1:0:0:0:0, 0:0:0:0:0, 1:0:0:0:0, 0:0:0:0:0, 2:3:0:0:3, 0:0:0:0:0, 1:0:0:0:0, 2:2:0:0:2, 1:1:0:0:1, 0:0:0:0:0, 1:1:0:0:1, 0:0:0:0:0, 0:0:0:0:0, 0:0:0:0:0, 1:0:0:0:0, 0:0:0:0:0, 1:2:0:0:2, 0:0:0:0:0, 1:0:0:0:0, 1:1:0:0:1, 2:1:0:0:1, 0:0:0:0:0, 3:2:0:0:2, 2:0:0:0:0, 2:0:2:0:2, 1:0:2:0:2, 1:0:0:0:0, 3:2:0:0:2, 2:5:0:0:5, 0:0:0:0:0, 4:1:0:0:1, 3:3:0:0:3, 1:2:0:0:2, 1:0:0:0:0, 3:1:0:0:1, 1:0:0:0:0, 2:0:0:0:0, 1:0:0:0:0, 3:0:0:0:0, 0:0:0:0:0, 2:2:0:0:2, 1:1:0:0:1, 2:0:0:0:0, 1:1:0:0:1, 2:2:0:0:2, 2:1:0:0:1, 0:0:0:0:0, 0:0:0:0:0, 0:0:0:0:0, 0:0:0:0:0, 0:0:0:0:0, 210:115:12:0:122
E minor (1#), 0:0:0:0:0, 0:0:0:0:0, 0:0:0:0:0,  , 1:0:0:0:0, 0:0:0:0:0, 0:0:0:0:0,  , 0:0:0:0:0, 1:0:0:0:0, 0:0:0:0:0,  , 0:0:0:0:0, 0:0:0:0:0, 0:0:0:0:0,  , 1:0:0:0:0, 0:0:0:0:0, 0:0:0:0:0,  , 0:0:0:0:0, 1:0:0:0:0, 0:0:0:0:0,  , 2:1:1:0:1, 3:0:0:0:1, 1:0:0:0:1, 2:0:0:0:0, 1:0:0:0:0, 2:3:1:0:1, 0:0:0:0:0, 1:1:0:0:0, 2:0:0:0:2, 1:0:0:0:0, 0:0:0:0:0, 0:0:0:0:0, 1:0:0:0:0, 0:0:0:0:0, 0:0:0:0:0, 1:0:1:0:1, 1:0:0:0:0, 0:0:0:0:0, 2:0:1:0:2, 0:0:0:0:0, 0:0:0:0:0, 3:0:0:0:3, 2:0:1:0:1, 0:0:0:0:0, 0:0:0:0:0, 1:0:0:0:0, 0:0:0:0:0, 0:0:0:0:0, 2:3:0:0:0, 2:2:0:0:0, 2:3:0:0:0, 2:1:0:0:0, 1:0:0:0:1, 4:0:2:0:4, 1:1:0:0:0, 0:0:0:0:0, 1:0:1:0:1, 0:0:0:0:0, 2:0:1:0:2, 1:0:0:0:0, 1:0:0:0:0, 2:0:0:0:1, 1:0:0:0:1, 1:0:0:0:1, 1:0:0:0:1, 3:0:2:0:3, 1:0:0:0:0, 1:0:0:0:0, 0:0:0:0:0, 1:0:0:0:0, 1:0:1:0:1, 1:0:0:0:0, 1:0:0:0:0, 1:0:1:0:1, 1:0:0:0:1, 0:0:0:0:0, 0:0:0:0:0, 2:0:0:0:0, 0:0:0:0:0, 1:0:0:0:1, 1:0:0:0:0, 1:0:0:0:1, 1:0:0:0:0, 0:0:0:0:0, 1:0:0:0:0, 1:0:0:0:0, 0:0:0:0:0, 0:0:0:0:0, 0:0:0:0:0, 1:0:0:0:0, 2:0:0:0:0, 0:0:0:0:0, 0:0:0:0:0, 0:0:0:0:0, 0:0:0:0:0, 0:0:0:0:0, 1:0:0:0:0, 1:0:0:0:0, 0:0:0:0:0, 0:0:0:0:0, 0:0:0:0:0, 1:0:0:0:0, 0:0:0:0:0, 0:0:0:0:0, 1:0:0:0:0, 0:0:0:0:0, 1:0:0:0:0, 0:0:0:0:0, 1:0:0:0:0, 1:0:0:0:0, 2:0:0:0:1, 0:0:0:0:0, 0:0:0:0:0, 1:0:0:0:0, 1:0:0:0:1, 0:0:0:0:0, 1:0:0:0:0, 0:0:0:0:0, 0:0:0:0:0, 0:0:0:0:0, 1:0:0:0:0, 1:0:0:0:0, 1:0:0:0:0, 0:0:0:0:0, 0:0:0:0:0, 1:0:0:0:0, 0:0:0:0:0, 0:0:0:0:0, 0:0:0:0:0, 0:0:0:0:0, 0:0:0:0:0, 0:0:0:0:0, 1:0:0:0:0, 0:0:0:0:0, 0:0:0:0:0, 0:0:0:0:0, 0:0:0:0:0, 1:0:0:0:0, 0:0:0:0:0, 1:0:0:0:0, 1:0:0:0:0, 0:0:0:0:0, 2:0:1:0:2, 1:0:0:0:1, 1:0:0:0:0, 1:1:0:0:0, 1:0:0:0:1, 0:0:0:0:0, 2:1:0:0:1, 2:0:0:0:0, 1:0:0:0:1, 0:0:0:0:0, 1:0:0:0:0, 0:0:0:0:0, 1:1:0:0:1, 0:0:0:0:0, 3:0:0:0:1, 0:0:0:0:0, 1:1:0:0:0, 0:0:0:0:0, 0:0:0:0:0, 1:0:0:0:0, 1:0:0:0:1, 2:0:0:0:0, 1:0:0:0:0, 1:0:0:0:0, 1:0:0:0:0, 1:0:0:0:0, 1:0:0:0:0, 122:19:14:0:44
Bb major (2b), 1:1:0:0:1, 0:0:0:0:0, 0:0:0:0:0,  , 1:0:0:0:1, 0:0:0:0:0, 1:1:0:0:1,  , 2:0:0:0:1, 2:1:0:0:1, 1:1:0:0:1,  , 1:1:0:0:1, 0:0:0:0:0, 0:0:0:0:0,  , 1:0:0:0:1, 0:0:0:0:0, 1:1:0:0:1,  , 2:0:0:0:1, 2:1:0:0:1, 1:1:0:0:1,  , 3:3:2:0:3, 3:0:0:0:1, 1:1:0:0:1, 1:2:0:0:2, 1:0:0:0:1, 2:0:2:0:3, 3:1:0:0:2, 0:0:0:0:0, 5:3:0:0:4, 3:2:0:0:2, 3:1:0:0:4, 0:0:0:0:0, 3:1:0:0:1, 1:0:0:0:0, 0:0:0:0:0, 2:0:0:0:1, 1:0:0:0:2, 1:0:0:0:3, 4:3:1:0:5, 0:0:0:0:0, 2:0:0:0:1, 5:2:0:0:2, 3:1:0:0:1, 0:0:0:0:0, 2:2:0:0:4, 1:0:0:0:0, 1:0:0:0:2, 1:0:0:0:3, 2:0:0:0:1, 1:0:0:0:0, 3:1:0:0:1, 1:0:0:0:0, 3:1:0:0:3, 6:2:0:0:4, 2:1:1:0:2, 1:0:0:0:1, 3:3:1:0:4, 1:0:0:0:1, 2:0:1:0:0, 2:1:0:0:4, 2:0:0:0:2, 1:0:0:0:4, 3:1:0:0:1, 2:0:0:0:0, 3:1:0:0:2, 4:5:2:0:5, 2:2:0:0:2, 0:0:0:0:0, 1:1:0:0:1, 0:0:0:0:0, 1:0:0:0:0, 1:0:0:0:0, 1:0:0:0:1, 1:0:0:0:0, 2:2:0:0:2, 1:0:0:0:1, 2:0:0:0:1, 3:1:0:0:1, 1:1:0:0:1, 0:0:0:0:0, 3:1:0:0:2, 1:0:0:0:0, 2:0:0:0:2, 0:0:0:0:0, 1:0:0:0:2, 1:0:0:0:1, 2:3:0:0:4, 0:0:0:0:0, 2:0:0:0:3, 3:3:0:0:3, 3:3:1:0:3, 0:0:0:0:0, 2:1:0:0:3, 1:0:0:0:0, 2:0:0:0:2, 0:0:0:0:0, 1:0:0:0:3, 0:0:0:0:0, 1:3:0:0:3, 1:0:0:0:0, 2:0:0:0:1, 2:1:0:0:1, 1:5:0:0:5, 1:0:0:0:0, 3:1:0:0:2, 1:0:0:0:0, 1:0:0:0:1, 1:0:0:0:0, 2:0:0:0:2, 0:0:0:0:0, 4:1:0:0:2, 2:0:0:0:1, 2:0:0:0:3, 2:3:0:0:3, 3:2:0:0:2, 1:0:0:0:1, 4:2:0:0:3, 1:0:0:0:0, 2:0:0:0:1, 1:0:0:0:0, 2:0:0:0:1, 0:0:0:0:0, 3:3:0:0:3, 0:0:0:0:0, 2:0:0:0:2, 3:2:0:0:4, 1:1:0:0:1, 0:0:0:0:0, 1:1:0:0:1, 0:0:0:0:0, 0:0:0:0:0, 0:0:0:0:0, 1:0:0:0:1, 0:0:0:0:0, 1:2:0:0:2, 0:0:0:0:0, 2:0:0:0:1, 2:1:0:0:1, 2:1:0:0:2, 1:0:0:0:0, 3:2:0:0:3, 2:0:0:0:1, 3:0:2:0:0, 2:0:2:0:0, 1:0:0:0:1, 4:2:0:0:3, 2:5:0:0:5, 0:0:0:0:0, 5:1:0:0:3, 4:3:0:0:3, 2:2:0:0:2, 1:0:0:0:2, 3:1:0:0:3, 1:0:0:0:3, 2:0:0:0:2, 1:0:0:0:3, 3:0:0:0:2, 1:0:0:0:0, 2:2:0:0:2, 2:1:0:0:1, 3:0:0:0:2, 2:1:0:0:1, 2:2:0:0:2, 2:1:0:0:3, 0:0:0:0:0, 0:0:0:0:0, 0:0:0:0:0, 0:0:0:0:0, 0:0:0:0:0, 262:116:15:0:230
D major (2#), 1:0:0:0:0, 0:0:0:0:0, 0:0:0:0:0,  , 1:0:0:0:0, 0:0:0:0:0, 1:0:0:0:0,  , 0:0:0:0:0, 0:0:0:0:0, 1:0:0:0:0,  , 1:0:0:0:0, 0:0:0:0:0, 0:0:0:0:0,  , 1:0:0:0:0, 0:0:0:0:0, 1:0:0:0:0,  , 0:0:0:0:0, 0:0:0:0:0, 1:0:0:0:0,  , 3:1:1:0:1, 3:0:0:0:0, 1:0:0:0:1, 2:0:1:0:1, 1:0:0:0:0, 2:3:1:0:1, 1:0:0:0:0, 1:1:0:0:0, 3:0:0:0:0, 0:0:0:0:0, 1:0:0:0:0, 0:0:0:0:0, 2:0:0:0:0, 0:0:0:0:0, 0:0:0:0:0, 1:0:1:0:1, 1:0:0:0:0, 0:0:0:0:0, 3:0:1:0:1, 0:0:0:0:0, 0:0:0:0:0, 2:0:0:0:0, 3:0:1:0:1, 1:0:0:0:0, 1:0:0:0:0, 1:0:0:0:0, 1:0:0:0:0, 1:0:0:0:0, 2:3:0:0:3, 3:2:0:0:2, 3:3:0:0:3, 3:1:0:0:1, 1:0:0:0:0, 3:0:2:0:3, 2:1:0:0:0, 0:0:0:0:0, 2:0:1:0:1, 0:0:0:0:0, 2:0:1:0:2, 2:0:0:0:0, 1:0:0:0:0, 2:0:0:0:1, 2:0:0:0:0, 1:0:0:0:0, 1:0:0:0:0, 2:0:2:0:2, 2:0:0:0:0, 2:0:0:0:0, 1:0:0:0:0, 1:0:0:0:0, 1:0:1:0:1, 1:0:0:0:0, 1:0:0:0:0, 1:0:1:0:1, 2:0:0:0:1, 0:0:0:0:0, 0:0:0:0:0, 1:0:0:0:0, 1:0:0:0:0, 1:0:0:0:1, 2:0:0:0:0, 1:0:0:0:1, 1:0:0:0:0, 0:0:0:0:0, 1:0:0:0:0, 1:0:0:0:0, 1:0:0:0:0, 0:0:0:0:0, 0:0:0:0:0, 0:0:0:0:0, 3:0:0:0:0, 0:0:0:0:0, 1:0:0:0:0, 0:0:0:0:0, 0:0:0:0:0, 0:0:0:0:0, 1:0:0:0:0, 1:0:0:0:0, 1:0:0:0:0, 0:0:0:0:0, 0:0:0:0:0, 0:0:0:0:0, 1:0:0:0:0, 0:0:0:0:0, 2:0:0:0:0, 0:0:0:0:0, 1:0:0:0:0, 0:0:0:0:0, 1:0:0:0:0, 1:0:0:0:0, 3:0:0:0:1, 0:0:0:0:0, 0:0:0:0:0, 0:0:0:0:0, 2:0:0:0:0, 0:0:0:0:0, 2:0:0:0:0, 0:0:0:0:0, 0:0:0:0:0, 0:0:0:0:0, 1:0:0:0:0, 1:0:0:0:0, 2:0:0:0:0, 0:0:0:0:0, 0:0:0:0:0, 0:0:0:0:0, 1:0:0:0:0, 0:0:0:0:0, 1:0:0:0:0, 0:0:0:0:0, 0:0:0:0:0, 0:0:0:0:0, 1:0:0:0:0, 0:0:0:0:0, 1:0:0:0:0, 0:0:0:0:0, 0:0:0:0:0, 0:0:0:0:0, 1:0:0:0:0, 1:0:0:0:0, 2:0:0:0:0, 0:0:0:0:0, 2:0:1:0:2, 1:0:0:0:1, 1:0:0:0:0, 1:1:0:0:1, 2:0:0:0:0, 0:0:0:0:0, 2:1:0:0:1, 1:0:0:0:0, 2:0:0:0:1, 0:0:0:0:0, 2:0:0:0:0, 1:0:0:0:0, 1:0:0:0:0, 0:0:0:0:0, 3:0:0:0:1, 0:0:0:0:0, 2:1:0:0:1, 0:0:0:0:0, 0:0:0:0:0, 0:0:0:0:0, 2:0:0:0:0, 1:0:0:0:0, 1:0:0:0:0, 1:0:0:0:0, 1:0:0:0:0, 1:0:0:0:0, 1:0:0:0:0, 158:18:15:0:39
G minor (2b), 1:1:0:0:1, 0:0:0:0:0, 0:0:0:0:0,  , 1:0:0:0:1, 0:0:0:0:0, 1:1:0:0:1,  , 2:0:0:0:1, 2:1:0:0:1, 1:1:0:0:1,  , 1:1:0:0:1, 0:0:0:0:0, 0:0:0:0:0,  , 1:0:0:0:1, 0:0:0:0:0, 1:1:0:0:1,  , 2:0:0:0:1, 2:1:0:0:1, 1:1:0:0:1,  , 3:3:2:0:3, 3:0:0:0:1, 1:1:0:0:1, 1:2:0:0:2, 1:0:0:0:1, 2:0:2:0:3, 3:1:0:0:2, 0:0:0:0:0, 5:3:0:0:4, 3:2:0:0:2, 3:1:0:0:4, 0:0:0:0:0, 3:1:0:0:1, 1:0:0:0:0, 0:0:0:0:0, 2:0:0:0:1, 1:0:0:0:2, 1:0:0:0:3, 4:3:1:0:5, 0:0:0:0:0, 2:0:0:0:1, 5:2:0:0:2, 3:1:0:0:1, 0:0:0:0:0, 2:2:0:0:4, 1:0:0:0:0, 1:0:0:0:2, 1:0:0:0:3, 2:0:0:0:1, 1:0:0:0:0, 3:1:0:0:1, 1:0:0:0:0, 3:1:0:0:3, 6:2:0:0:4, 2:1:1:0:2, 1:0:0:0:1, 3:3:1:0:4, 1:0:0:0:1, 2:0:1:0:0, 2:1:0:0:4, 2:0:0:0:2, 1:0:0:0:4, 3:1:0:0:1, 2:0:0:0:0, 3:1:0:0:2, 4:5:2:0:5, 2:2:0:0:2, 0:0:0:0:0, 1:1:0:0:1, 0:0:0:0:0, 1:0:0:0:0, 1:0:0:0:0, 1:0:0:0:1, 1:0:0:0:0, 2:2:0:0:2, 1:0:0:0:1, 2:0:0:0:1, 3:1:0:0:1, 1:1:0:0:1, 0:0:0:0:0, 3:1:0:0:2, 1:0:0:0:0, 2:0:0:0:2, 0:0:0:0:0, 1:0:0:0:2, 1:0:0:0:1, 2:3:0:0:4, 0:0:0:0:0, 2:0:0:0:3, 3:3:0:0:3, 3:3:1:0:3, 0:0:0:0:0, 2:1:0:0:3, 1:0:0:0:0, 2:0:0:0:2, 0:0:0:0:0, 1:0:0:0:3, 0:0:0:0:0, 1:3:0:0:3, 1:0:0:0:0, 2:0:0:0:1, 2:1:0:0:1, 1:5:0:0:5, 1:0:0:0:0, 3:1:0:0:2, 1:0:0:0:0, 1:0:0:0:1, 1:0:0:0:0, 2:0:0:0:2, 0:0:0:0:0, 4:1:0:0:2, 2:0:0:0:1, 2:0:0:0:3, 2:3:0:0:3, 3:2:0:0:2, 1:0:0:0:1, 4:2:0:0:3, 1:0:0:0:0, 2:0:0:0:1, 1:0:0:0:0, 2:0:0:0:1, 0:0:0:0:0, 3:3:0:0:3, 0:0:0:0:0, 2:0:0:0:2, 3:2:0:0:4, 1:1:0:0:1, 0:0:0:0:0, 1:1:0:0:1, 0:0:0:0:0, 0:0:0:0:0, 0:0:0:0:0, 1:0:0:0:1, 0:0:0:0:0, 1:2:0:0:2, 0:0:0:0:0, 2:0:0:0:1, 2:1:0:0:1, 2:1:0:0:2, 1:0:0:0:0, 3:2:0:0:3, 2:0:0:0:1, 3:0:2:0:0, 2:0:2:0:0, 1:0:0:0:1, 4:2:0:0:3, 2:5:0:0:5, 0:0:0:0:0, 5:1:0:0:3, 4:3:0:0:3, 2:2:0:0:2, 1:0:0:0:2, 3:1:0:0:3, 1:0:0:0:3, 2:0:0:0:2, 1:0:0:0:3, 3:0:0:0:2, 1:0:0:0:0, 2:2:0:0:2, 2:1:0:0:1, 3:0:0:0:2, 2:1:0:0:1, 2:2:0:0:2, 2:1:0:0:3, 0:0:0:0:0, 0:0:0:0:0, 0:0:0:0:0, 0:0:0:0:0, 0:0:0:0:0, 262:116:15:0:230
B minor (2#), 1:0:0:0:0, 0:0:0:0:0, 0:0:0:0:0,  , 1:0:0:0:0, 0:0:0:0:0, 1:0:0:0:0,  , 0:0:0:0:0, 0:0:0:0:0, 1:0:0:0:0,  , 1:0:0:0:0, 0:0:0:0:0, 0:0:0:0:0,  , 1:0:0:0:0, 0:0:0:0:0, 1:0:0:0:0,  , 0:0:0:0:0, 0:0:0:0:0, 1:0:0:0:0,  , 3:1:1:0:1, 3:0:0:0:0, 1:0:0:0:1, 2:0:1:0:1, 1:0:0:0:0, 2:3:1:0:1, 1:0:0:0:0, 1:1:0:0:0, 3:0:0:0:0, 0:0:0:0:0, 1:0:0:0:0, 0:0:0:0:0, 2:0:0:0:0, 0:0:0:0:0, 0:0:0:0:0, 1:0:1:0:1, 1:0:0:0:0, 0:0:0:0:0, 3:0:1:0:1, 0:0:0:0:0, 0:0:0:0:0, 2:0:0:0:0, 3:0:1:0:1, 1:0:0:0:0, 1:0:0:0:0, 1:0:0:0:0, 1:0:0:0:0, 1:0:0:0:0, 2:3:0:0:3, 3:2:0:0:2, 3:3:0:0:3, 3:1:0:0:1, 1:0:0:0:0, 3:0:2:0:3, 2:1:0:0:0, 0:0:0:0:0, 2:0:1:0:1, 0:0:0:0:0, 2:0:1:0:2, 2:0:0:0:0, 1:0:0:0:0, 2:0:0:0:1, 2:0:0:0:0, 1:0:0:0:0, 1:0:0:0:0, 2:0:2:0:2, 2:0:0:0:0, 2:0:0:0:0, 1:0:0:0:0, 1:0:0:0:0, 1:0:1:0:1, 1:0:0:0:0, 1:0:0:0:0, 1:0:1:0:1, 2:0:0:0:1, 0:0:0:0:0, 0:0:0:0:0, 1:0:0:0:0, 1:0:0:0:0, 1:0:0:0:1, 2:0:0:0:0, 1:0:0:0:1, 1:0:0:0:0, 0:0:0:0:0, 1:0:0:0:0, 1:0:0:0:0, 1:0:0:0:0, 0:0:0:0:0, 0:0:0:0:0, 0:0:0:0:0, 3:0:0:0:0, 0:0:0:0:0, 1:0:0:0:0, 0:0:0:0:0, 0:0:0:0:0, 0:0:0:0:0, 1:0:0:0:0, 1:0:0:0:0, 1:0:0:0:0, 0:0:0:0:0, 0:0:0:0:0, 0:0:0:0:0, 1:0:0:0:0, 0:0:0:0:0, 2:0:0:0:0, 0:0:0:0:0, 1:0:0:0:0, 0:0:0:0:0, 1:0:0:0:0, 1:0:0:0:0, 3:0:0:0:1, 0:0:0:0:0, 0:0:0:0:0, 0:0:0:0:0, 2:0:0:0:0, 0:0:0:0:0, 2:0:0:0:0, 0:0:0:0:0, 0:0:0:0:0, 0:0:0:0:0, 1:0:0:0:0, 1:0:0:0:0, 2:0:0:0:0, 0:0:0:0:0, 0:0:0:0:0, 0:0:0:0:0, 1:0:0:0:0, 0:0:0:0:0, 1:0:0:0:0, 0:0:0:0:0, 0:0:0:0:0, 0:0:0:0:0, 1:0:0:0:0, 0:0:0:0:0, 1:0:0:0:0, 0:0:0:0:0, 0:0:0:0:0, 0:0:0:0:0, 1:0:0:0:0, 1:0:0:0:0, 2:0:0:0:0, 0:0:0:0:0, 2:0:1:0:2, 1:0:0:0:1, 1:0:0:0:0, 1:1:0:0:1, 2:0:0:0:0, 0:0:0:0:0, 2:1:0:0:1, 1:0:0:0:0, 2:0:0:0:1, 0:0:0:0:0, 2:0:0:0:0, 1:0:0:0:0, 1:0:0:0:0, 0:0:0:0:0, 3:0:0:0:1, 0:0:0:0:0, 2:1:0:0:1, 0:0:0:0:0, 0:0:0:0:0, 0:0:0:0:0, 2:0:0:0:0, 1:0:0:0:0, 1:0:0:0:0, 1:0:0:0:0, 1:0:0:0:0, 1:0:0:0:0, 1:0:0:0:0, 158:18:15:0:39
Eb major (3b), 2:1:0:0:1, 1:0:0:0:0, 1:0:0:0:0,  , 2:0:0:0:1, 1:0:0:0:0, 2:1:0:0:1,  , 3:0:0:0:2, 3:1:0:0:2, 2:1:0:0:1,  , 2:1:0:0:1, 1:0:0:0:0, 1:0:0:0:0,  , 2:0:0:0:1, 1:0:0:0:0, 2:1:0:0:1,  , 3:0:0:0:2, 3:1:0:0:2, 2:1:0:0:1,  , 4:3:2:0:3, 2:0:0:0:1, 2:1:0:0:1, 2:2:0:0:2, 1:0:0:0:1, 3:0:2:0:1, 4:1:0:0:3, 1:0:0:0:0, 5:1:0:2:5, 4:2:0:0:3, 4:1:0:0:5, 1:0:0:0:0, 4:1:0:0:2, 1:0:0:0:0, 1:0:0:0:0, 2:0:0:0:1, 1:0:0:0:2, 1:0:0:0:3, 5:3:1:0:5, 1:0:0:0:0, 3:0:0:0:2, 6:2:0:0:3, 4:1:0:0:1, 0:0:0:0:0, 3:2:0:0:4, 1:0:0:0:1, 2:0:0:0:2, 2:0:0:0:3, 1:0:0:0:1, 0:0:0:0:0, 4:1:0:0:1, 0:0:0:0:0, 4:1:0:0:4, 7:2:0:0:5, 3:1:1:0:1, 2:0:0:0:1, 4:3:1:0:4, 2:0:0:0:1, 3:0:1:0:0, 2:1:0:0:4, 3:0:0:0:3, 1:0:0:0:4, 4:1:0:0:2, 3:0:0:0:1, 4:1:0:0:4, 5:5:2:0:7, 3:2:0:0:2, 1:0:0:0:0, 2:1:0:0:1, 0:0:0:0:0, 2:0:0:0:0, 2:0:0:0:1, 1:0:0:0:1, 1:0:0:0:0, 3:2:0:0:3, 2:0:0:0:1, 2:0:0:0:2, 4:1:0:0:2, 2:1:0:0:1, 0:0:0:0:0, 4:1:0:0:2, 2:0:0:0:0, 2:0:0:0:4, 0:0:0:0:0, 2:0:0:0:2, 1:0:0:0:1, 3:3:0:0:4, 1:0:0:0:0, 2:0:0:0:5, 4:3:0:0:6, 4:3:1:0:4, 1:0:0:0:0, 3:1:0:0:3, 1:0:0:0:1, 3:0:0:0:2, 1:0:0:0:0, 1:0:0:0:3, 0:0:0:0:0, 2:3:0:0:3, 1:0:0:0:0, 2:0:0:0:3, 3:1:0:0:3, 2:5:0:0:5, 1:0:0:0:0, 4:1:0:0:2, 2:0:0:0:0, 1:0:0:0:1, 2:0:0:0:0, 2:0:0:0:3, 1:0:0:0:0, 5:1:0:0:3, 3:0:0:0:1, 2:0:0:0:4, 3:3:0:0:4, 4:2:0:0:3, 2:0:0:0:1, 5:2:0:0:4, 2:0:0:0:1, 3:0:0:0:2, 1:0:0:0:1, 2:0:0:0:2, 0:0:0:0:0, 4:3:0:0:4, 1:0:0:0:0, 3:0:0:0:4, 4:2:0:0:6, 2:1:0:0:1, 0:0:0:0:0, 2:1:0:0:1, 1:0:0:0:0, 0:0:0:0:0, 1:0:0:0:0, 1:0:0:0:1, 1:0:0:0:0, 2:2:0:0:2, 1:0:0:0:0, 2:0:0:0:2, 3:1:0:0:2, 3:1:0:0:2, 1:0:0:0:4, 4:2:0:0:3, 3:0:0:0:1, 4:0:2:0:1, 2:0:2:0:1, 2:0:0:0:1, 5:2:0:0:4, 3:5:0:0:5, 1:0:0:0:0, 6:1:0:0:6, 5:3:0:0:7, 3:2:0:0:3, 2:0:0:0:2, 4:1:0:0:3, 2:0:0:0:3, 3:0:0:0:2, 2:0:0:0:3, 3:1:0:0:3, 2:0:0:0:1, 3:2:0:0:2, 3:1:0:0:2, 4:0:0:0:5, 3:1:0:0:2, 3:2:0:0:2, 3:1:0:0:3, 0:0:0:0:0, 0:0:0:0:0, 0:0:0:0:0, 0:0:0:0:0, 0:0:0:0:0, 378:115:15:2:304
A major (3#), 1:0:0:0:0, 0:0:0:0:0, 0:0:0:0:0,  , 2:0:0:0:0, 0:0:0:0:0, 1:0:0:0:0,  , 1:0:0:0:0, 1:0:0:0:0, 1:0:0:0:0,  , 1:0:0:0:0, 0:0:0:0:0, 0:0:0:0:0,  , 2:0:0:0:0, 0:0:0:0:0, 1:0:0:0:0,  , 1:0:0:0:0, 1:0:0:0:0, 1:0:0:0:0,  , 3:1:1:0:1, 2:0:0:0:0, 2:0:0:0:1, 2:0:1:0:1, 2:0:0:0:0, 2:3:1:0:3, 1:0:0:0:0, 1:1:0:0:1, 4:0:0:0:0, 1:0:0:0:0, 1:0:0:0:0, 0:0:0:0:0, 2:0:0:0:0, 0:0:0:0:0, 0:0:0:0:0, 1:0:1:0:1, 2:0:0:0:0, 0:0:0:0:0, 2:0:1:0:1, 0:0:0:0:0, 1:0:0:0:0, 3:0:0:0:0, 4:0:1:0:1, 1:0:0:0:0, 1:0:0:0:0, 1:0:0:0:0, 1:0:0:0:0, 1:0:0:0:0, 3:3:0:0:3, 3:0:0:0:0, 4:2:0:0:2, 3:0:0:0:0, 2:0:0:0:0, 4:0:2:0:2, 2:1:0:0:1, 0:0:0:0:0, 2:0:1:0:1, 0:0:0:0:0, 3:0:1:0:2, 2:0:0:0:0, 2:0:0:0:0, 2:0:0:0:0, 1:0:0:0:0, 0:0:0:0:0, 2:0:0:0:0, 3:0:2:0:2, 2:0:0:0:0, 2:0:0:0:0, 1:0:0:0:0, 1:0:0:0:0, 1:0:1:0:1, 1:0:0:0:0, 2:0:0:0:0, 1:0:1:0:1, 2:0:0:0:1, 0:0:0:0:0, 1:0:0:0:0, 2:0:0:0:0, 1:0:0:0:0, 1:0:0:0:1, 2:0:0:0:0, 1:0:0:0:1, 1:0:0:0:0, 0:0:0:0:0, 2:0:0:0:0, 1:0:0:0:0, 1:0:0:0:0, 0:0:0:0:0, 1:0:0:0:0, 1:0:0:0:0, 4:0:0:0:0, 0:0:0:0:0, 1:0:0:0:0, 0:0:0:0:0, 0:0:0:0:0, 0:0:0:0:0, 2:0:0:0:0, 1:0:0:0:0, 2:0:0:0:0, 0:0:0:0:0, 1:0:0:0:0, 1:0:0:0:0, 1:0:0:0:0, 1:0:0:0:0, 2:0:0:0:0, 0:0:0:0:0, 1:0:0:0:0, 0:0:0:0:0, 2:0:0:0:0, 1:0:0:0:0, 3:0:0:0:1, 0:0:0:0:0, 1:0:0:0:0, 1:0:0:0:0, 3:0:0:0:0, 0:0:0:0:0, 2:0:0:0:0, 0:0:0:0:0, 0:0:0:0:0, 0:0:0:0:0, 2:0:0:0:0, 1:0:0:0:0, 2:0:0:0:0, 0:0:0:0:0, 1:0:0:0:0, 1:0:0:0:0, 1:0:0:0:0, 0:0:0:0:0, 1:0:0:0:0, 0:0:0:0:0, 0:0:0:0:0, 0:0:0:0:0, 2:0:0:0:0, 0:0:0:0:0, 2:0:0:0:0, 0:0:0:0:0, 1:0:0:0:0, 1:0:0:0:0, 1:0:0:0:0, 1:0:0:0:0, 2:0:0:0:0, 0:0:0:0:0, 2:0:1:0:2, 1:0:0:0:1, 2:0:0:0:0, 2:1:0:0:1, 3:0:0:0:0, 0:0:0:0:0, 3:1:0:0:0, 2:0:0:0:0, 3:0:0:0:1, 0:0:0:0:0, 2:0:0:0:0, 1:0:0:0:0, 1:0:0:0:0, 1:0:0:0:0, 4:0:0:0:1, 0:0:0:0:0, 2:0:0:0:0, 1:0:0:0:0, 1:0:0:0:0, 1:0:0:0:0, 3:0:0:0:0, 1:0:0:0:0, 1:0:0:0:0, 1:0:0:0:0, 1:0:0:0:0, 1:0:0:0:0, 1:0:0:0:0, 211:13:15:0:35
C minor (3b), 2:1:0:0:1, 1:0:0:0:0, 1:0:0:0:0,  , 2:0:0:0:1, 1:0:0:0:0, 2:1:0:0:1,  , 3:0:0:0:2, 3:1:0:0:2, 2:1:0:0:1,  , 2:1:0:0:1, 1:0:0:0:0, 1:0:0:0:0,  , 2:0:0:0:1, 1:0:0:0:0, 2:1:0:0:1,  , 3:0:0:0:2, 3:1:0:0:2, 2:1:0:0:1,  , 4:3:2:0:3, 2:0:0:0:1, 2:1:0:0:1, 2:2:0:0:2, 1:0:0:0:1, 3:0:2:0:1, 4:1:0:0:3, 1:0:0:0:0, 5:1:0:2:5, 4:2:0:0:3, 4:1:0:0:5, 1:0:0:0:0, 4:1:0:0:2, 1:0:0:0:0, 1:0:0:0:0, 2:0:0:0:1, 1:0:0:0:2, 1:0:0:0:3, 5:3:1:0:5, 1:0:0:0:0, 3:0:0:0:2, 6:2:0:0:3, 4:1:0:0:1, 0:0:0:0:0, 3:2:0:0:4, 1:0:0:0:1, 2:0:0:0:2, 2:0:0:0:3, 1:0:0:0:1, 0:0:0:0:0, 4:1:0:0:1, 0:0:0:0:0, 4:1:0:0:4, 7:2:0:0:5, 3:1:1:0:1, 2:0:0:0:1, 4:3:1:0:4, 2:0:0:0:1, 3:0:1:0:0, 2:1:0:0:4, 3:0:0:0:3, 1:0:0:0:4, 4:1:0:0:2, 3:0:0:0:1, 4:1:0:0:4, 5:5:2:0:7, 3:2:0:0:2, 1:0:0:0:0, 2:1:0:0:1, 0:0:0:0:0, 2:0:0:0:0, 2:0:0:0:1, 1:0:0:0:1, 1:0:0:0:0, 3:2:0:0:3, 2:0:0:0:1, 2:0:0:0:2, 4:1:0:0:2, 2:1:0:0:1, 0:0:0:0:0, 4:1:0:0:2, 2:0:0:0:0, 2:0:0:0:4, 0:0:0:0:0, 2:0:0:0:2, 1:0:0:0:1, 3:3:0:0:4, 1:0:0:0:0, 2:0:0:0:5, 4:3:0:0:6, 4:3:1:0:4, 1:0:0:0:0, 3:1:0:0:3, 1:0:0:0:1, 3:0:0:0:2, 1:0:0:0:0, 1:0:0:0:3, 0:0:0:0:0, 2:3:0:0:3, 1:0:0:0:0, 2:0:0:0:3, 3:1:0:0:3, 2:5:0:0:5, 1:0:0:0:0, 4:1:0:0:2, 2:0:0:0:0, 1:0:0:0:1, 2:0:0:0:0, 2:0:0:0:3, 1:0:0:0:0, 5:1:0:0:3, 3:0:0:0:1, 2:0:0:0:4, 3:3:0:0:4, 4:2:0:0:3, 2:0:0:0:1, 5:2:0:0:4, 2:0:0:0:1, 3:0:0:0:2, 1:0:0:0:1, 2:0:0:0:2, 0:0:0:0:0, 4:3:0:0:4, 1:0:0:0:0, 3:0:0:0:4, 4:2:0:0:6, 2:1:0:0:1, 0:0:0:0:0, 2:1:0:0:1, 1:0:0:0:0, 0:0:0:0:0, 1:0:0:0:0, 1:0:0:0:1, 1:0:0:0:0, 2:2:0:0:2, 1:0:0:0:0, 2:0:0:0:2, 3:1:0:0:2, 3:1:0:0:2, 1:0:0:0:4, 4:2:0:0:3, 3:0:0:0:1, 4:0:2:0:1, 2:0:2:0:1, 2:0:0:0:1, 5:2:0:0:4, 3:5:0:0:5, 1:0:0:0:0, 6:1:0:0:6, 5:3:0:0:7, 3:2:0:0:3, 2:0:0:0:2, 4:1:0:0:3, 2:0:0:0:3, 3:0:0:0:2, 2:0:0:0:3, 3:1:0:0:3, 2:0:0:0:1, 3:2:0:0:2, 3:1:0:0:2, 4:0:0:0:5, 3:1:0:0:2, 3:2:0:0:2, 3:1:0:0:3, 0:0:0:0:0, 0:0:0:0:0, 0:0:0:0:0, 0:0:0:0:0, 0:0:0:0:0, 378:115:15:2:304
F# minor (3#), 1:0:0:0:0, 0:0:0:0:0, 0:0:0:0:0,  , 2:0:0:0:0, 0:0:0:0:0, 1:0:0:0:0,  , 1:0:0:0:0, 1:0:0:0:0, 1:0:0:0:0,  , 1:0:0:0:0, 0:0:0:0:0, 0:0:0:0:0,  , 2:0:0:0:0, 0:0:0:0:0, 1:0:0:0:0,  , 1:0:0:0:0, 1:0:0:0:0, 1:0:0:0:0,  , 3:1:1:0:1, 2:0:0:0:0, 2:0:0:0:1, 2:0:1:0:1, 2:0:0:0:0, 2:3:1:0:3, 1:0:0:0:0, 1:1:0:0:1, 4:0:0:0:0, 1:0:0:0:0, 1:0:0:0:0, 0:0:0:0:0, 2:0:0:0:0, 0:0:0:0:0, 0:0:0:0:0, 1:0:1:0:1, 2:0:0:0:0, 0:0:0:0:0, 2:0:1:0:1, 0:0:0:0:0, 1:0:0:0:0, 3:0:0:0:0, 4:0:1:0:1, 1:0:0:0:0, 1:0:0:0:0, 1:0:0:0:0, 1:0:0:0:0, 1:0:0:0:0, 3:3:0:0:3, 3:0:0:0:0, 4:2:0:0:2, 3:0:0:0:0, 2:0:0:0:0, 4:0:2:0:2, 2:1:0:0:1, 0:0:0:0:0, 2:0:1:0:1, 0:0:0:0:0, 3:0:1:0:2, 2:0:0:0:0, 2:0:0:0:0, 2:0:0:0:0, 1:0:0:0:0, 0:0:0:0:0, 2:0:0:0:0, 3:0:2:0:2, 2:0:0:0:0, 2:0:0:0:0, 1:0:0:0:0, 1:0:0:0:0, 1:0:1:0:1, 1:0:0:0:0, 2:0:0:0:0, 1:0:1:0:1, 2:0:0:0:1, 0:0:0:0:0, 1:0:0:0:0, 2:0:0:0:0, 1:0:0:0:0, 1:0:0:0:1, 2:0:0:0:0, 1:0:0:0:1, 1:0:0:0:0, 0:0:0:0:0, 2:0:0:0:0, 1:0:0:0:0, 1:0:0:0:0, 0:0:0:0:0, 1:0:0:0:0, 1:0:0:0:0, 4:0:0:0:0, 0:0:0:0:0, 1:0:0:0:0, 0:0:0:0:0, 0:0:0:0:0, 0:0:0:0:0, 2:0:0:0:0, 1:0:0:0:0, 2:0:0:0:0, 0:0:0:0:0, 1:0:0:0:0, 1:0:0:0:0, 1:0:0:0:0, 1:0:0:0:0, 2:0:0:0:0, 0:0:0:0:0, 1:0:0:0:0, 0:0:0:0:0, 2:0:0:0:0, 1:0:0:0:0, 3:0:0:0:1, 0:0:0:0:0, 1:0:0:0:0, 1:0:0:0:0, 3:0:0:0:0, 0:0:0:0:0, 2:0:0:0:0, 0:0:0:0:0, 0:0:0:0:0, 0:0:0:0:0, 2:0:0:0:0, 1:0:0:0:0, 2:0:0:0:0, 0:0:0:0:0, 1:0:0:0:0, 1:0:0:0:0, 1:0:0:0:0, 0:0:0:0:0, 1:0:0:0:0, 0:0:0:0:0, 0:0:0:0:0, 0:0:0:0:0, 2:0:0:0:0, 0:0:0:0:0, 2:0:0:0:0, 0:0:0:0:0, 1:0:0:0:0, 1:0:0:0:0, 1:0:0:0:0, 1:0:0:0:0, 2:0:0:0:0, 0:0:0:0:0, 2:0:1:0:2, 1:0:0:0:1, 2:0:0:0:0, 2:1:0:0:1, 3:0:0:0:0, 0:0:0:0:0, 3:1:0:0:0, 2:0:0:0:0, 3:0:0:0:1, 0:0:0:0:0, 2:0:0:0:0, 1:0:0:0:0, 1:0:0:0:0, 1:0:0:0:0, 4:0:0:0:1, 0:0:0:0:0, 2:0:0:0:0, 1:0:0:0:0, 1:0:0:0:0, 1:0:0:0:0, 3:0:0:0:0, 1:0:0:0:0, 1:0:0:0:0, 1:0:0:0:0, 1:0:0:0:0, 1:0:0:0:0, 1:0:0:0:0, 211:13:15:0:35
Ab major (4b), 3:1:0:0:4, 1:0:0:0:3, 2:0:0:0:1,  , 3:0:0:0:3, 1:0:0:0:3, 3:1:0:0:3,  , 4:0:0:0:4, 3:1:0:0:7, 3:1:0:0:3,  , 3:1:0:0:4, 1:0:0:0:4, 2:0:0:0:1,  , 3:0:0:0:3, 1:0:0:0:4, 3:1:0:0:3,  , 4:0:0:0:4, 3:1:0:0:7, 3:1:0:0:3,  , 5:3:2:0:6, 3:0:0:0:2, 3:1:0:0:2, 3:2:0:0:4, 2:0:0:0:1, 4:0:2:0:2, 5:1:0:0:4, 2:0:0:0:2, 6:1:0:2:3, 5:2:0:0:6, 5:1:0:0:8, 1:0:0:0:1, 5:1:0:0:3, 2:0:0:0:0, 2:0:0:0:1, 2:0:0:0:1, 2:0:0:0:2, 2:0:0:0:3, 6:3:1:0:7, 1:0:0:0:3, 4:0:0:0:6, 6:2:0:0:5, 5:1:0:0:2, 1:0:0:0:0, 4:2:0:0:7, 2:0:0:0:1, 3:0:0:0:3, 3:0:0:0:4, 2:0:0:0:1, 1:0:0:0:0, 5:1:0:0:2, 1:0:0:0:0, 5:1:0:0:7, 7:2:0:0:9, 4:1:1:0:2, 2:0:0:0:2, 5:3:1:0:7, 2:0:0:0:2, 3:0:1:0:3, 2:0:0:0:3, 4:0:0:0:5, 1:0:0:0:4, 5:1:0:0:4, 4:0:0:0:2, 5:1:0:0:6, 6:5:2:0:9, 4:2:0:0:3, 2:0:0:0:1, 3:1:0:0:2, 1:0:0:0:0, 3:0:0:0:1, 3:0:0:0:2, 2:0:0:0:1, 2:0:0:0:0, 4:2:0:0:5, 2:0:0:0:3, 3:0:0:0:2, 4:1:0:0:4, 3:1:0:0:2, 0:0:0:0:0, 5:1:0:0:3, 2:0:0:0:3, 3:0:0:0:4, 1:0:0:0:0, 3:0:0:0:3, 2:0:0:0:1, 4:3:0:0:8, 1:0:0:0:2, 3:0:0:0:5, 5:3:0:0:7, 5:3:1:0:6, 1:0:0:0:4, 4:1:0:0:4, 2:0:0:0:1, 3:0:0:0:4, 2:0:0:0:1, 2:0:0:0:3, 1:0:0:0:0, 3:3:0:0:4, 1:0:0:0:0, 3:0:0:0:3, 3:1:0:0:4, 3:5:0:0:6, 1:0:0:0:0, 5:1:0:0:3, 2:0:0:0:3, 2:0:0:0:1, 2:0:0:0:3, 3:0:0:0:3, 1:0:0:0:3, 6:1:0:0:4, 3:0:0:0:4, 3:0:0:0:4, 3:1:0:0:5, 5:2:0:0:4, 2:0:0:0:5, 6:2:0:0:6, 3:0:0:0:2, 4:0:0:0:3, 2:0:0:0:1, 3:0:0:0:2, 0:0:0:0:0, 5:3:0:0:7, 1:0:0:0:2, 4:0:0:0:6, 5:1:0:0:7, 3:1:0:0:2, 1:0:0:0:0, 3:1:0:0:2, 1:0:0:0:2, 1:0:0:0:0, 1:0:0:0:1, 2:0:0:0:1, 1:0:0:0:2, 3:2:0:0:4, 1:0:0:0:1, 3:0:0:0:2, 3:1:0:0:4, 4:1:0:0:4, 2:0:0:0:4, 5:2:0:0:6, 3:0:0:0:4, 5:0:2:0:2, 3:0:2:0:1, 3:0:0:0:4, 5:2:0:0:5, 4:5:0:0:7, 1:0:0:0:2, 7:1:0:0:7, 6:3:0:0:8, 4:2:0:0:5, 2:0:0:0:4, 5:1:0:0:4, 2:0:0:0:5, 4:0:0:0:3, 2:0:0:0:4, 4:1:0:0:4, 2:0:0:0:3, 4:2:0:0:4, 3:1:0:0:4, 5:0:0:0:6, 3:1:0:0:5, 4:2:0:0:3, 3:0:0:0:3, 1:0:0:0:0, 0:0:0:0:0, 0:0:0:0:0, 0:0:0:0:0, 0:0:0:0:0, 492:110:15:2:533
E major (4#), 2:0:0:0:0, 0:0:0:0:0, 1:0:0:0:0,  , 3:0:0:0:0, 0:0:0:0:0, 2:0:0:0:0,  , 2:0:0:0:0, 1:0:0:0:0, 2:0:0:0:0,  , 2:0:0:0:0, 0:0:0:0:0, 1:0:0:0:0,  , 3:0:0:0:0, 0:0:0:0:0, 2:0:0:0:0,  , 2:0:0:0:0, 1:0:0:0:0, 2:0:0:0:0,  , 4:1:1:0:2, 3:0:0:0:0, 3:0:0:0:0, 3:0:1:0:1, 3:0:0:0:0, 2:0:0:0:0, 2:0:0:0:0, 1:0:0:0:0, 5:0:0:0:0, 2:0:0:0:0, 2:0:0:0:0, 0:0:0:0:0, 3:0:0:0:0, 1:0:0:0:0, 1:0:0:0:0, 1:0:1:0:1, 3:0:0:0:0, 1:0:0:0:0, 3:0:1:0:1, 0:0:0:0:0, 2:0:0:0:0, 3:0:0:0:0, 5:0:1:0:1, 2:0:0:0:0, 2:0:0:0:0, 2:0:0:0:0, 2:0:0:0:0, 2:0:0:0:0, 4:3:0:0:3, 4:0:0:0:0, 5:2:0:0:2, 4:0:0:0:0, 3:0:0:0:0, 3:0:2:0:2, 3:1:0:0:1, 0:0:0:0:0, 3:0:1:0:1, 0:0:0:0:0, 3:0:1:0:1, 3:0:0:0:0, 3:0:0:0:0, 1:0:0:0:0, 2:0:0:0:0, 1:0:0:0:0, 3:0:0:0:0, 4:0:2:0:2, 3:0:0:0:0, 3:0:0:0:0, 2:0:0:0:0, 2:0:0:0:0, 2:0:1:0:1, 2:0:0:0:0, 3:0:0:0:0, 2:0:1:0:1, 3:0:0:0:0, 0:0:0:0:0, 2:0:0:0:0, 2:0:0:0:0, 2:0:0:0:0, 1:0:0:0:0, 3:0:0:0:0, 1:0:0:0:0, 2:0:0:0:0, 1:0:0:0:0, 3:0:0:0:0, 2:0:0:0:0, 2:0:0:0:0, 0:0:0:0:0, 2:0:0:0:0, 2:0:0:0:0, 5:0:0:0:0, 0:0:0:0:0, 2:0:0:0:0, 1:0:0:0:0, 0:0:0:0:0, 1:0:0:0:0, 3:0:0:0:0, 2:0:0:0:0, 3:0:0:0:0, 0:0:0:0:0, 2:0:0:0:0, 1:0:0:0:0, 2:0:0:0:0, 1:0:0:0:0, 3:0:0:0:0, 0:0:0:0:0, 2:0:0:0:0, 0:0:0:0:0, 3:0:0:0:0, 1:0:0:0:0, 4:0:0:0:0, 0:0:0:0:0, 2:0:0:0:0, 1:0:0:0:0, 4:0:0:0:0, 0:0:0:0:0, 3:0:0:0:0, 1:0:0:0:0, 1:0:0:0:0, 1:0:0:0:0, 3:0:0:0:0, 1:0:0:0:0, 3:0:0:0:0, 0:0:0:0:0, 2:0:0:0:0, 2:0:0:0:0, 2:0:0:0:0, 1:0:0:0:0, 2:0:0:0:0, 0:0:0:0:0, 1:0:0:0:0, 0:0:0:0:0, 3:0:0:0:0, 0:0:0:0:0, 3:0:0:0:0, 0:0:0:0:0, 2:0:0:0:0, 1:0:0:0:0, 2:0:0:0:0, 2:0:0:0:0, 3:0:0:0:0, 0:0:0:0:0, 3:0:1:0:1, 2:0:0:0:0, 3:0:0:0:0, 2:1:0:0:1, 4:0:0:0:0, 0:0:0:0:0, 4:1:0:0:1, 3:0:0:0:0, 4:0:0:0:0, 0:0:0:0:0, 3:0:0:0:0, 1:0:0:0:0, 2:0:0:0:0, 1:0:0:0:0, 5:0:0:0:0, 0:0:0:0:0, 3:0:0:0:0, 1:0:0:0:0, 2:0:0:0:0, 1:0:0:0:0, 4:0:0:0:0, 2:0:0:0:0, 2:0:0:0:0, 1:0:0:0:0, 1:0:0:0:0, 1:0:0:0:0, 1:0:0:0:0, 323:9:14:0:23
F minor (4b), 3:1:0:0:4, 1:0:0:0:3, 2:0:0:0:1,  , 3:0:0:0:3, 1:0:0:0:3, 3:1:0:0:3,  , 4:0:0:0:4, 3:1:0:0:7, 3:1:0:0:3,  , 3:1:0:0:4, 1:0:0:0:4, 2:0:0:0:1,  , 3:0:0:0:3, 1:0:0:0:4, 3:1:0:0:3,  , 4:0:0:0:4, 3:1:0:0:7, 3:1:0:0:3,  , 5:3:2:0:6, 3:0:0:0:2, 3:1:0:0:2, 3:2:0:0:4, 2:0:0:0:1, 4:0:2:0:2, 5:1:0:0:4, 2:0:0:0:2, 6:1:0:2:3, 5:2:0:0:6, 5:1:0:0:8, 1:0:0:0:1, 5:1:0:0:3, 2:0:0:0:0, 2:0:0:0:1, 2:0:0:0:1, 2:0:0:0:2, 2:0:0:0:3, 6:3:1:0:7, 1:0:0:0:3, 4:0:0:0:6, 6:2:0:0:5, 5:1:0:0:2, 1:0:0:0:0, 4:2:0:0:7, 2:0:0:0:1, 3:0:0:0:3, 3:0:0:0:4, 2:0:0:0:1, 1:0:0:0:0, 5:1:0:0:2, 1:0:0:0:0, 5:1:0:0:7, 7:2:0:0:9, 4:1:1:0:2, 2:0:0:0:2, 5:3:1:0:7, 2:0:0:0:2, 3:0:1:0:3, 2:0:0:0:3, 4:0:0:0:5, 1:0:0:0:4, 5:1:0:0:4, 4:0:0:0:2, 5:1:0:0:6, 6:5:2:0:9, 4:2:0:0:3, 2:0:0:0:1, 3:1:0:0:2, 1:0:0:0:0, 3:0:0:0:1, 3:0:0:0:2, 2:0:0:0:1, 2:0:0:0:0, 4:2:0:0:5, 2:0:0:0:3, 3:0:0:0:2, 4:1:0:0:4, 3:1:0:0:2, 0:0:0:0:0, 5:1:0:0:3, 2:0:0:0:3, 3:0:0:0:4, 1:0:0:0:0, 3:0:0:0:3, 2:0:0:0:1, 4:3:0:0:8, 1:0:0:0:2, 3:0:0:0:5, 5:3:0:0:7, 5:3:1:0:6, 1:0:0:0:4, 4:1:0:0:4, 2:0:0:0:1, 3:0:0:0:4, 2:0:0:0:1, 2:0:0:0:3, 1:0:0:0:0, 3:3:0:0:4, 1:0:0:0:0, 3:0:0:0:3, 3:1:0:0:4, 3:5:0:0:6, 1:0:0:0:0, 5:1:0:0:3, 2:0:0:0:3, 2:0:0:0:1, 2:0:0:0:3, 3:0:0:0:3, 1:0:0:0:3, 6:1:0:0:4, 3:0:0:0:4, 3:0:0:0:4, 3:1:0:0:5, 5:2:0:0:4, 2:0:0:0:5, 6:2:0:0:6, 3:0:0:0:2, 4:0:0:0:3, 2:0:0:0:1, 3:0:0:0:2, 0:0:0:0:0, 5:3:0:0:7, 1:0:0:0:2, 4:0:0:0:6, 5:1:0:0:7, 3:1:0:0:2, 1:0:0:0:0, 3:1:0:0:2, 1:0:0:0:2, 1:0:0:0:0, 1:0:0:0:1, 2:0:0:0:1, 1:0:0:0:2, 3:2:0:0:4, 1:0:0:0:1, 3:0:0:0:2, 3:1:0:0:4, 4:1:0:0:4, 2:0:0:0:4, 5:2:0:0:6, 3:0:0:0:4, 5:0:2:0:2, 3:0:2:0:1, 3:0:0:0:4, 5:2:0:0:5, 4:5:0:0:7, 1:0:0:0:2, 7:1:0:0:7, 6:3:0:0:8, 4:2:0:0:5, 2:0:0:0:4, 5:1:0:0:4, 2:0:0:0:5, 4:0:0:0:3, 2:0:0:0:4, 4:1:0:0:4, 2:0:0:0:3, 4:2:0:0:4, 3:1:0:0:4, 5:0:0:0:6, 3:1:0:0:5, 4:2:0:0:3, 3:0:0:0:3, 1:0:0:0:0, 0:0:0:0:0, 0:0:0:0:0, 0:0:0:0:0, 0:0:0:0:0, 492:110:15:2:533
C# minor (4#), 2:0:0:0:0, 0:0:0:0:0, 1:0:0:0:0,  , 3:0:0:0:0, 0:0:0:0:0, 2:0:0:0:0,  , 2:0:0:0:0, 1:0:0:0:0, 2:0:0:0:0,  , 2:0:0:0:0, 0:0:0:0:0, 1:0:0:0:0,  , 3:0:0:0:0, 0:0:0:0:0, 2:0:0:0:0,  , 2:0:0:0:0, 1:0:0:0:0, 2:0:0:0:0,  , 4:1:1:0:2, 3:0:0:0:0, 3:0:0:0:0, 3:0:1:0:1, 3:0:0:0:0, 2:0:0:0:0, 2:0:0:0:0, 1:0:0:0:0, 5:0:0:0:0, 2:0:0:0:0, 2:0:0:0:0, 0:0:0:0:0, 3:0:0:0:0, 1:0:0:0:0, 1:0:0:0:0, 1:0:1:0:1, 3:0:0:0:0, 1:0:0:0:0, 3:0:1:0:1, 0:0:0:0:0, 2:0:0:0:0, 3:0:0:0:0, 5:0:1:0:1, 2:0:0:0:0, 2:0:0:0:0, 2:0:0:0:0, 2:0:0:0:0, 2:0:0:0:0, 4:3:0:0:3, 4:0:0:0:0, 5:2:0:0:2, 4:0:0:0:0, 3:0:0:0:0, 3:0:2:0:2, 3:1:0:0:1, 0:0:0:0:0, 3:0:1:0:1, 0:0:0:0:0, 3:0:1:0:1, 3:0:0:0:0, 3:0:0:0:0, 1:0:0:0:0, 2:0:0:0:0, 1:0:0:0:0, 3:0:0:0:0, 4:0:2:0:2, 3:0:0:0:0, 3:0:0:0:0, 2:0:0:0:0, 2:0:0:0:0, 2:0:1:0:1, 2:0:0:0:0, 3:0:0:0:0, 2:0:1:0:1, 3:0:0:0:0, 0:0:0:0:0, 2:0:0:0:0, 2:0:0:0:0, 2:0:0:0:0, 1:0:0:0:0, 3:0:0:0:0, 1:0:0:0:0, 2:0:0:0:0, 1:0:0:0:0, 3:0:0:0:0, 2:0:0:0:0, 2:0:0:0:0, 0:0:0:0:0, 2:0:0:0:0, 2:0:0:0:0, 5:0:0:0:0, 0:0:0:0:0, 2:0:0:0:0, 1:0:0:0:0, 0:0:0:0:0, 1:0:0:0:0, 3:0:0:0:0, 2:0:0:0:0, 3:0:0:0:0, 0:0:0:0:0, 2:0:0:0:0, 1:0:0:0:0, 2:0:0:0:0, 1:0:0:0:0, 3:0:0:0:0, 0:0:0:0:0, 2:0:0:0:0, 0:0:0:0:0, 3:0:0:0:0, 1:0:0:0:0, 4:0:0:0:0, 0:0:0:0:0, 2:0:0:0:0, 1:0:0:0:0, 4:0:0:0:0, 0:0:0:0:0, 3:0:0:0:0, 1:0:0:0:0, 1:0:0:0:0, 1:0:0:0:0, 3:0:0:0:0, 1:0:0:0:0, 3:0:0:0:0, 0:0:0:0:0, 2:0:0:0:0, 2:0:0:0:0, 2:0:0:0:0, 1:0:0:0:0, 2:0:0:0:0, 0:0:0:0:0, 1:0:0:0:0, 0:0:0:0:0, 3:0:0:0:0, 0:0:0:0:0, 3:0:0:0:0, 0:0:0:0:0, 2:0:0:0:0, 1:0:0:0:0, 2:0:0:0:0, 2:0:0:0:0, 3:0:0:0:0, 0:0:0:0:0, 3:0:1:0:1, 2:0:0:0:0, 3:0:0:0:0, 2:1:0:0:1, 4:0:0:0:0, 0:0:0:0:0, 4:1:0:0:1, 3:0:0:0:0, 4:0:0:0:0, 0:0:0:0:0, 3:0:0:0:0, 1:0:0:0:0, 2:0:0:0:0, 1:0:0:0:0, 5:0:0:0:0, 0:0:0:0:0, 3:0:0:0:0, 1:0:0:0:0, 2:0:0:0:0, 1:0:0:0:0, 4:0:0:0:0, 2:0:0:0:0, 2:0:0:0:0, 1:0:0:0:0, 1:0:0:0:0, 1:0:0:0:0, 1:0:0:0:0, 323:9:14:0:23
Db major (5b), 3:1:0:0:5, 1:0:0:0:3, 2:0:0:0:2,  , 4:0:0:0:4, 1:0:0:0:3, 3:1:0:0:5,  , 5:0:0:0:5, 4:1:0:0:7, 3:1:0:0:5,  , 3:1:0:0:5, 1:0:0:0:4, 2:0:0:0:2,  , 4:0:0:0:4, 1:0:0:0:4, 3:1:0:0:5,  , 5:0:0:0:5, 4:1:0:0:7, 3:1:0:0:5,  , 5:1:1:0:5, 4:0:0:0:3, 3:0:0:0:3, 3:2:0:0:7, 3:0:0:0:3, 4:0:2:0:3, 5:1:0:0:6, 2:0:0:0:3, 7:1:0:2:4, 6:2:0:0:7, 5:1:0:0:11, 1:0:0:0:1, 5:1:0:0:5, 1:0:0:0:1, 2:0:0:0:2, 1:0:0:0:1, 3:0:0:0:5, 2:0:0:0:4, 6:1:0:0:6, 1:0:0:0:3, 5:0:0:0:7, 7:2:0:0:5, 6:1:0:0:5, 1:0:0:0:1, 4:1:0:0:7, 2:0:0:0:3, 3:0:0:0:5, 3:0:0:0:5, 3:0:0:0:3, 2:0:0:0:2, 6:1:0:0:4, 2:0:0:0:2, 6:1:0:0:8, 8:2:0:0:9, 4:1:1:0:4, 2:0:0:0:2, 5:1:0:0:6, 2:0:0:0:2, 4:0:1:0:3, 2:0:0:0:4, 5:0:0:0:6, 1:0:0:0:4, 5:1:0:0:7, 4:0:0:0:5, 6:1:0:0:10, 7:5:2:0:11, 4:2:0:0:6, 2:0:0:0:2, 3:1:0:0:5, 1:0:0:0:1, 2:0:0:0:3, 3:0:0:0:3, 3:0:0:0:4, 1:0:0:0:2, 4:1:0:0:7, 2:0:0:0:3, 4:0:0:0:5, 5:1:0:0:4, 3:1:0:0:4, 0:0:0:0:0, 5:1:0:0:7, 1:0:0:0:3, 3:0:0:0:7, 1:0:0:0:2, 4:0:0:0:4, 2:0:0:0:2, 4:1:0:0:7, 1:0:0:0:2, 4:0:0:0:7, 6:3:0:0:10, 6:1:0:0:7, 1:0:0:0:4, 4:1:0:0:8, 2:0:0:0:3, 2:0:0:0:4, 2:0:0:0:2, 3:0:0:0:7, 1:0:0:0:1, 4:2:0:0:5, 0:0:0:0:0, 4:0:0:0:4, 4:1:0:0:4, 3:1:0:0:5, 2:0:0:0:0, 5:1:0:0:7, 1:0:0:0:3, 2:0:0:0:4, 1:0:0:0:3, 4:0:0:0:7, 1:0:0:0:3, 6:1:0:0:8, 2:0:0:0:4, 4:0:0:0:5, 4:1:0:0:5, 6:1:0:0:5, 2:0:0:0:5, 6:2:0:0:9, 3:0:0:0:5, 4:0:0:0:5, 2:0:0:0:4, 4:0:0:0:7, 0:0:0:0:0, 5:2:0:0:8, 1:0:0:0:2, 5:0:0:0:9, 6:1:0:0:8, 3:1:0:0:4, 1:0:0:0:1, 3:1:0:0:4, 1:0:0:0:2, 1:0:0:0:1, 1:0:0:0:1, 3:0:0:0:3, 1:0:0:0:2, 4:1:0:0:4, 1:0:0:0:1, 4:0:0:0:4, 4:1:0:0:4, 4:1:0:0:7, 2:0:0:0:6, 5:1:0:0:6, 2:0:0:0:4, 4:0:2:0:3, 3:0:2:0:4, 4:0:0:0:5, 6:0:0:0:3, 5:2:0:0:6, 1:0:0:0:2, 8:1:0:0:8, 7:3:0:0:9, 5:1:0:0:6, 2:0:0:0:4, 5:1:0:0:6, 2:0:0:0:5, 4:0:0:0:4, 3:0:0:0:4, 5:1:0:0:7, 2:0:0:0:3, 5:2:0:0:5, 3:0:0:0:3, 6:0:0:0:7, 4:1:0:0:5, 5:1:0:0:3, 3:0:0:0:5, 1:0:0:0:1, 0:0:0:0:0, 0:0:0:0:0, 0:0:0:0:0, 0:0:0:0:0, 539:80:11:2:725
B major (5#), 3:0:0:0:0, 1:0:0:0:0, 2:0:0:0:0,  , 4:0:0:0:1, 1:0:0:0:0, 3:0:0:0:0,  , 3:0:0:0:0, 2:0:0:0:0, 3:0:0:0:0,  , 3:0:0:0:0, 1:0:0:0:0, 2:0:0:0:0,  , 4:0:0:0:1, 1:0:0:0:0, 3:0:0:0:0,  , 3:0:0:0:0, 2:0:0:0:0, 3:0:0:0:0,  , 5:1:1:0:1, 4:0:0:0:1, 4:0:0:0:0, 4:0:1:0:2, 3:0:0:0:1, 3:0:0:0:0, 3:0:0:0:0, 2:0:0:0:0, 6:0:0:0:0, 3:0:0:0:0, 3:0:0:0:0, 1:0:0:0:0, 4:0:0:0:1, 1:0:0:0:0, 2:0:0:0:0, 1:0:1:0:0, 3:0:0:0:1, 1:0:0:0:0, 4:0:1:0:0, 1:0:0:0:0, 3:0:0:0:0, 4:0:0:0:1, 6:0:1:0:1, 2:0:0:0:0, 3:0:0:0:0, 2:0:0:0:1, 3:0:0:0:0, 3:0:0:0:0, 4:3:0:0:5, 4:0:0:0:1, 6:2:0:0:3, 4:0:0:0:1, 4:0:0:0:0, 4:0:2:0:0, 4:1:0:0:1, 1:0:0:0:0, 4:0:1:0:0, 1:0:0:0:0, 4:0:1:0:0, 3:0:0:0:0, 4:0:0:0:2, 1:0:0:0:4, 3:0:0:0:0, 2:0:0:0:0, 4:0:0:0:0, 5:0:2:0:2, 4:0:0:0:0, 4:0:0:0:2, 3:0:0:0:0, 2:0:0:0:1, 3:0:1:0:0, 3:0:0:0:1, 3:0:0:0:1, 2:0:1:0:0, 4:0:0:0:0, 1:0:0:0:0, 2:0:0:0:0, 3:0:0:0:0, 3:0:0:0:0, 0:0:0:0:0, 4:0:0:0:1, 2:0:0:0:0, 2:0:0:0:1, 1:0:0:0:0, 4:0:0:0:1, 2:0:0:0:2, 3:0:0:0:0, 1:0:0:0:0, 2:0:0:0:0, 3:0:0:0:0, 6:0:0:0:1, 1:0:0:0:0, 3:0:0:0:0, 1:0:0:0:0, 1:0:0:0:0, 2:0:0:0:0, 3:0:0:0:1, 2:0:0:0:2, 4:0:0:0:0, 0:0:0:0:0, 2:0:0:0:0, 2:0:0:0:0, 3:0:0:0:0, 1:0:0:0:0, 4:0:0:0:1, 1:0:0:0:0, 2:0:0:0:1, 1:0:0:0:0, 3:0:0:0:1, 2:0:0:0:1, 5:0:0:0:1, 1:0:0:0:0, 2:0:0:0:0, 2:0:0:0:0, 5:0:0:0:0, 1:0:0:0:0, 4:0:0:0:0, 2:0:0:0:0, 2:0:0:0:0, 1:0:0:0:0, 3:0:0:0:2, 1:0:0:0:1, 4:0:0:0:0, 1:0:0:0:0, 3:0:0:0:0, 3:0:0:0:0, 3:0:0:0:0, 1:0:0:0:0, 3:0:0:0:0, 1:0:0:0:0, 1:0:0:0:0, 1:0:0:0:0, 3:0:0:0:1, 1:0:0:0:0, 4:0:0:0:0, 1:0:0:0:0, 2:0:0:0:0, 2:0:0:0:0, 3:0:0:0:0, 2:0:0:0:1, 4:0:0:0:1, 1:0:0:0:0, 4:0:1:0:0, 1:0:0:0:0, 4:0:0:0:3, 3:1:0:0:1, 5:0:0:0:0, 1:0:0:0:0, 4:0:0:0:0, 4:0:0:0:1, 5:0:0:0:0, 1:0:0:0:0, 4:0:0:0:0, 2:0:0:0:0, 3:0:0:0:0, 2:0:0:0:0, 4:0:0:0:2, 1:0:0:0:0, 4:0:0:0:0, 2:0:0:0:0, 3:0:0:0:0, 2:0:0:0:0, 5:0:0:0:0, 3:0:0:0:1, 2:0:0:0:1, 1:0:0:0:1, 1:0:0:0:1, 1:0:0:0:1, 1:0:0:0:1, 441:8:14:0:69
Bb minor (5b), 3:1:0:0:5, 1:0:0:0:3, 2:0:0:0:2,  , 4:0:0:0:4, 1:0:0:0:3, 3:1:0:0:5,  , 5:0:0:0:5, 4:1:0:0:7, 3:1:0:0:5,  , 3:1:0:0:5, 1:0:0:0:4, 2:0:0:0:2,  , 4:0:0:0:4, 1:0:0:0:4, 3:1:0:0:5,  , 5:0:0:0:5, 4:1:0:0:7, 3:1:0:0:5,  , 5:1:1:0:5, 4:0:0:0:3, 3:0:0:0:3, 3:2:0:0:7, 3:0:0:0:3, 4:0:2:0:3, 5:1:0:0:6, 2:0:0:0:3, 7:1:0:2:4, 6:2:0:0:7, 5:1:0:0:11, 1:0:0:0:1, 5:1:0:0:5, 1:0:0:0:1, 2:0:0:0:2, 1:0:0:0:1, 3:0:0:0:5, 2:0:0:0:4, 6:1:0:0:6, 1:0:0:0:3, 5:0:0:0:7, 7:2:0:0:5, 6:1:0:0:5, 1:0:0:0:1, 4:1:0:0:7, 2:0:0:0:3, 3:0:0:0:5, 3:0:0:0:5, 3:0:0:0:3, 2:0:0:0:2, 6:1:0:0:4, 2:0:0:0:2, 6:1:0:0:8, 8:2:0:0:9, 4:1:1:0:4, 2:0:0:0:2, 5:1:0:0:6, 2:0:0:0:2, 4:0:1:0:3, 2:0:0:0:4, 5:0:0:0:6, 1:0:0:0:4, 5:1:0:0:7, 4:0:0:0:5, 6:1:0:0:10, 7:5:2:0:11, 4:2:0:0:6, 2:0:0:0:2, 3:1:0:0:5, 1:0:0:0:1, 2:0:0:0:3, 3:0:0:0:3, 3:0:0:0:4, 1:0:0:0:2, 4:1:0:0:7, 2:0:0:0:3, 4:0:0:0:5, 5:1:0:0:4, 3:1:0:0:4, 0:0:0:0:0, 5:1:0:0:7, 1:0:0:0:3, 3:0:0:0:7, 1:0:0:0:2, 4:0:0:0:4, 2:0:0:0:2, 4:1:0:0:7, 1:0:0:0:2, 4:0:0:0:7, 6:3:0:0:10, 6:1:0:0:7, 1:0:0:0:4, 4:1:0:0:8, 2:0:0:0:3, 2:0:0:0:4, 2:0:0:0:2, 3:0:0:0:7, 1:0:0:0:1, 4:2:0:0:5, 0:0:0:0:0, 4:0:0:0:4, 4:1:0:0:4, 3:1:0:0:5, 2:0:0:0:0, 5:1:0:0:7, 1:0:0:0:3, 2:0:0:0:4, 1:0:0:0:3, 4:0:0:0:7, 1:0:0:0:3, 6:1:0:0:8, 2:0:0:0:4, 4:0:0:0:5, 4:1:0:0:5, 6:1:0:0:5, 2:0:0:0:5, 6:2:0:0:9, 3:0:0:0:5, 4:0:0:0:5, 2:0:0:0:4, 4:0:0:0:7, 0:0:0:0:0, 5:2:0:0:8, 1:0:0:0:2, 5:0:0:0:9, 6:1:0:0:8, 3:1:0:0:4, 1:0:0:0:1, 3:1:0:0:4, 1:0:0:0:2, 1:0:0:0:1, 1:0:0:0:1, 3:0:0:0:3, 1:0:0:0:2, 4:1:0:0:4, 1:0:0:0:1, 4:0:0:0:4, 4:1:0:0:4, 4:1:0:0:7, 2:0:0:0:6, 5:1:0:0:6, 2:0:0:0:4, 4:0:2:0:3, 3:0:2:0:4, 4:0:0:0:5, 6:0:0:0:3, 5:2:0:0:6, 1:0:0:0:2, 8:1:0:0:8, 7:3:0:0:9, 5:1:0:0:6, 2:0:0:0:4, 5:1:0:0:6, 2:0:0:0:5, 4:0:0:0:4, 3:0:0:0:4, 5:1:0:0:7, 2:0:0:0:3, 5:2:0:0:5, 3:0:0:0:3, 6:0:0:0:7, 4:1:0:0:5, 5:1:0:0:3, 3:0:0:0:5, 1:0:0:0:1, 0:0:0:0:0, 0:0:0:0:0, 0:0:0:0:0, 0:0:0:0:0, 539:80:11:2:725
G# minor (5#), 3:0:0:0:0, 1:0:0:0:0, 2:0:0:0:0,  , 4:0:0:0:1, 1:0:0:0:0, 3:0:0:0:0,  , 3:0:0:0:0, 2:0:0:0:0, 3:0:0:0:0,  , 3:0:0:0:0, 1:0:0:0:0, 2:0:0:0:0,  , 4:0:0:0:1, 1:0:0:0:0, 3:0:0:0:0,  , 3:0:0:0:0, 2:0:0:0:0, 3:0:0:0:0,  , 5:1:1:0:1, 4:0:0:0:1, 4:0:0:0:0, 4:0:1:0:2, 3:0:0:0:1, 3:0:0:0:0, 3:0:0:0:0, 2:0:0:0:0, 6:0:0:0:0, 3:0:0:0:0, 3:0:0:0:0, 1:0:0:0:0, 4:0:0:0:1, 1:0:0:0:0, 2:0:0:0:0, 1:0:1:0:0, 3:0:0:0:1, 1:0:0:0:0, 4:0:1:0:0, 1:0:0:0:0, 3:0:0:0:0, 4:0:0:0:1, 6:0:1:0:1, 2:0:0:0:0, 3:0:0:0:0, 2:0:0:0:1, 3:0:0:0:0, 3:0:0:0:0, 4:3:0:0:5, 4:0:0:0:1, 6:2:0:0:3, 4:0:0:0:1, 4:0:0:0:0, 4:0:2:0:0, 4:1:0:0:1, 1:0:0:0:0, 4:0:1:0:0, 1:0:0:0:0, 4:0:1:0:0, 3:0:0:0:0, 4:0:0:0:2, 1:0:0:0:4, 3:0:0:0:0, 2:0:0:0:0, 4:0:0:0:0, 5:0:2:0:2, 4:0:0:0:0, 4:0:0:0:2, 3:0:0:0:0, 2:0:0:0:1, 3:0:1:0:0, 3:0:0:0:1, 3:0:0:0:1, 2:0:1:0:0, 4:0:0:0:0, 1:0:0:0:0, 2:0:0:0:0, 3:0:0:0:0, 3:0:0:0:0, 0:0:0:0:0, 4:0:0:0:1, 2:0:0:0:0, 2:0:0:0:1, 1:0:0:0:0, 4:0:0:0:1, 2:0:0:0:2, 3:0:0:0:0, 1:0:0:0:0, 2:0:0:0:0, 3:0:0:0:0, 6:0:0:0:1, 1:0:0:0:0, 3:0:0:0:0, 1:0:0:0:0, 1:0:0:0:0, 2:0:0:0:0, 3:0:0:0:1, 2:0:0:0:2, 4:0:0:0:0, 0:0:0:0:0, 2:0:0:0:0, 2:0:0:0:0, 3:0:0:0:0, 1:0:0:0:0, 4:0:0:0:1, 1:0:0:0:0, 2:0:0:0:1, 1:0:0:0:0, 3:0:0:0:1, 2:0:0:0:1, 5:0:0:0:1, 1:0:0:0:0, 2:0:0:0:0, 2:0:0:0:0, 5:0:0:0:0, 1:0:0:0:0, 4:0:0:0:0, 2:0:0:0:0, 2:0:0:0:0, 1:0:0:0:0, 3:0:0:0:2, 1:0:0:0:1, 4:0:0:0:0, 1:0:0:0:0, 3:0:0:0:0, 3:0:0:0:0, 3:0:0:0:0, 1:0:0:0:0, 3:0:0:0:0, 1:0:0:0:0, 1:0:0:0:0, 1:0:0:0:0, 3:0:0:0:1, 1:0:0:0:0, 4:0:0:0:0, 1:0:0:0:0, 2:0:0:0:0, 2:0:0:0:0, 3:0:0:0:0, 2:0:0:0:1, 4:0:0:0:1, 1:0:0:0:0, 4:0:1:0:0, 1:0:0:0:0, 4:0:0:0:3, 3:1:0:0:1, 5:0:0:0:0, 1:0:0:0:0, 4:0:0:0:0, 4:0:0:0:1, 5:0:0:0:0, 1:0:0:0:0, 4:0:0:0:0, 2:0:0:0:0, 3:0:0:0:0, 2:0:0:0:0, 4:0:0:0:2, 1:0:0:0:0, 4:0:0:0:0, 2:0:0:0:0, 3:0:0:0:0, 2:0:0:0:0, 5:0:0:0:0, 3:0:0:0:1, 2:0:0:0:1, 1:0:0:0:1, 1:0:0:0:1, 1:0:0:0:1, 1:0:0:0:1, 441:8:14:0:69
Gb major (6b), 4:1:0:0:5, 1:0:0:0:3, 2:0:0:0:2,  , 4:0:0:0:5, 1:0:0:0:3, 4:1:0:0:5,  , 5:0:0:0:6, 4:1:0:0:8, 4:1:0:0:5,  , 4:1:0:0:5, 1:0:0:0:4, 2:0:0:0:2,  , 4:0:0:0:5, 1:0:0:0:4, 4:1:0:0:5,  , 5:0:0:0:6, 4:1:0:0:8, 4:1:0:0:5,  , 6:1:0:0:5, 3:0:0:0:3, 3:0:0:0:4, 4:2:0:0:7, 3:0:0:0:5, 3:0:2:0:2, 6:1:0:0:5, 2:0:0:0:3, 8:1:0:2:7, 6:2:0:0:9, 6:1:0:0:8, 1:0:0:0:1, 6:1:0:0:5, 1:0:0:0:1, 2:0:0:0:2, 0:0:0:0:0, 3:0:0:0:5, 1:0:0:0:1, 7:1:0:0:4, 1:0:0:0:3, 5:0:0:0:8, 7:2:0:0:6, 7:1:0:0:6, 2:0:0:0:1, 5:1:0:0:5, 2:0:0:0:3, 3:1:1:0:4, 3:1:1:0:3, 3:0:0:0:7, 3:0:0:0:3, 7:1:0:0:7, 3:0:0:0:3, 6:1:0:0:8, 8:2:0:0:8, 5:1:1:0:4, 1:0:0:0:1, 6:1:0:0:5, 1:0:0:0:1, 3:0:0:0:4, 2:1:1:0:2, 5:0:0:0:7, 0:0:0:0:0, 6:1:0:0:7, 4:0:0:0:5, 6:1:0:0:11, 7:5:2:0:12, 5:2:0:0:6, 3:0:0:0:2, 4:1:0:0:5, 1:0:0:0:1, 2:0:0:0:3, 3:0:0:0:3, 3:0:0:0:5, 1:0:0:0:2, 5:1:0:0:7, 1:0:0:0:2, 4:0:0:0:6, 5:1:0:0:5, 4:1:0:0:4, 0:0:0:0:0, 6:1:0:0:6, 1:0:0:0:3, 2:0:0:0:5, 1:0:0:0:2, 4:0:0:0:6, 1:0:0:0:1, 5:1:0:0:6, 1:0:0:0:2, 4:0:0:0:6, 6:3:0:0:12, 7:1:0:0:8, 1:0:0:0:4, 5:1:0:0:6, 2:0:0:0:3, 1:0:0:0:2, 2:0:0:0:2, 3:0:0:0:6, 1:0:0:0:1, 5:2:0:0:6, 0:0:0:0:0, 4:0:0:0:7, 4:1:0:0:9, 4:1:0:0:5, 2:0:0:0:1, 6:1:0:0:6, 1:0:0:0:3, 1:0:0:0:3, 1:0:0:0:3, 4:0:0:0:7, 1:0:0:0:3, 7:1:0:0:7, 1:0:0:0:3, 4:0:0:0:7, 4:1:0:0:6, 7:1:0:0:6, 1:0:0:0:4, 7:2:0:0:8, 3:0:0:0:5, 3:0:0:0:4, 2:0:0:0:4, 4:0:0:0:8, 0:0:0:0:0, 6:2:0:0:8, 1:0:0:0:2, 5:0:0:0:10, 6:1:0:0:7, 4:1:0:0:4, 1:0:0:0:1, 4:1:0:0:4, 1:0:0:0:2, 1:0:0:0:1, 1:0:0:0:1, 3:0:0:0:4, 1:0:0:0:2, 5:1:0:0:5, 1:0:0:0:1, 4:0:0:0:5, 4:1:0:0:5, 5:1:0:0:6, 2:0:0:0:6, 6:1:0:0:5, 1:0:0:0:3, 3:0:0:0:3, 2:0:0:0:4, 4:0:0:0:6, 5:0:0:0:4, 6:2:0:0:8, 1:0:0:0:2, 8:1:0:0:8, 7:3:0:0:11, 6:1:0:0:7, 1:0:0:0:2, 6:1:0:0:4, 2:1:1:0:3, 4:2:2:0:4, 2:0:0:0:2, 5:0:0:0:6, 2:0:0:0:3, 6:2:0:0:6, 3:0:0:0:4, 6:0:0:0:7, 4:1:0:0:7, 6:1:0:0:4, 2:0:0:0:3, 1:0:0:0:1, 0:0:0:0:0, 0:0:0:0:0, 0:0:0:0:0, 0:0:0:0:0, 564:85:11:2:735
F# major (6#), 3:0:0:0:1, 1:0:0:0:0, 2:0:0:0:0,  , 4:0:0:0:1, 1:0:0:0:0, 3:0:0:0:1,  , 4:0:0:0:0, 3:0:0:0:0, 3:0:0:0:1,  , 3:0:0:0:1, 1:0:0:0:0, 2:0:0:0:0,  , 4:0:0:0:1, 1:0:0:0:0, 3:0:0:0:1,  , 4:0:0:0:0, 3:0:0:0:0, 3:0:0:0:1,  , 4:1:0:0:3, 3:0:0:0:0, 4:0:0:0:0, 3:0:1:0:0, 3:0:0:0:1, 4:0:0:0:0, 4:0:0:0:1, 2:0:0:0:0, 7:0:0:0:1, 4:0:0:0:0, 4:0:0:0:1, 1:0:0:0:0, 4:0:0:0:1, 1:0:0:0:0, 2:0:0:0:0, 0:0:0:0:0, 3:0:0:0:1, 1:0:0:0:0, 3:0:0:0:1, 1:0:0:0:0, 4:0:0:0:0, 5:0:0:0:0, 6:0:1:0:1, 2:0:0:0:1, 3:0:0:0:3, 2:0:0:0:0, 3:0:0:0:1, 3:0:0:0:1, 4:3:0:0:4, 3:0:0:0:1, 5:2:0:0:3, 3:0:0:0:1, 5:0:0:0:0, 5:0:0:0:0, 5:1:0:0:3, 1:0:0:0:0, 3:0:0:0:1, 1:0:0:0:0, 3:0:0:0:0, 3:0:0:0:1, 5:0:0:0:2, 0:0:0:0:0, 4:0:0:0:1, 3:0:0:0:0, 5:0:0:0:0, 6:0:2:0:0, 4:0:0:0:1, 3:0:0:0:1, 3:0:0:0:1, 1:0:0:0:0, 2:0:0:0:0, 3:1:1:0:1, 3:0:0:0:1, 1:0:0:0:0, 5:0:0:0:1, 1:0:0:0:0, 3:0:0:0:0, 4:0:0:0:2, 3:0:0:0:1, 0:0:0:0:0, 3:0:0:0:1, 2:0:0:0:0, 2:2:2:0:2, 1:0:0:0:0, 4:0:0:0:1, 1:0:0:0:0, 3:0:0:0:1, 1:0:0:0:0, 3:0:0:0:0, 4:0:0:0:0, 5:0:0:0:1, 1:0:0:0:0, 3:0:0:0:1, 2:0:0:0:0, 1:0:0:0:0, 2:0:0:0:0, 3:0:0:0:1, 1:0:0:0:0, 4:0:0:0:1, 0:0:0:0:0, 3:0:0:0:0, 3:0:0:0:0, 3:0:0:0:1, 1:0:0:0:0, 3:0:0:0:1, 1:0:0:0:0, 1:0:0:0:0, 1:0:0:0:0, 4:0:0:0:1, 1:0:0:0:0, 5:1:1:0:2, 1:0:0:0:0, 3:0:0:0:0, 3:0:0:0:0, 6:0:0:0:1, 1:0:0:0:0, 5:0:0:0:1, 3:0:0:0:0, 3:0:0:0:0, 2:0:0:0:0, 4:0:0:0:2, 0:0:0:0:0, 5:0:0:0:1, 1:0:0:0:0, 4:0:0:0:0, 4:0:0:0:0, 3:0:0:0:1, 1:0:0:0:0, 3:0:0:0:1, 1:0:0:0:0, 1:0:0:0:0, 1:0:0:0:0, 3:0:0:0:1, 1:0:0:0:0, 4:0:0:0:1, 1:0:0:0:0, 3:0:0:0:0, 3:0:0:0:0, 3:0:0:0:1, 2:4:4:0:4, 3:0:0:0:1, 1:0:0:0:0, 5:0:0:0:0, 2:0:0:0:0, 4:0:0:0:1, 4:1:0:0:1, 5:0:0:0:1, 1:0:0:0:0, 5:0:0:0:0, 5:0:0:0:1, 6:0:0:0:1, 1:0:0:0:0, 4:0:0:0:1, 2:0:0:0:1, 3:0:0:0:2, 2:0:0:0:0, 4:0:0:0:1, 2:0:0:0:0, 4:0:0:0:1, 3:0:0:0:0, 4:0:0:0:0, 3:0:0:0:0, 5:0:0:0:1, 2:0:0:0:0, 1:0:0:0:0, 0:0:0:0:0, 0:0:0:0:0, 0:0:0:0:0, 0:0:0:0:0, 462:16:12:0:92
Eb minor (6b), 4:1:0:0:5, 1:0:0:0:3, 2:0:0:0:2,  , 4:0:0:0:5, 1:0:0:0:3, 4:1:0:0:5,  , 5:0:0:0:6, 4:1:0:0:8, 4:1:0:0:5,  , 4:1:0:0:5, 1:0:0:0:4, 2:0:0:0:2,  , 4:0:0:0:5, 1:0:0:0:4, 4:1:0:0:5,  , 5:0:0:0:6, 4:1:0:0:8, 4:1:0:0:5,  , 6:1:0:0:5, 3:0:0:0:3, 3:0:0:0:4, 4:2:0:0:7, 3:0:0:0:5, 3:0:2:0:2, 6:1:0:0:5, 2:0:0:0:3, 8:1:0:2:7, 6:2:0:0:9, 6:1:0:0:8, 1:0:0:0:1, 6:1:0:0:5, 1:0:0:0:1, 2:0:0:0:2, 0:0:0:0:0, 3:0:0:0:5, 1:0:0:0:1, 7:1:0:0:4, 1:0:0:0:3, 5:0:0:0:8, 7:2:0:0:6, 7:1:0:0:6, 2:0:0:0:1, 5:1:0:0:5, 2:0:0:0:3, 3:1:1:0:4, 3:1:1:0:3, 3:0:0:0:7, 3:0:0:0:3, 7:1:0:0:7, 3:0:0:0:3, 6:1:0:0:8, 8:2:0:0:8, 5:1:1:0:4, 1:0:0:0:1, 6:1:0:0:5, 1:0:0:0:1, 3:0:0:0:4, 2:1:1:0:2, 5:0:0:0:7, 0:0:0:0:0, 6:1:0:0:7, 4:0:0:0:5, 6:1:0:0:11, 7:5:2:0:12, 5:2:0:0:6, 3:0:0:0:2, 4:1:0:0:5, 1:0:0:0:1, 2:0:0:0:3, 3:0:0:0:3, 3:0:0:0:5, 1:0:0:0:2, 5:1:0:0:7, 1:0:0:0:2, 4:0:0:0:6, 5:1:0:0:5, 4:1:0:0:4, 0:0:0:0:0, 6:1:0:0:6, 1:0:0:0:3, 2:0:0:0:5, 1:0:0:0:2, 4:0:0:0:6, 1:0:0:0:1, 5:1:0:0:6, 1:0:0:0:2, 4:0:0:0:6, 6:3:0:0:12, 7:1:0:0:8, 1:0:0:0:4, 5:1:0:0:6, 2:0:0:0:3, 1:0:0:0:2, 2:0:0:0:2, 3:0:0:0:6, 1:0:0:0:1, 5:2:0:0:6, 0:0:0:0:0, 4:0:0:0:7, 4:1:0:0:9, 4:1:0:0:5, 2:0:0:0:1, 6:1:0:0:6, 1:0:0:0:3, 1:0:0:0:3, 1:0:0:0:3, 4:0:0:0:7, 1:0:0:0:3, 7:1:0:0:7, 1:0:0:0:3, 4:0:0:0:7, 4:1:0:0:6, 7:1:0:0:6, 1:0:0:0:4, 7:2:0:0:8, 3:0:0:0:5, 3:0:0:0:4, 2:0:0:0:4, 4:0:0:0:8, 0:0:0:0:0, 6:2:0:0:8, 1:0:0:0:2, 5:0:0:0:10, 6:1:0:0:7, 4:1:0:0:4, 1:0:0:0:1, 4:1:0:0:4, 1:0:0:0:2, 1:0:0:0:1, 1:0:0:0:1, 3:0:0:0:4, 1:0:0:0:2, 5:1:0:0:5, 1:0:0:0:1, 4:0:0:0:5, 4:1:0:0:5, 5:1:0:0:6, 2:0:0:0:6, 6:1:0:0:5, 1:0:0:0:3, 3:0:0:0:3, 2:0:0:0:4, 4:0:0:0:6, 5:0:0:0:4, 6:2:0:0:8, 1:0:0:0:2, 8:1:0:0:8, 7:3:0:0:11, 6:1:0:0:7, 1:0:0:0:2, 6:1:0:0:4, 2:1:1:0:3, 4:2:2:0:4, 2:0:0:0:2, 5:0:0:0:6, 2:0:0:0:3, 6:2:0:0:6, 3:0:0:0:4, 6:0:0:0:7, 4:1:0:0:7, 6:1:0:0:4, 2:0:0:0:3, 1:0:0:0:1, 0:0:0:0:0, 0:0:0:0:0, 0:0:0:0:0, 0:0:0:0:0, 564:85:11:2:735
D# minor (6#), 3:0:0:0:1, 1:0:0:0:0, 2:0:0:0:0,  , 4:0:0:0:1, 1:0:0:0:0, 3:0:0:0:1,  , 4:0:0:0:0, 3:0:0:0:0, 3:0:0:0:1,  , 3:0:0:0:1, 1:0:0:0:0, 2:0:0:0:0,  , 4:0:0:0:1, 1:0:0:0:0, 3:0:0:0:1,  , 4:0:0:0:0, 3:0:0:0:0, 3:0:0:0:1,  , 4:1:0:0:3, 3:0:0:0:0, 4:0:0:0:0, 3:0:1:0:0, 3:0:0:0:1, 4:0:0:0:0, 4:0:0:0:1, 2:0:0:0:0, 7:0:0:0:1, 4:0:0:0:0, 4:0:0:0:1, 1:0:0:0:0, 4:0:0:0:1, 1:0:0:0:0, 2:0:0:0:0, 0:0:0:0:0, 3:0:0:0:1, 1:0:0:0:0, 3:0:0:0:1, 1:0:0:0:0, 4:0:0:0:0, 5:0:0:0:0, 6:0:1:0:1, 2:0:0:0:1, 3:0:0:0:3, 2:0:0:0:0, 3:0:0:0:1, 3:0:0:0:1, 4:3:0:0:4, 3:0:0:0:1, 5:2:0:0:3, 3:0:0:0:1, 5:0:0:0:0, 5:0:0:0:0, 5:1:0:0:3, 1:0:0:0:0, 3:0:0:0:1, 1:0:0:0:0, 3:0:0:0:0, 3:0:0:0:1, 5:0:0:0:2, 0:0:0:0:0, 4:0:0:0:1, 3:0:0:0:0, 5:0:0:0:0, 6:0:2:0:0, 4:0:0:0:1, 3:0:0:0:1, 3:0:0:0:1, 1:0:0:0:0, 2:0:0:0:0, 3:1:1:0:1, 3:0:0:0:1, 1:0:0:0:0, 5:0:0:0:1, 1:0:0:0:0, 3:0:0:0:0, 4:0:0:0:2, 3:0:0:0:1, 0:0:0:0:0, 3:0:0:0:1, 2:0:0:0:0, 2:2:2:0:2, 1:0:0:0:0, 4:0:0:0:1, 1:0:0:0:0, 3:0:0:0:1, 1:0:0:0:0, 3:0:0:0:0, 4:0:0:0:0, 5:0:0:0:1, 1:0:0:0:0, 3:0:0:0:1, 2:0:0:0:0, 1:0:0:0:0, 2:0:0:0:0, 3:0:0:0:1, 1:0:0:0:0, 4:0:0:0:1, 0:0:0:0:0, 3:0:0:0:0, 3:0:0:0:0, 3:0:0:0:1, 1:0:0:0:0, 3:0:0:0:1, 1:0:0:0:0, 1:0:0:0:0, 1:0:0:0:0, 4:0:0:0:1, 1:0:0:0:0, 5:1:1:0:2, 1:0:0:0:0, 3:0:0:0:0, 3:0:0:0:0, 6:0:0:0:1, 1:0:0:0:0, 5:0:0:0:1, 3:0:0:0:0, 3:0:0:0:0, 2:0:0:0:0, 4:0:0:0:2, 0:0:0:0:0, 5:0:0:0:1, 1:0:0:0:0, 4:0:0:0:0, 4:0:0:0:0, 3:0:0:0:1, 1:0:0:0:0, 3:0:0:0:1, 1:0:0:0:0, 1:0:0:0:0, 1:0:0:0:0, 3:0:0:0:1, 1:0:0:0:0, 4:0:0:0:1, 1:0:0:0:0, 3:0:0:0:0, 3:0:0:0:0, 3:0:0:0:1, 2:4:4:0:4, 3:0:0:0:1, 1:0:0:0:0, 5:0:0:0:0, 2:0:0:0:0, 4:0:0:0:1, 4:1:0:0:1, 5:0:0:0:1, 1:0:0:0:0, 5:0:0:0:0, 5:0:0:0:1, 6:0:0:0:1, 1:0:0:0:0, 4:0:0:0:1, 2:0:0:0:1, 3:0:0:0:2, 2:0:0:0:0, 4:0:0:0:1, 2:0:0:0:0, 4:0:0:0:1, 3:0:0:0:0, 4:0:0:0:0, 3:0:0:0:0, 5:0:0:0:1, 2:0:0:0:0, 1:0:0:0:0, 0:0:0:0:0, 0:0:0:0:0, 0:0:0:0:0, 0:0:0:0:0, 462:16:12:0:92
Cb major (7b), 4:1:0:0:6, 1:0:0:0:3, 2:0:0:0:2,  , 5:0:0:0:5, 1:0:0:0:3, 4:1:0:0:6,  , 5:0:0:0:6, 4:1:0:0:8, 4:1:0:0:6,  , 4:1:0:0:6, 1:0:0:0:4, 2:0:0:0:2,  , 5:0:0:0:5, 1:0:0:0:4, 4:1:0:0:6,  , 5:0:0:0:6, 4:1:0:0:8, 4:1:0:0:6,  , 6:1:0:0:7, 4:0:0:0:3, 3:0:0:0:4, 5:2:0:0:8, 4:0:0:0:5, 2:0:0:0:2, 6:1:0:0:5, 2:0:0:0:3, 8:1:0:2:8, 6:2:0:0:9, 6:1:0:0:8, 1:0:0:0:1, 6:1:0:0:5, 1:0:0:0:1, 2:0:0:0:2, 1:0:0:0:0, 4:0:0:0:5, 1:0:0:0:1, 7:1:0:0:5, 1:0:0:0:3, 5:0:0:0:8, 7:5:0:0:9, 7:1:0:0:8, 2:0:0:0:2, 5:1:0:0:8, 2:1:1:0:3, 3:1:1:0:4, 3:1:1:0:3, 4:0:0:0:7, 4:0:0:0:4, 7:1:0:0:8, 4:0:0:0:4, 6:1:0:0:8, 9:2:0:0:8, 5:1:0:0:6, 1:0:0:0:1, 6:1:0:0:6, 1:0:0:0:1, 4:0:0:0:4, 2:1:1:0:2, 6:0:0:0:7, 1:0:0:0:0, 6:1:0:0:7, 3:0:0:0:4, 6:1:0:0:10, 7:5:2:0:11, 5:2:0:0:7, 4:0:0:0:3, 4:1:0:0:6, 2:0:0:0:1, 3:0:0:0:3, 3:0:0:0:2, 4:0:0:0:5, 2:0:0:0:2, 5:1:0:0:7, 1:0:0:0:2, 4:0:0:0:6, 5:1:0:0:7, 4:1:0:0:5, 0:0:0:0:0, 6:1:0:0:7, 1:0:0:0:3, 2:1:1:0:4, 1:0:0:0:2, 5:0:0:0:6, 2:0:0:0:1, 5:1:0:0:7, 1:0:0:0:2, 4:0:0:0:5, 6:3:0:0:11, 7:1:0:0:8, 1:0:0:0:4, 5:1:0:0:7, 1:0:0:0:2, 1:0:0:0:2, 2:0:0:0:2, 4:0:0:0:6, 2:0:0:0:1, 5:2:0:0:7, 0:0:0:0:0, 4:0:0:0:6, 4:1:0:0:8, 4:1:0:0:6, 2:0:0:0:1, 6:1:0:0:7, 1:0:0:0:3, 2:0:0:0:3, 1:0:0:0:3, 5:0:0:0:6, 2:0:0:0:3, 7:1:0:0:7, 1:0:0:0:3, 4:0:0:0:7, 4:1:0:0:6, 7:1:0:0:6, 1:0:0:0:4, 7:2:0:0:8, 2:0:0:0:4, 2:0:0:0:3, 1:0:0:0:3, 5:0:0:0:8, 1:0:0:0:0, 6:2:0:0:8, 1:0:0:0:2, 5:0:0:0:9, 6:1:0:0:6, 4:1:0:0:5, 1:0:0:0:1, 4:1:0:0:5, 1:0:0:0:2, 1:0:0:0:1, 1:0:0:0:1, 4:0:0:0:4, 1:0:0:0:2, 5:1:0:0:6, 1:0:0:0:1, 4:0:0:0:5, 4:1:0:0:5, 5:1:0:0:7, 2:0:0:0:2, 6:1:0:0:6, 1:0:0:0:3, 3:0:0:0:2, 1:0:0:0:3, 5:0:0:0:6, 4:0:0:0:3, 6:2:0:0:9, 1:0:0:0:2, 8:0:0:0:5, 7:3:0:0:11, 6:1:0:0:7, 1:0:0:0:2, 6:1:0:0:5, 2:1:1:0:3, 4:2:2:0:4, 2:0:0:0:2, 6:0:0:0:6, 1:0:0:0:2, 6:2:0:0:7, 2:0:0:0:3, 6:0:0:0:5, 4:1:0:0:7, 6:1:0:0:5, 3:0:0:0:3, 2:0:0:0:1, 1:0:0:0:0, 1:0:0:0:0, 1:0:0:0:0, 1:0:0:0:0, 591:89:10:2:752
C# major (7#), 3:0:0:0:1, 1:0:0:0:0, 2:0:0:0:0,  , 5:0:0:0:2, 1:0:0:0:0, 3:0:0:0:1,  , 5:0:0:0:1, 3:0:0:0:1, 3:0:0:0:1,  , 3:0:0:0:1, 1:0:0:0:0, 2:0:0:0:0,  , 5:0:0:0:2, 1:0:0:0:0, 3:0:0:0:1,  , 5:0:0:0:1, 3:0:0:0:1, 3:0:0:0:1,  , 5:1:0:0:2, 4:0:0:0:1, 4:0:0:0:1, 2:0:0:0:0, 4:0:0:0:3, 5:0:0:0:0, 5:0:0:0:1, 2:0:0:0:0, 8:0:0:0:3, 4:0:0:0:2, 5:0:0:0:1, 1:0:0:0:0, 4:0:0:0:1, 1:0:0:0:0, 2:0:0:0:0, 1:0:0:0:0, 4:0:0:0:2, 2:0:0:0:0, 4:0:0:0:1, 1:0:0:0:0, 5:0:0:0:1, 5:0:0:0:1, 5:0:0:0:2, 1:0:0:0:0, 4:0:0:0:1, 2:0:0:0:0, 3:2:2:0:2, 3:3:3:0:3, 5:3:0:0:8, 2:0:0:0:1, 5:2:0:0:6, 2:0:0:0:1, 6:0:0:0:1, 6:0:0:0:1, 5:1:0:0:2, 2:0:0:0:0, 4:0:0:0:1, 2:0:0:0:0, 4:0:0:0:1, 3:0:0:3:3, 6:0:0:0:4, 1:0:0:0:0, 4:0:0:0:1, 3:0:0:0:0, 6:0:0:0:1, 5:0:0:0:1, 4:0:0:0:1, 2:0:0:0:0, 3:0:0:0:1, 1:0:0:0:0, 2:0:0:0:0, 3:1:1:0:1, 4:0:0:0:2, 1:0:0:0:0, 5:0:0:0:1, 2:0:0:0:0, 4:0:0:0:1, 3:0:0:0:1, 3:0:0:0:1, 0:0:0:0:0, 4:0:0:0:1, 2:0:0:0:0, 3:2:2:0:2, 1:0:0:0:0, 5:0:0:0:4, 2:0:0:0:0, 4:0:0:0:1, 1:0:0:0:0, 4:0:0:0:1, 4:0:0:0:2, 5:0:0:0:2, 1:0:0:0:0, 4:0:0:0:1, 2:0:0:0:0, 2:0:0:0:0, 2:0:0:0:0, 4:0:0:0:2, 1:0:0:0:0, 4:0:0:0:2, 0:0:0:0:0, 4:0:0:0:3, 3:0:0:0:5, 3:0:0:0:1, 1:0:0:0:1, 4:0:0:0:1, 1:0:0:0:0, 2:0:0:0:0, 1:0:0:0:0, 5:0:0:0:2, 1:0:0:0:0, 6:1:1:0:2, 2:0:0:0:0, 4:0:0:0:4, 3:0:0:0:1, 6:0:0:0:2, 2:0:0:0:0, 6:0:0:0:1, 3:0:0:0:0, 4:0:0:0:0, 2:0:0:0:0, 5:0:0:0:3, 0:0:0:0:0, 5:0:0:0:1, 1:0:0:0:0, 5:0:0:0:2, 5:0:0:0:1, 3:0:0:0:1, 1:0:0:0:0, 3:0:0:0:1, 1:0:0:0:0, 1:0:0:0:0, 1:0:0:0:0, 4:0:0:0:2, 1:0:0:0:0, 4:0:0:0:2, 1:0:0:0:0, 4:0:0:0:1, 3:0:0:0:1, 4:0:0:0:1, 2:4:4:0:4, 4:0:0:0:1, 2:0:0:0:0, 6:0:0:0:0, 3:0:0:0:0, 5:0:0:0:2, 5:1:0:0:3, 5:0:0:0:3, 1:0:0:0:0, 6:0:0:0:1, 5:0:0:0:3, 6:0:0:0:2, 2:0:0:0:0, 5:0:0:0:1, 2:0:0:0:0, 4:0:0:0:2, 3:0:0:0:1, 5:0:0:0:2, 2:0:0:0:0, 4:0:0:0:2, 3:0:0:0:1, 5:0:0:0:1, 3:0:0:0:2, 5:0:0:0:2, 3:0:0:0:0, 1:0:0:0:0, 0:0:0:0:0, 0:0:0:0:0, 0:0:0:0:0, 0:0:0:0:0, 523:21:13:3:173
Ab minor (7b), 4:1:0:0:6, 1:0:0:0:3, 2:0:0:0:2,  , 5:0:0:0:5, 1:0:0:0:3, 4:1:0:0:6,  , 5:0:0:0:6, 4:1:0:0:8, 4:1:0:0:6,  , 4:1:0:0:6, 1:0:0:0:4, 2:0:0:0:2,  , 5:0:0:0:5, 1:0:0:0:4, 4:1:0:0:6,  , 5:0:0:0:6, 4:1:0:0:8, 4:1:0:0:6,  , 6:1:0:0:7, 4:0:0:0:3, 3:0:0:0:4, 5:2:0:0:8, 4:0:0:0:5, 2:0:0:0:2, 6:1:0:0:5, 2:0:0:0:3, 8:1:0:2:8, 6:2:0:0:9, 6:1:0:0:8, 1:0:0:0:1, 6:1:0:0:5, 1:0:0:0:1, 2:0:0:0:2, 1:0:0:0:0, 4:0:0:0:5, 1:0:0:0:1, 7:1:0:0:5, 1:0:0:0:3, 5:0:0:0:8, 7:5:0:0:9, 7:1:0:0:8, 2:0:0:0:2, 5:1:0:0:8, 2:1:1:0:3, 3:1:1:0:4, 3:1:1:0:3, 4:0:0:0:7, 4:0:0:0:4, 7:1:0:0:8, 4:0:0:0:4, 6:1:0:0:8, 9:2:0:0:8, 5:1:0:0:6, 1:0:0:0:1, 6:1:0:0:6, 1:0:0:0:1, 4:0:0:0:4, 2:1:1:0:2, 6:0:0:0:7, 1:0:0:0:0, 6:1:0:0:7, 3:0:0:0:4, 6:1:0:0:10, 7:5:2:0:11, 5:2:0:0:7, 4:0:0:0:3, 4:1:0:0:6, 2:0:0:0:1, 3:0:0:0:3, 3:0:0:0:2, 4:0:0:0:5, 2:0:0:0:2, 5:1:0:0:7, 1:0:0:0:2, 4:0:0:0:6, 5:1:0:0:7, 4:1:0:0:5, 0:0:0:0:0, 6:1:0:0:7, 1:0:0:0:3, 2:1:1:0:4, 1:0:0:0:2, 5:0:0:0:6, 2:0:0:0:1, 5:1:0:0:7, 1:0:0:0:2, 4:0:0:0:5, 6:3:0:0:11, 7:1:0:0:8, 1:0:0:0:4, 5:1:0:0:7, 1:0:0:0:2, 1:0:0:0:2, 2:0:0:0:2, 4:0:0:0:6, 2:0:0:0:1, 5:2:0:0:7, 0:0:0:0:0, 4:0:0:0:6, 4:1:0:0:8, 4:1:0:0:6, 2:0:0:0:1, 6:1:0:0:7, 1:0:0:0:3, 2:0:0:0:3, 1:0:0:0:3, 5:0:0:0:6, 2:0:0:0:3, 7:1:0:0:7, 1:0:0:0:3, 4:0:0:0:7, 4:1:0:0:6, 7:1:0:0:6, 1:0:0:0:4, 7:2:0:0:8, 2:0:0:0:4, 2:0:0:0:3, 1:0:0:0:3, 5:0:0:0:8, 1:0:0:0:0, 6:2:0:0:8, 1:0:0:0:2, 5:0:0:0:9, 6:1:0:0:6, 4:1:0:0:5, 1:0:0:0:1, 4:1:0:0:5, 1:0:0:0:2, 1:0:0:0:1, 1:0:0:0:1, 4:0:0:0:4, 1:0:0:0:2, 5:1:0:0:6, 1:0:0:0:1, 4:0:0:0:5, 4:1:0:0:5, 5:1:0:0:7, 2:0:0:0:2, 6:1:0:0:6, 1:0:0:0:3, 3:0:0:0:2, 1:0:0:0:3, 5:0:0:0:6, 4:0:0:0:3, 6:2:0:0:9, 1:0:0:0:2, 8:0:0:0:5, 7:3:0:0:11, 6:1:0:0:7, 1:0:0:0:2, 6:1:0:0:5, 2:1:1:0:3, 4:2:2:0:4, 2:0:0:0:2, 6:0:0:0:6, 1:0:0:0:2, 6:2:0:0:7, 2:0:0:0:3, 6:0:0:0:5, 4:1:0:0:7, 6:1:0:0:5, 3:0:0:0:3, 2:0:0:0:1, 1:0:0:0:0, 1:0:0:0:0, 1:0:0:0:0, 1:0:0:0:0, 591:89:10:2:752
A# minor (7#), 3:0:0:0:1, 1:0:0:0:0, 2:0:0:0:0,  , 5:0:0:0:2, 1:0:0:0:0, 3:0:0:0:1,  , 5:0:0:0:1, 3:0:0:0:1, 3:0:0:0:1,  , 3:0:0:0:1, 1:0:0:0:0, 2:0:0:0:0,  , 5:0:0:0:2, 1:0:0:0:0, 3:0:0:0:1,  , 5:0:0:0:1, 3:0:0:0:1, 3:0:0:0:1,  , 5:1:0:0:2, 4:0:0:0:1, 4:0:0:0:1, 2:0:0:0:0, 4:0:0:0:3, 5:0:0:0:0, 5:0:0:0:1, 2:0:0:0:0, 8:0:0:0:3, 4:0:0:0:2, 5:0:0:0:1, 1:0:0:0:0, 4:0:0:0:1, 1:0:0:0:0, 2:0:0:0:0, 1:0:0:0:0, 4:0:0:0:2, 2:0:0:0:0, 4:0:0:0:1, 1:0:0:0:0, 5:0:0:0:1, 5:0:0:0:1, 5:0:0:0:2, 1:0:0:0:0, 4:0:0:0:1, 2:0:0:0:0, 3:2:2:0:2, 3:3:3:0:3, 5:3:0:0:8, 2:0:0:0:1, 5:2:0:0:6, 2:0:0:0:1, 6:0:0:0:1, 6:0:0:0:1, 5:1:0:0:2, 2:0:0:0:0, 4:0:0:0:1, 2:0:0:0:0, 4:0:0:0:1, 3:0:0:3:3, 6:0:0:0:4, 1:0:0:0:0, 4:0:0:0:1, 3:0:0:0:0, 6:0:0:0:1, 5:0:0:0:1, 4:0:0:0:1, 2:0:0:0:0, 3:0:0:0:1, 1:0:0:0:0, 2:0:0:0:0, 3:1:1:0:1, 4:0:0:0:2, 1:0:0:0:0, 5:0:0:0:1, 2:0:0:0:0, 4:0:0:0:1, 3:0:0:0:1, 3:0:0:0:1, 0:0:0:0:0, 4:0:0:0:1, 2:0:0:0:0, 3:2:2:0:2, 1:0:0:0:0, 5:0:0:0:4, 2:0:0:0:0, 4:0:0:0:1, 1:0:0:0:0, 4:0:0:0:1, 4:0:0:0:2, 5:0:0:0:2, 1:0:0:0:0, 4:0:0:0:1, 2:0:0:0:0, 2:0:0:0:0, 2:0:0:0:0, 4:0:0:0:2, 1:0:0:0:0, 4:0:0:0:2, 0:0:0:0:0, 4:0:0:0:3, 3:0:0:0:5, 3:0:0:0:1, 1:0:0:0:1, 4:0:0:0:1, 1:0:0:0:0, 2:0:0:0:0, 1:0:0:0:0, 5:0:0:0:2, 1:0:0:0:0, 6:1:1:0:2, 2:0:0:0:0, 4:0:0:0:4, 3:0:0:0:1, 6:0:0:0:2, 2:0:0:0:0, 6:0:0:0:1, 3:0:0:0:0, 4:0:0:0:0, 2:0:0:0:0, 5:0:0:0:3, 0:0:0:0:0, 5:0:0:0:1, 1:0:0:0:0, 5:0:0:0:2, 5:0:0:0:1, 3:0:0:0:1, 1:0:0:0:0, 3:0:0:0:1, 1:0:0:0:0, 1:0:0:0:0, 1:0:0:0:0, 4:0:0:0:2, 1:0:0:0:0, 4:0:0:0:2, 1:0:0:0:0, 4:0:0:0:1, 3:0:0:0:1, 4:0:0:0:1, 2:4:4:0:4, 4:0:0:0:1, 2:0:0:0:0, 6:0:0:0:0, 3:0:0:0:0, 5:0:0:0:2, 5:1:0:0:3, 5:0:0:0:3, 1:0:0:0:0, 6:0:0:0:1, 5:0:0:0:3, 6:0:0:0:2, 2:0:0:0:0, 5:0:0:0:1, 2:0:0:0:0, 4:0:0:0:2, 3:0:0:0:1, 5:0:0:0:2, 2:0:0:0:0, 4:0:0:0:2, 3:0:0:0:1, 5:0:0:0:1, 3:0:0:0:2, 5:0:0:0:2, 3:0:0:0:0, 1:0:0:0:0, 0:0:0:0:0, 0:0:0:0:0, 0:0:0:0:0, 0:0:0:0:0, 523:21:13:3:173
