 , 0, 1, 2, 3, 4, 5, 6, 7, 8, 9, 10, 11, 12, 13, 14, 15, 16, 17, 18, 19, 20, 21, 22, 23, 24, 25, 26, 27, 28, 29, 30, 31, 32, 33, 34, 35, 36, 37, 38, 39, 40, 41, 42, 43, 44, 45, 46, 47, 48, 49, 50, 51, 52, 53, 54, 55, 56, 57, 58, 59, 60, 61, 62, 63, 64, 65, 66, 67, 68, 69, 70, 71, 72, 73, 74, 75, 76, 77, 78, 79, 80, 81, 82, 83, 84, 85, 86, 87, 88, 89, 90, 91, 92, 93, 94, 95, 96, 97, 98, 99, 100, 101, 102, 103, 104, 105, 106, 107, 108, 109, 110, 111, 112, 113, 114, 115, 116, 117, 118, 119, 120, 121, 122, 123, 124, 125, 126, 127, 128, 129, 130, 131, 132, 133, 134, 135, 136, 137, 138, 139, 140, 141, 142, 143, 144, 145, 146, 147, 148, 149, 150, 151, 152, 153, 154, 155, 156, 157, 158, 159, 160, 161, 162, 163, 164, 165, 166, 167, 168, 169, 170, 171, 172, 173, 174, 175, 176, 177, 178, 179, 180, 181, 182, 183, 184, 185, 186, 187, 188, 189, 190, 191, 192, 193, 194, 195, 196, 197, 198, 199, 200, 201, 202, 203, 204, 205, 206, 207, 208, 209, 210, 211, 212, 213, 214, 215, 216, 217, 218, rowcost
C major (0), 0:0:0:0:0, 3:0:0:0:0, 4:0:0:0:1, 3:0:0:0:0, 1:0:0:0:0, 3:0:0:0:0, 4:0:0:0:1, 2:0:0:0:0, 1:0:0:0:0, 2:0:0:0:0, 1:0:0:0:0, 2:0:0:0:1, 1:0:0:0:0, 3:0:0:0:0, 4:0:0:0:1, 3:0:0:0:0, 1:0:0:0:0, 3:0:0:0:0, 4:0:0:0:1, 3:0:0:0:0, 1:0:0:0:0, 3:0:0:0:0, 4:0:0:0:1, 2:0:0:0:0, 1:0:0:0:0, 2:0:0:0:0, 1:0:0:0:0, 1:0:0:0:0, 1:0:0:0:0, 3:0:0:0:0, 4:0:0:0:1, 3:0:0:0:0, 1:0:0:0:0, 2:0:0:0:0, 2:0:0:0:1, 2:0:0:0:0, 2:0:0:0:0, 2:0:0:0:0, 2:0:0:0:1, 3:0:0:0:0, 10:0:0:2:4, 2:0:0:0:0, 2:0:0:0:1, 2:0:0:0:0, 2:0:2:0:2, 3:0:0:0:0, 2:0:0:0:1, 8:0:0:0:0, 6:0:1:0:1, 4:0:0:0:0, 4:0:0:0:2, 2:0:0:0:0, 1:0:0:0:0, 3:0:0:0:0, 3:0:0:0:1, 2:0:0:0:0, 1:0:0:0:0, 1:0:0:0:0, 2:0:0:0:1, 1:0:0:0:0, 3:0:0:0:2, 5:0:4:0:4, 7:0:0:0:1, 3:0:0:0:0, 1:0:0:0:0, 3:0:0:0:0, 2:0:0:0:1, 4:0:0:0:0, 2:0:0:0:1, 3:0:0:0:0, 3:0:0:0:1, 1:0:0:0:0, 2:0:0:0:1, 1:0:0:0:0, 0:0:0:0:0, 3:0:0:0:0, 2:0:0:0:0, 3:0:0:0:0, 3:0:0:0:1, 2:0:0:0:0, 1:0:0:0:0, 2:0:0:0:0, 2:0:0:0:1, 2:0:0:0:0, 1:0:0:0:0, 2:0:0:0:0, 3:0:0:0:1, 1:0:0:0:0, 1:0:0:0:0, 1:0:0:0:0, 0:0:0:0:0, 1:0:0:0:0, 1:0:0:0:0, 2:0:0:0:0, 2:0:0:0:1, 2:0:0:0:0, 1:0:0:0:0, 3:0:0:0:0, 5:0:0:0:1, 3:0:0:0:0, 1:0:0:0:0, 3:0:0:0:1, 5:0:1:0:3, 2:0:0:0:0, 2:0:0:0:0, 2:0:0:0:0, 0:0:0:0:0, 1:0:0:0:0, 2:0:0:0:0, 2:0:0:0:0, 2:0:0:0:1, 4:0:0:0:0, 1:0:0:0:0, 3:0:0:0:1, 3:0:0:0:1, 3:0:0:0:0, 1:0:0:0:0, 3:0:0:0:1, 3:0:0:0:1, 2:0:0:0:0, 1:0:0:0:0, 2:0:0:0:0, 1:0:0:0:0, 1:0:0:0:0, 1:0:0:0:0, 3:0:0:0:0, 4:0:0:0:1, 3:0:0:0:0, 1:0:0:0:0, 3:0:0:0:0, 2:0:0:0:1, 4:0:1:0:1, 1:0:0:0:0, 3:0:0:0:0, 3:0:1:0:3, 2:0:1:0:1, 1:0:0:0:0, 1:0:0:0:0, 0:0:0:0:0, 2:0:0:0:0, 2:0:0:0:0, 3:0:0:0:0, 2:0:0:0:1, 2:0:0:0:0, 1:0:0:0:0, 5:0:0:0:0, 4:0:0:0:1, 5:0:0:0:0, 1:0:0:0:0, 3:0:0:0:0, 4:0:0:0:1, 4:0:0:0:1, 6:0:0:0:1, 1:0:0:0:0, 1:0:0:0:0, 1:0:0:0:0, 3:0:2:0:2, 4:0:0:0:0, 3:0:1:0:3, 2:0:0:0:0, 3:0:0:0:0, 5:0:0:0:0, 2:0:0:0:3, 3:0:1:0:1, 1:0:0:0:0, 4:0:0:0:0, 3:0:0:0:2, 2:0:2:0:2, 1:0:0:0:0, 1:0:0:0:0, 0:0:0:0:0, 1:0:0:0:0, 1:0:0:0:0, 4:0:0:0:0, 4:0:0:0:1, 2:0:0:0:0, 1:0:0:0:0, 4:0:0:0:0, 4:0:0:0:1, 3:0:0:0:0, 3:0:0:0:0, 4:0:0:0:0, 3:0:0:0:2, 2:0:0:0:0, 2:0:0:0:1, 1:0:0:0:0, 0:0:0:0:0, 2:0:0:0:0, 2:0:0:0:0, 2:0:0:0:0, 2:0:0:0:1, 2:0:0:0:0, 3:0:0:0:0, 2:0:0:0:0, 2:0:0:0:1, 3:0:0:0:0, 1:0:0:0:0, 2:0:0:0:0, 3:0:0:0:1, 2:0:0:0:0, 2:0:0:0:1, 2:0:1:0:1, 2:0:0:0:1, 1:0:0:0:0, 4:0:0:0:0, 6:0:0:0:0, 3:0:0:0:1, 6:0:1:3:6, 6:0:0:0:1, 3:0:0:0:1, 2:0:0:0:0, 4:0:0:0:1, 3:0:0:0:0, 4:0:0:0:1, 3:0:0:0:0, 3:0:0:0:1, 2:0:0:0:0, 2:0:0:0:1, 2:0:0:0:0, 533:0:19:5:96
A minor (0), 0:0:0:0:0, 3:0:0:0:0, 4:0:0:0:1, 3:0:0:0:0, 1:0:0:0:0, 3:0:0:0:0, 4:0:0:0:1, 2:0:0:0:0, 1:0:0:0:0, 2:0:0:0:0, 1:0:0:0:0, 2:0:0:0:1, 1:0:0:0:0, 3:0:0:0:0, 4:0:0:0:1, 3:0:0:0:0, 1:0:0:0:0, 3:0:0:0:0, 4:0:0:0:1, 3:0:0:0:0, 1:0:0:0:0, 3:0:0:0:0, 4:0:0:0:1, 2:0:0:0:0, 1:0:0:0:0, 2:0:0:0:0, 1:0:0:0:0, 1:0:0:0:0, 1:0:0:0:0, 3:0:0:0:0, 4:0:0:0:1, 3:0:0:0:0, 1:0:0:0:0, 2:0:0:0:0, 2:0:0:0:1, 2:0:0:0:0, 2:0:0:0:0, 2:0:0:0:0, 2:0:0:0:1, 3:0:0:0:0, 10:0:0:2:4, 2:0:0:0:0, 2:0:0:0:1, 2:0:0:0:0, 2:0:2:0:2, 3:0:0:0:0, 2:0:0:0:1, 8:0:0:0:0, 6:0:1:0:1, 4:0:0:0:0, 4:0:0:0:2, 2:0:0:0:0, 1:0:0:0:0, 3:0:0:0:0, 3:0:0:0:1, 2:0:0:0:0, 1:0:0:0:0, 1:0:0:0:0, 2:0:0:0:1, 1:0:0:0:0, 3:0:0:0:2, 5:0:4:0:4, 7:0:0:0:1, 3:0:0:0:0, 1:0:0:0:0, 3:0:0:0:0, 2:0:0:0:1, 4:0:0:0:0, 2:0:0:0:1, 3:0:0:0:0, 3:0:0:0:1, 1:0:0:0:0, 2:0:0:0:1, 1:0:0:0:0, 0:0:0:0:0, 3:0:0:0:0, 2:0:0:0:0, 3:0:0:0:0, 3:0:0:0:1, 2:0:0:0:0, 1:0:0:0:0, 2:0:0:0:0, 2:0:0:0:1, 2:0:0:0:0, 1:0:0:0:0, 2:0:0:0:0, 3:0:0:0:1, 1:0:0:0:0, 1:0:0:0:0, 1:0:0:0:0, 0:0:0:0:0, 1:0:0:0:0, 1:0:0:0:0, 2:0:0:0:0, 2:0:0:0:1, 2:0:0:0:0, 1:0:0:0:0, 3:0:0:0:0, 5:0:0:0:1, 3:0:0:0:0, 1:0:0:0:0, 3:0:0:0:1, 5:0:1:0:3, 2:0:0:0:0, 2:0:0:0:0, 2:0:0:0:0, 0:0:0:0:0, 1:0:0:0:0, 2:0:0:0:0, 2:0:0:0:0, 2:0:0:0:1, 4:0:0:0:0, 1:0:0:0:0, 3:0:0:0:1, 3:0:0:0:1, 3:0:0:0:0, 1:0:0:0:0, 3:0:0:0:1, 3:0:0:0:1, 2:0:0:0:0, 1:0:0:0:0, 2:0:0:0:0, 1:0:0:0:0, 1:0:0:0:0, 1:0:0:0:0, 3:0:0:0:0, 4:0:0:0:1, 3:0:0:0:0, 1:0:0:0:0, 3:0:0:0:0, 2:0:0:0:1, 4:0:1:0:1, 1:0:0:0:0, 3:0:0:0:0, 3:0:1:0:3, 2:0:1:0:1, 1:0:0:0:0, 1:0:0:0:0, 0:0:0:0:0, 2:0:0:0:0, 2:0:0:0:0, 3:0:0:0:0, 2:0:0:0:1, 2:0:0:0:0, 1:0:0:0:0, 5:0:0:0:0, 4:0:0:0:1, 5:0:0:0:0, 1:0:0:0:0, 3:0:0:0:0, 4:0:0:0:1, 4:0:0:0:1, 6:0:0:0:1, 1:0:0:0:0, 1:0:0:0:0, 1:0:0:0:0, 3:0:2:0:2, 4:0:0:0:0, 3:0:1:0:3, 2:0:0:0:0, 3:0:0:0:0, 5:0:0:0:0, 2:0:0:0:3, 3:0:1:0:1, 1:0:0:0:0, 4:0:0:0:0, 3:0:0:0:2, 2:0:2:0:2, 1:0:0:0:0, 1:0:0:0:0, 0:0:0:0:0, 1:0:0:0:0, 1:0:0:0:0, 4:0:0:0:0, 4:0:0:0:1, 2:0:0:0:0, 1:0:0:0:0, 4:0:0:0:0, 4:0:0:0:1, 3:0:0:0:0, 3:0:0:0:0, 4:0:0:0:0, 3:0:0:0:2, 2:0:0:0:0, 2:0:0:0:1, 1:0:0:0:0, 0:0:0:0:0, 2:0:0:0:0, 2:0:0:0:0, 2:0:0:0:0, 2:0:0:0:1, 2:0:0:0:0, 3:0:0:0:0, 2:0:0:0:0, 2:0:0:0:1, 3:0:0:0:0, 1:0:0:0:0, 2:0:0:0:0, 3:0:0:0:1, 2:0:0:0:0, 2:0:0:0:1, 2:0:1:0:1, 2:0:0:0:1, 1:0:0:0:0, 4:0:0:0:0, 6:0:0:0:0, 3:0:0:0:1, 6:0:1:3:6, 6:0:0:0:1, 3:0:0:0:1, 2:0:0:0:0, 4:0:0:0:1, 3:0:0:0:0, 4:0:0:0:1, 3:0:0:0:0, 3:0:0:0:1, 2:0:0:0:0, 2:0:0:0:1, 2:0:0:0:0, 533:0:19:5:96
F major (1b), 0:0:0:0:0, 2:0:0:0:0, 3:1:0:0:1, 4:2:0:0:2, 0:0:0:0:0, 2:0:0:0:0, 3:1:0:0:1, 3:2:0:0:2, 2:0:0:0:0, 1:0:0:0:0, 1:0:0:0:0, 2:1:0:0:1, 1:1:0:0:1, 2:0:0:0:0, 3:1:0:0:1, 4:2:0:0:2, 0:0:0:0:0, 2:0:0:0:0, 3:1:0:0:1, 4:2:0:0:2, 0:0:0:0:0, 2:0:0:0:0, 3:1:0:0:1, 3:2:0:0:2, 2:0:0:0:0, 1:0:0:0:0, 1:0:0:0:0, 1:0:0:0:0, 1:1:0:0:1, 2:0:0:0:0, 3:1:0:0:1, 4:2:0:0:2, 0:0:0:0:0, 1:0:0:0:0, 1:1:0:0:1, 3:1:0:0:1, 1:1:0:0:1, 1:0:0:0:0, 1:1:0:0:1, 4:3:0:0:3, 11:0:0:2:2, 1:0:0:0:0, 2:0:1:0:1, 2:0:0:0:0, 2:5:2:0:5, 2:0:0:0:0, 1:1:0:0:1, 9:1:0:0:1, 5:4:1:0:4, 3:0:0:0:0, 3:1:0:0:1, 3:1:0:0:1, 0:0:0:0:0, 2:0:0:0:0, 2:1:0:0:1, 2:2:0:0:2, 2:0:0:0:0, 0:0:0:0:0, 1:1:0:0:1, 1:0:0:0:0, 3:4:0:0:4, 4:1:4:0:4, 6:1:0:0:1, 4:1:0:0:1, 0:0:0:0:0, 2:0:0:0:0, 1:1:0:0:1, 3:1:0:0:1, 1:1:0:0:1, 2:0:0:0:0, 2:1:0:0:1, 1:1:0:0:1, 3:1:0:0:1, 0:0:0:0:0, 0:0:0:0:0, 2:0:0:0:0, 1:1:0:0:1, 2:0:0:0:0, 2:1:0:0:1, 3:1:0:0:1, 0:0:0:0:0, 1:0:0:0:0, 1:1:0:0:1, 3:1:0:0:1, 0:0:0:0:0, 1:0:0:0:0, 2:1:0:0:1, 1:1:0:0:1, 2:0:0:0:0, 0:0:0:0:0, 0:0:0:0:0, 1:0:0:0:0, 1:3:0:0:3, 1:0:0:0:0, 1:1:0:0:1, 3:1:0:0:1, 0:0:0:0:0, 2:0:0:0:0, 4:1:0:0:1, 4:1:0:0:1, 0:0:0:0:0, 2:1:0:0:1, 4:3:1:0:3, 2:4:0:0:4, 3:0:0:0:0, 1:0:0:0:0, 0:0:0:0:0, 1:0:0:0:0, 2:2:0:0:2, 1:0:0:0:0, 1:1:0:0:1, 5:1:0:0:1, 0:0:0:0:0, 2:0:0:0:0, 2:1:0:0:1, 4:1:0:0:1, 0:0:0:0:0, 2:0:0:0:0, 2:1:0:0:1, 2:3:0:0:3, 2:0:0:0:0, 1:0:0:0:0, 0:0:0:0:0, 1:0:0:0:0, 1:1:0:0:1, 2:0:0:0:0, 3:1:0:0:1, 4:1:0:0:1, 0:0:0:0:0, 2:0:0:0:0, 1:1:0:0:1, 5:4:1:0:4, 0:0:0:0:0, 2:0:0:0:0, 2:3:1:0:3, 3:3:1:0:3, 2:0:0:0:0, 0:0:0:0:0, 0:0:0:0:0, 3:0:0:0:0, 2:2:0:0:2, 2:0:0:0:0, 1:1:0:0:1, 3:2:0:0:2, 0:0:0:0:0, 4:0:0:0:0, 3:1:0:0:1, 6:1:0:0:1, 0:0:0:0:0, 2:0:0:0:0, 3:1:0:0:1, 3:3:0:0:3, 7:2:0:0:2, 0:0:0:0:0, 1:0:0:0:0, 1:0:0:0:0, 3:4:2:0:4, 3:0:0:0:0, 2:3:1:0:3, 3:1:0:0:1, 2:0:0:0:0, 4:0:0:0:0, 1:3:0:0:3, 4:3:1:0:3, 0:0:0:0:0, 3:0:0:0:0, 2:2:0:0:2, 2:5:2:0:5, 2:0:0:0:0, 0:0:0:0:0, 0:0:0:0:0, 1:0:0:0:0, 1:1:0:0:1, 3:0:0:0:0, 3:1:0:0:1, 3:1:0:0:1, 0:0:0:0:0, 3:0:0:0:0, 3:1:0:0:1, 4:1:0:0:1, 2:0:0:0:0, 3:0:0:0:0, 2:2:0:0:2, 2:1:0:0:1, 3:1:0:0:1, 0:0:0:0:0, 0:0:0:0:0, 2:0:0:0:0, 2:2:0:0:2, 1:0:0:0:0, 1:1:0:0:1, 3:2:0:0:2, 2:0:0:0:0, 1:0:0:0:0, 1:1:0:0:1, 4:1:0:0:1, 0:0:0:0:0, 1:0:0:0:0, 2:1:0:0:1, 2:1:0:0:1, 3:1:0:0:1, 1:0:1:0:1, 2:0:0:0:0, 1:0:0:0:0, 4:1:0:0:1, 5:1:0:0:1, 2:1:0:0:1, 5:2:2:3:7, 6:5:1:0:5, 2:1:0:0:1, 3:1:0:0:1, 3:1:0:0:1, 4:1:0:0:1, 3:1:0:0:1, 4:2:0:0:2, 2:1:0:0:1, 3:1:0:0:1, 1:1:0:0:1, 3:1:0:0:1, 452:178:22:5:190
G major (1#), 0:0:0:0:0, 4:3:0:0:0, 4:1:0:0:1, 2:2:0:0:0, 1:1:0:0:0, 4:3:0:0:0, 4:1:0:0:1, 1:2:0:0:0, 2:1:0:0:0, 2:1:0:0:1, 1:0:0:0:1, 3:4:0:0:1, 0:0:0:0:0, 4:3:0:0:0, 4:1:0:0:1, 2:2:0:0:0, 1:1:0:0:0, 4:3:0:0:0, 4:1:0:0:1, 2:2:0:0:0, 1:1:0:0:0, 4:3:0:0:0, 4:1:0:0:1, 1:2:0:0:0, 2:1:0:0:0, 2:1:0:0:1, 1:0:0:0:1, 2:4:0:0:0, 0:0:0:0:0, 4:3:0:0:0, 4:1:0:0:1, 2:2:0:0:0, 1:1:0:0:0, 3:3:0:0:0, 2:2:0:0:0, 1:0:0:0:0, 1:1:0:0:0, 3:3:0:0:0, 2:2:0:0:0, 2:2:0:0:0, 11:10:0:2:4, 1:1:0:0:0, 2:0:0:0:1, 3:1:0:0:0, 1:0:2:0:2, 4:4:0:0:0, 2:4:0:0:0, 7:0:0:0:2, 5:2:1:0:2, 5:3:0:0:0, 4:2:0:0:0, 1:0:0:0:0, 1:1:0:0:0, 4:4:0:0:0, 2:1:0:0:0, 1:0:0:0:0, 2:1:0:0:0, 1:1:0:0:0, 3:0:0:0:2, 2:1:0:0:0, 2:0:0:0:3, 6:6:4:0:4, 8:1:0:0:1, 2:1:0:0:0, 1:1:0:0:0, 4:4:0:0:0, 2:1:0:0:0, 3:0:0:0:1, 2:1:0:0:1, 4:3:0:0:0, 3:2:0:0:1, 0:0:0:0:0, 3:1:0:0:1, 1:1:0:0:0, 0:0:0:0:0, 4:2:0:0:0, 1:1:0:0:0, 4:3:0:0:0, 3:1:0:0:0, 1:0:0:0:0, 1:1:0:0:0, 3:5:0:0:0, 2:1:0:0:0, 1:0:0:0:0, 1:1:0:0:0, 3:5:0:0:0, 3:1:0:0:1, 0:0:0:0:0, 2:1:0:0:0, 1:1:0:0:0, 0:0:0:0:0, 2:1:0:0:0, 0:0:0:0:0, 3:4:0:0:0, 2:1:0:0:0, 1:0:0:0:0, 1:3:0:0:0, 4:5:0:0:0, 4:2:0:0:0, 2:0:0:0:1, 1:3:0:0:0, 4:4:0:0:0, 6:1:1:0:2, 1:0:0:0:0, 3:1:0:0:1, 2:1:0:0:1, 0:0:0:0:0, 2:2:0:0:0, 1:0:0:0:1, 3:5:0:0:0, 2:2:0:0:0, 3:0:0:0:0, 1:1:0:0:0, 3:3:0:0:0, 3:1:0:0:1, 2:1:0:0:0, 1:1:0:0:0, 3:3:0:0:0, 3:1:0:0:2, 1:0:0:0:1, 2:2:0:0:0, 2:3:0:0:1, 1:0:0:0:1, 2:4:0:0:0, 0:0:0:0:0, 4:3:0:0:1, 4:3:0:0:0, 2:1:0:0:0, 1:1:0:0:0, 4:3:0:0:0, 2:1:0:0:0, 3:0:1:0:2, 1:2:0:0:0, 4:3:0:0:0, 3:1:1:0:1, 1:0:1:0:1, 2:2:0:0:0, 1:3:0:0:0, 0:0:0:0:0, 3:2:0:0:0, 1:0:0:0:2, 4:4:0:0:0, 2:2:0:0:0, 1:0:0:0:0, 1:1:0:0:0, 6:4:0:0:1, 5:3:0:0:0, 4:0:0:0:1, 1:1:0:0:0, 4:4:0:0:1, 5:2:0:0:0, 3:0:0:0:2, 7:1:0:0:2, 1:1:0:0:0, 1:2:0:0:0, 2:4:0:0:0, 2:0:2:0:3, 3:3:0:0:0, 3:1:1:0:1, 1:0:0:0:0, 4:1:0:0:1, 5:6:1:0:1, 2:1:0:0:0, 2:0:1:0:1, 1:1:0:0:0, 5:3:0:0:1, 3:1:0:0:1, 1:0:2:0:2, 2:2:0:0:0, 1:1:0:0:0, 1:0:0:0:0, 2:2:0:0:0, 0:0:0:0:0, 5:5:0:0:0, 4:1:0:0:2, 1:0:0:0:0, 1:1:0:0:0, 5:5:0:0:0, 4:1:0:0:2, 2:2:0:0:0, 3:1:0:0:1, 5:5:0:0:0, 4:1:0:0:1, 1:0:0:0:0, 3:3:0:0:1, 1:1:0:0:0, 0:0:0:0:0, 3:1:0:0:0, 1:0:0:0:2, 3:5:0:0:0, 2:1:0:0:0, 1:0:0:0:0, 3:2:0:0:0, 3:3:0:0:0, 2:2:0:0:0, 2:0:0:0:0, 1:1:0:0:0, 3:4:0:0:0, 3:1:0:0:1, 1:1:0:0:0, 3:1:0:0:1, 2:3:1:0:1, 2:1:0:0:0, 2:3:0:0:0, 3:0:0:0:2, 5:3:0:0:0, 3:4:0:0:0, 6:9:1:3:4, 5:0:0:0:1, 3:1:0:0:0, 1:0:0:0:0, 4:1:0:0:1, 2:0:0:0:1, 3:1:0:0:0, 2:0:0:0:0, 3:1:0:0:0, 1:0:0:0:0, 2:1:0:0:0, 1:0:0:0:0, 536:353:20:5:95
D minor (1b), 0:0:0:0:0, 2:0:0:0:0, 3:1:0:0:1, 4:2:0:0:2, 0:0:0:0:0, 2:0:0:0:0, 3:1:0:0:1, 3:2:0:0:2, 2:0:0:0:0, 1:0:0:0:0, 1:0:0:0:0, 2:1:0:0:1, 1:1:0:0:1, 2:0:0:0:0, 3:1:0:0:1, 4:2:0:0:2, 0:0:0:0:0, 2:0:0:0:0, 3:1:0:0:1, 4:2:0:0:2, 0:0:0:0:0, 2:0:0:0:0, 3:1:0:0:1, 3:2:0:0:2, 2:0:0:0:0, 1:0:0:0:0, 1:0:0:0:0, 1:0:0:0:0, 1:1:0:0:1, 2:0:0:0:0, 3:1:0:0:1, 4:2:0:0:2, 0:0:0:0:0, 1:0:0:0:0, 1:1:0:0:1, 3:1:0:0:1, 1:1:0:0:1, 1:0:0:0:0, 1:1:0:0:1, 4:3:0:0:3, 11:0:0:2:2, 1:0:0:0:0, 2:0:1:0:1, 2:0:0:0:0, 2:5:2:0:5, 2:0:0:0:0, 1:1:0:0:1, 9:1:0:0:1, 5:4:1:0:4, 3:0:0:0:0, 3:1:0:0:1, 3:1:0:0:1, 0:0:0:0:0, 2:0:0:0:0, 2:1:0:0:1, 2:2:0:0:2, 2:0:0:0:0, 0:0:0:0:0, 1:1:0:0:1, 1:0:0:0:0, 3:4:0:0:4, 4:1:4:0:4, 6:1:0:0:1, 4:1:0:0:1, 0:0:0:0:0, 2:0:0:0:0, 1:1:0:0:1, 3:1:0:0:1, 1:1:0:0:1, 2:0:0:0:0, 2:1:0:0:1, 1:1:0:0:1, 3:1:0:0:1, 0:0:0:0:0, 0:0:0:0:0, 2:0:0:0:0, 1:1:0:0:1, 2:0:0:0:0, 2:1:0:0:1, 3:1:0:0:1, 0:0:0:0:0, 1:0:0:0:0, 1:1:0:0:1, 3:1:0:0:1, 0:0:0:0:0, 1:0:0:0:0, 2:1:0:0:1, 1:1:0:0:1, 2:0:0:0:0, 0:0:0:0:0, 0:0:0:0:0, 1:0:0:0:0, 1:3:0:0:3, 1:0:0:0:0, 1:1:0:0:1, 3:1:0:0:1, 0:0:0:0:0, 2:0:0:0:0, 4:1:0:0:1, 4:1:0:0:1, 0:0:0:0:0, 2:1:0:0:1, 4:3:1:0:3, 2:4:0:0:4, 3:0:0:0:0, 1:0:0:0:0, 0:0:0:0:0, 1:0:0:0:0, 2:2:0:0:2, 1:0:0:0:0, 1:1:0:0:1, 5:1:0:0:1, 0:0:0:0:0, 2:0:0:0:0, 2:1:0:0:1, 4:1:0:0:1, 0:0:0:0:0, 2:0:0:0:0, 2:1:0:0:1, 2:3:0:0:3, 2:0:0:0:0, 1:0:0:0:0, 0:0:0:0:0, 1:0:0:0:0, 1:1:0:0:1, 2:0:0:0:0, 3:1:0:0:1, 4:1:0:0:1, 0:0:0:0:0, 2:0:0:0:0, 1:1:0:0:1, 5:4:1:0:4, 0:0:0:0:0, 2:0:0:0:0, 2:3:1:0:3, 3:3:1:0:3, 2:0:0:0:0, 0:0:0:0:0, 0:0:0:0:0, 3:0:0:0:0, 2:2:0:0:2, 2:0:0:0:0, 1:1:0:0:1, 3:2:0:0:2, 0:0:0:0:0, 4:0:0:0:0, 3:1:0:0:1, 6:1:0:0:1, 0:0:0:0:0, 2:0:0:0:0, 3:1:0:0:1, 3:3:0:0:3, 7:2:0:0:2, 0:0:0:0:0, 1:0:0:0:0, 1:0:0:0:0, 3:4:2:0:4, 3:0:0:0:0, 2:3:1:0:3, 3:1:0:0:1, 2:0:0:0:0, 4:0:0:0:0, 1:3:0:0:3, 4:3:1:0:3, 0:0:0:0:0, 3:0:0:0:0, 2:2:0:0:2, 2:5:2:0:5, 2:0:0:0:0, 0:0:0:0:0, 0:0:0:0:0, 1:0:0:0:0, 1:1:0:0:1, 3:0:0:0:0, 3:1:0:0:1, 3:1:0:0:1, 0:0:0:0:0, 3:0:0:0:0, 3:1:0:0:1, 4:1:0:0:1, 2:0:0:0:0, 3:0:0:0:0, 2:2:0:0:2, 2:1:0:0:1, 3:1:0:0:1, 0:0:0:0:0, 0:0:0:0:0, 2:0:0:0:0, 2:2:0:0:2, 1:0:0:0:0, 1:1:0:0:1, 3:2:0:0:2, 2:0:0:0:0, 1:0:0:0:0, 1:1:0:0:1, 4:1:0:0:1, 0:0:0:0:0, 1:0:0:0:0, 2:1:0:0:1, 2:1:0:0:1, 3:1:0:0:1, 1:0:1:0:1, 2:0:0:0:0, 1:0:0:0:0, 4:1:0:0:1, 5:1:0:0:1, 2:1:0:0:1, 5:2:2:3:7, 6:5:1:0:5, 2:1:0:0:1, 3:1:0:0:1, 3:1:0:0:1, 4:1:0:0:1, 3:1:0:0:1, 4:2:0:0:2, 2:1:0:0:1, 3:1:0:0:1, 1:1:0:0:1, 3:1:0:0:1, 452:178:22:5:190
E minor (1#), 0:0:0:0:0, 4:3:0:0:0, 4:1:0:0:1, 2:2:0:0:0, 1:1:0:0:0, 4:3:0:0:0, 4:1:0:0:1, 1:2:0:0:0, 2:1:0:0:0, 2:1:0:0:1, 1:0:0:0:1, 3:4:0:0:1, 0:0:0:0:0, 4:3:0:0:0, 4:1:0:0:1, 2:2:0:0:0, 1:1:0:0:0, 4:3:0:0:0, 4:1:0:0:1, 2:2:0:0:0, 1:1:0:0:0, 4:3:0:0:0, 4:1:0:0:1, 1:2:0:0:0, 2:1:0:0:0, 2:1:0:0:1, 1:0:0:0:1, 2:4:0:0:0, 0:0:0:0:0, 4:3:0:0:0, 4:1:0:0:1, 2:2:0:0:0, 1:1:0:0:0, 3:3:0:0:0, 2:2:0:0:0, 1:0:0:0:0, 1:1:0:0:0, 3:3:0:0:0, 2:2:0:0:0, 2:2:0:0:0, 11:10:0:2:4, 1:1:0:0:0, 2:0:0:0:1, 3:1:0:0:0, 1:0:2:0:2, 4:4:0:0:0, 2:4:0:0:0, 7:0:0:0:2, 5:2:1:0:2, 5:3:0:0:0, 4:2:0:0:0, 1:0:0:0:0, 1:1:0:0:0, 4:4:0:0:0, 2:1:0:0:0, 1:0:0:0:0, 2:1:0:0:0, 1:1:0:0:0, 3:0:0:0:2, 2:1:0:0:0, 2:0:0:0:3, 6:6:4:0:4, 8:1:0:0:1, 2:1:0:0:0, 1:1:0:0:0, 4:4:0:0:0, 2:1:0:0:0, 3:0:0:0:1, 2:1:0:0:1, 4:3:0:0:0, 3:2:0:0:1, 0:0:0:0:0, 3:1:0:0:1, 1:1:0:0:0, 0:0:0:0:0, 4:2:0:0:0, 1:1:0:0:0, 4:3:0:0:0, 3:1:0:0:0, 1:0:0:0:0, 1:1:0:0:0, 3:5:0:0:0, 2:1:0:0:0, 1:0:0:0:0, 1:1:0:0:0, 3:5:0:0:0, 3:1:0:0:1, 0:0:0:0:0, 2:1:0:0:0, 1:1:0:0:0, 0:0:0:0:0, 2:1:0:0:0, 0:0:0:0:0, 3:4:0:0:0, 2:1:0:0:0, 1:0:0:0:0, 1:3:0:0:0, 4:5:0:0:0, 4:2:0:0:0, 2:0:0:0:1, 1:3:0:0:0, 4:4:0:0:0, 6:1:1:0:2, 1:0:0:0:0, 3:1:0:0:1, 2:1:0:0:1, 0:0:0:0:0, 2:2:0:0:0, 1:0:0:0:1, 3:5:0:0:0, 2:2:0:0:0, 3:0:0:0:0, 1:1:0:0:0, 3:3:0:0:0, 3:1:0:0:1, 2:1:0:0:0, 1:1:0:0:0, 3:3:0:0:0, 3:1:0:0:2, 1:0:0:0:1, 2:2:0:0:0, 2:3:0:0:1, 1:0:0:0:1, 2:4:0:0:0, 0:0:0:0:0, 4:3:0:0:1, 4:3:0:0:0, 2:1:0:0:0, 1:1:0:0:0, 4:3:0:0:0, 2:1:0:0:0, 3:0:1:0:2, 1:2:0:0:0, 4:3:0:0:0, 3:1:1:0:1, 1:0:1:0:1, 2:2:0:0:0, 1:3:0:0:0, 0:0:0:0:0, 3:2:0:0:0, 1:0:0:0:2, 4:4:0:0:0, 2:2:0:0:0, 1:0:0:0:0, 1:1:0:0:0, 6:4:0:0:1, 5:3:0:0:0, 4:0:0:0:1, 1:1:0:0:0, 4:4:0:0:1, 5:2:0:0:0, 3:0:0:0:2, 7:1:0:0:2, 1:1:0:0:0, 1:2:0:0:0, 2:4:0:0:0, 2:0:2:0:3, 3:3:0:0:0, 3:1:1:0:1, 1:0:0:0:0, 4:1:0:0:1, 5:6:1:0:1, 2:1:0:0:0, 2:0:1:0:1, 1:1:0:0:0, 5:3:0:0:1, 3:1:0:0:1, 1:0:2:0:2, 2:2:0:0:0, 1:1:0:0:0, 1:0:0:0:0, 2:2:0:0:0, 0:0:0:0:0, 5:5:0:0:0, 4:1:0:0:2, 1:0:0:0:0, 1:1:0:0:0, 5:5:0:0:0, 4:1:0:0:2, 2:2:0:0:0, 3:1:0:0:1, 5:5:0:0:0, 4:1:0:0:1, 1:0:0:0:0, 3:3:0:0:1, 1:1:0:0:0, 0:0:0:0:0, 3:1:0:0:0, 1:0:0:0:2, 3:5:0:0:0, 2:1:0:0:0, 1:0:0:0:0, 3:2:0:0:0, 3:3:0:0:0, 2:2:0:0:0, 2:0:0:0:0, 1:1:0:0:0, 3:4:0:0:0, 3:1:0:0:1, 1:1:0:0:0, 3:1:0:0:1, 2:3:1:0:1, 2:1:0:0:0, 2:3:0:0:0, 3:0:0:0:2, 5:3:0:0:0, 3:4:0:0:0, 6:9:1:3:4, 5:0:0:0:1, 3:1:0:0:0, 1:0:0:0:0, 4:1:0:0:1, 2:0:0:0:1, 3:1:0:0:0, 2:0:0:0:0, 3:1:0:0:0, 1:0:0:0:0, 2:1:0:0:0, 1:0:0:0:0, 536:353:20:5:95
Bb major (2b), 0:0:0:0:0, 3:0:0:0:0, 4:1:0:0:1, 3:2:0:0:3, 1:0:0:0:0, 3:0:0:0:0, 4:1:0:0:1, 2:2:0:0:3, 2:0:0:0:1, 2:0:0:0:0, 0:0:0:0:0, 1:1:0:0:1, 1:1:0:0:1, 3:0:0:0:0, 4:1:0:0:1, 3:2:0:0:3, 1:0:0:0:0, 3:0:0:0:0, 4:1:0:0:1, 3:2:0:0:3, 1:0:0:0:0, 3:0:0:0:0, 4:1:0:0:1, 2:2:0:0:4, 2:0:0:0:1, 2:0:0:0:0, 0:0:0:0:0, 0:0:0:0:0, 1:1:0:0:1, 3:0:0:0:0, 4:1:0:0:1, 3:2:0:0:3, 1:0:0:0:0, 2:0:0:0:0, 2:1:0:0:1, 4:1:0:0:3, 2:1:0:0:1, 2:0:0:0:0, 2:1:0:0:1, 5:3:0:0:4, 12:0:0:2:3, 2:0:0:0:0, 3:0:1:0:0, 1:0:0:0:0, 3:5:2:0:5, 3:0:0:0:1, 2:1:0:0:1, 8:1:0:0:2, 6:4:1:0:7, 4:0:0:0:2, 4:1:0:0:1, 4:1:0:0:2, 1:0:0:0:0, 3:0:0:0:0, 3:1:0:0:1, 3:2:0:0:2, 2:0:0:0:2, 1:0:0:0:0, 1:0:0:0:0, 0:0:0:0:0, 2:4:0:0:4, 5:1:4:0:1, 7:1:0:0:3, 5:1:0:0:3, 1:0:0:0:0, 3:0:0:0:0, 2:1:0:0:1, 3:1:0:0:2, 2:1:0:0:1, 3:0:0:0:0, 3:1:0:0:1, 2:1:0:0:1, 3:0:0:0:1, 1:0:0:0:0, 1:0:0:0:0, 1:0:0:0:0, 1:1:0:0:1, 3:0:0:0:0, 3:1:0:0:1, 3:1:0:0:2, 1:0:0:0:0, 2:0:0:0:0, 2:1:0:0:1, 3:1:0:0:2, 1:0:0:0:0, 2:0:0:0:0, 3:1:0:0:1, 1:1:0:0:1, 2:0:0:0:1, 1:0:0:0:0, 0:0:0:0:0, 0:0:0:0:0, 1:3:0:0:3, 2:0:0:0:0, 2:1:0:0:1, 3:1:0:0:2, 1:0:0:0:0, 3:0:0:0:0, 5:1:0:0:1, 5:1:0:0:2, 1:0:0:0:0, 3:1:0:0:1, 5:3:1:0:3, 2:4:0:0:4, 2:0:0:0:1, 2:0:0:0:0, 1:0:0:0:0, 0:0:0:0:0, 1:2:0:0:2, 2:0:0:0:0, 2:1:0:0:1, 5:1:0:0:2, 1:0:0:0:0, 3:0:0:0:0, 3:1:0:0:1, 4:1:0:0:2, 1:0:0:0:0, 3:0:0:0:0, 3:1:0:0:1, 2:3:0:0:3, 2:0:0:0:1, 2:0:0:0:0, 0:0:0:0:0, 0:0:0:0:0, 1:1:0:0:1, 3:0:0:0:0, 4:1:0:0:1, 3:1:0:0:2, 1:0:0:0:0, 3:0:0:0:0, 2:1:0:0:1, 5:1:0:0:2, 1:0:0:0:0, 3:0:0:0:0, 3:3:1:0:3, 3:3:1:0:4, 2:0:0:0:2, 1:0:0:0:0, 1:0:0:0:0, 2:0:0:0:1, 1:2:0:0:2, 3:0:0:0:0, 2:1:0:0:1, 3:2:0:0:3, 1:0:0:0:0, 5:0:0:0:0, 4:1:0:0:1, 6:1:1:0:3, 1:0:0:0:0, 3:0:0:0:0, 4:1:0:0:1, 3:2:0:0:2, 7:1:0:0:2, 1:0:0:0:0, 0:0:0:0:0, 0:0:0:0:0, 2:4:2:0:4, 4:0:0:0:0, 3:3:1:0:3, 3:1:0:0:5, 3:0:0:0:0, 5:0:0:0:0, 2:3:0:0:3, 4:3:1:0:6, 1:0:0:0:0, 4:0:0:0:0, 3:2:0:0:2, 2:5:2:0:5, 2:0:0:0:1, 1:0:0:0:0, 1:0:0:0:0, 0:0:0:0:0, 1:1:0:0:1, 4:0:0:0:0, 4:1:0:0:1, 4:1:0:0:2, 1:0:0:0:0, 4:0:0:0:0, 4:1:0:0:1, 3:1:0:0:2, 3:0:0:0:0, 4:0:0:0:0, 3:2:0:0:2, 3:1:0:0:1, 3:0:0:0:1, 1:0:0:0:0, 1:0:0:0:0, 1:0:0:0:0, 1:2:0:0:2, 2:0:0:0:0, 2:1:0:0:1, 3:2:0:0:3, 3:0:0:0:0, 2:0:0:0:0, 2:1:0:0:1, 4:1:0:0:2, 1:0:0:0:0, 2:0:0:0:0, 3:1:0:0:1, 1:1:0:0:1, 3:0:0:0:1, 2:0:1:0:0, 2:0:0:0:0, 0:0:0:0:0, 3:1:0:0:1, 6:1:0:0:1, 3:1:0:0:2, 6:2:2:3:6, 5:5:1:0:6, 3:1:0:0:1, 3:1:0:0:2, 4:1:0:0:1, 3:1:0:0:2, 4:1:0:0:1, 4:2:0:0:3, 3:1:0:0:1, 3:1:0:0:2, 2:1:0:0:1, 3:1:0:0:2, 556:169:22:5:244
D major (2#), 0:0:0:0:0, 5:3:0:0:1, 3:1:0:0:1, 3:2:0:0:0, 2:1:0:0:0, 5:3:0:0:1, 3:1:0:0:1, 2:2:0:0:0, 2:1:0:0:1, 3:1:0:0:1, 2:0:0:0:1, 4:4:0:0:0, 1:0:0:0:0, 5:3:0:0:1, 3:1:0:0:1, 3:2:0:0:0, 2:1:0:0:0, 5:3:0:0:1, 3:1:0:0:1, 3:2:0:0:0, 2:1:0:0:0, 5:3:0:0:1, 3:1:0:0:1, 2:2:0:0:0, 2:1:0:0:1, 3:1:0:0:1, 2:0:0:0:1, 3:4:0:0:0, 1:0:0:0:0, 5:3:0:0:1, 3:1:0:0:1, 3:2:0:0:0, 2:1:0:0:0, 4:3:0:0:1, 1:2:0:0:0, 2:0:0:0:0, 2:1:0:0:0, 4:3:0:0:1, 1:2:0:0:0, 3:2:0:0:1, 10:10:2:2:8, 2:1:0:0:0, 3:0:0:0:1, 4:1:0:0:0, 2:0:2:0:2, 5:4:0:0:1, 1:4:0:0:0, 8:0:0:0:1, 6:2:1:0:2, 6:3:0:0:1, 3:2:0:0:0, 2:0:0:0:0, 2:1:0:0:0, 5:4:0:0:1, 1:1:0:0:0, 2:0:0:0:0, 2:1:0:0:1, 2:1:0:0:0, 4:0:0:0:2, 3:1:0:0:0, 3:0:0:0:1, 7:6:4:0:5, 7:1:0:0:0, 3:1:0:0:0, 2:1:0:0:0, 5:4:0:0:1, 1:1:0:0:0, 4:0:0:0:1, 3:1:0:0:1, 5:3:0:0:1, 2:2:0:0:1, 1:0:0:0:0, 3:1:0:0:2, 2:1:0:0:0, 0:0:0:0:0, 5:2:0:0:0, 2:1:0:0:0, 5:3:0:0:1, 2:1:0:0:0, 2:0:0:0:0, 2:1:0:0:0, 4:5:0:0:1, 1:1:0:0:0, 2:0:0:0:0, 2:1:0:0:0, 4:5:0:0:1, 2:1:0:0:1, 1:0:0:0:0, 2:1:0:0:1, 2:1:0:0:0, 1:0:0:0:0, 3:1:0:0:0, 1:0:0:0:0, 4:4:0:0:1, 1:1:0:0:0, 2:0:0:0:0, 2:3:0:0:0, 5:5:0:0:1, 3:2:0:0:1, 3:0:0:0:1, 2:3:0:0:0, 5:4:0:0:1, 5:1:1:0:1, 2:0:0:0:0, 3:1:0:0:2, 3:1:0:0:1, 0:0:0:0:0, 3:2:0:0:0, 2:0:0:0:1, 4:5:0:0:1, 1:2:0:0:0, 4:0:0:0:0, 2:1:0:0:0, 4:3:0:0:1, 2:1:0:0:1, 3:1:0:0:1, 2:1:0:0:0, 4:3:0:0:1, 2:1:0:0:2, 2:0:0:0:0, 2:2:0:0:2, 3:3:0:0:1, 2:0:0:0:1, 3:4:0:0:0, 1:0:0:0:0, 5:3:0:0:2, 3:3:0:0:0, 3:1:0:0:0, 2:1:0:0:0, 5:3:0:0:1, 1:1:0:0:0, 4:0:1:0:2, 2:2:0:0:0, 5:3:0:0:1, 2:1:1:0:1, 2:0:1:0:1, 2:2:0:0:2, 2:3:0:0:0, 1:0:0:0:0, 4:2:0:0:0, 2:0:0:0:2, 5:4:0:0:1, 1:2:0:0:0, 2:0:0:0:0, 2:1:0:0:0, 7:4:0:0:2, 4:3:0:0:0, 5:0:0:0:1, 2:1:0:0:0, 5:4:0:0:2, 4:2:0:0:0, 4:0:0:0:2, 7:1:1:0:4, 2:1:0:0:0, 2:2:0:0:0, 3:4:0:0:0, 3:0:2:0:3, 4:3:0:0:1, 2:1:1:0:1, 2:0:0:0:0, 5:1:0:0:1, 6:6:1:0:2, 1:1:0:0:0, 3:0:1:0:1, 2:1:0:0:0, 6:3:0:0:2, 2:1:0:0:1, 2:0:2:0:2, 2:2:0:0:2, 2:1:0:0:0, 1:0:0:0:0, 3:2:0:0:0, 1:0:0:0:0, 6:5:0:0:1, 3:1:0:0:2, 2:0:0:0:0, 2:1:0:0:0, 6:5:0:0:1, 3:1:0:0:2, 3:2:0:0:0, 4:1:0:0:1, 6:5:0:0:2, 3:1:0:0:0, 2:0:0:0:0, 4:3:0:0:4, 2:1:0:0:0, 0:0:0:0:0, 4:1:0:0:0, 2:0:0:0:2, 4:5:0:0:3, 1:1:0:0:0, 2:0:0:0:0, 4:2:0:0:0, 4:3:0:0:1, 1:2:0:0:0, 3:0:0:0:0, 2:1:0:0:0, 4:4:0:0:1, 2:1:0:0:1, 2:1:0:0:0, 4:1:0:0:2, 3:3:1:0:1, 2:1:0:0:1, 3:3:0:0:0, 4:0:0:0:2, 6:3:0:0:1, 2:4:0:0:0, 7:9:1:3:4, 6:0:0:0:1, 4:1:0:0:0, 2:0:0:0:0, 5:1:0:0:1, 3:0:0:0:1, 4:1:0:0:0, 3:0:0:0:0, 4:1:0:0:0, 2:0:0:0:0, 3:1:0:0:0, 2:0:0:0:0, 659:353:23:5:155
G minor (2b), 0:0:0:0:0, 3:0:0:0:0, 4:1:0:0:1, 3:2:0:0:3, 1:0:0:0:0, 3:0:0:0:0, 4:1:0:0:1, 2:2:0:0:3, 2:0:0:0:1, 2:0:0:0:0, 0:0:0:0:0, 1:1:0:0:1, 1:1:0:0:1, 3:0:0:0:0, 4:1:0:0:1, 3:2:0:0:3, 1:0:0:0:0, 3:0:0:0:0, 4:1:0:0:1, 3:2:0:0:3, 1:0:0:0:0, 3:0:0:0:0, 4:1:0:0:1, 2:2:0:0:4, 2:0:0:0:1, 2:0:0:0:0, 0:0:0:0:0, 0:0:0:0:0, 1:1:0:0:1, 3:0:0:0:0, 4:1:0:0:1, 3:2:0:0:3, 1:0:0:0:0, 2:0:0:0:0, 2:1:0:0:1, 4:1:0:0:3, 2:1:0:0:1, 2:0:0:0:0, 2:1:0:0:1, 5:3:0:0:4, 12:0:0:2:3, 2:0:0:0:0, 3:0:1:0:0, 1:0:0:0:0, 3:5:2:0:5, 3:0:0:0:1, 2:1:0:0:1, 8:1:0:0:2, 6:4:1:0:7, 4:0:0:0:2, 4:1:0:0:1, 4:1:0:0:2, 1:0:0:0:0, 3:0:0:0:0, 3:1:0:0:1, 3:2:0:0:2, 2:0:0:0:2, 1:0:0:0:0, 1:0:0:0:0, 0:0:0:0:0, 2:4:0:0:4, 5:1:4:0:1, 7:1:0:0:3, 5:1:0:0:3, 1:0:0:0:0, 3:0:0:0:0, 2:1:0:0:1, 3:1:0:0:2, 2:1:0:0:1, 3:0:0:0:0, 3:1:0:0:1, 2:1:0:0:1, 3:0:0:0:1, 1:0:0:0:0, 1:0:0:0:0, 1:0:0:0:0, 1:1:0:0:1, 3:0:0:0:0, 3:1:0:0:1, 3:1:0:0:2, 1:0:0:0:0, 2:0:0:0:0, 2:1:0:0:1, 3:1:0:0:2, 1:0:0:0:0, 2:0:0:0:0, 3:1:0:0:1, 1:1:0:0:1, 2:0:0:0:1, 1:0:0:0:0, 0:0:0:0:0, 0:0:0:0:0, 1:3:0:0:3, 2:0:0:0:0, 2:1:0:0:1, 3:1:0:0:2, 1:0:0:0:0, 3:0:0:0:0, 5:1:0:0:1, 5:1:0:0:2, 1:0:0:0:0, 3:1:0:0:1, 5:3:1:0:3, 2:4:0:0:4, 2:0:0:0:1, 2:0:0:0:0, 1:0:0:0:0, 0:0:0:0:0, 1:2:0:0:2, 2:0:0:0:0, 2:1:0:0:1, 5:1:0:0:2, 1:0:0:0:0, 3:0:0:0:0, 3:1:0:0:1, 4:1:0:0:2, 1:0:0:0:0, 3:0:0:0:0, 3:1:0:0:1, 2:3:0:0:3, 2:0:0:0:1, 2:0:0:0:0, 0:0:0:0:0, 0:0:0:0:0, 1:1:0:0:1, 3:0:0:0:0, 4:1:0:0:1, 3:1:0:0:2, 1:0:0:0:0, 3:0:0:0:0, 2:1:0:0:1, 5:1:0:0:2, 1:0:0:0:0, 3:0:0:0:0, 3:3:1:0:3, 3:3:1:0:4, 2:0:0:0:2, 1:0:0:0:0, 1:0:0:0:0, 2:0:0:0:1, 1:2:0:0:2, 3:0:0:0:0, 2:1:0:0:1, 3:2:0:0:3, 1:0:0:0:0, 5:0:0:0:0, 4:1:0:0:1, 6:1:1:0:3, 1:0:0:0:0, 3:0:0:0:0, 4:1:0:0:1, 3:2:0:0:2, 7:1:0:0:2, 1:0:0:0:0, 0:0:0:0:0, 0:0:0:0:0, 2:4:2:0:4, 4:0:0:0:0, 3:3:1:0:3, 3:1:0:0:5, 3:0:0:0:0, 5:0:0:0:0, 2:3:0:0:3, 4:3:1:0:6, 1:0:0:0:0, 4:0:0:0:0, 3:2:0:0:2, 2:5:2:0:5, 2:0:0:0:1, 1:0:0:0:0, 1:0:0:0:0, 0:0:0:0:0, 1:1:0:0:1, 4:0:0:0:0, 4:1:0:0:1, 4:1:0:0:2, 1:0:0:0:0, 4:0:0:0:0, 4:1:0:0:1, 3:1:0:0:2, 3:0:0:0:0, 4:0:0:0:0, 3:2:0:0:2, 3:1:0:0:1, 3:0:0:0:1, 1:0:0:0:0, 1:0:0:0:0, 1:0:0:0:0, 1:2:0:0:2, 2:0:0:0:0, 2:1:0:0:1, 3:2:0:0:3, 3:0:0:0:0, 2:0:0:0:0, 2:1:0:0:1, 4:1:0:0:2, 1:0:0:0:0, 2:0:0:0:0, 3:1:0:0:1, 1:1:0:0:1, 3:0:0:0:1, 2:0:1:0:0, 2:0:0:0:0, 0:0:0:0:0, 3:1:0:0:1, 6:1:0:0:1, 3:1:0:0:2, 6:2:2:3:6, 5:5:1:0:6, 3:1:0:0:1, 3:1:0:0:2, 4:1:0:0:1, 3:1:0:0:2, 4:1:0:0:1, 4:2:0:0:3, 3:1:0:0:1, 3:1:0:0:2, 2:1:0:0:1, 3:1:0:0:2, 556:169:22:5:244
B minor (2#), 0:0:0:0:0, 5:3:0:0:1, 3:1:0:0:1, 3:2:0:0:0, 2:1:0:0:0, 5:3:0:0:1, 3:1:0:0:1, 2:2:0:0:0, 2:1:0:0:1, 3:1:0:0:1, 2:0:0:0:1, 4:4:0:0:0, 1:0:0:0:0, 5:3:0:0:1, 3:1:0:0:1, 3:2:0:0:0, 2:1:0:0:0, 5:3:0:0:1, 3:1:0:0:1, 3:2:0:0:0, 2:1:0:0:0, 5:3:0:0:1, 3:1:0:0:1, 2:2:0:0:0, 2:1:0:0:1, 3:1:0:0:1, 2:0:0:0:1, 3:4:0:0:0, 1:0:0:0:0, 5:3:0:0:1, 3:1:0:0:1, 3:2:0:0:0, 2:1:0:0:0, 4:3:0:0:1, 1:2:0:0:0, 2:0:0:0:0, 2:1:0:0:0, 4:3:0:0:1, 1:2:0:0:0, 3:2:0:0:1, 10:10:2:2:8, 2:1:0:0:0, 3:0:0:0:1, 4:1:0:0:0, 2:0:2:0:2, 5:4:0:0:1, 1:4:0:0:0, 8:0:0:0:1, 6:2:1:0:2, 6:3:0:0:1, 3:2:0:0:0, 2:0:0:0:0, 2:1:0:0:0, 5:4:0:0:1, 1:1:0:0:0, 2:0:0:0:0, 2:1:0:0:1, 2:1:0:0:0, 4:0:0:0:2, 3:1:0:0:0, 3:0:0:0:1, 7:6:4:0:5, 7:1:0:0:0, 3:1:0:0:0, 2:1:0:0:0, 5:4:0:0:1, 1:1:0:0:0, 4:0:0:0:1, 3:1:0:0:1, 5:3:0:0:1, 2:2:0:0:1, 1:0:0:0:0, 3:1:0:0:2, 2:1:0:0:0, 0:0:0:0:0, 5:2:0:0:0, 2:1:0:0:0, 5:3:0:0:1, 2:1:0:0:0, 2:0:0:0:0, 2:1:0:0:0, 4:5:0:0:1, 1:1:0:0:0, 2:0:0:0:0, 2:1:0:0:0, 4:5:0:0:1, 2:1:0:0:1, 1:0:0:0:0, 2:1:0:0:1, 2:1:0:0:0, 1:0:0:0:0, 3:1:0:0:0, 1:0:0:0:0, 4:4:0:0:1, 1:1:0:0:0, 2:0:0:0:0, 2:3:0:0:0, 5:5:0:0:1, 3:2:0:0:1, 3:0:0:0:1, 2:3:0:0:0, 5:4:0:0:1, 5:1:1:0:1, 2:0:0:0:0, 3:1:0:0:2, 3:1:0:0:1, 0:0:0:0:0, 3:2:0:0:0, 2:0:0:0:1, 4:5:0:0:1, 1:2:0:0:0, 4:0:0:0:0, 2:1:0:0:0, 4:3:0:0:1, 2:1:0:0:1, 3:1:0:0:1, 2:1:0:0:0, 4:3:0:0:1, 2:1:0:0:2, 2:0:0:0:0, 2:2:0:0:2, 3:3:0:0:1, 2:0:0:0:1, 3:4:0:0:0, 1:0:0:0:0, 5:3:0:0:2, 3:3:0:0:0, 3:1:0:0:0, 2:1:0:0:0, 5:3:0:0:1, 1:1:0:0:0, 4:0:1:0:2, 2:2:0:0:0, 5:3:0:0:1, 2:1:1:0:1, 2:0:1:0:1, 2:2:0:0:2, 2:3:0:0:0, 1:0:0:0:0, 4:2:0:0:0, 2:0:0:0:2, 5:4:0:0:1, 1:2:0:0:0, 2:0:0:0:0, 2:1:0:0:0, 7:4:0:0:2, 4:3:0:0:0, 5:0:0:0:1, 2:1:0:0:0, 5:4:0:0:2, 4:2:0:0:0, 4:0:0:0:2, 7:1:1:0:4, 2:1:0:0:0, 2:2:0:0:0, 3:4:0:0:0, 3:0:2:0:3, 4:3:0:0:1, 2:1:1:0:1, 2:0:0:0:0, 5:1:0:0:1, 6:6:1:0:2, 1:1:0:0:0, 3:0:1:0:1, 2:1:0:0:0, 6:3:0:0:2, 2:1:0:0:1, 2:0:2:0:2, 2:2:0:0:2, 2:1:0:0:0, 1:0:0:0:0, 3:2:0:0:0, 1:0:0:0:0, 6:5:0:0:1, 3:1:0:0:2, 2:0:0:0:0, 2:1:0:0:0, 6:5:0:0:1, 3:1:0:0:2, 3:2:0:0:0, 4:1:0:0:1, 6:5:0:0:2, 3:1:0:0:0, 2:0:0:0:0, 4:3:0:0:4, 2:1:0:0:0, 0:0:0:0:0, 4:1:0:0:0, 2:0:0:0:2, 4:5:0:0:3, 1:1:0:0:0, 2:0:0:0:0, 4:2:0:0:0, 4:3:0:0:1, 1:2:0:0:0, 3:0:0:0:0, 2:1:0:0:0, 4:4:0:0:1, 2:1:0:0:1, 2:1:0:0:0, 4:1:0:0:2, 3:3:1:0:1, 2:1:0:0:1, 3:3:0:0:0, 4:0:0:0:2, 6:3:0:0:1, 2:4:0:0:0, 7:9:1:3:4, 6:0:0:0:1, 4:1:0:0:0, 2:0:0:0:0, 5:1:0:0:1, 3:0:0:0:1, 4:1:0:0:0, 3:0:0:0:0, 4:1:0:0:0, 2:0:0:0:0, 3:1:0:0:0, 2:0:0:0:0, 659:353:23:5:155
Eb major (3b), 0:0:0:0:0, 2:0:0:0:2, 5:1:0:0:2, 4:2:0:0:3, 1:0:0:0:1, 2:0:0:0:2, 5:1:0:0:2, 3:2:0:0:3, 1:0:0:0:1, 3:0:0:0:1, 1:0:0:0:0, 2:1:0:0:1, 2:1:0:0:1, 2:0:0:0:2, 5:1:0:0:2, 4:2:0:0:3, 1:0:0:0:1, 2:0:0:0:2, 5:1:0:0:2, 4:2:0:0:3, 1:0:0:0:1, 2:0:0:0:2, 5:1:0:0:2, 3:2:0:0:4, 1:0:0:0:1, 3:0:0:0:1, 1:0:0:0:0, 1:0:0:0:0, 2:1:0:0:1, 2:0:0:0:2, 5:1:0:0:2, 4:2:0:0:3, 1:0:0:0:1, 3:0:0:0:2, 3:1:0:0:3, 5:1:0:0:4, 2:1:0:0:3, 1:0:0:0:1, 3:1:0:0:3, 6:3:0:0:6, 11:0:0:2:4, 2:0:0:0:2, 3:0:1:0:1, 2:0:0:0:1, 4:5:2:0:6, 2:0:0:0:3, 3:1:0:0:3, 9:1:0:0:3, 7:4:1:0:9, 3:0:0:0:4, 5:1:0:0:2, 5:1:0:0:3, 2:0:0:0:1, 2:0:0:0:1, 4:1:0:0:2, 4:2:0:0:3, 1:0:0:0:2, 1:0:0:0:1, 2:0:0:0:1, 1:0:0:0:0, 3:4:0:0:4, 6:1:4:0:4, 8:1:0:0:6, 6:1:0:0:6, 1:0:0:0:2, 2:0:0:0:2, 3:1:0:0:2, 4:1:0:0:2, 3:1:0:0:3, 4:0:0:0:1, 4:1:0:0:2, 3:1:0:0:2, 2:0:0:0:2, 2:0:0:0:1, 2:0:0:0:1, 2:0:0:0:1, 2:1:0:0:1, 2:0:0:0:3, 4:1:0:0:2, 4:1:0:0:2, 1:0:0:0:2, 1:0:0:0:1, 3:1:0:0:2, 4:1:0:0:2, 2:0:0:0:1, 1:0:0:0:1, 4:1:0:0:2, 2:1:0:0:1, 1:0:0:0:1, 1:0:0:0:1, 0:0:0:0:0, 1:0:0:0:0, 2:3:0:0:3, 1:0:0:0:1, 3:1:0:0:2, 4:1:0:0:2, 1:0:0:0:1, 2:0:0:0:1, 6:1:0:0:3, 6:1:0:0:3, 1:0:0:0:2, 2:1:0:0:2, 6:3:1:0:5, 3:4:0:0:4, 1:0:0:0:1, 3:0:0:0:2, 2:0:0:0:1, 1:0:0:0:0, 2:2:0:0:2, 3:0:0:0:3, 3:1:0:0:3, 6:1:0:0:2, 1:0:0:0:1, 2:0:0:0:1, 4:1:0:0:2, 5:1:0:0:2, 1:0:0:0:1, 2:0:0:0:1, 4:1:0:0:2, 3:3:0:0:3, 1:0:0:0:1, 2:0:0:0:2, 0:0:0:0:0, 1:0:0:0:0, 2:1:0:0:1, 4:0:0:0:1, 5:1:0:0:2, 4:1:0:0:2, 1:0:0:0:1, 4:0:0:0:2, 3:1:0:0:3, 6:1:0:0:2, 2:0:0:0:2, 4:0:0:0:2, 4:3:1:0:5, 4:3:1:0:4, 1:0:0:0:2, 1:0:0:0:3, 1:0:0:0:2, 3:0:0:0:2, 2:2:0:0:2, 2:0:0:0:3, 3:1:0:0:2, 4:2:0:0:3, 1:0:0:0:1, 4:0:0:0:2, 5:1:0:0:2, 7:1:1:0:2, 2:0:0:0:2, 4:0:0:0:2, 5:1:0:0:3, 4:2:0:0:3, 6:1:0:0:3, 2:0:0:0:2, 1:0:0:0:0, 1:0:0:0:0, 3:4:2:0:4, 3:0:0:0:2, 4:3:1:0:5, 4:1:0:0:5, 3:0:0:0:2, 6:0:0:0:2, 3:3:0:0:5, 5:3:1:0:6, 1:0:0:0:1, 3:0:0:0:2, 4:2:0:0:4, 3:5:2:0:5, 1:0:0:0:1, 1:0:0:0:3, 1:0:0:0:2, 1:0:0:0:0, 2:1:0:0:1, 4:4:0:2:3, 5:1:0:0:2, 5:1:0:0:4, 2:0:0:0:1, 4:4:0:2:3, 5:1:0:0:2, 4:1:0:0:2, 4:0:0:0:2, 4:4:0:2:3, 4:2:0:0:4, 4:1:0:0:3, 2:0:0:0:2, 1:0:0:0:3, 2:0:0:0:1, 2:0:0:0:1, 2:2:0:0:2, 1:0:0:0:3, 3:1:0:0:3, 4:2:0:0:3, 3:0:0:0:1, 1:0:0:0:2, 3:1:0:0:2, 5:1:0:0:2, 1:0:0:0:2, 1:0:0:0:1, 4:1:0:0:2, 2:1:0:0:1, 2:0:0:0:3, 3:0:1:0:1, 1:0:0:0:0, 1:0:0:0:0, 4:1:0:0:4, 5:1:0:0:3, 4:1:0:0:3, 7:2:2:3:8, 6:5:1:0:6, 4:1:0:0:4, 4:1:0:0:2, 5:1:0:0:4, 4:1:0:0:2, 5:1:0:0:4, 5:2:0:0:3, 4:1:0:0:3, 4:1:0:0:2, 3:1:0:0:3, 4:1:0:0:2, 660:181:22:11:485
A major (3#), 1:0:0:0:0, 6:3:0:0:1, 4:1:0:0:0, 4:2:0:0:2, 3:1:0:0:0, 6:3:0:0:1, 4:1:0:0:0, 2:2:0:0:2, 3:1:0:0:1, 4:1:0:0:0, 2:0:0:0:0, 3:4:0:0:4, 2:0:0:0:0, 6:3:0:0:1, 4:1:0:0:0, 4:2:0:0:2, 3:1:0:0:0, 6:3:0:0:1, 4:1:0:0:0, 4:2:0:0:2, 3:1:0:0:0, 6:3:0:0:1, 4:1:0:0:0, 2:2:0:0:2, 3:1:0:0:1, 4:1:0:0:0, 2:0:0:0:0, 3:4:0:0:4, 2:0:0:0:0, 6:3:0:0:1, 4:1:0:0:0, 4:2:0:0:2, 3:1:0:0:0, 5:3:0:0:1, 2:2:0:0:0, 3:0:0:0:0, 3:1:0:0:0, 5:3:0:0:1, 2:2:0:0:0, 4:2:0:0:1, 11:10:2:2:9, 3:1:0:0:0, 4:0:0:0:1, 5:1:0:0:1, 2:0:2:0:2, 6:4:0:0:1, 2:4:0:0:0, 7:0:0:0:0, 7:2:1:0:1, 7:3:0:0:1, 4:2:0:0:0, 3:0:0:0:0, 3:1:0:0:0, 6:4:0:0:1, 2:1:0:0:0, 2:0:0:0:0, 3:1:0:0:1, 3:1:0:0:0, 5:0:0:0:1, 3:1:0:0:1, 4:0:0:0:0, 8:6:4:0:5, 8:1:0:0:0, 4:1:0:0:0, 3:1:0:0:0, 6:4:0:0:1, 2:1:0:0:0, 5:0:0:0:1, 4:1:0:0:0, 6:3:0:0:1, 3:2:0:0:0, 2:0:0:0:0, 4:1:0:0:1, 3:1:0:0:0, 1:0:0:0:0, 6:2:0:0:1, 2:1:0:0:0, 6:3:0:0:1, 3:1:0:0:0, 3:0:0:0:0, 3:1:0:0:0, 5:5:0:0:1, 2:1:0:0:0, 3:0:0:0:0, 3:1:0:0:0, 5:5:0:0:1, 3:1:0:0:0, 2:0:0:0:0, 3:1:0:0:1, 3:1:0:0:0, 1:0:0:0:0, 3:1:0:0:1, 1:0:0:0:0, 5:4:0:0:1, 2:1:0:0:0, 3:0:0:0:0, 3:3:0:0:0, 6:5:0:0:1, 4:2:0:0:1, 4:0:0:0:0, 3:3:0:0:0, 6:4:0:0:1, 6:1:1:0:1, 2:0:0:0:0, 4:1:0:0:1, 4:1:0:0:0, 1:0:0:0:0, 4:2:0:0:2, 2:0:0:0:0, 5:5:0:0:1, 2:2:0:0:0, 5:0:0:0:0, 3:1:0:0:0, 5:3:0:0:1, 3:1:0:0:0, 3:0:0:0:0, 3:1:0:0:0, 5:3:0:0:1, 3:1:0:0:0, 1:0:0:0:0, 3:2:0:0:2, 4:3:0:0:1, 2:0:0:0:1, 3:4:0:0:4, 1:0:0:0:0, 6:3:0:0:1, 4:3:0:0:2, 4:1:0:0:1, 3:1:0:0:0, 6:3:0:0:1, 2:1:0:0:0, 5:0:1:0:1, 3:2:0:0:0, 6:3:0:0:1, 3:1:1:0:1, 2:0:1:0:1, 3:2:0:0:2, 3:3:0:0:0, 2:0:0:0:0, 5:2:0:0:2, 2:0:0:0:0, 6:4:0:0:1, 2:2:0:0:0, 3:0:0:0:0, 3:1:0:0:0, 8:4:0:0:1, 5:3:0:0:0, 5:1:0:0:1, 3:1:0:0:0, 6:4:0:0:1, 5:2:0:0:0, 5:0:0:0:1, 8:1:1:0:3, 3:1:0:0:0, 2:2:0:0:2, 3:4:0:0:4, 4:0:2:0:2, 5:3:0:0:1, 3:1:1:0:1, 3:0:0:0:0, 6:1:0:0:0, 7:6:1:0:4, 2:1:0:0:0, 4:0:1:0:1, 3:1:0:0:0, 7:3:0:0:1, 3:1:0:0:0, 2:0:2:0:2, 3:2:0:0:2, 3:1:0:0:0, 1:0:0:0:0, 3:2:0:0:2, 1:0:0:0:0, 7:5:0:0:3, 4:1:0:0:0, 3:0:0:0:0, 3:1:0:0:0, 7:5:0:0:3, 4:1:0:0:0, 4:2:0:0:2, 5:1:0:0:0, 7:5:0:0:3, 4:1:0:0:0, 3:0:0:0:0, 5:3:0:0:3, 3:1:0:0:0, 1:0:0:0:0, 4:1:0:0:1, 2:0:0:0:0, 5:5:0:0:3, 2:1:0:0:0, 3:0:0:0:0, 5:2:0:0:0, 5:3:0:0:1, 2:2:0:0:0, 4:0:0:0:0, 3:1:0:0:0, 5:4:0:0:1, 3:1:0:0:0, 3:1:0:0:1, 5:1:0:0:1, 4:3:1:0:1, 2:0:0:0:0, 3:3:0:0:3, 4:0:0:0:0, 7:3:0:0:1, 3:4:0:0:0, 8:9:1:3:4, 7:0:0:0:0, 5:1:0:0:0, 3:0:0:0:0, 6:1:0:0:0, 4:0:0:0:0, 5:1:0:0:0, 4:0:0:0:0, 5:1:0:0:0, 3:0:0:0:0, 4:1:0:0:0, 3:0:0:0:0, 840:352:23:5:159
C minor (3b), 0:0:0:0:0, 2:0:0:0:2, 5:1:0:0:2, 4:2:0:0:3, 1:0:0:0:1, 2:0:0:0:2, 5:1:0:0:2, 3:2:0:0:3, 1:0:0:0:1, 3:0:0:0:1, 1:0:0:0:0, 2:1:0:0:1, 2:1:0:0:1, 2:0:0:0:2, 5:1:0:0:2, 4:2:0:0:3, 1:0:0:0:1, 2:0:0:0:2, 5:1:0:0:2, 4:2:0:0:3, 1:0:0:0:1, 2:0:0:0:2, 5:1:0:0:2, 3:2:0:0:4, 1:0:0:0:1, 3:0:0:0:1, 1:0:0:0:0, 1:0:0:0:0, 2:1:0:0:1, 2:0:0:0:2, 5:1:0:0:2, 4:2:0:0:3, 1:0:0:0:1, 3:0:0:0:2, 3:1:0:0:3, 5:1:0:0:4, 2:1:0:0:3, 1:0:0:0:1, 3:1:0:0:3, 6:3:0:0:6, 11:0:0:2:4, 2:0:0:0:2, 3:0:1:0:1, 2:0:0:0:1, 4:5:2:0:6, 2:0:0:0:3, 3:1:0:0:3, 9:1:0:0:3, 7:4:1:0:9, 3:0:0:0:4, 5:1:0:0:2, 5:1:0:0:3, 2:0:0:0:1, 2:0:0:0:1, 4:1:0:0:2, 4:2:0:0:3, 1:0:0:0:2, 1:0:0:0:1, 2:0:0:0:1, 1:0:0:0:0, 3:4:0:0:4, 6:1:4:0:4, 8:1:0:0:6, 6:1:0:0:6, 1:0:0:0:2, 2:0:0:0:2, 3:1:0:0:2, 4:1:0:0:2, 3:1:0:0:3, 4:0:0:0:1, 4:1:0:0:2, 3:1:0:0:2, 2:0:0:0:2, 2:0:0:0:1, 2:0:0:0:1, 2:0:0:0:1, 2:1:0:0:1, 2:0:0:0:3, 4:1:0:0:2, 4:1:0:0:2, 1:0:0:0:2, 1:0:0:0:1, 3:1:0:0:2, 4:1:0:0:2, 2:0:0:0:1, 1:0:0:0:1, 4:1:0:0:2, 2:1:0:0:1, 1:0:0:0:1, 1:0:0:0:1, 0:0:0:0:0, 1:0:0:0:0, 2:3:0:0:3, 1:0:0:0:1, 3:1:0:0:2, 4:1:0:0:2, 1:0:0:0:1, 2:0:0:0:1, 6:1:0:0:3, 6:1:0:0:3, 1:0:0:0:2, 2:1:0:0:2, 6:3:1:0:5, 3:4:0:0:4, 1:0:0:0:1, 3:0:0:0:2, 2:0:0:0:1, 1:0:0:0:0, 2:2:0:0:2, 3:0:0:0:3, 3:1:0:0:3, 6:1:0:0:2, 1:0:0:0:1, 2:0:0:0:1, 4:1:0:0:2, 5:1:0:0:2, 1:0:0:0:1, 2:0:0:0:1, 4:1:0:0:2, 3:3:0:0:3, 1:0:0:0:1, 2:0:0:0:2, 0:0:0:0:0, 1:0:0:0:0, 2:1:0:0:1, 4:0:0:0:1, 5:1:0:0:2, 4:1:0:0:2, 1:0:0:0:1, 4:0:0:0:2, 3:1:0:0:3, 6:1:0:0:2, 2:0:0:0:2, 4:0:0:0:2, 4:3:1:0:5, 4:3:1:0:4, 1:0:0:0:2, 1:0:0:0:3, 1:0:0:0:2, 3:0:0:0:2, 2:2:0:0:2, 2:0:0:0:3, 3:1:0:0:2, 4:2:0:0:3, 1:0:0:0:1, 4:0:0:0:2, 5:1:0:0:2, 7:1:1:0:2, 2:0:0:0:2, 4:0:0:0:2, 5:1:0:0:3, 4:2:0:0:3, 6:1:0:0:3, 2:0:0:0:2, 1:0:0:0:0, 1:0:0:0:0, 3:4:2:0:4, 3:0:0:0:2, 4:3:1:0:5, 4:1:0:0:5, 3:0:0:0:2, 6:0:0:0:2, 3:3:0:0:5, 5:3:1:0:6, 1:0:0:0:1, 3:0:0:0:2, 4:2:0:0:4, 3:5:2:0:5, 1:0:0:0:1, 1:0:0:0:3, 1:0:0:0:2, 1:0:0:0:0, 2:1:0:0:1, 4:4:0:2:3, 5:1:0:0:2, 5:1:0:0:4, 2:0:0:0:1, 4:4:0:2:3, 5:1:0:0:2, 4:1:0:0:2, 4:0:0:0:2, 4:4:0:2:3, 4:2:0:0:4, 4:1:0:0:3, 2:0:0:0:2, 1:0:0:0:3, 2:0:0:0:1, 2:0:0:0:1, 2:2:0:0:2, 1:0:0:0:3, 3:1:0:0:3, 4:2:0:0:3, 3:0:0:0:1, 1:0:0:0:2, 3:1:0:0:2, 5:1:0:0:2, 1:0:0:0:2, 1:0:0:0:1, 4:1:0:0:2, 2:1:0:0:1, 2:0:0:0:3, 3:0:1:0:1, 1:0:0:0:0, 1:0:0:0:0, 4:1:0:0:4, 5:1:0:0:3, 4:1:0:0:3, 7:2:2:3:8, 6:5:1:0:6, 4:1:0:0:4, 4:1:0:0:2, 5:1:0:0:4, 4:1:0:0:2, 5:1:0:0:4, 5:2:0:0:3, 4:1:0:0:3, 4:1:0:0:2, 3:1:0:0:3, 4:1:0:0:2, 660:181:22:11:485
F# minor (3#), 1:0:0:0:0, 6:3:0:0:1, 4:1:0:0:0, 4:2:0:0:2, 3:1:0:0:0, 6:3:0:0:1, 4:1:0:0:0, 2:2:0:0:2, 3:1:0:0:1, 4:1:0:0:0, 2:0:0:0:0, 3:4:0:0:4, 2:0:0:0:0, 6:3:0:0:1, 4:1:0:0:0, 4:2:0:0:2, 3:1:0:0:0, 6:3:0:0:1, 4:1:0:0:0, 4:2:0:0:2, 3:1:0:0:0, 6:3:0:0:1, 4:1:0:0:0, 2:2:0:0:2, 3:1:0:0:1, 4:1:0:0:0, 2:0:0:0:0, 3:4:0:0:4, 2:0:0:0:0, 6:3:0:0:1, 4:1:0:0:0, 4:2:0:0:2, 3:1:0:0:0, 5:3:0:0:1, 2:2:0:0:0, 3:0:0:0:0, 3:1:0:0:0, 5:3:0:0:1, 2:2:0:0:0, 4:2:0:0:1, 11:10:2:2:9, 3:1:0:0:0, 4:0:0:0:1, 5:1:0:0:1, 2:0:2:0:2, 6:4:0:0:1, 2:4:0:0:0, 7:0:0:0:0, 7:2:1:0:1, 7:3:0:0:1, 4:2:0:0:0, 3:0:0:0:0, 3:1:0:0:0, 6:4:0:0:1, 2:1:0:0:0, 2:0:0:0:0, 3:1:0:0:1, 3:1:0:0:0, 5:0:0:0:1, 3:1:0:0:1, 4:0:0:0:0, 8:6:4:0:5, 8:1:0:0:0, 4:1:0:0:0, 3:1:0:0:0, 6:4:0:0:1, 2:1:0:0:0, 5:0:0:0:1, 4:1:0:0:0, 6:3:0:0:1, 3:2:0:0:0, 2:0:0:0:0, 4:1:0:0:1, 3:1:0:0:0, 1:0:0:0:0, 6:2:0:0:1, 2:1:0:0:0, 6:3:0:0:1, 3:1:0:0:0, 3:0:0:0:0, 3:1:0:0:0, 5:5:0:0:1, 2:1:0:0:0, 3:0:0:0:0, 3:1:0:0:0, 5:5:0:0:1, 3:1:0:0:0, 2:0:0:0:0, 3:1:0:0:1, 3:1:0:0:0, 1:0:0:0:0, 3:1:0:0:1, 1:0:0:0:0, 5:4:0:0:1, 2:1:0:0:0, 3:0:0:0:0, 3:3:0:0:0, 6:5:0:0:1, 4:2:0:0:1, 4:0:0:0:0, 3:3:0:0:0, 6:4:0:0:1, 6:1:1:0:1, 2:0:0:0:0, 4:1:0:0:1, 4:1:0:0:0, 1:0:0:0:0, 4:2:0:0:2, 2:0:0:0:0, 5:5:0:0:1, 2:2:0:0:0, 5:0:0:0:0, 3:1:0:0:0, 5:3:0:0:1, 3:1:0:0:0, 3:0:0:0:0, 3:1:0:0:0, 5:3:0:0:1, 3:1:0:0:0, 1:0:0:0:0, 3:2:0:0:2, 4:3:0:0:1, 2:0:0:0:1, 3:4:0:0:4, 1:0:0:0:0, 6:3:0:0:1, 4:3:0:0:2, 4:1:0:0:1, 3:1:0:0:0, 6:3:0:0:1, 2:1:0:0:0, 5:0:1:0:1, 3:2:0:0:0, 6:3:0:0:1, 3:1:1:0:1, 2:0:1:0:1, 3:2:0:0:2, 3:3:0:0:0, 2:0:0:0:0, 5:2:0:0:2, 2:0:0:0:0, 6:4:0:0:1, 2:2:0:0:0, 3:0:0:0:0, 3:1:0:0:0, 8:4:0:0:1, 5:3:0:0:0, 5:1:0:0:1, 3:1:0:0:0, 6:4:0:0:1, 5:2:0:0:0, 5:0:0:0:1, 8:1:1:0:3, 3:1:0:0:0, 2:2:0:0:2, 3:4:0:0:4, 4:0:2:0:2, 5:3:0:0:1, 3:1:1:0:1, 3:0:0:0:0, 6:1:0:0:0, 7:6:1:0:4, 2:1:0:0:0, 4:0:1:0:1, 3:1:0:0:0, 7:3:0:0:1, 3:1:0:0:0, 2:0:2:0:2, 3:2:0:0:2, 3:1:0:0:0, 1:0:0:0:0, 3:2:0:0:2, 1:0:0:0:0, 7:5:0:0:3, 4:1:0:0:0, 3:0:0:0:0, 3:1:0:0:0, 7:5:0:0:3, 4:1:0:0:0, 4:2:0:0:2, 5:1:0:0:0, 7:5:0:0:3, 4:1:0:0:0, 3:0:0:0:0, 5:3:0:0:3, 3:1:0:0:0, 1:0:0:0:0, 4:1:0:0:1, 2:0:0:0:0, 5:5:0:0:3, 2:1:0:0:0, 3:0:0:0:0, 5:2:0:0:0, 5:3:0:0:1, 2:2:0:0:0, 4:0:0:0:0, 3:1:0:0:0, 5:4:0:0:1, 3:1:0:0:0, 3:1:0:0:1, 5:1:0:0:1, 4:3:1:0:1, 2:0:0:0:0, 3:3:0:0:3, 4:0:0:0:0, 7:3:0:0:1, 3:4:0:0:0, 8:9:1:3:4, 7:0:0:0:0, 5:1:0:0:0, 3:0:0:0:0, 6:1:0:0:0, 4:0:0:0:0, 5:1:0:0:0, 4:0:0:0:0, 5:1:0:0:0, 3:0:0:0:0, 4:1:0:0:0, 3:0:0:0:0, 840:352:23:5:159
Ab major (4b), 0:0:0:0:0, 3:0:0:0:3, 5:1:0:0:4, 5:2:0:0:6, 1:0:0:0:1, 3:0:0:0:3, 5:1:0:0:4, 4:2:0:0:6, 2:0:0:0:1, 3:0:0:0:2, 1:0:0:0:2, 3:1:0:0:3, 2:1:0:0:2, 3:0:0:0:3, 5:1:0:0:4, 5:2:0:0:6, 1:0:0:0:1, 3:0:0:0:3, 5:1:0:0:4, 5:2:0:0:6, 1:0:0:0:1, 3:0:0:0:3, 5:1:0:0:4, 4:2:0:0:7, 2:0:0:0:1, 4:0:0:0:2, 1:0:0:0:2, 2:0:0:0:2, 2:1:0:0:2, 3:0:0:0:3, 5:1:0:0:4, 5:2:0:0:6, 1:0:0:0:1, 4:0:0:0:3, 3:1:0:0:7, 6:1:0:0:6, 2:1:0:0:3, 2:0:0:0:1, 3:1:0:0:8, 7:3:0:0:10, 12:0:0:2:7, 2:0:0:0:2, 3:0:1:0:1, 2:0:0:0:3, 4:5:2:0:7, 3:0:0:0:3, 3:1:0:0:5, 10:1:0:0:6, 8:4:1:0:10, 4:0:0:0:4, 5:1:0:0:5, 6:1:0:0:5, 3:0:0:0:2, 3:0:0:0:2, 4:1:0:0:3, 5:2:0:0:4, 2:0:0:0:2, 1:0:0:0:1, 2:0:0:0:2, 1:0:0:0:2, 4:4:0:0:6, 7:1:4:0:6, 9:1:0:0:9, 7:1:0:0:9, 1:0:0:0:2, 3:0:0:0:5, 3:1:0:0:5, 5:1:0:0:6, 4:1:0:0:4, 5:0:0:0:3, 5:1:0:0:6, 4:1:0:0:5, 3:0:0:0:2, 2:0:0:0:2, 2:0:0:0:2, 2:0:0:0:4, 2:1:0:0:5, 3:0:0:0:4, 4:1:0:0:4, 5:1:0:0:5, 2:0:0:0:2, 2:0:0:0:1, 3:1:0:0:5, 5:1:0:0:3, 2:0:0:0:2, 2:0:0:0:1, 4:1:0:0:5, 3:1:0:0:2, 2:0:0:0:1, 1:0:0:0:1, 0:0:0:0:0, 1:0:0:0:1, 2:3:0:0:4, 2:0:0:0:1, 3:1:0:0:6, 5:1:0:0:3, 1:0:0:0:1, 3:0:0:0:3, 6:1:0:0:5, 7:1:0:0:4, 1:0:0:0:2, 3:1:0:0:2, 6:1:0:0:6, 4:4:0:0:5, 2:0:0:0:1, 4:0:0:0:3, 2:0:0:0:2, 1:0:0:0:2, 2:2:0:0:4, 4:0:0:0:4, 3:1:0:0:6, 7:1:0:0:4, 1:0:0:0:1, 3:0:0:0:1, 5:1:0:0:4, 6:1:0:0:3, 1:0:0:0:1, 3:0:0:0:1, 4:1:0:0:4, 4:3:0:0:4, 2:0:0:0:1, 1:0:0:0:2, 0:0:0:0:0, 2:0:0:0:1, 3:1:0:0:3, 5:0:0:0:2, 6:1:0:0:4, 5:1:0:0:4, 1:0:0:0:1, 5:0:0:0:5, 3:1:0:0:7, 7:1:0:0:4, 2:0:0:0:4, 5:0:0:0:5, 4:1:0:0:6, 5:3:1:0:8, 2:0:0:0:2, 2:0:0:0:3, 2:0:0:0:2, 3:0:0:0:5, 2:2:0:0:4, 3:0:0:0:5, 3:1:0:0:5, 5:2:0:0:6, 1:0:0:0:1, 5:0:0:0:3, 4:1:0:0:5, 8:1:1:0:4, 2:0:0:0:4, 5:0:0:0:3, 4:1:0:0:6, 5:2:0:0:5, 7:1:0:0:4, 2:0:0:0:3, 2:0:0:0:2, 2:0:0:0:2, 3:4:2:0:7, 4:0:0:0:2, 5:3:1:0:7, 5:1:0:0:8, 3:1:0:0:3, 6:1:0:0:4, 3:1:0:0:5, 6:3:1:0:9, 1:0:0:0:1, 3:1:0:0:3, 4:2:0:0:5, 4:5:2:0:8, 2:0:0:0:1, 1:0:0:0:3, 1:0:0:0:2, 1:0:0:0:1, 2:1:0:0:4, 5:4:0:2:3, 5:1:0:0:5, 6:1:0:0:5, 2:0:0:0:3, 5:4:0:2:3, 5:1:0:0:5, 5:1:0:0:5, 4:1:0:0:4, 5:4:0:2:3, 5:2:0:0:6, 5:1:0:0:4, 3:0:0:0:2, 1:0:0:0:3, 2:0:0:0:2, 2:0:0:0:4, 2:2:0:0:3, 2:0:0:0:3, 3:1:0:0:6, 5:2:0:0:7, 3:0:0:3:4, 2:0:0:0:2, 3:1:0:0:4, 6:1:0:0:4, 2:0:0:0:2, 2:0:0:0:1, 4:1:0:0:3, 3:1:0:0:4, 3:0:0:0:3, 3:0:1:0:3, 1:0:0:0:0, 2:0:0:0:1, 5:1:0:0:5, 6:1:0:0:4, 4:1:0:0:7, 8:2:2:3:10, 7:5:1:0:7, 5:1:0:0:7, 5:1:0:0:5, 6:1:0:0:6, 5:1:0:0:5, 6:1:0:0:8, 6:2:0:0:6, 5:1:0:0:6, 5:1:0:0:3, 4:1:0:0:5, 5:1:0:0:3, 781:179:20:14:819
E major (4#), 1:0:0:0:0, 7:3:0:0:3, 3:1:0:0:1, 5:2:0:0:2, 3:1:0:0:1, 7:3:0:0:3, 3:1:0:0:1, 3:2:0:0:2, 4:1:0:0:1, 3:1:0:0:1, 1:0:0:0:0, 4:1:0:0:1, 2:0:0:0:0, 7:3:0:0:3, 3:1:0:0:1, 5:2:0:0:2, 3:1:0:0:1, 7:3:0:0:3, 3:1:0:0:1, 5:2:0:0:2, 3:1:0:0:1, 7:3:0:0:3, 3:1:0:0:1, 3:2:0:0:2, 4:1:0:0:1, 5:1:0:0:1, 1:0:0:0:0, 4:1:0:0:1, 2:0:0:0:0, 7:3:0:0:3, 3:1:0:0:1, 5:2:0:0:2, 3:1:0:0:1, 6:3:0:0:3, 2:2:0:0:2, 4:0:0:0:0, 3:1:0:0:1, 6:3:0:0:3, 2:2:0:0:2, 5:2:0:0:2, 12:10:2:2:10, 3:1:0:0:1, 4:0:0:0:0, 5:1:0:0:1, 2:0:2:0:2, 7:4:0:0:4, 2:4:0:0:4, 8:0:0:0:0, 8:2:1:0:3, 8:3:0:0:3, 4:2:0:0:2, 4:0:0:0:0, 4:1:0:0:1, 7:4:0:0:4, 2:1:0:0:1, 3:0:0:0:0, 4:1:0:0:1, 3:1:0:0:1, 4:0:0:0:0, 3:1:0:0:1, 5:0:0:0:0, 9:6:4:0:7, 9:1:0:0:1, 5:1:0:0:1, 3:1:0:0:1, 7:4:0:0:4, 2:1:0:0:1, 6:0:0:0:0, 5:1:0:0:1, 7:3:0:0:3, 4:2:0:0:2, 3:0:0:0:0, 5:1:0:0:1, 3:1:0:0:1, 1:0:0:0:0, 6:2:0:0:2, 2:1:0:0:1, 7:3:0:0:3, 3:1:0:0:1, 4:0:0:0:0, 4:1:0:0:1, 6:5:0:0:5, 2:1:0:0:1, 4:0:0:0:0, 3:1:0:0:1, 6:5:0:0:5, 2:1:0:0:1, 3:0:0:0:0, 4:1:0:0:1, 3:1:0:0:1, 1:0:0:0:0, 3:1:0:0:1, 1:0:0:0:0, 6:4:0:0:4, 2:1:0:0:1, 4:0:0:0:0, 3:3:0:0:3, 7:5:0:0:5, 4:2:0:0:2, 5:0:0:0:0, 3:3:0:0:3, 7:4:0:0:4, 6:1:1:0:2, 3:0:0:0:0, 5:1:0:0:1, 5:1:0:0:1, 1:0:0:0:0, 4:1:0:0:1, 1:0:0:0:0, 6:5:0:0:5, 2:2:0:0:2, 6:0:0:0:0, 3:1:0:0:1, 6:3:0:0:3, 4:1:0:0:1, 4:0:0:0:0, 3:1:0:0:1, 6:3:0:0:3, 2:1:0:0:1, 2:0:0:0:0, 4:2:0:0:2, 4:3:0:0:3, 2:0:0:0:0, 4:4:0:0:4, 2:0:0:0:0, 7:3:0:0:3, 5:1:0:0:1, 5:1:0:0:1, 3:1:0:0:1, 7:3:0:0:3, 2:1:0:0:1, 6:0:1:0:1, 3:2:0:0:2, 7:3:0:0:3, 3:1:1:0:2, 3:0:1:0:1, 4:2:0:0:2, 4:3:0:0:3, 3:0:0:0:0, 5:1:0:0:1, 1:0:0:0:0, 7:4:0:0:4, 2:2:0:0:2, 4:0:0:0:0, 3:1:0:0:1, 9:4:0:0:4, 5:2:1:0:3, 6:1:0:0:1, 3:1:0:0:1, 7:4:0:0:4, 5:2:0:0:2, 6:0:0:0:0, 9:1:1:0:2, 3:1:0:0:1, 3:0:0:0:0, 4:3:0:0:3, 3:0:2:0:2, 6:3:0:0:3, 4:1:1:0:2, 4:0:0:0:0, 5:1:0:0:1, 7:3:0:0:3, 2:1:0:0:1, 5:0:1:0:1, 3:1:0:0:1, 6:3:0:0:3, 2:1:0:0:1, 3:0:2:0:2, 4:2:0:0:2, 3:1:0:0:1, 1:0:0:0:0, 3:1:0:0:1, 1:0:0:0:0, 8:3:0:0:3, 3:1:0:0:1, 4:0:0:0:0, 3:1:0:0:1, 8:3:0:0:3, 3:1:0:0:1, 5:2:0:0:2, 4:1:0:0:1, 7:4:0:0:4, 5:1:0:0:1, 4:0:0:0:0, 6:3:0:0:3, 3:1:0:0:1, 1:0:0:0:0, 4:1:0:0:1, 1:0:0:0:0, 6:5:0:0:5, 2:1:0:0:1, 4:0:0:0:0, 6:2:0:0:2, 6:3:0:0:3, 2:2:0:0:2, 5:0:0:0:0, 4:1:0:0:1, 6:4:0:0:4, 2:1:0:0:1, 4:1:0:0:1, 6:1:0:0:1, 4:3:1:0:3, 2:0:0:0:0, 4:2:0:0:2, 3:0:0:0:0, 8:3:0:0:3, 3:4:0:0:4, 9:9:1:3:6, 8:0:0:0:0, 6:1:0:0:1, 4:0:0:0:0, 7:1:0:0:1, 5:0:0:0:0, 6:1:0:0:1, 5:0:0:0:0, 6:1:0:0:1, 4:0:0:0:0, 5:1:0:0:1, 4:0:0:0:0, 939:328:23:5:341
F minor (4b), 0:0:0:0:0, 3:0:0:0:3, 5:1:0:0:4, 5:2:0:0:6, 1:0:0:0:1, 3:0:0:0:3, 5:1:0:0:4, 4:2:0:0:6, 2:0:0:0:1, 3:0:0:0:2, 1:0:0:0:2, 3:1:0:0:3, 2:1:0:0:2, 3:0:0:0:3, 5:1:0:0:4, 5:2:0:0:6, 1:0:0:0:1, 3:0:0:0:3, 5:1:0:0:4, 5:2:0:0:6, 1:0:0:0:1, 3:0:0:0:3, 5:1:0:0:4, 4:2:0:0:7, 2:0:0:0:1, 4:0:0:0:2, 1:0:0:0:2, 2:0:0:0:2, 2:1:0:0:2, 3:0:0:0:3, 5:1:0:0:4, 5:2:0:0:6, 1:0:0:0:1, 4:0:0:0:3, 3:1:0:0:7, 6:1:0:0:6, 2:1:0:0:3, 2:0:0:0:1, 3:1:0:0:8, 7:3:0:0:10, 12:0:0:2:7, 2:0:0:0:2, 3:0:1:0:1, 2:0:0:0:3, 4:5:2:0:7, 3:0:0:0:3, 3:1:0:0:5, 10:1:0:0:6, 8:4:1:0:10, 4:0:0:0:4, 5:1:0:0:5, 6:1:0:0:5, 3:0:0:0:2, 3:0:0:0:2, 4:1:0:0:3, 5:2:0:0:4, 2:0:0:0:2, 1:0:0:0:1, 2:0:0:0:2, 1:0:0:0:2, 4:4:0:0:6, 7:1:4:0:6, 9:1:0:0:9, 7:1:0:0:9, 1:0:0:0:2, 3:0:0:0:5, 3:1:0:0:5, 5:1:0:0:6, 4:1:0:0:4, 5:0:0:0:3, 5:1:0:0:6, 4:1:0:0:5, 3:0:0:0:2, 2:0:0:0:2, 2:0:0:0:2, 2:0:0:0:4, 2:1:0:0:5, 3:0:0:0:4, 4:1:0:0:4, 5:1:0:0:5, 2:0:0:0:2, 2:0:0:0:1, 3:1:0:0:5, 5:1:0:0:3, 2:0:0:0:2, 2:0:0:0:1, 4:1:0:0:5, 3:1:0:0:2, 2:0:0:0:1, 1:0:0:0:1, 0:0:0:0:0, 1:0:0:0:1, 2:3:0:0:4, 2:0:0:0:1, 3:1:0:0:6, 5:1:0:0:3, 1:0:0:0:1, 3:0:0:0:3, 6:1:0:0:5, 7:1:0:0:4, 1:0:0:0:2, 3:1:0:0:2, 6:1:0:0:6, 4:4:0:0:5, 2:0:0:0:1, 4:0:0:0:3, 2:0:0:0:2, 1:0:0:0:2, 2:2:0:0:4, 4:0:0:0:4, 3:1:0:0:6, 7:1:0:0:4, 1:0:0:0:1, 3:0:0:0:1, 5:1:0:0:4, 6:1:0:0:3, 1:0:0:0:1, 3:0:0:0:1, 4:1:0:0:4, 4:3:0:0:4, 2:0:0:0:1, 1:0:0:0:2, 0:0:0:0:0, 2:0:0:0:1, 3:1:0:0:3, 5:0:0:0:2, 6:1:0:0:4, 5:1:0:0:4, 1:0:0:0:1, 5:0:0:0:5, 3:1:0:0:7, 7:1:0:0:4, 2:0:0:0:4, 5:0:0:0:5, 4:1:0:0:6, 5:3:1:0:8, 2:0:0:0:2, 2:0:0:0:3, 2:0:0:0:2, 3:0:0:0:5, 2:2:0:0:4, 3:0:0:0:5, 3:1:0:0:5, 5:2:0:0:6, 1:0:0:0:1, 5:0:0:0:3, 4:1:0:0:5, 8:1:1:0:4, 2:0:0:0:4, 5:0:0:0:3, 4:1:0:0:6, 5:2:0:0:5, 7:1:0:0:4, 2:0:0:0:3, 2:0:0:0:2, 2:0:0:0:2, 3:4:2:0:7, 4:0:0:0:2, 5:3:1:0:7, 5:1:0:0:8, 3:1:0:0:3, 6:1:0:0:4, 3:1:0:0:5, 6:3:1:0:9, 1:0:0:0:1, 3:1:0:0:3, 4:2:0:0:5, 4:5:2:0:8, 2:0:0:0:1, 1:0:0:0:3, 1:0:0:0:2, 1:0:0:0:1, 2:1:0:0:4, 5:4:0:2:3, 5:1:0:0:5, 6:1:0:0:5, 2:0:0:0:3, 5:4:0:2:3, 5:1:0:0:5, 5:1:0:0:5, 4:1:0:0:4, 5:4:0:2:3, 5:2:0:0:6, 5:1:0:0:4, 3:0:0:0:2, 1:0:0:0:3, 2:0:0:0:2, 2:0:0:0:4, 2:2:0:0:3, 2:0:0:0:3, 3:1:0:0:6, 5:2:0:0:7, 3:0:0:3:4, 2:0:0:0:2, 3:1:0:0:4, 6:1:0:0:4, 2:0:0:0:2, 2:0:0:0:1, 4:1:0:0:3, 3:1:0:0:4, 3:0:0:0:3, 3:0:1:0:3, 1:0:0:0:0, 2:0:0:0:1, 5:1:0:0:5, 6:1:0:0:4, 4:1:0:0:7, 8:2:2:3:10, 7:5:1:0:7, 5:1:0:0:7, 5:1:0:0:5, 6:1:0:0:6, 5:1:0:0:5, 6:1:0:0:8, 6:2:0:0:6, 5:1:0:0:6, 5:1:0:0:3, 4:1:0:0:5, 5:1:0:0:3, 781:179:20:14:819
C# minor (4#), 1:0:0:0:0, 7:3:0:0:3, 3:1:0:0:1, 5:2:0:0:2, 3:1:0:0:1, 7:3:0:0:3, 3:1:0:0:1, 3:2:0:0:2, 4:1:0:0:1, 3:1:0:0:1, 1:0:0:0:0, 4:1:0:0:1, 2:0:0:0:0, 7:3:0:0:3, 3:1:0:0:1, 5:2:0:0:2, 3:1:0:0:1, 7:3:0:0:3, 3:1:0:0:1, 5:2:0:0:2, 3:1:0:0:1, 7:3:0:0:3, 3:1:0:0:1, 3:2:0:0:2, 4:1:0:0:1, 5:1:0:0:1, 1:0:0:0:0, 4:1:0:0:1, 2:0:0:0:0, 7:3:0:0:3, 3:1:0:0:1, 5:2:0:0:2, 3:1:0:0:1, 6:3:0:0:3, 2:2:0:0:2, 4:0:0:0:0, 3:1:0:0:1, 6:3:0:0:3, 2:2:0:0:2, 5:2:0:0:2, 12:10:2:2:10, 3:1:0:0:1, 4:0:0:0:0, 5:1:0:0:1, 2:0:2:0:2, 7:4:0:0:4, 2:4:0:0:4, 8:0:0:0:0, 8:2:1:0:3, 8:3:0:0:3, 4:2:0:0:2, 4:0:0:0:0, 4:1:0:0:1, 7:4:0:0:4, 2:1:0:0:1, 3:0:0:0:0, 4:1:0:0:1, 3:1:0:0:1, 4:0:0:0:0, 3:1:0:0:1, 5:0:0:0:0, 9:6:4:0:7, 9:1:0:0:1, 5:1:0:0:1, 3:1:0:0:1, 7:4:0:0:4, 2:1:0:0:1, 6:0:0:0:0, 5:1:0:0:1, 7:3:0:0:3, 4:2:0:0:2, 3:0:0:0:0, 5:1:0:0:1, 3:1:0:0:1, 1:0:0:0:0, 6:2:0:0:2, 2:1:0:0:1, 7:3:0:0:3, 3:1:0:0:1, 4:0:0:0:0, 4:1:0:0:1, 6:5:0:0:5, 2:1:0:0:1, 4:0:0:0:0, 3:1:0:0:1, 6:5:0:0:5, 2:1:0:0:1, 3:0:0:0:0, 4:1:0:0:1, 3:1:0:0:1, 1:0:0:0:0, 3:1:0:0:1, 1:0:0:0:0, 6:4:0:0:4, 2:1:0:0:1, 4:0:0:0:0, 3:3:0:0:3, 7:5:0:0:5, 4:2:0:0:2, 5:0:0:0:0, 3:3:0:0:3, 7:4:0:0:4, 6:1:1:0:2, 3:0:0:0:0, 5:1:0:0:1, 5:1:0:0:1, 1:0:0:0:0, 4:1:0:0:1, 1:0:0:0:0, 6:5:0:0:5, 2:2:0:0:2, 6:0:0:0:0, 3:1:0:0:1, 6:3:0:0:3, 4:1:0:0:1, 4:0:0:0:0, 3:1:0:0:1, 6:3:0:0:3, 2:1:0:0:1, 2:0:0:0:0, 4:2:0:0:2, 4:3:0:0:3, 2:0:0:0:0, 4:4:0:0:4, 2:0:0:0:0, 7:3:0:0:3, 5:1:0:0:1, 5:1:0:0:1, 3:1:0:0:1, 7:3:0:0:3, 2:1:0:0:1, 6:0:1:0:1, 3:2:0:0:2, 7:3:0:0:3, 3:1:1:0:2, 3:0:1:0:1, 4:2:0:0:2, 4:3:0:0:3, 3:0:0:0:0, 5:1:0:0:1, 1:0:0:0:0, 7:4:0:0:4, 2:2:0:0:2, 4:0:0:0:0, 3:1:0:0:1, 9:4:0:0:4, 5:2:1:0:3, 6:1:0:0:1, 3:1:0:0:1, 7:4:0:0:4, 5:2:0:0:2, 6:0:0:0:0, 9:1:1:0:2, 3:1:0:0:1, 3:0:0:0:0, 4:3:0:0:3, 3:0:2:0:2, 6:3:0:0:3, 4:1:1:0:2, 4:0:0:0:0, 5:1:0:0:1, 7:3:0:0:3, 2:1:0:0:1, 5:0:1:0:1, 3:1:0:0:1, 6:3:0:0:3, 2:1:0:0:1, 3:0:2:0:2, 4:2:0:0:2, 3:1:0:0:1, 1:0:0:0:0, 3:1:0:0:1, 1:0:0:0:0, 8:3:0:0:3, 3:1:0:0:1, 4:0:0:0:0, 3:1:0:0:1, 8:3:0:0:3, 3:1:0:0:1, 5:2:0:0:2, 4:1:0:0:1, 7:4:0:0:4, 5:1:0:0:1, 4:0:0:0:0, 6:3:0:0:3, 3:1:0:0:1, 1:0:0:0:0, 4:1:0:0:1, 1:0:0:0:0, 6:5:0:0:5, 2:1:0:0:1, 4:0:0:0:0, 6:2:0:0:2, 6:3:0:0:3, 2:2:0:0:2, 5:0:0:0:0, 4:1:0:0:1, 6:4:0:0:4, 2:1:0:0:1, 4:1:0:0:1, 6:1:0:0:1, 4:3:1:0:3, 2:0:0:0:0, 4:2:0:0:2, 3:0:0:0:0, 8:3:0:0:3, 3:4:0:0:4, 9:9:1:3:6, 8:0:0:0:0, 6:1:0:0:1, 4:0:0:0:0, 7:1:0:0:1, 5:0:0:0:0, 6:1:0:0:1, 5:0:0:0:0, 6:1:0:0:1, 4:0:0:0:0, 5:1:0:0:1, 4:0:0:0:0, 939:328:23:5:341
Db major (5b), 1:0:0:0:0, 4:0:0:0:4, 6:1:0:0:4, 6:1:0:0:9, 2:0:0:0:1, 4:0:0:0:4, 6:1:0:0:4, 4:1:0:0:7, 3:0:0:0:2, 4:0:0:0:2, 1:0:0:0:2, 3:1:0:0:4, 3:1:0:0:2, 4:0:0:0:4, 6:1:0:0:4, 6:1:0:0:8, 2:0:0:0:1, 4:0:0:0:4, 6:1:0:0:4, 6:1:0:0:9, 2:0:0:0:1, 4:0:0:0:4, 6:1:0:0:4, 4:1:0:0:9, 3:0:0:0:2, 5:0:0:0:3, 1:0:0:0:2, 2:0:0:0:3, 3:1:0:0:2, 4:0:0:0:4, 6:1:0:0:4, 6:1:0:0:9, 2:0:0:0:1, 5:0:0:0:4, 4:1:0:0:7, 7:1:0:0:9, 3:1:0:0:3, 3:0:0:0:2, 4:1:0:0:8, 8:2:0:0:10, 13:0:0:2:9, 3:0:0:0:2, 4:0:1:0:1, 3:0:0:0:3, 4:1:0:0:3, 4:0:0:0:4, 4:1:0:0:5, 10:2:0:0:10, 9:4:1:0:13, 5:0:0:0:8, 6:1:0:0:5, 7:1:0:0:7, 4:0:0:0:3, 4:0:0:0:3, 5:1:0:0:3, 5:1:0:0:4, 3:0:0:0:4, 2:0:0:0:1, 3:0:0:0:2, 1:0:0:0:2, 5:4:0:0:7, 8:1:4:0:7, 10:1:0:0:10, 8:1:0:0:13, 2:0:0:0:2, 4:0:0:0:7, 4:1:0:0:5, 6:1:0:0:8, 5:1:0:0:5, 6:0:0:0:4, 6:1:0:0:7, 5:1:0:0:6, 4:0:0:0:4, 3:0:0:0:2, 3:0:0:0:2, 3:0:0:0:4, 2:1:0:0:5, 4:0:0:0:6, 5:1:0:0:4, 6:1:0:0:7, 3:0:0:0:3, 3:0:0:0:2, 4:1:0:0:5, 6:1:0:0:6, 3:0:0:0:2, 3:0:0:0:2, 5:1:0:0:5, 4:1:0:0:6, 3:0:0:0:2, 2:0:0:0:1, 0:0:0:0:0, 1:0:0:0:1, 2:1:0:0:2, 3:0:0:0:2, 4:1:0:0:6, 6:1:0:0:6, 2:0:0:0:1, 4:0:0:0:4, 7:1:0:0:5, 8:1:0:0:8, 2:0:0:0:2, 4:1:0:0:4, 7:1:0:0:6, 4:1:0:0:4, 3:0:0:0:3, 5:0:0:0:4, 3:0:0:0:2, 2:0:0:0:2, 2:1:0:0:3, 5:0:0:0:5, 4:1:0:0:6, 8:1:0:0:7, 2:0:0:0:1, 4:0:0:0:2, 6:1:0:0:5, 7:1:0:0:5, 2:0:0:0:1, 4:0:0:0:2, 5:1:0:0:4, 4:1:0:0:4, 3:0:0:0:2, 2:0:0:0:2, 0:0:0:0:0, 2:0:0:0:6, 3:1:0:0:4, 6:0:0:0:4, 7:1:0:0:6, 6:1:0:0:8, 2:0:0:0:1, 6:0:0:0:6, 4:1:0:0:7, 6:1:0:0:6, 3:0:0:0:4, 6:0:0:0:6, 5:1:0:0:6, 5:1:0:0:7, 3:0:0:0:6, 3:0:0:0:4, 3:0:0:0:4, 4:0:0:0:5, 2:1:0:0:3, 4:0:0:0:6, 4:1:0:0:5, 6:1:0:0:8, 2:0:0:0:1, 6:0:0:0:5, 5:1:0:0:5, 7:1:1:0:8, 3:0:0:0:4, 6:0:0:0:5, 5:1:0:0:6, 6:1:0:0:5, 8:1:0:0:5, 3:0:0:0:3, 2:0:0:0:3, 2:0:0:0:3, 4:1:0:0:4, 5:0:0:0:3, 6:3:1:0:8, 6:1:0:0:12, 4:1:0:0:5, 7:1:0:0:5, 4:1:0:0:5, 6:1:0:0:9, 2:0:0:0:1, 4:1:0:0:4, 5:2:0:0:5, 4:1:0:0:5, 3:0:0:0:3, 2:0:0:0:3, 1:0:0:0:2, 1:0:0:0:1, 2:1:0:0:4, 6:4:0:2:4, 6:1:0:0:5, 7:1:0:0:7, 3:0:0:0:3, 6:4:0:2:4, 6:1:0:0:5, 6:1:0:0:7, 5:1:0:0:5, 6:4:0:2:5, 6:2:0:0:7, 6:1:0:0:7, 4:0:0:0:3, 2:0:0:0:3, 3:0:0:0:2, 2:0:0:0:4, 2:1:0:0:2, 3:0:0:0:4, 4:1:0:0:6, 6:1:0:0:8, 4:0:0:3:1, 3:0:0:0:4, 4:1:0:0:4, 7:1:0:0:6, 3:0:0:0:3, 3:0:0:0:3, 5:1:0:0:3, 4:1:0:0:8, 4:0:0:0:5, 4:0:1:0:3, 2:0:0:0:0, 2:0:0:0:2, 5:1:0:0:6, 7:1:0:0:5, 5:1:0:0:7, 9:2:2:3:11, 8:5:1:0:12, 6:1:0:0:8, 6:1:0:0:7, 7:1:0:0:10, 6:1:0:0:8, 7:1:0:0:10, 7:1:0:0:7, 6:1:0:0:7, 6:1:0:0:5, 5:1:0:0:6, 6:1:0:0:5, 963:143:12:14:1013
B major (5#), 1:0:0:0:0, 7:3:0:0:4, 4:1:0:0:1, 6:2:0:0:3, 3:1:0:0:1, 7:3:0:0:4, 4:1:0:0:1, 4:2:0:0:2, 4:1:0:0:2, 4:1:0:0:1, 2:0:0:0:0, 5:1:0:0:2, 3:0:0:0:0, 7:3:0:0:4, 4:1:0:0:1, 6:2:0:0:3, 3:1:0:0:1, 7:3:0:0:4, 4:1:0:0:1, 6:2:0:0:3, 3:1:0:0:1, 7:3:0:0:4, 4:1:0:0:1, 4:2:0:0:2, 4:1:0:0:2, 6:1:0:0:1, 2:0:0:0:0, 5:1:0:0:2, 3:0:0:0:0, 7:3:0:0:4, 4:1:0:0:1, 6:2:0:0:3, 3:1:0:0:1, 7:3:0:0:4, 3:2:0:0:2, 5:0:0:0:3, 3:1:0:0:1, 6:3:0:0:4, 3:2:0:0:2, 6:2:0:0:2, 12:10:2:2:14, 3:1:0:0:1, 3:0:0:0:2, 6:1:0:0:2, 3:0:2:0:0, 7:4:0:0:5, 3:4:0:0:4, 9:0:0:0:2, 9:1:1:0:1, 8:3:0:0:4, 5:2:0:0:4, 5:0:0:0:4, 5:1:0:0:1, 7:4:0:0:5, 3:1:0:0:1, 4:0:0:0:1, 4:1:0:0:3, 3:1:0:0:1, 5:0:0:0:2, 4:1:0:0:2, 6:0:0:0:0, 10:6:4:0:10, 10:1:0:0:2, 6:1:0:0:6, 3:1:0:0:1, 7:4:0:0:5, 3:1:0:0:1, 7:0:0:0:1, 6:1:0:0:1, 8:3:0:0:4, 5:2:0:0:2, 4:0:0:0:0, 5:1:0:0:2, 4:1:0:0:1, 2:0:0:0:0, 7:2:0:0:3, 3:1:0:0:1, 7:3:0:0:4, 4:1:0:0:1, 5:0:0:0:1, 4:1:0:0:1, 6:5:0:0:6, 3:1:0:0:1, 5:0:0:0:1, 4:1:0:0:1, 6:5:0:0:6, 3:1:0:0:1, 4:0:0:0:0, 4:1:0:0:2, 3:1:0:0:1, 1:0:0:0:0, 4:1:0:0:4, 2:0:0:0:0, 6:4:0:0:5, 3:1:0:0:1, 5:0:0:0:1, 3:1:0:0:1, 7:4:0:0:5, 5:2:0:0:3, 6:0:0:0:3, 3:1:0:0:1, 7:3:0:0:5, 7:1:1:0:3, 4:0:0:0:1, 5:1:0:0:4, 6:1:0:0:1, 2:0:0:0:0, 5:1:0:0:2, 2:0:0:0:0, 7:5:0:0:6, 3:2:0:0:2, 7:0:0:0:1, 3:1:0:0:1, 6:3:0:0:4, 5:1:0:0:1, 5:0:0:0:1, 3:1:0:0:1, 6:3:0:0:4, 3:1:0:0:1, 3:0:0:0:0, 4:2:0:0:3, 4:2:0:0:2, 1:0:0:0:0, 5:4:0:0:5, 3:0:0:0:0, 8:3:0:0:4, 6:1:0:0:1, 6:1:0:0:2, 3:1:0:0:1, 8:3:0:0:4, 3:1:0:0:1, 7:0:1:0:3, 4:2:0:0:2, 8:3:0:0:4, 4:1:1:0:2, 4:0:1:0:0, 4:2:0:0:4, 4:1:0:0:1, 3:0:0:0:0, 6:1:0:0:2, 2:0:0:0:0, 7:4:0:0:5, 3:2:0:0:2, 5:0:0:0:2, 3:1:0:0:1, 9:4:0:0:5, 6:2:1:0:4, 7:1:0:0:4, 4:1:0:0:1, 8:3:0:0:5, 6:2:0:0:3, 7:0:0:0:0, 9:1:1:0:3, 4:1:0:0:1, 4:0:0:0:0, 5:3:0:0:4, 4:0:2:0:0, 6:3:0:0:4, 5:1:1:0:2, 5:0:0:0:1, 5:1:0:0:3, 8:3:0:0:4, 3:1:0:0:1, 6:0:1:0:1, 3:1:0:0:1, 6:3:0:0:4, 3:1:0:0:1, 4:0:2:0:0, 4:2:0:0:4, 3:1:0:0:1, 1:0:0:0:1, 4:1:0:0:2, 2:0:0:0:0, 9:3:0:0:4, 4:1:0:0:1, 5:0:0:0:1, 4:1:0:0:1, 9:3:0:0:4, 4:1:0:0:1, 6:2:0:0:3, 5:1:0:0:1, 8:4:0:0:6, 6:1:0:0:2, 5:0:0:0:1, 6:3:0:0:4, 3:1:0:0:1, 2:0:0:0:0, 5:1:0:0:3, 2:0:0:0:0, 6:5:0:0:7, 3:1:0:0:1, 5:0:0:0:1, 6:1:0:0:1, 6:3:0:0:4, 3:2:0:0:2, 6:0:0:0:1, 4:1:0:0:1, 6:3:0:0:4, 3:1:0:0:1, 5:1:0:0:1, 6:1:0:0:2, 5:1:0:0:1, 2:0:0:0:2, 5:2:0:0:3, 4:0:0:0:1, 8:3:0:0:4, 4:4:0:0:4, 10:9:1:3:6, 9:0:0:0:1, 7:1:0:0:1, 5:0:0:0:1, 8:1:0:0:1, 6:0:0:0:1, 7:1:0:0:1, 6:0:0:0:1, 7:1:0:0:1, 5:0:0:0:1, 6:1:0:0:1, 5:0:0:0:1, 1085:313:22:5:467
Bb minor (5b), 1:0:0:0:0, 4:0:0:0:4, 6:1:0:0:4, 6:1:0:0:9, 2:0:0:0:1, 4:0:0:0:4, 6:1:0:0:4, 4:1:0:0:7, 3:0:0:0:2, 4:0:0:0:2, 1:0:0:0:2, 3:1:0:0:4, 3:1:0:0:2, 4:0:0:0:4, 6:1:0:0:4, 6:1:0:0:8, 2:0:0:0:1, 4:0:0:0:4, 6:1:0:0:4, 6:1:0:0:9, 2:0:0:0:1, 4:0:0:0:4, 6:1:0:0:4, 4:1:0:0:9, 3:0:0:0:2, 5:0:0:0:3, 1:0:0:0:2, 2:0:0:0:3, 3:1:0:0:2, 4:0:0:0:4, 6:1:0:0:4, 6:1:0:0:9, 2:0:0:0:1, 5:0:0:0:4, 4:1:0:0:7, 7:1:0:0:9, 3:1:0:0:3, 3:0:0:0:2, 4:1:0:0:8, 8:2:0:0:10, 13:0:0:2:9, 3:0:0:0:2, 4:0:1:0:1, 3:0:0:0:3, 4:1:0:0:3, 4:0:0:0:4, 4:1:0:0:5, 10:2:0:0:10, 9:4:1:0:13, 5:0:0:0:8, 6:1:0:0:5, 7:1:0:0:7, 4:0:0:0:3, 4:0:0:0:3, 5:1:0:0:3, 5:1:0:0:4, 3:0:0:0:4, 2:0:0:0:1, 3:0:0:0:2, 1:0:0:0:2, 5:4:0:0:7, 8:1:4:0:7, 10:1:0:0:10, 8:1:0:0:13, 2:0:0:0:2, 4:0:0:0:7, 4:1:0:0:5, 6:1:0:0:8, 5:1:0:0:5, 6:0:0:0:4, 6:1:0:0:7, 5:1:0:0:6, 4:0:0:0:4, 3:0:0:0:2, 3:0:0:0:2, 3:0:0:0:4, 2:1:0:0:5, 4:0:0:0:6, 5:1:0:0:4, 6:1:0:0:7, 3:0:0:0:3, 3:0:0:0:2, 4:1:0:0:5, 6:1:0:0:6, 3:0:0:0:2, 3:0:0:0:2, 5:1:0:0:5, 4:1:0:0:6, 3:0:0:0:2, 2:0:0:0:1, 0:0:0:0:0, 1:0:0:0:1, 2:1:0:0:2, 3:0:0:0:2, 4:1:0:0:6, 6:1:0:0:6, 2:0:0:0:1, 4:0:0:0:4, 7:1:0:0:5, 8:1:0:0:8, 2:0:0:0:2, 4:1:0:0:4, 7:1:0:0:6, 4:1:0:0:4, 3:0:0:0:3, 5:0:0:0:4, 3:0:0:0:2, 2:0:0:0:2, 2:1:0:0:3, 5:0:0:0:5, 4:1:0:0:6, 8:1:0:0:7, 2:0:0:0:1, 4:0:0:0:2, 6:1:0:0:5, 7:1:0:0:5, 2:0:0:0:1, 4:0:0:0:2, 5:1:0:0:4, 4:1:0:0:4, 3:0:0:0:2, 2:0:0:0:2, 0:0:0:0:0, 2:0:0:0:6, 3:1:0:0:4, 6:0:0:0:4, 7:1:0:0:6, 6:1:0:0:8, 2:0:0:0:1, 6:0:0:0:6, 4:1:0:0:7, 6:1:0:0:6, 3:0:0:0:4, 6:0:0:0:6, 5:1:0:0:6, 5:1:0:0:7, 3:0:0:0:6, 3:0:0:0:4, 3:0:0:0:4, 4:0:0:0:5, 2:1:0:0:3, 4:0:0:0:6, 4:1:0:0:5, 6:1:0:0:8, 2:0:0:0:1, 6:0:0:0:5, 5:1:0:0:5, 7:1:1:0:8, 3:0:0:0:4, 6:0:0:0:5, 5:1:0:0:6, 6:1:0:0:5, 8:1:0:0:5, 3:0:0:0:3, 2:0:0:0:3, 2:0:0:0:3, 4:1:0:0:4, 5:0:0:0:3, 6:3:1:0:8, 6:1:0:0:12, 4:1:0:0:5, 7:1:0:0:5, 4:1:0:0:5, 6:1:0:0:9, 2:0:0:0:1, 4:1:0:0:4, 5:2:0:0:5, 4:1:0:0:5, 3:0:0:0:3, 2:0:0:0:3, 1:0:0:0:2, 1:0:0:0:1, 2:1:0:0:4, 6:4:0:2:4, 6:1:0:0:5, 7:1:0:0:7, 3:0:0:0:3, 6:4:0:2:4, 6:1:0:0:5, 6:1:0:0:7, 5:1:0:0:5, 6:4:0:2:5, 6:2:0:0:7, 6:1:0:0:7, 4:0:0:0:3, 2:0:0:0:3, 3:0:0:0:2, 2:0:0:0:4, 2:1:0:0:2, 3:0:0:0:4, 4:1:0:0:6, 6:1:0:0:8, 4:0:0:3:1, 3:0:0:0:4, 4:1:0:0:4, 7:1:0:0:6, 3:0:0:0:3, 3:0:0:0:3, 5:1:0:0:3, 4:1:0:0:8, 4:0:0:0:5, 4:0:1:0:3, 2:0:0:0:0, 2:0:0:0:2, 5:1:0:0:6, 7:1:0:0:5, 5:1:0:0:7, 9:2:2:3:11, 8:5:1:0:12, 6:1:0:0:8, 6:1:0:0:7, 7:1:0:0:10, 6:1:0:0:8, 7:1:0:0:10, 7:1:0:0:7, 6:1:0:0:7, 6:1:0:0:5, 5:1:0:0:6, 6:1:0:0:5, 963:143:12:14:1013
G# minor (5#), 1:0:0:0:0, 7:3:0:0:4, 4:1:0:0:1, 6:2:0:0:3, 3:1:0:0:1, 7:3:0:0:4, 4:1:0:0:1, 4:2:0:0:2, 4:1:0:0:2, 4:1:0:0:1, 2:0:0:0:0, 5:1:0:0:2, 3:0:0:0:0, 7:3:0:0:4, 4:1:0:0:1, 6:2:0:0:3, 3:1:0:0:1, 7:3:0:0:4, 4:1:0:0:1, 6:2:0:0:3, 3:1:0:0:1, 7:3:0:0:4, 4:1:0:0:1, 4:2:0:0:2, 4:1:0:0:2, 6:1:0:0:1, 2:0:0:0:0, 5:1:0:0:2, 3:0:0:0:0, 7:3:0:0:4, 4:1:0:0:1, 6:2:0:0:3, 3:1:0:0:1, 7:3:0:0:4, 3:2:0:0:2, 5:0:0:0:3, 3:1:0:0:1, 6:3:0:0:4, 3:2:0:0:2, 6:2:0:0:2, 12:10:2:2:14, 3:1:0:0:1, 3:0:0:0:2, 6:1:0:0:2, 3:0:2:0:0, 7:4:0:0:5, 3:4:0:0:4, 9:0:0:0:2, 9:1:1:0:1, 8:3:0:0:4, 5:2:0:0:4, 5:0:0:0:4, 5:1:0:0:1, 7:4:0:0:5, 3:1:0:0:1, 4:0:0:0:1, 4:1:0:0:3, 3:1:0:0:1, 5:0:0:0:2, 4:1:0:0:2, 6:0:0:0:0, 10:6:4:0:10, 10:1:0:0:2, 6:1:0:0:6, 3:1:0:0:1, 7:4:0:0:5, 3:1:0:0:1, 7:0:0:0:1, 6:1:0:0:1, 8:3:0:0:4, 5:2:0:0:2, 4:0:0:0:0, 5:1:0:0:2, 4:1:0:0:1, 2:0:0:0:0, 7:2:0:0:3, 3:1:0:0:1, 7:3:0:0:4, 4:1:0:0:1, 5:0:0:0:1, 4:1:0:0:1, 6:5:0:0:6, 3:1:0:0:1, 5:0:0:0:1, 4:1:0:0:1, 6:5:0:0:6, 3:1:0:0:1, 4:0:0:0:0, 4:1:0:0:2, 3:1:0:0:1, 1:0:0:0:0, 4:1:0:0:4, 2:0:0:0:0, 6:4:0:0:5, 3:1:0:0:1, 5:0:0:0:1, 3:1:0:0:1, 7:4:0:0:5, 5:2:0:0:3, 6:0:0:0:3, 3:1:0:0:1, 7:3:0:0:5, 7:1:1:0:3, 4:0:0:0:1, 5:1:0:0:4, 6:1:0:0:1, 2:0:0:0:0, 5:1:0:0:2, 2:0:0:0:0, 7:5:0:0:6, 3:2:0:0:2, 7:0:0:0:1, 3:1:0:0:1, 6:3:0:0:4, 5:1:0:0:1, 5:0:0:0:1, 3:1:0:0:1, 6:3:0:0:4, 3:1:0:0:1, 3:0:0:0:0, 4:2:0:0:3, 4:2:0:0:2, 1:0:0:0:0, 5:4:0:0:5, 3:0:0:0:0, 8:3:0:0:4, 6:1:0:0:1, 6:1:0:0:2, 3:1:0:0:1, 8:3:0:0:4, 3:1:0:0:1, 7:0:1:0:3, 4:2:0:0:2, 8:3:0:0:4, 4:1:1:0:2, 4:0:1:0:0, 4:2:0:0:4, 4:1:0:0:1, 3:0:0:0:0, 6:1:0:0:2, 2:0:0:0:0, 7:4:0:0:5, 3:2:0:0:2, 5:0:0:0:2, 3:1:0:0:1, 9:4:0:0:5, 6:2:1:0:4, 7:1:0:0:4, 4:1:0:0:1, 8:3:0:0:5, 6:2:0:0:3, 7:0:0:0:0, 9:1:1:0:3, 4:1:0:0:1, 4:0:0:0:0, 5:3:0:0:4, 4:0:2:0:0, 6:3:0:0:4, 5:1:1:0:2, 5:0:0:0:1, 5:1:0:0:3, 8:3:0:0:4, 3:1:0:0:1, 6:0:1:0:1, 3:1:0:0:1, 6:3:0:0:4, 3:1:0:0:1, 4:0:2:0:0, 4:2:0:0:4, 3:1:0:0:1, 1:0:0:0:1, 4:1:0:0:2, 2:0:0:0:0, 9:3:0:0:4, 4:1:0:0:1, 5:0:0:0:1, 4:1:0:0:1, 9:3:0:0:4, 4:1:0:0:1, 6:2:0:0:3, 5:1:0:0:1, 8:4:0:0:6, 6:1:0:0:2, 5:0:0:0:1, 6:3:0:0:4, 3:1:0:0:1, 2:0:0:0:0, 5:1:0:0:3, 2:0:0:0:0, 6:5:0:0:7, 3:1:0:0:1, 5:0:0:0:1, 6:1:0:0:1, 6:3:0:0:4, 3:2:0:0:2, 6:0:0:0:1, 4:1:0:0:1, 6:3:0:0:4, 3:1:0:0:1, 5:1:0:0:1, 6:1:0:0:2, 5:1:0:0:1, 2:0:0:0:2, 5:2:0:0:3, 4:0:0:0:1, 8:3:0:0:4, 4:4:0:0:4, 10:9:1:3:6, 9:0:0:0:1, 7:1:0:0:1, 5:0:0:0:1, 8:1:0:0:1, 6:0:0:0:1, 7:1:0:0:1, 6:0:0:0:1, 7:1:0:0:1, 5:0:0:0:1, 6:1:0:0:1, 5:0:0:0:1, 1085:313:22:5:467
Gb major (6b), 1:0:0:0:1, 5:0:0:0:6, 6:1:0:0:7, 7:1:0:0:10, 3:0:0:0:3, 5:0:0:0:6, 6:1:0:0:7, 5:1:0:0:6, 3:0:0:0:3, 5:0:0:0:4, 2:0:0:0:2, 4:1:0:0:4, 4:1:0:0:3, 5:0:0:0:6, 6:1:0:0:7, 7:1:0:0:9, 3:0:0:0:3, 5:0:0:0:6, 6:1:0:0:7, 7:1:0:0:10, 3:0:0:0:3, 5:0:0:0:6, 6:1:0:0:7, 5:1:0:0:7, 3:0:0:0:3, 6:0:0:0:5, 2:0:0:0:2, 3:0:0:0:3, 4:1:0:0:3, 5:0:0:0:6, 6:1:0:0:7, 7:1:0:0:10, 3:0:0:0:2, 6:0:0:0:7, 4:1:0:0:9, 8:1:0:0:10, 4:1:0:0:7, 4:0:0:0:3, 4:1:0:0:9, 9:2:0:0:12, 13:3:2:2:11, 4:0:0:0:3, 5:0:0:0:3, 4:0:0:0:5, 5:1:0:0:3, 5:0:0:0:7, 4:1:0:0:6, 11:2:0:0:13, 10:4:1:0:16, 6:0:0:0:10, 6:1:0:0:6, 8:1:0:0:10, 5:0:0:0:5, 5:0:0:0:4, 5:1:0:0:5, 6:1:0:0:4, 3:0:0:0:5, 3:0:0:0:3, 4:0:0:0:6, 2:0:0:0:2, 6:4:0:0:8, 9:1:1:0:12, 10:1:0:0:14, 9:1:0:0:15, 3:0:0:0:6, 5:0:0:0:11, 4:1:0:0:7, 7:1:0:0:11, 6:1:0:0:8, 7:0:0:0:7, 6:1:0:0:10, 6:1:0:0:8, 4:0:0:0:6, 4:0:0:0:5, 3:0:0:0:5, 4:0:0:0:6, 3:1:0:0:5, 5:0:0:0:10, 5:1:0:0:6, 7:1:0:0:9, 4:0:0:0:4, 4:0:0:0:3, 4:1:0:0:6, 7:1:0:0:8, 4:0:0:0:4, 4:0:0:0:3, 5:1:0:0:6, 5:1:0:0:7, 3:0:0:0:4, 3:0:0:0:2, 1:0:0:0:0, 2:0:0:0:1, 3:1:0:0:2, 4:0:0:0:4, 4:1:0:0:7, 7:1:0:0:8, 3:0:0:0:2, 5:0:0:0:6, 7:1:0:0:8, 9:1:0:0:9, 3:0:0:0:3, 5:1:0:0:6, 7:1:0:0:9, 5:1:0:0:4, 3:0:0:0:4, 6:0:0:0:7, 3:0:0:0:5, 3:0:0:0:5, 3:1:0:0:3, 6:0:0:0:8, 4:1:0:0:8, 9:1:0:0:8, 3:0:0:0:2, 5:0:0:0:3, 6:1:0:0:6, 8:1:0:0:6, 3:0:0:0:3, 5:0:0:0:3, 5:1:0:0:5, 5:1:0:0:4, 3:0:0:0:3, 3:0:0:0:4, 1:0:0:0:0, 3:0:0:0:6, 4:1:0:0:4, 7:0:0:0:5, 7:1:0:0:7, 7:1:0:0:9, 3:0:0:0:2, 7:0:0:0:9, 4:1:0:0:10, 7:1:0:0:7, 4:0:0:0:8, 7:0:0:0:9, 5:1:0:0:8, 6:1:0:0:6, 3:0:0:0:6, 4:0:0:0:7, 4:0:0:0:5, 5:0:0:0:7, 3:1:0:0:3, 5:0:0:0:7, 4:1:0:0:7, 7:1:0:0:10, 3:0:0:0:3, 7:0:0:0:8, 5:1:0:0:7, 8:1:1:0:9, 4:0:0:0:8, 7:0:0:0:7, 5:1:0:0:8, 7:1:0:0:6, 9:1:0:0:7, 4:0:0:0:4, 3:0:0:0:3, 3:0:0:0:3, 5:1:0:0:5, 6:0:0:0:5, 6:3:1:0:9, 7:1:0:0:13, 5:1:0:0:8, 8:1:0:0:8, 4:1:0:0:7, 7:1:0:0:10, 3:0:0:0:3, 5:1:0:0:6, 5:2:0:0:7, 5:1:0:0:5, 3:0:0:0:4, 3:0:0:0:5, 1:0:0:0:2, 2:0:0:0:1, 3:1:0:0:4, 7:4:0:2:5, 6:1:0:0:6, 8:1:0:0:8, 4:0:0:0:4, 7:4:0:2:5, 6:1:0:0:6, 7:1:0:0:8, 6:1:0:0:6, 7:4:0:2:6, 6:2:0:0:9, 7:1:0:0:8, 5:0:0:0:4, 3:0:0:0:5, 3:0:0:0:4, 3:0:0:0:4, 3:1:0:0:2, 4:0:0:0:5, 4:1:0:0:10, 7:1:0:0:9, 5:0:0:3:2, 4:0:0:0:5, 4:1:0:0:6, 8:1:0:0:8, 4:0:0:0:4, 4:0:0:0:4, 5:1:0:0:4, 5:1:0:0:9, 5:0:0:0:6, 5:0:0:0:4, 2:0:0:0:1, 3:0:0:0:2, 6:1:0:0:6, 8:1:0:0:9, 5:1:0:0:8, 10:2:0:3:13, 9:5:1:0:13, 7:1:0:0:11, 7:1:0:0:9, 8:1:0:0:12, 7:1:0:0:9, 8:1:0:0:12, 8:1:0:0:8, 7:1:0:0:12, 7:1:0:0:6, 6:1:0:0:8, 7:1:0:0:6, 1127:146:7:14:1358
F# major (6#), 1:0:0:0:0, 8:3:0:0:8, 5:1:0:0:3, 6:2:0:0:7, 4:1:0:0:2, 8:3:0:0:8, 5:1:0:0:3, 4:2:0:0:5, 4:1:0:0:2, 5:1:0:0:2, 2:0:0:0:1, 5:1:0:0:3, 3:0:0:0:1, 8:3:0:0:8, 5:1:0:0:3, 6:2:0:0:6, 4:1:0:0:2, 8:3:0:0:8, 5:1:0:0:3, 6:2:0:0:7, 4:1:0:0:2, 8:3:0:0:8, 5:1:0:0:3, 4:2:0:0:4, 4:1:0:0:2, 7:1:0:0:2, 2:0:0:0:1, 5:1:0:0:3, 3:0:0:0:1, 8:3:0:0:8, 5:1:0:0:3, 6:2:0:0:7, 4:1:0:0:3, 8:3:0:0:7, 4:2:0:0:2, 6:0:0:0:4, 4:1:0:0:4, 7:3:0:0:6, 4:2:0:0:2, 7:2:0:0:5, 12:4:2:0:5, 4:1:0:0:2, 3:0:0:0:2, 6:1:0:0:4, 4:0:0:0:3, 8:4:0:0:10, 4:4:0:0:4, 9:1:0:0:4, 10:1:0:0:3, 9:3:0:0:7, 6:2:0:0:3, 6:0:0:0:3, 6:1:0:0:3, 8:4:0:0:7, 4:1:0:0:1, 5:0:0:0:1, 4:1:0:0:2, 4:1:0:0:5, 5:0:0:0:2, 4:1:0:0:3, 6:0:0:0:2, 11:6:4:0:10, 11:1:0:0:4, 7:1:0:0:7, 4:1:0:0:4, 8:4:0:0:7, 4:1:0:0:1, 7:0:0:0:2, 7:1:0:0:2, 9:3:0:0:5, 6:2:0:0:2, 5:0:0:0:1, 6:1:0:0:2, 5:1:0:0:2, 3:0:0:0:0, 7:2:0:0:4, 3:1:0:0:2, 8:3:0:0:5, 5:1:0:0:2, 5:0:0:0:4, 5:1:0:0:3, 7:5:0:0:9, 4:1:0:0:1, 5:0:0:0:2, 5:1:0:0:3, 7:5:0:0:9, 4:1:0:0:1, 4:0:0:0:1, 4:1:0:0:2, 4:1:0:0:4, 1:0:0:0:3, 4:1:0:0:5, 2:0:0:0:1, 7:4:0:0:6, 4:1:0:0:1, 5:0:0:0:2, 4:1:0:0:4, 8:4:0:0:7, 6:2:0:0:2, 7:0:0:0:4, 4:1:0:0:3, 8:3:0:0:7, 8:1:1:0:1, 3:0:0:0:1, 5:1:0:0:2, 7:1:0:0:2, 3:0:0:0:0, 5:1:0:0:3, 2:0:0:0:3, 8:5:0:0:7, 4:2:0:0:2, 7:0:0:0:6, 4:1:0:0:3, 7:3:0:0:6, 6:1:0:0:1, 5:0:0:0:3, 4:1:0:0:2, 7:3:0:0:6, 4:1:0:0:1, 3:0:0:0:1, 4:2:0:0:3, 5:2:0:0:4, 1:0:0:0:2, 5:4:0:0:8, 3:0:0:0:2, 9:3:0:0:8, 7:1:0:0:3, 6:1:0:0:6, 4:1:0:0:3, 9:3:0:0:5, 4:1:0:0:1, 6:0:0:0:2, 5:2:0:0:3, 9:3:0:0:5, 5:1:1:0:1, 3:0:0:0:1, 4:2:0:0:3, 5:1:0:0:3, 4:0:0:0:1, 6:1:0:0:5, 2:0:0:0:2, 8:4:0:0:8, 4:2:0:0:2, 5:0:0:0:3, 4:1:0:0:2, 10:4:0:0:6, 7:2:1:0:2, 7:0:0:0:2, 5:1:0:0:2, 9:3:0:0:6, 7:2:0:0:3, 8:0:0:0:2, 10:1:1:0:2, 5:1:0:0:4, 4:0:0:0:2, 5:3:0:0:7, 3:0:0:0:1, 7:3:0:0:5, 6:1:1:0:1, 5:0:0:0:4, 6:1:0:0:5, 9:3:0:0:5, 4:1:0:0:1, 5:0:0:0:2, 4:1:0:0:2, 7:3:0:0:5, 4:1:0:0:1, 3:0:0:0:1, 4:2:0:0:3, 4:1:0:0:2, 1:0:0:0:0, 4:1:0:0:5, 2:0:0:0:3, 10:3:0:0:7, 5:1:0:0:3, 6:0:0:0:4, 5:1:0:0:5, 10:3:0:0:7, 5:1:0:0:3, 6:2:0:0:6, 6:1:0:0:4, 9:4:0:0:8, 7:1:0:0:1, 5:2:2:0:3, 7:3:0:0:5, 4:1:0:0:4, 3:0:0:0:0, 5:1:0:0:6, 2:0:0:0:2, 7:5:0:0:9, 4:1:0:0:1, 5:0:0:0:4, 7:1:0:0:6, 7:3:0:0:6, 4:2:0:0:2, 6:0:0:0:2, 5:1:0:0:4, 7:3:0:0:7, 4:1:0:0:1, 5:1:0:0:5, 7:1:0:0:3, 6:1:0:0:3, 1:0:0:0:0, 5:2:0:0:6, 4:3:3:0:5, 9:3:0:0:5, 5:4:0:0:4, 11:9:1:3:7, 9:0:0:0:3, 8:1:0:0:3, 5:0:0:0:4, 9:1:0:0:4, 6:0:0:0:6, 8:1:0:0:3, 6:0:0:0:3, 8:1:0:0:3, 5:0:0:0:3, 7:1:0:0:3, 5:0:0:0:3, 1218:312:17:3:787
Eb minor (6b), 1:0:0:0:1, 5:0:0:0:6, 6:1:0:0:7, 7:1:0:0:10, 3:0:0:0:3, 5:0:0:0:6, 6:1:0:0:7, 5:1:0:0:6, 3:0:0:0:3, 5:0:0:0:4, 2:0:0:0:2, 4:1:0:0:4, 4:1:0:0:3, 5:0:0:0:6, 6:1:0:0:7, 7:1:0:0:9, 3:0:0:0:3, 5:0:0:0:6, 6:1:0:0:7, 7:1:0:0:10, 3:0:0:0:3, 5:0:0:0:6, 6:1:0:0:7, 5:1:0:0:7, 3:0:0:0:3, 6:0:0:0:5, 2:0:0:0:2, 3:0:0:0:3, 4:1:0:0:3, 5:0:0:0:6, 6:1:0:0:7, 7:1:0:0:10, 3:0:0:0:2, 6:0:0:0:7, 4:1:0:0:9, 8:1:0:0:10, 4:1:0:0:7, 4:0:0:0:3, 4:1:0:0:9, 9:2:0:0:12, 13:3:2:2:11, 4:0:0:0:3, 5:0:0:0:3, 4:0:0:0:5, 5:1:0:0:3, 5:0:0:0:7, 4:1:0:0:6, 11:2:0:0:13, 10:4:1:0:16, 6:0:0:0:10, 6:1:0:0:6, 8:1:0:0:10, 5:0:0:0:5, 5:0:0:0:4, 5:1:0:0:5, 6:1:0:0:4, 3:0:0:0:5, 3:0:0:0:3, 4:0:0:0:6, 2:0:0:0:2, 6:4:0:0:8, 9:1:1:0:12, 10:1:0:0:14, 9:1:0:0:15, 3:0:0:0:6, 5:0:0:0:11, 4:1:0:0:7, 7:1:0:0:11, 6:1:0:0:8, 7:0:0:0:7, 6:1:0:0:10, 6:1:0:0:8, 4:0:0:0:6, 4:0:0:0:5, 3:0:0:0:5, 4:0:0:0:6, 3:1:0:0:5, 5:0:0:0:10, 5:1:0:0:6, 7:1:0:0:9, 4:0:0:0:4, 4:0:0:0:3, 4:1:0:0:6, 7:1:0:0:8, 4:0:0:0:4, 4:0:0:0:3, 5:1:0:0:6, 5:1:0:0:7, 3:0:0:0:4, 3:0:0:0:2, 1:0:0:0:0, 2:0:0:0:1, 3:1:0:0:2, 4:0:0:0:4, 4:1:0:0:7, 7:1:0:0:8, 3:0:0:0:2, 5:0:0:0:6, 7:1:0:0:8, 9:1:0:0:9, 3:0:0:0:3, 5:1:0:0:6, 7:1:0:0:9, 5:1:0:0:4, 3:0:0:0:4, 6:0:0:0:7, 3:0:0:0:5, 3:0:0:0:5, 3:1:0:0:3, 6:0:0:0:8, 4:1:0:0:8, 9:1:0:0:8, 3:0:0:0:2, 5:0:0:0:3, 6:1:0:0:6, 8:1:0:0:6, 3:0:0:0:3, 5:0:0:0:3, 5:1:0:0:5, 5:1:0:0:4, 3:0:0:0:3, 3:0:0:0:4, 1:0:0:0:0, 3:0:0:0:6, 4:1:0:0:4, 7:0:0:0:5, 7:1:0:0:7, 7:1:0:0:9, 3:0:0:0:2, 7:0:0:0:9, 4:1:0:0:10, 7:1:0:0:7, 4:0:0:0:8, 7:0:0:0:9, 5:1:0:0:8, 6:1:0:0:6, 3:0:0:0:6, 4:0:0:0:7, 4:0:0:0:5, 5:0:0:0:7, 3:1:0:0:3, 5:0:0:0:7, 4:1:0:0:7, 7:1:0:0:10, 3:0:0:0:3, 7:0:0:0:8, 5:1:0:0:7, 8:1:1:0:9, 4:0:0:0:8, 7:0:0:0:7, 5:1:0:0:8, 7:1:0:0:6, 9:1:0:0:7, 4:0:0:0:4, 3:0:0:0:3, 3:0:0:0:3, 5:1:0:0:5, 6:0:0:0:5, 6:3:1:0:9, 7:1:0:0:13, 5:1:0:0:8, 8:1:0:0:8, 4:1:0:0:7, 7:1:0:0:10, 3:0:0:0:3, 5:1:0:0:6, 5:2:0:0:7, 5:1:0:0:5, 3:0:0:0:4, 3:0:0:0:5, 1:0:0:0:2, 2:0:0:0:1, 3:1:0:0:4, 7:4:0:2:5, 6:1:0:0:6, 8:1:0:0:8, 4:0:0:0:4, 7:4:0:2:5, 6:1:0:0:6, 7:1:0:0:8, 6:1:0:0:6, 7:4:0:2:6, 6:2:0:0:9, 7:1:0:0:8, 5:0:0:0:4, 3:0:0:0:5, 3:0:0:0:4, 3:0:0:0:4, 3:1:0:0:2, 4:0:0:0:5, 4:1:0:0:10, 7:1:0:0:9, 5:0:0:3:2, 4:0:0:0:5, 4:1:0:0:6, 8:1:0:0:8, 4:0:0:0:4, 4:0:0:0:4, 5:1:0:0:4, 5:1:0:0:9, 5:0:0:0:6, 5:0:0:0:4, 2:0:0:0:1, 3:0:0:0:2, 6:1:0:0:6, 8:1:0:0:9, 5:1:0:0:8, 10:2:0:3:13, 9:5:1:0:13, 7:1:0:0:11, 7:1:0:0:9, 8:1:0:0:12, 7:1:0:0:9, 8:1:0:0:12, 8:1:0:0:8, 7:1:0:0:12, 7:1:0:0:6, 6:1:0:0:8, 7:1:0:0:6, 1127:146:7:14:1358
D# minor (6#), 1:0:0:0:0, 8:3:0:0:8, 5:1:0:0:3, 6:2:0:0:7, 4:1:0:0:2, 8:3:0:0:8, 5:1:0:0:3, 4:2:0:0:5, 4:1:0:0:2, 5:1:0:0:2, 2:0:0:0:1, 5:1:0:0:3, 3:0:0:0:1, 8:3:0:0:8, 5:1:0:0:3, 6:2:0:0:6, 4:1:0:0:2, 8:3:0:0:8, 5:1:0:0:3, 6:2:0:0:7, 4:1:0:0:2, 8:3:0:0:8, 5:1:0:0:3, 4:2:0:0:4, 4:1:0:0:2, 7:1:0:0:2, 2:0:0:0:1, 5:1:0:0:3, 3:0:0:0:1, 8:3:0:0:8, 5:1:0:0:3, 6:2:0:0:7, 4:1:0:0:3, 8:3:0:0:7, 4:2:0:0:2, 6:0:0:0:4, 4:1:0:0:4, 7:3:0:0:6, 4:2:0:0:2, 7:2:0:0:5, 12:4:2:0:5, 4:1:0:0:2, 3:0:0:0:2, 6:1:0:0:4, 4:0:0:0:3, 8:4:0:0:10, 4:4:0:0:4, 9:1:0:0:4, 10:1:0:0:3, 9:3:0:0:7, 6:2:0:0:3, 6:0:0:0:3, 6:1:0:0:3, 8:4:0:0:7, 4:1:0:0:1, 5:0:0:0:1, 4:1:0:0:2, 4:1:0:0:5, 5:0:0:0:2, 4:1:0:0:3, 6:0:0:0:2, 11:6:4:0:10, 11:1:0:0:4, 7:1:0:0:7, 4:1:0:0:4, 8:4:0:0:7, 4:1:0:0:1, 7:0:0:0:2, 7:1:0:0:2, 9:3:0:0:5, 6:2:0:0:2, 5:0:0:0:1, 6:1:0:0:2, 5:1:0:0:2, 3:0:0:0:0, 7:2:0:0:4, 3:1:0:0:2, 8:3:0:0:5, 5:1:0:0:2, 5:0:0:0:4, 5:1:0:0:3, 7:5:0:0:9, 4:1:0:0:1, 5:0:0:0:2, 5:1:0:0:3, 7:5:0:0:9, 4:1:0:0:1, 4:0:0:0:1, 4:1:0:0:2, 4:1:0:0:4, 1:0:0:0:3, 4:1:0:0:5, 2:0:0:0:1, 7:4:0:0:6, 4:1:0:0:1, 5:0:0:0:2, 4:1:0:0:4, 8:4:0:0:7, 6:2:0:0:2, 7:0:0:0:4, 4:1:0:0:3, 8:3:0:0:7, 8:1:1:0:1, 3:0:0:0:1, 5:1:0:0:2, 7:1:0:0:2, 3:0:0:0:0, 5:1:0:0:3, 2:0:0:0:3, 8:5:0:0:7, 4:2:0:0:2, 7:0:0:0:6, 4:1:0:0:3, 7:3:0:0:6, 6:1:0:0:1, 5:0:0:0:3, 4:1:0:0:2, 7:3:0:0:6, 4:1:0:0:1, 3:0:0:0:1, 4:2:0:0:3, 5:2:0:0:4, 1:0:0:0:2, 5:4:0:0:8, 3:0:0:0:2, 9:3:0:0:8, 7:1:0:0:3, 6:1:0:0:6, 4:1:0:0:3, 9:3:0:0:5, 4:1:0:0:1, 6:0:0:0:2, 5:2:0:0:3, 9:3:0:0:5, 5:1:1:0:1, 3:0:0:0:1, 4:2:0:0:3, 5:1:0:0:3, 4:0:0:0:1, 6:1:0:0:5, 2:0:0:0:2, 8:4:0:0:8, 4:2:0:0:2, 5:0:0:0:3, 4:1:0:0:2, 10:4:0:0:6, 7:2:1:0:2, 7:0:0:0:2, 5:1:0:0:2, 9:3:0:0:6, 7:2:0:0:3, 8:0:0:0:2, 10:1:1:0:2, 5:1:0:0:4, 4:0:0:0:2, 5:3:0:0:7, 3:0:0:0:1, 7:3:0:0:5, 6:1:1:0:1, 5:0:0:0:4, 6:1:0:0:5, 9:3:0:0:5, 4:1:0:0:1, 5:0:0:0:2, 4:1:0:0:2, 7:3:0:0:5, 4:1:0:0:1, 3:0:0:0:1, 4:2:0:0:3, 4:1:0:0:2, 1:0:0:0:0, 4:1:0:0:5, 2:0:0:0:3, 10:3:0:0:7, 5:1:0:0:3, 6:0:0:0:4, 5:1:0:0:5, 10:3:0:0:7, 5:1:0:0:3, 6:2:0:0:6, 6:1:0:0:4, 9:4:0:0:8, 7:1:0:0:1, 5:2:2:0:3, 7:3:0:0:5, 4:1:0:0:4, 3:0:0:0:0, 5:1:0:0:6, 2:0:0:0:2, 7:5:0:0:9, 4:1:0:0:1, 5:0:0:0:4, 7:1:0:0:6, 7:3:0:0:6, 4:2:0:0:2, 6:0:0:0:2, 5:1:0:0:4, 7:3:0:0:7, 4:1:0:0:1, 5:1:0:0:5, 7:1:0:0:3, 6:1:0:0:3, 1:0:0:0:0, 5:2:0:0:6, 4:3:3:0:5, 9:3:0:0:5, 5:4:0:0:4, 11:9:1:3:7, 9:0:0:0:3, 8:1:0:0:3, 5:0:0:0:4, 9:1:0:0:4, 6:0:0:0:6, 8:1:0:0:3, 6:0:0:0:3, 8:1:0:0:3, 5:0:0:0:3, 7:1:0:0:3, 5:0:0:0:3, 1218:312:17:3:787
Cb major (7b), 1:0:0:0:1, 6:0:0:0:9, 6:1:0:0:9, 7:1:0:0:14, 3:0:0:0:4, 6:0:0:0:9, 6:1:0:0:9, 5:1:0:0:9, 4:0:0:0:3, 5:0:0:0:5, 2:0:0:0:3, 5:1:0:0:5, 4:1:0:0:4, 6:0:0:0:9, 6:1:0:0:9, 7:1:0:0:12, 3:0:0:0:4, 6:0:0:0:9, 6:1:0:0:9, 7:1:0:0:14, 3:0:0:0:4, 6:0:0:0:9, 6:1:0:0:9, 5:1:0:0:9, 4:0:0:0:3, 6:0:0:0:6, 2:0:0:0:3, 4:0:0:0:4, 4:1:0:0:4, 6:0:0:0:9, 6:1:0:0:9, 7:1:0:0:14, 3:0:0:0:4, 7:0:0:0:9, 4:1:0:0:8, 8:1:0:0:12, 4:1:0:0:9, 5:0:0:0:5, 4:1:0:0:8, 9:2:0:0:13, 14:3:2:2:10, 4:0:0:0:3, 5:2:2:0:6, 5:0:0:0:6, 5:1:0:0:5, 6:0:0:0:12, 4:1:0:0:5, 11:2:0:0:14, 9:4:1:0:17, 7:0:0:0:12, 7:1:0:0:7, 8:1:0:0:11, 5:0:0:0:7, 6:0:0:0:6, 5:1:0:0:5, 6:1:0:0:4, 4:0:0:0:5, 3:0:0:0:7, 5:0:0:0:7, 3:0:0:0:3, 6:4:0:0:10, 10:1:1:0:12, 11:1:0:0:15, 9:1:0:0:17, 3:0:0:0:8, 6:0:0:0:12, 4:1:0:0:7, 7:1:0:0:12, 6:0:0:0:7, 8:0:0:0:8, 6:1:0:0:10, 6:1:0:0:8, 5:0:0:0:5, 4:0:0:0:6, 2:0:0:0:4, 5:0:0:0:6, 3:1:0:0:6, 6:0:0:0:10, 5:1:0:0:7, 7:1:0:0:12, 4:0:0:0:5, 5:0:0:0:6, 4:1:0:0:6, 7:1:0:0:9, 4:0:0:0:6, 5:0:0:0:6, 5:1:0:0:6, 5:1:0:0:8, 4:0:0:0:4, 3:0:0:0:5, 1:0:0:0:3, 3:0:0:0:2, 3:1:0:0:3, 5:0:0:0:5, 4:1:0:0:7, 7:1:0:0:9, 3:0:0:0:5, 6:0:0:0:8, 7:2:0:0:9, 9:1:0:0:10, 3:0:0:0:4, 6:1:0:0:8, 8:1:0:0:9, 5:1:0:0:5, 4:0:0:0:4, 6:0:0:0:7, 2:0:0:0:4, 4:0:0:0:6, 3:1:0:0:6, 7:0:0:0:8, 4:1:0:0:7, 9:1:0:0:13, 3:0:0:0:4, 6:0:0:0:5, 6:1:0:0:6, 8:1:0:0:8, 3:0:0:0:4, 6:0:0:0:5, 5:1:0:0:5, 5:1:0:0:5, 4:0:0:0:3, 3:0:0:0:5, 1:0:0:0:2, 4:0:0:0:9, 4:1:0:0:6, 8:0:0:0:9, 7:1:0:0:9, 7:1:0:0:13, 3:0:0:0:4, 8:0:0:0:9, 4:1:0:0:9, 7:1:0:0:8, 4:0:0:0:8, 8:0:0:0:9, 5:1:0:0:8, 6:1:0:0:7, 4:0:0:0:6, 4:0:0:0:7, 3:0:0:0:4, 6:0:0:0:9, 3:1:0:0:5, 6:0:0:0:8, 4:1:0:0:7, 7:1:0:0:12, 3:0:0:0:4, 7:0:0:0:8, 6:1:0:0:8, 8:1:0:0:10, 4:0:0:0:8, 8:0:0:0:8, 6:1:0:0:8, 7:1:0:0:7, 10:1:0:0:7, 4:0:0:0:6, 3:0:0:0:5, 4:0:0:0:6, 5:1:0:0:6, 6:1:0:0:7, 6:3:1:0:8, 7:1:0:0:16, 6:1:0:0:10, 8:0:0:0:7, 4:1:0:0:6, 7:1:0:0:11, 3:0:0:0:4, 6:0:0:0:5, 5:1:0:0:5, 5:1:0:0:6, 4:0:0:0:4, 3:0:0:0:4, 1:1:1:0:1, 3:0:0:0:4, 3:1:0:0:7, 8:4:0:2:8, 6:1:0:0:8, 8:1:0:0:11, 4:0:0:0:8, 8:4:0:2:8, 6:1:0:0:8, 7:1:0:0:11, 6:0:0:0:7, 8:4:0:2:8, 7:2:0:0:8, 7:1:0:0:9, 6:0:0:0:4, 3:0:0:0:6, 2:0:0:0:3, 4:0:0:0:7, 3:1:0:0:4, 5:0:0:0:5, 4:1:0:0:9, 7:1:0:0:12, 5:0:0:3:7, 5:0:0:0:6, 4:1:0:0:6, 8:1:0:0:9, 4:0:0:0:6, 5:0:0:0:7, 5:1:0:0:4, 5:1:0:0:13, 6:0:0:0:5, 5:0:0:0:6, 3:0:0:0:1, 4:0:0:0:5, 6:1:0:0:5, 8:3:0:0:12, 5:1:0:0:8, 10:2:0:3:11, 9:5:1:0:14, 7:1:0:0:12, 7:1:0:0:12, 7:1:0:0:14, 7:1:0:0:14, 8:1:0:0:13, 8:1:0:0:10, 7:1:0:0:14, 7:1:0:0:8, 6:1:0:0:10, 7:1:0:0:8, 1191:148:9:14:1636
C# major (7#), 1:0:0:0:1, 8:3:0:0:10, 5:1:0:0:4, 7:2:0:0:7, 4:1:0:0:4, 8:3:0:0:10, 5:1:0:0:4, 5:2:0:0:3, 5:1:0:0:3, 5:1:0:0:4, 1:0:0:0:0, 5:1:0:0:3, 3:0:0:0:2, 8:3:0:0:10, 5:1:0:0:4, 7:2:0:0:6, 4:1:0:0:4, 8:3:0:0:10, 5:1:0:0:4, 7:2:0:0:7, 4:1:0:0:4, 8:3:0:0:10, 5:1:0:0:4, 5:2:0:0:3, 5:1:0:0:3, 7:1:0:0:4, 1:0:0:0:0, 5:1:0:0:3, 3:0:0:0:2, 8:3:0:0:10, 5:1:0:0:4, 7:2:0:0:7, 4:1:0:0:4, 8:3:0:0:10, 4:2:0:0:4, 7:0:0:0:4, 4:1:0:0:8, 7:3:0:0:7, 4:2:0:0:3, 8:2:0:0:7, 13:4:0:0:8, 4:1:0:0:3, 3:0:0:0:2, 6:1:0:0:5, 4:0:0:0:1, 8:4:0:0:13, 4:4:0:0:5, 10:1:0:0:7, 10:1:0:0:6, 9:3:0:0:9, 6:2:0:0:4, 7:0:0:0:5, 6:1:0:0:5, 8:4:0:0:8, 4:1:0:0:3, 5:0:0:0:1, 5:1:0:0:4, 4:1:0:0:7, 4:0:0:0:4, 4:1:0:0:3, 6:0:0:0:2, 11:6:3:0:15, 11:1:0:0:6, 8:1:0:0:9, 4:1:0:0:8, 8:4:0:0:11, 4:1:0:0:3, 7:1:0:0:6, 7:1:0:0:5, 9:3:0:0:8, 6:2:0:0:5, 5:0:0:0:3, 7:1:0:0:4, 5:1:0:0:5, 3:0:0:0:3, 7:2:0:0:6, 3:1:0:0:2, 8:3:0:0:9, 5:1:0:0:3, 6:0:0:0:5, 5:1:0:0:4, 7:5:0:0:10, 4:1:0:0:2, 6:0:0:0:4, 5:1:0:0:5, 7:5:0:0:10, 4:1:0:0:2, 4:0:0:0:2, 5:1:0:0:4, 4:1:0:0:5, 0:0:0:0:0, 4:1:0:0:5, 2:0:0:0:1, 7:4:0:0:8, 4:1:0:0:2, 6:0:0:0:4, 4:1:0:0:5, 8:4:0:0:9, 6:2:0:0:5, 8:0:0:0:4, 4:1:0:0:4, 8:3:0:0:9, 8:1:0:0:4, 3:0:0:0:1, 6:1:0:0:3, 7:1:0:0:5, 3:0:0:0:3, 5:1:0:0:6, 2:0:0:0:1, 8:5:0:0:10, 4:2:0:0:4, 8:0:0:0:3, 4:1:0:0:4, 7:3:0:0:7, 6:1:0:0:2, 6:0:0:0:3, 4:1:0:0:4, 7:3:0:0:7, 4:1:0:0:2, 3:0:0:0:1, 5:2:0:0:4, 5:2:0:0:6, 0:0:0:0:0, 5:4:0:0:6, 3:0:0:0:1, 9:3:0:0:9, 7:1:0:0:2, 7:1:0:0:6, 4:1:0:0:4, 9:3:0:0:8, 4:1:0:0:4, 7:0:0:0:3, 5:2:0:0:7, 9:3:0:0:8, 5:1:0:0:3, 4:0:0:0:1, 5:2:0:0:4, 5:1:0:0:6, 3:0:0:0:1, 7:1:0:0:6, 2:0:0:0:1, 8:4:0:0:9, 4:2:0:0:4, 6:0:0:0:4, 4:1:0:0:4, 10:4:0:0:9, 7:2:0:0:4, 8:0:0:0:3, 5:1:0:0:6, 9:3:0:0:8, 7:2:0:0:4, 8:0:0:0:2, 11:1:0:0:4, 5:1:0:0:5, 3:0:0:0:0, 5:3:0:0:5, 3:0:0:0:2, 7:3:0:0:7, 6:1:0:0:2, 6:0:0:0:3, 6:1:0:0:8, 9:3:0:0:8, 4:1:0:0:3, 6:0:0:0:3, 4:1:0:0:4, 7:3:0:0:7, 4:1:0:0:3, 3:0:0:0:1, 5:2:0:0:4, 4:1:0:0:4, 1:0:0:0:0, 4:1:0:0:3, 2:0:0:0:1, 10:3:0:0:8, 5:1:0:0:2, 7:0:0:0:4, 5:1:0:0:6, 10:3:0:0:8, 5:1:0:0:2, 7:2:0:0:6, 6:1:0:0:5, 9:4:0:0:9, 7:1:0:0:3, 5:2:2:0:4, 8:3:0:0:5, 4:1:0:0:6, 3:0:0:0:2, 5:1:0:0:4, 2:0:0:0:1, 7:5:0:0:10, 4:1:0:0:5, 6:0:0:0:5, 7:1:0:0:3, 7:3:0:0:7, 4:2:0:0:4, 7:0:0:0:4, 5:1:0:0:5, 7:3:0:0:8, 4:1:0:0:2, 5:1:0:0:3, 8:1:0:0:3, 6:1:0:0:4, 1:0:0:0:1, 5:2:0:0:4, 4:3:3:0:4, 9:3:0:0:9, 5:4:0:0:6, 11:10:2:3:10, 8:0:0:0:3, 8:1:0:0:5, 6:0:0:0:5, 9:1:0:0:4, 7:0:0:0:5, 8:1:0:0:4, 7:0:0:0:3, 8:1:0:0:7, 6:0:0:0:3, 7:1:0:0:4, 6:0:0:0:3, 1257:314:10:3:1038
Ab minor (7b), 1:0:0:0:1, 6:0:0:0:9, 6:1:0:0:9, 7:1:0:0:14, 3:0:0:0:4, 6:0:0:0:9, 6:1:0:0:9, 5:1:0:0:9, 4:0:0:0:3, 5:0:0:0:5, 2:0:0:0:3, 5:1:0:0:5, 4:1:0:0:4, 6:0:0:0:9, 6:1:0:0:9, 7:1:0:0:12, 3:0:0:0:4, 6:0:0:0:9, 6:1:0:0:9, 7:1:0:0:14, 3:0:0:0:4, 6:0:0:0:9, 6:1:0:0:9, 5:1:0:0:9, 4:0:0:0:3, 6:0:0:0:6, 2:0:0:0:3, 4:0:0:0:4, 4:1:0:0:4, 6:0:0:0:9, 6:1:0:0:9, 7:1:0:0:14, 3:0:0:0:4, 7:0:0:0:9, 4:1:0:0:8, 8:1:0:0:12, 4:1:0:0:9, 5:0:0:0:5, 4:1:0:0:8, 9:2:0:0:13, 14:3:2:2:10, 4:0:0:0:3, 5:2:2:0:6, 5:0:0:0:6, 5:1:0:0:5, 6:0:0:0:12, 4:1:0:0:5, 11:2:0:0:14, 9:4:1:0:17, 7:0:0:0:12, 7:1:0:0:7, 8:1:0:0:11, 5:0:0:0:7, 6:0:0:0:6, 5:1:0:0:5, 6:1:0:0:4, 4:0:0:0:5, 3:0:0:0:7, 5:0:0:0:7, 3:0:0:0:3, 6:4:0:0:10, 10:1:1:0:12, 11:1:0:0:15, 9:1:0:0:17, 3:0:0:0:8, 6:0:0:0:12, 4:1:0:0:7, 7:1:0:0:12, 6:0:0:0:7, 8:0:0:0:8, 6:1:0:0:10, 6:1:0:0:8, 5:0:0:0:5, 4:0:0:0:6, 2:0:0:0:4, 5:0:0:0:6, 3:1:0:0:6, 6:0:0:0:10, 5:1:0:0:7, 7:1:0:0:12, 4:0:0:0:5, 5:0:0:0:6, 4:1:0:0:6, 7:1:0:0:9, 4:0:0:0:6, 5:0:0:0:6, 5:1:0:0:6, 5:1:0:0:8, 4:0:0:0:4, 3:0:0:0:5, 1:0:0:0:3, 3:0:0:0:2, 3:1:0:0:3, 5:0:0:0:5, 4:1:0:0:7, 7:1:0:0:9, 3:0:0:0:5, 6:0:0:0:8, 7:2:0:0:9, 9:1:0:0:10, 3:0:0:0:4, 6:1:0:0:8, 8:1:0:0:9, 5:1:0:0:5, 4:0:0:0:4, 6:0:0:0:7, 2:0:0:0:4, 4:0:0:0:6, 3:1:0:0:6, 7:0:0:0:8, 4:1:0:0:7, 9:1:0:0:13, 3:0:0:0:4, 6:0:0:0:5, 6:1:0:0:6, 8:1:0:0:8, 3:0:0:0:4, 6:0:0:0:5, 5:1:0:0:5, 5:1:0:0:5, 4:0:0:0:3, 3:0:0:0:5, 1:0:0:0:2, 4:0:0:0:9, 4:1:0:0:6, 8:0:0:0:9, 7:1:0:0:9, 7:1:0:0:13, 3:0:0:0:4, 8:0:0:0:9, 4:1:0:0:9, 7:1:0:0:8, 4:0:0:0:8, 8:0:0:0:9, 5:1:0:0:8, 6:1:0:0:7, 4:0:0:0:6, 4:0:0:0:7, 3:0:0:0:4, 6:0:0:0:9, 3:1:0:0:5, 6:0:0:0:8, 4:1:0:0:7, 7:1:0:0:12, 3:0:0:0:4, 7:0:0:0:8, 6:1:0:0:8, 8:1:0:0:10, 4:0:0:0:8, 8:0:0:0:8, 6:1:0:0:8, 7:1:0:0:7, 10:1:0:0:7, 4:0:0:0:6, 3:0:0:0:5, 4:0:0:0:6, 5:1:0:0:6, 6:1:0:0:7, 6:3:1:0:8, 7:1:0:0:16, 6:1:0:0:10, 8:0:0:0:7, 4:1:0:0:6, 7:1:0:0:11, 3:0:0:0:4, 6:0:0:0:5, 5:1:0:0:5, 5:1:0:0:6, 4:0:0:0:4, 3:0:0:0:4, 1:1:1:0:1, 3:0:0:0:4, 3:1:0:0:7, 8:4:0:2:8, 6:1:0:0:8, 8:1:0:0:11, 4:0:0:0:8, 8:4:0:2:8, 6:1:0:0:8, 7:1:0:0:11, 6:0:0:0:7, 8:4:0:2:8, 7:2:0:0:8, 7:1:0:0:9, 6:0:0:0:4, 3:0:0:0:6, 2:0:0:0:3, 4:0:0:0:7, 3:1:0:0:4, 5:0:0:0:5, 4:1:0:0:9, 7:1:0:0:12, 5:0:0:3:7, 5:0:0:0:6, 4:1:0:0:6, 8:1:0:0:9, 4:0:0:0:6, 5:0:0:0:7, 5:1:0:0:4, 5:1:0:0:13, 6:0:0:0:5, 5:0:0:0:6, 3:0:0:0:1, 4:0:0:0:5, 6:1:0:0:5, 8:3:0:0:12, 5:1:0:0:8, 10:2:0:3:11, 9:5:1:0:14, 7:1:0:0:12, 7:1:0:0:12, 7:1:0:0:14, 7:1:0:0:14, 8:1:0:0:13, 8:1:0:0:10, 7:1:0:0:14, 7:1:0:0:8, 6:1:0:0:10, 7:1:0:0:8, 1191:148:9:14:1636
A# minor (7#), 1:0:0:0:1, 8:3:0:0:10, 5:1:0:0:4, 7:2:0:0:7, 4:1:0:0:4, 8:3:0:0:10, 5:1:0:0:4, 5:2:0:0:3, 5:1:0:0:3, 5:1:0:0:4, 1:0:0:0:0, 5:1:0:0:3, 3:0:0:0:2, 8:3:0:0:10, 5:1:0:0:4, 7:2:0:0:6, 4:1:0:0:4, 8:3:0:0:10, 5:1:0:0:4, 7:2:0:0:7, 4:1:0:0:4, 8:3:0:0:10, 5:1:0:0:4, 5:2:0:0:3, 5:1:0:0:3, 7:1:0:0:4, 1:0:0:0:0, 5:1:0:0:3, 3:0:0:0:2, 8:3:0:0:10, 5:1:0:0:4, 7:2:0:0:7, 4:1:0:0:4, 8:3:0:0:10, 4:2:0:0:4, 7:0:0:0:4, 4:1:0:0:8, 7:3:0:0:7, 4:2:0:0:3, 8:2:0:0:7, 13:4:0:0:8, 4:1:0:0:3, 3:0:0:0:2, 6:1:0:0:5, 4:0:0:0:1, 8:4:0:0:13, 4:4:0:0:5, 10:1:0:0:7, 10:1:0:0:6, 9:3:0:0:9, 6:2:0:0:4, 7:0:0:0:5, 6:1:0:0:5, 8:4:0:0:8, 4:1:0:0:3, 5:0:0:0:1, 5:1:0:0:4, 4:1:0:0:7, 4:0:0:0:4, 4:1:0:0:3, 6:0:0:0:2, 11:6:3:0:15, 11:1:0:0:6, 8:1:0:0:9, 4:1:0:0:8, 8:4:0:0:11, 4:1:0:0:3, 7:1:0:0:6, 7:1:0:0:5, 9:3:0:0:8, 6:2:0:0:5, 5:0:0:0:3, 7:1:0:0:4, 5:1:0:0:5, 3:0:0:0:3, 7:2:0:0:6, 3:1:0:0:2, 8:3:0:0:9, 5:1:0:0:3, 6:0:0:0:5, 5:1:0:0:4, 7:5:0:0:10, 4:1:0:0:2, 6:0:0:0:4, 5:1:0:0:5, 7:5:0:0:10, 4:1:0:0:2, 4:0:0:0:2, 5:1:0:0:4, 4:1:0:0:5, 0:0:0:0:0, 4:1:0:0:5, 2:0:0:0:1, 7:4:0:0:8, 4:1:0:0:2, 6:0:0:0:4, 4:1:0:0:5, 8:4:0:0:9, 6:2:0:0:5, 8:0:0:0:4, 4:1:0:0:4, 8:3:0:0:9, 8:1:0:0:4, 3:0:0:0:1, 6:1:0:0:3, 7:1:0:0:5, 3:0:0:0:3, 5:1:0:0:6, 2:0:0:0:1, 8:5:0:0:10, 4:2:0:0:4, 8:0:0:0:3, 4:1:0:0:4, 7:3:0:0:7, 6:1:0:0:2, 6:0:0:0:3, 4:1:0:0:4, 7:3:0:0:7, 4:1:0:0:2, 3:0:0:0:1, 5:2:0:0:4, 5:2:0:0:6, 0:0:0:0:0, 5:4:0:0:6, 3:0:0:0:1, 9:3:0:0:9, 7:1:0:0:2, 7:1:0:0:6, 4:1:0:0:4, 9:3:0:0:8, 4:1:0:0:4, 7:0:0:0:3, 5:2:0:0:7, 9:3:0:0:8, 5:1:0:0:3, 4:0:0:0:1, 5:2:0:0:4, 5:1:0:0:6, 3:0:0:0:1, 7:1:0:0:6, 2:0:0:0:1, 8:4:0:0:9, 4:2:0:0:4, 6:0:0:0:4, 4:1:0:0:4, 10:4:0:0:9, 7:2:0:0:4, 8:0:0:0:3, 5:1:0:0:6, 9:3:0:0:8, 7:2:0:0:4, 8:0:0:0:2, 11:1:0:0:4, 5:1:0:0:5, 3:0:0:0:0, 5:3:0:0:5, 3:0:0:0:2, 7:3:0:0:7, 6:1:0:0:2, 6:0:0:0:3, 6:1:0:0:8, 9:3:0:0:8, 4:1:0:0:3, 6:0:0:0:3, 4:1:0:0:4, 7:3:0:0:7, 4:1:0:0:3, 3:0:0:0:1, 5:2:0:0:4, 4:1:0:0:4, 1:0:0:0:0, 4:1:0:0:3, 2:0:0:0:1, 10:3:0:0:8, 5:1:0:0:2, 7:0:0:0:4, 5:1:0:0:6, 10:3:0:0:8, 5:1:0:0:2, 7:2:0:0:6, 6:1:0:0:5, 9:4:0:0:9, 7:1:0:0:3, 5:2:2:0:4, 8:3:0:0:5, 4:1:0:0:6, 3:0:0:0:2, 5:1:0:0:4, 2:0:0:0:1, 7:5:0:0:10, 4:1:0:0:5, 6:0:0:0:5, 7:1:0:0:3, 7:3:0:0:7, 4:2:0:0:4, 7:0:0:0:4, 5:1:0:0:5, 7:3:0:0:8, 4:1:0:0:2, 5:1:0:0:3, 8:1:0:0:3, 6:1:0:0:4, 1:0:0:0:1, 5:2:0:0:4, 4:3:3:0:4, 9:3:0:0:9, 5:4:0:0:6, 11:10:2:3:10, 8:0:0:0:3, 8:1:0:0:5, 6:0:0:0:5, 9:1:0:0:4, 7:0:0:0:5, 8:1:0:0:4, 7:0:0:0:3, 8:1:0:0:7, 6:0:0:0:3, 7:1:0:0:4, 6:0:0:0:3, 1257:314:10:3:1038
