 , 0, 1, 2, 3, 4, 5, 6, 7, 8, 9, 10, 11, 12, 13, 14, 15, 16, 17, 18, 19, 20, 21, 22, 23, 24, 25, 26, 27, 28, 29, 30, 31, 32, 33, 34, 35, 36, 37, 38, 39, 40, 41, 42, 43, 44, 45, 46, 47, 48, 49, 50, 51, 52, 53, 54, 55, 56, 57, 58, 59, 60, 61, 62, 63, 64, 65, 66, 67, 68, 69, 70, 71, 72, 73, 74, 75, 76, 77, 78, 79, 80, 81, 82, 83, 84, 85, 86, 87, 88, 89, 90, 91, 92, 93, 94, 95, 96, 97, 98, 99, 100, 101, 102, 103, 104, 105, 106, 107, 108, 109, 110, 111, 112, 113, 114, 115, 116, 117, 118, 119, 120, 121, 122, 123, 124, 125, 126, 127, 128, 129, 130, 131, 132, 133, 134, 135, 136, 137, 138, 139, 140, 141, 142, 143, 144, 145, 146, 147, 148, 149, 150, 151, 152, 153, 154, 155, 156, 157, 158, 159, 160, 161, 162, 163, 164, 165, 166, 167, 168, 169, 170, 171, 172, 173, 174, 175, 176, 177, rowcost
C major (0), 0:0:0:0:0, 3:0:0:0:1, 1:0:0:0:0, 3:0:0:0:0, 0:0:0:0:0, 6:0:1:0:1, 3:0:0:0:0, 4:0:1:0:1, 0:0:0:0:0, 3:0:0:0:1, 1:0:0:0:0, 1:0:0:0:0, 0:0:0:0:0, 5:0:0:0:0, 3:0:0:0:0, 4:0:1:0:1, 1:0:0:0:0, 3:0:0:0:4, 2:0:0:0:4, 4:0:1:0:4, 2:0:0:0:6, 3:0:0:0:2, 6:0:0:0:1, 2:0:0:0:0, 4:0:0:0:1, 3:0:0:0:1, 1:0:0:0:0, 1:0:0:0:0, 0:0:0:0:0, 6:0:1:0:1, 3:0:0:0:0, 4:0:1:0:1, 3:0:0:0:0, 2:0:0:0:0, 0:0:0:0:0, 6:0:0:0:3, 1:0:0:0:0, 5:0:0:0:1, 1:0:0:0:0, 6:0:0:0:0, 5:0:0:0:0, 6:0:3:0:3, 0:0:0:0:0, 5:0:0:0:8, 3:0:0:0:4, 3:0:0:0:0, 1:0:0:0:0, 6:0:0:0:0, 4:0:0:0:0, 7:0:1:0:1, 0:0:0:0:0, 5:0:1:0:6, 3:0:0:0:5, 7:0:0:0:4, 5:0:0:0:5, 7:0:0:0:4, 6:0:0:0:1, 2:0:0:0:0, 10:0:0:0:4, 7:0:0:0:2, 5:0:0:0:0, 2:0:0:0:0, 2:0:0:0:0, 5:0:0:0:0, 7:0:0:0:0, 7:0:1:0:1, 1:0:0:0:0, 3:0:0:0:0, 2:0:0:0:0, 3:0:0:0:3, 1:0:0:0:0, 2:0:0:0:1, 0:0:0:0:0, 5:0:0:0:0, 4:0:0:0:0, 3:0:1:0:1, 0:0:0:0:0, 3:0:0:0:3, 1:0:0:0:0, 3:0:0:0:0, 0:0:0:0:0, 6:0:0:0:0, 3:0:0:0:0, 6:0:1:0:1, 1:0:0:0:0, 3:0:0:0:3, 4:0:0:0:4, 4:0:0:0:7, 4:0:0:0:7, 3:0:0:0:1, 6:0:0:0:1, 3:0:0:0:0, 3:0:0:0:1, 4:0:0:0:2, 1:0:0:0:0, 1:0:0:0:0, 2:0:0:0:1, 5:0:0:0:0, 5:0:0:0:0, 3:0:1:0:1, 1:0:0:0:0, 3:0:0:0:0, 3:0:0:0:0, 6:0:0:0:2, 1:0:0:0:0, 7:0:0:0:1, 3:0:0:0:0, 6:0:1:0:1, 4:0:0:0:0, 4:0:2:0:2, 0:0:0:0:0, 3:0:0:0:3, 1:0:0:0:0, 1:0:0:0:0, 0:0:0:0:0, 6:0:0:0:0, 4:0:0:0:0, 4:0:2:0:2, 0:0:0:0:0, 5:0:0:0:5, 3:0:0:0:6, 4:0:0:0:8, 4:0:0:0:3, 2:0:0:0:1, 6:0:0:0:1, 3:0:0:0:0, 6:0:0:0:2, 5:0:0:0:2, 2:0:0:0:0, 3:0:0:0:0, 4:0:0:0:0, 5:0:0:0:0, 4:0:0:0:0, 8:0:1:0:3, 2:0:0:0:0, 5:0:0:0:0, 2:0:0:0:0, 4:0:0:0:1, 1:0:0:0:0, 1:0:0:0:0, 0:0:0:0:0, 6:0:0:0:0, 4:0:0:0:0, 6:0:1:0:2, 1:0:0:0:0, 9:0:0:0:2, 5:0:0:0:2, 3:0:0:0:1, 2:0:0:0:1, 8:0:0:0:0, 4:0:0:0:0, 6:0:1:0:1, 2:0:0:0:1, 3:0:0:0:2, 4:0:0:0:5, 7:0:0:0:6, 4:0:0:0:5, 3:0:0:0:2, 5:0:0:0:1, 4:0:0:0:1, 5:0:0:0:2, 3:0:0:0:1, 2:0:0:0:1, 3:0:0:0:0, 4:0:0:0:0, 5:0:0:0:0, 4:0:0:0:0, 4:0:1:0:1, 2:0:0:0:0, 2:0:0:0:0, 3:0:0:0:0, 2:0:0:0:0, 3:0:0:0:0, 2:0:0:0:0, 9:0:0:0:1, 12:0:2:0:8, 4:0:0:0:0, 1:0:0:0:0, 616:0:26:0:208
A minor (0), 0:0:0:0:0, 3:0:0:0:1, 1:0:0:0:0, 3:0:0:0:0, 0:0:0:0:0, 6:0:1:0:1, 3:0:0:0:0, 4:0:1:0:1, 0:0:0:0:0, 3:0:0:0:1, 1:0:0:0:0, 1:0:0:0:0, 0:0:0:0:0, 5:0:0:0:0, 3:0:0:0:0, 4:0:1:0:1, 1:0:0:0:0, 3:0:0:0:4, 2:0:0:0:4, 4:0:1:0:4, 2:0:0:0:6, 3:0:0:0:2, 6:0:0:0:1, 2:0:0:0:0, 4:0:0:0:1, 3:0:0:0:1, 1:0:0:0:0, 1:0:0:0:0, 0:0:0:0:0, 6:0:1:0:1, 3:0:0:0:0, 4:0:1:0:1, 3:0:0:0:0, 2:0:0:0:0, 0:0:0:0:0, 6:0:0:0:3, 1:0:0:0:0, 5:0:0:0:1, 1:0:0:0:0, 6:0:0:0:0, 5:0:0:0:0, 6:0:3:0:3, 0:0:0:0:0, 5:0:0:0:8, 3:0:0:0:4, 3:0:0:0:0, 1:0:0:0:0, 6:0:0:0:0, 4:0:0:0:0, 7:0:1:0:1, 0:0:0:0:0, 5:0:1:0:6, 3:0:0:0:5, 7:0:0:0:4, 5:0:0:0:5, 7:0:0:0:4, 6:0:0:0:1, 2:0:0:0:0, 10:0:0:0:4, 7:0:0:0:2, 5:0:0:0:0, 2:0:0:0:0, 2:0:0:0:0, 5:0:0:0:0, 7:0:0:0:0, 7:0:1:0:1, 1:0:0:0:0, 3:0:0:0:0, 2:0:0:0:0, 3:0:0:0:3, 1:0:0:0:0, 2:0:0:0:1, 0:0:0:0:0, 5:0:0:0:0, 4:0:0:0:0, 3:0:1:0:1, 0:0:0:0:0, 3:0:0:0:3, 1:0:0:0:0, 3:0:0:0:0, 0:0:0:0:0, 6:0:0:0:0, 3:0:0:0:0, 6:0:1:0:1, 1:0:0:0:0, 3:0:0:0:3, 4:0:0:0:4, 4:0:0:0:7, 4:0:0:0:7, 3:0:0:0:1, 6:0:0:0:1, 3:0:0:0:0, 3:0:0:0:1, 4:0:0:0:2, 1:0:0:0:0, 1:0:0:0:0, 2:0:0:0:1, 5:0:0:0:0, 5:0:0:0:0, 3:0:1:0:1, 1:0:0:0:0, 3:0:0:0:0, 3:0:0:0:0, 6:0:0:0:2, 1:0:0:0:0, 7:0:0:0:1, 3:0:0:0:0, 6:0:1:0:1, 4:0:0:0:0, 4:0:2:0:2, 0:0:0:0:0, 3:0:0:0:3, 1:0:0:0:0, 1:0:0:0:0, 0:0:0:0:0, 6:0:0:0:0, 4:0:0:0:0, 4:0:2:0:2, 0:0:0:0:0, 5:0:0:0:5, 3:0:0:0:6, 4:0:0:0:8, 4:0:0:0:3, 2:0:0:0:1, 6:0:0:0:1, 3:0:0:0:0, 6:0:0:0:2, 5:0:0:0:2, 2:0:0:0:0, 3:0:0:0:0, 4:0:0:0:0, 5:0:0:0:0, 4:0:0:0:0, 8:0:1:0:3, 2:0:0:0:0, 5:0:0:0:0, 2:0:0:0:0, 4:0:0:0:1, 1:0:0:0:0, 1:0:0:0:0, 0:0:0:0:0, 6:0:0:0:0, 4:0:0:0:0, 6:0:1:0:2, 1:0:0:0:0, 9:0:0:0:2, 5:0:0:0:2, 3:0:0:0:1, 2:0:0:0:1, 8:0:0:0:0, 4:0:0:0:0, 6:0:1:0:1, 2:0:0:0:1, 3:0:0:0:2, 4:0:0:0:5, 7:0:0:0:6, 4:0:0:0:5, 3:0:0:0:2, 5:0:0:0:1, 4:0:0:0:1, 5:0:0:0:2, 3:0:0:0:1, 2:0:0:0:1, 3:0:0:0:0, 4:0:0:0:0, 5:0:0:0:0, 4:0:0:0:0, 4:0:1:0:1, 2:0:0:0:0, 2:0:0:0:0, 3:0:0:0:0, 2:0:0:0:0, 3:0:0:0:0, 2:0:0:0:0, 9:0:0:0:1, 12:0:2:0:8, 4:0:0:0:0, 1:0:0:0:0, 616:0:26:0:208
F major (1b), 0:0:0:0:0, 4:2:0:0:2, 1:1:0:0:1, 4:0:0:0:0, 1:0:0:0:0, 5:0:1:0:1, 3:0:0:0:0, 5:0:1:0:1, 1:0:0:0:0, 4:2:0:0:2, 1:1:0:0:1, 2:0:0:0:0, 1:0:0:0:0, 4:0:0:0:0, 3:0:0:0:0, 5:0:1:0:1, 2:0:0:0:0, 4:6:0:0:6, 3:4:0:0:4, 5:6:1:0:6, 3:6:0:0:6, 4:2:0:0:2, 6:2:0:0:2, 3:0:0:0:0, 3:1:0:0:1, 4:2:0:0:2, 1:1:0:0:1, 2:0:0:0:0, 1:0:0:0:0, 5:0:1:0:1, 3:0:0:0:0, 5:0:1:0:1, 2:0:0:0:0, 2:0:0:0:0, 0:0:0:0:0, 7:4:0:0:4, 2:3:0:0:3, 6:1:0:0:1, 2:0:0:0:0, 5:0:0:0:0, 4:1:0:0:1, 7:1:3:0:3, 1:0:0:0:0, 6:10:0:0:10, 4:5:0:0:5, 4:0:0:0:0, 2:0:0:0:0, 5:0:0:0:0, 3:0:0:0:0, 8:0:1:0:1, 1:0:0:0:0, 6:10:1:0:10, 4:5:0:0:5, 8:6:0:0:6, 6:5:0:0:5, 8:3:0:0:3, 6:3:0:0:3, 3:0:0:0:0, 9:2:0:0:2, 8:3:0:0:3, 4:2:0:0:2, 3:0:0:0:0, 1:0:0:0:0, 4:0:0:0:0, 6:0:0:0:0, 8:0:1:0:1, 0:0:0:0:0, 2:0:0:0:0, 1:0:0:0:0, 4:4:0:0:4, 1:1:0:0:1, 3:1:0:0:1, 1:0:0:0:0, 4:0:0:0:0, 3:0:0:0:0, 4:0:1:0:1, 1:0:0:0:0, 4:4:0:0:4, 1:1:0:0:1, 4:0:0:0:0, 1:0:0:0:0, 5:0:0:0:0, 3:0:0:0:0, 7:0:1:0:1, 2:1:0:0:1, 4:6:0:0:6, 5:6:0:0:6, 5:9:0:0:9, 5:9:0:0:9, 4:1:0:0:1, 6:5:0:0:5, 4:0:0:0:0, 2:1:0:0:1, 5:3:0:0:3, 1:2:0:0:2, 2:0:0:0:0, 1:1:0:0:1, 4:0:0:0:0, 4:0:0:0:0, 4:0:1:0:1, 0:0:0:0:0, 2:0:0:0:0, 2:0:0:0:0, 7:3:0:0:3, 2:1:0:0:1, 8:1:0:0:1, 4:0:0:0:0, 5:0:1:0:1, 3:0:0:0:0, 5:0:2:0:2, 1:0:0:0:0, 4:4:0:0:4, 1:3:0:0:3, 2:0:0:0:0, 1:0:0:0:0, 5:0:0:0:0, 3:0:0:0:0, 5:0:2:0:2, 1:0:0:0:0, 6:8:0:0:8, 4:6:0:0:6, 5:12:0:0:12, 5:3:0:0:3, 3:1:0:0:1, 5:3:0:0:3, 4:0:0:0:0, 5:2:0:0:2, 6:3:0:0:3, 3:1:0:0:1, 4:0:0:0:0, 3:0:0:0:0, 4:0:0:0:0, 3:0:0:0:0, 9:2:1:0:3, 1:0:0:0:0, 6:0:0:0:0, 2:0:0:0:0, 5:2:0:0:2, 2:1:0:0:1, 2:0:0:0:0, 1:0:0:0:0, 5:0:0:0:0, 3:0:0:0:0, 7:1:1:0:2, 2:0:0:0:0, 10:2:0:0:2, 4:3:0:0:3, 4:1:0:0:1, 3:1:0:0:1, 7:0:0:0:0, 3:0:0:0:0, 7:0:1:0:1, 3:1:0:0:1, 4:9:0:0:9, 5:8:0:0:8, 8:9:0:0:9, 5:3:0:0:3, 4:2:0:0:2, 6:3:0:0:3, 5:0:0:0:0, 4:2:0:0:2, 4:2:0:0:2, 2:2:0:0:2, 4:0:0:0:0, 3:0:0:0:0, 4:0:0:0:0, 3:0:0:0:0, 5:0:1:0:1, 1:0:0:0:0, 2:0:0:0:0, 2:0:0:0:0, 2:0:0:0:0, 2:0:0:0:0, 2:0:0:0:0, 8:2:0:0:2, 13:8:2:0:8, 3:0:0:0:0, 0:0:0:0:0, 668:270:26:0:291
G major (1#), 1:0:0:0:0, 2:0:0:0:1, 0:0:0:0:0, 4:1:0:0:1, 1:0:0:0:0, 7:11:1:0:5, 4:7:0:0:1, 5:6:1:0:2, 1:0:0:0:0, 2:0:0:0:1, 0:0:0:0:0, 2:1:0:0:0, 1:0:0:0:0, 6:10:0:0:4, 4:7:0:0:1, 5:6:1:0:2, 1:0:0:0:1, 2:0:0:0:2, 2:0:0:0:4, 3:0:1:0:2, 2:0:0:0:6, 3:1:0:0:1, 5:1:0:0:1, 3:2:0:0:0, 5:1:0:0:1, 2:0:0:0:1, 0:0:0:0:0, 2:1:0:0:0, 1:0:0:0:0, 7:11:1:0:5, 4:6:0:0:1, 5:6:1:0:2, 4:1:0:0:1, 3:2:0:0:0, 1:0:0:0:0, 5:0:0:0:3, 2:0:0:0:0, 6:1:0:0:1, 2:0:0:0:2, 7:12:0:0:3, 6:8:0:0:1, 7:7:3:0:4, 0:0:0:0:0, 4:0:0:0:5, 2:0:0:0:4, 4:1:0:0:0, 2:0:0:0:1, 7:10:0:0:2, 5:7:0:0:1, 8:8:1:0:3, 0:0:0:0:0, 4:0:1:0:4, 3:0:1:0:6, 6:0:0:0:4, 4:0:0:0:5, 7:1:0:0:1, 5:1:0:0:0, 3:4:0:0:0, 10:4:1:0:2, 6:0:0:0:3, 4:2:0:0:2, 3:1:0:0:0, 3:1:0:0:0, 6:13:0:0:5, 6:8:0:0:1, 8:6:1:0:3, 2:1:0:0:0, 4:5:0:0:1, 2:0:0:0:5, 2:0:0:0:3, 0:0:0:0:0, 3:1:0:0:1, 1:0:0:0:0, 6:10:0:0:4, 5:8:0:0:1, 4:5:1:0:2, 0:0:0:0:0, 2:0:0:0:3, 0:0:0:0:0, 4:1:0:0:1, 1:0:0:0:0, 7:11:0:0:5, 4:5:0:0:1, 7:6:1:0:3, 0:0:0:0:0, 2:0:0:0:2, 3:0:0:0:4, 3:0:0:0:4, 3:0:0:0:5, 3:2:0:0:0, 5:1:0:0:0, 4:2:0:0:0, 4:1:0:0:0, 3:0:0:0:2, 1:0:1:0:1, 2:3:0:0:0, 3:1:0:0:1, 6:13:0:0:4, 6:9:0:0:1, 4:5:1:0:3, 2:1:0:0:0, 4:7:0:0:0, 4:0:0:0:3, 5:0:0:0:2, 0:0:0:0:0, 8:3:0:0:1, 2:0:0:0:1, 7:13:1:0:4, 5:11:0:0:2, 5:7:2:0:3, 0:0:0:0:0, 2:0:0:0:3, 0:0:0:0:0, 2:1:0:0:0, 1:0:0:0:0, 7:10:0:0:5, 5:11:0:0:1, 5:10:2:0:4, 0:0:0:0:0, 4:0:0:0:4, 2:0:0:0:6, 3:0:0:0:5, 3:0:0:0:3, 2:3:0:0:0, 5:2:0:0:0, 4:2:0:0:0, 7:2:0:0:1, 4:0:0:0:3, 1:1:0:0:0, 4:2:0:0:0, 5:1:0:0:1, 6:12:0:0:4, 5:5:0:0:2, 9:7:1:0:5, 3:3:0:0:1, 6:6:0:0:0, 3:1:0:0:1, 3:0:0:0:2, 0:0:0:0:0, 2:1:0:0:0, 1:0:0:0:0, 7:11:0:0:4, 5:10:0:0:1, 7:5:1:0:4, 2:0:0:0:1, 8:1:0:0:5, 4:0:0:0:3, 4:2:0:0:1, 3:0:0:0:2, 9:12:0:0:5, 5:7:0:0:1, 7:9:1:0:2, 2:1:0:0:2, 2:0:0:0:1, 3:0:0:0:5, 6:0:0:0:4, 5:0:0:0:3, 4:2:0:0:0, 4:1:0:0:0, 4:3:0:0:0, 6:2:0:0:1, 2:0:0:0:1, 1:0:0:0:1, 4:1:0:0:0, 5:2:0:0:2, 6:8:0:0:3, 5:8:0:0:1, 5:6:1:0:2, 3:1:0:0:1, 3:2:0:0:0, 3:4:0:0:3, 3:2:0:0:0, 4:3:0:0:3, 3:2:0:0:0, 8:4:0:0:1, 13:3:2:0:5, 5:2:0:0:2, 1:0:0:0:1, 668:502:29:0:307
D minor (1b), 0:0:0:0:0, 4:2:0:0:2, 1:1:0:0:1, 4:0:0:0:0, 1:0:0:0:0, 5:0:1:0:1, 3:0:0:0:0, 5:0:1:0:1, 1:0:0:0:0, 4:2:0:0:2, 1:1:0:0:1, 2:0:0:0:0, 1:0:0:0:0, 4:0:0:0:0, 3:0:0:0:0, 5:0:1:0:1, 2:0:0:0:0, 4:6:0:0:6, 3:4:0:0:4, 5:6:1:0:6, 3:6:0:0:6, 4:2:0:0:2, 6:2:0:0:2, 3:0:0:0:0, 3:1:0:0:1, 4:2:0:0:2, 1:1:0:0:1, 2:0:0:0:0, 1:0:0:0:0, 5:0:1:0:1, 3:0:0:0:0, 5:0:1:0:1, 2:0:0:0:0, 2:0:0:0:0, 0:0:0:0:0, 7:4:0:0:4, 2:3:0:0:3, 6:1:0:0:1, 2:0:0:0:0, 5:0:0:0:0, 4:1:0:0:1, 7:1:3:0:3, 1:0:0:0:0, 6:10:0:0:10, 4:5:0:0:5, 4:0:0:0:0, 2:0:0:0:0, 5:0:0:0:0, 3:0:0:0:0, 8:0:1:0:1, 1:0:0:0:0, 6:10:1:0:10, 4:5:0:0:5, 8:6:0:0:6, 6:5:0:0:5, 8:3:0:0:3, 6:3:0:0:3, 3:0:0:0:0, 9:2:0:0:2, 8:3:0:0:3, 4:2:0:0:2, 3:0:0:0:0, 1:0:0:0:0, 4:0:0:0:0, 6:0:0:0:0, 8:0:1:0:1, 0:0:0:0:0, 2:0:0:0:0, 1:0:0:0:0, 4:4:0:0:4, 1:1:0:0:1, 3:1:0:0:1, 1:0:0:0:0, 4:0:0:0:0, 3:0:0:0:0, 4:0:1:0:1, 1:0:0:0:0, 4:4:0:0:4, 1:1:0:0:1, 4:0:0:0:0, 1:0:0:0:0, 5:0:0:0:0, 3:0:0:0:0, 7:0:1:0:1, 2:1:0:0:1, 4:6:0:0:6, 5:6:0:0:6, 5:9:0:0:9, 5:9:0:0:9, 4:1:0:0:1, 6:5:0:0:5, 4:0:0:0:0, 2:1:0:0:1, 5:3:0:0:3, 1:2:0:0:2, 2:0:0:0:0, 1:1:0:0:1, 4:0:0:0:0, 4:0:0:0:0, 4:0:1:0:1, 0:0:0:0:0, 2:0:0:0:0, 2:0:0:0:0, 7:3:0:0:3, 2:1:0:0:1, 8:1:0:0:1, 4:0:0:0:0, 5:0:1:0:1, 3:0:0:0:0, 5:0:2:0:2, 1:0:0:0:0, 4:4:0:0:4, 1:3:0:0:3, 2:0:0:0:0, 1:0:0:0:0, 5:0:0:0:0, 3:0:0:0:0, 5:0:2:0:2, 1:0:0:0:0, 6:8:0:0:8, 4:6:0:0:6, 5:12:0:0:12, 5:3:0:0:3, 3:1:0:0:1, 5:3:0:0:3, 4:0:0:0:0, 5:2:0:0:2, 6:3:0:0:3, 3:1:0:0:1, 4:0:0:0:0, 3:0:0:0:0, 4:0:0:0:0, 3:0:0:0:0, 9:2:1:0:3, 1:0:0:0:0, 6:0:0:0:0, 2:0:0:0:0, 5:2:0:0:2, 2:1:0:0:1, 2:0:0:0:0, 1:0:0:0:0, 5:0:0:0:0, 3:0:0:0:0, 7:1:1:0:2, 2:0:0:0:0, 10:2:0:0:2, 4:3:0:0:3, 4:1:0:0:1, 3:1:0:0:1, 7:0:0:0:0, 3:0:0:0:0, 7:0:1:0:1, 3:1:0:0:1, 4:9:0:0:9, 5:8:0:0:8, 8:9:0:0:9, 5:3:0:0:3, 4:2:0:0:2, 6:3:0:0:3, 5:0:0:0:0, 4:2:0:0:2, 4:2:0:0:2, 2:2:0:0:2, 4:0:0:0:0, 3:0:0:0:0, 4:0:0:0:0, 3:0:0:0:0, 5:0:1:0:1, 1:0:0:0:0, 2:0:0:0:0, 2:0:0:0:0, 2:0:0:0:0, 2:0:0:0:0, 2:0:0:0:0, 8:2:0:0:2, 13:8:2:0:8, 3:0:0:0:0, 0:0:0:0:0, 668:270:26:0:291
E minor (1#), 1:0:0:0:0, 2:0:0:0:1, 0:0:0:0:0, 4:1:0:0:1, 1:0:0:0:0, 7:11:1:0:5, 4:7:0:0:1, 5:6:1:0:2, 1:0:0:0:0, 2:0:0:0:1, 0:0:0:0:0, 2:1:0:0:0, 1:0:0:0:0, 6:10:0:0:4, 4:7:0:0:1, 5:6:1:0:2, 1:0:0:0:1, 2:0:0:0:2, 2:0:0:0:4, 3:0:1:0:2, 2:0:0:0:6, 3:1:0:0:1, 5:1:0:0:1, 3:2:0:0:0, 5:1:0:0:1, 2:0:0:0:1, 0:0:0:0:0, 2:1:0:0:0, 1:0:0:0:0, 7:11:1:0:5, 4:6:0:0:1, 5:6:1:0:2, 4:1:0:0:1, 3:2:0:0:0, 1:0:0:0:0, 5:0:0:0:3, 2:0:0:0:0, 6:1:0:0:1, 2:0:0:0:2, 7:12:0:0:3, 6:8:0:0:1, 7:7:3:0:4, 0:0:0:0:0, 4:0:0:0:5, 2:0:0:0:4, 4:1:0:0:0, 2:0:0:0:1, 7:10:0:0:2, 5:7:0:0:1, 8:8:1:0:3, 0:0:0:0:0, 4:0:1:0:4, 3:0:1:0:6, 6:0:0:0:4, 4:0:0:0:5, 7:1:0:0:1, 5:1:0:0:0, 3:4:0:0:0, 10:4:1:0:2, 6:0:0:0:3, 4:2:0:0:2, 3:1:0:0:0, 3:1:0:0:0, 6:13:0:0:5, 6:8:0:0:1, 8:6:1:0:3, 2:1:0:0:0, 4:5:0:0:1, 2:0:0:0:5, 2:0:0:0:3, 0:0:0:0:0, 3:1:0:0:1, 1:0:0:0:0, 6:10:0:0:4, 5:8:0:0:1, 4:5:1:0:2, 0:0:0:0:0, 2:0:0:0:3, 0:0:0:0:0, 4:1:0:0:1, 1:0:0:0:0, 7:11:0:0:5, 4:5:0:0:1, 7:6:1:0:3, 0:0:0:0:0, 2:0:0:0:2, 3:0:0:0:4, 3:0:0:0:4, 3:0:0:0:5, 3:2:0:0:0, 5:1:0:0:0, 4:2:0:0:0, 4:1:0:0:0, 3:0:0:0:2, 1:0:1:0:1, 2:3:0:0:0, 3:1:0:0:1, 6:13:0:0:4, 6:9:0:0:1, 4:5:1:0:3, 2:1:0:0:0, 4:7:0:0:0, 4:0:0:0:3, 5:0:0:0:2, 0:0:0:0:0, 8:3:0:0:1, 2:0:0:0:1, 7:13:1:0:4, 5:11:0:0:2, 5:7:2:0:3, 0:0:0:0:0, 2:0:0:0:3, 0:0:0:0:0, 2:1:0:0:0, 1:0:0:0:0, 7:10:0:0:5, 5:11:0:0:1, 5:10:2:0:4, 0:0:0:0:0, 4:0:0:0:4, 2:0:0:0:6, 3:0:0:0:5, 3:0:0:0:3, 2:3:0:0:0, 5:2:0:0:0, 4:2:0:0:0, 7:2:0:0:1, 4:0:0:0:3, 1:1:0:0:0, 4:2:0:0:0, 5:1:0:0:1, 6:12:0:0:4, 5:5:0:0:2, 9:7:1:0:5, 3:3:0:0:1, 6:6:0:0:0, 3:1:0:0:1, 3:0:0:0:2, 0:0:0:0:0, 2:1:0:0:0, 1:0:0:0:0, 7:11:0:0:4, 5:10:0:0:1, 7:5:1:0:4, 2:0:0:0:1, 8:1:0:0:5, 4:0:0:0:3, 4:2:0:0:1, 3:0:0:0:2, 9:12:0:0:5, 5:7:0:0:1, 7:9:1:0:2, 2:1:0:0:2, 2:0:0:0:1, 3:0:0:0:5, 6:0:0:0:4, 5:0:0:0:3, 4:2:0:0:0, 4:1:0:0:0, 4:3:0:0:0, 6:2:0:0:1, 2:0:0:0:1, 1:0:0:0:1, 4:1:0:0:0, 5:2:0:0:2, 6:8:0:0:3, 5:8:0:0:1, 5:6:1:0:2, 3:1:0:0:1, 3:2:0:0:0, 3:4:0:0:3, 3:2:0:0:0, 4:3:0:0:3, 3:2:0:0:0, 8:4:0:0:1, 13:3:2:0:5, 5:2:0:0:2, 1:0:0:0:1, 668:502:29:0:307
Bb major (2b), 0:0:0:0:0, 5:2:0:0:5, 2:1:0:0:1, 3:0:0:0:1, 2:0:0:0:1, 4:0:1:0:0, 2:0:0:0:0, 5:0:1:0:1, 2:0:0:0:1, 5:2:0:0:4, 2:1:0:0:1, 3:0:0:0:1, 2:0:0:0:1, 3:0:0:0:0, 2:0:0:0:0, 5:0:1:0:1, 3:0:0:0:1, 5:6:0:0:8, 4:4:0:0:5, 6:6:1:0:8, 4:6:0:0:7, 5:2:0:0:3, 5:2:0:0:2, 4:0:0:0:1, 4:1:0:0:1, 5:2:0:0:5, 2:1:0:0:1, 3:0:0:0:1, 2:0:0:0:1, 4:0:1:0:0, 2:0:0:0:0, 5:0:1:0:1, 2:0:0:0:0, 1:0:0:0:0, 0:0:0:0:0, 8:4:0:0:8, 3:3:0:0:6, 7:1:0:0:3, 3:0:0:0:1, 4:0:0:0:0, 3:1:0:0:1, 7:1:3:0:2, 2:0:0:0:2, 7:10:0:0:12, 5:5:0:0:8, 5:0:0:0:1, 3:0:0:0:3, 4:0:0:0:0, 2:0:0:0:0, 7:0:1:0:2, 2:0:0:0:2, 7:10:1:0:12, 5:5:0:0:6, 9:6:0:0:9, 7:5:0:0:8, 9:3:0:0:5, 5:3:0:0:3, 4:0:0:0:1, 10:2:0:0:4, 9:3:0:0:7, 5:2:0:0:4, 4:0:0:0:2, 2:0:0:0:2, 3:0:0:0:0, 5:0:0:0:0, 7:0:1:0:1, 0:0:0:0:0, 1:0:0:0:0, 1:0:0:0:0, 5:4:0:0:6, 2:1:0:0:1, 3:0:0:0:1, 2:0:0:0:2, 3:0:0:0:0, 2:0:0:0:0, 4:0:1:0:2, 2:0:0:0:1, 5:4:0:0:6, 2:1:0:0:1, 5:0:0:0:1, 2:0:0:0:2, 4:0:0:0:0, 2:0:0:0:0, 6:0:1:0:2, 3:1:0:0:2, 5:6:0:0:7, 6:6:0:0:7, 6:9:0:0:13, 6:9:0:0:11, 5:1:0:0:2, 6:5:1:0:6, 5:0:0:0:1, 3:1:0:0:1, 6:3:0:0:6, 2:2:0:0:2, 3:0:0:0:2, 2:1:0:0:1, 3:0:0:0:0, 3:0:0:0:0, 4:0:1:0:2, 1:0:0:0:0, 1:0:0:0:0, 1:0:0:0:0, 8:3:0:0:5, 3:1:0:0:3, 7:1:0:0:3, 5:0:0:0:4, 4:0:1:0:1, 2:0:0:0:0, 5:0:2:0:1, 2:0:0:0:1, 5:4:0:0:6, 2:3:0:0:3, 2:0:0:0:3, 2:0:0:0:1, 4:0:0:0:0, 2:0:0:0:0, 5:0:2:0:2, 2:0:0:0:1, 7:8:0:0:9, 5:6:0:0:10, 6:12:0:0:15, 6:3:0:0:5, 4:1:0:0:2, 5:3:1:0:4, 5:0:0:0:1, 6:2:0:0:2, 7:3:0:0:6, 4:1:0:0:2, 4:0:0:0:2, 4:0:0:0:1, 3:0:0:0:0, 2:0:0:0:0, 9:2:1:0:3, 2:0:0:0:0, 5:0:0:0:1, 1:0:0:0:0, 6:2:0:0:4, 3:1:0:0:2, 3:0:0:0:1, 2:0:0:0:1, 4:0:0:0:1, 2:0:0:0:0, 7:0:1:0:2, 3:0:0:0:1, 11:2:0:0:5, 5:3:0:0:5, 5:1:0:0:2, 4:1:0:0:3, 6:0:0:0:1, 2:0:0:0:0, 6:0:1:0:2, 4:1:0:0:2, 5:9:0:0:10, 6:8:0:0:9, 9:9:0:0:11, 6:3:0:0:6, 5:2:0:0:3, 5:3:0:0:4, 6:0:0:0:1, 5:2:0:0:2, 5:2:0:0:4, 3:2:0:0:2, 5:0:0:0:1, 4:0:0:0:0, 3:0:0:0:0, 2:0:0:0:0, 4:0:1:0:1, 2:0:0:0:0, 1:0:0:0:0, 3:0:0:0:0, 1:0:0:0:0, 3:0:0:0:0, 1:0:0:0:0, 9:2:0:0:4, 14:8:2:0:9, 2:0:0:0:0, 0:0:0:0:0, 725:268:28:0:462
D major (2#), 2:0:0:0:0, 2:0:0:0:0, 1:0:0:0:0, 5:1:0:0:2, 2:0:0:0:0, 7:11:1:0:6, 5:7:0:0:5, 5:6:1:0:5, 2:0:0:0:0, 2:0:0:0:0, 1:0:0:0:0, 3:1:0:0:1, 2:0:0:0:0, 7:10:0:0:5, 5:7:0:0:5, 5:6:1:0:5, 2:0:0:0:1, 1:0:0:0:2, 2:0:0:0:3, 2:0:1:0:2, 2:0:0:0:1, 2:1:0:0:1, 4:1:0:0:0, 3:2:0:0:1, 4:1:0:0:1, 2:0:0:0:0, 1:0:0:0:0, 3:1:0:0:1, 2:0:0:0:0, 7:11:1:0:6, 5:6:0:0:4, 5:6:1:0:5, 5:1:0:0:0, 4:2:0:0:1, 1:0:0:0:0, 4:0:0:0:1, 3:0:0:0:0, 7:1:0:0:2, 3:0:0:0:2, 8:11:0:0:5, 7:8:0:0:3, 7:7:3:0:7, 1:0:0:0:0, 3:0:0:0:4, 3:0:0:0:0, 5:1:0:0:1, 3:0:0:0:1, 8:10:0:0:4, 6:7:0:0:4, 8:8:1:0:7, 1:0:0:0:0, 3:0:1:0:2, 3:0:1:0:5, 5:0:0:0:2, 4:0:0:0:3, 6:1:0:0:0, 4:1:0:0:0, 4:4:0:0:2, 9:4:1:0:1, 5:0:0:0:1, 5:2:0:0:0, 4:1:0:0:1, 4:1:0:0:0, 7:11:0:0:4, 7:8:0:0:5, 8:6:1:0:6, 3:1:0:0:0, 5:5:0:0:3, 2:0:0:0:2, 2:0:0:0:0, 1:0:0:0:0, 4:1:0:0:2, 2:0:0:0:0, 7:10:0:0:5, 6:8:0:0:5, 4:5:1:0:5, 1:0:0:0:0, 2:0:0:0:0, 1:0:0:0:0, 5:1:0:0:1, 2:0:0:0:0, 7:8:0:0:5, 5:5:0:0:3, 7:7:4:0:10, 1:0:0:0:0, 1:0:0:0:2, 2:0:0:0:2, 2:0:0:0:2, 2:0:0:0:2, 2:2:0:0:0, 4:1:0:0:0, 4:2:0:0:1, 3:1:0:0:0, 3:0:0:0:1, 2:0:1:0:1, 3:3:0:0:3, 4:1:0:0:1, 7:11:0:0:4, 7:9:0:0:6, 4:5:1:0:5, 3:1:0:0:0, 5:7:0:0:4, 5:0:0:0:2, 4:0:0:0:0, 1:0:0:0:0, 9:3:0:0:3, 3:0:0:0:0, 8:12:1:0:5, 6:11:0:0:6, 6:7:2:0:6, 1:0:0:0:0, 2:0:0:0:0, 1:0:0:0:0, 3:1:0:0:1, 2:0:0:0:0, 8:10:0:0:5, 6:11:0:0:7, 6:10:2:0:8, 1:0:0:0:0, 3:0:0:0:4, 2:0:0:0:3, 2:0:0:0:2, 2:0:0:0:1, 1:3:0:0:0, 4:2:0:0:0, 4:2:0:0:1, 6:2:0:0:0, 5:0:0:0:1, 2:1:0:0:0, 5:2:0:0:2, 6:1:0:0:1, 7:10:0:0:3, 6:5:0:0:4, 9:7:1:0:5, 4:3:0:0:1, 7:6:0:0:3, 4:1:0:0:2, 3:0:0:0:1, 1:0:0:0:0, 3:1:0:0:1, 2:0:0:0:0, 8:9:0:0:3, 6:10:0:0:5, 7:5:1:0:7, 3:0:0:0:1, 9:1:0:0:3, 5:0:0:0:2, 5:2:0:0:3, 4:0:0:0:1, 9:13:1:0:9, 6:7:0:0:3, 7:9:1:0:6, 3:1:0:0:2, 1:0:0:0:1, 2:0:0:0:2, 5:0:0:0:2, 4:0:0:0:2, 3:2:0:0:0, 3:1:0:0:0, 4:3:0:0:1, 5:2:0:0:1, 2:0:0:0:0, 2:0:0:0:0, 5:1:0:0:1, 6:2:0:0:2, 7:8:0:0:4, 6:8:0:0:3, 5:6:1:0:4, 4:1:0:0:1, 4:2:0:0:1, 4:4:0:0:2, 4:2:0:0:1, 5:3:0:0:2, 4:2:0:0:1, 9:4:0:0:3, 12:3:2:0:5, 6:2:0:0:3, 1:0:0:0:1, 738:491:33:0:377
G minor (2b), 0:0:0:0:0, 5:2:0:0:5, 2:1:0:0:1, 3:0:0:0:1, 2:0:0:0:1, 4:0:1:0:0, 2:0:0:0:0, 5:0:1:0:1, 2:0:0:0:1, 5:2:0:0:4, 2:1:0:0:1, 3:0:0:0:1, 2:0:0:0:1, 3:0:0:0:0, 2:0:0:0:0, 5:0:1:0:1, 3:0:0:0:1, 5:6:0:0:8, 4:4:0:0:5, 6:6:1:0:8, 4:6:0:0:7, 5:2:0:0:3, 5:2:0:0:2, 4:0:0:0:1, 4:1:0:0:1, 5:2:0:0:5, 2:1:0:0:1, 3:0:0:0:1, 2:0:0:0:1, 4:0:1:0:0, 2:0:0:0:0, 5:0:1:0:1, 2:0:0:0:0, 1:0:0:0:0, 0:0:0:0:0, 8:4:0:0:8, 3:3:0:0:6, 7:1:0:0:3, 3:0:0:0:1, 4:0:0:0:0, 3:1:0:0:1, 7:1:3:0:2, 2:0:0:0:2, 7:10:0:0:12, 5:5:0:0:8, 5:0:0:0:1, 3:0:0:0:3, 4:0:0:0:0, 2:0:0:0:0, 7:0:1:0:2, 2:0:0:0:2, 7:10:1:0:12, 5:5:0:0:6, 9:6:0:0:9, 7:5:0:0:8, 9:3:0:0:5, 5:3:0:0:3, 4:0:0:0:1, 10:2:0:0:4, 9:3:0:0:7, 5:2:0:0:4, 4:0:0:0:2, 2:0:0:0:2, 3:0:0:0:0, 5:0:0:0:0, 7:0:1:0:1, 0:0:0:0:0, 1:0:0:0:0, 1:0:0:0:0, 5:4:0:0:6, 2:1:0:0:1, 3:0:0:0:1, 2:0:0:0:2, 3:0:0:0:0, 2:0:0:0:0, 4:0:1:0:2, 2:0:0:0:1, 5:4:0:0:6, 2:1:0:0:1, 5:0:0:0:1, 2:0:0:0:2, 4:0:0:0:0, 2:0:0:0:0, 6:0:1:0:2, 3:1:0:0:2, 5:6:0:0:7, 6:6:0:0:7, 6:9:0:0:13, 6:9:0:0:11, 5:1:0:0:2, 6:5:1:0:6, 5:0:0:0:1, 3:1:0:0:1, 6:3:0:0:6, 2:2:0:0:2, 3:0:0:0:2, 2:1:0:0:1, 3:0:0:0:0, 3:0:0:0:0, 4:0:1:0:2, 1:0:0:0:0, 1:0:0:0:0, 1:0:0:0:0, 8:3:0:0:5, 3:1:0:0:3, 7:1:0:0:3, 5:0:0:0:4, 4:0:1:0:1, 2:0:0:0:0, 5:0:2:0:1, 2:0:0:0:1, 5:4:0:0:6, 2:3:0:0:3, 2:0:0:0:3, 2:0:0:0:1, 4:0:0:0:0, 2:0:0:0:0, 5:0:2:0:2, 2:0:0:0:1, 7:8:0:0:9, 5:6:0:0:10, 6:12:0:0:15, 6:3:0:0:5, 4:1:0:0:2, 5:3:1:0:4, 5:0:0:0:1, 6:2:0:0:2, 7:3:0:0:6, 4:1:0:0:2, 4:0:0:0:2, 4:0:0:0:1, 3:0:0:0:0, 2:0:0:0:0, 9:2:1:0:3, 2:0:0:0:0, 5:0:0:0:1, 1:0:0:0:0, 6:2:0:0:4, 3:1:0:0:2, 3:0:0:0:1, 2:0:0:0:1, 4:0:0:0:1, 2:0:0:0:0, 7:0:1:0:2, 3:0:0:0:1, 11:2:0:0:5, 5:3:0:0:5, 5:1:0:0:2, 4:1:0:0:3, 6:0:0:0:1, 2:0:0:0:0, 6:0:1:0:2, 4:1:0:0:2, 5:9:0:0:10, 6:8:0:0:9, 9:9:0:0:11, 6:3:0:0:6, 5:2:0:0:3, 5:3:0:0:4, 6:0:0:0:1, 5:2:0:0:2, 5:2:0:0:4, 3:2:0:0:2, 5:0:0:0:1, 4:0:0:0:0, 3:0:0:0:0, 2:0:0:0:0, 4:0:1:0:1, 2:0:0:0:0, 1:0:0:0:0, 3:0:0:0:0, 1:0:0:0:0, 3:0:0:0:0, 1:0:0:0:0, 9:2:0:0:4, 14:8:2:0:9, 2:0:0:0:0, 0:0:0:0:0, 725:268:28:0:462
B minor (2#), 2:0:0:0:0, 2:0:0:0:0, 1:0:0:0:0, 5:1:0:0:2, 2:0:0:0:0, 7:11:1:0:6, 5:7:0:0:5, 5:6:1:0:5, 2:0:0:0:0, 2:0:0:0:0, 1:0:0:0:0, 3:1:0:0:1, 2:0:0:0:0, 7:10:0:0:5, 5:7:0:0:5, 5:6:1:0:5, 2:0:0:0:1, 1:0:0:0:2, 2:0:0:0:3, 2:0:1:0:2, 2:0:0:0:1, 2:1:0:0:1, 4:1:0:0:0, 3:2:0:0:1, 4:1:0:0:1, 2:0:0:0:0, 1:0:0:0:0, 3:1:0:0:1, 2:0:0:0:0, 7:11:1:0:6, 5:6:0:0:4, 5:6:1:0:5, 5:1:0:0:0, 4:2:0:0:1, 1:0:0:0:0, 4:0:0:0:1, 3:0:0:0:0, 7:1:0:0:2, 3:0:0:0:2, 8:11:0:0:5, 7:8:0:0:3, 7:7:3:0:7, 1:0:0:0:0, 3:0:0:0:4, 3:0:0:0:0, 5:1:0:0:1, 3:0:0:0:1, 8:10:0:0:4, 6:7:0:0:4, 8:8:1:0:7, 1:0:0:0:0, 3:0:1:0:2, 3:0:1:0:5, 5:0:0:0:2, 4:0:0:0:3, 6:1:0:0:0, 4:1:0:0:0, 4:4:0:0:2, 9:4:1:0:1, 5:0:0:0:1, 5:2:0:0:0, 4:1:0:0:1, 4:1:0:0:0, 7:11:0:0:4, 7:8:0:0:5, 8:6:1:0:6, 3:1:0:0:0, 5:5:0:0:3, 2:0:0:0:2, 2:0:0:0:0, 1:0:0:0:0, 4:1:0:0:2, 2:0:0:0:0, 7:10:0:0:5, 6:8:0:0:5, 4:5:1:0:5, 1:0:0:0:0, 2:0:0:0:0, 1:0:0:0:0, 5:1:0:0:1, 2:0:0:0:0, 7:8:0:0:5, 5:5:0:0:3, 7:7:4:0:10, 1:0:0:0:0, 1:0:0:0:2, 2:0:0:0:2, 2:0:0:0:2, 2:0:0:0:2, 2:2:0:0:0, 4:1:0:0:0, 4:2:0:0:1, 3:1:0:0:0, 3:0:0:0:1, 2:0:1:0:1, 3:3:0:0:3, 4:1:0:0:1, 7:11:0:0:4, 7:9:0:0:6, 4:5:1:0:5, 3:1:0:0:0, 5:7:0:0:4, 5:0:0:0:2, 4:0:0:0:0, 1:0:0:0:0, 9:3:0:0:3, 3:0:0:0:0, 8:12:1:0:5, 6:11:0:0:6, 6:7:2:0:6, 1:0:0:0:0, 2:0:0:0:0, 1:0:0:0:0, 3:1:0:0:1, 2:0:0:0:0, 8:10:0:0:5, 6:11:0:0:7, 6:10:2:0:8, 1:0:0:0:0, 3:0:0:0:4, 2:0:0:0:3, 2:0:0:0:2, 2:0:0:0:1, 1:3:0:0:0, 4:2:0:0:0, 4:2:0:0:1, 6:2:0:0:0, 5:0:0:0:1, 2:1:0:0:0, 5:2:0:0:2, 6:1:0:0:1, 7:10:0:0:3, 6:5:0:0:4, 9:7:1:0:5, 4:3:0:0:1, 7:6:0:0:3, 4:1:0:0:2, 3:0:0:0:1, 1:0:0:0:0, 3:1:0:0:1, 2:0:0:0:0, 8:9:0:0:3, 6:10:0:0:5, 7:5:1:0:7, 3:0:0:0:1, 9:1:0:0:3, 5:0:0:0:2, 5:2:0:0:3, 4:0:0:0:1, 9:13:1:0:9, 6:7:0:0:3, 7:9:1:0:6, 3:1:0:0:2, 1:0:0:0:1, 2:0:0:0:2, 5:0:0:0:2, 4:0:0:0:2, 3:2:0:0:0, 3:1:0:0:0, 4:3:0:0:1, 5:2:0:0:1, 2:0:0:0:0, 2:0:0:0:0, 5:1:0:0:1, 6:2:0:0:2, 7:8:0:0:4, 6:8:0:0:3, 5:6:1:0:4, 4:1:0:0:1, 4:2:0:0:1, 4:4:0:0:2, 4:2:0:0:1, 5:3:0:0:2, 4:2:0:0:1, 9:4:0:0:3, 12:3:2:0:5, 6:2:0:0:3, 1:0:0:0:1, 738:491:33:0:377
Eb major (3b), 0:0:0:0:0, 6:2:0:0:8, 3:1:0:0:2, 4:0:0:0:3, 3:0:0:0:4, 3:0:1:0:0, 1:0:0:0:0, 4:0:1:0:1, 2:0:0:0:3, 6:2:0:0:7, 3:1:0:0:2, 4:0:0:0:3, 3:0:0:0:5, 2:0:0:0:0, 1:0:0:0:0, 4:0:1:0:1, 3:0:0:0:2, 6:6:0:0:9, 4:4:0:0:6, 7:6:1:0:9, 4:2:0:0:4, 6:2:0:0:6, 6:2:0:0:2, 3:0:0:0:2, 5:1:0:0:3, 6:2:0:0:8, 3:1:0:0:2, 4:0:0:0:3, 3:0:0:0:4, 3:0:1:0:0, 1:0:0:0:0, 4:0:1:0:1, 1:0:0:0:0, 0:0:0:0:0, 0:0:0:0:0, 9:4:0:0:11, 4:3:0:0:10, 8:1:0:0:6, 4:0:0:0:4, 3:0:0:0:0, 2:1:0:0:1, 6:1:3:0:2, 3:0:0:0:4, 8:10:0:0:13, 6:5:0:0:12, 6:0:0:0:3, 4:0:0:0:5, 3:0:0:0:0, 1:0:0:0:0, 6:0:1:0:2, 3:0:0:0:4, 8:10:1:0:14, 5:5:0:0:7, 10:6:0:0:11, 8:5:0:0:11, 10:3:0:0:10, 6:3:0:0:3, 3:0:0:0:4, 11:2:0:0:6, 10:3:0:0:10, 6:2:0:0:7, 5:0:0:0:5, 3:0:0:0:6, 2:0:0:0:0, 4:0:0:0:1, 6:0:1:0:1, 0:0:0:0:0, 0:0:0:0:0, 0:0:0:0:0, 6:4:0:0:8, 3:1:0:0:2, 4:0:0:0:3, 3:0:0:0:5, 2:0:0:0:0, 1:0:0:0:0, 3:0:1:0:2, 2:0:0:0:3, 6:4:0:0:9, 3:1:0:0:2, 6:0:0:0:2, 3:0:0:0:5, 3:0:0:0:0, 1:0:0:0:0, 5:0:1:0:2, 3:1:0:0:3, 6:6:0:0:12, 6:3:0:0:8, 7:9:0:0:14, 7:9:0:0:13, 6:1:0:0:4, 7:5:1:0:5, 4:0:0:0:2, 4:1:0:0:3, 7:3:0:0:8, 3:2:0:0:3, 4:0:0:0:3, 3:1:0:0:4, 2:0:0:0:0, 2:0:0:0:0, 3:0:1:0:2, 1:0:0:0:1, 0:0:0:0:0, 0:0:0:0:0, 9:3:0:0:7, 4:1:0:0:6, 8:1:0:0:3, 6:0:0:0:8, 3:0:1:0:0, 1:0:0:0:0, 4:0:2:0:1, 2:0:0:0:3, 6:4:0:0:7, 3:3:0:0:4, 3:0:0:0:3, 3:0:0:0:4, 3:0:0:0:0, 1:0:0:0:0, 4:0:2:0:2, 2:0:0:0:3, 8:8:0:0:11, 6:5:0:0:12, 7:12:0:0:18, 7:3:0:0:6, 5:1:0:0:4, 6:3:1:0:3, 4:0:0:0:2, 7:2:0:0:4, 8:3:0:0:9, 5:1:0:0:4, 5:0:0:0:2, 5:0:0:0:4, 2:0:0:0:0, 1:0:0:0:0, 8:2:1:0:3, 3:0:0:0:1, 4:0:0:0:1, 0:0:0:0:0, 7:2:0:0:5, 4:1:0:0:5, 4:0:0:0:3, 3:0:0:0:4, 3:0:0:0:1, 1:0:0:0:0, 6:0:1:0:3, 3:0:0:0:4, 12:2:0:0:7, 6:3:0:0:9, 6:1:0:0:3, 5:1:0:0:7, 5:0:0:0:1, 1:0:0:0:0, 5:0:1:0:2, 5:1:0:0:5, 6:9:0:0:12, 7:3:0:0:6, 10:9:0:0:13, 7:3:0:0:8, 6:2:0:0:5, 6:3:0:0:4, 5:0:0:0:3, 6:2:0:0:4, 6:2:0:0:7, 4:2:0:0:3, 6:0:0:0:2, 5:0:0:0:3, 2:0:0:0:0, 1:0:0:0:0, 3:0:1:0:1, 2:0:0:0:1, 0:0:0:0:0, 2:0:0:0:1, 0:0:0:0:0, 2:0:0:0:1, 0:0:0:0:0, 10:2:0:0:5, 15:8:2:0:10, 1:0:0:0:0, 0:0:0:0:0, 758:255:28:0:684
A major (3#), 2:0:0:0:0, 1:0:0:0:0, 2:0:0:0:0, 6:1:0:0:1, 3:0:0:0:0, 8:11:1:0:9, 6:7:0:0:7, 6:6:1:0:5, 3:0:0:0:0, 1:0:0:0:0, 2:0:0:0:0, 4:1:0:0:1, 3:0:0:0:0, 8:10:0:0:8, 6:7:0:0:7, 6:6:1:0:5, 3:0:0:0:1, 1:0:0:0:0, 1:0:0:0:0, 2:0:1:0:1, 1:0:0:0:0, 3:1:0:0:0, 3:1:0:0:1, 4:2:0:0:1, 5:1:0:0:0, 1:0:0:0:0, 2:0:0:0:0, 4:1:0:0:1, 3:0:0:0:0, 8:11:1:0:9, 6:6:0:0:6, 6:6:1:0:5, 6:1:0:0:0, 4:2:0:0:2, 1:0:0:0:0, 3:0:0:0:1, 4:0:0:0:0, 8:1:0:0:2, 4:0:0:0:0, 9:10:0:0:6, 8:8:0:0:5, 8:7:3:0:7, 2:0:0:0:0, 2:0:0:0:4, 4:0:0:0:0, 6:1:0:0:1, 4:0:0:0:0, 9:10:0:0:6, 7:7:0:0:5, 9:8:1:0:8, 2:0:0:0:0, 4:0:1:0:1, 2:0:1:0:1, 6:0:0:0:1, 3:0:0:0:0, 7:1:0:0:0, 5:1:0:0:1, 5:4:0:0:2, 10:4:1:0:3, 6:0:0:0:1, 6:2:0:0:0, 5:1:0:0:1, 5:1:0:0:0, 8:11:0:0:7, 8:8:0:0:6, 9:6:1:0:5, 4:1:0:0:0, 5:4:0:0:5, 1:0:0:0:2, 1:0:0:0:0, 2:0:0:0:0, 5:1:0:0:1, 3:0:0:0:0, 8:10:0:0:8, 7:8:0:0:7, 5:5:1:0:5, 2:0:0:0:0, 1:0:0:0:0, 2:0:0:0:0, 6:1:0:0:1, 3:0:0:0:0, 8:7:0:0:5, 6:5:0:0:5, 8:7:4:0:9, 2:0:0:0:0, 1:0:0:0:0, 1:0:0:0:0, 1:0:0:0:0, 1:0:0:0:0, 3:2:0:0:0, 5:1:0:0:1, 5:2:0:0:1, 4:1:0:0:0, 4:0:0:0:1, 3:0:1:0:1, 4:3:0:0:3, 5:1:0:0:0, 8:10:0:0:7, 8:9:0:0:8, 5:5:1:0:5, 4:1:0:0:0, 5:3:0:0:4, 4:0:0:0:1, 3:0:0:0:0, 2:0:0:0:0, 10:3:0:0:4, 4:0:0:0:0, 9:11:1:0:8, 7:11:0:0:9, 7:7:2:0:6, 2:0:0:0:0, 1:0:0:0:0, 2:0:0:0:0, 4:1:0:0:1, 3:0:0:0:0, 9:10:0:0:7, 7:11:0:0:9, 7:10:2:0:8, 2:0:0:0:0, 3:0:0:0:0, 1:0:0:0:0, 3:0:0:0:0, 1:0:0:0:0, 2:3:0:0:0, 4:2:0:0:1, 5:2:0:0:1, 7:2:0:0:0, 4:0:0:0:1, 3:1:0:0:1, 6:2:0:0:2, 7:1:0:0:0, 8:10:0:0:6, 7:5:0:0:6, 10:7:1:0:5, 5:3:0:0:1, 8:6:0:0:5, 4:0:0:0:0, 2:0:0:0:0, 2:0:0:0:0, 4:1:0:0:1, 3:0:0:0:0, 9:9:0:0:6, 7:10:0:0:7, 8:5:1:0:5, 4:0:0:0:1, 8:1:0:0:1, 6:0:0:0:2, 6:2:0:0:3, 5:0:0:0:0, 10:12:1:0:10, 7:7:0:0:5, 8:9:1:0:8, 4:1:0:0:1, 1:0:0:0:0, 1:0:0:0:0, 4:0:0:0:1, 3:0:0:0:0, 4:2:0:0:0, 3:1:0:0:1, 5:3:0:0:2, 6:2:0:0:0, 1:0:0:0:0, 3:0:0:0:0, 6:1:0:0:1, 7:2:0:0:1, 8:8:0:0:6, 7:8:0:0:6, 6:6:1:0:6, 5:1:0:0:0, 4:2:0:0:2, 5:4:0:0:2, 4:2:0:0:2, 6:3:0:0:2, 4:2:0:0:2, 10:4:0:0:2, 13:3:2:0:6, 6:2:0:0:4, 1:0:0:0:1, 842:480:33:0:402
C minor (3b), 0:0:0:0:0, 6:2:0:0:8, 3:1:0:0:2, 4:0:0:0:3, 3:0:0:0:4, 3:0:1:0:0, 1:0:0:0:0, 4:0:1:0:1, 2:0:0:0:3, 6:2:0:0:7, 3:1:0:0:2, 4:0:0:0:3, 3:0:0:0:5, 2:0:0:0:0, 1:0:0:0:0, 4:0:1:0:1, 3:0:0:0:2, 6:6:0:0:9, 4:4:0:0:6, 7:6:1:0:9, 4:2:0:0:4, 6:2:0:0:6, 6:2:0:0:2, 3:0:0:0:2, 5:1:0:0:3, 6:2:0:0:8, 3:1:0:0:2, 4:0:0:0:3, 3:0:0:0:4, 3:0:1:0:0, 1:0:0:0:0, 4:0:1:0:1, 1:0:0:0:0, 0:0:0:0:0, 0:0:0:0:0, 9:4:0:0:11, 4:3:0:0:10, 8:1:0:0:6, 4:0:0:0:4, 3:0:0:0:0, 2:1:0:0:1, 6:1:3:0:2, 3:0:0:0:4, 8:10:0:0:13, 6:5:0:0:12, 6:0:0:0:3, 4:0:0:0:5, 3:0:0:0:0, 1:0:0:0:0, 6:0:1:0:2, 3:0:0:0:4, 8:10:1:0:14, 5:5:0:0:7, 10:6:0:0:11, 8:5:0:0:11, 10:3:0:0:10, 6:3:0:0:3, 3:0:0:0:4, 11:2:0:0:6, 10:3:0:0:10, 6:2:0:0:7, 5:0:0:0:5, 3:0:0:0:6, 2:0:0:0:0, 4:0:0:0:1, 6:0:1:0:1, 0:0:0:0:0, 0:0:0:0:0, 0:0:0:0:0, 6:4:0:0:8, 3:1:0:0:2, 4:0:0:0:3, 3:0:0:0:5, 2:0:0:0:0, 1:0:0:0:0, 3:0:1:0:2, 2:0:0:0:3, 6:4:0:0:9, 3:1:0:0:2, 6:0:0:0:2, 3:0:0:0:5, 3:0:0:0:0, 1:0:0:0:0, 5:0:1:0:2, 3:1:0:0:3, 6:6:0:0:12, 6:3:0:0:8, 7:9:0:0:14, 7:9:0:0:13, 6:1:0:0:4, 7:5:1:0:5, 4:0:0:0:2, 4:1:0:0:3, 7:3:0:0:8, 3:2:0:0:3, 4:0:0:0:3, 3:1:0:0:4, 2:0:0:0:0, 2:0:0:0:0, 3:0:1:0:2, 1:0:0:0:1, 0:0:0:0:0, 0:0:0:0:0, 9:3:0:0:7, 4:1:0:0:6, 8:1:0:0:3, 6:0:0:0:8, 3:0:1:0:0, 1:0:0:0:0, 4:0:2:0:1, 2:0:0:0:3, 6:4:0:0:7, 3:3:0:0:4, 3:0:0:0:3, 3:0:0:0:4, 3:0:0:0:0, 1:0:0:0:0, 4:0:2:0:2, 2:0:0:0:3, 8:8:0:0:11, 6:5:0:0:12, 7:12:0:0:18, 7:3:0:0:6, 5:1:0:0:4, 6:3:1:0:3, 4:0:0:0:2, 7:2:0:0:4, 8:3:0:0:9, 5:1:0:0:4, 5:0:0:0:2, 5:0:0:0:4, 2:0:0:0:0, 1:0:0:0:0, 8:2:1:0:3, 3:0:0:0:1, 4:0:0:0:1, 0:0:0:0:0, 7:2:0:0:5, 4:1:0:0:5, 4:0:0:0:3, 3:0:0:0:4, 3:0:0:0:1, 1:0:0:0:0, 6:0:1:0:3, 3:0:0:0:4, 12:2:0:0:7, 6:3:0:0:9, 6:1:0:0:3, 5:1:0:0:7, 5:0:0:0:1, 1:0:0:0:0, 5:0:1:0:2, 5:1:0:0:5, 6:9:0:0:12, 7:3:0:0:6, 10:9:0:0:13, 7:3:0:0:8, 6:2:0:0:5, 6:3:0:0:4, 5:0:0:0:3, 6:2:0:0:4, 6:2:0:0:7, 4:2:0:0:3, 6:0:0:0:2, 5:0:0:0:3, 2:0:0:0:0, 1:0:0:0:0, 3:0:1:0:1, 2:0:0:0:1, 0:0:0:0:0, 2:0:0:0:1, 0:0:0:0:0, 2:0:0:0:1, 0:0:0:0:0, 10:2:0:0:5, 15:8:2:0:10, 1:0:0:0:0, 0:0:0:0:0, 758:255:28:0:684
F# minor (3#), 2:0:0:0:0, 1:0:0:0:0, 2:0:0:0:0, 6:1:0:0:1, 3:0:0:0:0, 8:11:1:0:9, 6:7:0:0:7, 6:6:1:0:5, 3:0:0:0:0, 1:0:0:0:0, 2:0:0:0:0, 4:1:0:0:1, 3:0:0:0:0, 8:10:0:0:8, 6:7:0:0:7, 6:6:1:0:5, 3:0:0:0:1, 1:0:0:0:0, 1:0:0:0:0, 2:0:1:0:1, 1:0:0:0:0, 3:1:0:0:0, 3:1:0:0:1, 4:2:0:0:1, 5:1:0:0:0, 1:0:0:0:0, 2:0:0:0:0, 4:1:0:0:1, 3:0:0:0:0, 8:11:1:0:9, 6:6:0:0:6, 6:6:1:0:5, 6:1:0:0:0, 4:2:0:0:2, 1:0:0:0:0, 3:0:0:0:1, 4:0:0:0:0, 8:1:0:0:2, 4:0:0:0:0, 9:10:0:0:6, 8:8:0:0:5, 8:7:3:0:7, 2:0:0:0:0, 2:0:0:0:4, 4:0:0:0:0, 6:1:0:0:1, 4:0:0:0:0, 9:10:0:0:6, 7:7:0:0:5, 9:8:1:0:8, 2:0:0:0:0, 4:0:1:0:1, 2:0:1:0:1, 6:0:0:0:1, 3:0:0:0:0, 7:1:0:0:0, 5:1:0:0:1, 5:4:0:0:2, 10:4:1:0:3, 6:0:0:0:1, 6:2:0:0:0, 5:1:0:0:1, 5:1:0:0:0, 8:11:0:0:7, 8:8:0:0:6, 9:6:1:0:5, 4:1:0:0:0, 5:4:0:0:5, 1:0:0:0:2, 1:0:0:0:0, 2:0:0:0:0, 5:1:0:0:1, 3:0:0:0:0, 8:10:0:0:8, 7:8:0:0:7, 5:5:1:0:5, 2:0:0:0:0, 1:0:0:0:0, 2:0:0:0:0, 6:1:0:0:1, 3:0:0:0:0, 8:7:0:0:5, 6:5:0:0:5, 8:7:4:0:9, 2:0:0:0:0, 1:0:0:0:0, 1:0:0:0:0, 1:0:0:0:0, 1:0:0:0:0, 3:2:0:0:0, 5:1:0:0:1, 5:2:0:0:1, 4:1:0:0:0, 4:0:0:0:1, 3:0:1:0:1, 4:3:0:0:3, 5:1:0:0:0, 8:10:0:0:7, 8:9:0:0:8, 5:5:1:0:5, 4:1:0:0:0, 5:3:0:0:4, 4:0:0:0:1, 3:0:0:0:0, 2:0:0:0:0, 10:3:0:0:4, 4:0:0:0:0, 9:11:1:0:8, 7:11:0:0:9, 7:7:2:0:6, 2:0:0:0:0, 1:0:0:0:0, 2:0:0:0:0, 4:1:0:0:1, 3:0:0:0:0, 9:10:0:0:7, 7:11:0:0:9, 7:10:2:0:8, 2:0:0:0:0, 3:0:0:0:0, 1:0:0:0:0, 3:0:0:0:0, 1:0:0:0:0, 2:3:0:0:0, 4:2:0:0:1, 5:2:0:0:1, 7:2:0:0:0, 4:0:0:0:1, 3:1:0:0:1, 6:2:0:0:2, 7:1:0:0:0, 8:10:0:0:6, 7:5:0:0:6, 10:7:1:0:5, 5:3:0:0:1, 8:6:0:0:5, 4:0:0:0:0, 2:0:0:0:0, 2:0:0:0:0, 4:1:0:0:1, 3:0:0:0:0, 9:9:0:0:6, 7:10:0:0:7, 8:5:1:0:5, 4:0:0:0:1, 8:1:0:0:1, 6:0:0:0:2, 6:2:0:0:3, 5:0:0:0:0, 10:12:1:0:10, 7:7:0:0:5, 8:9:1:0:8, 4:1:0:0:1, 1:0:0:0:0, 1:0:0:0:0, 4:0:0:0:1, 3:0:0:0:0, 4:2:0:0:0, 3:1:0:0:1, 5:3:0:0:2, 6:2:0:0:0, 1:0:0:0:0, 3:0:0:0:0, 6:1:0:0:1, 7:2:0:0:1, 8:8:0:0:6, 7:8:0:0:6, 6:6:1:0:6, 5:1:0:0:0, 4:2:0:0:2, 5:4:0:0:2, 4:2:0:0:2, 6:3:0:0:2, 4:2:0:0:2, 10:4:0:0:2, 13:3:2:0:6, 6:2:0:0:4, 1:0:0:0:1, 842:480:33:0:402
Ab major (4b), 0:0:0:0:0, 7:2:0:0:9, 4:1:0:0:4, 5:0:0:0:4, 4:0:0:0:5, 2:0:1:0:1, 0:0:0:0:0, 5:0:1:0:1, 2:0:0:0:3, 7:2:0:0:8, 4:1:0:0:4, 5:0:0:0:4, 4:0:0:0:6, 1:0:0:0:1, 0:0:0:0:0, 5:0:1:0:1, 3:0:0:0:2, 6:6:0:0:11, 4:4:0:0:6, 7:6:1:0:12, 4:2:0:0:4, 7:2:0:0:7, 7:2:0:0:8, 4:0:0:0:2, 6:1:0:0:5, 7:2:0:0:9, 4:1:0:0:4, 5:0:0:0:4, 4:0:0:0:5, 2:0:1:0:1, 0:0:0:0:0, 5:0:1:0:1, 2:0:0:0:0, 0:0:0:0:0, 0:0:0:0:0, 10:4:0:0:13, 5:3:0:0:14, 9:1:0:0:8, 4:0:0:0:5, 2:0:0:0:1, 1:1:0:0:1, 7:1:3:0:2, 4:0:0:0:6, 9:10:0:0:14, 7:5:0:0:15, 7:0:0:0:6, 5:0:0:0:6, 2:0:0:0:1, 0:0:0:0:0, 7:0:1:0:3, 4:0:0:0:5, 9:9:1:0:16, 5:5:0:0:7, 10:5:0:0:15, 8:5:0:0:13, 11:3:0:0:14, 7:3:0:0:6, 4:0:0:0:4, 11:3:0:0:10, 11:3:0:0:12, 7:2:0:0:11, 6:0:0:0:8, 4:0:0:0:8, 1:0:0:0:1, 3:0:0:0:1, 7:0:1:0:2, 1:0:0:0:0, 1:0:0:0:0, 0:0:0:0:0, 7:4:0:0:11, 4:1:0:0:5, 5:0:0:0:4, 4:0:0:0:6, 1:0:0:0:1, 0:0:0:0:0, 4:0:1:0:2, 2:0:0:0:3, 7:4:0:0:11, 4:1:0:0:7, 7:0:0:0:4, 4:0:0:0:7, 2:0:0:0:1, 0:0:0:0:0, 6:0:1:0:2, 4:1:0:0:3, 7:6:0:0:14, 6:3:0:0:8, 7:9:0:0:18, 7:9:0:0:14, 7:1:0:0:7, 8:5:1:0:11, 5:0:0:0:4, 5:1:0:0:6, 8:3:0:0:9, 4:2:0:0:6, 5:0:0:0:5, 4:1:0:0:6, 1:0:0:0:1, 1:0:0:0:0, 4:0:1:0:2, 2:0:0:0:1, 0:0:0:0:0, 0:0:0:0:0, 10:3:0:0:8, 5:1:0:0:9, 9:1:0:0:5, 7:0:0:0:10, 2:0:1:0:1, 0:0:0:0:0, 5:0:2:0:1, 2:0:0:0:3, 7:4:0:0:12, 4:3:0:0:6, 4:0:0:0:4, 3:0:0:0:5, 2:0:0:0:1, 0:0:0:0:0, 5:0:2:0:2, 2:0:0:0:3, 8:8:0:0:13, 6:5:0:0:13, 7:12:0:0:22, 7:3:0:0:7, 6:1:0:0:8, 7:3:1:0:9, 5:0:0:0:3, 8:2:0:0:8, 9:3:0:0:11, 6:1:0:0:7, 6:0:0:0:5, 5:1:0:0:7, 1:0:0:0:1, 0:0:0:0:0, 9:2:1:0:5, 4:0:0:0:2, 4:0:0:0:1, 0:0:0:0:0, 8:2:0:0:6, 5:1:0:0:8, 5:0:0:0:4, 4:0:0:0:5, 2:0:0:0:2, 0:0:0:0:0, 7:0:1:0:3, 4:0:0:0:4, 13:2:0:0:9, 7:3:0:0:14, 7:1:0:0:4, 6:1:0:0:10, 4:0:0:0:2, 0:0:0:0:0, 6:0:1:0:2, 6:1:0:0:6, 6:9:0:0:14, 7:3:0:0:7, 10:8:0:0:17, 7:3:0:0:10, 7:2:0:0:9, 7:3:0:0:8, 6:0:0:0:3, 6:3:0:0:8, 7:2:0:0:8, 5:2:0:0:8, 7:0:0:0:3, 5:1:0:0:5, 1:0:0:0:1, 0:0:0:0:0, 4:0:1:0:1, 2:0:0:0:1, 0:0:0:0:0, 1:0:0:0:1, 0:0:0:0:0, 1:0:0:0:1, 0:0:0:0:0, 10:2:0:0:6, 16:8:2:0:11, 1:0:0:0:1, 0:0:0:0:0, 828:256:28:0:933
E major (4#), 2:0:0:0:0, 2:0:0:0:0, 3:0:0:0:0, 7:1:0:0:1, 4:0:0:0:0, 8:11:1:0:11, 6:6:0:0:6, 7:6:1:0:6, 3:0:0:0:0, 2:0:0:0:0, 3:0:0:0:0, 5:1:0:0:1, 4:0:0:0:0, 8:10:0:0:10, 6:6:0:0:6, 7:6:1:0:6, 3:0:0:0:0, 0:0:0:0:0, 0:0:0:0:0, 1:0:1:0:1, 0:0:0:0:0, 4:1:0:0:1, 4:1:0:0:1, 5:2:0:0:2, 6:1:0:0:1, 2:0:0:0:0, 3:0:0:0:0, 5:1:0:0:1, 4:0:0:0:0, 8:11:1:0:11, 6:5:0:0:5, 7:6:1:0:6, 7:1:0:0:1, 4:2:0:0:2, 1:0:0:0:0, 4:0:0:0:0, 5:0:0:0:0, 9:1:0:0:1, 3:0:0:0:0, 9:10:0:0:10, 8:8:0:0:8, 9:7:3:0:8, 3:0:0:0:0, 3:0:0:0:0, 5:0:0:0:0, 7:1:0:0:1, 5:0:0:0:0, 9:10:0:0:10, 7:7:0:0:7, 10:8:1:0:8, 3:0:0:0:0, 5:0:1:0:1, 1:0:1:0:1, 5:0:0:0:0, 2:0:0:0:0, 8:1:0:0:1, 6:1:0:0:1, 6:4:0:0:4, 10:1:0:0:1, 7:0:0:0:0, 7:2:0:0:2, 6:1:0:0:1, 6:1:0:0:1, 8:11:0:0:11, 8:8:0:0:8, 10:6:1:0:6, 5:1:0:0:1, 6:4:0:0:4, 1:0:0:0:0, 2:0:0:0:0, 3:0:0:0:0, 6:1:0:0:1, 4:0:0:0:0, 8:10:0:0:10, 7:7:0:0:7, 6:5:1:0:5, 2:0:0:0:0, 2:0:0:0:0, 3:0:0:0:0, 7:1:0:0:1, 4:0:0:0:0, 8:7:0:0:7, 6:4:0:0:4, 9:7:4:0:9, 3:0:0:0:0, 2:0:0:0:0, 0:0:0:0:0, 0:0:0:0:0, 0:0:0:0:0, 4:2:0:0:2, 6:1:0:0:1, 6:2:0:0:2, 5:1:0:0:1, 5:0:0:0:0, 4:0:1:0:1, 5:3:0:0:3, 6:1:0:0:1, 8:10:0:0:10, 8:9:0:0:9, 6:5:1:0:5, 5:1:0:0:1, 5:2:0:0:2, 3:0:0:0:0, 4:0:0:0:0, 3:0:0:0:0, 11:3:0:0:3, 5:0:0:0:0, 9:11:1:0:11, 7:11:0:0:11, 8:7:2:0:7, 2:0:0:0:0, 2:0:0:0:0, 3:0:0:0:0, 5:1:0:0:1, 3:0:0:0:0, 9:10:0:0:10, 7:11:0:0:11, 8:10:2:0:10, 2:0:0:0:0, 2:0:0:0:0, 0:0:0:0:0, 2:0:0:0:0, 0:0:0:0:0, 3:3:0:0:3, 5:2:0:0:2, 6:2:0:0:2, 8:2:0:0:2, 5:0:0:0:0, 4:1:0:0:1, 7:2:0:0:2, 6:1:0:0:1, 8:10:0:0:10, 7:5:0:0:5, 11:7:1:0:7, 6:3:0:0:3, 8:5:0:0:5, 3:0:0:0:0, 3:0:0:0:0, 3:0:0:0:0, 5:1:0:0:1, 4:0:0:0:0, 9:9:0:0:9, 7:10:0:0:10, 9:5:1:0:5, 5:0:0:0:0, 9:1:0:0:1, 7:0:0:0:0, 7:2:0:0:2, 6:0:0:0:0, 10:12:1:0:12, 7:7:0:0:7, 9:9:1:0:9, 5:1:0:0:1, 0:0:0:0:0, 0:0:0:0:0, 3:0:0:0:0, 2:0:0:0:0, 5:2:0:0:2, 4:1:0:0:1, 6:3:0:0:3, 5:2:0:0:2, 2:0:0:0:0, 4:0:0:0:0, 7:1:0:0:1, 6:2:0:0:2, 8:8:0:0:8, 7:7:0:0:7, 7:6:1:0:6, 4:1:0:0:1, 4:2:0:0:2, 5:4:0:0:4, 4:2:0:0:2, 6:3:0:0:3, 4:2:0:0:2, 9:4:0:0:4, 14:3:2:0:5, 6:2:0:0:2, 1:0:0:0:0, 918:469:32:0:478
F minor (4b), 0:0:0:0:0, 7:2:0:0:9, 4:1:0:0:4, 5:0:0:0:4, 4:0:0:0:5, 2:0:1:0:1, 0:0:0:0:0, 5:0:1:0:1, 2:0:0:0:3, 7:2:0:0:8, 4:1:0:0:4, 5:0:0:0:4, 4:0:0:0:6, 1:0:0:0:1, 0:0:0:0:0, 5:0:1:0:1, 3:0:0:0:2, 6:6:0:0:11, 4:4:0:0:6, 7:6:1:0:12, 4:2:0:0:4, 7:2:0:0:7, 7:2:0:0:8, 4:0:0:0:2, 6:1:0:0:5, 7:2:0:0:9, 4:1:0:0:4, 5:0:0:0:4, 4:0:0:0:5, 2:0:1:0:1, 0:0:0:0:0, 5:0:1:0:1, 2:0:0:0:0, 0:0:0:0:0, 0:0:0:0:0, 10:4:0:0:13, 5:3:0:0:14, 9:1:0:0:8, 4:0:0:0:5, 2:0:0:0:1, 1:1:0:0:1, 7:1:3:0:2, 4:0:0:0:6, 9:10:0:0:14, 7:5:0:0:15, 7:0:0:0:6, 5:0:0:0:6, 2:0:0:0:1, 0:0:0:0:0, 7:0:1:0:3, 4:0:0:0:5, 9:9:1:0:16, 5:5:0:0:7, 10:5:0:0:15, 8:5:0:0:13, 11:3:0:0:14, 7:3:0:0:6, 4:0:0:0:4, 11:3:0:0:10, 11:3:0:0:12, 7:2:0:0:11, 6:0:0:0:8, 4:0:0:0:8, 1:0:0:0:1, 3:0:0:0:1, 7:0:1:0:2, 1:0:0:0:0, 1:0:0:0:0, 0:0:0:0:0, 7:4:0:0:11, 4:1:0:0:5, 5:0:0:0:4, 4:0:0:0:6, 1:0:0:0:1, 0:0:0:0:0, 4:0:1:0:2, 2:0:0:0:3, 7:4:0:0:11, 4:1:0:0:7, 7:0:0:0:4, 4:0:0:0:7, 2:0:0:0:1, 0:0:0:0:0, 6:0:1:0:2, 4:1:0:0:3, 7:6:0:0:14, 6:3:0:0:8, 7:9:0:0:18, 7:9:0:0:14, 7:1:0:0:7, 8:5:1:0:11, 5:0:0:0:4, 5:1:0:0:6, 8:3:0:0:9, 4:2:0:0:6, 5:0:0:0:5, 4:1:0:0:6, 1:0:0:0:1, 1:0:0:0:0, 4:0:1:0:2, 2:0:0:0:1, 0:0:0:0:0, 0:0:0:0:0, 10:3:0:0:8, 5:1:0:0:9, 9:1:0:0:5, 7:0:0:0:10, 2:0:1:0:1, 0:0:0:0:0, 5:0:2:0:1, 2:0:0:0:3, 7:4:0:0:12, 4:3:0:0:6, 4:0:0:0:4, 3:0:0:0:5, 2:0:0:0:1, 0:0:0:0:0, 5:0:2:0:2, 2:0:0:0:3, 8:8:0:0:13, 6:5:0:0:13, 7:12:0:0:22, 7:3:0:0:7, 6:1:0:0:8, 7:3:1:0:9, 5:0:0:0:3, 8:2:0:0:8, 9:3:0:0:11, 6:1:0:0:7, 6:0:0:0:5, 5:1:0:0:7, 1:0:0:0:1, 0:0:0:0:0, 9:2:1:0:5, 4:0:0:0:2, 4:0:0:0:1, 0:0:0:0:0, 8:2:0:0:6, 5:1:0:0:8, 5:0:0:0:4, 4:0:0:0:5, 2:0:0:0:2, 0:0:0:0:0, 7:0:1:0:3, 4:0:0:0:4, 13:2:0:0:9, 7:3:0:0:14, 7:1:0:0:4, 6:1:0:0:10, 4:0:0:0:2, 0:0:0:0:0, 6:0:1:0:2, 6:1:0:0:6, 6:9:0:0:14, 7:3:0:0:7, 10:8:0:0:17, 7:3:0:0:10, 7:2:0:0:9, 7:3:0:0:8, 6:0:0:0:3, 6:3:0:0:8, 7:2:0:0:8, 5:2:0:0:8, 7:0:0:0:3, 5:1:0:0:5, 1:0:0:0:1, 0:0:0:0:0, 4:0:1:0:1, 2:0:0:0:1, 0:0:0:0:0, 1:0:0:0:1, 0:0:0:0:0, 1:0:0:0:1, 0:0:0:0:0, 10:2:0:0:6, 16:8:2:0:11, 1:0:0:0:1, 0:0:0:0:0, 828:256:28:0:933
C# minor (4#), 2:0:0:0:0, 2:0:0:0:0, 3:0:0:0:0, 7:1:0:0:1, 4:0:0:0:0, 8:11:1:0:11, 6:6:0:0:6, 7:6:1:0:6, 3:0:0:0:0, 2:0:0:0:0, 3:0:0:0:0, 5:1:0:0:1, 4:0:0:0:0, 8:10:0:0:10, 6:6:0:0:6, 7:6:1:0:6, 3:0:0:0:0, 0:0:0:0:0, 0:0:0:0:0, 1:0:1:0:1, 0:0:0:0:0, 4:1:0:0:1, 4:1:0:0:1, 5:2:0:0:2, 6:1:0:0:1, 2:0:0:0:0, 3:0:0:0:0, 5:1:0:0:1, 4:0:0:0:0, 8:11:1:0:11, 6:5:0:0:5, 7:6:1:0:6, 7:1:0:0:1, 4:2:0:0:2, 1:0:0:0:0, 4:0:0:0:0, 5:0:0:0:0, 9:1:0:0:1, 3:0:0:0:0, 9:10:0:0:10, 8:8:0:0:8, 9:7:3:0:8, 3:0:0:0:0, 3:0:0:0:0, 5:0:0:0:0, 7:1:0:0:1, 5:0:0:0:0, 9:10:0:0:10, 7:7:0:0:7, 10:8:1:0:8, 3:0:0:0:0, 5:0:1:0:1, 1:0:1:0:1, 5:0:0:0:0, 2:0:0:0:0, 8:1:0:0:1, 6:1:0:0:1, 6:4:0:0:4, 10:1:0:0:1, 7:0:0:0:0, 7:2:0:0:2, 6:1:0:0:1, 6:1:0:0:1, 8:11:0:0:11, 8:8:0:0:8, 10:6:1:0:6, 5:1:0:0:1, 6:4:0:0:4, 1:0:0:0:0, 2:0:0:0:0, 3:0:0:0:0, 6:1:0:0:1, 4:0:0:0:0, 8:10:0:0:10, 7:7:0:0:7, 6:5:1:0:5, 2:0:0:0:0, 2:0:0:0:0, 3:0:0:0:0, 7:1:0:0:1, 4:0:0:0:0, 8:7:0:0:7, 6:4:0:0:4, 9:7:4:0:9, 3:0:0:0:0, 2:0:0:0:0, 0:0:0:0:0, 0:0:0:0:0, 0:0:0:0:0, 4:2:0:0:2, 6:1:0:0:1, 6:2:0:0:2, 5:1:0:0:1, 5:0:0:0:0, 4:0:1:0:1, 5:3:0:0:3, 6:1:0:0:1, 8:10:0:0:10, 8:9:0:0:9, 6:5:1:0:5, 5:1:0:0:1, 5:2:0:0:2, 3:0:0:0:0, 4:0:0:0:0, 3:0:0:0:0, 11:3:0:0:3, 5:0:0:0:0, 9:11:1:0:11, 7:11:0:0:11, 8:7:2:0:7, 2:0:0:0:0, 2:0:0:0:0, 3:0:0:0:0, 5:1:0:0:1, 3:0:0:0:0, 9:10:0:0:10, 7:11:0:0:11, 8:10:2:0:10, 2:0:0:0:0, 2:0:0:0:0, 0:0:0:0:0, 2:0:0:0:0, 0:0:0:0:0, 3:3:0:0:3, 5:2:0:0:2, 6:2:0:0:2, 8:2:0:0:2, 5:0:0:0:0, 4:1:0:0:1, 7:2:0:0:2, 6:1:0:0:1, 8:10:0:0:10, 7:5:0:0:5, 11:7:1:0:7, 6:3:0:0:3, 8:5:0:0:5, 3:0:0:0:0, 3:0:0:0:0, 3:0:0:0:0, 5:1:0:0:1, 4:0:0:0:0, 9:9:0:0:9, 7:10:0:0:10, 9:5:1:0:5, 5:0:0:0:0, 9:1:0:0:1, 7:0:0:0:0, 7:2:0:0:2, 6:0:0:0:0, 10:12:1:0:12, 7:7:0:0:7, 9:9:1:0:9, 5:1:0:0:1, 0:0:0:0:0, 0:0:0:0:0, 3:0:0:0:0, 2:0:0:0:0, 5:2:0:0:2, 4:1:0:0:1, 6:3:0:0:3, 5:2:0:0:2, 2:0:0:0:0, 4:0:0:0:0, 7:1:0:0:1, 6:2:0:0:2, 8:8:0:0:8, 7:7:0:0:7, 7:6:1:0:6, 4:1:0:0:1, 4:2:0:0:2, 5:4:0:0:4, 4:2:0:0:2, 6:3:0:0:3, 4:2:0:0:2, 9:4:0:0:4, 14:3:2:0:5, 6:2:0:0:2, 1:0:0:0:0, 918:469:32:0:478
Db major (5b), 0:0:0:0:0, 7:2:0:0:12, 5:1:0:0:5, 6:0:0:0:6, 5:0:0:0:6, 3:0:1:0:1, 1:0:0:0:0, 6:0:1:0:2, 3:0:0:0:3, 7:2:0:0:11, 5:1:0:0:5, 6:0:0:0:6, 5:0:0:0:7, 2:0:0:0:1, 1:0:0:0:0, 6:0:1:0:2, 4:0:0:0:2, 6:6:0:0:11, 4:4:0:0:6, 7:6:1:0:12, 4:2:0:0:4, 8:2:0:0:9, 7:2:0:0:9, 5:0:0:0:4, 7:1:0:0:6, 7:2:0:0:12, 5:1:0:0:5, 6:0:0:0:7, 5:0:0:0:6, 3:0:1:0:1, 1:0:0:0:0, 6:0:1:0:2, 3:0:0:0:1, 0:0:0:0:0, 0:0:0:0:0, 10:4:0:0:17, 6:3:0:0:16, 10:1:0:0:12, 5:0:0:0:5, 3:0:0:0:1, 2:1:0:0:1, 8:1:3:0:3, 5:0:0:0:7, 9:9:0:0:15, 8:5:0:0:16, 8:0:0:0:8, 6:0:0:0:8, 3:0:0:0:1, 1:0:0:0:0, 8:0:1:0:5, 5:0:0:0:6, 10:8:1:0:16, 5:5:0:0:7, 11:5:0:0:15, 8:5:0:0:13, 12:3:0:0:16, 7:2:0:0:6, 5:0:0:0:6, 12:3:0:0:11, 12:3:0:0:16, 8:2:0:0:13, 7:0:0:0:13, 5:0:0:0:10, 2:0:0:0:1, 4:0:0:0:1, 8:0:1:0:3, 2:0:0:0:1, 1:0:0:0:1, 0:0:0:0:0, 7:4:0:0:13, 5:1:0:0:6, 6:0:0:0:6, 5:0:0:0:7, 2:0:0:0:1, 1:0:0:0:0, 5:0:1:0:3, 3:0:0:0:3, 7:4:0:0:14, 5:1:0:0:8, 8:0:0:0:6, 5:0:0:0:8, 3:0:0:0:1, 1:0:0:0:0, 7:0:1:0:4, 5:1:0:0:4, 7:5:0:0:14, 6:3:0:0:8, 7:9:0:0:18, 7:9:0:0:14, 8:1:0:0:8, 9:4:1:0:12, 6:0:0:0:6, 6:1:0:0:8, 9:3:0:0:12, 5:2:0:0:8, 6:0:0:0:7, 5:1:0:0:7, 2:0:0:0:1, 2:0:0:0:1, 5:0:1:0:3, 3:0:0:0:2, 0:0:0:0:0, 0:0:0:0:0, 10:3:0:0:12, 6:1:0:0:11, 10:1:0:0:9, 8:0:0:0:11, 3:0:1:0:1, 1:0:0:0:0, 6:0:2:0:2, 3:0:0:0:3, 7:4:0:0:16, 5:3:0:0:8, 5:0:0:0:6, 4:0:0:0:5, 3:0:0:0:1, 1:0:0:0:0, 6:0:2:0:4, 3:0:0:0:3, 8:7:0:0:13, 6:5:0:0:13, 8:12:0:0:22, 7:3:0:0:7, 7:1:0:0:9, 7:2:1:0:9, 6:0:0:0:5, 9:2:0:0:11, 9:3:0:0:14, 7:1:0:0:10, 7:0:0:0:8, 6:1:0:0:8, 2:0:0:0:1, 1:0:0:0:0, 10:2:1:0:7, 5:0:0:0:3, 5:0:0:0:1, 1:0:0:0:0, 8:2:0:0:8, 6:1:0:0:10, 6:0:0:0:6, 5:0:0:0:6, 3:0:0:0:2, 1:0:0:0:0, 8:0:1:0:5, 5:0:0:0:5, 13:2:0:0:13, 8:3:0:0:15, 8:1:0:0:8, 7:1:0:0:11, 5:0:0:0:2, 1:0:0:0:0, 7:0:1:0:4, 7:1:0:0:7, 6:4:0:0:9, 7:3:0:0:7, 10:8:0:0:18, 7:3:0:0:10, 8:2:0:0:10, 7:2:0:0:8, 7:0:0:0:6, 7:3:0:0:10, 7:2:0:0:11, 6:2:0:0:9, 8:0:0:0:7, 6:1:0:0:6, 2:0:0:0:1, 1:0:0:0:0, 5:0:1:0:3, 3:0:0:0:1, 0:0:0:0:0, 2:0:0:0:1, 0:0:0:0:0, 2:0:0:0:1, 0:0:0:0:0, 11:2:0:0:7, 17:8:2:0:12, 1:0:0:0:1, 0:0:0:0:0, 960:243:28:0:1120
B major (5#), 2:0:0:0:1, 3:0:0:0:1, 4:0:0:0:0, 8:1:0:0:5, 5:0:0:0:1, 8:11:1:0:13, 6:6:0:0:7, 7:6:1:0:8, 3:0:0:0:2, 3:0:0:0:1, 4:0:0:0:0, 6:1:0:0:5, 5:0:0:0:1, 8:10:0:0:12, 6:6:0:0:7, 7:6:1:0:8, 2:0:0:0:0, 1:0:0:0:0, 0:0:0:0:0, 2:0:1:0:1, 0:0:0:0:0, 5:1:0:0:1, 5:1:0:0:2, 5:2:0:0:4, 7:1:0:0:3, 3:0:0:0:1, 4:0:0:0:0, 6:1:0:0:5, 5:0:0:0:1, 8:11:1:0:13, 6:5:0:0:6, 7:6:1:0:8, 7:1:0:0:2, 4:2:0:0:4, 1:0:0:0:1, 5:0:0:0:2, 6:0:0:0:1, 10:1:0:0:5, 4:0:0:0:2, 9:10:0:0:12, 8:8:0:0:9, 9:7:3:0:10, 4:0:0:0:0, 4:0:0:0:1, 6:0:0:0:0, 8:1:0:0:3, 6:0:0:0:2, 9:10:0:0:11, 7:7:0:0:9, 10:8:1:0:10, 4:0:0:0:0, 6:0:1:0:0, 1:0:1:0:0, 6:0:0:0:0, 3:0:0:0:0, 9:1:0:0:2, 7:1:0:0:2, 6:4:0:0:6, 11:1:0:0:2, 8:0:0:0:2, 8:2:0:0:2, 7:1:0:0:7, 7:1:0:0:3, 8:11:0:0:13, 8:8:0:0:9, 10:6:1:0:10, 5:1:0:0:2, 6:4:0:0:6, 0:0:0:0:0, 3:0:0:0:1, 4:0:0:0:0, 7:1:0:0:4, 5:0:0:0:1, 8:10:0:0:12, 7:7:0:0:9, 6:5:1:0:9, 2:0:0:0:0, 3:0:0:0:2, 4:0:0:0:0, 8:1:0:0:4, 5:0:0:0:1, 8:7:0:0:8, 6:4:0:0:7, 9:7:4:0:12, 3:0:0:0:0, 3:0:0:0:0, 0:0:0:0:0, 1:0:0:0:0, 1:0:0:0:0, 5:2:0:0:2, 7:1:0:0:2, 6:2:0:0:3, 6:1:0:0:2, 6:0:0:0:2, 5:0:1:0:0, 6:3:0:0:6, 7:1:0:0:2, 8:10:0:0:12, 8:9:0:0:11, 6:5:1:0:7, 5:1:0:0:2, 5:2:0:0:3, 2:0:0:0:2, 5:0:0:0:3, 4:0:0:0:0, 12:3:0:0:7, 6:0:0:0:2, 9:11:1:0:14, 7:11:0:0:13, 8:7:2:0:11, 2:0:0:0:0, 3:0:0:0:1, 4:0:0:0:0, 6:1:0:0:4, 4:0:0:0:1, 9:10:0:0:11, 7:11:0:0:13, 8:10:2:0:14, 2:0:0:0:0, 3:0:0:0:0, 1:0:0:0:0, 3:0:0:0:0, 1:0:0:0:0, 4:3:0:0:3, 6:2:0:0:5, 6:2:0:0:3, 9:2:0:0:4, 6:0:0:0:2, 5:1:0:0:1, 8:2:0:0:6, 7:1:0:0:2, 8:10:0:0:11, 7:5:0:0:9, 11:7:1:0:10, 7:2:0:0:4, 8:5:0:0:7, 3:0:0:0:2, 4:0:0:0:2, 4:0:0:0:0, 6:1:0:0:5, 5:0:0:0:1, 9:9:0:0:11, 7:10:0:0:12, 9:5:1:0:10, 4:0:0:0:1, 10:1:0:0:4, 8:0:0:0:0, 8:2:0:0:6, 7:0:0:0:2, 10:12:1:0:14, 7:7:0:0:9, 9:9:1:0:13, 6:1:0:0:1, 1:0:0:0:0, 1:0:0:0:0, 4:0:0:0:0, 3:0:0:0:1, 6:2:0:0:3, 5:1:0:0:2, 6:3:0:0:5, 6:2:0:0:4, 3:0:0:0:3, 5:0:0:0:0, 8:1:0:0:5, 7:2:0:0:3, 8:8:0:0:9, 7:7:0:0:9, 7:6:1:0:9, 4:1:0:0:3, 4:2:0:0:4, 5:3:0:0:3, 4:2:0:0:4, 6:3:0:0:4, 4:2:0:0:5, 10:4:0:0:5, 15:3:2:0:6, 6:2:0:0:3, 0:0:0:0:0, 1010:467:32:0:737
Bb minor (5b), 0:0:0:0:0, 7:2:0:0:12, 5:1:0:0:5, 6:0:0:0:6, 5:0:0:0:6, 3:0:1:0:1, 1:0:0:0:0, 6:0:1:0:2, 3:0:0:0:3, 7:2:0:0:11, 5:1:0:0:5, 6:0:0:0:6, 5:0:0:0:7, 2:0:0:0:1, 1:0:0:0:0, 6:0:1:0:2, 4:0:0:0:2, 6:6:0:0:11, 4:4:0:0:6, 7:6:1:0:12, 4:2:0:0:4, 8:2:0:0:9, 7:2:0:0:9, 5:0:0:0:4, 7:1:0:0:6, 7:2:0:0:12, 5:1:0:0:5, 6:0:0:0:7, 5:0:0:0:6, 3:0:1:0:1, 1:0:0:0:0, 6:0:1:0:2, 3:0:0:0:1, 0:0:0:0:0, 0:0:0:0:0, 10:4:0:0:17, 6:3:0:0:16, 10:1:0:0:12, 5:0:0:0:5, 3:0:0:0:1, 2:1:0:0:1, 8:1:3:0:3, 5:0:0:0:7, 9:9:0:0:15, 8:5:0:0:16, 8:0:0:0:8, 6:0:0:0:8, 3:0:0:0:1, 1:0:0:0:0, 8:0:1:0:5, 5:0:0:0:6, 10:8:1:0:16, 5:5:0:0:7, 11:5:0:0:15, 8:5:0:0:13, 12:3:0:0:16, 7:2:0:0:6, 5:0:0:0:6, 12:3:0:0:11, 12:3:0:0:16, 8:2:0:0:13, 7:0:0:0:13, 5:0:0:0:10, 2:0:0:0:1, 4:0:0:0:1, 8:0:1:0:3, 2:0:0:0:1, 1:0:0:0:1, 0:0:0:0:0, 7:4:0:0:13, 5:1:0:0:6, 6:0:0:0:6, 5:0:0:0:7, 2:0:0:0:1, 1:0:0:0:0, 5:0:1:0:3, 3:0:0:0:3, 7:4:0:0:14, 5:1:0:0:8, 8:0:0:0:6, 5:0:0:0:8, 3:0:0:0:1, 1:0:0:0:0, 7:0:1:0:4, 5:1:0:0:4, 7:5:0:0:14, 6:3:0:0:8, 7:9:0:0:18, 7:9:0:0:14, 8:1:0:0:8, 9:4:1:0:12, 6:0:0:0:6, 6:1:0:0:8, 9:3:0:0:12, 5:2:0:0:8, 6:0:0:0:7, 5:1:0:0:7, 2:0:0:0:1, 2:0:0:0:1, 5:0:1:0:3, 3:0:0:0:2, 0:0:0:0:0, 0:0:0:0:0, 10:3:0:0:12, 6:1:0:0:11, 10:1:0:0:9, 8:0:0:0:11, 3:0:1:0:1, 1:0:0:0:0, 6:0:2:0:2, 3:0:0:0:3, 7:4:0:0:16, 5:3:0:0:8, 5:0:0:0:6, 4:0:0:0:5, 3:0:0:0:1, 1:0:0:0:0, 6:0:2:0:4, 3:0:0:0:3, 8:7:0:0:13, 6:5:0:0:13, 8:12:0:0:22, 7:3:0:0:7, 7:1:0:0:9, 7:2:1:0:9, 6:0:0:0:5, 9:2:0:0:11, 9:3:0:0:14, 7:1:0:0:10, 7:0:0:0:8, 6:1:0:0:8, 2:0:0:0:1, 1:0:0:0:0, 10:2:1:0:7, 5:0:0:0:3, 5:0:0:0:1, 1:0:0:0:0, 8:2:0:0:8, 6:1:0:0:10, 6:0:0:0:6, 5:0:0:0:6, 3:0:0:0:2, 1:0:0:0:0, 8:0:1:0:5, 5:0:0:0:5, 13:2:0:0:13, 8:3:0:0:15, 8:1:0:0:8, 7:1:0:0:11, 5:0:0:0:2, 1:0:0:0:0, 7:0:1:0:4, 7:1:0:0:7, 6:4:0:0:9, 7:3:0:0:7, 10:8:0:0:18, 7:3:0:0:10, 8:2:0:0:10, 7:2:0:0:8, 7:0:0:0:6, 7:3:0:0:10, 7:2:0:0:11, 6:2:0:0:9, 8:0:0:0:7, 6:1:0:0:6, 2:0:0:0:1, 1:0:0:0:0, 5:0:1:0:3, 3:0:0:0:1, 0:0:0:0:0, 2:0:0:0:1, 0:0:0:0:0, 2:0:0:0:1, 0:0:0:0:0, 11:2:0:0:7, 17:8:2:0:12, 1:0:0:0:1, 0:0:0:0:0, 960:243:28:0:1120
G# minor (5#), 2:0:0:0:1, 3:0:0:0:1, 4:0:0:0:0, 8:1:0:0:5, 5:0:0:0:1, 8:11:1:0:13, 6:6:0:0:7, 7:6:1:0:8, 3:0:0:0:2, 3:0:0:0:1, 4:0:0:0:0, 6:1:0:0:5, 5:0:0:0:1, 8:10:0:0:12, 6:6:0:0:7, 7:6:1:0:8, 2:0:0:0:0, 1:0:0:0:0, 0:0:0:0:0, 2:0:1:0:1, 0:0:0:0:0, 5:1:0:0:1, 5:1:0:0:2, 5:2:0:0:4, 7:1:0:0:3, 3:0:0:0:1, 4:0:0:0:0, 6:1:0:0:5, 5:0:0:0:1, 8:11:1:0:13, 6:5:0:0:6, 7:6:1:0:8, 7:1:0:0:2, 4:2:0:0:4, 1:0:0:0:1, 5:0:0:0:2, 6:0:0:0:1, 10:1:0:0:5, 4:0:0:0:2, 9:10:0:0:12, 8:8:0:0:9, 9:7:3:0:10, 4:0:0:0:0, 4:0:0:0:1, 6:0:0:0:0, 8:1:0:0:3, 6:0:0:0:2, 9:10:0:0:11, 7:7:0:0:9, 10:8:1:0:10, 4:0:0:0:0, 6:0:1:0:0, 1:0:1:0:0, 6:0:0:0:0, 3:0:0:0:0, 9:1:0:0:2, 7:1:0:0:2, 6:4:0:0:6, 11:1:0:0:2, 8:0:0:0:2, 8:2:0:0:2, 7:1:0:0:7, 7:1:0:0:3, 8:11:0:0:13, 8:8:0:0:9, 10:6:1:0:10, 5:1:0:0:2, 6:4:0:0:6, 0:0:0:0:0, 3:0:0:0:1, 4:0:0:0:0, 7:1:0:0:4, 5:0:0:0:1, 8:10:0:0:12, 7:7:0:0:9, 6:5:1:0:9, 2:0:0:0:0, 3:0:0:0:2, 4:0:0:0:0, 8:1:0:0:4, 5:0:0:0:1, 8:7:0:0:8, 6:4:0:0:7, 9:7:4:0:12, 3:0:0:0:0, 3:0:0:0:0, 0:0:0:0:0, 1:0:0:0:0, 1:0:0:0:0, 5:2:0:0:2, 7:1:0:0:2, 6:2:0:0:3, 6:1:0:0:2, 6:0:0:0:2, 5:0:1:0:0, 6:3:0:0:6, 7:1:0:0:2, 8:10:0:0:12, 8:9:0:0:11, 6:5:1:0:7, 5:1:0:0:2, 5:2:0:0:3, 2:0:0:0:2, 5:0:0:0:3, 4:0:0:0:0, 12:3:0:0:7, 6:0:0:0:2, 9:11:1:0:14, 7:11:0:0:13, 8:7:2:0:11, 2:0:0:0:0, 3:0:0:0:1, 4:0:0:0:0, 6:1:0:0:4, 4:0:0:0:1, 9:10:0:0:11, 7:11:0:0:13, 8:10:2:0:14, 2:0:0:0:0, 3:0:0:0:0, 1:0:0:0:0, 3:0:0:0:0, 1:0:0:0:0, 4:3:0:0:3, 6:2:0:0:5, 6:2:0:0:3, 9:2:0:0:4, 6:0:0:0:2, 5:1:0:0:1, 8:2:0:0:6, 7:1:0:0:2, 8:10:0:0:11, 7:5:0:0:9, 11:7:1:0:10, 7:2:0:0:4, 8:5:0:0:7, 3:0:0:0:2, 4:0:0:0:2, 4:0:0:0:0, 6:1:0:0:5, 5:0:0:0:1, 9:9:0:0:11, 7:10:0:0:12, 9:5:1:0:10, 4:0:0:0:1, 10:1:0:0:4, 8:0:0:0:0, 8:2:0:0:6, 7:0:0:0:2, 10:12:1:0:14, 7:7:0:0:9, 9:9:1:0:13, 6:1:0:0:1, 1:0:0:0:0, 1:0:0:0:0, 4:0:0:0:0, 3:0:0:0:1, 6:2:0:0:3, 5:1:0:0:2, 6:3:0:0:5, 6:2:0:0:4, 3:0:0:0:3, 5:0:0:0:0, 8:1:0:0:5, 7:2:0:0:3, 8:8:0:0:9, 7:7:0:0:9, 7:6:1:0:9, 4:1:0:0:3, 4:2:0:0:4, 5:3:0:0:3, 4:2:0:0:4, 6:3:0:0:4, 4:2:0:0:5, 10:4:0:0:5, 15:3:2:0:6, 6:2:0:0:3, 0:0:0:0:0, 1010:467:32:0:737
Gb major (6b), 1:0:0:0:0, 7:2:0:0:11, 6:1:0:0:6, 7:0:0:0:8, 6:0:0:0:7, 2:0:0:0:2, 2:0:0:0:1, 5:0:0:0:4, 4:0:0:0:5, 7:2:0:0:11, 6:1:0:0:6, 7:0:0:0:8, 6:0:0:0:8, 3:0:0:0:2, 2:0:0:0:1, 5:0:0:0:5, 5:0:0:0:4, 6:6:0:0:11, 4:4:0:0:6, 7:6:1:0:12, 4:2:0:0:4, 8:2:0:0:11, 7:2:0:0:9, 5:0:0:0:6, 7:1:0:0:7, 7:2:0:0:11, 6:1:0:0:6, 7:0:0:0:9, 6:0:0:0:7, 2:0:0:0:2, 2:0:0:0:1, 5:0:0:0:3, 4:0:0:0:4, 1:0:0:0:0, 0:0:0:0:0, 10:4:0:0:17, 7:3:0:0:20, 11:1:0:0:16, 6:0:0:0:9, 4:0:0:0:3, 3:1:0:0:5, 7:1:1:0:4, 6:0:0:0:10, 9:9:0:0:15, 9:5:0:0:17, 9:0:0:0:9, 7:0:0:0:11, 4:0:0:0:4, 2:0:0:0:2, 7:0:0:0:5, 6:0:0:0:8, 10:8:1:0:17, 5:5:0:0:7, 11:5:0:0:16, 8:5:0:0:12, 12:3:0:0:19, 7:2:0:0:7, 6:0:0:0:10, 12:3:0:0:11, 12:4:0:0:18, 9:2:0:0:16, 8:0:0:0:15, 6:0:0:0:13, 3:0:0:0:2, 5:0:0:0:5, 7:0:0:0:6, 3:0:0:0:3, 2:0:0:0:1, 0:0:0:0:0, 7:4:0:0:13, 6:1:0:0:7, 7:0:0:0:8, 6:0:0:0:8, 3:0:0:0:2, 2:0:0:0:1, 4:0:0:0:4, 4:0:0:0:5, 7:4:0:0:14, 6:1:0:0:10, 9:0:0:0:7, 6:0:0:0:11, 3:0:0:0:3, 2:0:0:0:2, 6:2:2:0:7, 6:1:0:0:7, 7:5:0:0:14, 6:3:0:0:8, 7:9:0:0:18, 7:9:0:0:14, 8:1:0:0:12, 9:4:1:0:16, 6:0:0:0:9, 6:1:0:0:9, 9:2:0:0:11, 6:2:0:0:10, 7:0:0:0:9, 6:1:0:0:9, 3:0:0:0:3, 3:0:0:0:5, 4:0:0:0:4, 4:0:0:0:3, 1:0:0:0:0, 1:0:0:0:0, 10:3:0:0:13, 7:1:0:0:12, 11:1:0:0:12, 9:0:0:0:14, 4:0:1:0:3, 2:0:0:0:2, 6:1:1:0:7, 4:0:0:0:4, 7:4:0:0:16, 6:3:0:0:12, 6:0:0:0:8, 5:0:0:0:6, 4:0:0:0:2, 2:0:0:0:4, 6:1:1:0:7, 4:0:0:0:4, 8:7:0:0:13, 6:5:0:0:10, 8:12:0:0:23, 7:3:0:0:6, 7:1:0:0:13, 7:2:1:0:9, 6:0:0:0:7, 9:2:0:0:13, 10:3:0:0:13, 8:1:0:0:12, 8:0:0:0:10, 7:1:0:0:10, 3:0:0:0:2, 2:0:0:0:4, 9:2:0:0:8, 6:0:0:0:5, 6:0:0:0:3, 2:0:0:0:1, 8:2:0:0:8, 7:1:0:0:11, 7:0:0:0:8, 6:0:0:0:9, 3:0:0:0:2, 2:0:0:0:3, 7:0:0:0:7, 6:0:0:0:6, 14:2:0:0:14, 9:3:0:0:16, 9:1:0:0:11, 8:1:0:0:13, 4:0:0:0:4, 2:0:0:0:2, 6:0:0:0:7, 8:1:0:0:9, 6:4:0:0:9, 7:3:0:0:7, 10:8:0:0:18, 7:3:0:0:8, 8:2:0:0:14, 7:2:0:0:8, 7:0:0:0:8, 7:3:0:0:12, 7:2:0:0:11, 7:2:0:0:10, 9:0:0:0:10, 7:1:0:0:7, 3:0:0:0:3, 2:0:0:0:3, 4:0:0:0:4, 4:0:0:0:2, 1:0:0:0:0, 3:0:0:0:2, 1:0:0:0:0, 3:0:0:0:2, 1:0:0:0:0, 12:2:0:0:8, 17:8:2:0:14, 2:0:0:0:1, 0:0:0:0:0, 1046:247:12:0:1373
F# major (6#), 1:0:0:0:1, 4:0:0:0:1, 5:0:0:0:3, 8:2:0:0:7, 6:0:0:0:4, 8:11:1:0:13, 6:6:0:0:11, 7:6:1:0:8, 4:0:0:0:1, 4:0:0:0:1, 5:0:0:0:3, 7:1:0:0:6, 6:0:0:0:4, 8:10:0:0:13, 6:6:0:0:11, 7:6:1:0:8, 3:0:0:0:2, 2:0:0:0:0, 1:0:0:0:0, 3:0:1:0:0, 1:0:0:0:0, 6:1:0:0:1, 5:1:0:0:3, 6:2:0:0:4, 8:1:0:0:5, 4:0:0:0:1, 5:0:0:0:3, 7:1:0:0:6, 6:0:0:0:4, 8:11:1:0:13, 6:5:0:0:11, 7:6:1:0:8, 7:1:0:0:4, 4:2:0:0:5, 0:0:0:0:0, 6:0:0:0:2, 7:0:0:0:4, 11:1:0:0:7, 5:0:0:0:4, 9:10:0:0:12, 8:8:0:0:11, 9:7:3:0:9, 5:0:0:0:2, 5:0:0:0:1, 7:0:0:0:2, 9:1:0:0:6, 7:0:0:0:5, 9:10:0:0:13, 7:7:0:0:11, 10:8:1:0:10, 5:0:0:0:2, 7:0:0:0:0, 2:0:0:0:0, 7:0:0:0:1, 4:0:0:0:0, 10:1:0:0:3, 7:1:0:0:3, 7:4:0:0:8, 12:1:0:0:3, 9:0:0:0:3, 9:2:0:0:6, 8:1:0:0:7, 8:1:0:0:7, 8:11:0:0:15, 8:8:0:0:13, 10:6:1:0:8, 5:1:0:0:3, 6:4:0:0:8, 0:0:0:0:0, 4:0:0:0:1, 5:0:0:0:2, 8:1:0:0:5, 6:0:0:0:4, 8:10:0:0:14, 7:7:0:0:13, 6:5:1:0:7, 3:0:0:0:1, 4:0:0:0:2, 5:0:0:0:3, 9:1:0:0:5, 6:0:0:0:3, 8:7:0:0:8, 6:4:0:0:10, 9:7:4:0:9, 4:0:0:0:2, 4:0:0:0:0, 1:0:0:0:0, 2:0:0:0:0, 2:0:0:0:0, 6:2:0:0:3, 8:1:0:0:3, 7:2:0:0:3, 7:1:0:0:3, 7:0:0:0:1, 6:0:0:0:3, 7:3:0:0:6, 8:1:0:0:6, 8:10:0:0:12, 8:9:0:0:15, 6:5:1:0:7, 6:1:0:0:7, 5:2:0:0:7, 1:0:0:0:1, 6:0:0:0:3, 5:0:0:0:5, 12:3:0:0:8, 7:0:0:0:6, 9:11:1:0:17, 7:11:0:0:15, 8:7:2:0:10, 3:0:0:0:1, 4:0:0:0:1, 5:0:0:0:4, 6:1:0:0:7, 5:0:0:0:3, 9:10:0:0:14, 7:11:0:0:16, 8:10:2:0:13, 3:0:0:0:1, 4:0:0:0:0, 2:0:0:0:0, 4:0:0:0:0, 2:0:0:0:0, 5:3:0:0:3, 7:2:0:0:6, 7:2:0:0:3, 10:2:0:0:5, 7:0:0:0:3, 6:1:0:0:7, 7:2:0:0:6, 8:1:0:0:5, 8:10:0:0:13, 7:5:0:0:11, 11:7:1:0:10, 8:2:0:0:5, 8:5:0:0:8, 2:0:0:0:1, 5:0:0:0:2, 5:0:0:0:4, 7:1:0:0:7, 6:0:0:0:4, 9:9:0:0:12, 7:10:0:0:18, 10:5:1:0:9, 5:0:0:0:2, 11:1:0:0:4, 9:0:0:0:3, 9:2:0:0:7, 8:0:0:0:6, 10:12:1:0:14, 7:7:0:0:13, 9:9:1:0:13, 7:1:0:0:3, 2:0:0:0:0, 2:0:0:0:0, 5:0:0:0:1, 4:0:0:0:0, 7:2:0:0:4, 5:1:0:0:4, 7:3:0:0:5, 7:2:0:0:5, 4:0:0:0:1, 6:0:0:0:3, 8:2:1:0:5, 8:2:0:0:6, 8:8:0:0:11, 7:7:0:0:12, 7:6:1:0:9, 5:1:0:0:2, 4:2:0:0:5, 6:3:0:0:5, 4:2:0:0:5, 6:3:0:0:5, 4:2:0:0:6, 11:4:0:0:7, 16:3:1:0:6, 6:2:0:0:4, 0:0:0:0:0, 1114:469:29:0:962
Eb minor (6b), 1:0:0:0:0, 7:2:0:0:11, 6:1:0:0:6, 7:0:0:0:8, 6:0:0:0:7, 2:0:0:0:2, 2:0:0:0:1, 5:0:0:0:4, 4:0:0:0:5, 7:2:0:0:11, 6:1:0:0:6, 7:0:0:0:8, 6:0:0:0:8, 3:0:0:0:2, 2:0:0:0:1, 5:0:0:0:5, 5:0:0:0:4, 6:6:0:0:11, 4:4:0:0:6, 7:6:1:0:12, 4:2:0:0:4, 8:2:0:0:11, 7:2:0:0:9, 5:0:0:0:6, 7:1:0:0:7, 7:2:0:0:11, 6:1:0:0:6, 7:0:0:0:9, 6:0:0:0:7, 2:0:0:0:2, 2:0:0:0:1, 5:0:0:0:3, 4:0:0:0:4, 1:0:0:0:0, 0:0:0:0:0, 10:4:0:0:17, 7:3:0:0:20, 11:1:0:0:16, 6:0:0:0:9, 4:0:0:0:3, 3:1:0:0:5, 7:1:1:0:4, 6:0:0:0:10, 9:9:0:0:15, 9:5:0:0:17, 9:0:0:0:9, 7:0:0:0:11, 4:0:0:0:4, 2:0:0:0:2, 7:0:0:0:5, 6:0:0:0:8, 10:8:1:0:17, 5:5:0:0:7, 11:5:0:0:16, 8:5:0:0:12, 12:3:0:0:19, 7:2:0:0:7, 6:0:0:0:10, 12:3:0:0:11, 12:4:0:0:18, 9:2:0:0:16, 8:0:0:0:15, 6:0:0:0:13, 3:0:0:0:2, 5:0:0:0:5, 7:0:0:0:6, 3:0:0:0:3, 2:0:0:0:1, 0:0:0:0:0, 7:4:0:0:13, 6:1:0:0:7, 7:0:0:0:8, 6:0:0:0:8, 3:0:0:0:2, 2:0:0:0:1, 4:0:0:0:4, 4:0:0:0:5, 7:4:0:0:14, 6:1:0:0:10, 9:0:0:0:7, 6:0:0:0:11, 3:0:0:0:3, 2:0:0:0:2, 6:2:2:0:7, 6:1:0:0:7, 7:5:0:0:14, 6:3:0:0:8, 7:9:0:0:18, 7:9:0:0:14, 8:1:0:0:12, 9:4:1:0:16, 6:0:0:0:9, 6:1:0:0:9, 9:2:0:0:11, 6:2:0:0:10, 7:0:0:0:9, 6:1:0:0:9, 3:0:0:0:3, 3:0:0:0:5, 4:0:0:0:4, 4:0:0:0:3, 1:0:0:0:0, 1:0:0:0:0, 10:3:0:0:13, 7:1:0:0:12, 11:1:0:0:12, 9:0:0:0:14, 4:0:1:0:3, 2:0:0:0:2, 6:1:1:0:7, 4:0:0:0:4, 7:4:0:0:16, 6:3:0:0:12, 6:0:0:0:8, 5:0:0:0:6, 4:0:0:0:2, 2:0:0:0:4, 6:1:1:0:7, 4:0:0:0:4, 8:7:0:0:13, 6:5:0:0:10, 8:12:0:0:23, 7:3:0:0:6, 7:1:0:0:13, 7:2:1:0:9, 6:0:0:0:7, 9:2:0:0:13, 10:3:0:0:13, 8:1:0:0:12, 8:0:0:0:10, 7:1:0:0:10, 3:0:0:0:2, 2:0:0:0:4, 9:2:0:0:8, 6:0:0:0:5, 6:0:0:0:3, 2:0:0:0:1, 8:2:0:0:8, 7:1:0:0:11, 7:0:0:0:8, 6:0:0:0:9, 3:0:0:0:2, 2:0:0:0:3, 7:0:0:0:7, 6:0:0:0:6, 14:2:0:0:14, 9:3:0:0:16, 9:1:0:0:11, 8:1:0:0:13, 4:0:0:0:4, 2:0:0:0:2, 6:0:0:0:7, 8:1:0:0:9, 6:4:0:0:9, 7:3:0:0:7, 10:8:0:0:18, 7:3:0:0:8, 8:2:0:0:14, 7:2:0:0:8, 7:0:0:0:8, 7:3:0:0:12, 7:2:0:0:11, 7:2:0:0:10, 9:0:0:0:10, 7:1:0:0:7, 3:0:0:0:3, 2:0:0:0:3, 4:0:0:0:4, 4:0:0:0:2, 1:0:0:0:0, 3:0:0:0:2, 1:0:0:0:0, 3:0:0:0:2, 1:0:0:0:0, 12:2:0:0:8, 17:8:2:0:14, 2:0:0:0:1, 0:0:0:0:0, 1046:247:12:0:1373
D# minor (6#), 1:0:0:0:1, 4:0:0:0:1, 5:0:0:0:3, 8:2:0:0:7, 6:0:0:0:4, 8:11:1:0:13, 6:6:0:0:11, 7:6:1:0:8, 4:0:0:0:1, 4:0:0:0:1, 5:0:0:0:3, 7:1:0:0:6, 6:0:0:0:4, 8:10:0:0:13, 6:6:0:0:11, 7:6:1:0:8, 3:0:0:0:2, 2:0:0:0:0, 1:0:0:0:0, 3:0:1:0:0, 1:0:0:0:0, 6:1:0:0:1, 5:1:0:0:3, 6:2:0:0:4, 8:1:0:0:5, 4:0:0:0:1, 5:0:0:0:3, 7:1:0:0:6, 6:0:0:0:4, 8:11:1:0:13, 6:5:0:0:11, 7:6:1:0:8, 7:1:0:0:4, 4:2:0:0:5, 0:0:0:0:0, 6:0:0:0:2, 7:0:0:0:4, 11:1:0:0:7, 5:0:0:0:4, 9:10:0:0:12, 8:8:0:0:11, 9:7:3:0:9, 5:0:0:0:2, 5:0:0:0:1, 7:0:0:0:2, 9:1:0:0:6, 7:0:0:0:5, 9:10:0:0:13, 7:7:0:0:11, 10:8:1:0:10, 5:0:0:0:2, 7:0:0:0:0, 2:0:0:0:0, 7:0:0:0:1, 4:0:0:0:0, 10:1:0:0:3, 7:1:0:0:3, 7:4:0:0:8, 12:1:0:0:3, 9:0:0:0:3, 9:2:0:0:6, 8:1:0:0:7, 8:1:0:0:7, 8:11:0:0:15, 8:8:0:0:13, 10:6:1:0:8, 5:1:0:0:3, 6:4:0:0:8, 0:0:0:0:0, 4:0:0:0:1, 5:0:0:0:2, 8:1:0:0:5, 6:0:0:0:4, 8:10:0:0:14, 7:7:0:0:13, 6:5:1:0:7, 3:0:0:0:1, 4:0:0:0:2, 5:0:0:0:3, 9:1:0:0:5, 6:0:0:0:3, 8:7:0:0:8, 6:4:0:0:10, 9:7:4:0:9, 4:0:0:0:2, 4:0:0:0:0, 1:0:0:0:0, 2:0:0:0:0, 2:0:0:0:0, 6:2:0:0:3, 8:1:0:0:3, 7:2:0:0:3, 7:1:0:0:3, 7:0:0:0:1, 6:0:0:0:3, 7:3:0:0:6, 8:1:0:0:6, 8:10:0:0:12, 8:9:0:0:15, 6:5:1:0:7, 6:1:0:0:7, 5:2:0:0:7, 1:0:0:0:1, 6:0:0:0:3, 5:0:0:0:5, 12:3:0:0:8, 7:0:0:0:6, 9:11:1:0:17, 7:11:0:0:15, 8:7:2:0:10, 3:0:0:0:1, 4:0:0:0:1, 5:0:0:0:4, 6:1:0:0:7, 5:0:0:0:3, 9:10:0:0:14, 7:11:0:0:16, 8:10:2:0:13, 3:0:0:0:1, 4:0:0:0:0, 2:0:0:0:0, 4:0:0:0:0, 2:0:0:0:0, 5:3:0:0:3, 7:2:0:0:6, 7:2:0:0:3, 10:2:0:0:5, 7:0:0:0:3, 6:1:0:0:7, 7:2:0:0:6, 8:1:0:0:5, 8:10:0:0:13, 7:5:0:0:11, 11:7:1:0:10, 8:2:0:0:5, 8:5:0:0:8, 2:0:0:0:1, 5:0:0:0:2, 5:0:0:0:4, 7:1:0:0:7, 6:0:0:0:4, 9:9:0:0:12, 7:10:0:0:18, 10:5:1:0:9, 5:0:0:0:2, 11:1:0:0:4, 9:0:0:0:3, 9:2:0:0:7, 8:0:0:0:6, 10:12:1:0:14, 7:7:0:0:13, 9:9:1:0:13, 7:1:0:0:3, 2:0:0:0:0, 2:0:0:0:0, 5:0:0:0:1, 4:0:0:0:0, 7:2:0:0:4, 5:1:0:0:4, 7:3:0:0:5, 7:2:0:0:5, 4:0:0:0:1, 6:0:0:0:3, 8:2:1:0:5, 8:2:0:0:6, 8:8:0:0:11, 7:7:0:0:12, 7:6:1:0:9, 5:1:0:0:2, 4:2:0:0:5, 6:3:0:0:5, 4:2:0:0:5, 6:3:0:0:5, 4:2:0:0:6, 11:4:0:0:7, 16:3:1:0:6, 6:2:0:0:4, 0:0:0:0:0, 1114:469:29:0:962
Cb major (7b), 2:0:0:0:1, 7:2:0:0:11, 6:1:0:0:9, 8:0:0:0:9, 7:0:0:0:10, 3:0:0:0:2, 3:0:0:0:5, 6:0:0:0:4, 5:0:0:0:5, 7:2:0:0:11, 6:1:0:0:9, 8:0:0:0:9, 7:0:0:0:10, 4:0:0:0:3, 3:0:0:0:5, 6:0:0:0:5, 5:0:0:0:6, 6:6:0:0:11, 4:4:0:0:6, 7:6:1:0:12, 4:2:0:0:4, 8:1:0:0:9, 7:2:0:0:10, 6:0:0:0:6, 8:1:0:0:8, 7:2:0:0:11, 6:1:0:0:9, 8:0:0:0:10, 7:0:0:0:10, 3:0:0:0:2, 3:0:0:0:6, 6:0:0:0:3, 5:0:0:0:6, 2:0:0:0:1, 1:0:0:0:0, 10:4:0:0:17, 8:3:0:0:23, 12:1:0:0:18, 7:0:0:0:10, 5:0:0:0:4, 4:1:0:0:7, 8:1:1:0:4, 6:0:0:0:11, 9:9:0:0:15, 9:5:0:0:17, 10:0:0:0:12, 8:0:0:0:14, 5:0:0:0:6, 3:0:0:0:4, 8:0:0:0:5, 6:0:0:0:9, 10:8:1:0:17, 6:5:0:0:7, 11:5:0:0:17, 8:5:0:0:10, 13:3:0:0:19, 7:2:0:0:8, 7:0:0:0:11, 12:2:0:0:10, 12:4:0:0:19, 9:2:0:0:19, 9:0:0:0:18, 7:0:0:0:16, 4:0:0:0:4, 5:0:0:0:8, 8:0:0:0:6, 4:0:0:0:4, 3:0:0:0:3, 0:0:0:0:0, 7:4:0:0:13, 6:1:0:0:9, 8:0:0:0:9, 7:0:0:0:10, 4:0:0:0:4, 3:0:0:0:5, 5:0:0:0:4, 4:0:0:0:5, 7:4:0:0:14, 6:1:0:0:13, 10:0:0:0:8, 7:0:0:0:12, 4:0:0:0:3, 3:0:0:0:5, 7:2:2:0:7, 6:1:0:0:9, 7:5:0:0:14, 6:3:0:0:5, 7:9:0:0:18, 7:9:0:0:14, 8:1:0:0:13, 9:4:0:0:17, 7:0:0:0:9, 7:1:0:0:10, 9:2:0:0:11, 7:2:0:0:13, 8:0:0:0:9, 7:1:0:0:12, 4:0:0:0:4, 4:0:0:0:9, 5:0:0:0:4, 5:0:0:0:7, 2:0:0:0:4, 2:0:0:0:1, 10:3:0:0:13, 7:1:0:0:15, 12:1:0:0:14, 9:1:0:0:18, 5:0:0:0:6, 3:0:0:0:4, 7:1:1:0:7, 4:0:0:0:4, 7:4:0:0:16, 6:3:0:0:16, 7:0:0:0:12, 6:0:0:0:7, 5:0:0:0:5, 3:0:0:0:7, 7:1:1:0:7, 4:0:0:0:4, 8:7:0:0:13, 6:5:0:0:8, 8:12:0:0:23, 7:3:0:0:6, 7:1:0:0:13, 7:2:0:0:10, 7:0:0:0:7, 10:2:0:0:14, 10:3:0:0:14, 8:1:0:0:17, 9:0:0:0:12, 8:1:0:0:12, 4:0:0:0:4, 3:0:0:0:6, 10:2:0:0:9, 7:0:0:0:6, 7:0:0:0:5, 3:0:0:0:2, 8:2:0:0:8, 7:1:0:0:13, 8:0:0:0:10, 7:0:0:0:12, 4:0:0:0:3, 3:0:0:0:9, 8:0:0:0:6, 7:0:0:0:6, 14:2:0:0:14, 9:3:0:0:18, 10:1:0:0:12, 9:1:0:0:16, 5:0:0:0:5, 3:0:0:0:6, 7:0:0:0:7, 8:0:0:0:8, 6:4:0:0:9, 7:3:0:0:6, 10:8:0:0:19, 8:3:0:0:8, 9:2:0:0:15, 7:2:0:0:10, 8:0:0:0:7, 8:2:0:0:11, 7:2:0:0:11, 7:2:0:0:13, 10:0:0:0:11, 8:1:0:0:9, 4:0:0:0:5, 3:0:0:0:6, 5:0:0:0:4, 5:0:0:0:3, 2:0:0:0:1, 3:0:0:0:4, 2:0:0:0:1, 4:0:0:0:4, 2:0:0:0:1, 12:2:0:0:10, 18:8:2:0:15, 3:0:0:0:2, 0:0:0:0:0, 1155:244:9:0:1588
C# major (7#), 0:0:0:0:0, 5:0:0:0:1, 5:0:0:0:3, 9:2:0:0:9, 7:0:0:0:5, 8:11:1:0:14, 6:6:0:0:10, 8:6:1:0:10, 5:0:0:0:3, 5:0:0:0:1, 5:0:0:0:3, 8:1:0:0:8, 7:0:0:0:5, 8:10:0:0:14, 6:6:0:0:10, 8:6:1:0:11, 4:0:0:0:4, 3:0:0:0:0, 2:0:0:0:0, 4:0:0:0:0, 2:0:0:0:0, 7:1:0:0:3, 5:1:0:0:3, 7:2:0:0:6, 8:1:0:0:6, 5:0:0:0:1, 5:0:0:0:3, 8:1:0:0:8, 7:0:0:0:5, 8:11:1:0:14, 6:5:0:0:9, 8:6:1:0:9, 7:1:0:0:7, 4:2:0:0:5, 0:0:0:0:0, 7:0:0:0:2, 8:0:0:0:7, 12:1:0:0:11, 6:0:0:0:8, 9:10:0:0:14, 8:8:0:0:15, 10:7:2:0:10, 6:0:0:0:5, 6:0:0:0:1, 8:0:0:0:3, 10:1:0:0:5, 8:0:0:0:8, 9:10:0:0:16, 7:7:0:0:13, 11:8:1:0:11, 6:0:0:0:4, 8:0:0:0:1, 3:0:0:0:0, 8:0:0:0:1, 5:0:0:0:1, 11:1:0:0:6, 7:1:0:0:4, 8:4:0:0:12, 12:1:0:0:5, 10:0:0:0:3, 9:2:0:0:9, 9:1:0:0:8, 8:1:0:0:10, 8:11:0:0:16, 8:8:0:0:15, 11:6:1:0:11, 5:1:0:0:5, 6:4:0:0:7, 0:0:0:0:0, 5:0:0:0:1, 5:0:0:0:3, 9:1:0:0:7, 7:0:0:0:5, 8:10:0:0:15, 7:7:0:0:13, 7:5:1:0:9, 4:0:0:0:3, 5:0:0:0:2, 5:0:0:0:4, 10:1:0:0:6, 7:0:0:0:6, 8:7:0:0:10, 6:4:0:0:11, 10:7:2:0:11, 5:0:0:0:5, 5:0:0:0:0, 2:0:0:0:0, 3:0:0:0:0, 3:0:0:0:0, 7:2:0:0:6, 8:1:0:0:7, 8:2:0:0:6, 7:1:0:0:4, 8:0:0:0:2, 6:0:0:0:4, 8:3:0:0:8, 8:1:0:0:8, 8:10:0:0:13, 8:9:0:0:18, 7:5:1:0:9, 6:1:0:0:8, 5:2:0:0:4, 0:0:0:0:0, 7:0:0:0:4, 6:0:0:0:4, 13:3:0:0:11, 8:0:0:0:9, 9:11:1:0:19, 7:11:0:0:17, 9:7:2:0:13, 4:0:0:0:2, 5:0:0:0:1, 5:0:0:0:6, 7:1:0:0:9, 6:0:0:0:4, 9:10:0:0:15, 7:11:0:0:19, 9:10:2:0:16, 4:0:0:0:2, 5:0:0:0:0, 3:0:0:0:0, 5:0:0:0:1, 3:0:0:0:0, 6:3:0:0:7, 7:2:0:0:6, 8:2:0:0:5, 10:2:0:0:7, 8:0:0:0:3, 7:1:0:0:9, 8:2:0:0:7, 8:1:0:0:7, 8:10:0:0:14, 7:5:0:0:15, 12:7:1:0:11, 8:2:0:0:7, 9:5:0:0:11, 1:0:0:0:1, 6:0:0:0:2, 6:0:0:0:4, 8:1:0:0:9, 7:0:0:0:7, 9:9:0:0:12, 7:10:0:0:20, 11:5:1:0:12, 6:0:0:0:3, 12:1:0:0:5, 9:1:0:0:4, 10:2:0:0:10, 9:0:0:0:8, 10:12:1:0:17, 7:7:0:0:15, 10:9:1:0:17, 8:1:0:0:5, 3:0:0:0:0, 3:0:0:0:0, 6:0:0:0:0, 5:0:0:0:0, 8:2:0:0:8, 6:1:0:0:3, 8:3:0:0:7, 7:2:0:0:7, 5:0:0:0:1, 6:0:0:0:3, 9:2:1:0:8, 8:2:0:0:7, 8:8:0:0:13, 7:7:0:0:15, 8:6:1:0:10, 5:1:0:0:3, 4:2:0:0:5, 6:3:0:0:6, 4:2:0:0:5, 6:3:0:0:5, 4:2:0:0:6, 11:4:0:0:8, 17:3:0:0:8, 6:2:0:0:4, 0:0:0:0:0, 1215:470:24:0:1189
Ab minor (7b), 2:0:0:0:1, 7:2:0:0:11, 6:1:0:0:9, 8:0:0:0:9, 7:0:0:0:10, 3:0:0:0:2, 3:0:0:0:5, 6:0:0:0:4, 5:0:0:0:5, 7:2:0:0:11, 6:1:0:0:9, 8:0:0:0:9, 7:0:0:0:10, 4:0:0:0:3, 3:0:0:0:5, 6:0:0:0:5, 5:0:0:0:6, 6:6:0:0:11, 4:4:0:0:6, 7:6:1:0:12, 4:2:0:0:4, 8:1:0:0:9, 7:2:0:0:10, 6:0:0:0:6, 8:1:0:0:8, 7:2:0:0:11, 6:1:0:0:9, 8:0:0:0:10, 7:0:0:0:10, 3:0:0:0:2, 3:0:0:0:6, 6:0:0:0:3, 5:0:0:0:6, 2:0:0:0:1, 1:0:0:0:0, 10:4:0:0:17, 8:3:0:0:23, 12:1:0:0:18, 7:0:0:0:10, 5:0:0:0:4, 4:1:0:0:7, 8:1:1:0:4, 6:0:0:0:11, 9:9:0:0:15, 9:5:0:0:17, 10:0:0:0:12, 8:0:0:0:14, 5:0:0:0:6, 3:0:0:0:4, 8:0:0:0:5, 6:0:0:0:9, 10:8:1:0:17, 6:5:0:0:7, 11:5:0:0:17, 8:5:0:0:10, 13:3:0:0:19, 7:2:0:0:8, 7:0:0:0:11, 12:2:0:0:10, 12:4:0:0:19, 9:2:0:0:19, 9:0:0:0:18, 7:0:0:0:16, 4:0:0:0:4, 5:0:0:0:8, 8:0:0:0:6, 4:0:0:0:4, 3:0:0:0:3, 0:0:0:0:0, 7:4:0:0:13, 6:1:0:0:9, 8:0:0:0:9, 7:0:0:0:10, 4:0:0:0:4, 3:0:0:0:5, 5:0:0:0:4, 4:0:0:0:5, 7:4:0:0:14, 6:1:0:0:13, 10:0:0:0:8, 7:0:0:0:12, 4:0:0:0:3, 3:0:0:0:5, 7:2:2:0:7, 6:1:0:0:9, 7:5:0:0:14, 6:3:0:0:5, 7:9:0:0:18, 7:9:0:0:14, 8:1:0:0:13, 9:4:0:0:17, 7:0:0:0:9, 7:1:0:0:10, 9:2:0:0:11, 7:2:0:0:13, 8:0:0:0:9, 7:1:0:0:12, 4:0:0:0:4, 4:0:0:0:9, 5:0:0:0:4, 5:0:0:0:7, 2:0:0:0:4, 2:0:0:0:1, 10:3:0:0:13, 7:1:0:0:15, 12:1:0:0:14, 9:1:0:0:18, 5:0:0:0:6, 3:0:0:0:4, 7:1:1:0:7, 4:0:0:0:4, 7:4:0:0:16, 6:3:0:0:16, 7:0:0:0:12, 6:0:0:0:7, 5:0:0:0:5, 3:0:0:0:7, 7:1:1:0:7, 4:0:0:0:4, 8:7:0:0:13, 6:5:0:0:8, 8:12:0:0:23, 7:3:0:0:6, 7:1:0:0:13, 7:2:0:0:10, 7:0:0:0:7, 10:2:0:0:14, 10:3:0:0:14, 8:1:0:0:17, 9:0:0:0:12, 8:1:0:0:12, 4:0:0:0:4, 3:0:0:0:6, 10:2:0:0:9, 7:0:0:0:6, 7:0:0:0:5, 3:0:0:0:2, 8:2:0:0:8, 7:1:0:0:13, 8:0:0:0:10, 7:0:0:0:12, 4:0:0:0:3, 3:0:0:0:9, 8:0:0:0:6, 7:0:0:0:6, 14:2:0:0:14, 9:3:0:0:18, 10:1:0:0:12, 9:1:0:0:16, 5:0:0:0:5, 3:0:0:0:6, 7:0:0:0:7, 8:0:0:0:8, 6:4:0:0:9, 7:3:0:0:6, 10:8:0:0:19, 8:3:0:0:8, 9:2:0:0:15, 7:2:0:0:10, 8:0:0:0:7, 8:2:0:0:11, 7:2:0:0:11, 7:2:0:0:13, 10:0:0:0:11, 8:1:0:0:9, 4:0:0:0:5, 3:0:0:0:6, 5:0:0:0:4, 5:0:0:0:3, 2:0:0:0:1, 3:0:0:0:4, 2:0:0:0:1, 4:0:0:0:4, 2:0:0:0:1, 12:2:0:0:10, 18:8:2:0:15, 3:0:0:0:2, 0:0:0:0:0, 1155:244:9:0:1588
A# minor (7#), 0:0:0:0:0, 5:0:0:0:1, 5:0:0:0:3, 9:2:0:0:9, 7:0:0:0:5, 8:11:1:0:14, 6:6:0:0:10, 8:6:1:0:10, 5:0:0:0:3, 5:0:0:0:1, 5:0:0:0:3, 8:1:0:0:8, 7:0:0:0:5, 8:10:0:0:14, 6:6:0:0:10, 8:6:1:0:11, 4:0:0:0:4, 3:0:0:0:0, 2:0:0:0:0, 4:0:0:0:0, 2:0:0:0:0, 7:1:0:0:3, 5:1:0:0:3, 7:2:0:0:6, 8:1:0:0:6, 5:0:0:0:1, 5:0:0:0:3, 8:1:0:0:8, 7:0:0:0:5, 8:11:1:0:14, 6:5:0:0:9, 8:6:1:0:9, 7:1:0:0:7, 4:2:0:0:5, 0:0:0:0:0, 7:0:0:0:2, 8:0:0:0:7, 12:1:0:0:11, 6:0:0:0:8, 9:10:0:0:14, 8:8:0:0:15, 10:7:2:0:10, 6:0:0:0:5, 6:0:0:0:1, 8:0:0:0:3, 10:1:0:0:5, 8:0:0:0:8, 9:10:0:0:16, 7:7:0:0:13, 11:8:1:0:11, 6:0:0:0:4, 8:0:0:0:1, 3:0:0:0:0, 8:0:0:0:1, 5:0:0:0:1, 11:1:0:0:6, 7:1:0:0:4, 8:4:0:0:12, 12:1:0:0:5, 10:0:0:0:3, 9:2:0:0:9, 9:1:0:0:8, 8:1:0:0:10, 8:11:0:0:16, 8:8:0:0:15, 11:6:1:0:11, 5:1:0:0:5, 6:4:0:0:7, 0:0:0:0:0, 5:0:0:0:1, 5:0:0:0:3, 9:1:0:0:7, 7:0:0:0:5, 8:10:0:0:15, 7:7:0:0:13, 7:5:1:0:9, 4:0:0:0:3, 5:0:0:0:2, 5:0:0:0:4, 10:1:0:0:6, 7:0:0:0:6, 8:7:0:0:10, 6:4:0:0:11, 10:7:2:0:11, 5:0:0:0:5, 5:0:0:0:0, 2:0:0:0:0, 3:0:0:0:0, 3:0:0:0:0, 7:2:0:0:6, 8:1:0:0:7, 8:2:0:0:6, 7:1:0:0:4, 8:0:0:0:2, 6:0:0:0:4, 8:3:0:0:8, 8:1:0:0:8, 8:10:0:0:13, 8:9:0:0:18, 7:5:1:0:9, 6:1:0:0:8, 5:2:0:0:4, 0:0:0:0:0, 7:0:0:0:4, 6:0:0:0:4, 13:3:0:0:11, 8:0:0:0:9, 9:11:1:0:19, 7:11:0:0:17, 9:7:2:0:13, 4:0:0:0:2, 5:0:0:0:1, 5:0:0:0:6, 7:1:0:0:9, 6:0:0:0:4, 9:10:0:0:15, 7:11:0:0:19, 9:10:2:0:16, 4:0:0:0:2, 5:0:0:0:0, 3:0:0:0:0, 5:0:0:0:1, 3:0:0:0:0, 6:3:0:0:7, 7:2:0:0:6, 8:2:0:0:5, 10:2:0:0:7, 8:0:0:0:3, 7:1:0:0:9, 8:2:0:0:7, 8:1:0:0:7, 8:10:0:0:14, 7:5:0:0:15, 12:7:1:0:11, 8:2:0:0:7, 9:5:0:0:11, 1:0:0:0:1, 6:0:0:0:2, 6:0:0:0:4, 8:1:0:0:9, 7:0:0:0:7, 9:9:0:0:12, 7:10:0:0:20, 11:5:1:0:12, 6:0:0:0:3, 12:1:0:0:5, 9:1:0:0:4, 10:2:0:0:10, 9:0:0:0:8, 10:12:1:0:17, 7:7:0:0:15, 10:9:1:0:17, 8:1:0:0:5, 3:0:0:0:0, 3:0:0:0:0, 6:0:0:0:0, 5:0:0:0:0, 8:2:0:0:8, 6:1:0:0:3, 8:3:0:0:7, 7:2:0:0:7, 5:0:0:0:1, 6:0:0:0:3, 9:2:1:0:8, 8:2:0:0:7, 8:8:0:0:13, 7:7:0:0:15, 8:6:1:0:10, 5:1:0:0:3, 4:2:0:0:5, 6:3:0:0:6, 4:2:0:0:5, 6:3:0:0:5, 4:2:0:0:6, 11:4:0:0:8, 17:3:0:0:8, 6:2:0:0:4, 0:0:0:0:0, 1215:470:24:0:1189
