 , 0, 1, 2, 3, 4, 5, 6, 7, 8, 9, 10, 11, 12, 13, 14, 15, 16, 17, 18, 19, 20, 21, 22, 23, 24, 25, 26, 27, 28, 29, 30, 31, 32, 33, 34, 35, 36, 37, 38, 39, 40, 41, 42, 43, 44, 45, 46, 47, 48, 49, 50, 51, 52, 53, 54, 55, 56, 57, 58, 59, 60, 61, 62, 63, 64, rowcost
C major (0), 1, 4, 1, 0, 3, 5, 2, 2, 1, 3, 1, 3, 2, 3, 1, 3, 1, 2, 0, 0, 1, 0, 3, 4, 1, 4, 1, 0, 3, 5, 3, 1, 1, 5, 1,  , 2, 3, 1, 1, 2, 0, 3, 4, 2, 3, 0,  , 1, 2, 2, 2, 1, 1, 1, 0, 1, 0, 2, 2, 2, 3, 3, 4, 0, 119
A minor (0), 1, 5, 1, 1, 3, 3, 3, 3, 1, 4, 1, 5, 3, 4, 2, 2, 2, 1, 1, 1, 2, 1, 3, 2, 1, 5, 1, 1, 3, 3, 4, 2, 1, 4, 2,  , 1, 4, 1, 1, 2, 0, 4, 5, 1, 4, 0,  , 2, 0, 3, 1, 2, 2, 4, 0, 1, 0, 1, 4, 4, 3, 2, 3, 0, 137
A minor mel (0), 2, 5, 2, 2, 2, 3, 4, 4, 2, 3, 2, 5, 3, 5, 3, 2, 1, 1, 2, 1, 2, 1, 4, 1, 2, 5, 2, 2, 2, 3, 5, 2, 1, 3, 3,  , 1, 5, 1, 1, 3, 0, 3, 5, 1, 5, 1,  , 2, 1, 3, 1, 3, 2, 5, 1, 2, 1, 1, 5, 5, 3, 2, 2, 1, 158
C major blues (0), 2, 4, 2, 1, 3, 5, 3, 3, 2, 3, 2, 3, 3, 4, 2, 3, 1, 3, 3, 0, 2, 0, 4, 4, 2, 4, 2, 1, 3, 5, 4, 1, 1, 5, 2,  , 3, 4, 1, 1, 4, 0, 4, 4, 3, 4, 1,  , 3, 4, 3, 3, 3, 2, 2, 1, 2, 1, 4, 3, 3, 3, 3, 4, 1, 166
A minor blues (0), 2, 4, 2, 1, 4, 2, 4, 3, 2, 3, 2, 4, 5, 4, 2, 3, 1, 2, 3, 0, 2, 0, 4, 4, 2, 4, 2, 1, 4, 2, 5, 1, 1, 5, 2,  , 3, 4, 1, 1, 4, 0, 4, 4, 3, 4, 1,  , 3, 3, 4, 3, 3, 2, 5, 1, 2, 1, 4, 4, 6, 3, 2, 4, 1, 172
C dorian (0), 2, 4, 2, 1, 2, 5, 3, 3, 2, 2, 2, 3, 2, 4, 2, 3, 0, 2, 1, 0, 1, 0, 4, 3, 2, 4, 2, 1, 2, 5, 4, 1, 1, 4, 2,  , 2, 4, 1, 1, 3, 0, 2, 4, 2, 4, 1,  , 1, 3, 2, 2, 2, 1, 2, 1, 2, 1, 2, 3, 3, 3, 3, 3, 1, 140
C phrygian (0), 1, 3, 0, 0, 3, 4, 1, 1, 1, 2, 0, 2, 3, 2, 1, 2, 1, 2, 1, 0, 0, 0, 3, 4, 1, 3, 0, 0, 3, 4, 2, 0, 0, 5, 0,  , 3, 2, 0, 0, 1, 0, 2, 3, 3, 2, 0,  , 2, 3, 2, 3, 0, 0, 1, 0, 1, 0, 3, 1, 1, 2, 2, 3, 0, 95
C lydian (0), 2, 4, 2, 1, 2, 5, 3, 3, 2, 2, 2, 3, 2, 4, 2, 3, 0, 2, 1, 0, 1, 0, 4, 3, 2, 4, 2, 1, 2, 5, 4, 1, 1, 4, 2,  , 2, 4, 1, 1, 3, 0, 2, 4, 2, 4, 1,  , 1, 3, 2, 2, 2, 1, 2, 1, 2, 1, 2, 3, 3, 3, 3, 3, 1, 140
C mixolydian (0), 1, 3, 0, 0, 3, 4, 1, 1, 1, 2, 0, 2, 3, 2, 1, 2, 1, 2, 1, 0, 0, 0, 3, 4, 1, 3, 0, 0, 3, 4, 2, 0, 0, 5, 0,  , 3, 2, 0, 0, 1, 0, 2, 3, 3, 2, 0,  , 2, 3, 2, 3, 0, 0, 1, 0, 1, 0, 3, 1, 1, 2, 2, 3, 0, 95
C aeolian (0), 1, 4, 1, 0, 3, 5, 2, 2, 1, 3, 1, 3, 2, 3, 1, 3, 1, 2, 0, 0, 1, 0, 3, 4, 1, 4, 1, 0, 3, 5, 3, 1, 1, 5, 1,  , 2, 3, 1, 1, 2, 0, 3, 4, 2, 3, 0,  , 1, 2, 2, 2, 1, 1, 1, 0, 1, 0, 2, 2, 2, 3, 3, 4, 0, 119
C locrian (0), 0, 2, 0, 0, 3, 4, 0, 1, 0, 1, 0, 1, 2, 2, 0, 1, 1, 3, 2, 0, 1, 0, 2, 3, 0, 2, 0, 0, 3, 4, 1, 0, 0, 4, 0,  , 3, 1, 0, 0, 2, 0, 3, 2, 3, 1, 0,  , 3, 3, 3, 3, 1, 1, 0, 0, 0, 0, 4, 0, 1, 1, 2, 2, 0, 82
F major (1b), 1, 3, 0, 0, 2, 4, 1, 1, 1, 2, 0, 2, 3, 2, 1, 2, 1, 2, 1, 0, 0, 0, 3, 4, 1, 3, 0, 0, 2, 4, 2, 0, 0, 4, 0,  , 3, 2, 0, 0, 1, 0, 1, 3, 3, 2, 0,  , 2, 3, 2, 3, 0, 0, 1, 0, 1, 0, 3, 1, 1, 2, 2, 3, 0, 91
G major (1#), 2, 3, 2, 1, 2, 2, 3, 3, 2, 2, 2, 3, 2, 4, 2, 3, 0, 1, 1, 0, 1, 0, 3, 3, 2, 3, 2, 1, 2, 2, 5, 1, 1, 4, 2,  , 2, 4, 1, 1, 3, 0, 2, 3, 2, 4, 1,  , 1, 3, 2, 2, 2, 1, 2, 1, 2, 1, 2, 3, 3, 3, 2, 3, 1, 129
D minor (1b), 1, 3, 1, 1, 5, 0, 1, 1, 1, 3, 1, 3, 5, 3, 2, 3, 1, 2, 1, 0, 0, 1, 1, 4, 1, 3, 1, 1, 5, 0, 2, 1, 1, 5, 0,  , 4, 3, 1, 0, 2, 1, 3, 1, 4, 3, 0,  , 3, 3, 1, 4, 1, 1, 2, 0, 1, 1, 4, 2, 4, 3, 0, 4, 0, 120
E minor (1#), 3, 3, 3, 1, 3, 3, 6, 4, 3, 1, 3, 3, 3, 5, 1, 3, 0, 2, 2, 0, 3, 1, 5, 1, 3, 3, 3, 1, 3, 3, 4, 1, 3, 2, 2,  , 2, 3, 6, 1, 4, 0, 4, 3, 4, 3, 2,  , 1, 3, 2, 3, 4, 3, 6, 1, 1, 2, 2, 4, 8, 2, 3, 2, 2, 171
D minor mel (1b), 1, 4, 2, 1, 5, 1, 2, 2, 1, 4, 2, 4, 4, 4, 2, 4, 1, 2, 0, 0, 1, 1, 1, 4, 1, 4, 2, 1, 5, 1, 3, 2, 2, 5, 1,  , 3, 4, 2, 1, 3, 1, 4, 2, 3, 4, 0,  , 2, 2, 1, 3, 2, 2, 2, 0, 1, 1, 3, 3, 5, 4, 1, 5, 0, 144
E minor mel (1#), 3, 4, 4, 2, 4, 2, 6, 4, 3, 2, 4, 4, 4, 6, 2, 4, 0, 3, 2, 0, 3, 2, 4, 1, 3, 4, 4, 2, 4, 2, 3, 2, 4, 2, 2,  , 3, 4, 7, 1, 5, 1, 5, 2, 5, 4, 2,  , 2, 4, 1, 4, 5, 4, 7, 1, 1, 3, 3, 5, 8, 3, 2, 3, 2, 202
F major blues (1b), 1, 4, 1, 0, 2, 5, 3, 3, 1, 3, 1, 3, 3, 3, 1, 4, 2, 3, 3, 1, 3, 1, 3, 4, 1, 4, 1, 0, 2, 5, 3, 1, 2, 5, 1,  , 3, 3, 2, 1, 3, 0, 4, 4, 4, 3, 0,  , 4, 3, 3, 3, 3, 3, 1, 0, 1, 1, 5, 3, 3, 3, 3, 5, 0, 154
G major blues (1#), 2, 4, 3, 2, 4, 2, 3, 3, 2, 4, 3, 4, 4, 5, 3, 4, 1, 2, 2, 0, 1, 1, 3, 4, 2, 4, 3, 2, 4, 2, 5, 2, 2, 5, 2,  , 4, 5, 2, 1, 4, 1, 4, 3, 4, 5, 1,  , 3, 5, 2, 4, 3, 2, 3, 1, 2, 2, 4, 4, 3, 4, 2, 5, 1, 183
D minor blues (1b), 1, 3, 1, 0, 4, 2, 3, 3, 1, 3, 1, 3, 4, 3, 1, 4, 2, 2, 3, 1, 3, 1, 2, 4, 1, 3, 1, 0, 4, 2, 4, 1, 2, 6, 1,  , 3, 3, 2, 1, 3, 0, 5, 3, 4, 3, 0,  , 4, 3, 3, 3, 3, 3, 1, 0, 1, 1, 5, 3, 6, 3, 2, 5, 0, 153
E minor blues (1#), 2, 5, 3, 2, 5, 2, 5, 3, 2, 4, 3, 5, 6, 5, 3, 3, 1, 2, 2, 0, 2, 1, 4, 3, 2, 5, 3, 2, 5, 2, 5, 2, 4, 4, 2,  , 4, 5, 6, 1, 4, 1, 5, 4, 6, 5, 1,  , 3, 4, 3, 4, 4, 3, 6, 1, 2, 2, 4, 6, 8, 4, 2, 5, 1, 213
F dorian (1b), 1, 4, 1, 0, 2, 5, 2, 2, 1, 3, 1, 3, 2, 3, 1, 3, 1, 2, 0, 0, 1, 0, 3, 4, 1, 4, 1, 0, 2, 5, 3, 1, 1, 4, 1,  , 2, 3, 1, 1, 2, 0, 2, 4, 2, 3, 0,  , 1, 2, 2, 2, 1, 1, 1, 0, 1, 0, 2, 2, 2, 3, 3, 4, 0, 115
G dorian (1#), 2, 4, 3, 2, 3, 1, 3, 3, 2, 3, 3, 4, 3, 5, 3, 4, 0, 2, 1, 0, 1, 1, 2, 3, 2, 4, 3, 2, 3, 1, 4, 2, 2, 4, 2,  , 3, 5, 2, 1, 4, 1, 3, 2, 3, 5, 1,  , 2, 4, 1, 3, 3, 2, 3, 1, 2, 2, 3, 4, 3, 4, 1, 4, 1, 160
F phrygian (1b), 0, 2, 0, 0, 2, 4, 0, 1, 0, 1, 0, 1, 2, 2, 0, 1, 1, 3, 2, 0, 1, 0, 2, 3, 0, 2, 0, 0, 2, 4, 1, 0, 0, 3, 0,  , 3, 1, 0, 0, 2, 0, 2, 2, 3, 1, 0,  , 3, 3, 3, 3, 1, 1, 0, 0, 0, 0, 4, 0, 1, 1, 2, 2, 0, 78
G phrygian (1#), 1, 3, 1, 0, 3, 2, 2, 2, 1, 3, 1, 3, 2, 3, 1, 3, 1, 1, 0, 0, 1, 0, 2, 4, 1, 3, 1, 0, 3, 2, 4, 1, 1, 5, 1,  , 2, 3, 1, 1, 2, 0, 3, 3, 2, 3, 0,  , 1, 2, 2, 2, 1, 1, 1, 0, 1, 0, 2, 2, 2, 3, 2, 4, 0, 108
F lydian (1b), 1, 4, 1, 0, 2, 5, 2, 2, 1, 3, 1, 3, 2, 3, 1, 3, 1, 2, 0, 0, 1, 0, 3, 4, 1, 4, 1, 0, 2, 5, 3, 1, 1, 4, 1,  , 2, 3, 1, 1, 2, 0, 2, 4, 2, 3, 0,  , 1, 2, 2, 2, 1, 1, 1, 0, 1, 0, 2, 2, 2, 3, 3, 4, 0, 115
G lydian (1#), 2, 4, 3, 2, 3, 1, 3, 3, 2, 3, 3, 4, 3, 5, 3, 4, 0, 2, 1, 0, 1, 1, 2, 3, 2, 4, 3, 2, 3, 1, 4, 2, 2, 4, 2,  , 3, 5, 2, 1, 4, 1, 3, 2, 3, 5, 1,  , 2, 4, 1, 3, 3, 2, 3, 1, 2, 2, 3, 4, 3, 4, 1, 4, 1, 160
F mixolydian (1b), 0, 2, 0, 0, 2, 4, 0, 1, 0, 1, 0, 1, 2, 2, 0, 1, 1, 3, 2, 0, 1, 0, 2, 3, 0, 2, 0, 0, 2, 4, 1, 0, 0, 3, 0,  , 3, 1, 0, 0, 2, 0, 2, 2, 3, 1, 0,  , 3, 3, 3, 3, 1, 1, 0, 0, 0, 0, 4, 0, 1, 1, 2, 2, 0, 78
G mixolydian (1#), 1, 3, 1, 0, 3, 2, 2, 2, 1, 3, 1, 3, 2, 3, 1, 3, 1, 1, 0, 0, 1, 0, 2, 4, 1, 3, 1, 0, 3, 2, 4, 1, 1, 5, 1,  , 2, 3, 1, 1, 2, 0, 3, 3, 2, 3, 0,  , 1, 2, 2, 2, 1, 1, 1, 0, 1, 0, 2, 2, 2, 3, 2, 4, 0, 108
F aeolian (1b), 1, 3, 0, 0, 2, 4, 1, 1, 1, 2, 0, 2, 3, 2, 1, 2, 1, 2, 1, 0, 0, 0, 3, 4, 1, 3, 0, 0, 2, 4, 2, 0, 0, 4, 0,  , 3, 2, 0, 0, 1, 0, 1, 3, 3, 2, 0,  , 2, 3, 2, 3, 0, 0, 1, 0, 1, 0, 3, 1, 1, 2, 2, 3, 0, 91
G aeolian (1#), 2, 3, 2, 1, 2, 2, 3, 3, 2, 2, 2, 3, 2, 4, 2, 3, 0, 1, 1, 0, 1, 0, 3, 3, 2, 3, 2, 1, 2, 2, 5, 1, 1, 4, 2,  , 2, 4, 1, 1, 3, 0, 2, 3, 2, 4, 1,  , 1, 3, 2, 2, 2, 1, 2, 1, 2, 1, 2, 3, 3, 3, 2, 3, 1, 129
F locrian (1b), 0, 2, 0, 0, 1, 4, 1, 2, 0, 1, 0, 0, 1, 2, 0, 2, 2, 3, 3, 1, 2, 1, 2, 2, 0, 2, 0, 0, 1, 4, 1, 0, 1, 4, 0,  , 2, 1, 1, 0, 2, 0, 3, 2, 4, 1, 0,  , 4, 2, 3, 2, 2, 2, 0, 0, 0, 1, 5, 1, 2, 1, 2, 3, 0, 91
G locrian (1#), 1, 2, 0, 0, 3, 1, 1, 1, 1, 2, 0, 2, 3, 2, 1, 2, 1, 1, 1, 0, 0, 0, 2, 4, 1, 2, 0, 0, 3, 1, 3, 0, 0, 5, 0,  , 3, 2, 0, 0, 1, 0, 2, 2, 3, 2, 0,  , 2, 3, 2, 3, 0, 0, 1, 0, 1, 0, 3, 1, 1, 2, 1, 3, 0, 84
Bb major (2b), 0, 2, 0, 0, 2, 4, 0, 1, 0, 1, 0, 1, 2, 2, 0, 1, 1, 3, 2, 0, 1, 0, 2, 3, 0, 2, 0, 0, 2, 4, 1, 0, 0, 3, 0,  , 2, 1, 0, 0, 2, 0, 2, 2, 2, 1, 0,  , 4, 4, 3, 2, 1, 1, 0, 0, 0, 0, 4, 0, 1, 1, 2, 2, 0, 77
D major (2#), 2, 4, 3, 2, 4, 1, 3, 3, 2, 3, 3, 4, 4, 5, 3, 4, 0, 2, 1, 0, 1, 1, 2, 3, 2, 4, 3, 2, 4, 1, 4, 2, 2, 4, 2,  , 3, 5, 2, 1, 4, 1, 3, 2, 3, 5, 1,  , 2, 3, 1, 3, 3, 2, 3, 1, 2, 2, 3, 4, 6, 4, 1, 4, 1, 165
G minor (2b), 1, 1, 1, 1, 2, 1, 1, 2, 1, 0, 1, 1, 2, 3, 1, 1, 0, 2, 3, 0, 1, 0, 2, 2, 1, 1, 1, 1, 2, 1, 3, 0, 0, 3, 1,  , 3, 2, 0, 0, 3, 0, 2, 1, 3, 2, 1,  , 3, 4, 3, 3, 2, 1, 1, 1, 1, 1, 4, 1, 2, 1, 1, 1, 1, 92
B minor (2#), 2, 4, 2, 2, 4, 0, 4, 4, 2, 2, 2, 4, 5, 3, 3, 4, 1, 2, 3, 1, 1, 2, 3, 2, 2, 4, 2, 2, 4, 0, 3, 1, 3, 4, 1,  , 2, 3, 5, 0, 3, 1, 4, 2, 4, 3, 1,  , 3, 4, 2, 2, 4, 4, 6, 1, 2, 3, 4, 5, 7, 3, 0, 5, 1, 172
G minor mel (2b), 2, 2, 1, 1, 2, 1, 2, 2, 2, 1, 1, 2, 3, 3, 2, 2, 0, 1, 2, 0, 0, 0, 3, 3, 2, 2, 1, 1, 2, 1, 4, 0, 0, 4, 1,  , 3, 3, 0, 0, 2, 0, 1, 2, 3, 3, 1,  , 2, 4, 2, 3, 1, 0, 2, 1, 2, 1, 3, 2, 2, 2, 1, 2, 1, 105
B minor mel (2#), 2, 5, 2, 3, 3, 1, 4, 5, 2, 3, 2, 5, 4, 4, 4, 4, 2, 2, 4, 2, 2, 3, 3, 1, 2, 5, 2, 3, 3, 1, 3, 2, 3, 4, 2,  , 1, 4, 5, 0, 3, 1, 5, 3, 3, 4, 1,  , 4, 3, 2, 1, 5, 5, 6, 1, 2, 3, 3, 6, 6, 3, 0, 5, 1, 188
Bb major blues (2b), 2, 3, 1, 0, 2, 4, 3, 3, 2, 2, 1, 3, 4, 3, 1, 4, 2, 3, 4, 1, 3, 2, 4, 4, 2, 3, 1, 0, 2, 4, 2, 0, 1, 6, 0,  , 2, 2, 2, 0, 3, 0, 4, 3, 3, 2, 1,  , 5, 5, 4, 3, 3, 3, 2, 0, 1, 2, 5, 3, 2, 2, 2, 4, 1, 151
D major blues (2#), 2, 5, 3, 3, 5, 3, 3, 4, 2, 5, 3, 5, 4, 6, 4, 4, 2, 2, 2, 1, 2, 2, 3, 4, 2, 5, 3, 3, 5, 3, 5, 3, 2, 5, 3,  , 3, 6, 2, 1, 4, 1, 5, 4, 3, 6, 1,  , 3, 3, 2, 3, 4, 3, 3, 1, 2, 2, 3, 5, 6, 4, 2, 5, 1, 206
G minor blues (2b), 2, 3, 1, 0, 3, 2, 3, 3, 2, 2, 1, 3, 4, 3, 1, 4, 2, 3, 4, 1, 3, 2, 3, 4, 2, 3, 1, 0, 3, 2, 3, 0, 1, 7, 0,  , 3, 2, 2, 0, 3, 0, 5, 3, 4, 2, 1,  , 4, 4, 4, 4, 3, 3, 2, 0, 1, 2, 5, 3, 2, 2, 2, 4, 1, 152
B minor blues (2#), 2, 6, 3, 3, 5, 3, 5, 4, 2, 5, 3, 6, 5, 6, 4, 3, 2, 2, 3, 1, 3, 2, 4, 3, 2, 6, 3, 3, 5, 3, 5, 3, 4, 4, 3,  , 3, 6, 6, 1, 4, 1, 7, 5, 5, 6, 1,  , 3, 3, 3, 3, 6, 4, 6, 1, 2, 2, 3, 7, 8, 4, 2, 5, 1, 234
Bb dorian (2b), 1, 3, 0, 0, 2, 4, 1, 1, 1, 2, 0, 2, 3, 2, 1, 2, 1, 2, 1, 0, 0, 0, 3, 4, 1, 3, 0, 0, 2, 4, 2, 0, 0, 4, 0,  , 2, 2, 0, 0, 1, 0, 1, 3, 2, 2, 0,  , 3, 4, 2, 2, 0, 0, 1, 0, 1, 0, 3, 1, 1, 2, 2, 3, 0, 90
D dorian (2#), 2, 5, 3, 3, 3, 2, 3, 4, 2, 4, 3, 5, 3, 6, 4, 4, 1, 2, 2, 1, 2, 2, 2, 2, 2, 5, 3, 3, 3, 2, 4, 3, 2, 4, 3,  , 2, 6, 2, 1, 4, 1, 4, 3, 2, 6, 1,  , 3, 2, 1, 2, 4, 3, 3, 1, 2, 2, 2, 5, 5, 4, 1, 4, 1, 181
Bb phrygian (2b), 1, 5, 1, 1, 3, 3, 3, 3, 1, 4, 1, 5, 3, 4, 2, 2, 2, 1, 1, 1, 2, 1, 3, 2, 1, 5, 1, 1, 3, 3, 4, 2, 1, 4, 2,  , 1, 4, 1, 1, 2, 0, 4, 5, 1, 4, 0,  , 2, 0, 3, 1, 2, 2, 4, 0, 1, 0, 1, 4, 4, 3, 2, 3, 0, 137
D phrygian (2#), 2, 5, 2, 2, 2, 3, 4, 4, 2, 3, 2, 5, 3, 5, 3, 2, 1, 1, 2, 1, 2, 1, 4, 1, 2, 5, 2, 2, 2, 3, 5, 2, 1, 3, 3,  , 1, 5, 1, 1, 3, 0, 3, 5, 1, 5, 1,  , 2, 1, 3, 1, 3, 2, 5, 1, 2, 1, 1, 5, 5, 3, 2, 2, 1, 158
Bb lydian (2b), 2, 4, 2, 1, 3, 5, 3, 3, 2, 3, 2, 3, 3, 4, 2, 3, 1, 3, 3, 0, 2, 0, 4, 4, 2, 4, 2, 1, 3, 5, 4, 1, 1, 5, 2,  , 3, 4, 1, 1, 4, 0, 4, 4, 3, 4, 1,  , 3, 4, 3, 3, 3, 2, 2, 1, 2, 1, 4, 3, 3, 3, 3, 4, 1, 166
D lydian (2#), 2, 4, 2, 1, 4, 2, 4, 3, 2, 3, 2, 4, 5, 4, 2, 3, 1, 2, 3, 0, 2, 0, 4, 4, 2, 4, 2, 1, 4, 2, 5, 1, 1, 5, 2,  , 3, 4, 1, 1, 4, 0, 4, 4, 3, 4, 1,  , 3, 3, 4, 3, 3, 2, 5, 1, 2, 1, 4, 4, 6, 3, 2, 4, 1, 172
Bb mixolydian (2b), 2, 4, 2, 1, 2, 5, 3, 3, 2, 2, 2, 3, 2, 4, 2, 3, 0, 2, 1, 0, 1, 0, 4, 3, 2, 4, 2, 1, 2, 5, 4, 1, 1, 4, 2,  , 2, 4, 1, 1, 3, 0, 2, 4, 2, 4, 1,  , 1, 3, 2, 2, 2, 1, 2, 1, 2, 1, 2, 3, 3, 3, 3, 3, 1, 140
D mixolydian (2#), 1, 3, 0, 0, 3, 4, 1, 1, 1, 2, 0, 2, 3, 2, 1, 2, 1, 2, 1, 0, 0, 0, 3, 4, 1, 3, 0, 0, 3, 4, 2, 0, 0, 5, 0,  , 3, 2, 0, 0, 1, 0, 2, 3, 3, 2, 0,  , 2, 3, 2, 3, 0, 0, 1, 0, 1, 0, 3, 1, 1, 2, 2, 3, 0, 95
Bb aeolian (2b), 2, 4, 2, 1, 2, 5, 3, 3, 2, 2, 2, 3, 2, 4, 2, 3, 0, 2, 1, 0, 1, 0, 4, 3, 2, 4, 2, 1, 2, 5, 4, 1, 1, 4, 2,  , 2, 4, 1, 1, 3, 0, 2, 4, 2, 4, 1,  , 1, 3, 2, 2, 2, 1, 2, 1, 2, 1, 2, 3, 3, 3, 3, 3, 1, 140
D aeolian (2#), 1, 3, 0, 0, 3, 4, 1, 1, 1, 2, 0, 2, 3, 2, 1, 2, 1, 2, 1, 0, 0, 0, 3, 4, 1, 3, 0, 0, 3, 4, 2, 0, 0, 5, 0,  , 3, 2, 0, 0, 1, 0, 2, 3, 3, 2, 0,  , 2, 3, 2, 3, 0, 0, 1, 0, 1, 0, 3, 1, 1, 2, 2, 3, 0, 95
Bb locrian (2b), 1, 4, 1, 0, 3, 5, 2, 2, 1, 3, 1, 3, 2, 3, 1, 3, 1, 2, 0, 0, 1, 0, 3, 4, 1, 4, 1, 0, 3, 5, 3, 1, 1, 5, 1,  , 2, 3, 1, 1, 2, 0, 3, 4, 2, 3, 0,  , 1, 2, 2, 2, 1, 1, 1, 0, 1, 0, 2, 2, 2, 3, 3, 4, 0, 119
D locrian (2#), 0, 2, 0, 0, 3, 4, 0, 1, 0, 1, 0, 1, 2, 2, 0, 1, 1, 3, 2, 0, 1, 0, 2, 3, 0, 2, 0, 0, 3, 4, 1, 0, 0, 4, 0,  , 3, 1, 0, 0, 2, 0, 3, 2, 3, 1, 0,  , 3, 3, 3, 3, 1, 1, 0, 0, 0, 0, 4, 0, 1, 1, 2, 2, 0, 82
Eb major (3b), 1, 3, 0, 0, 2, 4, 1, 1, 1, 2, 0, 2, 3, 2, 1, 2, 1, 2, 1, 0, 0, 0, 3, 4, 1, 3, 0, 0, 2, 4, 2, 0, 0, 4, 0,  , 3, 2, 0, 0, 1, 0, 1, 3, 3, 2, 0,  , 2, 3, 2, 3, 0, 0, 1, 0, 1, 0, 3, 1, 1, 2, 2, 3, 0, 91
A major (3#), 2, 3, 2, 1, 2, 2, 3, 3, 2, 2, 2, 3, 2, 4, 2, 3, 0, 1, 1, 0, 1, 0, 3, 3, 2, 3, 2, 1, 2, 2, 5, 1, 1, 4, 2,  , 2, 4, 1, 1, 3, 0, 2, 3, 2, 4, 1,  , 1, 3, 2, 2, 2, 1, 2, 1, 2, 1, 2, 3, 3, 3, 2, 3, 1, 129
C minor (3b), 1, 3, 1, 1, 5, 0, 1, 1, 1, 3, 1, 3, 5, 3, 2, 3, 1, 2, 1, 0, 0, 1, 1, 4, 1, 3, 1, 1, 5, 0, 2, 1, 1, 5, 0,  , 4, 3, 1, 0, 2, 1, 3, 1, 4, 3, 0,  , 3, 3, 1, 4, 1, 1, 2, 0, 1, 1, 4, 2, 4, 3, 0, 4, 0, 120
F# minor (3#), 3, 3, 3, 1, 3, 3, 6, 4, 3, 1, 3, 3, 3, 5, 1, 3, 0, 2, 2, 0, 3, 1, 5, 1, 3, 3, 3, 1, 3, 3, 4, 1, 3, 2, 2,  , 2, 3, 6, 1, 4, 0, 4, 3, 4, 3, 2,  , 1, 3, 2, 3, 4, 3, 6, 1, 1, 2, 2, 4, 8, 2, 3, 2, 2, 171
C minor mel (3b), 0, 3, 1, 0, 3, 5, 1, 2, 0, 2, 1, 2, 1, 3, 0, 2, 1, 3, 1, 0, 2, 0, 2, 3, 0, 3, 1, 0, 3, 5, 2, 1, 1, 4, 1,  , 2, 2, 1, 1, 3, 0, 4, 3, 2, 2, 0,  , 2, 2, 3, 2, 2, 2, 0, 0, 0, 0, 3, 1, 2, 2, 3, 3, 0, 106
F# minor mel (3#), 2, 4, 3, 2, 2, 3, 5, 4, 2, 3, 3, 5, 4, 4, 2, 5, 1, 3, 3, 1, 5, 3, 3, 1, 2, 4, 3, 2, 2, 3, 2, 3, 4, 3, 2,  , 3, 3, 7, 1, 6, 1, 6, 3, 5, 3, 1,  , 6, 2, 2, 4, 6, 6, 6, 0, 0, 2, 3, 5, 6, 2, 2, 4, 1, 199
Eb major blues (3b), 1, 4, 1, 0, 3, 5, 2, 2, 1, 3, 1, 3, 2, 3, 1, 3, 1, 2, 0, 0, 1, 0, 3, 4, 1, 4, 1, 0, 3, 5, 3, 1, 1, 5, 1,  , 2, 3, 1, 1, 2, 0, 3, 4, 2, 3, 0,  , 1, 2, 2, 2, 1, 1, 1, 0, 1, 0, 2, 2, 2, 3, 3, 4, 0, 119
A major blues (3#), 1, 5, 1, 1, 3, 3, 3, 3, 1, 4, 1, 5, 3, 4, 2, 2, 2, 1, 1, 1, 2, 1, 3, 2, 1, 5, 1, 1, 3, 3, 4, 2, 1, 4, 2,  , 1, 4, 1, 1, 2, 0, 4, 5, 1, 4, 0,  , 2, 0, 3, 1, 2, 2, 4, 0, 1, 0, 1, 4, 4, 3, 2, 3, 0, 137
C minor blues (3b), 2, 5, 2, 2, 2, 3, 4, 4, 2, 3, 2, 5, 3, 5, 3, 2, 1, 1, 2, 1, 2, 1, 4, 1, 2, 5, 2, 2, 2, 3, 5, 2, 1, 3, 3,  , 1, 5, 1, 1, 3, 0, 3, 5, 1, 5, 1,  , 2, 1, 3, 1, 3, 2, 5, 1, 2, 1, 1, 5, 5, 3, 2, 2, 1, 158
F# minor blues (3#), 2, 4, 2, 1, 3, 5, 3, 3, 2, 3, 2, 3, 3, 4, 2, 3, 1, 3, 3, 0, 2, 0, 4, 4, 2, 4, 2, 1, 3, 5, 4, 1, 1, 5, 2,  , 3, 4, 1, 1, 4, 0, 4, 4, 3, 4, 1,  , 3, 4, 3, 3, 3, 2, 2, 1, 2, 1, 4, 3, 3, 3, 3, 4, 1, 166
Eb dorian (3b), 2, 4, 2, 1, 4, 2, 4, 3, 2, 3, 2, 4, 5, 4, 2, 3, 1, 2, 3, 0, 2, 0, 4, 4, 2, 4, 2, 1, 4, 2, 5, 1, 1, 5, 2,  , 3, 4, 1, 1, 4, 0, 4, 4, 3, 4, 1,  , 3, 3, 4, 3, 3, 2, 5, 1, 2, 1, 4, 4, 6, 3, 2, 4, 1, 172
A dorian (3#), 2, 4, 2, 1, 2, 5, 3, 3, 2, 2, 2, 3, 2, 4, 2, 3, 0, 2, 1, 0, 1, 0, 4, 3, 2, 4, 2, 1, 2, 5, 4, 1, 1, 4, 2,  , 2, 4, 1, 1, 3, 0, 2, 4, 2, 4, 1,  , 1, 3, 2, 2, 2, 1, 2, 1, 2, 1, 2, 3, 3, 3, 3, 3, 1, 140
Eb phrygian (3b), 1, 3, 0, 0, 3, 4, 1, 1, 1, 2, 0, 2, 3, 2, 1, 2, 1, 2, 1, 0, 0, 0, 3, 4, 1, 3, 0, 0, 3, 4, 2, 0, 0, 5, 0,  , 3, 2, 0, 0, 1, 0, 2, 3, 3, 2, 0,  , 2, 3, 2, 3, 0, 0, 1, 0, 1, 0, 3, 1, 1, 2, 2, 3, 0, 95
A phrygian (3#), 2, 4, 2, 1, 2, 5, 3, 3, 2, 2, 2, 3, 2, 4, 2, 3, 0, 2, 1, 0, 1, 0, 4, 3, 2, 4, 2, 1, 2, 5, 4, 1, 1, 4, 2,  , 2, 4, 1, 1, 3, 0, 2, 4, 2, 4, 1,  , 1, 3, 2, 2, 2, 1, 2, 1, 2, 1, 2, 3, 3, 3, 3, 3, 1, 140
Eb lydian (3b), 1, 3, 0, 0, 3, 4, 1, 1, 1, 2, 0, 2, 3, 2, 1, 2, 1, 2, 1, 0, 0, 0, 3, 4, 1, 3, 0, 0, 3, 4, 2, 0, 0, 5, 0,  , 3, 2, 0, 0, 1, 0, 2, 3, 3, 2, 0,  , 2, 3, 2, 3, 0, 0, 1, 0, 1, 0, 3, 1, 1, 2, 2, 3, 0, 95
A lydian (3#), 1, 4, 1, 0, 3, 5, 2, 2, 1, 3, 1, 3, 2, 3, 1, 3, 1, 2, 0, 0, 1, 0, 3, 4, 1, 4, 1, 0, 3, 5, 3, 1, 1, 5, 1,  , 2, 3, 1, 1, 2, 0, 3, 4, 2, 3, 0,  , 1, 2, 2, 2, 1, 1, 1, 0, 1, 0, 2, 2, 2, 3, 3, 4, 0, 119
Eb mixolydian (3b), 0, 2, 0, 0, 3, 4, 0, 1, 0, 1, 0, 1, 2, 2, 0, 1, 1, 3, 2, 0, 1, 0, 2, 3, 0, 2, 0, 0, 3, 4, 1, 0, 0, 4, 0,  , 3, 1, 0, 0, 2, 0, 3, 2, 3, 1, 0,  , 3, 3, 3, 3, 1, 1, 0, 0, 0, 0, 4, 0, 1, 1, 2, 2, 0, 82
A mixolydian (3#), 1, 3, 0, 0, 2, 4, 1, 1, 1, 2, 0, 2, 3, 2, 1, 2, 1, 2, 1, 0, 0, 0, 3, 4, 1, 3, 0, 0, 2, 4, 2, 0, 0, 4, 0,  , 3, 2, 0, 0, 1, 0, 1, 3, 3, 2, 0,  , 2, 3, 2, 3, 0, 0, 1, 0, 1, 0, 3, 1, 1, 2, 2, 3, 0, 91
Eb aeolian (3b), 2, 3, 2, 1, 2, 2, 3, 3, 2, 2, 2, 3, 2, 4, 2, 3, 0, 1, 1, 0, 1, 0, 3, 3, 2, 3, 2, 1, 2, 2, 5, 1, 1, 4, 2,  , 2, 4, 1, 1, 3, 0, 2, 3, 2, 4, 1,  , 1, 3, 2, 2, 2, 1, 2, 1, 2, 1, 2, 3, 3, 3, 2, 3, 1, 129
A aeolian (3#), 1, 3, 1, 1, 5, 0, 1, 1, 1, 3, 1, 3, 5, 3, 2, 3, 1, 2, 1, 0, 0, 1, 1, 4, 1, 3, 1, 1, 5, 0, 2, 1, 1, 5, 0,  , 4, 3, 1, 0, 2, 1, 3, 1, 4, 3, 0,  , 3, 3, 1, 4, 1, 1, 2, 0, 1, 1, 4, 2, 4, 3, 0, 4, 0, 120
Eb locrian (3b), 1, 5, 1, 1, 3, 3, 3, 3, 1, 4, 1, 5, 3, 4, 2, 2, 2, 1, 1, 1, 2, 1, 3, 2, 1, 5, 1, 1, 3, 3, 4, 2, 1, 4, 2,  , 1, 4, 1, 1, 2, 0, 4, 5, 1, 4, 0,  , 2, 0, 3, 1, 2, 2, 4, 0, 1, 0, 1, 4, 4, 3, 2, 3, 0, 137
A locrian (3#), 2, 5, 2, 2, 2, 3, 4, 4, 2, 3, 2, 5, 3, 5, 3, 2, 1, 1, 2, 1, 2, 1, 4, 1, 2, 5, 2, 2, 2, 3, 5, 2, 1, 3, 3,  , 1, 5, 1, 1, 3, 0, 3, 5, 1, 5, 1,  , 2, 1, 3, 1, 3, 2, 5, 1, 2, 1, 1, 5, 5, 3, 2, 2, 1, 158
Ab major (4b), 2, 4, 2, 1, 3, 5, 3, 3, 2, 3, 2, 3, 3, 4, 2, 3, 1, 3, 3, 0, 2, 0, 4, 4, 2, 4, 2, 1, 3, 5, 4, 1, 1, 5, 2,  , 3, 4, 1, 1, 4, 0, 4, 4, 3, 4, 1,  , 3, 4, 3, 3, 3, 2, 2, 1, 2, 1, 4, 3, 3, 3, 3, 4, 1, 166
E major (4#), 2, 4, 2, 1, 4, 2, 4, 3, 2, 3, 2, 4, 5, 4, 2, 3, 1, 2, 3, 0, 2, 0, 4, 4, 2, 4, 2, 1, 4, 2, 5, 1, 1, 5, 2,  , 3, 4, 1, 1, 4, 0, 4, 4, 3, 4, 1,  , 3, 3, 4, 3, 3, 2, 5, 1, 2, 1, 4, 4, 6, 3, 2, 4, 1, 172
F minor (4b), 2, 4, 2, 1, 2, 5, 3, 3, 2, 2, 2, 3, 2, 4, 2, 3, 0, 2, 1, 0, 1, 0, 4, 3, 2, 4, 2, 1, 2, 5, 4, 1, 1, 4, 2,  , 2, 4, 1, 1, 3, 0, 2, 4, 2, 4, 1,  , 1, 3, 2, 2, 2, 1, 2, 1, 2, 1, 2, 3, 3, 3, 3, 3, 1, 140
C# minor (4#), 1, 3, 0, 0, 3, 4, 1, 1, 1, 2, 0, 2, 3, 2, 1, 2, 1, 2, 1, 0, 0, 0, 3, 4, 1, 3, 0, 0, 3, 4, 2, 0, 0, 5, 0,  , 3, 2, 0, 0, 1, 0, 2, 3, 3, 2, 0,  , 2, 3, 2, 3, 0, 0, 1, 0, 1, 0, 3, 1, 1, 2, 2, 3, 0, 95
F minor mel (4b), 2, 4, 2, 1, 2, 5, 3, 3, 2, 2, 2, 3, 2, 4, 2, 3, 0, 2, 1, 0, 1, 0, 4, 3, 2, 4, 2, 1, 2, 5, 4, 1, 1, 4, 2,  , 2, 4, 1, 1, 3, 0, 2, 4, 2, 4, 1,  , 1, 3, 2, 2, 2, 1, 2, 1, 2, 1, 2, 3, 3, 3, 3, 3, 1, 140
C# minor mel (4#), 1, 3, 0, 0, 3, 4, 1, 1, 1, 2, 0, 2, 3, 2, 1, 2, 1, 2, 1, 0, 0, 0, 3, 4, 1, 3, 0, 0, 3, 4, 2, 0, 0, 5, 0,  , 3, 2, 0, 0, 1, 0, 2, 3, 3, 2, 0,  , 2, 3, 2, 3, 0, 0, 1, 0, 1, 0, 3, 1, 1, 2, 2, 3, 0, 95
Ab major blues (4b), 1, 4, 1, 0, 3, 5, 2, 2, 1, 3, 1, 3, 2, 3, 1, 3, 1, 2, 0, 0, 1, 0, 3, 4, 1, 4, 1, 0, 3, 5, 3, 1, 1, 5, 1,  , 2, 3, 1, 1, 2, 0, 3, 4, 2, 3, 0,  , 1, 2, 2, 2, 1, 1, 1, 0, 1, 0, 2, 2, 2, 3, 3, 4, 0, 119
E major blues (4#), 0, 2, 0, 0, 3, 4, 0, 1, 0, 1, 0, 1, 2, 2, 0, 1, 1, 3, 2, 0, 1, 0, 2, 3, 0, 2, 0, 0, 3, 4, 1, 0, 0, 4, 0,  , 3, 1, 0, 0, 2, 0, 3, 2, 3, 1, 0,  , 3, 3, 3, 3, 1, 1, 0, 0, 0, 0, 4, 0, 1, 1, 2, 2, 0, 82
F minor blues (4b), 1, 3, 0, 0, 2, 4, 1, 1, 1, 2, 0, 2, 3, 2, 1, 2, 1, 2, 1, 0, 0, 0, 3, 4, 1, 3, 0, 0, 2, 4, 2, 0, 0, 4, 0,  , 3, 2, 0, 0, 1, 0, 1, 3, 3, 2, 0,  , 2, 3, 2, 3, 0, 0, 1, 0, 1, 0, 3, 1, 1, 2, 2, 3, 0, 91
C# minor blues (4#), 2, 3, 2, 1, 2, 2, 3, 3, 2, 2, 2, 3, 2, 4, 2, 3, 0, 1, 1, 0, 1, 0, 3, 3, 2, 3, 2, 1, 2, 2, 5, 1, 1, 4, 2,  , 2, 4, 1, 1, 3, 0, 2, 3, 2, 4, 1,  , 1, 3, 2, 2, 2, 1, 2, 1, 2, 1, 2, 3, 3, 3, 2, 3, 1, 129
Ab dorian (4b), 1, 3, 1, 1, 5, 0, 1, 1, 1, 3, 1, 3, 5, 3, 2, 3, 1, 2, 1, 0, 0, 1, 1, 4, 1, 3, 1, 1, 5, 0, 2, 1, 1, 5, 0,  , 4, 3, 1, 0, 2, 1, 3, 1, 4, 3, 0,  , 3, 3, 1, 4, 1, 1, 2, 0, 1, 1, 4, 2, 4, 3, 0, 4, 0, 120
E dorian (4#), 3, 3, 3, 1, 3, 3, 6, 4, 3, 1, 3, 3, 3, 5, 1, 3, 0, 2, 2, 0, 3, 1, 5, 1, 3, 3, 3, 1, 3, 3, 4, 1, 3, 2, 2,  , 2, 3, 6, 1, 4, 0, 4, 3, 4, 3, 2,  , 1, 3, 2, 3, 4, 3, 6, 1, 1, 2, 2, 4, 8, 2, 3, 2, 2, 171
Ab phrygian (4b), 0, 3, 1, 0, 3, 5, 1, 2, 0, 2, 1, 2, 1, 3, 0, 2, 1, 3, 1, 0, 2, 0, 2, 3, 0, 3, 1, 0, 3, 5, 2, 1, 1, 4, 1,  , 2, 2, 1, 1, 3, 0, 4, 3, 2, 2, 0,  , 2, 2, 3, 2, 2, 2, 0, 0, 0, 0, 3, 1, 2, 2, 3, 3, 0, 106
E phrygian (4#), 2, 4, 3, 2, 2, 3, 5, 4, 2, 3, 3, 5, 4, 4, 2, 5, 1, 3, 3, 1, 5, 3, 3, 1, 2, 4, 3, 2, 2, 3, 2, 3, 4, 3, 2,  , 3, 3, 7, 1, 6, 1, 6, 3, 5, 3, 1,  , 6, 2, 2, 4, 6, 6, 6, 0, 0, 2, 3, 5, 6, 2, 2, 4, 1, 199
Ab lydian (4b), 1, 4, 1, 0, 3, 5, 2, 2, 1, 3, 1, 3, 2, 3, 1, 3, 1, 2, 0, 0, 1, 0, 3, 4, 1, 4, 1, 0, 3, 5, 3, 1, 1, 5, 1,  , 2, 3, 1, 1, 2, 0, 3, 4, 2, 3, 0,  , 1, 2, 2, 2, 1, 1, 1, 0, 1, 0, 2, 2, 2, 3, 3, 4, 0, 119
E lydian (4#), 1, 5, 1, 1, 3, 3, 3, 3, 1, 4, 1, 5, 3, 4, 2, 2, 2, 1, 1, 1, 2, 1, 3, 2, 1, 5, 1, 1, 3, 3, 4, 2, 1, 4, 2,  , 1, 4, 1, 1, 2, 0, 4, 5, 1, 4, 0,  , 2, 0, 3, 1, 2, 2, 4, 0, 1, 0, 1, 4, 4, 3, 2, 3, 0, 137
Ab mixolydian (4b), 2, 5, 2, 2, 2, 3, 4, 4, 2, 3, 2, 5, 3, 5, 3, 2, 1, 1, 2, 1, 2, 1, 4, 1, 2, 5, 2, 2, 2, 3, 5, 2, 1, 3, 3,  , 1, 5, 1, 1, 3, 0, 3, 5, 1, 5, 1,  , 2, 1, 3, 1, 3, 2, 5, 1, 2, 1, 1, 5, 5, 3, 2, 2, 1, 158
E mixolydian (4#), 2, 4, 2, 1, 3, 5, 3, 3, 2, 3, 2, 3, 3, 4, 2, 3, 1, 3, 3, 0, 2, 0, 4, 4, 2, 4, 2, 1, 3, 5, 4, 1, 1, 5, 2,  , 3, 4, 1, 1, 4, 0, 4, 4, 3, 4, 1,  , 3, 4, 3, 3, 3, 2, 2, 1, 2, 1, 4, 3, 3, 3, 3, 4, 1, 166
Ab aeolian (4b), 2, 4, 2, 1, 4, 2, 4, 3, 2, 3, 2, 4, 5, 4, 2, 3, 1, 2, 3, 0, 2, 0, 4, 4, 2, 4, 2, 1, 4, 2, 5, 1, 1, 5, 2,  , 3, 4, 1, 1, 4, 0, 4, 4, 3, 4, 1,  , 3, 3, 4, 3, 3, 2, 5, 1, 2, 1, 4, 4, 6, 3, 2, 4, 1, 172
E aeolian (4#), 2, 4, 2, 1, 2, 5, 3, 3, 2, 2, 2, 3, 2, 4, 2, 3, 0, 2, 1, 0, 1, 0, 4, 3, 2, 4, 2, 1, 2, 5, 4, 1, 1, 4, 2,  , 2, 4, 1, 1, 3, 0, 2, 4, 2, 4, 1,  , 1, 3, 2, 2, 2, 1, 2, 1, 2, 1, 2, 3, 3, 3, 3, 3, 1, 140
Ab locrian (4b), 1, 3, 0, 0, 3, 4, 1, 1, 1, 2, 0, 2, 3, 2, 1, 2, 1, 2, 1, 0, 0, 0, 3, 4, 1, 3, 0, 0, 3, 4, 2, 0, 0, 5, 0,  , 3, 2, 0, 0, 1, 0, 2, 3, 3, 2, 0,  , 2, 3, 2, 3, 0, 0, 1, 0, 1, 0, 3, 1, 1, 2, 2, 3, 0, 95
E locrian (4#), 2, 4, 2, 1, 2, 5, 3, 3, 2, 2, 2, 3, 2, 4, 2, 3, 0, 2, 1, 0, 1, 0, 4, 3, 2, 4, 2, 1, 2, 5, 4, 1, 1, 4, 2,  , 2, 4, 1, 1, 3, 0, 2, 4, 2, 4, 1,  , 1, 3, 2, 2, 2, 1, 2, 1, 2, 1, 2, 3, 3, 3, 3, 3, 1, 140
Db major (5b), 1, 3, 0, 0, 3, 4, 1, 1, 1, 2, 0, 2, 3, 2, 1, 2, 1, 2, 1, 0, 0, 0, 3, 4, 1, 3, 0, 0, 3, 4, 2, 0, 0, 5, 0,  , 3, 2, 0, 0, 1, 0, 2, 3, 3, 2, 0,  , 2, 3, 2, 3, 0, 0, 1, 0, 1, 0, 3, 1, 1, 2, 2, 3, 0, 95
B major (5#), 1, 4, 1, 0, 3, 5, 2, 2, 1, 3, 1, 3, 2, 3, 1, 3, 1, 2, 0, 0, 1, 0, 3, 4, 1, 4, 1, 0, 3, 5, 3, 1, 1, 5, 1,  , 2, 3, 1, 1, 2, 0, 3, 4, 2, 3, 0,  , 1, 2, 2, 2, 1, 1, 1, 0, 1, 0, 2, 2, 2, 3, 3, 4, 0, 119
Bb minor (5b), 0, 2, 0, 0, 3, 4, 0, 1, 0, 1, 0, 1, 2, 2, 0, 1, 1, 3, 2, 0, 1, 0, 2, 3, 0, 2, 0, 0, 3, 4, 1, 0, 0, 4, 0,  , 3, 1, 0, 0, 2, 0, 3, 2, 3, 1, 0,  , 3, 3, 3, 3, 1, 1, 0, 0, 0, 0, 4, 0, 1, 1, 2, 2, 0, 82
G# minor (5#), 1, 3, 0, 0, 2, 4, 1, 1, 1, 2, 0, 2, 3, 2, 1, 2, 1, 2, 1, 0, 0, 0, 3, 4, 1, 3, 0, 0, 2, 4, 2, 0, 0, 4, 0,  , 3, 2, 0, 0, 1, 0, 1, 3, 3, 2, 0,  , 2, 3, 2, 3, 0, 0, 1, 0, 1, 0, 3, 1, 1, 2, 2, 3, 0, 91
Bb minor mel (5b), 2, 3, 2, 1, 2, 2, 3, 3, 2, 2, 2, 3, 2, 4, 2, 3, 0, 1, 1, 0, 1, 0, 3, 3, 2, 3, 2, 1, 2, 2, 5, 1, 1, 4, 2,  , 2, 4, 1, 1, 3, 0, 2, 3, 2, 4, 1,  , 1, 3, 2, 2, 2, 1, 2, 1, 2, 1, 2, 3, 3, 3, 2, 3, 1, 129
G# minor mel (5#), 1, 3, 1, 1, 5, 0, 1, 1, 1, 3, 1, 3, 5, 3, 2, 3, 1, 2, 1, 0, 0, 1, 1, 4, 1, 3, 1, 1, 5, 0, 2, 1, 1, 5, 0,  , 4, 3, 1, 0, 2, 1, 3, 1, 4, 3, 0,  , 3, 3, 1, 4, 1, 1, 2, 0, 1, 1, 4, 2, 4, 3, 0, 4, 0, 120
Db major blues (5b), 1, 4, 1, 0, 3, 5, 2, 2, 1, 3, 1, 3, 2, 3, 1, 3, 1, 2, 0, 0, 1, 0, 3, 4, 1, 4, 1, 0, 3, 5, 3, 1, 1, 5, 1,  , 2, 3, 1, 1, 2, 0, 3, 4, 2, 3, 0,  , 1, 2, 2, 2, 1, 1, 1, 0, 1, 0, 2, 2, 2, 3, 3, 4, 0, 119
B major blues (5#), 1, 5, 1, 1, 3, 3, 3, 3, 1, 4, 1, 5, 3, 4, 2, 2, 2, 1, 1, 1, 2, 1, 3, 2, 1, 5, 1, 1, 3, 3, 4, 2, 1, 4, 2,  , 1, 4, 1, 1, 2, 0, 4, 5, 1, 4, 0,  , 2, 0, 3, 1, 2, 2, 4, 0, 1, 0, 1, 4, 4, 3, 2, 3, 0, 137
Bb minor blues (5b), 2, 5, 2, 2, 2, 3, 4, 4, 2, 3, 2, 5, 3, 5, 3, 2, 1, 1, 2, 1, 2, 1, 4, 1, 2, 5, 2, 2, 2, 3, 5, 2, 1, 3, 3,  , 1, 5, 1, 1, 3, 0, 3, 5, 1, 5, 1,  , 2, 1, 3, 1, 3, 2, 5, 1, 2, 1, 1, 5, 5, 3, 2, 2, 1, 158
G# minor blues (5#), 2, 4, 2, 1, 3, 5, 3, 3, 2, 3, 2, 3, 3, 4, 2, 3, 1, 3, 3, 0, 2, 0, 4, 4, 2, 4, 2, 1, 3, 5, 4, 1, 1, 5, 2,  , 3, 4, 1, 1, 4, 0, 4, 4, 3, 4, 1,  , 3, 4, 3, 3, 3, 2, 2, 1, 2, 1, 4, 3, 3, 3, 3, 4, 1, 166
Db dorian (5b), 2, 4, 2, 1, 4, 2, 4, 3, 2, 3, 2, 4, 5, 4, 2, 3, 1, 2, 3, 0, 2, 0, 4, 4, 2, 4, 2, 1, 4, 2, 5, 1, 1, 5, 2,  , 3, 4, 1, 1, 4, 0, 4, 4, 3, 4, 1,  , 3, 3, 4, 3, 3, 2, 5, 1, 2, 1, 4, 4, 6, 3, 2, 4, 1, 172
B dorian (5#), 2, 4, 2, 1, 2, 5, 3, 3, 2, 2, 2, 3, 2, 4, 2, 3, 0, 2, 1, 0, 1, 0, 4, 3, 2, 4, 2, 1, 2, 5, 4, 1, 1, 4, 2,  , 2, 4, 1, 1, 3, 0, 2, 4, 2, 4, 1,  , 1, 3, 2, 2, 2, 1, 2, 1, 2, 1, 2, 3, 3, 3, 3, 3, 1, 140
Db phrygian (5b), 1, 3, 0, 0, 3, 4, 1, 1, 1, 2, 0, 2, 3, 2, 1, 2, 1, 2, 1, 0, 0, 0, 3, 4, 1, 3, 0, 0, 3, 4, 2, 0, 0, 5, 0,  , 3, 2, 0, 0, 1, 0, 2, 3, 3, 2, 0,  , 2, 3, 2, 3, 0, 0, 1, 0, 1, 0, 3, 1, 1, 2, 2, 3, 0, 95
B phrygian (5#), 2, 4, 2, 1, 2, 5, 3, 3, 2, 2, 2, 3, 2, 4, 2, 3, 0, 2, 1, 0, 1, 0, 4, 3, 2, 4, 2, 1, 2, 5, 4, 1, 1, 4, 2,  , 2, 4, 1, 1, 3, 0, 2, 4, 2, 4, 1,  , 1, 3, 2, 2, 2, 1, 2, 1, 2, 1, 2, 3, 3, 3, 3, 3, 1, 140
Db lydian (5b), 1, 3, 0, 0, 3, 4, 1, 1, 1, 2, 0, 2, 3, 2, 1, 2, 1, 2, 1, 0, 0, 0, 3, 4, 1, 3, 0, 0, 3, 4, 2, 0, 0, 5, 0,  , 3, 2, 0, 0, 1, 0, 2, 3, 3, 2, 0,  , 2, 3, 2, 3, 0, 0, 1, 0, 1, 0, 3, 1, 1, 2, 2, 3, 0, 95
B lydian (5#), 1, 4, 1, 0, 3, 5, 2, 2, 1, 3, 1, 3, 2, 3, 1, 3, 1, 2, 0, 0, 1, 0, 3, 4, 1, 4, 1, 0, 3, 5, 3, 1, 1, 5, 1,  , 2, 3, 1, 1, 2, 0, 3, 4, 2, 3, 0,  , 1, 2, 2, 2, 1, 1, 1, 0, 1, 0, 2, 2, 2, 3, 3, 4, 0, 119
Db mixolydian (5b), 0, 2, 0, 0, 3, 4, 0, 1, 0, 1, 0, 1, 2, 2, 0, 1, 1, 3, 2, 0, 1, 0, 2, 3, 0, 2, 0, 0, 3, 4, 1, 0, 0, 4, 0,  , 3, 1, 0, 0, 2, 0, 3, 2, 3, 1, 0,  , 3, 3, 3, 3, 1, 1, 0, 0, 0, 0, 4, 0, 1, 1, 2, 2, 0, 82
B mixolydian (5#), 1, 3, 0, 0, 2, 4, 1, 1, 1, 2, 0, 2, 3, 2, 1, 2, 1, 2, 1, 0, 0, 0, 3, 4, 1, 3, 0, 0, 2, 4, 2, 0, 0, 4, 0,  , 3, 2, 0, 0, 1, 0, 1, 3, 3, 2, 0,  , 2, 3, 2, 3, 0, 0, 1, 0, 1, 0, 3, 1, 1, 2, 2, 3, 0, 91
Db aeolian (5b), 2, 3, 2, 1, 2, 2, 3, 3, 2, 2, 2, 3, 2, 4, 2, 3, 0, 1, 1, 0, 1, 0, 3, 3, 2, 3, 2, 1, 2, 2, 5, 1, 1, 4, 2,  , 2, 4, 1, 1, 3, 0, 2, 3, 2, 4, 1,  , 1, 3, 2, 2, 2, 1, 2, 1, 2, 1, 2, 3, 3, 3, 2, 3, 1, 129
B aeolian (5#), 1, 3, 1, 1, 5, 0, 1, 1, 1, 3, 1, 3, 5, 3, 2, 3, 1, 2, 1, 0, 0, 1, 1, 4, 1, 3, 1, 1, 5, 0, 2, 1, 1, 5, 0,  , 4, 3, 1, 0, 2, 1, 3, 1, 4, 3, 0,  , 3, 3, 1, 4, 1, 1, 2, 0, 1, 1, 4, 2, 4, 3, 0, 4, 0, 120
Db locrian (5b), 3, 3, 3, 1, 3, 3, 6, 4, 3, 1, 3, 3, 3, 5, 1, 3, 0, 2, 2, 0, 3, 1, 5, 1, 3, 3, 3, 1, 3, 3, 4, 1, 3, 2, 2,  , 2, 3, 6, 1, 4, 0, 4, 3, 4, 3, 2,  , 1, 3, 2, 3, 4, 3, 6, 1, 1, 2, 2, 4, 8, 2, 3, 2, 2, 171
B locrian (5#), 2, 6, 3, 3, 3, 2, 5, 4, 2, 4, 3, 6, 4, 5, 4, 3, 1, 2, 3, 1, 3, 2, 3, 1, 2, 6, 3, 3, 3, 2, 4, 3, 4, 3, 3,  , 2, 5, 6, 1, 4, 1, 6, 4, 4, 5, 1,  , 3, 2, 2, 2, 6, 4, 6, 1, 2, 2, 2, 7, 7, 4, 1, 4, 1, 206
Gb major (6b), 2, 4, 3, 2, 2, 3, 5, 4, 2, 3, 3, 5, 4, 4, 2, 5, 1, 3, 3, 1, 5, 3, 3, 1, 2, 4, 3, 2, 2, 3, 2, 3, 4, 3, 2,  , 3, 3, 7, 1, 6, 1, 6, 3, 5, 3, 1,  , 6, 2, 2, 4, 6, 6, 6, 0, 0, 2, 3, 5, 6, 2, 2, 4, 1, 199
F# major (6#), 1, 4, 1, 0, 3, 5, 2, 2, 1, 3, 1, 3, 2, 3, 1, 3, 1, 2, 0, 0, 1, 0, 3, 4, 1, 4, 1, 0, 3, 5, 3, 1, 1, 5, 1,  , 2, 3, 1, 1, 2, 0, 3, 4, 2, 3, 0,  , 1, 2, 2, 2, 1, 1, 1, 0, 1, 0, 2, 2, 2, 3, 3, 4, 0, 119
Eb minor (6b), 1, 5, 1, 1, 3, 3, 3, 3, 1, 4, 1, 5, 3, 4, 2, 2, 2, 1, 1, 1, 2, 1, 3, 2, 1, 5, 1, 1, 3, 3, 4, 2, 1, 4, 2,  , 1, 4, 1, 1, 2, 0, 4, 5, 1, 4, 0,  , 2, 0, 3, 1, 2, 2, 4, 0, 1, 0, 1, 4, 4, 3, 2, 3, 0, 137
D# minor (6#), 2, 5, 2, 2, 2, 3, 4, 4, 2, 3, 2, 5, 3, 5, 3, 2, 1, 1, 2, 1, 2, 1, 4, 1, 2, 5, 2, 2, 2, 3, 5, 2, 1, 3, 3,  , 1, 5, 1, 1, 3, 0, 3, 5, 1, 5, 1,  , 2, 1, 3, 1, 3, 2, 5, 1, 2, 1, 1, 5, 5, 3, 2, 2, 1, 158
Eb minor mel (6b), 2, 4, 2, 1, 3, 5, 3, 3, 2, 3, 2, 3, 3, 4, 2, 3, 1, 3, 3, 0, 2, 0, 4, 4, 2, 4, 2, 1, 3, 5, 4, 1, 1, 5, 2,  , 3, 4, 1, 1, 4, 0, 4, 4, 3, 4, 1,  , 3, 4, 3, 3, 3, 2, 2, 1, 2, 1, 4, 3, 3, 3, 3, 4, 1, 166
D# minor mel (6#), 2, 4, 2, 1, 4, 2, 4, 3, 2, 3, 2, 4, 5, 4, 2, 3, 1, 2, 3, 0, 2, 0, 4, 4, 2, 4, 2, 1, 4, 2, 5, 1, 1, 5, 2,  , 3, 4, 1, 1, 4, 0, 4, 4, 3, 4, 1,  , 3, 3, 4, 3, 3, 2, 5, 1, 2, 1, 4, 4, 6, 3, 2, 4, 1, 172
Gb major blues (6b), 2, 4, 2, 1, 2, 5, 3, 3, 2, 2, 2, 3, 2, 4, 2, 3, 0, 2, 1, 0, 1, 0, 4, 3, 2, 4, 2, 1, 2, 5, 4, 1, 1, 4, 2,  , 2, 4, 1, 1, 3, 0, 2, 4, 2, 4, 1,  , 1, 3, 2, 2, 2, 1, 2, 1, 2, 1, 2, 3, 3, 3, 3, 3, 1, 140
F# major blues (6#), 1, 3, 0, 0, 3, 4, 1, 1, 1, 2, 0, 2, 3, 2, 1, 2, 1, 2, 1, 0, 0, 0, 3, 4, 1, 3, 0, 0, 3, 4, 2, 0, 0, 5, 0,  , 3, 2, 0, 0, 1, 0, 2, 3, 3, 2, 0,  , 2, 3, 2, 3, 0, 0, 1, 0, 1, 0, 3, 1, 1, 2, 2, 3, 0, 95
Eb minor blues (6b), 2, 4, 2, 1, 2, 5, 3, 3, 2, 2, 2, 3, 2, 4, 2, 3, 0, 2, 1, 0, 1, 0, 4, 3, 2, 4, 2, 1, 2, 5, 4, 1, 1, 4, 2,  , 2, 4, 1, 1, 3, 0, 2, 4, 2, 4, 1,  , 1, 3, 2, 2, 2, 1, 2, 1, 2, 1, 2, 3, 3, 3, 3, 3, 1, 140
D# minor blues (6#), 1, 3, 0, 0, 3, 4, 1, 1, 1, 2, 0, 2, 3, 2, 1, 2, 1, 2, 1, 0, 0, 0, 3, 4, 1, 3, 0, 0, 3, 4, 2, 0, 0, 5, 0,  , 3, 2, 0, 0, 1, 0, 2, 3, 3, 2, 0,  , 2, 3, 2, 3, 0, 0, 1, 0, 1, 0, 3, 1, 1, 2, 2, 3, 0, 95
Gb dorian (6b), 1, 4, 1, 0, 3, 5, 2, 2, 1, 3, 1, 3, 2, 3, 1, 3, 1, 2, 0, 0, 1, 0, 3, 4, 1, 4, 1, 0, 3, 5, 3, 1, 1, 5, 1,  , 2, 3, 1, 1, 2, 0, 3, 4, 2, 3, 0,  , 1, 2, 2, 2, 1, 1, 1, 0, 1, 0, 2, 2, 2, 3, 3, 4, 0, 119
F# dorian (6#), 0, 2, 0, 0, 3, 4, 0, 1, 0, 1, 0, 1, 2, 2, 0, 1, 1, 3, 2, 0, 1, 0, 2, 3, 0, 2, 0, 0, 3, 4, 1, 0, 0, 4, 0,  , 3, 1, 0, 0, 2, 0, 3, 2, 3, 1, 0,  , 3, 3, 3, 3, 1, 1, 0, 0, 0, 0, 4, 0, 1, 1, 2, 2, 0, 82
Gb phrygian (6b), 1, 3, 0, 0, 2, 4, 1, 1, 1, 2, 0, 2, 3, 2, 1, 2, 1, 2, 1, 0, 0, 0, 3, 4, 1, 3, 0, 0, 2, 4, 2, 0, 0, 4, 0,  , 3, 2, 0, 0, 1, 0, 1, 3, 3, 2, 0,  , 2, 3, 2, 3, 0, 0, 1, 0, 1, 0, 3, 1, 1, 2, 2, 3, 0, 91
F# phrygian (6#), 2, 3, 2, 1, 2, 2, 3, 3, 2, 2, 2, 3, 2, 4, 2, 3, 0, 1, 1, 0, 1, 0, 3, 3, 2, 3, 2, 1, 2, 2, 5, 1, 1, 4, 2,  , 2, 4, 1, 1, 3, 0, 2, 3, 2, 4, 1,  , 1, 3, 2, 2, 2, 1, 2, 1, 2, 1, 2, 3, 3, 3, 2, 3, 1, 129
Gb lydian (6b), 3, 4, 2, 2, 2, 4, 7, 8, 3, 2, 2, 5, 5, 4, 2, 7, 4, 3, 8, 4, 7, 6, 5, 1, 3, 4, 2, 2, 2, 4, 0, 2, 3, 6, 2,  , 1, 2, 8, 0, 5, 0, 7, 4, 4, 2, 2,  , 8, 6, 3, 3, 7, 10, 8, 0, 0, 4, 4, 6, 8, 0, 2, 6, 2, 242
F# lydian (6#), 2, 2, 1, 1, 1, 2, 4, 5, 2, 1, 1, 3, 3, 2, 1, 5, 2, 2, 5, 2, 4, 3, 3, 1, 2, 2, 1, 1, 1, 2, 0, 1, 2, 4, 1,  , 1, 1, 5, 0, 4, 0, 4, 2, 3, 1, 1,  , 6, 4, 2, 2, 4, 6, 5, 0, 0, 2, 3, 3, 5, 0, 1, 4, 1, 145
Gb mixolydian (6b), 4, 5, 4, 4, 4, 4, 8, 9, 4, 3, 4, 6, 6, 6, 4, 7, 4, 3, 8, 4, 6, 7, 6, 0, 4, 5, 4, 4, 4, 4, 2, 3, 4, 5, 3,  , 2, 4, 9, 0, 5, 1, 9, 4, 5, 4, 3,  , 8, 6, 2, 4, 9, 10, 10, 1, 1, 6, 4, 8, 9, 1, 2, 6, 3, 298
F# mixolydian (6#), 3, 3, 3, 3, 3, 2, 5, 6, 3, 2, 3, 4, 4, 4, 3, 5, 2, 2, 5, 2, 3, 4, 4, 0, 3, 3, 3, 3, 3, 2, 2, 2, 3, 3, 2,  , 2, 3, 6, 0, 4, 1, 6, 2, 4, 3, 2,  , 6, 4, 1, 3, 6, 6, 7, 1, 1, 4, 3, 5, 6, 1, 1, 4, 2, 201
Gb aeolian (6b), 3, 5, 3, 3, 3, 4, 7, 8, 3, 3, 3, 6, 6, 5, 3, 8, 4, 4, 7, 4, 7, 7, 5, 1, 3, 5, 3, 3, 3, 4, 1, 3, 4, 6, 2,  , 2, 3, 9, 0, 6, 1, 8, 4, 5, 3, 2,  , 9, 5, 3, 4, 8, 11, 9, 0, 0, 5, 5, 7, 8, 1, 2, 7, 2, 278
F# aeolian (6#), 2, 3, 2, 2, 2, 2, 4, 5, 2, 2, 2, 4, 4, 3, 2, 6, 2, 3, 4, 2, 4, 4, 3, 1, 2, 3, 2, 2, 2, 2, 1, 2, 3, 4, 1,  , 2, 2, 6, 0, 5, 1, 5, 2, 4, 2, 1,  , 7, 3, 2, 3, 5, 7, 6, 0, 0, 3, 4, 4, 5, 1, 1, 5, 1, 181
Gb locrian (6b), 4, 6, 5, 4, 4, 5, 9, 7, 4, 4, 5, 7, 6, 7, 4, 5, 2, 3, 6, 2, 7, 5, 6, 0, 4, 6, 5, 4, 4, 5, 3, 4, 5, 3, 4,  , 3, 5, 10, 1, 6, 1, 10, 5, 6, 5, 3,  , 6, 4, 2, 5, 10, 8, 10, 1, 1, 4, 2, 9, 10, 2, 3, 4, 3, 303
F# locrian (6#), 3, 4, 4, 3, 3, 3, 6, 5, 3, 3, 4, 5, 4, 5, 3, 4, 1, 2, 4, 1, 4, 3, 4, 0, 3, 4, 4, 3, 3, 3, 3, 3, 4, 2, 3,  , 3, 4, 7, 1, 5, 1, 7, 3, 5, 4, 2,  , 5, 3, 1, 4, 7, 5, 7, 1, 1, 3, 2, 6, 7, 2, 2, 3, 2, 219
Cb major (7b), 4, 7, 5, 5, 5, 4, 8, 9, 4, 4, 5, 7, 6, 8, 5, 8, 4, 5, 8, 4, 6, 8, 6, 0, 4, 7, 5, 5, 5, 4, 3, 4, 5, 5, 3,  , 2, 5, 10, 0, 6, 2, 10, 4, 5, 5, 3,  , 7, 7, 2, 4, 10, 11, 11, 1, 1, 7, 5, 9, 9, 3, 2, 7, 3, 336
C# major (7#), 2, 3, 1, 2, 3, 3, 4, 5, 2, 3, 1, 3, 4, 4, 2, 5, 4, 2, 6, 3, 5, 4, 3, 1, 2, 3, 1, 2, 3, 3, 0, 2, 2, 4, 2,  , 1, 3, 5, 0, 4, 0, 6, 3, 3, 3, 1,  , 6, 4, 2, 2, 5, 7, 5, 0, 0, 2, 3, 4, 4, 0, 1, 4, 1, 178
Ab minor (7b), 2, 2, 3, 2, 3, 3, 4, 5, 2, 2, 3, 2, 3, 5, 2, 5, 3, 2, 5, 2, 3, 4, 4, 1, 2, 2, 3, 2, 3, 3, 2, 1, 4, 5, 1,  , 2, 3, 8, 0, 3, 1, 7, 1, 5, 3, 2,  , 5, 5, 2, 3, 6, 7, 3, 1, 1, 5, 4, 5, 4, 1, 1, 7, 2, 197
A# minor (7#), 2, 4, 2, 2, 4, 7, 2, 5, 2, 3, 2, 5, 6, 6, 2, 4, 3, 4, 7, 2, 6, 4, 5, 3, 2, 4, 2, 2, 4, 7, 0, 2, 0, 5, 2,  , 2, 3, 2, 0, 5, 0, 7, 4, 2, 3, 2,  , 7, 7, 6, 4, 6, 6, 2, 0, 0, 2, 4, 4, 3, 0, 2, 2, 2, 209
Ab minor mel (7b), 1, 2, 2, 1, 2, 3, 3, 4, 1, 2, 2, 2, 3, 4, 1, 6, 3, 3, 4, 2, 4, 4, 3, 2, 1, 2, 2, 1, 2, 3, 1, 1, 4, 6, 0,  , 2, 2, 8, 0, 4, 1, 6, 1, 5, 2, 1,  , 6, 4, 3, 3, 5, 8, 2, 0, 0, 4, 5, 4, 3, 1, 1, 8, 1, 177
A# minor mel (7#), 2, 2, 2, 0, 2, 5, 2, 3, 2, 1, 2, 3, 4, 4, 0, 4, 1, 4, 5, 0, 4, 2, 5, 4, 2, 2, 2, 0, 2, 5, 0, 0, 0, 6, 0,  , 2, 1, 2, 0, 5, 0, 5, 2, 2, 1, 2,  , 5, 7, 6, 4, 4, 4, 2, 0, 0, 2, 4, 2, 1, 0, 2, 3, 2, 152
Cb major blues (7b), 4, 9, 6, 5, 5, 5, 9, 9, 4, 6, 6, 9, 7, 9, 6, 9, 4, 6, 8, 4, 8, 8, 6, 2, 4, 9, 6, 5, 5, 5, 5, 5, 6, 7, 4,  , 3, 7, 11, 1, 8, 2, 11, 6, 6, 7, 3,  , 8, 7, 4, 5, 11, 12, 11, 1, 2, 7, 6, 11, 10, 5, 3, 9, 3, 395
C# major blues (7#), 3, 4, 2, 2, 2, 4, 7, 8, 3, 2, 2, 5, 5, 4, 2, 7, 4, 3, 8, 4, 7, 6, 5, 1, 3, 4, 2, 2, 2, 4, 0, 2, 3, 6, 2,  , 1, 2, 8, 0, 5, 0, 7, 4, 4, 2, 2,  , 8, 6, 3, 3, 7, 10, 8, 0, 0, 4, 4, 6, 8, 0, 2, 6, 2, 242
Ab minor blues (7b), 2, 2, 1, 1, 1, 2, 4, 5, 2, 1, 1, 3, 3, 2, 1, 5, 2, 2, 5, 2, 4, 3, 3, 1, 2, 2, 1, 1, 1, 2, 0, 1, 2, 4, 1,  , 1, 1, 5, 0, 4, 0, 4, 2, 3, 1, 1,  , 6, 4, 2, 2, 4, 6, 5, 0, 0, 2, 3, 3, 5, 0, 1, 4, 1, 145
A# minor blues (7#), 4, 5, 4, 4, 4, 4, 8, 9, 4, 3, 4, 6, 6, 6, 4, 7, 4, 3, 8, 4, 6, 7, 6, 0, 4, 5, 4, 4, 4, 4, 2, 3, 4, 5, 3,  , 2, 4, 9, 0, 5, 1, 9, 4, 5, 4, 3,  , 8, 6, 2, 4, 9, 10, 10, 1, 1, 6, 4, 8, 9, 1, 2, 6, 3, 298
Cb dorian (7b), 3, 3, 3, 3, 3, 2, 5, 6, 3, 2, 3, 4, 4, 4, 3, 5, 2, 2, 5, 2, 3, 4, 4, 0, 3, 3, 3, 3, 3, 2, 2, 2, 3, 3, 2,  , 2, 3, 6, 0, 4, 1, 6, 2, 4, 3, 2,  , 6, 4, 1, 3, 6, 6, 7, 1, 1, 4, 3, 5, 6, 1, 1, 4, 2, 201
C# dorian (7#), 3, 5, 3, 3, 3, 4, 7, 8, 3, 3, 3, 6, 6, 5, 3, 8, 4, 4, 7, 4, 7, 7, 5, 1, 3, 5, 3, 3, 3, 4, 1, 3, 4, 6, 2,  , 2, 3, 9, 0, 6, 1, 8, 4, 5, 3, 2,  , 9, 5, 3, 4, 8, 11, 9, 0, 0, 5, 5, 7, 8, 1, 2, 7, 2, 278
Cb phrygian (7b), 2, 3, 2, 2, 2, 2, 4, 5, 2, 2, 2, 4, 4, 3, 2, 6, 2, 3, 4, 2, 4, 4, 3, 1, 2, 3, 2, 2, 2, 2, 1, 2, 3, 4, 1,  , 2, 2, 6, 0, 5, 1, 5, 2, 4, 2, 1,  , 7, 3, 2, 3, 5, 7, 6, 0, 0, 3, 4, 4, 5, 1, 1, 5, 1, 181
C# phrygian (7#), 4, 6, 5, 4, 4, 5, 9, 7, 4, 4, 5, 7, 6, 7, 4, 5, 2, 3, 6, 2, 7, 5, 6, 0, 4, 6, 5, 4, 4, 5, 3, 4, 5, 3, 4,  , 3, 5, 10, 1, 6, 1, 10, 5, 6, 5, 3,  , 6, 4, 2, 5, 10, 8, 10, 1, 1, 4, 2, 9, 10, 2, 3, 4, 3, 303
Cb lydian (7b), 3, 4, 4, 3, 3, 3, 6, 5, 3, 3, 4, 5, 4, 5, 3, 4, 1, 2, 4, 1, 4, 3, 4, 0, 3, 4, 4, 3, 3, 3, 3, 3, 4, 2, 3,  , 3, 4, 7, 1, 5, 1, 7, 3, 5, 4, 2,  , 5, 3, 1, 4, 7, 5, 7, 1, 1, 3, 2, 6, 7, 2, 2, 3, 2, 219
C# lydian (7#), 4, 7, 5, 5, 5, 4, 8, 9, 4, 4, 5, 7, 6, 8, 5, 8, 4, 5, 8, 4, 6, 8, 6, 0, 4, 7, 5, 5, 5, 4, 3, 4, 5, 5, 3,  , 2, 5, 10, 0, 6, 2, 10, 4, 5, 5, 3,  , 7, 7, 2, 4, 10, 11, 11, 1, 1, 7, 5, 9, 9, 3, 2, 7, 3, 336
Cb mixolydian (7b), 2, 3, 1, 2, 3, 3, 4, 5, 2, 3, 1, 3, 4, 4, 2, 5, 4, 2, 6, 3, 5, 4, 3, 1, 2, 3, 1, 2, 3, 3, 0, 2, 2, 4, 2,  , 1, 3, 5, 0, 4, 0, 6, 3, 3, 3, 1,  , 6, 4, 2, 2, 5, 7, 5, 0, 0, 2, 3, 4, 4, 0, 1, 4, 1, 178
C# mixolydian (7#), 2, 2, 3, 2, 3, 3, 4, 5, 2, 2, 3, 2, 3, 5, 2, 5, 3, 2, 5, 2, 3, 4, 4, 1, 2, 2, 3, 2, 3, 3, 2, 1, 4, 5, 1,  , 2, 3, 8, 0, 3, 1, 7, 1, 5, 3, 2,  , 5, 5, 2, 3, 6, 7, 3, 1, 1, 5, 4, 5, 4, 1, 1, 7, 2, 197
Cb aeolian (7b), 2, 4, 2, 2, 4, 7, 2, 5, 2, 3, 2, 5, 6, 6, 2, 4, 3, 4, 7, 2, 6, 4, 5, 3, 2, 4, 2, 2, 4, 7, 0, 2, 0, 5, 2,  , 2, 3, 2, 0, 5, 0, 7, 4, 2, 3, 2,  , 7, 7, 6, 4, 6, 6, 2, 0, 0, 2, 4, 4, 3, 0, 2, 2, 2, 209
C# aeolian (7#), 1, 2, 2, 1, 2, 3, 3, 4, 1, 2, 2, 2, 3, 4, 1, 6, 3, 3, 4, 2, 4, 4, 3, 2, 1, 2, 2, 1, 2, 3, 1, 1, 4, 6, 0,  , 2, 2, 8, 0, 4, 1, 6, 1, 5, 2, 1,  , 6, 4, 3, 3, 5, 8, 2, 0, 0, 4, 5, 4, 3, 1, 1, 8, 1, 177
Cb locrian (7b), 2, 9, 4, 5, 5, 3, 7, 5, 2, 6, 4, 9, 7, 7, 6, 4, 2, 3, 4, 2, 5, 4, 4, 1, 2, 9, 4, 5, 5, 3, 5, 5, 6, 4, 4,  , 3, 7, 9, 1, 5, 2, 9, 6, 6, 7, 1,  , 5, 3, 3, 3, 9, 7, 9, 1, 2, 3, 3, 11, 10, 5, 1, 6, 1, 300
C# locrian (7#), 4, 9, 6, 5, 5, 5, 9, 9, 4, 6, 6, 9, 7, 9, 6, 9, 4, 6, 8, 4, 8, 8, 6, 2, 4, 9, 6, 5, 5, 5, 5, 5, 6, 7, 4,  , 3, 7, 11, 1, 8, 2, 11, 6, 6, 7, 3,  , 8, 7, 4, 5, 11, 12, 11, 1, 2, 7, 6, 11, 10, 5, 3, 9, 3, 395
