 , 0, 1, 2, 3, 4, 5, 6, 7, 8, 9, 10, 11, 12, 13, 14, 15, 16, 17, 18, 19, 20, 21, 22, 23, 24, 25, 26, 27, 28, 29, 30, 31, 32, 33, 34, 35, 36, 37, 38, 39, 40, 41, 42, 43, 44, 45, 46, 47, 48, 49, 50, 51, 52, 53, 54, 55, 56, 57, 58, 59, 60, 61, 62, 63, 64, 65, 66, 67, 68, 69, 70, 71, 72, 73, 74, 75, 76, 77, 78, 79, 80, 81, 82, 83, 84, 85, 86, 87, 88, 89, 90, 91, 92, 93, 94, 95, 96, 97, 98, 99, 100, 101, 102, 103, 104, 105, 106, 107, 108, 109, 110, 111, 112, 113, 114, 115, 116, 117, 118, 119, 120, 121, 122, 123, 124, 125, 126, 127, 128, 129, 130, 131, 132, 133, 134, 135, 136, 137, 138, 139, 140, 141, 142, 143, 144, 145, 146, 147, 148, 149, 150, 151, 152, 153, 154, 155, 156, 157, 158, 159, 160, 161, 162, 163, 164, 165, 166, 167, 168, 169, 170, 171, 172, 173, 174, 175, 176, 177, 178, 179, 180, 181, 182, 183, 184, 185, 186, 187, 188, 189, 190, 191, 192, 193, 194, 195, 196, 197, 198, 199, 200, 201, 202, 203, 204, 205, 206, 207, 208, 209, 210, 211, 212, 213, 214, 215, 216, 217, 218, 219, 220, 221, 222, 223, 224, 225, 226, 227, 228, 229, 230, 231, 232, 233, 234, 235, 236, 237, 238, 239, 240, 241, 242, 243, 244, 245, 246, rowcost
C major (0), 1+0:0:0:0:0, 3+1:0:0:0:0, 0+5:0:0:0:0, 0+0:0:0:0:0, 1+1:0:0:0:0, 1+0:0:0:0:0, 0+0:0:0:0:0, 0+0:0:0:0:0, 2+2:0:0:0:0, 1+1:0:0:0:0, 2+0:0:0:0:0, 2+1:1:0:0:0, 1+1:0:0:0:0, 1+1:0:0:0:0, 1+1:0:0:0:1, 3+1:0:0:0:0, 2+1:0:0:0:1, 3+1:0:0:0:0, 0+5:0:0:0:0, 0+1:0:0:0:0, 4+1:0:0:0:0, 3+1:0:1:0:1, 3+1:0:0:0:0, 2+1:0:0:0:0, 1+0:0:0:0:0, 1+0:0:0:0:0, 0+0:0:0:0:0, 2+1:0:0:0:0, 1+2:0:0:0:0, 2+1:0:0:0:1, 1+1:0:0:0:1, 5+3:1:0:0:1, 1+0:0:0:0:0, 3+2:0:0:0:2, 3+2:0:0:0:2, 1+0:0:0:0:0, 2+2:0:0:0:0, 2+1:0:0:0:1, 1+1:0:0:0:0, 1+1:0:0:0:0, 1+2:0:0:0:0, 3+3:0:0:0:0, 1+2:0:0:0:0, 3+3:3:0:0:0, 3+4:2:0:0:0, 2+3:0:0:0:1, 1+3:0:0:0:3, 4+2:1:0:0:0, 1+0:0:0:0:0, 7+4:0:0:0:0, 1+0:0:0:0:0,  , 4+3:0:0:0:0, 6+4:1:1:0:1, 5+3:0:0:0:1, 4+3:0:0:0:2, 4+1:0:0:0:1, 3+0:0:0:0:0, 2+1:0:0:0:0, 1+0:0:0:0:0, 2+0:0:0:0:0, 2+2:0:0:0:2, 1+1:0:0:0:1, 4+2:1:0:0:0, 1+0:0:0:0:0, 3+1:0:0:0:0, 0+3:0:0:0:0, 0+0:0:0:0:0, 2+1:0:0:0:0, 1+0:0:0:0:0, 3+2:0:0:0:0, 0+0:0:0:0:0, 1+2:0:0:0:0, 1+0:0:0:0:0, 1+2:0:0:0:0, 3+3:3:0:0:3, 1+0:0:0:0:0, 1+2:0:0:0:0, 1+1:0:0:0:1, 3+1:0:0:0:0, 1+0:0:0:0:0, 3+1:0:0:0:0, 1+5:0:0:0:1,  , 5+4:0:0:0:2, 5+4:0:1:0:3, 2+0:0:0:0:0, 4+2:0:0:0:0, 3+1:0:0:0:1, 2+0:0:0:0:0, 4+2:1:0:0:0, 2+0:0:0:0:0, 2+0:0:0:0:0, 3+2:1:0:0:2, 2+3:0:0:0:2, 4+2:1:0:0:0, 1+0:0:0:0:0, 3+3:0:0:0:3, 1+0:0:0:0:0,  , 2+2:0:0:0:0, 2+2:0:0:0:2, 1+2:0:0:0:0, 1+1:0:0:0:0, 1+3:0:0:0:0, 1+0:0:0:0:0, 2+2:0:0:0:0, 3+3:3:0:0:3, 3+3:0:1:0:1, 1+2:0:0:0:0, 1+2:0:0:0:2, 4+3:0:0:0:1, 1+0:0:0:0:0, 6+3:0:0:0:1, 2+1:0:0:0:0,  , 6+4:0:0:0:1, 4+2:0:1:0:1, 3+0:0:0:0:0, 2+3:0:0:0:3, 1+0:0:0:0:0, 2+3:0:0:0:0, 1+0:0:0:0:0, 1+3:0:0:0:0, 1+1:0:0:0:0, 2+1:0:0:0:1, 2+1:0:0:0:1, 6+3:1:0:0:1, 1+0:0:0:0:0, 4+3:0:0:0:2, 2+1:0:0:0:1,  , 3+1:0:0:0:1, 2+1:1:0:0:0, 0+0:0:0:0:0, 3+2:0:0:0:0, 2+3:0:0:0:0, 1+0:0:0:0:0, 1+2:0:0:0:0, 5+5:3:0:0:4, 3+1:0:0:0:0, 2+5:0:0:0:0, 1+2:0:0:0:2, 6+3:0:0:0:0, 3+1:1:0:0:1, 4+3:0:0:0:2, 1+0:0:0:0:0, 0+0:0:0:0:0, 4+0:0:0:0:0, 4+2:0:1:0:2, 4+1:0:1:0:1, 2+2:0:0:0:0, 1+0:0:0:0:0, 3+0:0:0:0:0, 2+1:1:0:0:0, 2+2:0:0:0:0, 6+3:0:0:0:1, 4+3:1:0:0:2, 3+2:0:0:0:0, 4+2:1:0:0:0, 1+0:0:0:0:0, 3+2:0:0:0:0, 0+0:0:0:0:0,  , 1+2:0:0:0:0, 1+0:0:0:0:0, 0+0:0:0:0:0, 1+1:0:0:0:0, 2+1:0:0:0:0, 1+0:0:0:0:0, 1+1:0:0:0:0, 2+1:1:0:0:0, 1+1:0:0:0:0, 1+0:0:0:0:0, 1+2:0:0:0:2, 3+1:0:0:0:0, 1+0:0:0:0:0, 3+2:0:0:0:0, 0+2:0:0:0:0, 0+1:0:0:0:0, 3+1:0:0:0:0, 3+1:0:1:0:1, 2+0:0:0:0:0, 2+1:0:0:0:0, 2+0:0:0:0:0, 1+0:0:0:0:0, 0+0:0:0:0:0, 1+1:0:0:0:0, 1+1:0:0:0:0, 2+2:0:0:0:2, 1+1:0:0:0:1, 6+3:1:0:0:0, 1+0:0:0:0:0, 3+2:0:0:0:0, 0+0:0:0:0:0,  , 1+3:0:0:0:0, 1+0:0:0:0:0, 1+1:0:0:0:1, 0+0:0:0:0:0, 1+2:0:0:0:0, 1+2:0:0:0:0, 2+0:0:0:0:0, 2+1:1:0:0:0, 1+2:0:0:0:0, 1+0:0:0:0:0, 1+2:0:0:0:2, 5+3:0:0:0:1, 1+0:0:0:0:0, 3+1:0:0:0:0, 0+1:0:0:0:0, 1+4:0:0:0:0, 4+2:0:0:0:1, 5+4:0:1:0:3, 5+3:0:1:0:2, 2+1:0:0:0:0, 2+0:0:0:0:0, 2+0:0:0:0:0, 2+1:1:0:0:0, 2+1:0:0:0:0, 3+2:0:1:0:2, 2+3:0:0:0:3, 6+3:0:0:0:0, 8+6:1:0:0:4, 3+2:1:0:0:0, 6+3:1:0:0:2, 2+1:0:0:0:0, 4+4:1:0:0:3, 2+1:0:0:0:0, 4+4:1:0:0:3, 1+1:0:0:0:0, 4+3:2:0:0:1, 2+1:0:0:0:1, 4+2:1:0:0:1, 2+1:0:0:0:0, 4+2:1:0:0:1, 1+1:0:0:0:0, 4+2:1:0:0:1, 1+1:0:0:0:0, 5+2:1:0:0:1, 1+1:0:0:0:0, 6+3:1:0:0:2, 1+1:0:0:0:0, 4+2:1:0:0:1, 1+1:0:0:0:0, 4+2:1:0:0:1, 0+0:0:0:0:0, 525+357:46:11:0:121
A minor (0), 1+1:0:0:0:0, 3+0:0:0:0:0, 0+1:0:0:0:0, 0+0:0:0:0:0, 1+2:0:0:0:0, 1+2:0:0:0:0, 0+5:0:0:0:0, 0+2:0:0:0:0, 2+5:0:0:0:0, 1+0:0:0:0:0, 2+5:0:0:0:0, 2+4:1:0:0:1, 1+2:0:0:0:0, 1+1:0:0:0:1, 1+0:0:0:0:0, 3+2:0:0:0:0, 2+2:0:0:0:0, 3+0:0:0:0:0, 0+1:0:0:0:0, 0+0:0:0:0:0, 4+0:0:0:0:0, 3+1:0:1:0:1, 3+1:0:0:0:0, 2+1:0:0:0:0, 1+0:0:0:0:0, 1+0:0:0:0:0, 0+1:0:0:0:0, 2+1:0:0:0:0, 1+3:0:0:0:0, 2+0:0:0:0:0, 1+0:0:0:0:0, 5+4:1:0:0:1, 1+1:0:0:0:0, 3+5:0:0:0:0, 3+2:0:0:0:0, 1+0:0:0:0:0, 2+3:0:0:0:0, 2+3:0:0:0:0, 1+4:0:0:0:0, 1+2:0:0:0:1, 1+4:0:0:0:2, 3+1:0:0:0:1, 1+3:0:0:0:2, 3+6:3:0:0:3, 3+6:2:0:0:2, 3+2:0:0:0:1, 1+0:0:0:0:0, 5+4:0:0:0:0, 1+3:0:0:0:0, 7+2:0:0:0:0, 1+2:0:0:0:0,  , 4+2:0:0:0:0, 6+4:1:1:0:1, 5+2:0:0:0:0, 4+2:0:0:0:0, 4+1:0:0:0:1, 3+0:0:0:0:0, 2+1:0:0:0:0, 1+0:0:0:0:0, 2+1:0:0:0:0, 2+0:0:0:0:0, 1+0:0:0:0:0, 4+3:1:0:0:1, 1+2:0:0:0:0, 3+0:0:0:0:0, 0+1:0:0:0:0, 0+0:0:0:0:0, 2+4:0:0:0:0, 1+1:0:0:0:0, 3+3:0:0:0:0, 0+1:0:0:0:0, 1+3:0:0:0:2, 1+0:0:0:0:0, 1+4:0:0:0:0, 3+0:0:0:0:0, 1+0:0:0:0:0, 1+4:0:0:0:2, 1+0:0:0:0:0, 3+2:0:0:0:0, 1+2:0:0:0:0, 3+0:0:0:0:0, 1+2:0:0:0:0,  , 5+2:0:0:0:0, 5+4:0:1:0:1, 2+0:0:0:0:0, 4+2:0:0:0:0, 3+1:0:0:0:1, 2+0:0:0:0:0, 4+2:1:0:0:0, 2+0:0:0:0:0, 2+2:0:0:0:0, 3+1:1:0:0:1, 2+1:0:0:0:0, 4+3:1:0:0:1, 1+2:0:0:0:0, 3+1:0:0:0:0, 1+2:0:0:0:0,  , 2+3:0:0:0:0, 2+4:0:0:0:0, 1+5:0:0:0:0, 1+2:0:0:0:0, 1+5:0:0:0:3, 1+0:0:0:0:0, 2+4:0:0:0:0, 3+0:0:0:0:0, 3+4:0:1:0:3, 1+3:0:0:0:2, 1+0:0:0:0:0, 4+5:0:0:0:0, 1+3:0:0:0:0, 6+6:0:0:0:0, 2+2:0:0:0:0,  , 6+2:0:0:0:0, 4+2:0:1:0:1, 3+0:0:0:0:0, 2+1:0:0:0:0, 1+0:0:0:0:0, 2+1:0:0:0:0, 1+1:0:0:0:0, 1+4:0:0:0:0, 1+2:0:0:0:0, 2+0:0:0:0:0, 2+1:0:0:0:0, 6+4:1:0:0:1, 1+1:0:0:0:0, 4+2:0:0:0:0, 2+1:0:0:0:0,  , 3+1:0:0:0:0, 2+3:1:0:0:1, 0+2:0:0:0:0, 3+5:0:0:0:0, 2+5:0:0:0:2, 1+0:0:0:0:0, 1+5:0:0:0:0, 5+2:0:0:0:0, 3+2:0:0:0:1, 3+4:0:0:0:2, 1+0:0:0:0:0, 6+5:0:0:0:0, 3+3:1:0:0:1, 4+2:0:0:0:0, 1+2:0:0:0:0, 0+0:0:0:0:0, 4+0:0:0:0:0, 4+2:0:1:0:1, 4+1:0:1:0:1, 2+2:0:0:0:0, 1+0:0:0:0:0, 3+0:0:0:0:0, 2+2:1:0:0:1, 2+3:0:0:0:0, 6+4:0:0:0:0, 4+2:1:0:0:1, 3+1:0:0:0:0, 4+2:1:0:0:0, 1+0:0:0:0:0, 3+2:0:0:0:0, 0+1:0:0:0:0,  , 1+2:0:0:0:0, 1+1:0:0:0:0, 0+1:0:0:0:0, 1+2:0:0:0:0, 2+2:0:0:0:0, 1+0:0:0:0:0, 1+3:0:0:0:1, 2+3:1:0:0:1, 1+3:0:0:0:0, 2+1:0:0:0:1, 1+0:0:0:0:0, 3+2:0:0:0:0, 1+1:0:0:0:0, 3+0:0:0:0:0, 0+2:0:0:0:0, 0+0:0:0:0:0, 3+0:0:0:0:0, 3+1:0:1:0:1, 2+0:0:0:0:0, 2+1:0:0:0:0, 2+0:0:0:0:0, 1+0:0:0:0:0, 0+2:0:0:0:0, 1+1:0:0:0:0, 1+2:0:0:0:0, 2+0:0:0:0:0, 1+0:0:0:0:0, 6+4:1:0:0:1, 1+1:0:0:0:0, 3+0:0:0:0:0, 0+1:0:0:0:0,  , 1+3:0:0:0:0, 1+2:0:0:0:0, 1+4:0:0:0:1, 0+1:0:0:0:0, 1+4:0:0:0:2, 1+0:0:0:0:0, 2+5:0:0:0:0, 2+3:1:0:0:1, 1+4:0:0:0:0, 1+4:0:0:0:2, 1+3:0:0:0:0, 5+3:0:0:0:0, 1+2:0:0:0:0, 3+0:0:0:0:0, 0+1:0:0:0:0, 1+2:0:0:0:0, 4+1:0:0:0:0, 5+3:0:1:0:1, 5+2:0:1:0:1, 2+0:0:0:0:0, 2+0:0:0:0:0, 2+0:0:0:0:0, 2+2:1:0:0:1, 2+3:0:0:0:0, 3+2:0:1:0:1, 2+0:0:0:0:0, 6+4:0:0:0:1, 8+5:1:0:0:1, 3+3:1:0:0:1, 6+2:1:0:0:1, 2+2:0:0:0:0, 4+2:1:0:0:1, 2+2:0:0:0:0, 4+1:1:0:0:1, 1+2:0:0:0:0, 4+2:2:0:0:2, 2+2:0:0:0:0, 4+1:1:0:0:1, 2+2:0:0:0:0, 4+1:1:0:0:1, 1+2:0:0:0:0, 4+1:1:0:0:1, 1+2:0:0:0:0, 5+3:1:0:0:1, 1+2:0:0:0:0, 6+2:1:0:0:1, 1+2:0:0:0:0, 4+1:1:0:0:1, 1+2:0:0:0:0, 4+1:1:0:0:1, 0+0:0:0:0:0, 529+438:36:11:0:78
F major (1b), 2+0:0:0:0:0, 4+1:0:0:0:1, 1+0:0:0:0:0, 0+0:0:0:0:0, 2+0:0:0:0:0, 2+0:0:0:0:0, 1+0:0:0:0:0, 1+0:0:0:0:0, 1+1:0:0:0:0, 0+0:0:0:0:0, 1+0:0:0:0:0, 2+2:2:0:0:2, 0+0:0:0:0:0, 1+1:0:0:0:0, 2+1:0:0:0:1, 4+1:0:0:0:0, 3+1:0:0:0:1, 4+1:0:0:0:1, 1+0:0:0:0:0, 0+0:0:0:0:0, 5+2:0:0:0:1, 4+2:0:1:0:1, 4+1:0:0:0:1, 3+1:0:0:0:0, 2+0:0:0:0:0, 2+1:0:0:0:0, 1+0:0:0:0:0, 2+0:0:0:0:0, 2+2:0:0:0:0, 3+1:0:0:0:1, 2+1:0:0:0:1, 5+3:2:0:0:0, 2+0:0:0:0:0, 4+2:0:0:0:2, 4+2:0:0:0:2, 1+0:0:0:0:0, 3+0:0:0:0:0, 2+1:1:0:0:0, 2+1:0:0:0:0, 2+1:0:0:0:0, 1+2:0:0:0:0, 2+1:0:0:0:0, 2+1:0:0:0:1, 2+3:3:0:0:3, 2+3:3:0:0:3, 3+3:0:0:0:1, 2+3:0:0:0:3, 4+4:1:0:0:0, 2+0:0:0:0:0, 8+4:0:0:0:0, 2+0:0:0:0:0,  , 5+3:0:0:0:0, 7+4:1:1:0:1, 5+3:0:0:0:1, 5+3:0:0:0:2, 5+2:0:0:0:1, 4+1:0:0:0:0, 3+1:0:0:0:0, 2+0:0:0:0:0, 3+0:0:0:0:0, 3+2:0:0:0:2, 2+1:0:0:0:1, 4+2:1:0:0:0, 2+0:0:0:0:0, 4+1:0:0:0:1, 1+0:0:0:0:0, 0+0:0:0:0:0, 2+1:0:0:0:0, 1+0:0:0:0:0, 4+2:0:0:0:0, 1+0:0:0:0:0, 1+2:0:0:0:0, 0+0:0:0:0:0, 1+0:0:0:0:0, 2+3:3:0:0:3, 0+0:0:0:0:0, 1+2:0:0:0:0, 2+1:0:0:0:1, 3+1:0:0:0:0, 2+0:0:0:0:0, 4+1:0:0:0:1, 2+1:0:0:0:1,  , 6+6:0:0:0:4, 6+7:0:1:0:3, 2+0:0:0:0:0, 5+2:0:0:0:0, 4+1:0:0:0:1, 3+2:0:0:0:0, 5+2:1:0:0:0, 2+0:0:0:0:0, 3+0:0:0:0:0, 4+2:1:0:0:2, 3+3:0:0:0:2, 4+2:1:0:0:0, 2+0:0:0:0:0, 4+3:0:0:0:3, 2+0:0:0:0:0,  , 2+0:0:0:0:0, 3+2:0:0:0:2, 2+2:0:0:0:0, 2+1:0:0:0:0, 1+3:0:0:0:0, 0+0:0:0:0:0, 1+0:0:0:0:0, 2+3:3:0:0:3, 2+3:0:1:0:1, 1+2:0:0:0:0, 2+2:0:0:0:2, 3+3:1:0:0:0, 2+0:0:0:0:0, 7+3:0:0:0:1, 3+1:0:0:0:0,  , 7+6:0:0:0:3, 5+4:0:1:0:1, 4+2:0:0:0:0, 3+3:0:0:0:3, 2+0:0:0:0:0, 3+3:0:0:0:0, 2+0:0:0:0:0, 2+0:0:0:0:0, 2+0:0:0:0:0, 3+1:0:0:0:1, 3+1:0:0:0:1, 5+3:2:0:0:0, 2+0:0:0:0:0, 5+3:0:0:0:2, 3+1:0:0:0:1,  , 4+1:0:0:0:1, 1+1:1:0:0:0, 1+0:0:0:0:0, 4+2:0:0:0:0, 3+3:0:0:0:0, 0+0:0:0:0:0, 1+0:0:0:0:0, 4+5:3:0:0:4, 2+1:0:0:0:0, 2+5:0:0:0:0, 2+2:0:0:0:2, 7+3:0:0:0:0, 4+1:1:0:0:1, 5+3:0:0:0:2, 2+0:0:0:0:0, 0+0:0:0:0:0, 5+3:0:0:0:2, 5+4:0:1:0:2, 5+1:0:1:0:1, 3+2:0:0:0:0, 2+0:0:0:0:0, 4+3:0:0:0:0, 3+1:1:0:0:0, 2+0:0:0:0:0, 7+4:0:0:0:0, 5+3:1:0:0:2, 4+2:0:0:0:0, 4+2:1:0:0:0, 2+0:0:0:0:0, 4+2:0:0:0:2, 1+0:0:0:0:0,  , 1+0:0:0:0:0, 1+0:0:0:0:0, 1+0:0:0:0:0, 2+1:0:0:0:0, 1+1:0:0:0:0, 0+0:0:0:0:0, 1+0:0:0:0:0, 2+3:3:0:0:3, 0+0:0:0:0:0, 1+2:0:0:0:0, 2+2:0:0:0:2, 3+1:0:0:0:0, 2+0:0:0:0:0, 4+2:0:0:0:2, 1+0:0:0:0:0, 0+0:0:0:0:0, 4+3:0:0:0:1, 4+2:0:1:0:1, 2+0:0:0:0:0, 3+1:0:0:0:0, 3+1:0:0:0:0, 2+2:0:0:0:0, 1+0:0:0:0:0, 1+0:0:0:0:0, 2+0:0:0:0:0, 3+2:0:0:0:2, 2+1:0:0:0:1, 5+4:1:1:0:1, 2+0:0:0:0:0, 4+2:0:0:0:2, 1+0:0:0:0:0,  , 1+0:0:0:0:0, 1+0:0:0:0:0, 2+1:0:0:0:1, 1+0:0:0:0:0, 1+2:0:0:0:0, 0+0:0:0:0:0, 1+0:0:0:0:0, 2+3:3:0:0:3, 0+0:0:0:0:0, 1+2:0:0:0:0, 2+2:0:0:0:2, 6+2:0:0:0:0, 2+0:0:0:0:0, 4+1:0:0:0:1, 1+0:0:0:0:0, 2+2:0:0:0:2, 5+4:0:0:0:2, 6+6:0:1:0:4, 6+3:0:1:0:3, 3+1:0:0:0:0, 3+0:0:0:0:0, 3+3:0:0:0:0, 3+1:1:0:0:0, 3+1:0:0:0:0, 4+2:0:1:0:2, 3+3:0:0:0:3, 7+3:0:0:0:0, 7+6:1:0:0:4, 4+1:1:0:0:1, 5+3:1:0:0:2, 3+0:0:0:0:0, 3+4:1:0:0:3, 3+0:0:0:0:0, 3+4:1:0:0:3, 2+0:0:0:0:0, 3+3:2:0:0:1, 3+1:0:0:0:1, 3+2:1:0:0:1, 3+0:0:0:0:0, 3+2:1:0:0:1, 2+0:0:0:0:0, 3+2:1:0:0:1, 2+0:0:0:0:0, 4+2:1:0:0:1, 2+0:0:0:0:0, 5+3:1:0:0:2, 2+0:0:0:0:0, 3+2:1:0:0:1, 2+0:0:0:0:0, 3+6:3:0:0:1, 0+0:0:0:0:0, 642+340:58:12:0:157
G major (1#), 0+1:0:0:0:0, 2+0:0:0:0:0, 0+1:0:0:0:0, 0+0:0:0:0:0, 1+0:0:0:0:0, 0+0:0:0:0:0, 1+0:0:0:0:0, 1+0:0:0:0:0, 2+0:0:0:0:0, 2+1:0:0:0:0, 2+0:0:0:0:0, 1+1:1:0:0:0, 1+1:0:0:0:0, 2+1:0:0:0:0, 2+1:0:0:0:1, 2+1:0:0:0:0, 1+2:0:0:0:0, 2+0:0:0:0:0, 0+1:0:0:0:0, 0+0:0:0:0:0, 3+0:0:0:0:0, 3+1:0:1:0:1, 2+0:0:0:0:0, 1+0:0:0:0:0, 0+0:0:0:0:0, 1+1:0:0:0:0, 0+0:0:0:0:0, 1+0:0:0:0:0, 1+2:0:0:0:0, 1+1:0:0:0:1, 2+1:0:0:0:1, 4+3:1:0:0:1, 0+0:0:0:0:0, 2+2:0:0:0:2, 2+2:0:0:0:2, 0+0:0:0:0:0, 1+0:0:0:0:0, 1+1:0:0:0:1, 2+1:0:0:0:0, 2+1:0:0:0:0, 1+0:0:0:0:0, 4+3:0:0:0:0, 2+2:0:0:0:0, 2+0:0:0:0:0, 2+4:2:0:0:0, 3+3:0:0:0:1, 2+3:0:0:0:3, 3+2:1:0:0:0, 0+3:0:0:0:0, 6+2:0:0:0:0, 0+2:0:0:0:0,  , 3+2:0:0:0:0, 7+4:1:1:0:1, 4+2:0:0:0:0, 3+2:0:0:0:0, 3+1:0:0:0:1, 2+0:0:0:0:0, 1+1:0:0:0:0, 1+0:0:0:0:0, 1+0:0:0:0:0, 1+2:0:0:0:2, 2+1:0:0:0:1, 3+2:1:0:0:0, 0+2:0:0:0:0, 2+0:0:0:0:0, 0+1:0:0:0:0, 0+0:0:0:0:0, 2+1:0:0:0:0, 0+0:0:0:0:0, 4+2:0:0:0:0, 1+0:0:0:0:0, 1+0:0:0:0:0, 2+1:0:0:0:0, 1+0:0:0:0:0, 2+0:0:0:0:0, 1+1:0:0:0:0, 2+0:0:0:0:0, 2+1:0:0:0:1, 2+1:0:0:0:0, 0+2:0:0:0:0, 2+0:0:0:0:0, 1+2:0:0:0:0,  , 4+2:0:0:0:0, 4+4:0:2:0:2, 1+0:0:0:0:0, 3+1:0:0:0:0, 2+1:0:0:0:1, 1+2:0:0:0:0, 3+2:1:0:0:0, 1+0:0:0:0:0, 1+0:0:0:0:0, 2+2:1:0:0:2, 3+3:0:0:0:2, 3+2:1:0:0:0, 0+0:0:0:0:0, 2+3:0:0:0:3, 0+0:0:0:0:0,  , 1+0:0:0:0:0, 1+2:0:0:0:2, 2+2:0:0:0:0, 2+1:0:0:0:0, 2+1:0:0:0:0, 2+1:0:0:0:0, 3+1:0:0:0:0, 2+0:0:0:0:0, 3+2:2:0:0:0, 2+2:0:0:0:0, 2+2:0:0:0:2, 3+3:0:0:0:1, 0+0:0:0:0:0, 5+3:0:0:0:1, 1+1:0:0:0:0,  , 5+6:0:0:0:3, 3+2:0:2:0:2, 2+0:0:0:0:0, 1+3:0:0:0:3, 0+0:0:0:0:0, 3+3:0:0:0:0, 0+0:0:0:0:0, 1+0:0:0:0:0, 1+0:0:0:0:0, 1+1:0:0:0:1, 3+1:0:0:0:1, 5+3:1:0:0:1, 0+0:0:0:0:0, 3+3:0:0:0:2, 1+1:0:0:0:1,  , 2+1:0:0:0:1, 1+1:1:0:0:0, 1+0:0:0:0:0, 4+2:0:0:0:0, 2+3:0:0:0:0, 2+1:0:0:0:0, 1+0:0:0:0:0, 4+2:0:0:0:0, 2+3:2:0:0:0, 3+5:0:0:0:0, 2+2:0:0:0:2, 5+3:0:0:0:0, 2+1:1:0:0:1, 3+3:0:0:0:2, 0+0:0:0:0:0, 0+0:0:0:0:0, 3+0:0:0:0:0, 4+2:0:1:0:1, 3+1:0:1:0:1, 1+0:0:0:0:0, 0+0:0:0:0:0, 2+3:0:0:0:0, 1+1:1:0:0:0, 1+0:0:0:0:0, 5+4:0:0:0:0, 3+3:1:0:0:2, 4+2:0:0:0:0, 3+2:1:0:0:0, 0+0:0:0:0:0, 2+2:0:0:0:0, 0+0:0:0:0:0,  , 1+0:0:0:0:0, 0+0:0:0:0:0, 1+0:0:0:0:0, 2+1:0:0:0:0, 2+0:0:0:0:0, 2+1:0:0:0:0, 1+0:0:0:0:0, 1+1:1:0:0:0, 1+1:0:0:0:0, 2+2:0:0:0:0, 2+2:0:0:0:2, 2+1:0:0:0:0, 0+1:0:0:0:0, 2+0:0:0:0:0, 0+2:0:0:0:0, 0+0:0:0:0:0, 2+0:0:0:0:0, 3+1:0:1:0:1, 1+0:0:0:0:0, 1+0:0:0:0:0, 1+0:0:0:0:0, 1+0:0:0:0:0, 0+0:0:0:0:0, 1+0:0:0:0:0, 1+0:0:0:0:0, 1+2:0:0:0:2, 2+1:0:0:0:1, 5+3:1:0:0:0, 0+1:0:0:0:0, 2+0:0:0:0:0, 0+0:0:0:0:0,  , 1+0:0:0:0:0, 0+0:0:0:0:0, 2+1:0:0:0:1, 1+0:0:0:0:0, 1+0:0:0:0:0, 2+1:0:0:0:0, 2+0:0:0:0:0, 1+1:1:0:0:0, 2+2:0:0:0:0, 2+2:0:0:0:0, 2+2:0:0:0:2, 4+2:0:0:0:0, 0+0:0:0:0:0, 2+0:0:0:0:0, 0+1:0:0:0:0, 1+2:0:0:0:0, 3+1:0:0:0:0, 5+3:0:1:0:1, 4+2:0:1:0:1, 1+0:0:0:0:0, 1+0:0:0:0:0, 1+3:0:0:0:0, 1+1:1:0:0:0, 2+1:0:0:0:0, 3+2:0:1:0:2, 1+3:0:0:0:3, 5+3:0:0:0:0, 7+6:1:0:0:4, 2+1:1:0:0:1, 5+3:1:0:0:2, 1+0:0:0:0:0, 3+4:1:0:0:3, 1+0:0:0:0:0, 3+4:1:0:0:3, 1+0:0:0:0:0, 3+3:2:0:0:1, 2+1:0:0:0:1, 3+2:1:0:0:1, 1+0:0:0:0:0, 3+2:1:0:0:1, 1+0:0:0:0:0, 3+2:1:0:0:1, 1+0:0:0:0:0, 4+2:1:0:0:1, 1+0:0:0:0:0, 5+3:1:0:0:2, 1+0:0:0:0:0, 3+2:1:0:0:1, 1+0:0:0:0:0, 3+2:1:0:0:1, 0+0:0:0:0:0, 436+285:38:12:0:99
D minor (1b), 2+0:0:0:0:0, 4+1:0:0:0:0, 1+0:0:0:0:0, 0+0:0:0:0:0, 2+0:0:0:0:0, 2+1:0:0:0:0, 1+2:0:0:0:0, 1+2:0:0:0:0, 1+0:0:0:0:0, 0+1:0:0:0:0, 1+0:0:0:0:0, 2+0:0:0:0:0, 0+0:0:0:0:0, 1+2:0:0:0:1, 2+0:0:0:0:0, 4+1:0:0:0:0, 3+1:0:0:0:1, 4+1:0:0:0:0, 1+5:0:0:0:0, 0+1:0:0:0:0, 5+1:0:0:0:0, 4+1:0:1:0:1, 4+1:0:0:0:0, 3+1:0:0:0:0, 2+0:0:0:0:0, 2+1:0:0:0:0, 1+0:0:0:0:0, 2+0:0:0:0:0, 2+2:0:0:0:0, 3+1:0:0:0:1, 2+2:0:0:0:0, 5+3:2:0:0:0, 2+1:0:0:0:0, 4+2:0:0:0:2, 4+2:0:0:0:2, 1+0:0:0:0:0, 3+0:0:0:0:0, 2+3:1:0:0:0, 2+2:0:0:0:1, 3+4:0:0:0:0, 1+0:0:0:0:0, 2+3:0:0:0:0, 2+2:0:0:0:0, 2+0:0:0:0:0, 2+2:2:0:0:0, 4+2:0:0:0:1, 2+2:0:0:0:0, 4+4:1:0:0:0, 2+0:0:0:0:0, 8+4:0:0:0:0, 2+0:0:0:0:0,  , 5+3:0:0:0:0, 7+4:1:1:0:1, 5+3:0:0:0:1, 5+3:0:0:0:2, 5+2:0:0:0:1, 4+1:0:0:0:0, 3+1:0:0:0:0, 2+0:0:0:0:0, 3+0:0:0:0:0, 3+4:0:0:0:2, 2+1:0:0:0:0, 4+2:1:0:0:0, 2+0:0:0:0:0, 4+1:0:0:0:0, 1+0:0:0:0:0, 0+0:0:0:0:0, 2+1:0:0:0:0, 1+1:0:0:0:0, 4+3:0:0:0:0, 1+1:0:0:0:0, 1+5:0:0:0:0, 0+0:0:0:0:0, 1+0:0:0:0:0, 2+0:0:0:0:0, 0+0:0:0:0:0, 1+4:0:0:0:2, 2+2:0:0:0:0, 3+1:0:0:0:0, 2+0:0:0:0:0, 4+1:0:0:0:0, 2+1:0:0:0:1,  , 6+6:0:0:0:4, 6+7:0:1:0:3, 2+0:0:0:0:0, 5+2:0:0:0:0, 4+1:0:0:0:1, 3+2:0:0:0:0, 5+2:1:0:0:0, 2+0:0:0:0:0, 3+0:0:0:0:0, 5+3:0:0:0:1, 3+1:0:0:0:0, 4+2:1:0:0:0, 2+0:0:0:0:0, 4+3:0:0:0:3, 2+0:0:0:0:0,  , 2+0:0:0:0:0, 3+4:0:0:0:2, 2+5:0:0:0:0, 2+2:0:0:0:0, 1+7:0:0:0:0, 0+0:0:0:0:0, 1+1:0:0:0:0, 2+0:0:0:0:0, 2+4:0:1:0:3, 1+3:0:0:0:2, 2+0:0:0:0:0, 3+3:1:0:0:0, 2+0:0:0:0:0, 7+3:0:0:0:1, 3+1:0:0:0:0,  , 7+6:0:0:0:3, 5+2:0:1:0:1, 4+0:0:0:0:0, 3+3:0:0:0:3, 2+0:0:0:0:0, 3+3:0:0:0:0, 2+0:0:0:0:0, 2+0:0:0:0:0, 2+0:0:0:0:0, 3+3:0:0:0:0, 3+2:0:0:0:0, 5+3:2:0:0:0, 2+0:0:0:0:0, 5+3:0:0:0:2, 3+1:0:0:0:1,  , 4+1:0:0:0:1, 1+5:4:0:0:0, 1+2:0:0:0:0, 4+5:0:0:0:0, 3+5:0:0:0:2, 0+0:0:0:0:0, 1+0:0:0:0:0, 4+2:0:0:0:0, 2+2:0:0:0:1, 3+4:0:0:0:2, 2+0:0:0:0:0, 7+3:0:0:0:0, 4+1:1:0:0:1, 5+3:0:0:0:2, 2+0:0:0:0:0, 0+0:0:0:0:0, 5+2:0:0:0:0, 5+2:0:1:0:2, 5+1:0:1:0:1, 3+2:0:0:0:0, 2+0:0:0:0:0, 4+3:0:0:0:0, 3+1:1:0:0:0, 2+0:0:0:0:0, 7+4:0:0:0:0, 5+3:1:0:0:2, 4+2:0:0:0:0, 4+2:1:0:0:0, 2+0:0:0:0:0, 4+2:0:0:0:0, 1+0:0:0:0:0,  , 1+0:0:0:0:0, 1+2:0:0:0:0, 1+2:0:0:0:0, 2+5:0:0:0:0, 1+0:0:0:0:0, 0+1:0:0:0:0, 1+0:0:0:0:0, 2+0:0:0:0:0, 0+0:0:0:0:0, 2+1:0:0:0:1, 2+2:0:0:0:0, 3+1:0:0:0:0, 2+0:0:0:0:0, 4+2:0:0:0:0, 1+2:0:0:0:0, 0+1:0:0:0:0, 4+1:0:0:0:0, 4+1:0:1:0:1, 2+0:0:0:0:0, 3+1:0:0:0:0, 3+0:0:0:0:0, 2+0:0:0:0:0, 1+0:0:0:0:0, 1+0:0:0:0:0, 2+0:0:0:0:0, 3+4:0:0:0:0, 2+1:0:0:0:0, 5+4:1:1:0:1, 2+0:0:0:0:0, 4+2:0:0:0:0, 1+0:0:0:0:0,  , 1+0:0:0:0:0, 1+2:0:0:0:0, 2+4:0:0:0:1, 1+1:0:0:0:0, 1+3:0:0:0:0, 0+0:0:0:0:0, 1+0:0:0:0:0, 2+0:0:0:0:0, 0+0:0:0:0:0, 1+4:0:0:0:2, 2+3:0:0:0:0, 6+2:0:0:0:0, 2+0:0:0:0:0, 4+1:0:0:0:0, 1+0:0:0:0:0, 2+2:0:0:0:2, 5+0:0:0:0:0, 6+1:0:1:0:0, 6+2:0:1:0:1, 3+1:0:0:0:0, 3+0:0:0:0:0, 3+3:0:0:0:0, 3+1:1:0:0:1, 3+1:0:0:0:0, 4+2:0:1:0:2, 3+3:0:0:0:3, 7+3:0:0:0:0, 7+12:4:0:0:3, 4+1:1:0:0:1, 5+7:3:0:0:1, 3+0:0:0:0:0, 3+9:6:0:0:3, 3+0:0:0:0:0, 3+9:6:0:0:3, 2+0:0:0:0:0, 3+7:4:0:0:1, 3+1:0:0:0:1, 3+9:4:0:0:1, 3+0:0:0:0:0, 3+7:3:0:0:1, 2+0:0:0:0:0, 3+7:4:0:0:1, 2+0:0:0:0:0, 4+7:3:0:0:1, 2+0:0:0:0:0, 5+8:4:0:0:2, 2+0:0:0:0:0, 3+6:3:0:0:1, 2+0:0:0:0:0, 3+6:3:0:0:1, 0+0:0:0:0:0, 647+422:71:12:0:100
E minor (1#), 0+1:0:0:0:0, 2+0:0:0:0:0, 0+1:0:0:0:0, 0+0:0:0:0:0, 1+1:0:0:0:0, 0+2:0:0:0:0, 1+5:0:0:0:0, 1+2:0:0:0:0, 2+0:0:0:0:0, 2+1:0:0:0:0, 2+0:0:0:0:0, 1+4:1:0:0:1, 1+2:0:0:0:0, 2+1:0:0:0:1, 2+0:0:0:0:0, 2+2:0:0:0:0, 1+2:0:0:0:0, 2+0:0:0:0:0, 0+1:0:0:0:0, 0+0:0:0:0:0, 3+0:0:0:0:0, 3+1:0:1:0:1, 2+0:0:0:0:0, 1+0:0:0:0:0, 0+1:0:0:0:0, 1+1:0:0:0:0, 0+0:0:0:0:0, 1+1:0:0:0:0, 1+3:0:0:0:0, 1+2:0:0:0:0, 2+1:0:0:0:0, 4+4:1:0:0:1, 0+1:0:0:0:0, 2+5:0:0:0:0, 2+2:0:0:0:0, 0+2:0:0:0:0, 1+2:0:0:0:0, 1+3:0:0:0:0, 2+4:0:0:0:0, 2+2:0:0:0:1, 1+4:0:0:0:2, 4+1:0:0:0:1, 2+3:0:0:0:2, 2+6:3:0:0:3, 2+6:2:0:0:2, 4+2:0:0:0:1, 2+0:0:0:0:0, 4+4:0:0:0:0, 0+3:0:0:0:0, 6+2:0:0:0:0, 0+2:0:0:0:0,  , 3+2:0:0:0:0, 8+4:0:1:0:1, 4+2:0:0:0:0, 3+2:0:0:0:0, 3+1:0:0:0:1, 2+2:0:0:0:0, 1+2:0:0:0:0, 1+2:0:0:0:0, 1+1:0:0:0:0, 1+0:0:0:0:0, 2+0:0:0:0:0, 3+3:1:0:0:1, 0+2:0:0:0:0, 2+0:0:0:0:0, 0+1:0:0:0:0, 0+0:0:0:0:0, 2+4:0:0:0:0, 0+1:0:0:0:0, 4+3:0:0:0:0, 1+1:0:0:0:0, 1+3:0:0:0:2, 2+0:0:0:0:0, 1+3:0:0:0:2, 2+4:2:0:0:2, 1+5:0:0:0:0, 2+4:0:0:0:2, 2+0:0:0:0:0, 2+2:0:0:0:0, 0+2:0:0:0:0, 2+0:0:0:0:0, 1+2:0:0:0:0,  , 4+2:0:0:0:0, 4+4:0:2:0:2, 1+0:0:0:0:0, 3+1:0:0:0:0, 2+3:0:0:0:0, 1+3:0:0:0:0, 3+3:1:0:0:1, 1+1:0:0:0:0, 1+2:0:0:0:0, 2+1:1:0:0:1, 3+1:0:0:0:0, 3+3:1:0:0:1, 0+2:0:0:0:0, 2+1:0:0:0:0, 0+2:0:0:0:0,  , 1+3:0:0:0:0, 1+4:0:0:0:0, 2+5:0:0:0:0, 2+2:0:0:0:0, 2+5:0:0:0:3, 2+0:0:0:0:0, 3+1:0:0:0:0, 2+0:0:0:0:0, 2+4:2:1:0:1, 2+3:0:0:0:2, 2+0:0:0:0:0, 3+5:0:0:0:0, 0+3:0:0:0:0, 5+6:0:0:0:0, 1+2:0:0:0:0,  , 5+1:0:0:0:1, 3+2:0:2:0:0, 2+0:0:0:0:0, 1+1:0:0:0:0, 0+2:0:0:0:0, 3+3:0:0:0:1, 0+1:0:0:0:0, 1+2:0:0:0:0, 1+1:0:0:0:0, 1+0:0:0:0:0, 3+1:0:0:0:0, 5+4:1:0:0:1, 0+1:0:0:0:0, 3+2:0:0:0:0, 1+1:0:0:0:0,  , 2+1:0:0:0:0, 1+3:1:0:0:1, 1+2:0:0:0:0, 4+5:0:0:0:0, 2+5:0:0:0:2, 2+0:0:0:0:0, 1+4:0:0:0:2, 4+5:1:0:0:1, 2+5:2:0:0:2, 4+4:0:0:0:2, 2+0:0:0:0:0, 5+7:0:0:0:0, 2+1:1:0:0:1, 3+7:0:0:0:0, 0+2:0:0:0:0, 0+0:0:0:0:0, 3+0:0:0:0:0, 4+2:0:1:0:1, 3+1:0:1:0:1, 1+0:0:0:0:0, 0+3:0:0:0:0, 2+4:0:0:0:0, 2+3:0:0:0:0, 1+1:0:0:0:0, 5+6:0:0:0:1, 3+2:1:0:0:1, 4+2:0:0:0:1, 3+4:1:0:0:1, 0+1:0:0:0:0, 2+0:0:0:0:0, 0+2:0:0:0:0,  , 1+1:0:0:0:0, 0+1:0:0:0:0, 1+1:0:0:0:0, 2+2:0:0:0:0, 2+2:0:0:0:0, 2+0:0:0:0:0, 1+3:0:0:0:1, 1+3:1:0:0:1, 1+3:0:0:0:0, 3+1:0:0:0:1, 2+0:0:0:0:0, 2+2:0:0:0:0, 0+1:0:0:0:0, 2+0:0:0:0:0, 0+2:0:0:0:0, 0+0:0:0:0:0, 2+0:0:0:0:0, 3+1:0:1:0:1, 1+0:0:0:0:0, 1+0:0:0:0:0, 1+1:0:0:0:0, 1+1:0:0:0:0, 0+1:0:0:0:0, 1+1:0:0:0:0, 1+2:0:0:0:0, 1+0:0:0:0:0, 2+0:0:0:0:0, 5+4:1:0:0:1, 0+1:0:0:0:0, 2+0:0:0:0:0, 0+1:0:0:0:0,  , 1+3:0:0:0:0, 0+2:0:0:0:0, 2+4:0:0:0:1, 1+1:0:0:0:0, 1+4:0:0:0:2, 2+0:0:0:0:0, 2+0:0:0:0:0, 1+3:1:0:0:1, 2+4:0:0:0:0, 2+4:0:0:0:2, 2+0:0:0:0:0, 4+6:0:0:0:0, 0+2:0:0:0:0, 2+0:0:0:0:0, 0+1:0:0:0:0, 1+2:0:0:0:0, 3+0:0:0:0:0, 5+1:0:1:0:0, 4+2:0:1:0:1, 1+0:0:0:0:0, 1+1:0:0:0:0, 1+4:0:0:0:0, 1+2:1:0:0:1, 2+3:0:0:0:0, 3+2:0:1:0:1, 1+0:0:0:0:0, 5+4:0:0:0:1, 7+5:1:0:0:1, 2+2:1:0:0:1, 5+2:1:0:0:1, 1+1:0:0:0:0, 3+2:1:0:0:1, 1+2:0:0:0:0, 3+1:1:0:0:1, 1+0:0:0:0:0, 3+2:2:0:0:2, 2+2:0:0:0:0, 3+1:1:0:0:1, 1+0:0:0:0:0, 3+1:1:0:0:1, 1+1:0:0:0:0, 3+1:1:0:0:1, 1+0:0:0:0:0, 4+3:1:0:0:1, 1+0:0:0:0:0, 5+2:1:0:0:1, 1+0:0:0:0:0, 3+1:1:0:0:1, 1+0:0:0:0:0, 3+1:1:0:0:1, 0+0:0:0:0:0, 441+447:41:13:0:87
Bb major (2b), 2+0:0:0:0:0, 5+2:0:0:0:1, 2+0:0:0:0:0, 0+0:0:0:0:0, 3+1:0:0:0:0, 2+0:0:0:0:0, 1+0:0:0:0:0, 1+1:0:0:0:0, 0+0:0:0:0:0, 0+0:0:0:0:0, 0+0:0:0:0:0, 1+2:2:0:0:2, 1+0:0:0:0:0, 2+1:0:0:0:0, 3+1:0:0:0:1, 5+1:0:0:0:0, 3+1:0:0:0:1, 5+2:0:0:0:1, 2+0:0:0:0:0, 0+0:0:0:0:0, 5+0:0:0:0:0, 4+1:0:1:0:1, 5+0:0:0:0:0, 3+0:0:0:0:0, 3+0:0:0:0:0, 3+1:0:0:0:0, 2+0:0:0:0:0, 3+1:0:0:0:0, 3+2:0:0:0:0, 4+1:0:0:0:1, 3+1:0:0:0:1, 6+3:2:0:0:0, 3+0:0:0:0:0, 5+3:0:0:0:2, 5+3:0:0:0:2, 2+0:0:0:0:0, 4+2:0:0:0:0, 3+1:1:0:0:0, 2+1:0:0:0:0, 3+3:0:0:0:0, 0+0:0:0:0:0, 2+2:0:0:0:0, 1+1:0:0:0:1, 1+0:0:0:0:0, 3+4:2:0:0:0, 4+3:0:0:0:1, 3+3:0:0:0:3, 5+2:1:0:0:0, 2+0:0:0:0:0, 9+2:0:0:0:0, 3+0:0:0:0:0,  , 6+2:0:0:0:2, 7+7:1:1:0:3, 6+3:0:0:0:1, 4+3:2:0:0:2, 5+2:0:0:0:2, 5+1:0:0:0:0, 4+1:0:0:0:1, 3+1:0:0:0:0, 4+1:0:0:0:0, 4+2:0:0:0:2, 3+1:0:0:0:1, 5+2:1:0:0:0, 2+0:0:0:0:0, 5+2:0:0:0:1, 2+0:0:0:0:0, 0+0:0:0:0:0, 3+1:0:0:0:0, 1+0:0:0:0:0, 4+2:0:0:0:0, 1+1:0:0:0:0, 0+0:0:0:0:0, 0+0:0:0:0:0, 0+0:0:0:0:0, 1+3:3:0:0:3, 1+0:0:0:0:0, 1+2:0:0:0:0, 3+1:0:0:0:1, 4+1:0:0:0:0, 3+0:0:0:0:0, 5+2:0:0:0:1, 3+1:0:0:0:1,  , 6+7:0:0:0:6, 6+8:0:1:0:6, 3+0:0:0:0:0, 4+2:1:0:0:1, 4+1:0:0:0:1, 4+2:0:0:0:2, 6+2:1:0:0:1, 3+3:0:0:0:0, 4+1:0:0:0:0, 5+2:1:0:0:2, 4+3:0:0:0:2, 5+2:1:0:0:0, 2+0:0:0:0:0, 5+3:0:0:0:3, 3+0:0:0:0:0,  , 3+2:0:0:0:0, 3+2:0:0:0:2, 2+2:0:0:0:0, 3+1:0:0:0:0, 0+0:0:0:0:0, 0+0:0:0:0:0, 0+0:0:0:0:0, 1+3:3:0:0:3, 3+3:0:1:0:1, 1+2:0:0:0:0, 3+2:0:0:0:2, 4+3:1:0:0:0, 3+0:0:0:0:0, 8+3:0:0:0:1, 4+1:0:0:0:1,  , 7+7:0:0:0:5, 5+5:0:1:0:3, 5+2:0:0:0:0, 4+3:0:0:0:3, 2+0:0:0:0:0, 4+3:0:0:0:0, 3+0:0:0:0:0, 3+3:0:0:0:0, 3+1:0:0:0:0, 4+1:0:0:0:1, 4+1:0:0:0:1, 6+3:2:0:0:0, 3+0:0:0:0:0, 6+3:0:0:0:2, 4+1:0:0:0:1,  , 5+1:0:0:0:1, 1+1:1:0:0:0, 1+0:0:0:0:0, 5+2:0:0:0:0, 2+1:0:0:0:1, 0+0:0:0:0:0, 0+0:0:0:0:0, 3+5:3:0:0:4, 3+1:0:0:0:0, 2+5:0:0:0:0, 3+2:0:0:0:2, 8+3:0:0:0:2, 4+2:1:0:0:0, 6+3:0:0:0:2, 3+0:0:0:0:0, 1+0:0:0:0:0, 5+0:0:0:0:0, 5+2:0:1:0:1, 6+1:0:1:0:1, 4+2:0:0:0:2, 3+0:0:0:0:0, 5+3:0:0:0:0, 4+1:1:0:0:0, 3+2:0:0:0:0, 8+3:0:0:0:1, 6+3:1:0:0:2, 5+3:0:0:0:1, 5+2:1:0:0:0, 2+0:0:0:0:0, 5+3:0:0:0:2, 2+0:0:0:0:0,  , 2+2:0:0:0:0, 1+0:0:0:0:0, 1+0:0:0:0:0, 2+4:0:0:0:0, 0+0:0:0:0:0, 0+0:0:0:0:0, 0+0:0:0:0:0, 1+3:3:0:0:3, 1+0:0:0:0:0, 1+2:0:0:0:0, 3+2:0:0:0:2, 4+1:0:0:0:0, 2+0:0:0:0:0, 5+3:0:0:0:2, 2+0:0:0:0:0, 0+0:0:0:0:0, 4+0:0:0:0:0, 4+1:0:1:0:1, 3+0:0:0:0:0, 3+1:0:0:0:1, 3+1:0:0:0:1, 3+2:0:0:0:0, 2+0:0:0:0:0, 2+1:0:0:0:0, 3+1:0:0:0:0, 4+2:0:0:0:2, 3+1:0:0:0:1, 7+3:1:0:0:0, 2+0:0:0:0:0, 5+3:0:0:0:2, 2+0:0:0:0:0,  , 2+3:0:0:0:0, 1+0:0:0:0:0, 2+1:0:0:0:1, 1+2:0:0:0:0, 0+0:0:0:0:0, 0+0:0:0:0:0, 0+0:0:0:0:0, 1+3:3:0:0:3, 1+0:0:0:0:0, 1+2:0:0:0:0, 3+2:0:0:0:2, 7+3:0:0:0:1, 2+0:0:0:0:0, 5+2:0:0:0:1, 2+0:0:0:0:0, 3+2:0:0:0:2, 5+1:0:0:0:0, 6+3:0:1:0:1, 7+2:0:1:0:1, 3+0:0:0:0:0, 4+2:0:0:0:0, 4+3:0:0:0:3, 4+1:1:0:0:0, 4+3:0:0:0:1, 5+3:0:0:0:1, 4+3:0:0:0:3, 8+4:0:0:0:2, 8+6:1:0:0:4, 5+2:1:0:0:0, 6+3:1:0:0:2, 4+1:0:0:0:0, 4+4:1:0:0:3, 4+1:0:0:0:0, 4+4:1:0:0:3, 3+1:0:0:0:0, 4+3:2:0:0:1, 4+2:0:0:0:1, 4+2:1:0:0:1, 4+1:0:0:0:0, 4+2:1:0:0:1, 3+1:0:0:0:0, 4+2:1:0:0:1, 3+1:0:0:0:0, 5+2:1:0:0:1, 3+1:0:0:0:0, 6+3:1:0:0:2, 3+1:0:0:0:0, 4+2:1:0:0:1, 3+1:0:0:0:0, 4+2:1:0:0:1, 1+0:0:0:0:0, 774+364:55:10:0:170
D major (2#), 0+0:0:0:0:0, 1+1:0:0:0:0, 0+0:0:0:0:0, 0+0:0:0:0:0, 0+0:0:0:0:0, 1+0:0:0:0:0, 1+1:0:0:0:0, 2+2:0:0:0:0, 3+5:0:0:0:0, 2+0:0:0:0:0, 3+0:0:0:0:0, 2+1:1:0:0:0, 1+0:0:0:0:0, 3+2:0:0:0:1, 3+0:0:0:0:0, 1+1:0:0:0:0, 1+1:0:0:0:1, 1+1:0:0:0:0, 0+0:0:0:0:0, 0+0:0:0:0:0, 2+0:0:0:0:0, 2+1:0:1:0:0, 1+0:0:0:0:0, 1+0:0:0:0:0, 0+0:0:0:0:0, 1+0:0:0:0:0, 0+0:0:0:0:0, 0+0:0:0:0:0, 2+2:0:0:0:0, 2+1:0:0:0:1, 2+1:0:0:0:0, 3+3:1:0:0:1, 1+0:0:0:0:0, 1+2:0:0:0:2, 1+2:0:0:0:2, 0+0:0:0:0:0, 0+0:0:0:0:0, 2+1:0:0:0:1, 2+1:0:0:0:0, 4+4:0:0:0:0, 2+4:0:0:0:0, 4+1:0:0:0:1, 3+3:0:0:0:2, 3+3:3:0:0:0, 1+2:2:0:0:0, 4+4:0:0:0:2, 2+2:0:0:0:0, 2+4:1:0:0:0, 0+0:0:0:0:0, 5+4:0:0:0:0, 0+0:0:0:0:0,  , 4+3:0:0:0:0, 6+4:1:1:0:1, 3+2:0:0:0:0, 3+2:0:2:0:2, 3+1:0:0:0:1, 1+0:0:0:0:0, 1+1:0:0:0:0, 0+0:0:0:0:0, 0+0:0:0:0:0, 2+2:0:0:0:2, 2+1:0:0:0:0, 2+2:1:0:0:0, 0+0:0:0:0:0, 1+1:0:0:0:0, 0+0:0:0:0:0, 0+0:0:0:0:0, 1+1:0:0:0:0, 1+0:0:0:0:0, 4+2:0:0:0:0, 2+1:0:0:0:0, 2+5:0:0:0:0, 2+0:0:0:0:0, 2+4:0:0:0:0, 3+0:0:0:0:0, 1+0:0:0:0:0, 3+3:0:0:0:2, 2+2:0:0:0:0, 1+1:0:0:0:0, 0+0:0:0:0:0, 1+1:0:0:0:0, 1+1:0:0:0:1,  , 3+0:0:0:0:0, 3+2:0:2:0:0, 0+0:0:0:0:0, 3+2:0:0:0:0, 2+1:0:0:0:1, 1+0:0:0:0:0, 3+2:1:0:0:0, 0+0:0:0:0:0, 0+0:0:0:0:0, 3+2:1:0:0:2, 3+1:0:0:0:0, 2+2:1:0:0:0, 0+0:0:0:0:0, 1+3:0:0:0:3, 0+0:0:0:0:0,  , 0+0:0:0:0:0, 2+2:0:0:0:2, 2+1:0:0:0:0, 3+3:0:0:0:0, 3+7:0:0:0:0, 2+0:0:0:0:0, 4+4:0:0:0:0, 3+0:0:0:0:0, 3+4:2:1:0:1, 3+3:0:0:0:2, 3+0:0:0:0:0, 2+3:0:0:0:1, 0+0:0:0:0:0, 4+3:0:0:0:1, 1+1:0:0:0:0,  , 4+4:0:0:0:1, 2+2:0:2:0:2, 1+0:0:0:0:0, 1+3:0:0:0:3, 0+0:0:0:0:0, 2+1:0:0:0:0, 0+0:0:0:0:0, 0+0:0:0:0:0, 0+0:0:0:0:0, 2+3:0:0:0:0, 3+2:0:0:0:0, 4+3:1:0:0:1, 0+0:0:0:0:0, 2+3:0:0:0:2, 1+1:0:0:0:1,  , 1+1:0:0:0:1, 2+1:1:0:0:0, 1+1:0:0:0:0, 5+2:0:0:0:0, 3+5:0:0:0:2, 2+0:0:0:0:0, 2+5:0:0:0:0, 5+2:0:0:0:0, 3+2:1:0:0:0, 5+4:0:0:0:2, 3+4:0:0:0:0, 4+3:0:0:0:0, 1+1:1:0:0:1, 2+3:0:0:0:2, 0+0:0:0:0:0, 0+0:0:0:0:0, 2+0:0:0:0:0, 3+1:0:1:0:0, 2+1:0:1:0:1, 1+2:0:0:0:0, 0+0:0:0:0:0, 1+0:0:0:0:0, 1+1:1:0:0:0, 0+0:0:0:0:0, 4+4:0:2:0:2, 4+3:1:0:0:2, 3+2:0:0:0:0, 2+2:1:0:0:0, 0+0:0:0:0:0, 1+2:0:0:0:0, 0+0:0:0:0:0,  , 0+0:0:0:0:0, 1+0:0:0:0:0, 1+1:0:0:0:0, 3+5:0:0:0:0, 3+2:0:0:0:0, 2+0:0:0:0:0, 2+0:0:0:0:0, 2+1:1:0:0:0, 1+0:0:0:0:0, 3+3:0:0:0:2, 2+2:0:0:0:0, 1+1:0:0:0:0, 0+0:0:0:0:0, 1+2:0:0:0:0, 0+0:0:0:0:0, 0+0:0:0:0:0, 2+0:0:0:0:0, 2+1:0:1:0:1, 0+0:0:0:0:0, 1+1:0:0:0:0, 1+0:0:0:0:0, 1+0:0:0:0:0, 0+0:0:0:0:0, 0+0:0:0:0:0, 0+0:0:0:0:0, 2+4:0:0:0:0, 2+1:0:0:0:0, 3+4:1:1:0:1, 0+0:0:0:0:0, 1+2:0:0:0:0, 0+0:0:0:0:0,  , 0+0:0:0:0:0, 1+0:0:0:0:0, 2+2:0:0:0:1, 2+4:0:0:0:0, 2+3:0:0:0:0, 2+0:0:0:0:0, 3+0:0:0:0:0, 2+1:1:0:0:0, 2+0:0:0:0:0, 3+3:0:0:0:2, 2+3:0:0:0:0, 3+2:0:0:0:0, 0+0:0:0:0:0, 1+1:0:0:0:0, 0+0:0:0:0:0, 1+2:0:0:0:0, 3+0:0:0:0:0, 4+1:0:1:0:0, 3+2:0:1:0:1, 1+0:0:0:0:0, 0+0:0:0:0:0, 1+0:0:0:0:0, 1+1:1:0:0:1, 1+1:0:0:0:0, 2+2:0:1:0:2, 2+3:0:0:0:3, 4+3:0:0:0:0, 8+6:1:0:0:4, 1+1:1:0:0:1, 6+3:1:0:0:2, 0+0:0:0:0:0, 4+4:1:0:0:3, 0+0:0:0:0:0, 4+4:1:0:0:3, 0+0:0:0:0:0, 4+3:2:0:0:1, 1+1:0:0:0:1, 4+2:1:0:0:1, 0+0:0:0:0:0, 4+2:1:0:0:1, 0+0:0:0:0:0, 4+2:1:0:0:1, 0+0:0:0:0:0, 5+2:1:0:0:1, 0+0:0:0:0:0, 6+3:1:0:0:2, 0+0:0:0:0:0, 4+2:1:0:0:1, 0+0:0:0:0:0, 4+2:1:0:0:1, 0+0:0:0:0:0, 420+321:40:18:0:96
G minor (2b), 2+0:0:0:0:0, 5+1:0:0:0:1, 2+0:0:0:0:0, 0+0:0:0:0:0, 3+1:0:0:0:0, 2+0:0:0:0:0, 1+1:0:0:0:0, 1+2:0:0:0:0, 0+0:0:0:0:0, 0+1:0:0:0:0, 0+0:0:0:0:0, 1+0:0:0:0:0, 1+0:0:0:0:0, 2+2:0:0:0:1, 3+0:0:0:0:0, 5+1:0:0:0:0, 3+1:0:0:0:1, 5+1:0:0:0:1, 2+0:0:0:0:0, 0+0:0:0:0:0, 5+0:0:0:0:0, 4+1:0:1:0:1, 5+0:0:0:0:0, 3+0:0:0:0:0, 3+0:0:0:0:0, 3+1:0:0:0:0, 2+0:0:0:0:0, 3+1:0:0:0:0, 3+2:0:0:0:0, 4+1:0:0:0:1, 3+1:0:0:0:1, 6+3:2:0:0:0, 3+0:0:0:0:0, 5+2:0:0:0:2, 5+2:0:0:0:2, 2+0:0:0:0:0, 4+2:0:0:0:0, 3+1:1:0:0:0, 2+1:0:0:0:0, 3+5:1:0:0:1, 0+0:0:0:0:0, 2+3:0:0:0:0, 1+2:0:0:0:0, 1+0:0:0:0:0, 3+4:2:0:0:0, 4+3:0:0:0:1, 3+3:0:0:0:3, 5+2:1:0:0:0, 2+0:0:0:0:0, 9+2:0:0:0:0, 3+0:0:0:0:0,  , 6+2:0:0:0:2, 7+5:1:1:0:1, 6+3:0:0:0:1, 4+3:2:0:0:2, 5+2:0:0:0:2, 5+1:0:0:0:0, 4+1:0:0:0:0, 3+0:0:0:0:0, 4+0:0:0:0:0, 4+2:0:0:0:2, 3+1:0:0:0:1, 5+2:1:0:0:0, 2+0:0:0:0:0, 5+1:0:0:0:1, 2+0:0:0:0:0, 0+0:0:0:0:0, 3+1:0:0:0:0, 1+0:0:0:0:0, 4+2:0:0:0:0, 1+2:0:0:0:0, 0+0:0:0:0:0, 0+1:0:0:0:0, 0+0:0:0:0:0, 1+0:0:0:0:0, 1+1:0:0:0:0, 1+0:0:0:0:0, 3+1:0:0:0:1, 4+1:0:0:0:0, 3+0:0:0:0:0, 5+1:0:0:0:1, 3+1:0:0:0:1,  , 6+7:0:0:0:6, 6+8:0:1:0:6, 3+0:0:0:0:0, 4+2:1:0:0:1, 4+1:0:0:0:1, 4+2:0:0:0:0, 6+2:1:0:0:0, 3+0:0:0:0:0, 4+0:0:0:0:0, 5+2:1:0:0:2, 4+3:0:0:0:2, 5+2:1:0:0:0, 2+0:0:0:0:0, 5+3:0:0:0:3, 3+0:0:0:0:0,  , 3+2:0:0:0:0, 3+2:0:0:0:2, 2+1:0:0:0:0, 3+4:0:0:0:1, 0+1:0:0:0:0, 0+1:0:0:0:0, 0+1:0:0:0:0, 1+0:0:0:0:0, 3+4:0:1:0:3, 1+0:0:0:0:0, 3+2:0:0:0:2, 4+3:1:0:0:0, 3+0:0:0:0:0, 8+3:0:0:0:1, 4+1:0:0:0:1,  , 7+7:0:0:0:5, 5+5:0:1:0:3, 5+2:0:0:0:0, 4+3:0:0:0:3, 2+0:0:0:0:0, 4+3:0:0:0:0, 3+0:0:0:0:0, 3+3:0:0:0:0, 3+1:0:0:0:0, 4+1:0:0:0:1, 4+1:0:0:0:1, 6+3:2:0:0:0, 3+0:0:0:0:0, 6+3:0:0:0:2, 4+1:0:0:0:1,  , 5+1:0:0:0:1, 1+1:1:0:0:0, 1+1:0:0:0:0, 5+6:0:0:0:2, 2+1:0:0:0:0, 0+1:0:0:0:0, 0+0:0:0:0:0, 3+2:0:0:0:0, 3+2:0:0:0:1, 2+1:1:0:0:0, 3+2:0:0:0:2, 8+3:0:0:0:0, 4+1:1:0:0:1, 6+3:0:0:0:2, 3+0:0:0:0:0, 1+0:0:0:0:0, 5+0:0:0:0:0, 5+2:0:1:0:1, 6+1:0:1:0:1, 4+0:0:0:0:0, 3+0:0:0:0:0, 5+3:0:0:0:0, 4+1:1:0:0:0, 3+2:0:0:0:0, 8+3:0:0:0:1, 6+3:1:0:0:2, 5+2:0:0:0:0, 5+2:1:0:0:0, 2+0:0:0:0:0, 5+2:0:0:0:2, 2+0:0:0:0:0,  , 2+2:0:0:0:0, 1+0:0:0:0:0, 1+1:0:0:0:0, 2+3:0:0:0:0, 0+0:0:0:0:0, 0+1:0:0:0:0, 0+0:0:0:0:0, 1+1:1:0:0:0, 1+1:0:0:0:0, 1+0:0:0:0:0, 3+2:0:0:0:2, 4+1:0:0:0:0, 2+0:0:0:0:0, 5+2:0:0:0:2, 2+0:0:0:0:0, 0+0:0:0:0:0, 4+0:0:0:0:0, 4+1:0:1:0:1, 3+0:0:0:0:0, 3+1:0:0:0:1, 3+1:0:0:0:0, 3+2:0:0:0:0, 2+0:0:0:0:0, 2+1:0:0:0:0, 3+1:0:0:0:0, 4+2:0:0:0:2, 3+1:0:0:0:1, 7+3:1:0:0:0, 2+0:0:0:0:0, 5+2:0:0:0:2, 2+0:0:0:0:0,  , 2+3:0:0:0:0, 1+0:0:0:0:0, 2+2:0:0:0:1, 1+4:0:0:0:0, 0+0:0:0:0:0, 0+1:0:0:0:0, 0+0:0:0:0:0, 1+1:1:0:0:0, 1+2:0:0:0:0, 1+0:0:0:0:0, 3+2:0:0:0:2, 7+3:0:0:0:1, 2+0:0:0:0:0, 5+1:0:0:0:1, 2+0:0:0:0:0, 3+2:0:0:0:2, 5+1:0:0:0:0, 6+3:0:1:0:1, 7+2:0:1:0:1, 3+0:0:0:0:0, 4+0:0:0:0:0, 4+3:0:0:0:0, 4+1:1:0:0:0, 4+1:0:0:0:0, 5+2:0:1:0:2, 4+3:0:0:0:3, 8+3:0:0:0:0, 8+6:1:0:0:4, 5+2:1:0:0:0, 6+3:1:0:0:2, 4+1:0:0:0:0, 4+4:1:0:0:3, 4+1:0:0:0:0, 4+4:1:0:0:3, 3+1:0:0:0:0, 4+3:2:0:0:1, 4+1:0:0:0:1, 4+2:1:0:0:1, 4+1:0:0:0:0, 4+2:1:0:0:1, 3+1:0:0:0:0, 4+2:1:0:0:1, 3+1:0:0:0:0, 5+2:1:0:0:1, 3+1:0:0:0:0, 6+3:1:0:0:2, 3+1:0:0:0:0, 4+2:1:0:0:1, 3+1:0:0:0:0, 4+2:1:0:0:1, 1+0:0:0:0:0, 774+339:42:11:0:141
B minor (2#), 0+0:0:0:0:0, 1+2:0:0:0:0, 0+0:0:0:0:0, 0+0:0:0:0:0, 0+1:0:0:0:0, 1+2:0:0:0:0, 1+2:0:0:0:0, 2+2:0:0:0:0, 3+5:0:0:0:0, 2+0:0:0:0:0, 3+5:0:0:0:0, 2+4:1:0:0:1, 1+2:0:0:0:0, 3+1:0:0:0:1, 3+0:0:0:0:0, 1+4:0:0:0:0, 1+0:0:0:0:0, 1+2:0:0:0:0, 0+0:0:0:0:0, 0+0:0:0:0:0, 2+0:0:0:0:0, 2+0:0:0:0:0, 1+2:0:0:0:0, 1+1:0:0:0:0, 0+6:0:0:0:0, 1+4:0:0:0:0, 0+0:0:0:0:0, 0+1:0:0:0:0, 2+3:0:0:0:0, 2+0:0:0:0:0, 2+3:0:0:0:1, 3+4:1:0:0:1, 1+1:0:0:0:0, 1+5:0:0:0:0, 1+2:0:0:0:0, 0+2:0:0:0:0, 0+2:0:0:0:0, 2+3:0:0:0:0, 2+2:0:0:0:0, 3+2:0:0:0:1, 2+4:0:0:0:2, 4+1:0:0:0:1, 3+3:0:0:0:2, 3+6:3:0:0:3, 2+1:1:0:0:1, 5+2:0:0:0:1, 2+3:0:0:0:2, 2+6:1:0:0:1, 0+0:0:0:0:0, 5+5:0:0:0:1, 0+1:0:0:0:0,  , 4+2:0:0:0:0, 7+4:0:1:0:1, 3+2:0:0:0:0, 3+3:0:0:0:0, 3+1:0:0:0:0, 1+2:0:0:0:0, 1+2:0:0:0:0, 0+2:0:0:0:0, 0+1:0:0:0:0, 2+0:0:0:0:0, 2+3:0:0:0:1, 2+5:1:0:0:1, 0+0:0:0:0:0, 1+2:0:0:0:0, 0+0:0:0:0:0, 0+0:0:0:0:0, 1+4:0:0:0:0, 1+1:0:0:0:0, 4+3:0:0:0:0, 2+1:0:0:0:0, 2+3:0:0:0:2, 2+0:0:0:0:0, 2+3:0:0:0:2, 3+4:2:0:0:2, 1+5:0:0:0:0, 3+4:0:0:0:2, 2+3:0:0:0:2, 1+3:0:0:0:0, 0+1:0:0:0:0, 1+2:0:0:0:0, 1+0:0:0:0:0,  , 3+0:0:0:0:0, 3+0:0:0:0:0, 0+1:0:0:0:0, 3+2:0:0:0:0, 2+1:0:0:0:0, 1+1:0:0:0:0, 3+3:1:0:0:1, 0+1:0:0:0:0, 0+2:0:0:0:0, 3+1:1:0:0:1, 3+3:0:0:0:1, 2+4:1:0:0:1, 0+1:0:0:0:0, 1+6:0:0:0:0, 0+1:0:0:0:0,  , 0+3:0:0:0:0, 2+4:0:0:0:0, 2+3:0:0:0:0, 3+2:0:0:0:0, 3+5:0:0:0:3, 2+0:0:0:0:0, 4+4:0:0:0:0, 4+4:2:0:0:2, 4+4:2:0:0:2, 3+3:0:0:0:2, 3+0:0:0:0:0, 2+5:0:0:0:0, 0+0:0:0:0:0, 4+6:0:0:0:0, 1+2:0:0:0:0,  , 4+0:0:0:0:0, 2+0:0:0:0:0, 1+1:0:0:0:0, 1+5:0:0:0:0, 0+3:0:0:0:0, 3+2:0:0:0:0, 0+1:0:0:0:0, 0+2:0:0:0:0, 0+1:0:0:0:0, 2+4:0:0:0:2, 3+5:0:0:0:1, 4+5:1:0:0:1, 0+1:0:0:0:0, 2+6:0:0:0:0, 1+1:0:0:0:0,  , 1+4:0:0:0:0, 2+3:1:0:0:1, 1+2:0:0:0:0, 5+5:0:0:0:0, 3+5:0:0:0:2, 2+0:0:0:0:0, 2+4:0:0:0:2, 5+5:1:0:0:1, 3+5:2:0:0:2, 5+4:0:0:0:2, 3+0:0:0:0:0, 4+7:0:0:0:0, 1+1:1:0:0:1, 2+7:0:0:0:0, 0+1:0:0:0:0, 0+0:0:0:0:0, 2+0:0:0:0:0, 3+0:0:0:0:0, 2+1:0:0:0:0, 1+3:0:0:0:0, 0+3:0:0:0:0, 1+2:0:0:0:0, 2+3:0:0:0:0, 0+1:0:0:0:0, 4+6:0:2:0:3, 4+2:1:0:0:1, 3+2:0:0:0:1, 2+4:1:0:0:1, 0+0:0:0:0:0, 1+4:0:0:0:0, 0+0:0:0:0:0,  , 0+1:0:0:0:0, 1+1:0:0:0:0, 1+2:0:0:0:0, 3+2:0:0:0:0, 3+2:0:0:0:0, 2+0:0:0:0:0, 2+3:0:0:0:1, 2+3:1:0:0:1, 1+3:0:0:0:0, 4+1:0:0:0:1, 2+3:0:0:0:2, 1+3:0:0:0:0, 0+0:0:0:0:0, 1+3:0:0:0:0, 0+0:0:0:0:0, 0+0:0:0:0:0, 2+0:0:0:0:0, 2+0:0:0:0:0, 0+1:0:0:0:0, 1+1:0:0:0:0, 1+0:0:0:0:0, 1+1:0:0:0:0, 0+0:0:0:0:0, 0+1:0:0:0:0, 0+2:0:0:0:0, 2+5:0:0:0:2, 2+2:0:0:0:1, 3+6:1:1:0:2, 0+0:0:0:0:0, 1+3:0:0:0:0, 0+0:0:0:0:0,  , 0+3:0:0:0:0, 1+2:0:0:0:0, 2+4:0:0:0:0, 2+8:0:0:0:0, 2+4:0:0:0:2, 2+0:0:0:0:0, 3+5:0:0:0:0, 2+3:1:0:0:1, 2+4:0:0:0:0, 3+4:0:0:0:2, 2+5:0:0:0:3, 3+6:0:0:0:0, 0+1:0:0:0:0, 1+2:0:0:0:0, 0+0:0:0:0:0, 1+2:0:0:0:0, 3+0:0:0:0:0, 4+0:0:0:0:0, 3+2:0:1:0:1, 1+1:0:0:0:0, 0+1:0:0:0:0, 1+4:0:0:0:0, 1+2:1:0:0:1, 1+3:0:0:0:0, 2+2:0:1:0:1, 2+0:0:0:0:0, 4+4:0:0:0:1, 8+5:1:0:0:1, 1+2:1:0:0:1, 6+2:1:0:0:1, 0+1:0:0:0:0, 4+2:1:0:0:1, 0+2:0:0:0:0, 4+1:1:0:0:1, 0+0:0:0:0:0, 4+2:2:0:0:2, 1+2:0:0:0:0, 4+1:1:0:0:1, 0+0:0:0:0:0, 4+1:1:0:0:1, 0+1:0:0:0:0, 4+1:1:0:0:1, 0+0:0:0:0:0, 5+3:1:0:0:1, 0+0:0:0:0:0, 6+2:1:0:0:1, 0+0:0:0:0:0, 4+1:1:0:0:1, 0+0:0:0:0:0, 4+1:1:0:0:1, 0+0:0:0:0:0, 427+517:43:6:0:102
Eb major (3b), 2+1:0:0:0:0, 6+1:0:0:0:0, 2+0:0:0:0:0, 0+0:0:0:0:0, 4+1:0:0:0:1, 3+1:0:0:0:0, 1+0:0:0:0:0, 2+0:0:0:0:0, 1+0:0:0:0:0, 0+0:0:0:0:0, 1+0:0:0:0:0, 2+2:2:0:0:2, 1+4:0:0:0:0, 1+1:0:0:0:0, 4+1:0:0:0:1, 6+1:0:0:0:0, 3+1:0:0:0:1, 6+1:0:0:0:0, 2+0:0:0:0:0, 0+0:0:0:0:0, 5+0:0:0:0:0, 4+1:0:1:0:1, 6+0:0:0:0:0, 4+0:0:0:0:0, 4+0:0:0:0:0, 3+0:0:0:0:0, 2+0:0:0:0:0, 4+1:0:0:0:0, 4+2:0:0:0:2, 5+1:0:0:0:1, 3+1:0:0:0:1, 7+5:0:0:0:1, 4+2:0:0:0:0, 6+2:0:0:0:2, 5+2:0:0:0:2, 3+0:0:0:0:0, 5+2:0:0:0:0, 4+2:0:0:0:0, 2+1:0:0:0:0, 4+1:0:0:0:0, 1+0:0:0:0:0, 1+2:0:0:0:0, 2+1:0:0:0:1, 2+3:3:0:0:3, 3+3:3:0:0:3, 3+3:0:0:0:1, 4+3:0:0:0:3, 6+3:0:0:0:1, 2+1:0:0:0:0, 10+4:0:0:0:0, 4+1:0:0:0:0,  , 6+3:0:0:0:0, 8+4:0:1:0:2, 7+2:0:0:0:0, 6+2:0:0:0:0, 6+1:0:0:0:1, 5+0:0:0:0:0, 5+1:0:0:0:0, 4+0:0:0:0:0, 5+0:0:0:0:0, 5+2:0:0:0:2, 3+1:0:0:0:1, 6+3:0:0:0:1, 2+2:0:0:0:0, 6+1:0:0:0:0, 2+0:0:0:0:0, 0+0:0:0:0:0, 4+2:0:0:0:2, 2+1:0:0:0:0, 3+2:0:0:0:0, 2+0:0:0:0:0, 1+0:0:0:0:0, 1+0:0:0:0:0, 1+0:0:0:0:0, 2+3:3:0:0:3, 2+1:0:0:0:0, 0+0:0:0:0:0, 4+1:0:0:0:1, 5+1:0:0:0:0, 4+0:0:0:0:0, 6+1:0:0:0:0, 3+1:0:0:0:1,  , 6+0:0:0:0:0, 6+0:0:0:0:0, 4+1:0:0:0:0, 5+2:1:0:0:1, 5+1:0:0:0:1, 5+0:0:0:0:0, 7+2:1:0:0:0, 4+0:0:0:0:0, 5+1:0:0:0:0, 6+5:0:0:0:1, 5+3:0:0:0:1, 6+3:0:0:0:1, 3+0:0:0:0:0, 6+3:0:0:0:3, 4+1:0:0:0:0,  , 4+2:0:0:0:0, 4+4:0:0:0:0, 3+2:0:0:0:0, 4+1:0:0:0:0, 1+0:0:0:0:0, 1+0:0:0:0:0, 1+0:0:0:0:0, 2+3:3:0:0:3, 4+3:0:1:0:1, 0+0:0:0:0:0, 4+2:0:0:0:2, 5+3:1:0:0:0, 3+0:0:0:0:0, 9+3:0:0:0:1, 4+2:0:0:0:0,  , 7+7:0:0:0:3, 5+2:0:1:0:1, 6+0:0:0:0:0, 5+3:0:0:0:3, 3+0:0:0:0:0, 4+3:0:0:0:1, 4+2:0:0:0:0, 4+3:0:0:0:3, 4+1:0:0:0:1, 5+1:0:0:0:1, 4+1:0:0:0:1, 7+3:2:0:0:0, 4+0:0:0:0:0, 7+3:0:0:0:2, 4+1:0:0:0:1,  , 6+1:0:0:0:1, 2+4:4:0:0:4, 1+0:0:0:0:0, 6+2:0:0:0:0, 3+3:0:0:0:0, 1+0:0:0:0:0, 1+0:0:0:0:0, 4+5:3:0:0:4, 4+1:0:0:0:0, 1+1:1:0:0:0, 4+2:0:0:0:2, 9+3:0:0:0:0, 3+1:1:0:0:1, 7+3:0:0:0:2, 4+0:0:0:0:0, 1+0:0:0:0:0, 5+0:0:0:0:0, 5+0:0:0:0:0, 7+1:0:0:0:0, 5+2:0:0:0:0, 4+0:0:0:0:0, 6+0:0:0:0:0, 5+1:1:0:0:0, 4+2:0:0:0:0, 8+3:0:0:0:3, 7+5:0:0:0:1, 5+3:0:0:0:1, 6+3:0:0:0:1, 2+1:0:0:0:0, 6+2:0:0:0:0, 2+0:0:0:0:0,  , 3+2:0:0:0:0, 2+1:0:0:0:0, 1+0:0:0:0:0, 3+1:0:0:0:0, 1+0:0:0:0:0, 0+0:0:0:0:0, 1+0:0:0:0:0, 2+3:3:0:0:3, 1+1:0:0:0:0, 0+0:0:0:0:0, 4+2:0:0:0:2, 5+1:0:0:0:0, 2+0:0:0:0:0, 6+2:0:0:0:0, 2+0:0:0:0:0, 0+0:0:0:0:0, 4+0:0:0:0:0, 4+1:0:1:0:1, 4+0:0:0:0:0, 4+1:0:0:0:0, 4+0:0:0:0:0, 3+0:0:0:0:0, 2+0:0:0:0:0, 3+1:0:0:0:0, 4+1:0:0:0:0, 5+2:0:0:0:2, 3+1:0:0:0:1, 8+4:0:0:0:1, 2+1:0:0:0:0, 6+2:0:0:0:0, 2+0:0:0:0:0,  , 3+3:0:0:0:0, 2+2:0:0:0:0, 2+1:0:0:0:1, 2+0:0:0:0:0, 1+0:0:0:0:0, 0+0:0:0:0:0, 1+0:0:0:0:0, 2+3:3:0:0:3, 2+1:0:0:0:0, 0+0:0:0:0:0, 4+2:0:0:0:2, 8+4:0:0:0:2, 3+3:0:0:0:0, 6+1:0:0:0:0, 2+1:0:0:0:0, 3+2:0:0:0:0, 5+0:0:0:0:0, 6+0:0:0:0:0, 8+2:0:1:0:1, 4+0:0:0:0:0, 5+0:0:0:0:0, 5+0:0:0:0:0, 5+3:0:0:0:0, 5+3:0:0:0:3, 6+3:0:0:0:1, 5+7:0:0:0:3, 7+4:0:0:0:1, 7+11:4:0:0:4, 6+3:0:0:0:1, 7+5:3:0:0:3, 5+2:0:0:0:1, 5+7:6:0:0:6, 5+2:0:0:0:1, 5+7:6:0:0:6, 3+1:0:0:0:1, 5+5:4:0:0:4, 5+2:0:0:0:1, 5+5:0:0:0:1, 4+1:0:0:0:0, 5+2:1:0:0:1, 4+1:0:0:0:1, 5+5:4:0:0:4, 3+1:0:0:0:1, 6+5:3:0:0:3, 3+1:0:0:0:1, 7+6:4:0:0:4, 3+1:0:0:0:1, 5+4:3:0:0:3, 3+1:0:0:0:1, 5+4:3:0:0:3, 1+0:0:0:0:0, 923+377:76:6:0:172
A major (3#), 1+0:0:0:0:0, 1+1:0:0:0:0, 1+0:0:0:0:0, 1+0:0:0:0:0, 1+0:0:0:0:0, 1+1:0:0:0:0, 2+5:0:0:0:0, 3+2:0:0:0:0, 4+5:0:0:0:0, 3+0:0:0:0:0, 4+5:0:0:0:0, 2+3:0:0:0:1, 2+2:0:0:0:0, 3+1:0:0:0:1, 2+0:0:0:0:0, 2+2:0:0:0:0, 2+1:0:0:0:1, 1+1:0:0:0:0, 1+5:0:0:0:0, 1+1:0:0:0:0, 1+0:0:0:0:0, 1+1:0:1:0:1, 1+0:0:0:0:0, 1+0:0:0:0:0, 0+0:0:0:0:0, 0+0:0:0:0:0, 1+0:0:0:0:0, 1+0:0:0:0:0, 3+2:0:0:0:0, 2+2:0:0:0:0, 1+1:0:0:0:0, 4+3:1:0:0:1, 2+1:0:0:0:0, 2+2:0:0:0:2, 2+2:0:0:0:2, 1+0:0:0:0:0, 1+0:0:0:0:0, 3+3:0:0:0:1, 3+4:0:0:0:0, 4+2:0:0:0:1, 3+4:0:0:0:2, 5+1:0:0:0:1, 4+3:0:0:0:2, 4+6:3:0:0:3, 2+6:2:0:0:2, 4+2:0:0:0:1, 1+2:0:0:0:0, 3+4:1:0:0:0, 1+0:0:0:0:0, 4+4:0:0:0:0, 1+0:0:0:0:0,  , 3+2:0:0:0:0, 5+4:1:1:0:1, 4+2:0:0:0:0, 3+2:0:2:0:2, 2+1:0:0:0:1, 0+0:0:0:0:0, 2+1:0:0:0:0, 1+0:0:0:0:0, 1+0:0:0:0:0, 3+4:0:0:0:2, 1+1:0:0:0:0, 3+2:1:0:0:0, 1+0:0:0:0:0, 1+1:0:0:0:0, 1+0:0:0:0:0, 1+0:0:0:0:0, 2+1:0:0:0:0, 2+1:0:0:0:0, 5+3:0:0:0:0, 3+1:0:0:0:0, 3+3:0:0:0:2, 3+0:0:0:0:0, 3+3:0:0:0:2, 3+4:2:0:0:2, 2+5:0:0:0:0, 4+3:0:0:0:1, 1+2:0:0:0:0, 2+1:0:0:0:0, 1+0:0:0:0:0, 1+1:0:0:0:0, 2+1:0:0:0:1,  , 2+0:0:0:0:0, 2+0:0:0:0:0, 0+1:0:0:0:0, 3+2:0:0:0:0, 2+1:0:0:0:1, 0+0:0:0:0:0, 4+2:1:0:0:0, 1+0:0:0:0:0, 1+0:0:0:0:0, 5+3:0:0:0:1, 2+1:0:0:0:0, 3+2:1:0:0:0, 1+0:0:0:0:0, 2+3:0:0:0:3, 1+0:0:0:0:0,  , 1+0:0:0:0:0, 2+4:0:0:0:2, 3+5:0:0:0:0, 4+2:0:0:0:0, 4+5:0:0:0:3, 3+0:0:0:0:0, 5+4:0:0:0:0, 4+9:3:0:0:0, 4+4:2:1:0:1, 4+2:0:0:0:1, 2+0:0:0:0:0, 3+5:0:0:0:1, 1+0:0:0:0:0, 5+3:0:0:0:1, 2+1:0:0:0:0,  , 3+0:0:0:0:0, 1+0:0:0:0:0, 0+0:0:0:0:0, 2+1:0:0:0:0, 0+0:0:0:0:0, 1+1:0:0:0:0, 1+0:0:0:0:0, 1+0:0:0:0:0, 1+0:0:0:0:0, 2+2:0:0:0:0, 2+2:0:0:0:0, 5+3:1:0:0:1, 1+0:0:0:0:0, 3+3:0:0:0:2, 2+1:0:0:0:1,  , 2+1:0:0:0:0, 2+3:1:0:0:1, 2+2:0:0:0:0, 6+5:0:0:0:0, 4+5:0:0:0:2, 3+0:0:0:0:0, 3+4:0:0:0:2, 5+7:3:0:0:0, 4+2:1:0:0:0, 6+3:0:0:0:1, 2+0:0:0:0:0, 5+4:0:0:0:0, 2+1:1:0:0:1, 3+3:0:0:0:2, 1+0:0:0:0:0, 1+0:0:0:0:0, 1+0:0:0:0:0, 2+2:0:1:0:1, 1+1:0:1:0:1, 1+0:0:0:0:0, 0+0:0:0:0:0, 0+0:0:0:0:0, 2+1:1:0:0:0, 1+0:0:0:0:0, 5+4:0:2:0:2, 4+3:1:0:0:2, 2+1:0:0:0:0, 3+2:1:0:0:0, 1+0:0:0:0:0, 1+2:0:0:0:0, 1+0:0:0:0:0,  , 1+0:0:0:0:0, 1+2:0:0:0:0, 2+1:0:0:0:0, 4+2:0:0:0:0, 4+2:0:0:0:0, 3+0:0:0:0:0, 3+3:0:0:0:1, 3+3:1:0:0:1, 2+3:0:0:0:0, 3+1:0:0:0:1, 1+2:0:0:0:0, 2+1:0:0:0:0, 1+0:0:0:0:0, 1+2:0:0:0:0, 1+2:0:0:0:0, 1+1:0:0:0:0, 1+0:0:0:0:0, 1+1:0:1:0:1, 0+0:0:0:0:0, 1+0:0:0:0:0, 0+0:0:0:0:0, 0+0:0:0:0:0, 1+0:0:0:0:0, 1+0:0:0:0:0, 1+0:0:0:0:0, 2+2:0:0:0:0, 1+1:0:0:0:0, 4+4:1:1:0:1, 1+0:0:0:0:0, 1+2:0:0:0:0, 1+0:0:0:0:0,  , 1+0:0:0:0:0, 1+2:0:0:0:0, 3+4:0:0:0:1, 3+1:0:0:0:0, 3+4:0:0:0:2, 3+0:0:0:0:0, 4+5:0:0:0:0, 2+4:0:0:0:1, 3+4:0:0:0:0, 4+3:0:0:0:1, 1+3:0:0:0:0, 4+2:0:0:0:0, 1+0:0:0:0:0, 1+1:0:0:0:0, 1+1:0:0:0:0, 2+2:0:0:0:0, 2+0:0:0:0:0, 3+0:0:0:0:0, 3+2:0:1:0:1, 1+0:0:0:0:0, 0+0:0:0:0:0, 0+0:0:0:0:0, 2+1:1:0:0:1, 2+1:0:0:0:0, 3+2:0:1:0:2, 3+3:0:0:0:3, 5+3:0:0:0:0, 9+6:1:0:0:4, 2+1:1:0:0:1, 7+3:1:0:0:2, 1+0:0:0:0:0, 5+4:1:0:0:3, 1+0:0:0:0:0, 5+4:1:0:0:3, 1+0:0:0:0:0, 5+3:2:0:0:1, 2+1:0:0:0:1, 5+2:1:0:0:1, 1+0:0:0:0:0, 5+2:1:0:0:1, 1+0:0:0:0:0, 5+2:1:0:0:1, 1+0:0:0:0:0, 6+2:1:0:0:1, 1+0:0:0:0:0, 7+3:1:0:0:2, 1+0:0:0:0:0, 5+2:1:0:0:1, 1+0:0:0:0:0, 5+2:1:0:0:1, 0+0:0:0:0:0, 542+387:45:13:0:109
C minor (3b), 2+0:0:0:0:0, 6+2:0:0:0:1, 2+0:0:0:0:0, 0+0:0:0:0:0, 4+1:0:0:0:0, 3+0:0:0:0:0, 1+0:0:0:0:0, 2+0:0:0:0:0, 1+2:0:0:0:0, 0+1:0:0:0:0, 1+0:0:0:0:0, 2+1:1:0:0:0, 1+1:0:0:0:0, 1+1:0:0:0:0, 4+1:0:0:0:1, 6+1:0:0:0:0, 3+1:0:0:0:1, 6+2:0:0:0:1, 2+0:0:0:0:0, 0+1:0:0:0:0, 5+0:0:0:0:0, 4+1:0:1:0:1, 6+1:0:0:0:0, 4+1:0:0:0:0, 4+0:0:0:0:0, 3+1:0:0:0:1, 2+0:0:0:0:0, 4+1:0:0:0:0, 4+2:0:0:0:0, 5+1:0:0:0:1, 3+1:0:0:0:1, 7+3:2:0:0:0, 4+0:0:0:0:0, 6+3:0:0:0:2, 5+3:0:0:0:2, 3+0:0:0:0:0, 5+2:0:0:0:0, 4+1:1:0:0:0, 2+1:0:0:0:0, 4+1:0:0:0:0, 1+1:0:0:0:0, 1+3:0:0:0:0, 2+2:0:0:0:0, 2+0:0:0:0:0, 3+4:2:0:0:0, 3+3:0:0:0:1, 4+3:0:0:0:3, 6+2:1:0:0:0, 2+0:0:0:0:0, 10+4:0:0:0:0, 4+0:0:0:0:0,  , 6+2:0:0:0:0, 8+4:0:1:0:2, 7+3:0:0:0:1, 5+3:2:0:0:2, 6+1:0:0:0:1, 5+0:0:0:0:0, 5+1:0:0:0:1, 4+1:0:0:0:0, 5+1:0:0:0:0, 5+2:0:0:0:2, 3+1:0:0:0:1, 6+2:1:0:0:0, 2+0:0:0:0:0, 6+2:0:0:0:1, 2+0:0:0:0:0, 0+0:0:0:0:0, 4+2:0:0:0:2, 2+1:0:0:0:0, 3+2:0:0:0:0, 2+0:0:0:0:0, 1+1:0:0:0:0, 1+1:0:0:0:0, 1+0:0:0:0:0, 2+0:0:0:0:0, 2+1:0:0:0:0, 0+0:0:0:0:0, 4+1:0:0:0:1, 5+1:0:0:0:0, 4+0:0:0:0:0, 6+2:0:0:0:1, 3+1:0:0:0:1,  , 6+8:0:0:0:5, 6+8:0:1:0:6, 4+0:0:0:0:0, 5+2:1:0:0:1, 5+1:0:0:0:1, 5+2:0:0:0:2, 7+2:1:0:0:1, 4+3:0:0:0:0, 5+1:0:0:0:0, 6+2:1:0:0:2, 5+3:0:0:0:1, 6+2:1:0:0:0, 3+0:0:0:0:0, 6+3:0:0:0:3, 4+0:0:0:0:0,  , 4+2:0:0:0:0, 4+2:0:0:0:2, 3+2:0:0:0:0, 4+1:0:0:0:0, 1+1:0:0:0:0, 1+1:0:0:0:0, 1+1:0:0:0:0, 2+0:0:0:0:0, 4+2:0:1:0:1, 0+0:0:0:0:0, 4+2:0:0:0:2, 5+3:1:0:0:0, 3+0:0:0:0:0, 9+3:0:0:0:1, 4+1:1:0:0:0,  , 7+7:0:0:0:5, 5+2:0:1:0:1, 6+0:0:0:0:0, 5+3:0:0:0:3, 3+0:0:0:0:0, 4+3:0:0:0:1, 4+0:0:0:0:0, 4+3:0:0:0:0, 4+1:0:0:0:0, 5+1:0:0:0:1, 4+1:0:0:0:1, 7+3:2:0:0:0, 4+0:0:0:0:0, 7+3:0:0:0:2, 4+1:0:0:0:1,  , 6+1:0:0:0:1, 2+1:1:0:0:0, 1+0:0:0:0:0, 6+2:0:0:0:0, 3+3:0:0:0:0, 1+1:0:0:0:0, 1+0:0:0:0:0, 4+2:0:0:0:0, 4+3:0:0:0:0, 1+1:1:0:0:0, 4+2:0:0:0:2, 9+3:0:0:0:2, 3+2:1:0:0:0, 7+3:0:0:0:2, 4+0:0:0:0:0, 1+0:0:0:0:0, 5+0:0:0:0:0, 5+2:0:1:0:2, 7+1:0:1:0:1, 5+2:0:0:0:0, 4+0:0:0:0:0, 6+3:0:0:0:0, 5+1:1:0:0:0, 4+2:0:0:0:0, 9+3:0:0:0:1, 7+3:1:0:0:2, 5+3:0:0:0:1, 6+2:1:0:0:0, 2+0:0:0:0:0, 6+3:0:0:0:2, 2+0:0:0:0:0,  , 3+2:0:0:0:0, 2+0:0:0:0:0, 1+0:0:0:0:0, 3+1:0:0:0:0, 1+2:0:0:0:0, 0+2:0:0:0:0, 1+0:0:0:0:0, 2+0:0:0:0:0, 1+1:0:0:0:0, 0+0:0:0:0:0, 4+2:0:0:0:2, 5+1:0:0:0:0, 2+0:0:0:0:0, 6+3:0:0:0:2, 2+0:0:0:0:0, 0+1:0:0:0:0, 4+0:0:0:0:0, 4+1:0:1:0:1, 4+0:0:0:0:0, 4+1:0:0:0:0, 4+0:0:0:0:0, 3+0:0:0:0:0, 2+0:0:0:0:0, 3+1:0:0:0:0, 4+1:0:0:0:0, 5+2:0:0:0:2, 3+1:0:0:0:1, 8+3:1:0:0:0, 2+0:0:0:0:0, 6+3:0:0:0:2, 2+0:0:0:0:0,  , 3+3:0:0:0:0, 2+0:0:0:0:0, 2+1:0:0:0:1, 2+0:0:0:0:0, 1+1:0:0:0:0, 0+2:0:0:0:0, 1+0:0:0:0:0, 2+0:0:0:0:0, 2+2:0:0:0:0, 0+0:0:0:0:0, 4+2:0:0:0:2, 8+3:0:0:0:1, 3+0:0:0:0:0, 6+2:0:0:0:1, 2+0:0:0:0:0, 3+2:0:0:0:1, 5+5:0:0:0:2, 6+8:0:1:0:6, 8+2:0:1:0:1, 4+1:0:0:0:0, 5+0:0:0:0:0, 5+0:0:0:0:0, 5+1:1:0:0:0, 5+3:0:0:0:1, 6+3:0:0:0:1, 5+3:0:0:0:3, 7+4:1:0:0:1, 7+6:3:0:0:2, 6+2:1:0:0:0, 7+3:1:0:0:2, 5+1:0:0:0:0, 5+4:1:0:0:3, 5+1:0:0:0:0, 5+4:1:0:0:3, 3+1:0:0:0:0, 5+3:2:0:0:1, 5+2:0:0:0:1, 5+2:1:0:0:1, 4+1:0:0:0:0, 5+2:1:0:0:1, 4+1:0:0:0:0, 5+2:1:0:0:1, 3+1:0:0:0:0, 6+2:1:0:0:1, 3+1:0:0:0:0, 7+3:1:0:0:2, 3+1:0:0:0:0, 5+2:1:0:0:1, 3+1:0:0:0:0, 5+2:1:0:0:1, 1+0:0:0:0:0, 923+355:43:10:0:142
F# minor (3#), 1+0:0:0:0:0, 1+2:0:0:0:0, 1+0:0:0:0:0, 1+0:0:0:0:0, 1+1:0:0:0:0, 1+2:0:0:0:0, 2+5:0:0:0:0, 3+2:0:0:0:0, 4+5:0:0:0:0, 3+0:0:0:0:0, 4+5:0:0:0:0, 2+4:1:0:0:1, 2+2:0:0:0:0, 3+1:0:0:0:1, 2+0:0:0:0:0, 2+4:0:0:0:0, 2+0:0:0:0:0, 1+2:0:0:0:0, 1+0:0:0:0:0, 1+0:0:0:0:0, 1+0:0:0:0:0, 1+0:0:0:0:0, 1+2:0:0:0:0, 1+2:0:0:0:0, 0+6:0:0:0:0, 0+4:0:0:0:0, 1+0:0:0:0:0, 1+1:0:0:0:0, 3+3:0:0:0:0, 2+3:0:0:0:2, 1+3:0:0:0:1, 4+4:1:0:0:1, 2+3:0:0:0:0, 2+5:0:0:0:0, 2+2:0:0:0:0, 1+2:0:0:0:0, 1+2:0:0:0:0, 3+3:0:0:0:0, 3+4:0:0:0:0, 4+2:0:0:0:1, 3+4:0:0:0:2, 5+1:0:0:0:1, 4+3:0:0:0:2, 4+6:3:0:0:3, 3+1:1:0:0:1, 4+2:0:0:0:1, 1+3:0:0:0:2, 3+6:1:0:0:1, 1+0:0:0:0:0, 4+5:0:0:0:1, 1+1:0:0:0:0,  , 3+2:0:0:0:0, 5+3:1:1:0:1, 4+2:0:0:0:2, 3+3:0:0:0:0, 2+1:0:0:0:0, 0+2:0:0:0:0, 2+2:0:0:0:0, 1+2:0:0:0:0, 1+1:0:0:0:0, 3+8:0:0:0:0, 1+3:0:0:0:1, 3+5:1:0:0:1, 1+0:0:0:0:0, 1+2:0:0:0:0, 1+0:0:0:0:0, 1+0:0:0:0:0, 2+4:0:0:0:0, 2+1:0:0:0:0, 5+3:0:0:0:0, 3+1:0:0:0:0, 3+3:0:0:0:2, 3+3:0:0:0:0, 3+3:0:0:0:2, 3+4:2:0:0:2, 2+5:0:0:0:0, 4+3:0:0:0:1, 1+3:0:0:0:2, 2+3:0:0:0:0, 1+1:0:0:0:0, 1+2:0:0:0:0, 2+0:0:0:0:0,  , 2+0:0:0:0:0, 2+0:0:0:0:0, 0+1:0:0:0:0, 3+2:0:0:0:0, 2+1:0:0:0:0, 0+1:0:0:0:0, 4+3:1:0:0:1, 1+1:0:0:0:0, 1+2:0:0:0:0, 5+6:0:0:0:0, 2+3:0:0:0:1, 3+4:1:0:0:1, 1+1:0:0:0:0, 2+6:0:0:0:0, 1+1:0:0:0:0,  , 1+3:0:0:0:0, 2+4:0:0:0:0, 3+5:0:0:0:0, 4+2:0:0:0:0, 4+5:0:0:0:3, 3+6:0:0:0:0, 5+6:0:0:0:2, 5+4:2:0:0:2, 5+4:2:0:0:2, 4+2:0:0:0:1, 2+0:0:0:0:0, 3+5:0:0:0:0, 1+0:0:0:0:0, 5+6:0:0:0:0, 2+2:0:0:0:0,  , 3+0:0:0:0:0, 1+0:0:0:0:0, 0+1:0:0:0:0, 2+2:0:0:0:1, 0+0:0:0:0:0, 2+2:0:0:0:0, 1+1:0:0:0:0, 1+2:0:0:0:0, 1+1:0:0:0:0, 2+4:0:0:0:2, 2+5:0:0:0:1, 5+5:1:0:0:1, 1+1:0:0:0:0, 3+6:0:0:0:0, 2+1:0:0:0:0,  , 2+4:0:0:0:0, 2+3:1:0:0:1, 2+2:0:0:0:0, 6+5:0:0:0:0, 4+5:0:0:0:2, 3+6:0:0:0:0, 3+4:0:0:0:2, 5+5:1:0:0:1, 4+5:2:0:0:2, 6+3:0:0:0:1, 2+0:0:0:0:0, 5+7:0:0:0:0, 2+1:1:0:0:1, 3+7:0:0:0:0, 1+1:0:0:0:0, 1+0:0:0:0:0, 1+0:0:0:0:0, 2+0:0:0:0:0, 1+1:0:0:0:0, 1+1:0:0:0:0, 0+3:0:0:0:0, 0+2:0:0:0:0, 3+3:0:0:0:0, 1+1:0:0:0:0, 5+6:0:2:0:3, 4+2:1:0:0:1, 2+2:0:0:0:1, 3+4:1:0:0:1, 1+0:0:0:0:0, 1+4:0:0:0:0, 1+0:0:0:0:0,  , 1+1:0:0:0:0, 1+1:0:0:0:0, 2+1:0:0:0:0, 4+2:0:0:0:0, 4+2:0:0:0:0, 3+0:0:0:0:0, 3+3:0:0:0:1, 3+3:1:0:0:1, 2+3:0:0:0:0, 3+1:0:0:0:1, 1+3:0:0:0:2, 2+3:0:0:0:0, 1+0:0:0:0:0, 1+3:0:0:0:0, 1+0:0:0:0:0, 1+0:0:0:0:0, 1+0:0:0:0:0, 1+0:0:0:0:0, 0+1:0:0:0:0, 1+1:0:0:0:0, 0+0:0:0:0:0, 0+1:0:0:0:0, 1+0:0:0:0:0, 1+1:0:0:0:0, 1+2:0:0:0:0, 2+3:0:0:0:2, 1+2:0:0:0:1, 4+6:1:1:0:2, 1+0:0:0:0:0, 1+3:0:0:0:0, 1+0:0:0:0:0,  , 1+3:0:0:0:0, 1+2:0:0:0:0, 3+4:0:0:0:1, 3+1:0:0:0:0, 3+4:0:0:0:2, 3+0:0:0:0:0, 4+5:0:0:0:0, 2+3:1:0:0:1, 3+4:0:0:0:0, 4+3:0:0:0:1, 1+5:0:0:0:3, 4+6:0:0:0:0, 1+1:0:0:0:0, 1+2:0:0:0:0, 1+0:0:0:0:0, 2+2:0:0:0:0, 2+0:0:0:0:0, 3+0:0:0:0:0, 3+2:0:0:0:0, 1+1:0:0:0:0, 0+2:0:0:0:0, 0+2:0:0:0:0, 2+2:1:0:0:1, 2+3:0:0:0:0, 3+2:0:1:0:1, 3+0:0:0:0:0, 5+4:0:0:0:1, 9+5:1:0:0:1, 2+2:1:0:0:1, 7+2:1:0:0:1, 1+1:0:0:0:0, 5+2:1:0:0:1, 1+2:0:0:0:0, 5+1:1:0:0:1, 1+0:0:0:0:0, 5+2:2:0:0:2, 2+2:0:0:0:0, 5+1:1:0:0:1, 1+0:0:0:0:0, 5+1:1:0:0:1, 1+1:0:0:0:0, 5+1:1:0:0:1, 1+0:0:0:0:0, 6+3:1:0:0:1, 1+0:0:0:0:0, 7+2:1:0:0:1, 1+0:0:0:0:0, 5+1:1:0:0:1, 1+0:0:0:0:0, 5+1:1:0:0:1, 0+0:0:0:0:0, 547+536:43:5:0:104
Ab major (4b), 3+0:0:0:0:0, 6+1:0:0:0:0, 3+0:0:0:0:0, 0+0:0:0:0:0, 5+0:0:0:0:0, 4+0:0:0:0:0, 2+0:0:0:0:0, 3+1:0:0:0:0, 1+0:0:0:0:0, 1+0:0:0:0:0, 1+1:0:0:0:0, 3+2:2:0:0:2, 2+0:0:0:0:0, 2+1:0:0:0:0, 5+1:0:0:0:1, 7+1:0:0:0:0, 4+1:0:0:0:1, 6+1:0:0:0:0, 3+0:0:0:0:0, 0+0:0:0:0:0, 5+0:0:0:0:0, 4+0:0:0:0:0, 6+2:0:0:0:0, 4+1:0:0:0:0, 5+0:0:0:0:0, 4+1:0:0:0:0, 3+0:0:0:0:0, 4+0:0:0:0:0, 5+2:0:0:0:0, 5+1:0:0:0:1, 4+1:0:0:0:1, 8+3:2:0:0:0, 5+0:0:0:0:0, 7+2:0:0:0:2, 6+2:0:0:0:2, 3+0:0:0:0:0, 6+0:0:0:0:0, 5+1:1:0:0:0, 3+1:0:0:0:0, 5+3:0:0:0:0, 2+0:0:0:0:0, 2+2:0:0:0:0, 3+1:0:0:0:1, 3+3:3:0:0:3, 4+3:3:0:0:3, 4+4:1:0:0:1, 5+3:0:0:0:3, 7+4:1:0:0:0, 3+0:0:0:0:0, 10+4:0:0:0:0, 5+0:0:0:0:0,  , 6+2:0:0:0:0, 8+3:1:1:0:1, 7+2:0:0:0:0, 6+2:0:0:0:0, 7+1:0:0:0:1, 6+0:0:0:0:0, 6+1:0:0:0:0, 5+0:0:0:0:0, 6+0:0:0:0:0, 5+2:0:0:0:2, 4+1:0:0:0:1, 7+2:1:0:0:0, 3+0:0:0:0:0, 6+1:0:0:0:0, 3+0:0:0:0:0, 0+0:0:0:0:0, 4+1:0:0:0:0, 3+0:0:0:0:0, 4+2:0:0:0:0, 3+1:0:0:0:0, 2+0:0:0:0:0, 2+0:0:0:0:0, 2+0:0:0:0:0, 3+3:3:0:0:3, 3+1:0:0:0:0, 1+0:0:0:0:0, 5+1:0:0:0:1, 6+1:0:0:0:0, 5+0:0:0:0:0, 6+1:0:0:0:0, 4+1:0:0:0:1,  , 6+0:0:0:0:0, 6+0:0:0:0:0, 4+1:0:0:0:0, 5+2:1:0:0:1, 6+1:0:0:0:1, 6+2:0:0:0:0, 8+2:1:0:0:0, 5+0:0:0:0:0, 6+0:0:0:0:0, 5+2:1:0:0:2, 6+3:0:0:0:1, 7+2:1:0:0:0, 4+0:0:0:0:0, 6+3:0:0:0:3, 5+0:0:0:0:0,  , 5+0:0:0:0:0, 5+2:0:0:0:2, 4+2:0:0:0:0, 5+1:0:0:0:0, 2+0:0:0:0:0, 2+0:0:0:0:0, 2+0:0:0:0:0, 3+3:3:0:0:3, 5+3:0:1:0:1, 1+2:0:0:0:0, 5+2:0:0:0:2, 6+3:1:0:0:0, 4+0:0:0:0:0, 7+4:1:0:0:2, 5+1:1:0:0:1,  , 7+1:0:0:0:1, 5+0:0:0:0:0, 6+0:0:0:0:0, 5+3:0:0:0:3, 4+0:0:0:0:0, 5+3:0:0:0:0, 5+0:0:0:0:0, 5+0:0:0:0:0, 5+0:0:0:0:0, 5+1:0:0:0:1, 5+1:0:0:0:1, 8+3:2:0:0:0, 5+0:0:0:0:0, 7+3:0:0:0:2, 5+1:0:0:0:1,  , 6+1:0:0:0:1, 3+4:4:0:0:4, 2+1:0:0:0:0, 7+2:0:0:0:0, 4+1:0:0:0:1, 2+0:0:0:0:0, 2+0:0:0:0:0, 5+5:3:0:0:4, 5+1:0:0:0:0, 2+1:1:0:0:1, 5+2:0:0:0:2, 10+3:0:0:0:0, 4+1:1:0:0:1, 7+3:0:0:0:2, 5+0:0:0:0:0, 1+0:0:0:0:0, 5+0:0:0:0:0, 5+0:0:0:0:0, 7+1:0:0:0:0, 5+2:0:0:0:0, 5+0:0:0:0:0, 7+3:0:0:0:0, 6+1:1:0:0:0, 5+0:0:0:0:0, 10+4:0:0:0:0, 6+3:1:0:0:2, 6+2:0:0:0:0, 7+2:1:0:0:0, 3+0:0:0:0:0, 6+2:0:0:0:0, 3+0:0:0:0:0,  , 3+0:0:0:0:0, 3+0:0:0:0:0, 2+0:0:0:0:0, 4+4:0:0:0:0, 1+0:0:0:0:0, 1+0:0:0:0:0, 1+1:0:0:0:0, 3+3:3:0:0:3, 2+1:0:0:0:0, 1+0:0:0:0:0, 5+2:0:0:0:2, 6+1:0:0:0:0, 3+0:0:0:0:0, 6+2:0:0:0:0, 3+2:0:0:0:0, 0+1:0:0:0:0, 4+0:0:0:0:0, 4+1:0:1:0:1, 4+0:0:0:0:0, 4+1:0:0:0:0, 5+0:0:0:0:0, 4+0:0:0:0:0, 3+0:0:0:0:0, 3+0:0:0:0:0, 5+0:0:0:0:0, 5+2:0:0:0:2, 4+1:0:0:0:1, 8+4:1:1:0:1, 3+0:0:0:0:0, 6+2:0:0:0:0, 3+0:0:0:0:0,  , 3+0:0:0:0:0, 3+0:0:0:0:0, 3+1:0:0:0:1, 3+2:0:0:0:0, 1+0:0:0:0:0, 1+0:0:0:0:0, 1+1:0:0:0:0, 3+3:3:0:0:3, 3+1:0:0:0:0, 1+0:0:0:0:0, 5+2:0:0:0:2, 9+2:0:0:0:0, 4+0:0:0:0:0, 6+1:0:0:0:0, 3+0:0:0:0:0, 3+2:0:0:0:0, 5+0:0:0:0:0, 6+0:0:0:0:0, 8+2:0:1:0:1, 4+1:0:0:0:0, 6+0:0:0:0:0, 6+3:0:0:0:0, 6+1:1:0:0:0, 6+1:0:0:0:0, 7+2:0:1:0:2, 5+3:0:0:0:3, 8+3:1:0:0:1, 7+6:3:0:0:2, 7+1:1:0:0:1, 7+3:1:0:0:2, 6+0:0:0:0:0, 6+4:1:0:0:3, 6+0:0:0:0:0, 5+4:1:0:0:3, 4+0:0:0:0:0, 5+3:2:0:0:1, 6+1:0:0:0:1, 5+2:1:0:0:1, 5+0:0:0:0:0, 5+2:1:0:0:1, 5+0:0:0:0:0, 5+2:1:0:0:1, 4+0:0:0:0:0, 7+2:1:0:0:1, 4+0:0:0:0:0, 7+3:1:0:0:2, 4+0:0:0:0:0, 5+2:1:0:0:1, 4+0:0:0:0:0, 5+4:3:0:0:3, 1+0:0:0:0:0, 1081+283:69:6:0:123
E major (4#), 2+1:0:0:0:0, 0+0:0:0:0:0, 2+1:0:0:0:0, 1+0:0:0:0:0, 2+2:0:0:0:0, 2+2:0:0:0:0, 3+2:0:0:0:0, 4+4:0:0:0:0, 4+0:0:0:0:0, 4+1:0:0:0:0, 4+0:0:0:0:0, 3+4:1:0:0:1, 3+2:0:0:0:0, 4+1:0:0:0:1, 3+0:0:0:0:0, 3+2:0:0:0:0, 3+2:0:0:0:0, 0+0:0:0:0:0, 2+1:0:0:0:0, 1+0:0:0:0:0, 0+0:0:0:0:0, 1+1:0:1:0:0, 0+0:0:0:0:0, 0+0:0:0:0:0, 1+0:0:0:0:0, 1+0:0:0:0:0, 2+1:0:0:0:0, 1+1:0:0:0:0, 4+3:0:0:0:0, 1+2:0:0:0:0, 2+1:0:0:0:0, 5+4:1:0:0:1, 3+1:0:0:0:0, 3+5:0:0:0:0, 3+2:0:0:0:0, 1+0:0:0:0:0, 2+3:0:0:0:0, 4+3:0:0:0:0, 4+2:0:0:0:0, 5+2:0:0:0:1, 4+4:0:0:0:2, 6+1:0:0:0:1, 5+3:0:0:0:2, 5+6:3:0:0:3, 3+6:2:0:0:2, 5+2:0:0:0:1, 2+2:0:0:0:0, 5+4:0:0:0:0, 2+3:0:0:0:0, 3+2:0:0:0:0, 2+2:0:0:0:0,  , 2+2:0:0:0:0, 6+4:0:1:0:1, 3+2:0:0:0:0, 2+2:0:2:0:2, 3+1:0:0:0:1, 1+0:0:0:0:0, 3+1:0:0:0:0, 2+0:0:0:0:0, 2+2:0:0:0:0, 2+3:0:0:0:0, 2+1:0:0:0:0, 4+3:1:0:0:1, 2+2:0:0:0:0, 0+0:0:0:0:0, 2+1:0:0:0:0, 1+0:0:0:0:0, 2+5:0:0:0:0, 3+1:0:0:0:0, 6+3:0:0:0:0, 4+1:0:0:0:0, 4+3:0:0:0:1, 4+3:0:0:0:0, 4+3:0:0:0:2, 4+4:2:0:0:2, 3+5:0:0:0:0, 5+3:0:0:0:1, 2+2:0:0:0:0, 3+2:0:0:0:0, 2+2:0:0:0:0, 0+0:0:0:0:0, 3+2:0:0:0:0,  , 1+0:0:0:0:0, 2+2:0:2:0:0, 0+0:0:0:0:0, 2+1:0:0:0:0, 3+1:0:0:0:1, 1+0:0:0:0:0, 5+2:1:0:0:0, 2+0:0:0:0:0, 2+2:0:0:0:0, 4+1:0:0:0:0, 3+2:0:0:0:0, 4+3:1:0:0:1, 2+2:0:0:0:0, 1+1:0:0:0:0, 2+2:0:0:0:0,  , 2+3:0:0:0:0, 3+4:0:0:0:0, 4+3:0:0:0:0, 5+2:0:0:0:0, 5+5:0:0:0:2, 4+6:0:0:0:0, 6+6:0:0:0:2, 6+4:2:0:0:2, 6+4:2:0:0:2, 5+2:0:0:0:1, 3+0:0:0:0:0, 4+5:0:0:0:0, 2+3:0:0:0:0, 4+6:0:0:0:0, 3+2:0:0:0:0,  , 2+0:0:0:0:0, 1+0:0:0:0:0, 0+0:0:0:0:0, 1+1:0:0:0:0, 1+0:0:0:0:0, 2+1:0:0:0:0, 2+1:0:0:0:0, 2+4:0:0:0:0, 2+2:0:0:0:0, 1+2:0:0:0:0, 3+2:0:0:0:0, 6+4:1:0:0:1, 2+1:0:0:0:0, 2+2:0:0:0:0, 3+1:0:0:0:0,  , 1+1:0:0:0:0, 3+3:1:0:0:1, 3+2:0:0:0:0, 7+5:0:0:0:0, 5+5:0:0:0:2, 4+6:0:0:0:0, 4+4:0:0:0:2, 6+5:1:0:0:1, 5+5:2:0:0:2, 7+3:0:0:0:1, 3+0:0:0:0:0, 6+5:0:0:0:0, 3+3:1:0:0:1, 2+2:0:0:0:0, 2+2:0:0:0:0, 1+0:0:0:0:0, 0+0:0:0:0:0, 2+1:0:1:0:0, 1+1:0:1:0:1, 0+0:0:0:0:0, 1+0:0:0:0:0, 1+0:0:0:0:0, 3+2:1:0:0:1, 2+3:0:0:0:0, 8+4:0:0:0:0, 4+2:0:0:0:0, 3+2:0:0:0:0, 4+3:1:0:0:1, 2+1:0:0:0:0, 0+0:0:0:0:0, 2+2:0:0:0:0,  , 1+2:0:0:0:0, 2+1:0:0:0:0, 3+2:0:0:0:0, 5+5:0:0:0:0, 4+0:0:0:0:0, 4+0:0:0:0:0, 3+3:0:0:0:1, 4+3:1:0:0:1, 3+3:0:0:0:0, 4+1:0:0:0:1, 2+2:0:0:0:0, 3+3:0:0:0:0, 2+1:0:0:0:0, 0+0:0:0:0:0, 2+2:0:0:0:0, 1+0:0:0:0:0, 0+0:0:0:0:0, 1+1:0:1:0:0, 0+0:0:0:0:0, 0+0:0:0:0:0, 1+0:0:0:0:0, 1+0:0:0:0:0, 2+1:0:0:0:0, 1+1:0:0:0:0, 2+2:0:0:0:0, 1+2:0:0:0:0, 2+1:0:0:0:0, 5+4:2:0:0:2, 2+1:0:0:0:0, 0+0:0:0:0:0, 2+1:0:0:0:0,  , 1+3:0:0:0:0, 2+2:0:0:0:0, 4+4:0:0:0:0, 4+8:0:0:0:0, 3+4:0:0:0:1, 4+0:0:0:0:0, 4+0:0:0:0:0, 3+3:1:0:0:1, 4+4:0:0:0:0, 5+3:0:0:0:1, 2+3:0:0:0:0, 5+3:0:0:0:0, 2+2:0:0:0:0, 0+0:0:0:0:0, 2+1:0:0:0:0, 1+2:0:0:0:0, 1+0:0:0:0:0, 2+1:0:1:0:0, 2+2:0:1:0:1, 0+0:0:0:0:0, 1+0:0:0:0:0, 1+0:0:0:0:0, 3+2:1:0:0:1, 3+3:0:0:0:0, 4+2:0:1:0:1, 2+0:0:0:0:0, 6+4:0:0:0:1, 8+5:1:0:0:1, 3+3:1:0:0:1, 6+2:1:0:0:1, 2+2:0:0:0:0, 6+2:1:0:0:1, 2+2:0:0:0:0, 4+1:1:0:0:1, 2+2:0:0:0:0, 4+2:2:0:0:2, 3+2:0:0:0:0, 4+1:1:0:0:1, 2+2:0:0:0:0, 4+1:1:0:0:1, 2+2:0:0:0:0, 4+1:1:0:0:1, 2+2:0:0:0:0, 7+3:1:0:0:1, 2+2:0:0:0:0, 6+2:1:0:0:1, 2+2:0:0:0:0, 4+1:1:0:0:1, 2+2:0:0:0:0, 4+1:1:0:0:1, 0+0:0:0:0:0, 661+464:43:12:0:77
F minor (4b), 3+1:0:0:0:0, 6+1:0:0:0:0, 3+0:0:0:0:0, 0+0:0:0:0:0, 5+1:0:0:0:1, 4+1:0:0:0:0, 2+0:0:0:0:0, 3+0:0:0:0:0, 1+1:0:0:0:0, 1+0:0:0:0:0, 1+1:0:0:0:0, 3+2:2:0:0:2, 2+0:0:0:0:0, 2+1:0:0:0:0, 5+1:0:0:0:1, 7+1:0:0:0:0, 4+1:0:0:0:1, 6+1:0:0:0:0, 3+0:0:0:0:0, 0+0:0:0:0:0, 5+0:0:0:0:0, 4+1:0:1:0:0, 6+0:0:0:0:0, 4+1:0:0:0:0, 5+0:0:0:0:0, 4+1:0:0:0:0, 3+0:0:0:0:0, 4+1:0:0:0:0, 5+2:0:0:0:2, 5+1:0:0:0:1, 4+1:0:0:0:1, 8+5:0:0:0:1, 5+2:0:0:0:0, 7+2:0:0:0:2, 6+2:0:0:0:2, 3+0:0:0:0:0, 6+0:0:0:0:0, 5+2:0:0:0:0, 3+1:0:0:0:0, 5+1:0:0:0:0, 2+1:0:0:0:0, 2+3:0:0:0:0, 3+2:0:0:0:0, 3+5:3:0:0:3, 4+3:3:0:0:3, 4+4:1:0:0:1, 5+3:0:0:0:3, 7+4:1:0:0:0, 3+0:0:0:0:0, 10+4:0:0:0:0, 5+0:0:0:0:0,  , 6+2:0:0:0:0, 8+4:0:1:0:2, 7+3:0:0:0:1, 5+3:2:0:0:2, 7+2:0:0:0:1, 6+1:0:0:0:0, 6+1:0:0:0:0, 5+0:0:0:0:0, 6+0:0:0:0:0, 5+2:0:0:0:2, 4+1:0:0:0:1, 7+2:1:0:0:0, 3+0:0:0:0:0, 6+1:0:0:0:0, 3+0:0:0:0:0, 0+0:0:0:0:0, 4+2:2:0:0:2, 3+1:0:0:0:0, 4+2:0:0:0:0, 3+0:0:0:0:0, 2+2:0:0:0:0, 2+0:0:0:0:0, 2+2:0:0:0:0, 3+3:3:0:0:3, 3+0:0:0:0:0, 1+2:0:0:0:0, 5+1:0:0:0:1, 6+1:0:0:0:0, 5+0:0:0:0:0, 6+1:0:0:0:0, 4+1:0:0:0:1,  , 6+8:0:0:0:5, 6+8:0:1:0:6, 4+0:0:0:0:0, 5+2:1:0:0:1, 6+1:0:0:0:1, 6+2:0:0:0:0, 8+2:1:0:0:0, 5+0:0:0:0:0, 6+0:0:0:0:0, 5+5:0:0:0:1, 6+3:0:0:0:1, 7+2:1:0:0:0, 4+0:0:0:0:0, 6+3:0:0:0:3, 5+1:0:0:0:0,  , 5+2:0:0:0:0, 5+4:0:0:0:0, 4+2:0:0:0:0, 5+1:0:0:0:0, 2+3:0:0:0:0, 2+0:0:0:0:0, 2+2:0:0:0:0, 3+3:3:0:0:3, 5+3:0:1:0:1, 1+2:0:0:0:0, 5+2:0:0:0:2, 6+3:1:0:0:0, 4+0:0:0:0:0, 7+4:1:0:0:2, 5+1:1:0:0:1,  , 7+1:0:0:0:1, 5+0:0:0:0:0, 6+0:0:0:0:0, 5+3:0:0:0:3, 4+0:0:0:0:0, 5+3:0:0:0:0, 5+0:0:0:0:0, 5+0:0:0:0:0, 5+0:0:0:0:0, 5+1:0:0:0:1, 5+1:0:0:0:1, 8+3:2:0:0:0, 5+0:0:0:0:0, 7+3:0:0:0:2, 5+1:0:0:0:1,  , 6+1:0:0:0:1, 3+4:4:0:0:4, 2+1:0:0:0:0, 7+2:0:0:0:0, 4+3:0:0:0:0, 2+0:0:0:0:0, 2+2:0:0:0:0, 5+5:3:0:0:4, 5+1:0:0:0:0, 2+1:1:0:0:0, 5+2:0:0:0:2, 10+3:0:0:0:0, 4+1:1:0:0:1, 7+3:0:0:0:2, 5+0:0:0:0:0, 1+0:0:0:0:0, 5+0:0:0:0:0, 5+0:0:0:0:0, 7+1:0:0:0:0, 5+2:0:0:0:0, 5+0:0:0:0:0, 7+3:0:0:0:0, 6+1:1:0:0:0, 5+0:0:0:0:0, 10+4:0:0:0:0, 6+3:1:0:0:2, 6+2:0:0:0:0, 7+2:1:0:0:0, 3+0:0:0:0:0, 6+2:0:0:0:0, 3+0:0:0:0:0,  , 3+2:0:0:0:0, 3+1:0:0:0:0, 2+0:0:0:0:0, 4+1:0:0:0:0, 1+1:0:0:0:0, 1+0:0:0:0:0, 1+1:0:0:0:0, 3+3:3:0:0:3, 2+0:0:0:0:0, 1+2:0:0:0:0, 5+2:0:0:0:2, 6+1:0:0:0:0, 3+0:0:0:0:0, 6+2:0:0:0:0, 3+0:0:0:0:0, 0+0:0:0:0:0, 4+0:0:0:0:0, 4+1:0:1:0:1, 4+0:0:0:0:0, 4+1:0:0:0:0, 5+1:0:0:0:0, 4+2:0:0:0:0, 3+0:0:0:0:0, 3+0:0:0:0:0, 5+0:0:0:0:0, 5+2:0:0:0:2, 4+1:0:0:0:1, 8+4:1:1:0:1, 3+0:0:0:0:0, 6+2:0:0:0:0, 3+0:0:0:0:0,  , 3+3:0:0:0:0, 3+2:0:0:0:0, 3+1:0:0:0:1, 3+0:0:0:0:0, 1+2:0:0:0:0, 1+0:0:0:0:0, 1+3:0:0:0:0, 3+3:3:0:0:3, 3+0:0:0:0:0, 1+2:0:0:0:0, 5+2:0:0:0:2, 9+2:0:0:0:0, 4+0:0:0:0:0, 6+1:0:0:0:0, 3+0:0:0:0:0, 3+2:0:0:0:2, 5+0:0:0:0:0, 6+0:0:0:0:0, 8+2:0:1:0:1, 4+1:0:0:0:0, 6+0:0:0:0:0, 6+3:0:0:0:0, 6+1:1:0:0:0, 6+3:0:0:0:3, 7+3:0:0:0:1, 5+3:0:0:0:3, 8+3:1:0:0:1, 7+12:4:0:0:3, 7+1:1:0:0:1, 7+7:3:0:0:1, 6+0:0:0:0:0, 6+9:6:0:0:3, 6+0:0:0:0:0, 5+9:6:0:0:3, 4+0:0:0:0:0, 5+5:4:0:0:4, 6+2:0:0:0:1, 5+7:4:0:0:4, 5+0:0:0:0:0, 5+7:3:0:0:1, 5+0:0:0:0:0, 5+7:4:0:0:1, 4+0:0:0:0:0, 7+7:3:0:0:1, 4+0:0:0:0:0, 7+8:4:0:0:2, 4+0:0:0:0:0, 5+6:3:0:0:1, 4+0:0:0:0:0, 5+4:3:0:0:3, 1+0:0:0:0:0, 1080+402:98:7:0:148
C# minor (4#), 2+1:0:0:0:0, 0+0:0:0:0:0, 2+1:0:0:0:0, 1+0:0:0:0:0, 2+1:0:0:0:0, 2+2:0:0:0:0, 3+2:0:0:0:0, 4+4:0:0:0:0, 4+0:0:0:0:0, 4+1:0:0:0:0, 4+0:0:0:0:0, 3+4:1:0:0:1, 3+2:0:0:0:0, 4+1:0:0:0:1, 3+6:0:0:0:4, 3+4:0:0:0:0, 3+2:0:0:0:0, 0+0:0:0:0:0, 2+1:0:0:0:0, 1+0:0:0:0:0, 0+1:0:0:0:0, 1+1:0:0:0:0, 0+4:0:0:0:0, 0+2:0:0:0:0, 1+6:0:0:0:0, 1+4:0:0:0:0, 2+0:0:0:0:0, 1+1:0:0:0:0, 4+3:0:0:0:0, 1+3:0:0:0:2, 2+3:0:0:0:1, 5+4:1:0:0:1, 3+1:0:0:0:0, 3+5:0:0:0:0, 3+2:0:0:0:0, 1+2:0:0:0:0, 2+2:0:0:0:0, 4+3:0:0:0:0, 4+2:0:0:0:0, 5+2:0:0:0:1, 4+4:0:0:0:2, 6+1:0:0:0:1, 5+3:0:0:0:2, 5+6:3:0:0:3, 4+1:1:0:0:1, 6+5:1:0:0:3, 2+3:0:0:0:2, 4+6:1:0:0:1, 2+0:0:0:0:0, 4+2:0:0:0:1, 2+2:0:0:0:0,  , 3+3:0:0:0:1, 5+4:1:1:0:2, 3+2:0:0:0:2, 2+3:0:0:0:0, 3+1:0:0:0:0, 1+2:0:0:0:0, 3+2:0:0:0:0, 2+2:0:0:0:0, 2+5:0:0:0:0, 2+4:0:0:0:3, 2+3:0:0:0:1, 4+5:1:0:0:1, 2+2:0:0:0:0, 0+0:0:0:0:0, 2+1:0:0:0:0, 1+0:0:0:0:0, 2+4:0:0:0:0, 3+1:0:0:0:0, 6+3:0:0:0:0, 4+4:0:0:0:0, 4+3:0:0:0:1, 4+0:0:0:0:0, 4+3:0:0:0:2, 4+4:2:0:0:2, 3+5:0:0:0:0, 5+3:0:0:0:1, 2+3:0:0:0:2, 3+3:0:0:0:1, 2+3:0:0:0:0, 0+1:0:0:0:0, 5+2:0:0:0:2,  , 1+1:0:0:0:0, 2+1:0:0:0:0, 0+0:0:0:0:0, 2+2:0:0:0:0, 3+1:0:0:0:0, 1+1:0:0:0:0, 5+3:1:0:0:1, 2+1:0:0:0:0, 2+2:0:0:0:0, 4+1:0:0:0:0, 3+3:0:0:0:1, 4+4:1:0:0:1, 2+2:0:0:0:0, 1+1:0:0:0:0, 2+2:0:0:0:0,  , 2+3:0:0:0:0, 3+4:0:0:0:0, 4+3:0:0:0:0, 5+2:0:0:0:0, 5+5:0:0:0:2, 4+0:0:0:0:0, 6+1:0:0:0:0, 6+4:2:0:0:2, 6+4:2:0:0:2, 5+2:0:0:0:1, 3+6:0:0:0:4, 4+7:0:0:0:2, 2+0:0:0:0:0, 4+6:0:0:0:0, 3+3:0:0:0:0,  , 2+0:0:0:0:0, 1+1:0:0:0:0, 0+1:0:0:0:0, 1+2:0:0:0:1, 1+0:0:0:0:0, 3+2:0:0:0:0, 2+1:0:0:0:0, 2+2:0:0:0:0, 2+7:0:0:0:0, 1+4:0:0:0:2, 3+5:0:0:0:1, 6+5:1:0:0:1, 2+1:0:0:0:0, 2+2:0:0:0:0, 3+1:0:0:0:0,  , 1+1:0:0:0:0, 3+3:1:0:0:1, 3+2:0:0:0:0, 7+5:0:0:0:0, 5+5:0:0:0:2, 4+0:0:0:0:0, 4+4:0:0:0:2, 6+5:1:0:0:1, 5+5:2:0:0:2, 7+3:0:0:0:1, 3+6:0:0:0:4, 6+5:0:0:0:1, 3+1:1:0:0:1, 2+2:0:0:0:0, 2+2:0:0:0:0, 1+0:0:0:0:0, 0+2:0:0:0:0, 2+1:0:0:0:0, 1+3:0:1:0:0, 0+1:0:0:0:0, 1+3:0:0:0:0, 1+2:0:0:0:0, 4+3:0:0:0:0, 2+1:0:0:0:0, 6+6:0:2:0:3, 4+5:0:0:0:2, 3+2:0:0:0:1, 4+4:1:0:0:1, 2+1:0:0:0:0, 0+0:0:0:0:0, 2+2:0:0:0:0,  , 1+1:0:0:0:0, 2+1:0:0:0:0, 3+2:0:0:0:0, 5+5:0:0:0:0, 4+0:0:0:0:0, 4+0:0:0:0:0, 3+3:0:0:0:1, 4+3:1:0:0:1, 3+3:0:0:0:0, 4+1:0:0:0:1, 2+3:0:0:0:2, 3+3:0:0:0:0, 2+1:0:0:0:0, 0+0:0:0:0:0, 2+2:0:0:0:0, 1+0:0:0:0:0, 0+2:0:0:0:0, 1+2:0:0:0:0, 0+0:0:0:0:0, 0+1:0:0:0:0, 1+0:0:0:0:0, 1+1:0:0:0:0, 2+0:0:0:0:0, 1+1:0:0:0:0, 2+5:0:0:0:0, 1+3:0:0:0:2, 2+2:0:0:0:1, 5+6:1:1:0:2, 2+1:0:0:0:0, 0+0:0:0:0:0, 2+1:0:0:0:0,  , 1+3:0:0:0:0, 2+2:0:0:0:0, 4+4:0:0:0:0, 4+8:0:0:0:0, 3+4:0:0:0:1, 4+0:0:0:0:0, 4+0:0:0:0:0, 3+3:1:0:0:1, 4+4:0:0:0:0, 5+3:0:0:0:1, 2+5:0:0:0:3, 5+6:0:0:0:0, 2+2:0:0:0:0, 0+0:0:0:0:0, 2+1:0:0:0:0, 1+4:0:0:0:2, 1+1:0:0:0:0, 2+2:0:0:0:0, 2+2:0:0:0:0, 0+1:0:0:0:0, 1+2:0:0:0:0, 1+2:0:0:0:0, 3+2:1:0:0:1, 3+3:0:0:0:0, 4+2:0:1:0:1, 2+0:0:0:0:0, 6+4:0:0:0:1, 8+5:1:0:0:1, 3+2:1:0:0:1, 6+2:1:0:0:1, 2+1:0:0:0:0, 6+2:1:0:0:1, 2+2:0:0:0:0, 4+1:1:0:0:1, 2+0:0:0:0:0, 4+2:2:0:0:2, 3+2:0:0:0:0, 4+1:1:0:0:1, 2+0:0:0:0:0, 4+1:1:0:0:1, 2+1:0:0:0:0, 4+1:1:0:0:1, 2+0:0:0:0:0, 7+3:1:0:0:1, 2+0:0:0:0:0, 6+2:1:0:0:1, 2+0:0:0:0:0, 4+1:1:0:0:1, 2+0:0:0:0:0, 4+1:1:0:0:1, 0+0:0:0:0:0, 665+544:43:6:0:126
Db major (5b), 4+0:0:0:0:0, 6+0:0:0:0:0, 4+0:0:0:0:0, 1+0:0:0:0:0, 6+1:0:0:0:0, 4+0:0:0:0:0, 3+0:0:0:0:0, 4+1:0:0:0:0, 2+0:0:0:0:0, 2+0:0:0:0:0, 2+0:0:0:0:0, 3+2:2:0:0:2, 3+4:0:0:0:0, 2+1:0:0:0:0, 5+1:0:0:0:1, 8+1:0:0:0:0, 5+1:0:0:0:1, 6+0:0:0:0:0, 4+1:0:0:0:0, 1+0:0:0:0:0, 5+0:0:0:0:0, 4+1:0:1:0:1, 6+0:0:0:0:0, 4+0:0:0:0:0, 5+0:0:0:0:0, 4+1:0:0:0:0, 4+0:0:0:0:0, 5+1:0:0:0:0, 6+2:0:0:0:0, 5+1:0:0:0:1, 4+1:0:0:0:1, 9+3:2:0:0:0, 6+0:0:0:0:0, 8+2:0:0:0:2, 7+2:0:0:0:2, 4+0:0:0:0:0, 7+2:0:0:0:0, 6+1:1:0:0:0, 4+1:0:0:0:0, 6+3:0:0:0:0, 3+0:0:0:0:0, 3+2:0:0:0:0, 4+1:0:0:0:1, 4+3:3:0:0:3, 5+4:2:0:0:0, 4+3:0:0:0:1, 5+3:0:0:0:3, 8+2:1:0:0:0, 4+0:0:0:0:0, 10+2:0:0:0:0, 6+2:0:0:0:0,  , 6+2:0:0:0:0, 8+4:0:1:0:1, 8+2:0:0:0:0, 6+2:0:0:0:0, 7+1:0:0:0:1, 6+0:0:0:0:0, 7+1:0:0:0:0, 6+0:0:0:0:0, 7+0:0:0:0:0, 6+2:0:0:0:2, 4+1:0:0:0:1, 8+2:1:0:0:0, 4+0:0:0:0:0, 6+0:0:0:0:0, 4+1:0:0:0:0, 1+0:0:0:0:0, 5+1:0:0:0:0, 4+0:0:0:0:0, 5+2:0:0:0:0, 4+1:0:0:0:0, 3+0:0:0:0:0, 3+0:0:0:0:0, 3+0:0:0:0:0, 3+3:2:0:0:2, 4+1:0:0:0:0, 2+0:0:0:0:0, 5+1:0:0:0:1, 7+1:0:0:0:0, 6+0:0:0:0:0, 6+0:0:0:0:0, 5+2:0:0:0:0,  , 6+0:0:0:0:0, 6+0:0:0:0:0, 4+0:0:0:0:0, 6+1:0:0:0:0, 6+1:0:0:0:1, 6+2:0:0:0:0, 9+2:1:0:0:0, 6+0:0:0:0:0, 7+0:0:0:0:0, 6+2:1:0:0:2, 6+3:0:0:0:1, 8+2:1:0:0:0, 5+0:0:0:0:0, 7+3:0:0:0:3, 6+0:0:0:0:0,  , 6+2:0:0:0:0, 5+2:0:0:0:2, 5+2:0:0:0:0, 6+1:0:0:0:0, 3+0:0:0:0:0, 3+0:0:0:0:0, 3+0:0:0:0:0, 4+3:3:0:0:3, 6+4:0:1:0:0, 2+0:0:0:0:0, 5+2:0:0:0:2, 7+3:1:0:0:0, 5+0:0:0:0:0, 8+4:1:0:0:2, 6+1:1:0:0:1,  , 7+1:0:0:0:1, 5+0:0:0:0:0, 6+0:0:0:0:0, 6+0:0:0:0:0, 4+0:0:0:0:0, 5+3:0:0:0:0, 6+0:0:0:0:0, 6+0:0:0:0:0, 6+0:0:0:0:0, 5+1:0:0:0:1, 5+1:0:0:0:1, 9+3:2:0:0:0, 6+0:0:0:0:0, 8+3:0:0:0:2, 6+1:0:0:0:1,  , 7+1:0:0:0:1, 3+1:1:0:0:0, 3+0:0:0:0:0, 8+2:0:0:0:0, 5+1:0:0:0:1, 3+0:0:0:0:0, 3+0:0:0:0:0, 5+5:2:0:0:3, 6+3:0:0:0:0, 2+1:0:0:0:0, 5+2:0:0:0:2, 11+3:0:0:0:0, 5+1:1:0:0:1, 8+3:0:0:0:2, 6+0:0:0:0:0, 2+0:0:0:0:0, 5+0:0:0:0:0, 5+2:0:1:0:1, 7+1:0:1:0:1, 5+0:0:0:0:0, 5+0:0:0:0:0, 7+3:0:0:0:0, 7+1:1:0:0:0, 6+0:0:0:0:0, 11+4:0:0:0:0, 6+3:1:0:0:2, 6+2:0:0:0:0, 8+2:1:0:0:0, 4+0:0:0:0:0, 6+0:0:0:0:0, 4+0:0:0:0:0,  , 4+2:0:0:0:0, 3+0:0:0:0:0, 3+0:0:0:0:0, 5+4:0:0:0:0, 2+0:0:0:0:0, 2+0:0:0:0:0, 2+0:0:0:0:0, 4+3:3:0:0:3, 3+1:0:0:0:0, 1+0:0:0:0:0, 5+2:0:0:0:2, 7+1:0:0:0:0, 4+0:0:0:0:0, 6+0:0:0:0:0, 4+2:0:0:0:0, 1+0:0:0:0:0, 4+0:0:0:0:0, 4+1:0:1:0:1, 4+0:0:0:0:0, 4+0:0:0:0:0, 5+0:0:0:0:0, 4+2:0:0:0:0, 4+0:0:0:0:0, 4+0:0:0:0:0, 6+0:0:0:0:0, 5+2:0:0:0:2, 4+1:0:0:0:1, 8+3:2:0:0:1, 4+0:0:0:0:0, 6+0:0:0:0:0, 4+0:0:0:0:0,  , 4+3:0:0:0:0, 3+0:0:0:0:0, 4+1:0:0:0:1, 4+2:0:0:0:0, 2+0:0:0:0:0, 2+0:0:0:0:0, 2+0:0:0:0:0, 3+3:2:0:0:2, 4+1:0:0:0:0, 2+0:0:0:0:0, 5+2:0:0:0:2, 10+2:0:0:0:0, 5+0:0:0:0:0, 6+0:0:0:0:0, 4+1:0:0:0:0, 4+2:0:0:0:0, 5+0:0:0:0:0, 6+0:0:0:0:0, 8+2:0:1:0:1, 4+0:0:0:0:0, 6+0:0:0:0:0, 6+3:0:0:0:0, 7+1:1:0:0:0, 7+1:0:0:0:0, 8+2:0:1:0:2, 6+3:0:0:0:3, 9+3:1:0:0:1, 8+6:3:0:0:2, 8+2:1:0:0:0, 8+3:1:0:0:2, 7+1:0:0:0:0, 7+4:1:0:0:3, 7+1:0:0:0:0, 6+4:1:0:0:3, 5+1:0:0:0:0, 6+3:2:0:0:1, 7+1:0:0:0:1, 6+2:1:0:0:1, 6+1:0:0:0:0, 6+2:1:0:0:1, 6+1:0:0:0:0, 6+2:1:0:0:1, 5+1:0:0:0:0, 8+2:1:0:0:1, 5+1:0:0:0:0, 8+3:1:0:0:2, 5+1:0:0:0:0, 6+2:1:0:0:1, 5+1:0:0:0:0, 6+2:1:0:0:1, 1+0:0:0:0:0, 1241+283:57:8:0:106
B major (5#), 2+0:0:0:0:0, 1+2:0:0:0:0, 2+0:0:0:0:0, 1+0:0:0:0:0, 3+1:0:0:0:0, 3+2:0:0:0:0, 3+1:0:0:0:1, 5+4:0:0:0:0, 5+5:0:0:0:0, 4+0:0:0:0:0, 5+5:0:0:0:0, 4+4:1:0:0:1, 3+2:0:0:0:0, 4+1:0:0:0:1, 4+4:0:0:0:0, 4+4:0:0:0:0, 2+0:0:0:0:0, 1+2:0:0:0:0, 2+0:0:0:0:0, 1+0:0:0:0:0, 0+0:0:0:0:0, 1+0:0:0:0:0, 1+1:0:0:0:0, 1+1:0:0:0:0, 2+1:0:0:0:0, 1+1:0:0:0:0, 2+0:0:0:0:0, 2+1:0:0:0:0, 5+3:0:0:0:0, 2+2:0:0:0:0, 2+1:0:0:0:0, 6+4:1:0:0:1, 4+3:0:0:0:0, 4+5:0:0:0:0, 3+2:0:0:0:0, 2+2:0:0:0:0, 3+2:0:0:0:0, 5+4:0:0:0:0, 4+1:0:0:0:1, 6+8:1:0:0:1, 5+4:0:0:0:2, 6+1:0:0:0:1, 6+3:0:0:0:2, 6+6:3:0:0:3, 3+1:1:0:0:1, 5+2:0:0:0:1, 3+2:0:0:0:0, 5+6:1:0:0:1, 2+0:0:0:0:0, 4+5:0:0:0:0, 3+1:0:0:0:0,  , 2+2:0:0:0:0, 4+3:1:1:0:1, 4+2:0:0:0:0, 3+2:0:2:0:2, 4+2:0:0:0:0, 1+2:0:0:0:0, 4+2:0:0:0:0, 3+2:0:0:0:0, 3+1:0:0:0:0, 3+8:0:0:0:0, 2+3:0:0:0:1, 5+5:1:0:0:1, 2+0:0:0:0:0, 1+2:0:0:0:0, 2+0:0:0:0:0, 1+0:0:0:0:0, 3+4:0:0:0:0, 4+2:0:0:0:0, 6+3:1:0:0:2, 5+4:0:0:0:0, 5+3:0:0:0:1, 5+0:0:0:0:0, 5+3:0:0:0:2, 5+4:2:0:0:2, 4+5:0:0:0:0, 5+3:0:0:0:1, 3+2:0:0:0:0, 4+3:0:0:0:0, 3+1:0:0:0:0, 1+4:0:0:0:0, 2+0:0:0:0:0,  , 0+0:0:0:0:0, 1+0:0:0:0:0, 1+0:0:0:0:0, 3+1:0:0:0:0, 4+2:0:0:0:0, 2+3:0:0:0:0, 6+3:1:0:0:1, 3+1:0:0:0:0, 3+2:0:0:0:0, 5+6:0:0:0:0, 4+3:0:0:0:1, 5+4:1:0:0:1, 3+1:0:0:0:0, 2+6:0:0:0:0, 3+1:0:0:0:0,  , 3+3:0:0:0:0, 4+4:0:0:0:0, 5+2:0:0:0:1, 6+8:0:0:0:0, 6+5:0:0:0:2, 5+0:0:0:0:0, 7+4:0:0:0:0, 7+4:2:0:0:2, 6+4:1:0:0:1, 5+2:0:0:0:1, 4+4:0:0:0:0, 5+5:0:0:0:0, 2+0:0:0:0:0, 5+6:0:0:0:0, 4+2:0:0:0:0,  , 1+0:0:0:0:0, 1+0:0:0:0:0, 1+0:0:0:0:0, 2+1:0:0:0:0, 2+3:0:0:0:0, 2+3:0:0:0:1, 3+1:0:0:0:0, 3+2:0:0:0:0, 3+1:0:0:0:0, 2+2:0:0:0:0, 3+2:0:0:0:0, 7+5:1:0:0:1, 3+1:0:0:0:0, 3+6:0:0:0:0, 3+1:0:0:0:0,  , 2+4:0:0:0:0, 4+3:1:0:0:1, 3+1:0:0:0:1, 8+8:0:0:0:0, 6+5:0:0:0:2, 5+0:0:0:0:0, 5+4:0:0:0:2, 7+5:1:0:0:1, 6+5:1:0:0:1, 7+3:0:0:0:1, 4+4:0:0:0:0, 7+7:0:0:0:0, 3+1:1:0:0:1, 3+7:0:0:0:0, 3+1:0:0:0:0, 1+0:0:0:0:0, 0+0:0:0:0:0, 1+0:0:0:0:0, 2+1:0:1:0:1, 1+0:0:0:0:0, 2+1:0:0:0:0, 2+4:0:0:0:0, 5+3:0:0:0:0, 3+1:0:0:0:0, 7+6:0:2:0:3, 5+2:0:0:0:0, 3+2:0:0:0:1, 5+4:1:0:0:1, 2+0:0:0:0:0, 1+2:0:0:0:0, 2+0:0:0:0:0,  , 2+1:0:0:0:0, 3+3:0:0:0:0, 3+1:0:0:0:1, 6+5:0:0:0:0, 5+2:0:0:0:0, 4+0:0:0:0:0, 4+3:0:0:0:1, 5+3:1:0:0:1, 3+3:0:0:0:0, 4+1:0:0:0:1, 3+2:0:0:0:0, 4+3:0:0:0:0, 2+0:0:0:0:0, 1+3:0:0:0:0, 2+0:0:0:0:0, 1+0:0:0:0:0, 0+0:0:0:0:0, 1+0:0:0:0:0, 1+0:0:0:0:0, 1+0:0:0:0:0, 2+1:0:0:0:0, 1+1:0:0:0:0, 2+0:0:0:0:0, 2+1:0:0:0:0, 3+2:0:0:0:0, 2+2:0:0:0:0, 2+1:0:0:0:0, 6+6:1:1:0:2, 2+0:0:0:0:0, 1+3:0:0:0:0, 2+0:0:0:0:0,  , 2+3:0:0:0:0, 3+5:0:0:0:0, 3+1:0:0:0:1, 5+8:0:0:0:0, 4+4:0:0:0:1, 4+0:0:0:0:0, 5+5:0:0:0:0, 4+3:1:0:0:1, 5+4:0:0:0:0, 5+3:0:0:0:1, 3+3:0:0:0:0, 6+6:0:0:0:0, 3+1:0:0:0:0, 1+3:0:0:0:0, 2+0:0:0:0:0, 1+2:0:0:0:0, 0+0:0:0:0:0, 1+0:0:0:0:0, 3+2:0:1:0:1, 1+1:0:0:0:0, 2+1:0:0:0:0, 2+4:0:0:0:0, 4+2:1:0:0:1, 4+3:0:0:0:0, 5+2:0:1:0:1, 3+0:0:0:0:0, 6+4:1:0:0:2, 8+5:3:0:0:3, 4+2:1:0:0:1, 7+2:1:0:0:1, 3+1:0:0:0:0, 7+2:1:0:0:1, 3+2:0:0:0:0, 5+1:1:0:0:1, 2+0:0:0:0:0, 5+2:1:0:0:1, 4+2:0:0:0:0, 5+1:1:0:0:1, 2+0:0:0:0:0, 5+1:1:0:0:1, 3+1:0:0:0:0, 5+1:1:0:0:1, 2+0:0:0:0:0, 8+3:1:0:0:1, 2+0:0:0:0:0, 7+2:1:0:0:1, 2+0:0:0:0:0, 5+1:1:0:0:1, 2+0:0:0:0:0, 5+1:1:0:0:1, 0+0:0:0:0:0, 808+532:44:9:0:88
Bb minor (5b), 4+0:0:0:0:0, 6+0:0:0:0:0, 4+0:0:0:0:0, 1+0:0:0:0:0, 6+1:0:0:0:0, 4+0:0:0:0:0, 3+0:0:0:0:0, 4+1:0:0:0:0, 2+0:0:0:0:0, 2+0:0:0:0:0, 2+0:0:0:0:0, 3+2:2:0:0:2, 3+4:0:0:0:0, 2+1:0:0:0:0, 5+1:0:0:0:1, 8+1:0:0:0:0, 5+1:0:0:0:1, 6+0:0:0:0:0, 4+0:0:0:0:0, 1+0:0:0:0:0, 5+0:0:0:0:0, 4+1:0:1:0:1, 6+0:0:0:0:0, 4+0:0:0:0:0, 5+0:0:0:0:0, 4+1:0:0:0:0, 4+0:0:0:0:0, 5+1:0:0:0:0, 6+2:0:0:0:0, 5+1:0:0:0:1, 4+1:0:0:0:1, 9+3:2:0:0:0, 6+0:0:0:0:0, 8+2:0:0:0:2, 7+2:0:0:0:2, 4+0:0:0:0:0, 7+2:0:0:0:0, 6+1:1:0:0:0, 4+1:0:0:0:0, 6+3:0:0:0:0, 3+0:0:0:0:0, 3+1:0:0:0:0, 4+1:0:0:0:1, 4+3:3:0:0:3, 5+3:3:0:0:3, 4+4:1:0:0:1, 5+3:0:0:0:3, 8+2:1:0:0:0, 4+0:0:0:0:0, 10+2:0:0:0:0, 6+0:0:0:0:0,  , 6+2:0:0:0:0, 8+4:0:1:0:1, 8+2:0:0:0:0, 6+2:0:0:0:0, 7+1:0:0:0:1, 6+0:0:0:0:0, 7+1:0:0:0:0, 6+0:0:0:0:0, 7+0:0:0:0:0, 6+2:0:0:0:2, 4+1:0:0:0:1, 8+2:1:0:0:0, 4+0:0:0:0:0, 6+0:0:0:0:0, 4+0:0:0:0:0, 1+0:0:0:0:0, 5+1:0:0:0:0, 4+0:0:0:0:0, 5+2:0:0:0:0, 4+1:0:0:0:0, 3+0:0:0:0:0, 3+0:0:0:0:0, 3+0:0:0:0:0, 3+3:2:0:0:2, 4+1:0:0:0:0, 2+2:0:0:0:0, 5+1:0:0:0:1, 7+1:0:0:0:0, 6+0:0:0:0:0, 6+0:0:0:0:0, 5+2:0:0:0:0,  , 6+0:0:0:0:0, 6+0:0:0:0:0, 4+0:0:0:0:0, 6+1:0:0:0:0, 6+1:0:0:0:1, 6+2:0:0:0:0, 9+2:1:0:0:0, 6+0:0:0:0:0, 7+0:0:0:0:0, 6+2:1:0:0:2, 6+3:0:0:0:1, 8+2:1:0:0:0, 5+0:0:0:0:0, 7+3:0:0:0:3, 6+0:0:0:0:0,  , 6+2:0:0:0:0, 5+2:0:0:0:2, 5+2:0:0:0:0, 6+1:0:0:0:0, 3+0:0:0:0:0, 3+0:0:0:0:0, 3+0:0:0:0:0, 4+3:3:0:0:3, 6+3:0:1:0:1, 2+2:0:0:0:0, 5+2:0:0:0:2, 7+3:1:0:0:0, 5+0:0:0:0:0, 8+4:1:0:0:2, 6+1:1:0:0:0,  , 7+2:0:0:0:0, 5+2:0:1:0:1, 6+0:0:0:0:0, 6+3:0:0:0:3, 4+0:0:0:0:0, 5+3:0:0:0:0, 6+0:0:0:0:0, 6+3:0:0:0:0, 6+1:0:0:0:0, 5+1:0:0:0:1, 5+1:0:0:0:1, 9+3:2:0:0:0, 6+0:0:0:0:0, 8+3:0:0:0:2, 6+1:0:0:0:1,  , 7+1:0:0:0:1, 3+4:1:0:0:1, 3+1:0:0:0:0, 8+2:0:0:0:0, 5+1:0:0:0:1, 3+0:0:0:0:0, 3+0:0:0:0:0, 5+5:2:0:0:3, 6+1:0:0:0:0, 2+1:0:0:0:1, 5+2:0:0:0:2, 11+3:0:0:0:0, 5+1:1:0:0:1, 8+3:0:0:0:2, 6+0:0:0:0:0, 2+0:0:0:0:0, 5+0:0:0:0:0, 5+2:0:1:0:1, 7+1:0:1:0:1, 5+0:0:0:0:0, 5+0:0:0:0:0, 7+3:0:0:0:0, 7+1:1:0:0:0, 6+2:0:0:0:0, 11+3:0:0:0:1, 6+3:1:0:0:2, 6+2:0:0:0:0, 8+2:1:0:0:0, 4+0:0:0:0:0, 6+0:0:0:0:0, 4+0:0:0:0:0,  , 4+2:0:0:0:0, 3+0:0:0:0:0, 3+0:0:0:0:0, 5+4:0:0:0:0, 2+0:0:0:0:0, 2+0:0:0:0:0, 2+0:0:0:0:0, 4+3:3:0:0:3, 3+1:0:0:0:0, 1+2:0:0:0:0, 5+2:0:0:0:2, 7+1:0:0:0:0, 4+0:0:0:0:0, 6+0:0:0:0:0, 4+0:0:0:0:0, 1+0:0:0:0:0, 4+0:0:0:0:0, 4+1:0:1:0:1, 4+0:0:0:0:0, 4+0:0:0:0:0, 5+0:0:0:0:0, 4+2:0:0:0:0, 4+0:0:0:0:0, 4+1:0:0:0:0, 6+1:0:0:0:0, 5+2:0:0:0:2, 4+1:0:0:0:1, 8+3:2:0:0:1, 4+0:0:0:0:0, 6+0:0:0:0:0, 4+0:0:0:0:0,  , 4+3:0:0:0:0, 3+0:0:0:0:0, 4+1:0:0:0:1, 4+2:0:0:0:0, 2+0:0:0:0:0, 2+0:0:0:0:0, 2+0:0:0:0:0, 3+3:2:0:0:2, 4+1:0:0:0:0, 2+2:0:0:0:0, 5+2:0:0:0:2, 10+3:0:0:0:1, 5+0:0:0:0:0, 6+0:0:0:0:0, 4+1:0:0:0:0, 4+2:0:0:0:0, 5+0:0:0:0:0, 6+0:0:0:0:0, 8+2:0:1:0:1, 4+0:0:0:0:0, 6+0:0:0:0:0, 6+3:0:0:0:0, 7+1:1:0:0:0, 7+1:0:0:0:0, 8+2:0:1:0:2, 6+3:0:0:0:3, 9+3:1:0:0:1, 8+6:3:0:0:2, 8+2:1:0:0:0, 8+3:1:0:0:2, 7+1:0:0:0:0, 7+4:1:0:0:3, 7+1:0:0:0:0, 6+4:1:0:0:3, 5+1:0:0:0:0, 6+3:2:0:0:1, 7+1:0:0:0:1, 6+2:1:0:0:1, 6+1:0:0:0:0, 6+2:1:0:0:1, 6+1:0:0:0:0, 6+2:1:0:0:1, 5+1:0:0:0:0, 8+2:1:0:0:1, 5+1:0:0:0:0, 8+3:1:0:0:2, 5+1:0:0:0:0, 6+2:1:0:0:1, 5+1:0:0:0:0, 6+4:3:0:0:3, 1+0:0:0:0:0, 1241+301:61:9:0:118
G# minor (5#), 2+0:0:0:0:0, 1+2:0:0:0:0, 2+0:0:0:0:0, 1+0:0:0:0:0, 3+1:0:0:0:0, 3+2:0:0:0:0, 3+1:0:0:0:1, 5+2:0:0:0:0, 5+5:0:0:0:0, 4+0:0:0:0:0, 5+0:0:0:0:0, 4+1:1:0:0:0, 3+0:0:0:0:0, 4+1:0:0:0:1, 4+6:0:0:0:4, 4+4:0:0:0:0, 2+0:0:0:0:0, 1+2:0:0:0:0, 2+0:0:0:0:0, 1+0:0:0:0:0, 0+1:0:0:0:0, 1+7:0:0:0:0, 1+4:0:0:0:0, 1+2:0:0:0:0, 2+6:0:0:0:0, 1+4:0:0:0:0, 2+0:0:0:0:0, 2+1:0:0:0:0, 5+3:0:0:0:0, 2+3:0:0:0:2, 2+3:0:0:0:1, 6+4:1:0:0:1, 4+3:0:0:0:0, 4+5:0:0:0:0, 3+2:0:0:0:0, 2+2:0:0:0:0, 3+2:0:0:0:0, 5+4:0:0:0:0, 4+1:0:0:0:1, 6+2:0:0:0:1, 5+4:0:0:0:2, 6+1:0:0:0:1, 6+3:0:0:0:2, 6+6:3:0:0:3, 3+1:1:0:0:1, 6+5:1:0:0:3, 3+3:0:0:0:2, 5+6:1:0:0:1, 2+0:0:0:0:0, 4+5:0:0:0:0, 3+1:0:0:0:0,  , 3+2:0:0:0:1, 4+5:1:1:0:3, 4+2:0:0:0:2, 3+3:0:0:0:0, 4+1:0:0:0:0, 1+2:0:0:0:0, 4+2:0:0:0:0, 3+2:0:0:0:0, 3+1:0:0:0:0, 3+4:0:0:0:3, 2+3:0:0:0:1, 5+5:1:0:0:1, 2+0:0:0:0:0, 1+2:0:0:0:0, 2+0:0:0:0:0, 1+0:0:0:0:0, 3+4:0:0:0:0, 4+2:0:0:0:0, 6+3:1:0:0:2, 5+4:0:0:0:0, 5+3:0:0:0:1, 5+0:0:0:0:0, 5+0:0:0:0:0, 5+0:0:0:0:0, 4+0:0:0:0:0, 5+3:0:0:0:1, 3+3:0:0:0:2, 4+3:0:0:0:0, 3+1:0:0:0:0, 1+1:0:0:0:0, 4+2:0:0:0:2,  , 0+1:0:0:0:0, 1+1:0:0:0:0, 1+0:0:0:0:0, 3+2:0:0:0:0, 4+1:0:0:0:0, 2+1:0:0:0:0, 6+3:1:0:0:1, 3+1:0:0:0:0, 3+2:0:0:0:0, 5+6:0:0:0:0, 4+3:0:0:0:1, 5+4:1:0:0:1, 3+1:0:0:0:0, 2+6:0:0:0:0, 3+1:0:0:0:0,  , 3+3:0:0:0:0, 4+4:0:0:0:0, 5+2:0:0:0:1, 6+2:0:0:0:0, 6+5:0:0:0:2, 5+0:0:0:0:0, 7+1:0:0:0:0, 6+0:0:0:0:0, 6+4:2:1:0:1, 5+2:0:0:0:1, 4+6:0:0:0:4, 5+5:0:0:0:0, 2+0:0:0:0:0, 5+6:0:0:0:0, 4+2:0:0:0:0,  , 1+0:0:0:0:0, 1+1:0:0:0:0, 1+1:0:0:0:0, 2+2:0:0:0:1, 2+0:0:0:0:0, 3+2:0:0:0:0, 3+1:0:0:0:0, 3+2:0:0:0:0, 3+1:0:0:0:0, 2+4:0:0:0:2, 3+5:0:0:0:1, 7+5:1:0:0:1, 3+1:0:0:0:0, 3+6:0:0:0:0, 3+1:0:0:0:0,  , 2+4:0:0:0:0, 4+3:1:0:0:1, 3+1:0:0:0:1, 8+5:0:0:0:0, 6+5:0:0:0:2, 5+0:0:0:0:0, 5+0:0:0:0:0, 7+2:0:0:0:0, 6+2:1:0:0:0, 7+3:0:0:0:1, 4+6:0:0:0:4, 7+7:0:0:0:0, 3+1:1:0:0:1, 3+7:0:0:0:0, 3+1:0:0:0:0, 1+0:0:0:0:0, 0+1:0:0:0:0, 1+1:0:0:0:0, 2+3:0:1:0:0, 1+1:0:0:0:0, 2+3:0:0:0:0, 2+2:0:0:0:0, 5+3:0:0:0:0, 3+1:0:0:0:0, 7+6:0:2:0:3, 5+5:0:0:0:2, 3+2:0:0:0:1, 5+4:1:0:0:1, 2+0:0:0:0:0, 1+2:0:0:0:0, 2+0:0:0:0:0,  , 2+1:0:0:0:0, 3+3:0:0:0:0, 3+1:0:0:0:1, 6+2:0:0:0:0, 5+2:0:0:0:0, 4+0:0:0:0:0, 4+3:0:0:0:1, 5+3:1:0:0:1, 3+3:0:0:0:0, 4+1:0:0:0:1, 3+3:0:0:0:2, 4+3:0:0:0:0, 2+0:0:0:0:0, 1+3:0:0:0:0, 2+0:0:0:0:0, 1+0:0:0:0:0, 0+1:0:0:0:0, 1+1:0:0:0:0, 1+0:0:0:0:0, 1+1:0:0:0:0, 2+0:0:0:0:0, 1+1:0:0:0:0, 2+0:0:0:0:0, 2+1:0:0:0:0, 3+2:0:0:0:0, 2+3:0:0:0:2, 2+2:0:0:0:1, 6+6:1:1:0:2, 2+0:0:0:0:0, 1+3:0:0:0:0, 2+0:0:0:0:0,  , 2+3:0:0:0:0, 3+5:0:0:0:0, 3+1:0:0:0:1, 5+8:0:0:0:0, 4+4:0:0:0:1, 4+0:0:0:0:0, 5+0:0:0:0:0, 4+1:1:0:0:0, 5+0:0:0:0:0, 5+3:0:0:0:1, 3+5:0:0:0:3, 6+6:0:0:0:0, 3+1:0:0:0:0, 1+3:0:0:0:0, 2+0:0:0:0:0, 1+2:0:0:0:0, 0+1:0:0:0:0, 1+2:0:0:0:0, 3+2:0:0:0:0, 1+1:0:0:0:0, 2+2:0:0:0:0, 2+2:0:0:0:0, 4+2:1:0:0:1, 4+3:0:0:0:0, 5+2:0:1:0:1, 3+0:0:0:0:0, 6+4:1:0:0:2, 8+5:3:0:0:3, 4+2:1:0:0:1, 7+2:1:0:0:1, 3+1:0:0:0:0, 7+2:1:0:0:1, 3+2:0:0:0:0, 5+1:1:0:0:1, 2+0:0:0:0:0, 5+2:1:0:0:1, 4+2:0:0:0:0, 5+1:1:0:0:1, 2+0:0:0:0:0, 5+1:1:0:0:1, 3+1:0:0:0:0, 5+1:1:0:0:1, 2+0:0:0:0:0, 8+3:1:0:0:1, 2+0:0:0:0:0, 7+2:1:0:0:1, 2+0:0:0:0:0, 5+1:1:0:0:1, 2+0:0:0:0:0, 5+1:1:0:0:1, 0+0:0:0:0:0, 812+514:40:7:0:116
Gb major (6b), 4+0:0:0:0:0, 6+1:0:0:0:0, 4+5:0:0:0:0, 1+0:0:0:0:0, 6+1:0:0:0:0, 5+0:0:0:0:0, 3+0:0:0:0:0, 5+0:0:0:0:0, 3+1:0:0:0:0, 2+0:0:0:0:0, 3+1:0:0:0:0, 4+2:2:0:0:2, 3+0:0:0:0:0, 3+1:0:0:0:0, 6+1:0:0:0:1, 8+1:0:0:0:0, 5+1:0:0:0:1, 6+1:0:0:0:0, 4+5:0:0:0:0, 1+1:0:0:0:0, 5+0:0:0:0:0, 4+1:0:1:0:1, 6+0:0:0:0:0, 4+0:0:0:0:0, 5+0:0:0:0:0, 4+0:0:0:0:0, 4+0:0:0:0:0, 5+1:0:0:0:0, 7+2:0:0:0:0, 6+1:0:0:0:1, 4+1:0:0:0:1, 9+3:2:0:0:0, 7+0:0:0:0:0, 8+2:0:0:0:2, 7+2:0:0:0:2, 4+0:0:0:0:0, 7+2:0:0:0:0, 7+1:1:0:0:0, 4+1:0:0:0:0, 7+1:0:0:0:0, 4+1:0:0:0:0, 3+2:0:0:0:0, 5+1:0:0:0:1, 5+3:3:0:0:3, 5+4:2:0:0:0, 5+3:0:0:0:1, 5+3:0:0:0:3, 8+2:1:0:0:0, 4+0:0:0:0:0, 10+2:0:0:0:0, 6+2:0:0:0:0,  , 7+2:0:0:0:0, 8+4:0:1:0:2, 8+2:0:0:0:0, 7+2:0:0:0:0, 7+1:0:0:0:1, 6+0:0:0:0:0, 7+1:0:0:0:0, 6+0:0:0:0:0, 7+0:0:0:0:0, 7+2:0:0:0:2, 4+1:0:0:0:1, 8+2:1:0:0:0, 4+0:0:0:0:0, 6+1:0:0:0:0, 4+3:0:0:0:0, 1+0:0:0:0:0, 5+1:0:0:0:0, 5+0:0:0:0:0, 5+2:0:0:0:0, 5+0:0:0:0:0, 4+0:0:0:0:0, 3+0:0:0:0:0, 4+0:0:0:0:0, 4+3:2:0:0:2, 4+1:0:0:0:0, 3+0:0:0:0:0, 5+1:0:0:0:1, 7+1:0:0:0:0, 6+0:0:0:0:0, 6+0:0:0:0:0, 5+2:0:0:0:0,  , 6+0:0:0:0:0, 6+0:0:0:0:0, 4+1:0:0:0:0, 5+2:1:0:0:1, 6+1:0:0:0:1, 6+0:0:0:0:0, 9+2:1:0:0:0, 6+0:0:0:0:0, 7+0:0:0:0:0, 7+2:1:0:0:2, 6+3:0:0:0:1, 8+2:1:0:0:0, 5+0:0:0:0:0, 7+3:0:0:0:3, 6+0:0:0:0:0,  , 6+2:0:0:0:0, 6+2:0:0:0:2, 5+2:0:0:0:0, 7+1:0:0:0:0, 4+0:0:0:0:0, 3+0:0:0:0:0, 4+0:0:0:0:0, 5+3:3:0:0:3, 7+3:0:1:0:1, 3+0:0:0:0:0, 6+2:0:0:0:2, 7+3:1:0:0:0, 5+0:0:0:0:0, 8+4:1:0:0:2, 6+2:1:0:0:1,  , 7+0:0:0:0:0, 5+0:0:0:0:0, 6+0:0:0:0:0, 6+1:0:0:0:0, 4+0:0:0:0:0, 5+1:0:0:0:0, 6+0:0:0:0:0, 6+0:0:0:0:0, 6+0:0:0:0:0, 6+1:0:0:0:1, 5+1:0:0:0:1, 9+3:2:0:0:0, 6+0:0:0:0:0, 8+3:0:0:0:2, 6+1:0:0:0:1,  , 7+1:0:0:0:1, 4+1:1:0:0:0, 3+0:0:0:0:0, 9+2:0:0:0:0, 6+3:0:0:0:0, 3+0:0:0:0:0, 4+0:0:0:0:0, 6+5:2:0:0:3, 7+1:0:0:0:0, 3+1:0:0:0:0, 6+2:0:0:0:2, 11+3:0:0:0:0, 5+1:1:0:0:1, 8+3:0:0:0:2, 6+0:0:0:0:0, 2+0:0:0:0:0, 5+0:0:0:0:0, 5+0:0:0:0:0, 7+1:0:0:0:0, 5+2:0:0:0:0, 5+0:0:0:0:0, 7+0:0:0:0:0, 7+1:1:0:0:0, 6+0:0:0:0:0, 11+4:0:2:0:2, 7+3:1:0:0:2, 6+2:0:0:0:0, 8+2:1:0:0:0, 4+0:0:0:0:0, 6+2:0:0:0:0, 4+0:0:0:0:0,  , 4+2:0:0:0:0, 4+0:0:0:0:0, 3+0:0:0:0:0, 6+1:0:0:0:0, 3+1:0:0:0:0, 2+0:0:0:0:0, 3+1:0:0:0:0, 5+3:3:0:0:3, 3+1:0:0:0:0, 2+0:0:0:0:0, 5+2:0:0:0:2, 7+1:0:0:0:0, 4+0:0:0:0:0, 6+2:0:0:0:0, 4+2:0:0:0:0, 1+1:0:0:0:0, 4+0:0:0:0:0, 4+1:0:1:0:1, 4+0:0:0:0:0, 4+1:0:0:0:0, 5+0:0:0:0:0, 4+0:0:0:0:0, 4+0:0:0:0:0, 4+0:0:0:0:0, 6+0:0:0:0:0, 6+2:0:0:0:2, 4+1:0:0:0:1, 8+3:2:0:0:1, 4+0:0:0:0:0, 6+2:0:0:0:0, 4+0:0:0:0:0,  , 4+3:0:0:0:0, 4+0:0:0:0:0, 4+1:0:0:0:1, 5+0:0:0:0:0, 3+1:0:0:0:0, 2+0:0:0:0:0, 3+1:0:0:0:0, 4+3:2:0:0:2, 4+1:0:0:0:0, 3+0:0:0:0:0, 5+2:0:0:0:2, 10+2:0:0:0:0, 5+0:0:0:0:0, 6+1:0:0:0:0, 4+1:0:0:0:0, 4+2:0:0:0:0, 5+0:0:0:0:0, 6+0:0:0:0:0, 8+2:0:1:0:1, 4+0:0:0:0:0, 6+0:0:0:0:0, 6+0:0:0:0:0, 7+1:1:0:0:0, 7+1:0:0:0:0, 8+2:0:1:0:2, 7+3:0:0:0:3, 9+3:1:0:0:1, 9+6:3:0:0:2, 8+2:1:0:0:0, 9+3:1:0:0:2, 7+1:0:0:0:0, 8+4:1:0:0:3, 7+1:0:0:0:0, 7+4:1:0:0:3, 5+1:0:0:0:0, 7+3:2:0:0:1, 7+1:0:0:0:1, 7+2:1:0:0:1, 6+1:0:0:0:0, 7+2:1:0:0:1, 6+1:0:0:0:0, 7+2:1:0:0:1, 5+1:0:0:0:0, 9+2:1:0:0:1, 5+1:0:0:0:0, 9+3:1:0:0:2, 5+1:0:0:0:0, 7+2:1:0:0:1, 5+1:0:0:0:0, 7+2:1:0:0:1, 1+0:0:0:0:0, 1310+290:58:8:0:107
F# major (6#), 2+1:0:0:0:0, 2+2:0:0:0:0, 3+0:0:0:0:0, 1+0:0:0:0:0, 4+1:0:0:0:0, 3+1:0:0:0:1, 3+1:0:0:0:1, 5+2:0:0:0:0, 5+5:0:0:0:0, 4+0:0:0:0:0, 5+5:0:0:0:0, 4+4:1:0:0:1, 4+2:0:0:0:0, 5+1:0:0:0:1, 5+5:0:0:0:3, 5+3:0:0:0:1, 2+0:0:0:0:0, 2+2:0:0:0:0, 3+0:0:0:0:0, 1+0:0:0:0:0, 0+0:0:0:0:0, 0+0:0:0:0:0, 2+2:0:0:0:0, 1+1:0:0:0:0, 3+6:0:0:0:0, 2+4:0:0:0:0, 3+0:0:0:0:0, 3+1:0:0:0:0, 5+6:0:1:0:0, 3+3:0:0:0:2, 3+3:0:0:0:1, 7+4:1:0:0:1, 5+3:0:0:0:0, 5+5:0:0:0:0, 4+2:0:0:0:0, 3+2:0:0:0:0, 4+2:0:0:0:0, 6+4:0:0:0:0, 4+1:0:0:0:1, 7+2:0:0:0:1, 5+4:0:0:0:2, 6+1:0:0:0:1, 6+3:0:0:0:2, 6+6:3:0:0:3, 4+1:1:0:0:1, 6+5:3:2:0:5, 4+3:0:0:0:2, 6+6:1:0:0:1, 2+0:0:0:0:0, 5+5:0:0:0:1, 4+1:0:0:0:0,  , 3+2:0:0:0:0, 3+3:1:1:0:1, 5+2:0:0:0:2, 3+3:0:0:0:0, 4+1:0:0:0:0, 2+2:0:0:0:0, 5+2:0:0:0:0, 4+2:0:0:0:0, 4+5:0:0:0:0, 4+4:0:0:0:3, 3+3:0:0:0:1, 6+5:1:0:0:1, 2+0:0:0:0:0, 2+2:0:0:0:0, 3+0:0:0:0:0, 1+0:0:0:0:0, 4+4:0:0:0:0, 4+1:0:0:0:0, 7+3:0:0:0:0, 5+1:0:0:0:0, 5+3:0:0:0:1, 5+0:0:0:0:0, 5+3:0:0:0:2, 5+4:2:0:0:2, 5+5:0:0:0:0, 5+3:0:0:0:1, 4+3:0:0:0:2, 5+3:0:0:0:1, 4+1:0:0:0:0, 2+2:0:0:0:0, 3+0:0:0:0:0,  , 0+0:0:0:0:0, 0+0:0:0:0:0, 2+1:0:0:0:0, 3+2:0:0:0:0, 4+1:0:0:0:0, 3+1:0:0:0:0, 7+3:1:0:0:1, 4+1:0:0:0:0, 4+2:0:0:0:0, 6+6:0:0:0:0, 5+3:0:0:0:1, 6+4:1:0:0:1, 3+1:0:0:0:0, 3+6:0:0:0:0, 4+1:0:0:0:0,  , 4+3:0:0:0:0, 4+4:0:0:0:2, 5+2:0:0:0:1, 7+2:0:0:0:0, 6+5:0:0:0:2, 5+0:0:0:0:0, 7+1:0:0:0:0, 6+0:0:0:0:0, 7+4:2:1:0:1, 5+2:0:0:0:1, 5+5:0:0:0:3, 6+7:0:0:0:2, 3+0:0:0:0:0, 6+6:0:0:0:0, 5+3:0:0:0:0,  , 0+0:0:0:0:0, 0+0:0:0:0:0, 2+1:0:0:0:0, 3+2:0:0:0:1, 2+0:0:0:0:0, 4+2:0:0:0:0, 4+1:0:0:0:0, 4+2:0:0:0:0, 4+7:0:0:0:0, 3+4:0:0:0:2, 4+5:0:0:0:1, 8+5:1:0:0:1, 4+1:0:0:0:0, 4+6:0:0:0:0, 4+1:0:0:0:0,  , 3+4:0:0:0:0, 4+3:1:0:0:1, 3+2:0:0:0:0, 9+5:0:0:0:0, 6+5:0:0:0:2, 5+0:0:0:0:0, 5+4:0:0:0:2, 7+5:1:0:0:1, 7+5:1:0:0:1, 7+3:0:0:0:1, 5+5:0:0:0:3, 8+5:0:0:0:1, 3+1:1:0:0:1, 4+7:0:0:0:0, 4+1:0:0:0:0, 2+0:0:0:0:0, 0+0:0:0:0:0, 0+0:0:0:0:0, 3+1:0:0:0:0, 2+3:0:0:0:0, 3+3:0:0:0:0, 3+2:0:0:0:0, 6+3:0:0:0:0, 4+1:0:0:0:0, 8+6:0:2:0:3, 6+4:0:0:0:2, 4+2:0:0:0:1, 6+4:1:0:0:1, 2+0:0:0:0:0, 2+4:0:0:0:0, 3+0:0:0:0:0,  , 3+1:0:0:0:0, 3+2:0:0:0:2, 3+1:0:0:0:1, 6+2:0:0:0:0, 5+2:0:0:0:0, 4+0:0:0:0:0, 4+3:0:0:0:1, 5+3:1:0:0:1, 4+3:0:0:0:0, 4+1:0:0:0:1, 4+3:0:0:0:2, 5+4:0:0:0:1, 2+0:0:0:0:0, 2+3:0:0:0:0, 3+0:0:0:0:0, 1+0:0:0:0:0, 0+0:0:0:0:0, 0+0:0:0:0:0, 2+1:0:0:0:0, 1+1:0:0:0:0, 2+0:0:0:0:0, 2+1:0:0:0:0, 3+0:0:0:0:0, 3+1:0:0:0:0, 4+5:0:0:0:0, 3+3:0:0:0:2, 3+2:0:0:0:1, 7+6:1:1:0:2, 2+0:0:0:0:0, 2+3:0:0:0:0, 3+0:0:0:0:0,  , 3+3:0:0:0:0, 3+2:0:0:0:2, 3+1:0:0:0:1, 5+1:0:0:0:0, 4+4:0:0:0:1, 4+0:0:0:0:0, 5+5:0:0:0:0, 4+3:1:0:0:1, 6+4:0:0:0:0, 5+3:0:0:0:1, 4+4:0:0:0:2, 7+5:0:0:0:1, 3+1:0:0:0:0, 2+2:0:0:0:0, 3+0:0:0:0:0, 2+2:0:0:0:0, 0+0:0:0:0:0, 0+0:0:0:0:0, 4+2:0:1:0:1, 1+1:0:0:0:0, 3+2:0:0:0:0, 3+2:0:0:0:0, 5+2:1:0:0:1, 5+3:0:0:0:0, 6+2:0:1:0:1, 4+0:0:0:0:0, 7+4:1:0:0:2, 9+5:3:0:0:3, 5+2:1:0:0:1, 8+2:1:0:0:1, 4+1:0:0:0:0, 8+2:1:0:0:1, 4+2:0:0:0:0, 6+1:1:0:0:1, 3+0:0:0:0:0, 6+2:1:0:0:1, 5+2:0:0:0:0, 6+1:1:0:0:1, 3+0:0:0:0:0, 6+1:1:0:0:1, 4+1:0:0:0:0, 6+1:1:0:0:1, 3+0:0:0:0:0, 9+3:1:0:0:1, 3+0:0:0:0:0, 8+2:1:0:0:1, 3+0:0:0:0:0, 6+1:1:0:0:1, 3+0:0:0:0:0, 6+1:1:0:0:1, 1+0:0:0:0:0, 954+533:44:10:0:132
Eb minor (6b), 4+0:0:0:0:0, 6+1:0:0:0:0, 4+0:0:0:0:0, 1+0:0:0:0:0, 6+1:0:0:0:0, 5+0:0:0:0:0, 3+0:0:0:0:0, 5+0:0:0:0:0, 3+1:0:0:0:0, 2+0:0:0:0:0, 3+1:0:0:0:0, 4+2:2:0:0:2, 3+4:0:0:0:0, 3+1:0:0:0:0, 6+1:0:0:0:1, 8+1:0:0:0:0, 5+1:0:0:0:1, 6+1:0:0:0:0, 4+5:0:0:0:0, 1+1:0:0:0:0, 5+0:0:0:0:0, 4+1:0:1:0:1, 6+0:0:0:0:0, 4+0:0:0:0:0, 5+0:0:0:0:0, 4+0:0:0:0:0, 4+0:0:0:0:0, 5+1:0:0:0:0, 7+2:0:0:0:0, 6+1:0:0:0:1, 4+1:0:0:0:1, 9+3:2:0:0:0, 7+0:0:0:0:0, 8+2:0:0:0:2, 7+2:0:0:0:2, 4+0:0:0:0:0, 7+2:0:0:0:0, 7+1:1:0:0:0, 4+1:0:0:0:0, 7+1:0:0:0:0, 4+1:0:0:0:0, 3+2:0:0:0:0, 5+1:0:0:0:1, 5+3:3:0:0:3, 5+4:2:0:0:0, 5+3:0:0:0:1, 5+3:0:0:0:3, 8+2:1:0:0:0, 4+0:0:0:0:0, 10+2:0:0:0:0, 6+2:0:0:0:0,  , 7+2:0:0:0:0, 8+4:0:1:0:2, 8+2:0:0:0:0, 7+2:0:0:0:0, 7+1:0:0:0:1, 6+0:0:0:0:0, 7+1:0:0:0:0, 6+0:0:0:0:0, 7+0:0:0:0:0, 7+2:0:0:0:2, 4+1:0:0:0:1, 8+2:1:0:0:0, 4+0:0:0:0:0, 6+1:0:0:0:0, 4+3:0:0:0:0, 1+0:0:0:0:0, 5+1:0:0:0:0, 5+0:0:0:0:0, 5+2:0:0:0:0, 5+0:0:0:0:0, 4+0:0:0:0:0, 3+0:0:0:0:0, 4+0:0:0:0:0, 4+3:2:0:0:2, 4+1:0:0:0:0, 3+0:0:0:0:0, 5+1:0:0:0:1, 7+1:0:0:0:0, 6+0:0:0:0:0, 6+0:0:0:0:0, 5+2:0:0:0:0,  , 6+0:0:0:0:0, 6+0:0:0:0:0, 4+1:0:0:0:0, 5+2:1:0:0:1, 6+1:0:0:0:1, 6+0:0:0:0:0, 9+2:1:0:0:0, 6+0:0:0:0:0, 7+0:0:0:0:0, 7+2:1:0:0:2, 6+3:0:0:0:1, 8+2:1:0:0:0, 5+0:0:0:0:0, 7+3:0:0:0:3, 6+0:0:0:0:0,  , 6+2:0:0:0:0, 6+2:0:0:0:2, 5+2:0:0:0:0, 7+1:0:0:0:0, 4+0:0:0:0:0, 3+0:0:0:0:0, 4+0:0:0:0:0, 5+3:3:0:0:3, 7+4:0:1:0:0, 3+0:0:0:0:0, 6+2:0:0:0:2, 7+3:1:0:0:0, 5+0:0:0:0:0, 8+4:1:0:0:2, 6+2:1:0:0:1,  , 7+0:0:0:0:0, 5+0:0:0:0:0, 6+0:0:0:0:0, 6+1:0:0:0:0, 4+0:0:0:0:0, 5+1:0:0:0:0, 6+0:0:0:0:0, 6+0:0:0:0:0, 6+0:0:0:0:0, 6+1:0:0:0:1, 5+1:0:0:0:1, 9+3:2:0:0:0, 6+0:0:0:0:0, 8+3:0:0:0:2, 6+1:0:0:0:1,  , 7+1:0:0:0:1, 4+1:1:0:0:0, 3+0:0:0:0:0, 9+2:0:0:0:0, 6+1:0:0:0:1, 3+0:0:0:0:0, 4+0:0:0:0:0, 6+5:2:0:0:3, 7+3:0:0:0:0, 3+1:0:0:0:0, 6+2:0:0:0:2, 11+3:0:0:0:0, 5+1:1:0:0:1, 8+3:0:0:0:2, 6+0:0:0:0:0, 2+0:0:0:0:0, 5+0:0:0:0:0, 5+0:0:0:0:0, 7+1:0:0:0:0, 5+2:0:0:0:0, 5+0:0:0:0:0, 7+0:0:0:0:0, 7+1:1:0:0:0, 6+0:0:0:0:0, 11+4:0:2:0:2, 7+3:1:0:0:2, 6+2:0:0:0:0, 8+2:1:0:0:0, 4+0:0:0:0:0, 6+2:0:0:0:0, 4+0:0:0:0:0,  , 4+2:0:0:0:0, 4+0:0:0:0:0, 3+0:0:0:0:0, 6+1:0:0:0:0, 3+1:0:0:0:0, 2+0:0:0:0:0, 3+1:0:0:0:0, 5+3:3:0:0:3, 3+1:0:0:0:0, 2+0:0:0:0:0, 5+2:0:0:0:2, 7+1:0:0:0:0, 4+0:0:0:0:0, 6+2:0:0:0:0, 4+2:0:0:0:0, 1+1:0:0:0:0, 4+0:0:0:0:0, 4+1:0:1:0:1, 4+0:0:0:0:0, 4+1:0:0:0:0, 5+0:0:0:0:0, 4+0:0:0:0:0, 4+0:0:0:0:0, 4+0:0:0:0:0, 6+0:0:0:0:0, 6+2:0:0:0:2, 4+1:0:0:0:1, 8+3:2:0:0:1, 4+0:0:0:0:0, 6+2:0:0:0:0, 4+0:0:0:0:0,  , 4+3:0:0:0:0, 4+0:0:0:0:0, 4+1:0:0:0:1, 5+0:0:0:0:0, 3+1:0:0:0:0, 2+0:0:0:0:0, 3+1:0:0:0:0, 4+3:2:0:0:2, 4+1:0:0:0:0, 3+0:0:0:0:0, 5+2:0:0:0:2, 10+2:0:0:0:0, 5+0:0:0:0:0, 6+1:0:0:0:0, 4+1:0:0:0:0, 4+2:0:0:0:0, 5+0:0:0:0:0, 6+0:0:0:0:0, 8+2:0:1:0:1, 4+0:0:0:0:0, 6+0:0:0:0:0, 6+0:0:0:0:0, 7+1:1:0:0:0, 7+1:0:0:0:0, 8+2:0:1:0:2, 7+3:0:0:0:3, 9+3:1:0:0:1, 9+6:3:0:0:2, 8+2:1:0:0:0, 9+3:1:0:0:2, 7+1:0:0:0:0, 8+4:1:0:0:3, 7+1:0:0:0:0, 7+4:1:0:0:3, 5+1:0:0:0:0, 7+3:2:0:0:1, 7+1:0:0:0:1, 7+2:1:0:0:1, 6+1:0:0:0:0, 7+2:1:0:0:1, 6+1:0:0:0:0, 7+2:1:0:0:1, 5+1:0:0:0:0, 9+2:1:0:0:1, 5+1:0:0:0:0, 9+3:1:0:0:2, 5+1:0:0:0:0, 7+2:1:0:0:1, 5+1:0:0:0:0, 7+2:1:0:0:1, 1+0:0:0:0:0, 1310+290:58:8:0:107
D# minor (6#), 2+1:0:0:0:0, 2+2:0:0:0:0, 3+0:0:0:0:0, 1+0:0:0:0:0, 4+1:0:0:0:0, 3+2:0:0:0:0, 3+5:0:0:0:0, 5+2:0:0:0:0, 5+5:0:0:0:0, 4+0:0:0:0:0, 5+5:0:0:0:0, 4+4:1:0:0:1, 4+2:0:0:0:0, 5+1:0:0:0:1, 5+5:0:0:0:3, 5+3:0:0:0:1, 2+0:0:0:0:0, 2+2:0:0:0:0, 3+0:0:0:0:0, 1+0:0:0:0:0, 0+1:0:0:0:0, 0+7:0:0:0:0, 2+2:0:0:0:0, 1+2:0:0:0:0, 3+6:0:0:0:0, 2+4:0:0:0:0, 3+0:0:0:0:0, 3+1:0:0:0:0, 6+3:0:0:0:0, 3+3:0:0:0:2, 3+3:0:0:0:1, 7+4:1:0:0:1, 5+3:0:0:0:0, 5+5:0:0:0:0, 4+2:0:0:0:0, 3+2:0:0:0:0, 4+2:0:0:0:0, 6+3:0:0:0:0, 4+4:0:0:0:0, 7+2:0:0:0:1, 5+4:0:0:0:2, 6+1:0:0:0:1, 6+3:0:0:0:2, 6+6:3:0:0:3, 4+1:1:0:0:1, 6+2:0:0:0:1, 4+3:0:0:0:2, 6+6:1:0:0:1, 2+0:0:0:0:0, 5+5:0:0:0:1, 4+2:0:0:0:0,  , 4+2:0:0:0:1, 3+5:1:1:0:3, 5+2:0:0:0:2, 3+3:0:0:0:0, 4+1:0:0:0:0, 2+2:0:0:0:0, 5+2:0:0:0:0, 4+2:0:0:0:0, 4+5:0:0:0:0, 4+4:0:0:0:3, 3+3:0:0:0:1, 6+5:1:0:0:1, 2+0:0:0:0:0, 2+2:0:0:0:0, 3+0:0:0:0:0, 1+0:0:0:0:0, 4+4:0:0:0:0, 4+1:0:0:0:0, 7+3:0:0:0:0, 5+1:0:0:0:0, 5+3:0:0:0:1, 5+0:0:0:0:0, 5+3:0:0:0:2, 5+4:2:0:0:2, 5+5:0:0:0:0, 5+3:0:0:0:1, 4+3:0:0:0:2, 5+3:0:0:0:1, 4+3:0:0:0:0, 2+1:0:0:0:0, 5+2:0:0:0:2,  , 0+1:0:0:0:0, 0+0:0:0:0:0, 2+1:0:0:0:0, 3+2:0:0:0:0, 4+1:0:0:0:0, 3+1:0:0:0:0, 7+3:1:0:0:1, 4+1:0:0:0:0, 4+2:0:0:0:0, 6+1:0:0:0:0, 5+3:0:0:0:1, 6+4:1:0:0:1, 3+1:0:0:0:0, 3+2:0:0:0:1, 4+4:0:0:0:0,  , 4+3:0:0:0:0, 4+4:0:0:0:2, 5+5:0:0:0:0, 7+2:0:0:0:0, 6+5:0:0:0:2, 5+0:0:0:0:0, 7+1:0:0:0:0, 6+0:0:0:0:0, 7+4:2:1:0:1, 5+2:0:0:0:1, 5+5:0:0:0:3, 6+7:0:0:0:2, 3+0:0:0:0:0, 6+6:0:0:0:0, 5+3:0:0:0:0,  , 0+0:0:0:0:0, 0+0:0:0:0:0, 2+1:0:0:0:0, 3+2:0:0:0:1, 2+0:0:0:0:0, 4+2:0:0:0:0, 4+1:0:0:0:0, 4+2:0:0:0:0, 4+7:0:0:0:0, 3+4:0:0:0:2, 4+5:0:0:0:1, 8+5:1:0:0:1, 4+1:0:0:0:0, 5+4:0:0:0:1, 4+4:0:0:0:0,  , 3+2:0:0:0:1, 4+3:1:0:0:1, 3+2:0:0:0:0, 9+5:0:0:0:0, 6+5:0:0:0:2, 5+0:0:0:0:0, 5+4:0:0:0:2, 7+5:1:0:0:1, 7+5:1:0:0:1, 7+3:0:0:0:1, 5+5:0:0:0:3, 8+5:0:0:0:1, 3+1:1:0:0:1, 4+7:0:0:0:0, 4+1:0:0:0:0, 2+0:0:0:0:0, 0+0:0:0:0:0, 0+0:0:0:0:0, 3+1:0:0:0:0, 2+1:0:0:0:0, 3+3:0:0:0:0, 3+2:0:0:0:0, 6+3:0:0:0:0, 4+1:0:0:0:0, 8+6:0:2:0:3, 6+5:0:0:0:2, 4+2:0:0:0:1, 6+4:1:0:0:1, 2+0:0:0:0:0, 2+4:0:0:0:0, 3+0:0:0:0:0,  , 3+1:0:0:0:0, 3+1:0:0:0:0, 3+1:0:0:0:0, 6+2:0:0:0:0, 5+2:0:0:0:0, 4+0:0:0:0:0, 4+3:0:0:0:1, 5+3:1:0:0:1, 4+3:0:0:0:0, 4+1:0:0:0:1, 4+3:0:0:0:2, 5+4:0:0:0:1, 2+0:0:0:0:0, 2+3:0:0:0:0, 3+0:0:0:0:0, 1+0:0:0:0:0, 0+0:0:0:0:0, 0+0:0:0:0:0, 2+1:0:0:0:0, 1+1:0:0:0:0, 2+0:0:0:0:0, 2+1:0:0:0:0, 3+0:0:0:0:0, 3+1:0:0:0:0, 4+5:0:0:0:0, 3+3:0:0:0:2, 3+2:0:0:0:1, 7+6:1:1:0:2, 2+0:0:0:0:0, 2+3:0:0:0:0, 3+0:0:0:0:0,  , 3+3:0:0:0:0, 3+2:0:0:0:0, 3+4:0:0:0:1, 5+1:0:0:0:0, 4+4:0:0:0:1, 4+0:0:0:0:0, 5+5:0:0:0:0, 4+3:1:0:0:1, 6+4:0:0:0:0, 5+3:0:0:0:1, 4+4:0:0:0:2, 7+5:0:0:0:1, 3+1:0:0:0:0, 2+2:0:0:0:0, 3+0:0:0:0:0, 3+0:0:0:0:0, 0+0:0:0:0:0, 0+2:0:0:0:0, 4+3:0:1:0:0, 1+1:0:0:0:0, 3+2:0:0:0:0, 3+2:0:0:0:0, 5+2:1:0:0:1, 5+3:0:0:0:0, 6+2:0:1:0:1, 4+0:0:0:0:0, 7+4:1:0:0:2, 9+5:3:0:0:3, 5+2:1:0:0:1, 8+2:1:0:0:1, 4+1:0:0:0:0, 8+2:1:0:0:1, 4+2:0:0:0:0, 6+1:1:0:0:1, 3+0:0:0:0:0, 6+2:1:0:0:1, 5+2:0:0:0:0, 6+1:1:0:0:1, 3+0:0:0:0:0, 6+1:1:0:0:1, 4+1:0:0:0:0, 6+1:1:0:0:1, 3+0:0:0:0:0, 9+3:1:0:0:1, 3+0:0:0:0:0, 8+2:1:0:0:1, 3+0:0:0:0:0, 6+1:1:0:0:1, 3+0:0:0:0:0, 6+1:1:0:0:1, 1+0:0:0:0:0, 960+548:41:7:0:126
Cb major (7b), 4+0:0:0:0:0, 6+1:0:0:0:0, 4+5:0:0:0:0, 1+0:0:0:0:0, 6+0:0:0:0:0, 5+0:0:0:0:0, 4+0:0:0:0:0, 6+1:0:0:0:0, 3+0:0:0:0:0, 3+0:0:0:0:0, 3+0:0:0:0:0, 4+2:2:0:0:2, 3+0:0:0:0:0, 4+1:0:0:0:0, 7+1:0:0:0:1, 8+1:0:0:0:0, 5+1:0:0:0:1, 6+1:0:0:0:0, 4+0:0:0:0:0, 1+0:0:0:0:0, 5+0:0:0:0:0, 4+0:0:0:0:0, 6+2:0:0:0:0, 4+1:0:0:0:0, 5+0:0:0:0:0, 4+1:0:0:0:0, 4+0:0:0:0:0, 5+0:0:0:0:0, 7+2:0:0:0:0, 6+1:0:0:0:1, 5+1:0:0:0:1, 9+3:2:0:0:0, 7+0:0:0:0:0, 8+2:0:0:0:2, 7+2:0:0:0:2, 4+0:0:0:0:0, 7+0:0:0:0:0, 7+1:1:0:0:0, 5+1:0:0:0:0, 8+3:0:0:0:0, 4+0:0:0:0:0, 4+2:0:0:0:0, 6+1:0:0:0:1, 5+3:3:0:0:3, 5+3:3:0:0:3, 6+3:0:0:0:1, 6+3:0:0:0:3, 8+4:1:0:0:0, 4+0:0:0:0:0, 10+4:0:0:0:0, 6+0:0:0:0:0,  , 7+2:0:0:0:0, 7+3:1:1:0:1, 8+2:0:0:0:0, 7+2:0:0:0:0, 7+1:0:0:0:1, 6+0:0:0:0:0, 7+1:0:0:0:0, 6+0:0:0:0:0, 7+0:0:0:0:0, 7+2:0:0:0:2, 5+1:0:0:0:1, 8+2:1:0:0:0, 4+0:0:0:0:0, 6+1:0:0:0:0, 4+3:0:0:0:0, 1+0:0:0:0:0, 5+1:0:0:0:0, 5+0:0:0:0:0, 6+2:0:0:0:0, 6+1:0:0:0:0, 4+0:0:0:0:0, 4+0:0:0:0:0, 4+0:0:0:0:0, 4+3:2:0:0:2, 4+0:0:0:0:0, 4+2:0:0:0:0, 6+1:0:0:0:1, 7+1:0:0:0:0, 6+0:0:0:0:0, 6+1:0:0:0:0, 5+1:0:0:0:1,  , 6+0:0:0:0:0, 6+0:0:0:0:0, 4+1:0:0:0:0, 5+2:1:0:0:1, 6+1:0:0:0:1, 6+2:0:0:0:0, 9+2:1:0:0:0, 6+0:0:0:0:0, 7+0:0:0:0:0, 7+2:1:0:0:2, 7+3:0:0:0:1, 8+2:1:0:0:0, 5+0:0:0:0:0, 7+3:0:0:0:3, 6+0:0:0:0:0,  , 6+0:0:0:0:0, 6+2:0:0:0:2, 6+2:0:0:0:0, 8+1:0:0:0:0, 5+0:0:0:0:0, 4+0:0:0:0:0, 5+0:0:0:0:0, 5+3:3:0:0:3, 7+3:0:1:0:1, 4+2:0:0:0:0, 7+2:0:0:0:2, 7+3:1:0:0:0, 5+0:0:0:0:0, 8+4:1:0:0:2, 6+1:1:0:0:1,  , 7+1:0:0:0:1, 5+0:0:0:0:0, 6+0:0:0:0:0, 6+3:0:0:0:3, 4+0:0:0:0:0, 6+3:0:0:0:0, 6+0:0:0:0:0, 6+0:0:0:0:0, 6+0:0:0:0:0, 6+1:0:0:0:1, 6+1:0:0:0:1, 9+3:2:0:0:0, 6+0:0:0:0:0, 8+3:0:0:0:2, 6+1:0:0:0:1,  , 7+1:0:0:0:1, 4+1:1:0:0:0, 4+0:0:0:0:0, 10+2:0:0:0:0, 6+3:0:0:0:0, 4+0:0:0:0:0, 4+0:0:0:0:0, 6+5:2:0:0:3, 7+1:1:0:0:1, 4+1:0:0:0:1, 7+2:0:0:0:2, 11+3:0:0:0:0, 5+1:1:0:0:1, 8+3:0:0:0:2, 6+0:0:0:0:0, 2+0:0:0:0:0, 5+0:0:0:0:0, 5+0:0:0:0:0, 7+1:0:0:0:0, 5+2:0:0:0:0, 5+0:0:0:0:0, 7+3:0:0:0:0, 7+1:1:0:0:0, 6+0:0:0:0:0, 11+4:0:2:0:2, 7+3:1:0:0:2, 7+2:0:0:0:0, 8+2:1:0:0:0, 4+0:0:0:0:0, 6+2:0:0:0:0, 4+0:0:0:0:0,  , 4+0:0:0:0:0, 4+0:0:0:0:0, 4+0:0:0:0:0, 7+4:0:0:0:0, 3+0:0:0:0:0, 3+0:0:0:0:0, 3+0:0:0:0:0, 5+3:3:0:0:3, 3+0:0:0:0:0, 3+2:0:0:0:0, 6+2:0:0:0:2, 7+1:0:0:0:0, 4+0:0:0:0:0, 6+2:0:0:0:0, 4+2:0:0:0:0, 1+1:0:0:0:0, 4+0:0:0:0:0, 4+1:0:1:0:1, 4+0:0:0:0:0, 4+1:0:0:0:0, 5+0:0:0:0:0, 4+0:0:0:0:0, 4+0:0:0:0:0, 4+0:0:0:0:0, 6+0:0:0:0:0, 6+2:0:0:0:2, 5+1:0:0:0:1, 9+4:1:1:0:1, 4+0:0:0:0:0, 6+2:0:0:0:0, 4+0:0:0:0:0,  , 4+0:0:0:0:0, 4+0:0:0:0:0, 5+1:0:0:0:1, 6+2:0:0:0:0, 3+0:0:0:0:0, 3+0:0:0:0:0, 3+0:0:0:0:0, 4+3:2:0:0:2, 5+0:0:0:0:0, 4+2:0:0:0:0, 6+2:0:0:0:2, 10+2:0:0:0:0, 5+0:0:0:0:0, 6+1:0:0:0:0, 4+0:0:0:0:0, 4+2:0:0:0:0, 5+0:0:0:0:0, 6+0:0:0:0:0, 8+2:0:1:0:1, 4+1:0:0:0:0, 6+0:0:0:0:0, 6+3:0:0:0:0, 7+1:1:0:0:0, 7+1:0:0:0:0, 8+2:0:1:0:2, 7+3:0:0:0:3, 9+3:1:0:0:1, 9+6:3:0:0:2, 8+1:1:0:0:1, 9+3:1:0:0:2, 7+0:0:0:0:0, 8+4:1:0:0:3, 7+0:0:0:0:0, 7+4:1:0:0:3, 5+0:0:0:0:0, 7+3:2:0:0:1, 7+1:0:0:0:1, 7+2:1:0:0:1, 6+0:0:0:0:0, 7+2:1:0:0:1, 6+0:0:0:0:0, 7+2:1:0:0:1, 5+0:0:0:0:0, 9+2:1:0:0:1, 5+0:0:0:0:0, 9+3:1:0:0:2, 5+0:0:0:0:0, 7+2:1:0:0:1, 5+0:0:0:0:0, 7+6:3:0:0:1, 1+0:0:0:0:0, 1356+290:62:8:0:116
C# major (7#), 3+1:0:0:0:0, 3+7:0:0:0:0, 4+0:0:0:0:0, 1+0:0:0:0:0, 5+1:0:0:0:0, 4+2:0:0:0:0, 4+5:0:0:0:0, 6+2:0:0:0:0, 5+0:0:0:0:0, 4+1:0:0:0:0, 5+0:0:0:0:0, 4+4:1:0:0:1, 4+2:0:0:0:0, 5+1:0:0:0:1, 6+5:0:0:0:3, 6+4:0:0:0:0, 3+2:0:0:0:0, 3+0:0:0:0:0, 4+1:0:0:0:0, 1+0:0:0:0:0, 1+1:0:0:0:0, 1+1:0:0:0:0, 3+4:0:0:0:0, 2+2:0:0:0:0, 4+6:0:0:0:0, 3+4:0:0:0:0, 4+0:0:0:0:0, 3+1:0:0:0:0, 7+3:0:0:0:0, 4+3:0:0:0:2, 4+3:0:0:0:1, 8+4:1:0:0:1, 6+1:0:0:0:0, 6+5:0:0:0:0, 5+2:0:0:0:0, 3+2:0:0:0:0, 5+2:0:0:0:0, 7+3:0:0:0:0, 5+4:0:0:0:0, 8+2:0:0:0:1, 5+4:0:0:0:2, 6+1:0:0:0:1, 7+3:0:0:0:2, 6+6:3:0:0:3, 4+6:1:0:0:1, 7+2:0:0:0:1, 5+3:0:0:0:2, 6+6:1:0:0:1, 3+0:0:0:0:0, 5+2:0:0:0:1, 5+2:0:0:0:0,  , 5+3:0:0:0:1, 4+4:1:1:0:2, 5+2:0:0:0:2, 4+3:0:0:0:0, 5+1:0:0:0:0, 3+2:0:0:0:0, 6+2:0:0:0:0, 5+5:0:0:0:0, 5+5:0:0:0:0, 5+4:0:0:0:3, 4+3:0:0:0:1, 6+5:1:0:0:1, 3+2:0:0:0:0, 3+0:0:0:0:0, 4+1:0:0:0:0, 1+0:0:0:0:0, 4+5:0:0:0:0, 4+1:0:0:0:0, 8+3:0:0:0:0, 6+1:0:0:0:0, 5+3:0:0:0:1, 5+0:0:0:0:0, 5+0:0:0:0:0, 5+0:0:0:0:0, 5+0:0:0:0:0, 5+3:0:0:0:1, 5+3:0:0:0:2, 5+3:0:0:0:1, 5+3:0:0:0:0, 3+1:0:0:0:0, 6+2:0:0:0:2,  , 1+0:0:0:0:0, 1+0:0:0:0:0, 2+1:0:0:0:0, 4+2:0:0:0:0, 5+1:0:0:0:0, 4+1:0:0:0:0, 8+3:1:0:0:1, 4+4:0:0:0:0, 5+6:0:0:0:0, 7+5:0:0:0:3, 6+3:0:0:0:1, 6+4:1:0:0:1, 4+1:0:0:0:0, 4+2:0:0:0:1, 5+4:0:0:0:0,  , 4+3:0:0:0:0, 5+4:0:0:0:2, 6+5:0:0:0:0, 8+2:0:0:0:0, 6+5:0:0:0:2, 5+0:0:0:0:0, 7+1:0:0:0:0, 6+0:0:0:0:0, 7+4:2:1:0:1, 5+2:0:0:0:1, 6+5:0:0:0:3, 6+7:0:0:0:2, 4+2:0:0:0:0, 8+4:0:0:0:1, 6+3:0:0:0:0,  , 1+0:0:0:0:0, 1+0:0:0:0:0, 3+1:0:0:0:0, 4+2:0:0:0:1, 3+0:0:0:0:0, 5+2:0:0:0:0, 5+1:0:0:0:0, 5+3:0:0:0:0, 5+7:0:0:0:0, 4+4:0:0:0:2, 5+5:0:0:0:1, 9+5:1:0:0:1, 5+1:0:0:0:0, 5+4:1:1:0:2, 5+4:0:0:0:0,  , 4+2:0:0:0:1, 4+3:1:0:0:1, 4+2:0:0:0:0, 10+5:0:0:0:0, 7+5:0:0:0:2, 5+0:0:0:0:0, 5+4:0:0:0:2, 7+5:2:0:0:2, 7+5:1:0:0:1, 7+3:0:0:0:1, 6+5:0:0:0:3, 9+5:0:0:0:1, 5+2:0:0:0:0, 5+2:0:0:0:1, 5+2:0:0:0:0, 2+0:0:0:0:0, 1+0:0:0:0:0, 1+0:0:0:0:0, 4+1:0:0:0:0, 3+1:0:0:0:0, 4+3:0:0:0:0, 4+2:0:0:0:0, 7+3:0:0:0:0, 4+1:0:0:0:0, 9+6:0:2:0:3, 7+5:0:0:0:2, 5+2:0:0:0:1, 6+4:1:0:0:1, 3+1:0:0:0:0, 3+0:0:0:0:0, 4+2:0:0:0:0,  , 3+1:0:0:0:0, 3+1:0:0:0:0, 4+1:0:0:0:0, 7+2:0:0:0:0, 5+2:0:0:0:0, 4+0:0:0:0:0, 4+3:0:0:0:1, 5+3:1:0:0:1, 4+3:0:0:0:0, 4+1:0:0:0:1, 5+3:0:0:0:2, 5+3:0:0:0:0, 3+1:0:0:0:0, 3+0:0:0:0:0, 4+2:0:0:0:0, 1+0:0:0:0:0, 1+2:0:0:0:0, 1+2:0:0:0:0, 2+0:0:0:0:0, 2+1:0:0:0:0, 3+0:0:0:0:0, 3+1:0:0:0:0, 4+0:0:0:0:0, 3+3:0:0:0:0, 5+5:0:0:0:0, 4+3:0:0:0:2, 4+2:0:0:0:1, 6+6:1:1:0:2, 3+1:0:0:0:0, 3+0:0:0:0:0, 4+1:0:0:0:0,  , 3+1:0:0:0:0, 3+2:0:0:0:0, 4+4:0:0:0:1, 6+1:0:0:0:0, 4+4:0:0:0:1, 4+0:0:0:0:0, 5+0:0:0:0:0, 4+3:1:0:0:1, 6+4:0:0:0:0, 5+3:0:0:0:1, 5+4:0:0:0:2, 8+5:0:0:0:1, 4+1:0:0:0:0, 3+1:0:0:0:0, 4+0:0:0:0:0, 3+2:0:0:0:0, 1+0:0:0:0:0, 1+0:0:0:0:0, 5+2:0:0:0:0, 2+1:0:0:0:0, 4+2:0:0:0:0, 4+2:0:0:0:0, 6+2:1:0:0:1, 6+3:0:0:0:0, 7+2:0:1:0:1, 5+0:0:0:0:0, 8+4:1:0:0:2, 9+5:3:0:0:3, 6+2:1:0:0:1, 8+2:1:0:0:1, 5+1:0:0:0:0, 8+2:1:0:0:1, 5+2:0:0:0:0, 6+1:1:0:0:1, 4+0:0:0:0:0, 6+2:1:0:0:1, 6+2:0:0:0:0, 6+1:1:0:0:1, 4+0:0:0:0:0, 6+1:1:0:0:1, 5+1:0:0:0:0, 6+1:1:0:0:1, 4+0:0:0:0:0, 9+3:1:0:0:1, 4+0:0:0:0:0, 8+2:1:0:0:1, 4+0:0:0:0:0, 6+1:1:0:0:1, 4+0:0:0:0:0, 6+1:1:0:0:1, 1+0:0:0:0:0, 1117+536:40:7:0:125
Ab minor (7b), 4+0:0:0:0:0, 6+1:0:0:0:0, 4+5:0:0:0:0, 1+0:0:0:0:0, 6+0:0:0:0:0, 5+0:0:0:0:0, 4+0:0:0:0:0, 6+1:0:0:0:0, 3+0:0:0:0:0, 3+0:0:0:0:0, 3+1:0:0:0:0, 4+2:2:0:0:2, 3+0:0:0:0:0, 4+1:0:0:0:0, 7+1:0:0:0:1, 8+1:0:0:0:0, 5+1:0:0:0:1, 6+1:0:0:0:0, 4+0:0:0:0:0, 1+0:0:0:0:0, 5+0:0:0:0:0, 4+0:0:0:0:0, 6+2:0:0:0:0, 4+1:0:0:0:0, 5+0:0:0:0:0, 4+1:0:0:0:0, 4+0:0:0:0:0, 5+0:0:0:0:0, 7+2:0:0:0:0, 6+1:0:0:0:1, 5+1:0:0:0:1, 9+3:2:0:0:0, 7+0:0:0:0:0, 8+2:0:0:0:2, 7+2:0:0:0:2, 4+0:0:0:0:0, 7+0:0:0:0:0, 7+1:1:0:0:0, 5+1:0:0:0:0, 8+3:0:0:0:0, 4+0:0:0:0:0, 4+2:0:0:0:0, 6+1:0:0:0:1, 5+3:3:0:0:3, 5+3:3:0:0:3, 6+3:0:0:0:1, 6+3:0:0:0:3, 8+4:1:0:0:0, 4+0:0:0:0:0, 10+4:0:0:0:0, 6+0:0:0:0:0,  , 7+2:0:0:0:0, 7+3:1:1:0:1, 8+2:0:0:0:0, 7+2:0:0:0:0, 7+1:0:0:0:1, 6+0:0:0:0:0, 7+1:0:0:0:0, 6+0:0:0:0:0, 7+0:0:0:0:0, 7+2:0:0:0:2, 5+1:0:0:0:1, 8+2:1:0:0:0, 4+0:0:0:0:0, 6+1:0:0:0:0, 4+3:0:0:0:0, 1+0:0:0:0:0, 5+1:0:0:0:0, 5+0:0:0:0:0, 6+2:0:0:0:0, 6+1:0:0:0:0, 4+0:0:0:0:0, 4+0:0:0:0:0, 4+0:0:0:0:0, 4+3:2:0:0:2, 4+1:0:0:0:0, 4+0:0:0:0:0, 6+1:0:0:0:1, 7+1:0:0:0:0, 6+0:0:0:0:0, 6+1:0:0:0:0, 5+1:0:0:0:1,  , 6+0:0:0:0:0, 6+0:0:0:0:0, 4+1:0:0:0:0, 5+2:1:0:0:1, 6+1:0:0:0:1, 6+2:0:0:0:0, 9+2:1:0:0:0, 6+0:0:0:0:0, 7+0:0:0:0:0, 7+2:1:0:0:2, 7+3:0:0:0:1, 8+2:1:0:0:0, 5+0:0:0:0:0, 7+3:0:0:0:3, 6+0:0:0:0:0,  , 6+0:0:0:0:0, 6+2:0:0:0:2, 6+2:0:0:0:0, 8+1:0:0:0:0, 5+0:0:0:0:0, 4+0:0:0:0:0, 5+0:0:0:0:0, 5+3:3:0:0:3, 7+3:0:1:0:1, 4+0:0:0:0:0, 7+2:0:0:0:2, 7+3:1:0:0:0, 5+0:0:0:0:0, 8+4:1:0:0:2, 6+1:1:0:0:1,  , 7+1:0:0:0:1, 5+0:0:0:0:0, 6+0:0:0:0:0, 6+3:0:0:0:3, 4+0:0:0:0:0, 6+3:0:0:0:0, 6+0:0:0:0:0, 6+0:0:0:0:0, 6+0:0:0:0:0, 6+1:0:0:0:1, 6+1:0:0:0:1, 9+3:2:0:0:0, 6+0:0:0:0:0, 8+3:0:0:0:2, 6+1:0:0:0:1,  , 7+1:0:0:0:1, 4+1:1:0:0:0, 4+0:0:0:0:0, 10+2:0:0:0:0, 6+3:0:0:0:0, 4+0:0:0:0:0, 4+0:0:0:0:0, 6+5:2:0:0:3, 7+1:1:0:0:1, 4+1:0:0:0:0, 7+2:0:0:0:2, 11+3:0:0:0:0, 5+1:1:0:0:1, 8+3:0:0:0:2, 6+0:0:0:0:0, 2+0:0:0:0:0, 5+0:0:0:0:0, 5+0:0:0:0:0, 7+1:0:0:0:0, 5+2:0:0:0:0, 5+0:0:0:0:0, 7+3:0:0:0:0, 7+1:1:0:0:0, 6+0:0:0:0:0, 11+4:0:2:0:2, 7+3:1:0:0:2, 7+2:0:0:0:0, 8+2:1:0:0:0, 4+0:0:0:0:0, 6+2:0:0:0:0, 4+0:0:0:0:0,  , 4+0:0:0:0:0, 4+0:0:0:0:0, 4+0:0:0:0:0, 7+4:0:0:0:0, 3+0:0:0:0:0, 3+0:0:0:0:0, 3+1:0:0:0:0, 5+3:3:0:0:3, 3+1:0:0:0:0, 3+0:0:0:0:0, 6+2:0:0:0:2, 7+1:0:0:0:0, 4+0:0:0:0:0, 6+2:0:0:0:0, 4+2:0:0:0:0, 1+1:0:0:0:0, 4+0:0:0:0:0, 4+1:0:1:0:1, 4+0:0:0:0:0, 4+1:0:0:0:0, 5+0:0:0:0:0, 4+0:0:0:0:0, 4+0:0:0:0:0, 4+0:0:0:0:0, 6+0:0:0:0:0, 6+2:0:0:0:2, 5+1:0:0:0:1, 9+4:1:1:0:1, 4+0:0:0:0:0, 6+2:0:0:0:0, 4+0:0:0:0:0,  , 4+0:0:0:0:0, 4+0:0:0:0:0, 5+1:0:0:0:1, 6+2:0:0:0:0, 3+0:0:0:0:0, 3+0:0:0:0:0, 3+1:0:0:0:0, 4+3:2:0:0:2, 5+1:0:0:0:0, 4+0:0:0:0:0, 6+2:0:0:0:2, 10+2:0:0:0:0, 5+0:0:0:0:0, 6+1:0:0:0:0, 4+0:0:0:0:0, 4+2:0:0:0:0, 5+0:0:0:0:0, 6+0:0:0:0:0, 8+2:0:1:0:1, 4+1:0:0:0:0, 6+0:0:0:0:0, 6+3:0:0:0:0, 7+1:1:0:0:0, 7+1:0:0:0:0, 8+2:0:1:0:2, 7+3:0:0:0:3, 9+3:1:0:0:1, 9+6:3:0:0:2, 8+1:1:0:0:1, 9+3:1:0:0:2, 7+0:0:0:0:0, 8+4:1:0:0:3, 7+0:0:0:0:0, 7+4:1:0:0:3, 5+0:0:0:0:0, 7+3:2:0:0:1, 7+1:0:0:0:1, 7+2:1:0:0:1, 6+0:0:0:0:0, 7+2:1:0:0:1, 6+0:0:0:0:0, 7+2:1:0:0:1, 5+0:0:0:0:0, 9+2:1:0:0:1, 5+0:0:0:0:0, 9+3:1:0:0:2, 5+0:0:0:0:0, 7+2:1:0:0:1, 5+0:0:0:0:0, 7+6:3:0:0:1, 1+0:0:0:0:0, 1356+288:62:8:0:115
A# minor (7#), 3+1:0:0:0:0, 3+0:0:0:0:0, 4+1:0:0:0:0, 1+0:0:0:0:0, 5+1:0:0:0:0, 4+2:0:0:0:0, 4+5:0:0:0:0, 6+2:0:0:0:0, 5+0:0:0:0:0, 4+1:0:0:0:0, 5+0:0:0:0:0, 4+4:1:0:0:1, 4+2:0:0:0:0, 5+1:0:0:0:1, 6+5:0:0:0:3, 6+4:0:0:0:0, 3+2:0:0:0:0, 3+0:0:0:0:0, 4+1:0:0:0:0, 1+0:0:0:0:0, 1+1:0:0:0:0, 1+7:0:0:0:0, 3+4:0:0:0:0, 2+2:0:0:0:0, 4+6:0:0:0:0, 3+4:0:0:0:0, 4+0:0:0:0:0, 3+1:0:0:0:0, 7+3:0:0:0:0, 4+3:0:0:0:2, 4+3:0:0:0:1, 8+4:1:0:0:1, 6+1:0:0:0:0, 6+5:0:0:0:0, 5+2:0:0:0:0, 3+2:0:0:0:0, 5+2:0:0:0:0, 7+3:0:0:0:0, 5+4:0:0:0:0, 8+2:0:0:0:1, 5+4:0:0:0:2, 6+1:0:0:0:1, 7+3:0:0:0:2, 6+6:3:0:0:3, 4+6:1:0:0:1, 7+2:0:0:0:1, 5+3:0:0:0:2, 6+6:1:0:0:1, 3+0:0:0:0:0, 5+2:0:0:0:1, 5+5:0:0:0:1,  , 5+2:0:0:0:1, 4+5:1:1:0:3, 5+2:0:0:0:2, 4+3:0:0:0:0, 5+1:0:0:0:0, 3+2:0:0:0:0, 6+2:0:0:0:0, 5+2:0:0:0:0, 5+5:0:0:0:0, 5+4:0:0:0:3, 4+3:0:0:0:1, 6+5:1:0:0:1, 3+2:0:0:0:0, 3+0:0:0:0:0, 4+1:0:0:0:0, 1+0:0:0:0:0, 4+4:0:0:0:0, 4+1:0:0:0:0, 8+3:0:0:0:0, 6+1:0:0:0:0, 5+3:0:0:0:1, 5+0:0:0:0:0, 5+0:0:0:0:0, 5+0:0:0:0:0, 5+0:0:0:0:0, 5+3:0:0:0:1, 5+3:0:0:0:2, 5+3:0:0:0:0, 5+1:0:0:0:0, 3+1:0:0:0:0, 6+2:0:0:0:2,  , 1+1:0:0:0:0, 1+1:0:0:0:0, 2+0:0:0:0:0, 4+2:0:0:0:0, 5+1:0:0:0:0, 4+1:0:0:0:0, 8+3:1:0:0:1, 4+1:0:0:0:0, 5+2:0:0:0:0, 7+1:0:0:0:0, 6+3:0:0:0:1, 6+4:1:0:0:1, 4+2:0:0:0:0, 4+1:0:0:0:0, 5+2:0:0:0:0,  , 4+3:0:0:0:0, 5+4:0:0:0:0, 6+5:0:0:0:0, 8+2:0:0:0:0, 6+5:0:0:0:2, 5+0:0:0:0:0, 7+1:0:0:0:0, 6+0:0:0:0:0, 7+4:2:1:0:1, 5+2:0:0:0:1, 6+5:0:0:0:3, 6+5:0:0:0:0, 4+0:0:0:0:0, 7+6:0:0:0:0, 6+3:0:0:0:0,  , 1+0:0:0:0:0, 1+1:0:0:0:0, 3+1:0:0:0:0, 4+2:0:0:0:1, 3+0:0:0:0:0, 5+2:0:0:0:0, 5+1:0:0:0:0, 5+2:0:0:0:0, 5+7:0:0:0:0, 4+4:0:0:0:2, 5+5:0:0:0:1, 9+5:1:0:0:1, 5+1:0:0:0:0, 5+2:0:0:0:0, 5+1:0:0:0:0,  , 4+1:0:0:0:0, 4+3:1:0:0:1, 4+2:0:0:0:0, 10+5:0:0:0:0, 7+5:0:0:0:2, 5+0:0:0:0:0, 5+4:0:0:0:2, 7+5:2:0:0:2, 7+5:1:0:0:1, 7+3:0:0:0:1, 6+5:0:0:0:3, 9+7:0:0:0:0, 4+1:1:0:0:1, 5+2:0:0:0:0, 5+2:0:0:0:0, 2+0:0:0:0:0, 1+1:0:0:0:0, 1+1:0:0:0:0, 4+3:0:1:0:0, 3+1:0:0:0:0, 4+3:0:0:0:0, 4+2:0:0:0:0, 7+3:0:0:0:0, 4+1:0:0:0:0, 9+6:0:2:0:3, 7+5:0:0:0:2, 5+2:0:0:0:1, 6+4:1:0:0:1, 3+1:0:0:0:0, 3+0:0:0:0:0, 4+2:0:0:0:0,  , 3+1:0:0:0:0, 3+1:0:0:0:0, 4+1:0:0:0:0, 7+2:0:0:0:0, 5+2:0:0:0:0, 4+0:0:0:0:0, 4+3:0:0:0:1, 5+3:1:0:0:1, 4+3:0:0:0:0, 4+1:0:0:0:1, 5+3:0:0:0:2, 5+3:0:0:0:0, 3+1:0:0:0:0, 3+0:0:0:0:0, 4+2:0:0:0:0, 1+0:0:0:0:0, 1+1:0:0:0:0, 1+1:0:0:0:0, 2+0:0:0:0:0, 2+1:0:0:0:0, 3+0:0:0:0:0, 3+1:0:0:0:0, 4+0:0:0:0:0, 3+1:0:0:0:0, 5+5:0:0:0:0, 4+3:0:0:0:2, 4+2:0:0:0:1, 6+6:1:1:0:2, 3+1:0:0:0:0, 3+0:0:0:0:0, 4+1:0:0:0:0,  , 3+3:0:0:0:0, 3+2:0:0:0:0, 4+4:0:0:0:1, 6+1:0:0:0:0, 4+4:0:0:0:1, 4+0:0:0:0:0, 5+0:0:0:0:0, 4+3:1:0:0:1, 6+4:0:0:0:0, 5+3:0:0:0:1, 5+4:0:0:0:2, 8+6:0:0:0:0, 4+2:0:0:0:0, 3+0:0:0:0:0, 4+1:0:0:0:0, 3+4:0:0:0:2, 1+1:0:0:0:0, 1+2:0:0:0:0, 5+2:0:0:0:0, 2+1:0:0:0:0, 4+2:0:0:0:0, 4+2:0:0:0:0, 6+2:1:0:0:1, 6+3:0:0:0:0, 7+2:0:1:0:1, 5+0:0:0:0:0, 8+4:1:0:0:2, 9+5:3:0:0:3, 6+2:1:0:0:1, 8+2:1:0:0:1, 5+1:0:0:0:0, 8+2:1:0:0:1, 5+2:0:0:0:0, 6+1:1:0:0:1, 4+0:0:0:0:0, 6+2:1:0:0:1, 6+2:0:0:0:0, 6+1:1:0:0:1, 4+0:0:0:0:0, 6+1:1:0:0:1, 5+1:0:0:0:0, 6+1:1:0:0:1, 4+0:0:0:0:0, 9+3:1:0:0:1, 4+0:0:0:0:0, 8+2:1:0:0:1, 4+0:0:0:0:0, 6+1:1:0:0:1, 4+0:0:0:0:0, 6+1:1:0:0:1, 1+0:0:0:0:0, 1115+523:40:7:0:114
