 , 0, 1, 2, 3, 4, 5, 6, 7, 8, 9, 10, 11, 12, 13, 14, 15, 16, 17, 18, 19, 20, 21, 22, 23, 24, 25, 26, 27, 28, 29, 30, 31, 32, 33, 34, 35, 36, 37, 38, 39, 40, 41, 42, 43, 44, 45, 46, 47, 48, 49, 50, 51, 52, 53, 54, 55, 56, 57, 58, 59, 60, 61, 62, 63, 64, 65, 66, 67, 68, 69, 70, 71, 72, 73, 74, 75, 76, 77, 78, 79, 80, 81, 82, 83, 84, 85, 86, 87, 88, 89, 90, 91, 92, 93, 94, 95, 96, 97, 98, 99, 100, 101, 102, 103, 104, 105, 106, 107, 108, 109, 110, 111, 112, 113, 114, 115, 116, 117, 118, 119, 120, 121, 122, 123, 124, 125, 126, 127, 128, 129, 130, 131, 132, 133, 134, 135, 136, 137, 138, 139, 140, 141, 142, 143, 144, 145, 146, 147, 148, 149, 150, 151, 152, 153, 154, 155, 156, 157, 158, 159, 160, 161, 162, 163, 164, 165, 166, 167, 168, 169, 170, 171, 172, 173, 174, 175, 176, 177, 178, 179, 180, 181, 182, 183, 184, 185, 186, 187, 188, 189, 190, 191, 192, 193, 194, 195, 196, 197, 198, 199, 200, 201, 202, 203, 204, 205, 206, 207, 208, 209, 210, 211, 212, 213, 214, 215, 216, 217, 218, 219, 220, 221, 222, 223, 224, 225, rowcost
C major (0), 0+0:0:0:0:0,  ,  ,  ,  ,  ,  ,  , 1+0:0:0:0:0, 0+0:0:0:0:0, 1+0:0:0:0:0, 1+0:0:0:0:0, 4+3:0:0:0:3, 0+0:0:0:0:0, 2+1:0:0:0:0, 3+2:0:0:0:1, 0+0:0:0:0:0,  ,  , 1+0:0:0:0:0, 1+0:0:0:0:0, 1+1:0:0:0:1, 1+0:0:0:0:0, 1+0:0:0:0:0, 3+2:0:0:0:2, 0+0:0:0:0:0, 1+2:0:0:0:0, 4+4:0:0:0:2, 0+0:0:0:0:0,  ,  ,  , 3+1:0:0:0:1, 4+3:1:0:0:2, 1+0:0:0:0:0, 6+3:0:0:0:2, 1+0:0:0:0:0, 0+0:0:0:0:0, 1+2:0:0:0:0, 1+0:0:0:0:0, 4+3:0:0:0:3, 0+0:0:0:0:0, 0+0:0:0:0:0, 0+0:0:0:0:0, 0+0:0:0:0:0, 2+4:0:0:0:0, 0+0:0:0:0:0, 1+0:0:0:0:0, 5+2:0:0:0:2, 3+2:0:0:0:0, 2+1:0:0:0:0, 0+2:0:0:0:0, 2+0:0:0:0:0, 1+0:0:0:0:0, 1+0:0:0:0:0, 5+4:0:0:0:3, 4+4:0:0:0:2, 1+2:0:0:0:0, 3+2:1:0:0:1, 0+0:0:0:0:0, 1+0:0:0:0:0, 0+0:0:0:0:0, 0+0:0:0:0:0, 1+0:0:0:0:0, 1+0:0:0:0:0, 2+1:0:0:0:0, 1+0:0:0:0:0, 2+2:0:0:0:2, 4+3:0:0:0:0, 1+3:0:0:0:0, 5+5:2:0:0:3, 2+2:0:0:0:2, 2+1:0:0:0:1, 0+0:0:0:0:0, 2+1:0:0:0:1, 1+0:0:0:0:0, 1+0:0:0:0:0, 3+2:0:0:0:0, 3+2:0:0:0:0, 5+3:1:0:0:1, 2+1:0:0:0:0, 5+2:0:0:0:2, 3+1:0:0:0:0, 2+3:0:0:0:3, 1+0:0:0:0:0, 3+1:0:0:0:1, 4+3:2:0:0:0, 3+2:0:0:0:0, 5+3:2:0:0:2, 2+3:0:0:0:0, 5+2:0:0:0:1, 5+6:0:0:0:6, 0+0:0:0:0:0,  , 0+0:0:0:0:0, 0+0:0:0:0:0, 1+0:0:0:0:0, 1+0:0:0:0:0, 2+1:0:0:0:1, 0+0:0:0:0:0, 1+2:0:0:0:0, 2+1:0:0:0:1, 0+0:0:0:0:0, 0+0:0:0:0:0, 0+0:0:0:0:0, 0+0:0:0:0:0, 0+0:0:0:0:0, 0+0:0:0:0:0, 1+0:0:0:0:0, 1+0:0:0:0:0, 2+2:0:0:0:2, 0+0:0:0:0:0, 1+2:0:0:0:0, 2+2:0:0:0:2, 0+0:0:0:0:0, 0+0:0:0:0:0, 0+0:0:0:0:0, 0+0:0:0:0:0, 1+0:0:0:0:0, 1+0:0:0:0:0, 1+0:0:0:0:0, 3+1:0:0:0:0, 0+1:0:0:0:0, 0+0:0:0:0:0, 1+0:0:0:0:0, 1+0:0:0:0:0, 2+2:0:0:0:2, 0+0:0:0:0:0, 0+0:0:0:0:0, 0+0:0:0:0:0, 0+0:0:0:0:0, 0+0:0:0:0:0, 0+0:0:0:0:0, 1+0:0:0:0:0, 2+1:0:0:0:1, 1+0:0:0:0:0, 1+0:0:0:0:0, 0+0:0:0:0:0, 1+0:0:0:0:0, 2+1:0:0:0:1, 1+0:0:0:0:0, 3+2:0:0:0:2, 3+2:0:0:0:1, 3+4:0:0:0:1, 4+3:1:0:0:1, 1+0:0:0:0:0, 2+3:0:0:0:1, 2+0:0:0:0:0, 3+1:0:0:0:0, 0+1:0:0:0:0, 7+4:1:1:0:1, 2+2:0:0:0:2, 4+1:0:0:0:1, 5+3:1:0:0:3, 2+4:0:0:0:0, 2+1:0:0:0:0, 2+2:0:0:0:2, 1+0:0:0:0:0, 2+1:0:0:0:1, 0+0:0:0:0:0, 2+1:0:0:0:0, 1+0:0:0:0:0, 3+4:0:0:0:1, 1+0:0:0:0:0, 9+5:0:0:0:1, 1+0:0:0:0:0, 1+0:0:0:0:0, 2+1:1:0:0:0, 1+0:0:0:0:0, 2+3:0:0:0:3, 0+0:0:0:0:0, 0+0:0:0:0:0, 0+0:0:0:0:0, 2+2:0:0:0:1, 5+4:0:0:0:3, 4+3:1:0:0:2, 1+0:0:0:0:0, 2+2:0:0:0:2, 2+1:0:0:0:0, 1+0:0:0:0:0, 2+1:0:0:0:0, 1+0:0:0:0:0, 4+3:0:0:0:2, 1+0:0:0:0:0, 3+3:0:0:0:3, 2+1:0:0:0:0, 2+1:0:0:0:0, 6+6:0:0:0:4, 1+0:0:0:0:0, 1+0:0:0:0:0, 1+1:0:0:0:0, 1+2:0:0:0:0, 1+0:0:0:0:0, 0+0:0:0:0:0, 4+3:1:0:0:0, 3+2:1:0:0:0, 5+6:1:0:0:6, 1+0:0:0:0:0, 2+3:3:0:0:0, 4+4:0:0:0:3, 1+1:0:0:0:0, 2+4:0:0:0:2, 2+1:0:0:0:0, 2+1:0:0:0:1, 1+0:0:0:0:0, 3+5:0:0:0:0, 2+1:0:0:0:1, 5+6:0:0:0:3, 3+2:0:0:0:2, 3+3:0:0:0:1, 2+1:0:0:0:1, 1+0:0:0:0:0, 7+5:0:0:0:4, 1+0:0:0:0:0, 0+0:0:0:0:0, 0+0:0:0:0:0, 2+1:0:0:0:0, 3+1:0:0:0:1, 0+0:0:0:0:0, 1+0:0:0:0:0, 2+1:0:0:0:1, 3+1:0:0:0:1, 1+0:0:0:0:0, 2+1:1:0:0:0, 2+2:0:0:0:1, 1+0:0:0:0:0, 371+251:21:1:0:126
A minor (0), 0+1:0:0:0:0,  ,  ,  ,  ,  ,  ,  , 1+1:0:0:0:0, 0+0:0:0:0:0, 1+2:0:0:0:0, 1+1:0:0:0:0, 4+4:0:0:0:0, 0+3:0:0:0:0, 2+2:0:0:0:1, 3+1:0:0:0:0, 0+1:0:0:0:0,  ,  , 1+0:0:0:0:0, 1+1:0:0:0:0, 1+0:0:0:0:0, 1+2:0:0:0:0, 1+1:0:0:0:0, 3+3:0:0:0:0, 0+1:0:0:0:0, 1+3:0:0:0:0, 4+3:0:0:0:0, 0+1:0:0:0:0,  ,  ,  , 3+3:0:0:0:0, 4+4:1:0:0:1, 1+1:0:0:0:0, 6+2:0:0:0:0, 1+1:0:0:0:0, 0+0:0:0:0:0, 1+3:0:0:0:0, 1+1:0:0:0:0, 4+4:0:0:0:0, 0+2:0:0:0:0, 0+3:0:0:0:0, 0+0:0:0:0:0, 0+2:0:0:0:0, 2+4:0:0:0:0, 0+3:0:0:0:0, 1+1:0:0:0:0, 5+2:0:0:0:0, 3+2:0:0:0:0, 2+2:0:0:0:0, 0+2:0:0:0:0, 2+0:0:0:0:0, 1+7:0:0:0:0, 1+5:0:0:0:0, 5+4:0:0:0:0, 4+5:0:0:0:2, 1+3:0:0:0:0, 3+1:1:0:0:1, 0+2:0:0:0:0, 1+0:0:0:0:0, 0+1:0:0:0:0, 0+0:0:0:0:0, 1+1:0:0:0:0, 1+0:0:0:0:0, 2+2:0:0:0:0, 1+2:0:0:0:0, 2+0:0:0:0:0, 4+6:0:0:0:0, 1+6:0:0:0:0, 5+6:2:0:0:0, 2+3:0:0:0:0, 2+0:0:0:0:0, 0+1:0:0:0:0, 2+1:0:0:0:0, 1+3:0:0:0:0, 1+1:0:0:0:0, 3+3:0:0:0:0, 3+0:0:0:0:0, 5+4:1:0:0:1, 2+1:0:0:0:0, 5+5:0:0:0:0, 3+4:0:0:0:0, 2+1:0:0:0:0, 1+3:0:0:0:0, 3+4:0:0:0:0, 5+3:0:0:0:0, 3+3:0:0:0:0, 5+5:2:0:0:2, 2+6:0:0:0:1, 5+4:0:0:0:0, 5+3:0:0:0:0, 0+2:0:0:0:0,  , 0+1:0:0:0:0, 0+0:0:0:0:0, 1+1:0:0:0:0, 1+1:0:0:0:0, 2+0:0:0:0:0, 0+2:0:0:0:0, 1+3:0:0:0:0, 2+0:0:0:0:0, 0+1:0:0:0:0, 0+1:0:0:0:0, 0+0:0:0:0:0, 0+1:0:0:0:0, 0+1:0:0:0:0, 0+0:0:0:0:0, 1+1:0:0:0:0, 1+1:0:0:0:0, 2+0:0:0:0:0, 0+1:0:0:0:0, 1+3:0:0:0:0, 2+0:0:0:0:0, 0+1:0:0:0:0, 0+1:0:0:0:0, 0+0:0:0:0:0, 0+1:0:0:0:0, 1+1:0:0:0:0, 1+1:0:0:0:0, 1+1:0:0:0:0, 3+0:0:0:0:0, 0+1:0:0:0:0, 0+0:0:0:0:0, 1+1:0:0:0:0, 1+1:0:0:0:0, 2+0:0:0:0:0, 0+1:0:0:0:0, 0+1:0:0:0:0, 0+0:0:0:0:0, 0+0:0:0:0:0, 0+0:0:0:0:0, 0+1:0:0:0:0, 1+1:0:0:0:0, 2+0:0:0:0:0, 1+1:0:0:0:0, 1+3:0:0:0:0, 0+1:0:0:0:0, 1+0:0:0:0:0, 2+3:0:0:0:0, 1+1:0:0:0:0, 3+1:0:0:0:0, 3+2:0:0:0:0, 3+4:0:0:0:0, 4+2:1:0:0:1, 1+2:0:0:0:0, 2+4:0:0:0:0, 2+0:0:0:0:0, 3+1:0:0:0:0, 0+1:0:0:0:0, 7+4:1:1:0:1, 2+3:0:0:0:0, 4+3:0:0:0:0, 5+2:1:0:0:1, 2+8:0:0:0:0, 2+2:0:0:0:0, 2+0:0:0:0:0, 1+1:0:0:0:0, 2+1:0:0:0:0, 0+1:0:0:0:0, 2+1:0:0:0:0, 1+6:0:0:0:0, 3+5:0:0:0:0, 1+1:0:0:0:0, 9+4:0:0:0:0, 1+1:0:0:0:0, 1+0:0:0:0:0, 3+2:0:0:0:0, 1+1:0:0:0:0, 2+0:0:0:0:0, 0+3:0:0:0:0, 0+2:0:0:0:0, 0+3:0:0:0:0, 2+1:0:0:0:0, 5+4:0:0:0:0, 4+6:1:0:0:1, 1+1:0:0:0:0, 2+0:0:0:0:0, 2+2:0:0:0:0, 1+0:0:0:0:0, 2+2:0:0:0:0, 1+1:0:0:0:0, 4+3:0:0:0:0, 1+2:0:0:0:0, 3+1:0:0:0:0, 2+2:0:0:0:0, 2+4:0:0:0:1, 6+5:0:0:0:0, 1+2:0:0:0:0, 1+1:0:0:0:0, 1+2:0:0:0:0, 1+0:0:0:0:0, 1+1:0:0:0:0, 0+0:0:0:0:0, 4+5:2:0:0:2, 4+3:0:0:0:0, 5+2:1:0:0:1, 1+1:0:0:0:0, 2+4:3:0:0:3, 4+1:0:0:0:0, 1+3:0:0:0:0, 2+1:0:0:0:0, 2+2:0:0:0:0, 2+2:0:0:0:0, 1+2:0:0:0:0, 3+8:0:0:0:2, 2+3:0:0:0:0, 5+9:0:0:0:0, 3+4:0:0:0:0, 3+6:0:0:0:1, 2+3:0:0:0:0, 1+2:0:0:0:0, 7+3:0:0:0:0, 1+1:0:0:0:0, 0+2:0:0:0:0, 0+2:0:0:0:0, 2+1:0:0:0:0, 3+2:0:0:0:0, 0+1:0:0:0:0, 1+1:0:0:0:0, 2+0:0:0:0:0, 3+1:0:0:0:0, 1+4:0:0:0:0, 3+1:0:0:0:0, 3+2:0:0:0:1, 1+0:0:0:0:0, 376+417:17:1:0:24
F major (1b), 1+0:0:0:0:0,  ,  ,  ,  ,  ,  ,  , 2+0:0:0:0:0, 1+0:0:0:0:0, 2+2:0:0:0:0, 2+0:0:0:0:0, 5+3:0:0:0:3, 1+0:0:0:0:0, 1+1:0:0:0:0, 4+2:0:0:0:1, 1+0:0:0:0:0,  ,  , 1+0:0:0:0:0, 2+0:0:0:0:0, 2+1:0:0:0:1, 2+2:0:0:0:0, 2+0:0:0:0:0, 4+2:0:0:0:2, 1+0:0:0:0:0, 0+0:0:0:0:0, 5+3:0:0:0:1, 1+0:0:0:0:0,  ,  ,  , 4+3:0:0:0:0, 3+2:1:0:0:1, 2+0:0:0:0:0, 5+3:1:0:0:1, 2+0:0:0:0:0, 1+0:0:0:0:0, 2+2:0:0:0:0, 2+0:0:0:0:0, 5+3:0:0:0:3, 1+0:0:0:0:0, 0+0:0:0:0:0, 1+0:0:0:0:0, 0+0:0:0:0:0, 1+4:0:0:0:0, 0+0:0:0:0:0, 2+1:0:0:0:0, 6+2:0:0:0:2, 4+2:0:0:0:0, 1+2:0:2:0:2, 1+0:0:0:0:0, 2+1:0:0:0:0, 2+0:0:0:0:0, 2+0:0:0:0:0, 6+4:0:0:0:3, 5+4:0:0:0:2, 0+0:0:0:0:0, 4+3:0:0:0:1, 1+0:0:0:0:0, 0+0:0:0:0:0, 0+0:0:0:0:0, 1+0:0:0:0:0, 2+0:0:0:0:0, 2+0:0:0:0:0, 2+1:0:0:0:0, 2+0:0:0:0:0, 3+2:0:0:0:2, 5+3:0:0:0:0, 0+0:0:0:0:0, 6+6:0:0:0:2, 3+2:0:0:0:2, 3+1:0:0:0:1, 1+0:0:0:0:0, 3+2:0:0:0:0, 2+0:0:0:0:0, 2+0:0:0:0:0, 4+2:0:0:0:0, 4+2:0:0:0:2, 6+3:1:0:0:1, 3+1:0:0:0:0, 6+2:0:0:0:2, 4+1:0:0:0:0, 3+3:0:0:0:3, 2+0:0:0:0:0, 3+1:0:0:0:1, 5+3:2:0:0:0, 4+2:0:0:0:0, 4+3:2:0:0:2, 2+3:0:0:0:0, 6+4:0:0:0:0, 6+6:0:0:0:6, 1+0:0:0:0:0,  , 1+0:0:0:0:0, 0+0:0:0:0:0, 1+1:0:0:0:0, 2+0:0:0:0:0, 3+1:0:0:0:1, 1+0:0:0:0:0, 0+0:0:0:0:0, 3+1:0:0:0:1, 1+0:0:0:0:0, 0+0:0:0:0:0, 0+0:0:0:0:0, 0+0:0:0:0:0, 1+0:0:0:0:0, 0+0:0:0:0:0, 1+2:0:0:0:0, 2+0:0:0:0:0, 3+2:0:0:0:2, 1+0:0:0:0:0, 0+0:0:0:0:0, 3+2:0:0:0:2, 1+0:0:0:0:0, 0+0:0:0:0:0, 1+0:0:0:0:0, 0+0:0:0:0:0, 2+0:0:0:0:0, 1+0:0:0:0:0, 2+0:0:0:0:0, 4+1:0:0:0:1, 1+0:0:0:0:0, 1+0:0:0:0:0, 1+2:0:0:0:0, 2+0:0:0:0:0, 3+2:0:0:0:2, 1+0:0:0:0:0, 0+0:0:0:0:0, 0+0:0:0:0:0, 0+0:0:0:0:0, 0+0:0:0:0:0, 0+0:0:0:0:0, 2+1:0:0:0:0, 3+1:0:0:0:1, 2+0:0:0:0:0, 1+0:0:0:0:0, 1+0:0:0:0:0, 2+0:0:0:0:0, 1+1:1:0:0:0, 2+0:0:0:0:0, 4+2:0:0:0:2, 4+1:0:0:0:1, 2+2:1:0:0:1, 5+6:0:0:0:1, 2+0:0:0:0:0, 2+3:0:0:0:1, 3+0:0:0:0:0, 4+1:0:0:0:0, 1+0:0:0:0:0, 7+3:1:0:0:0, 3+2:0:0:0:2, 5+1:0:0:0:1, 4+3:2:0:0:2, 3+4:0:0:0:0, 1+1:0:0:0:0, 3+2:0:0:0:2, 2+0:0:0:0:0, 3+1:0:0:0:1, 1+0:0:0:0:0, 3+3:0:0:0:0, 2+0:0:0:0:0, 3+4:0:0:0:1, 2+0:0:0:0:0, 10+6:0:0:0:3, 2+0:0:0:0:0, 1+0:0:0:0:0, 3+1:1:0:0:0, 2+0:0:0:0:0, 3+3:0:0:0:3, 1+0:0:0:0:0, 0+0:0:0:0:0, 0+0:0:0:0:0, 3+2:0:0:0:1, 6+4:0:0:0:3, 5+3:1:0:0:2, 2+0:0:0:0:0, 3+2:0:0:0:2, 3+1:0:0:0:0, 1+0:0:0:0:0, 3+1:0:0:0:0, 1+0:0:0:0:0, 3+3:1:0:0:1, 2+0:0:0:0:0, 4+3:0:0:0:3, 3+1:0:0:0:0, 1+4:0:0:0:1, 7+6:0:0:0:4, 2+0:0:0:0:0, 1+0:0:0:0:0, 2+1:0:0:0:0, 2+0:0:0:0:0, 2+0:0:0:0:0, 1+0:0:0:0:0, 5+4:0:0:0:0, 4+3:0:0:0:0, 4+6:2:0:0:5, 2+0:0:0:0:0, 1+3:1:0:0:0, 5+4:0:0:0:3, 2+1:0:0:0:0, 2+4:0:0:0:2, 3+1:0:0:0:0, 2+1:1:0:0:0, 2+0:0:0:0:0, 2+7:2:0:0:0, 3+1:0:0:0:0, 6+6:0:0:0:3, 4+2:0:0:0:2, 4+3:0:0:0:1, 1+1:1:0:0:0, 2+0:0:0:0:0, 8+5:0:0:0:4, 2+0:0:0:0:0, 1+0:0:0:0:0, 1+0:0:0:0:0, 3+1:0:0:0:0, 2+2:0:0:0:0, 1+0:0:0:0:0, 2+3:0:0:0:0, 3+1:0:0:0:1, 4+1:0:0:0:1, 1+0:0:0:0:0, 2+1:1:0:0:0, 2+2:0:0:0:0, 1+0:0:0:0:0, 497+265:23:2:0:117
G major (1#), 0+0:0:0:0:0,  ,  ,  ,  ,  ,  ,  , 0+0:0:0:0:0, 0+0:0:0:0:0, 0+0:0:0:0:0, 0+0:0:0:0:0, 3+3:0:0:0:3, 0+0:0:0:0:0, 2+1:0:0:0:0, 2+2:0:0:0:1, 0+0:0:0:0:0,  ,  , 0+0:0:0:0:0, 0+1:0:0:0:0, 1+0:0:0:0:0, 0+2:0:0:0:0, 0+1:0:0:0:0, 2+3:0:0:0:0, 0+0:0:0:0:0, 1+2:0:0:0:0, 3+4:0:0:0:2, 0+0:0:0:0:0,  ,  ,  , 2+1:0:0:0:1, 3+3:1:0:0:2, 0+1:0:0:0:0, 5+2:0:0:0:0, 0+1:0:0:0:0, 0+0:0:0:0:0, 2+1:0:0:0:0, 0+1:0:0:0:0, 3+4:0:0:0:0, 0+2:0:0:0:0, 0+0:0:0:0:0, 0+0:0:0:0:0, 0+0:0:0:0:0, 2+4:0:0:0:0, 0+0:0:0:0:0, 0+0:0:0:0:0, 4+2:0:0:0:2, 3+2:0:0:0:0, 2+1:0:0:0:0, 0+0:0:0:0:0, 1+1:0:0:0:0, 0+0:0:0:0:0, 0+0:0:0:0:0, 4+4:0:0:0:3, 4+4:0:0:0:2, 1+2:0:0:0:0, 2+2:1:0:0:1, 0+0:0:0:0:0, 1+1:0:0:0:0, 0+0:0:0:0:0, 0+0:0:0:0:0, 0+0:0:0:0:0, 0+0:0:0:0:0, 1+1:0:0:0:0, 0+0:0:0:0:0, 1+2:0:0:0:2, 4+3:0:0:0:0, 1+3:0:0:0:0, 4+5:2:0:0:3, 1+2:0:0:0:2, 1+1:0:0:0:1, 0+0:0:0:0:0, 1+1:0:0:0:1, 0+0:0:0:0:0, 0+0:0:0:0:0, 2+2:0:0:0:0, 2+2:0:0:0:0, 4+3:1:0:0:1, 1+1:0:0:0:0, 4+2:0:0:0:2, 2+1:0:0:0:0, 1+3:0:0:0:3, 0+0:0:0:0:0, 2+1:0:0:0:1, 3+3:2:0:0:0, 4+2:0:0:0:0, 6+5:0:0:0:1, 3+3:0:0:0:0, 4+2:0:0:0:1, 4+6:0:0:0:6, 0+0:0:0:0:0,  , 0+0:0:0:0:0, 0+0:0:0:0:0, 0+0:0:0:0:0, 0+0:0:0:0:0, 1+1:0:0:0:1, 0+0:0:0:0:0, 1+2:0:0:0:0, 1+1:0:0:0:1, 0+0:0:0:0:0, 0+0:0:0:0:0, 0+0:0:0:0:0, 0+0:0:0:0:0, 0+0:0:0:0:0, 0+0:0:0:0:0, 0+0:0:0:0:0, 0+0:0:0:0:0, 1+2:0:0:0:2, 0+0:0:0:0:0, 1+2:0:0:0:0, 1+2:0:0:0:2, 0+0:0:0:0:0, 0+0:0:0:0:0, 0+0:0:0:0:0, 0+0:0:0:0:0, 0+0:0:0:0:0, 0+0:0:0:0:0, 0+1:0:0:0:0, 2+0:0:0:0:0, 0+1:0:0:0:0, 0+0:0:0:0:0, 0+0:0:0:0:0, 0+0:0:0:0:0, 1+2:0:0:0:2, 0+0:0:0:0:0, 0+0:0:0:0:0, 0+0:0:0:0:0, 0+0:0:0:0:0, 0+0:0:0:0:0, 0+0:0:0:0:0, 0+0:0:0:0:0, 1+1:0:0:0:1, 0+0:0:0:0:0, 1+0:0:0:0:0, 0+0:0:0:0:0, 0+0:0:0:0:0, 1+1:0:0:0:1, 0+0:0:0:0:0, 2+2:0:0:0:2, 2+1:0:0:0:1, 3+3:1:0:0:0, 3+3:1:0:0:1, 0+0:0:0:0:0, 3+3:0:0:0:1, 1+0:0:0:0:0, 2+1:0:0:0:0, 0+0:0:0:0:0, 6+4:1:1:0:1, 1+2:0:0:0:2, 3+1:0:0:0:1, 4+3:1:0:0:3, 3+4:0:0:0:0, 2+1:0:0:0:0, 1+2:0:0:0:2, 0+0:0:0:0:0, 1+1:0:0:0:1, 0+0:0:0:0:0, 1+1:0:0:0:0, 0+0:0:0:0:0, 2+4:0:0:0:1, 0+1:0:0:0:0, 8+4:0:0:0:0, 0+1:0:0:0:0, 0+0:0:0:0:0, 1+1:1:0:0:0, 0+0:0:0:0:0, 1+3:0:0:0:3, 0+0:0:0:0:0, 0+0:0:0:0:0, 0+0:0:0:0:0, 2+2:0:0:0:1, 4+4:0:0:0:3, 3+3:1:0:0:2, 0+0:0:0:0:0, 1+2:0:0:0:2, 1+1:0:0:0:0, 1+0:0:0:0:0, 1+1:0:0:0:0, 0+0:0:0:0:0, 3+3:0:0:0:2, 0+0:0:0:0:0, 2+3:0:0:0:3, 1+1:0:0:0:0, 2+4:0:0:0:1, 5+6:0:0:0:4, 0+0:0:0:0:0, 0+0:0:0:0:0, 1+1:0:1:0:1, 1+0:0:0:0:0, 0+0:0:0:0:0, 0+0:0:0:0:0, 3+3:1:0:0:0, 2+2:1:0:0:0, 4+6:1:0:0:6, 0+0:0:0:0:0, 1+4:3:0:0:3, 3+1:0:0:0:0, 1+3:0:0:0:0, 3+1:0:0:0:0, 2+1:0:0:0:0, 1+1:0:0:0:1, 0+0:0:0:0:0, 4+7:2:0:0:0, 1+1:0:0:0:0, 4+6:0:0:0:3, 2+2:0:0:0:2, 4+3:0:0:0:1, 1+1:0:0:0:1, 0+0:0:0:0:0, 6+5:0:0:0:4, 0+0:0:0:0:0, 0+0:0:0:0:0, 0+0:0:0:0:0, 1+0:0:0:0:0, 2+1:0:0:0:1, 0+0:0:0:0:0, 0+0:0:0:0:0, 1+1:0:0:0:1, 2+1:0:0:0:1, 1+0:0:0:0:0, 2+1:1:0:0:0, 2+2:0:0:0:1, 1+0:0:0:0:0, 253+258:22:2:0:114
D minor (1b), 1+0:0:0:0:0,  ,  ,  ,  ,  ,  ,  , 2+0:0:0:0:0, 1+0:0:0:0:0, 2+3:0:0:0:0, 2+0:0:0:0:0, 5+5:0:0:0:0, 1+3:0:0:0:0, 1+2:0:0:0:1, 4+2:0:0:0:1, 1+0:0:0:0:0,  ,  , 1+0:0:0:0:0, 2+0:0:0:0:0, 2+1:0:0:0:0, 2+3:0:0:0:0, 2+0:0:0:0:0, 4+4:0:0:0:0, 1+3:0:0:0:0, 0+1:0:0:0:0, 5+3:0:0:0:0, 1+1:0:0:0:0,  ,  ,  , 4+5:0:0:0:0, 3+4:1:0:0:0, 2+0:0:0:0:0, 5+3:1:0:0:1, 2+0:0:0:0:0, 1+0:0:0:0:0, 2+6:2:0:0:0, 2+0:0:0:0:0, 5+5:0:0:0:0, 1+3:0:0:0:0, 0+3:0:0:0:0, 1+0:0:0:0:0, 0+0:0:0:0:0, 1+4:0:0:0:0, 0+1:0:0:0:0, 2+2:0:0:0:0, 6+2:0:0:0:0, 4+2:0:0:0:0, 1+2:0:2:0:2, 1+2:0:0:0:0, 2+0:0:0:0:0, 2+7:0:0:0:0, 2+5:0:0:0:0, 6+4:0:0:0:0, 5+5:0:0:0:2, 0+1:0:0:0:0, 4+5:0:0:0:0, 1+2:0:0:0:0, 0+0:0:0:0:0, 0+0:0:0:0:0, 1+0:0:0:0:0, 2+0:0:0:0:0, 2+1:0:0:0:0, 2+3:0:0:0:0, 2+0:0:0:0:0, 3+2:0:0:0:2, 5+6:0:0:0:0, 0+1:0:0:0:0, 6+6:2:0:0:0, 3+2:0:0:0:2, 3+1:0:0:0:1, 1+0:0:0:0:0, 3+1:0:0:0:1, 2+0:0:0:0:0, 2+3:0:0:0:0, 4+2:0:0:0:0, 4+2:0:0:0:0, 6+3:1:0:0:1, 3+1:0:0:0:0, 6+2:0:0:0:2, 4+1:0:0:0:0, 3+5:0:0:0:3, 2+0:0:0:0:0, 3+1:0:0:0:1, 6+3:0:0:0:0, 4+3:0:0:0:0, 4+5:2:0:0:2, 2+6:0:0:0:1, 6+6:0:0:0:0, 6+3:0:0:0:0, 1+2:0:0:0:0,  , 1+1:0:0:0:0, 0+0:0:0:0:0, 1+3:0:0:0:0, 2+0:0:0:0:0, 3+1:0:0:0:1, 1+0:0:0:0:0, 0+1:0:0:0:0, 3+0:0:0:0:0, 1+1:0:0:0:0, 0+0:0:0:0:0, 0+0:0:0:0:0, 0+0:0:0:0:0, 1+0:0:0:0:0, 0+0:0:0:0:0, 1+3:0:0:0:0, 2+0:0:0:0:0, 3+2:0:0:0:2, 1+0:0:0:0:0, 0+1:0:0:0:0, 3+2:0:0:0:2, 1+0:0:0:0:0, 0+0:0:0:0:0, 1+0:0:0:0:0, 0+0:0:0:0:0, 2+0:0:0:0:0, 1+3:0:0:0:0, 2+0:0:0:0:0, 4+1:0:0:0:0, 1+0:0:0:0:0, 1+0:0:0:0:0, 1+3:0:0:0:0, 2+0:0:0:0:0, 3+2:0:0:0:2, 1+0:0:0:0:0, 0+2:0:0:0:0, 0+2:0:0:0:0, 0+1:0:0:0:0, 0+1:0:0:0:0, 0+2:0:0:0:0, 2+2:0:0:0:0, 3+1:0:0:0:1, 2+0:0:0:0:0, 1+0:0:0:0:0, 1+0:0:0:0:0, 2+0:0:0:0:0, 1+1:1:0:0:0, 2+0:0:0:0:0, 4+2:0:0:0:2, 4+1:0:0:0:1, 2+3:1:0:0:0, 5+4:1:0:0:1, 2+0:0:0:0:0, 2+3:3:0:0:1, 3+0:0:0:0:0, 4+1:0:0:0:0, 1+1:0:0:0:0, 7+4:1:0:0:0, 3+7:0:0:0:0, 5+1:0:0:0:1, 5+7:4:0:0:1, 3+8:0:0:0:0, 1+4:0:0:0:0, 3+4:0:0:0:2, 2+0:0:0:0:0, 3+1:0:0:0:1, 1+0:0:0:0:0, 3+1:0:0:0:0, 2+0:0:0:0:0, 3+4:0:0:0:1, 2+0:0:0:0:0, 10+5:0:0:0:1, 2+0:0:0:0:0, 1+0:0:0:0:0, 3+1:1:0:0:0, 2+0:0:0:0:0, 3+3:0:0:0:3, 1+0:0:0:0:0, 0+1:0:0:0:0, 0+0:0:0:0:0, 3+1:0:0:0:0, 6+4:0:0:0:0, 5+6:1:0:0:1, 2+1:0:0:0:0, 3+0:0:0:0:0, 3+1:0:0:0:0, 1+0:0:0:0:0, 3+1:0:0:0:0, 1+0:0:0:0:0, 3+5:1:0:0:0, 2+0:0:0:0:0, 4+3:0:0:0:3, 3+1:0:0:0:0, 1+4:0:0:0:1, 7+5:0:0:0:3, 2+0:0:0:0:0, 1+0:0:0:0:0, 2+1:0:0:0:0, 2+0:0:0:0:0, 2+0:0:0:0:0, 1+0:0:0:0:0, 5+3:1:0:0:0, 4+2:1:0:0:0, 4+6:2:0:0:5, 2+0:0:0:0:0, 1+3:1:0:0:0, 5+3:0:0:0:0, 2+3:0:0:0:0, 2+4:0:0:0:0, 3+2:0:0:0:0, 2+5:0:0:0:1, 2+0:0:0:0:0, 2+7:2:0:0:0, 3+1:0:0:0:0, 6+6:0:0:0:3, 4+3:0:0:0:1, 4+6:0:0:0:1, 1+3:1:0:0:1, 2+2:0:0:0:0, 8+3:0:0:0:0, 2+1:0:0:0:0, 1+2:0:0:0:0, 1+2:0:0:0:0, 3+0:0:0:0:0, 2+3:0:0:0:1, 1+1:0:0:0:0, 2+1:0:0:0:0, 3+1:0:0:0:1, 4+1:0:0:0:1, 1+0:0:0:0:0, 2+1:1:0:0:0, 2+2:0:0:0:1, 1+0:0:0:0:0, 499+387:32:2:0:70
E minor (1#), 0+1:0:0:0:0,  ,  ,  ,  ,  ,  ,  , 0+1:0:0:0:0, 0+0:0:0:0:0, 0+2:0:0:0:0, 0+1:0:0:0:0, 3+4:0:0:0:0, 0+1:0:0:0:0, 2+2:0:0:0:1, 2+1:0:0:0:0, 0+1:0:0:0:0,  ,  , 0+0:0:0:0:0, 0+1:0:0:0:0, 1+0:0:0:0:0, 0+2:0:0:0:0, 0+1:0:0:0:0, 2+3:0:0:0:0, 0+1:0:0:0:0, 1+3:0:0:0:0, 3+4:0:0:0:0, 0+1:0:0:0:0,  ,  ,  , 2+3:0:0:0:0, 3+4:1:0:0:1, 0+1:0:0:0:0, 5+2:0:0:0:0, 0+1:0:0:0:0, 0+0:0:0:0:0, 2+3:0:0:0:0, 0+1:0:0:0:0, 3+4:0:0:0:0, 0+2:0:0:0:0, 0+1:0:0:0:0, 0+0:0:0:0:0, 0+1:0:0:0:0, 1+0:0:0:0:0, 0+1:0:0:0:0, 0+1:0:0:0:0, 4+2:0:0:0:0, 3+2:0:0:0:0, 2+1:0:0:0:0, 0+1:0:0:0:0, 1+0:0:0:0:0, 0+1:0:0:0:0, 0+1:0:0:0:0, 4+3:0:0:0:0, 4+5:0:0:0:2, 1+3:0:0:0:0, 2+1:1:0:0:1, 0+1:0:0:0:0, 1+1:0:0:0:0, 0+0:0:0:0:0, 0+1:0:0:0:0, 0+1:0:0:0:0, 0+0:0:0:0:0, 1+2:0:0:0:0, 0+2:0:0:0:0, 1+0:0:0:0:0, 4+6:0:0:0:0, 1+6:0:0:0:0, 4+4:2:0:0:2, 1+3:0:0:0:0, 1+1:0:0:0:0, 0+1:0:0:0:0, 1+1:0:0:0:0, 0+3:0:0:0:0, 0+1:0:0:0:0, 2+3:0:0:0:0, 2+0:0:0:0:0, 5+3:0:0:0:0, 1+1:0:0:0:0, 4+5:0:0:0:0, 2+1:0:0:0:0, 1+1:0:0:0:0, 0+3:0:0:0:0, 2+4:0:0:0:0, 4+3:0:0:0:0, 4+3:0:0:0:0, 6+6:0:0:0:0, 3+6:0:0:0:1, 4+4:0:0:0:0, 4+3:0:0:0:0, 0+1:0:0:0:0,  , 0+2:0:0:0:0, 0+1:0:0:0:0, 0+1:0:0:0:0, 0+1:0:0:0:0, 1+3:0:0:0:0, 0+1:0:0:0:0, 1+3:0:0:0:0, 1+0:0:0:0:0, 0+2:0:0:0:0, 0+0:0:0:0:0, 0+1:0:0:0:0, 0+0:0:0:0:0, 0+2:0:0:0:0, 0+1:0:0:0:0, 0+1:0:0:0:0, 0+1:0:0:0:0, 1+3:0:0:0:0, 0+2:0:0:0:0, 1+3:0:0:0:0, 1+0:0:0:0:0, 0+2:0:0:0:0, 0+0:0:0:0:0, 0+1:0:0:0:0, 0+0:0:0:0:0, 0+1:0:0:0:0, 0+1:0:0:0:0, 0+1:0:0:0:0, 2+0:0:0:0:0, 0+1:0:0:0:0, 0+0:0:0:0:0, 0+1:0:0:0:0, 0+1:0:0:0:0, 1+2:0:0:0:0, 0+2:0:0:0:0, 0+1:0:0:0:0, 0+0:0:0:0:0, 0+0:0:0:0:0, 0+0:0:0:0:0, 0+1:0:0:0:0, 0+1:0:0:0:0, 1+0:0:0:0:0, 0+0:0:0:0:0, 1+0:0:0:0:0, 0+0:0:0:0:0, 0+0:0:0:0:0, 1+3:0:0:0:0, 0+1:0:0:0:0, 2+1:0:0:0:0, 2+2:0:0:0:0, 3+4:0:0:0:0, 3+2:1:0:0:1, 0+2:0:0:0:0, 3+4:0:0:0:0, 1+0:0:0:0:0, 2+1:0:0:0:0, 0+1:0:0:0:0, 6+4:1:1:0:1, 1+3:0:0:0:0, 3+3:0:0:0:0, 4+2:1:0:0:1, 3+8:0:0:0:0, 2+2:0:0:0:0, 1+0:0:0:0:0, 0+1:0:0:0:0, 1+1:0:0:0:0, 0+1:0:0:0:0, 1+1:0:0:0:0, 0+6:0:0:0:0, 2+5:0:0:0:0, 0+1:0:0:0:0, 8+4:0:0:0:0, 0+1:0:0:0:0, 0+0:0:0:0:0, 2+2:0:0:0:0, 0+1:0:0:0:0, 1+0:0:0:0:0, 0+3:0:0:0:0, 0+1:0:0:0:0, 0+0:0:0:0:0, 2+1:0:0:0:0, 4+4:0:0:0:0, 3+6:1:0:0:1, 0+1:0:0:0:0, 1+0:0:0:0:0, 1+2:0:0:0:0, 1+0:0:0:0:0, 1+2:0:0:0:0, 0+1:0:0:0:0, 3+3:0:0:0:0, 0+2:0:0:0:0, 2+1:0:0:0:0, 1+2:0:0:0:0, 2+4:0:0:0:1, 5+5:0:0:0:0, 0+2:0:0:0:0, 0+1:0:0:0:0, 1+2:0:1:0:1, 1+0:0:0:0:0, 0+1:0:0:0:0, 0+0:0:0:0:0, 3+5:2:0:0:2, 3+3:0:0:0:0, 4+2:1:0:0:1, 0+1:0:0:0:0, 1+4:3:0:0:3, 3+1:0:0:0:0, 1+3:0:0:0:0, 3+1:0:0:0:0, 2+1:0:0:0:0, 1+2:0:0:0:0, 0+2:0:0:0:0, 4+8:0:0:0:2, 1+3:0:0:0:0, 4+9:0:0:0:0, 2+4:0:0:0:0, 4+6:0:0:0:1, 1+3:0:0:0:0, 0+2:0:0:0:0, 6+3:0:0:0:0, 0+1:0:0:0:0, 0+1:0:0:0:0, 0+2:0:0:0:0, 1+1:0:0:0:0, 2+2:0:0:0:0, 0+1:0:0:0:0, 0+1:0:0:0:0, 1+0:0:0:0:0, 2+1:0:0:0:0, 1+2:0:0:0:0, 3+1:0:0:0:0, 4+2:0:0:0:0, 1+0:0:0:0:0, 259+389:14:2:0:23
Bb major (2b), 2+1:0:0:0:0,  ,  ,  ,  ,  ,  ,  , 3+0:0:0:0:0, 2+0:0:0:0:0, 3+0:0:0:0:0, 2+0:0:0:0:0, 6+3:0:0:0:3, 2+0:0:0:0:0, 2+1:0:0:0:0, 4+2:0:0:0:1, 2+0:0:0:0:0,  ,  , 1+0:0:0:0:0, 3+0:0:0:0:0, 2+1:1:0:0:0, 3+0:0:0:0:0, 2+0:0:0:0:0, 5+2:0:0:0:2, 2+0:0:0:0:0, 1+4:0:0:0:0, 5+4:0:0:0:2, 2+0:0:0:0:0,  ,  ,  , 5+1:0:0:0:1, 4+3:3:0:0:0, 3+0:0:0:0:0, 6+3:1:0:0:1, 3+0:0:0:0:0, 2+0:0:0:0:0, 3+2:0:0:0:0, 2+0:0:0:0:0, 6+3:0:0:0:3, 2+0:0:0:0:0, 1+0:0:0:0:0, 1+0:0:0:0:0, 0+0:0:0:0:0, 1+4:0:0:0:0, 1+0:0:0:0:0, 3+0:0:0:0:0, 7+2:0:0:0:2, 3+2:0:0:0:0, 2+2:0:2:0:2, 2+0:0:0:0:0, 2+1:0:0:0:0, 3+0:0:0:0:0, 2+0:0:0:0:0, 7+4:0:0:0:3, 6+4:0:0:0:2, 1+0:0:0:0:0, 5+3:0:0:0:1, 2+0:0:0:0:0, 1+0:0:0:0:0, 1+0:0:0:0:0, 1+0:0:0:0:0, 3+0:0:0:0:0, 2+0:0:0:0:0, 3+1:0:0:0:0, 2+0:0:0:0:0, 4+2:0:0:0:2, 6+3:0:0:0:0, 1+0:0:0:0:0, 7+5:2:0:0:3, 4+2:0:0:0:2, 3+1:1:0:0:0, 2+0:0:0:0:0, 4+1:0:0:0:1, 2+0:0:0:0:0, 3+0:0:0:0:0, 4+1:0:0:0:0, 5+4:0:0:0:2, 7+3:1:0:0:1, 3+1:0:0:0:0, 7+2:0:0:0:2, 5+1:0:0:0:0, 4+3:0:0:0:3, 3+0:0:0:0:0, 4+1:0:0:0:1, 6+3:2:0:0:0, 3+6:0:0:0:0, 4+3:1:0:0:1, 3+3:2:0:0:2, 7+2:0:0:0:1, 7+6:0:0:0:6, 2+0:0:0:0:0,  , 2+0:0:0:0:0, 0+0:0:0:0:0, 2+0:0:0:0:0, 2+0:0:0:0:0, 4+1:0:0:0:1, 2+0:0:0:0:0, 1+1:0:0:0:0, 3+1:0:0:0:1, 2+0:0:0:0:0, 0+0:0:0:0:0, 0+0:0:0:0:0, 0+0:0:0:0:0, 2+0:0:0:0:0, 0+0:0:0:0:0, 2+0:0:0:0:0, 2+0:0:0:0:0, 4+2:0:0:0:2, 2+0:0:0:0:0, 1+2:0:0:0:0, 3+2:0:0:0:2, 2+0:0:0:0:0, 0+0:0:0:0:0, 1+0:0:0:0:0, 0+0:0:0:0:0, 2+0:0:0:0:0, 2+0:0:0:0:0, 2+0:0:0:0:0, 5+2:0:0:0:1, 2+0:0:0:0:0, 1+0:0:0:0:0, 2+0:0:0:0:0, 2+0:0:0:0:0, 4+2:0:0:0:2, 2+0:0:0:0:0, 1+0:0:0:0:0, 0+0:0:0:0:0, 0+0:0:0:0:0, 0+0:0:0:0:0, 1+0:0:0:0:0, 3+0:0:0:0:0, 4+1:0:0:0:1, 3+0:0:0:0:0, 0+0:0:0:0:0, 2+0:0:0:0:0, 2+0:0:0:0:0, 2+1:1:0:0:0, 2+0:0:0:0:0, 5+2:0:0:0:2, 5+2:0:0:0:1, 3+2:1:0:0:1, 5+3:1:0:0:1, 3+0:0:0:0:0, 3+3:0:0:0:1, 3+0:0:0:0:0, 4+1:1:0:0:0, 2+0:0:0:0:0, 8+3:1:0:0:0, 4+2:0:0:0:2, 6+3:0:0:0:1, 5+3:2:0:0:2, 4+4:0:0:0:0, 2+1:0:0:0:0, 4+2:0:0:0:2, 3+0:0:0:0:0, 4+1:0:0:0:1, 1+0:0:0:0:0, 4+1:0:0:0:0, 2+0:0:0:0:0, 4+4:0:0:0:1, 2+0:0:0:0:0, 11+4:0:0:0:0, 3+0:0:0:0:0, 1+0:0:0:0:0, 4+1:1:0:0:0, 2+0:0:0:0:0, 4+3:0:0:0:3, 2+0:0:0:0:0, 1+0:0:0:0:0, 1+0:0:0:0:0, 3+2:0:0:0:1, 7+4:0:0:0:3, 6+3:1:0:0:2, 3+0:0:0:0:0, 4+2:0:0:0:2, 4+1:0:0:0:0, 1+0:0:0:0:0, 4+1:0:0:0:0, 2+0:0:0:0:0, 4+3:1:0:0:1, 2+0:0:0:0:0, 5+3:0:0:0:3, 4+1:0:0:0:0, 2+1:0:0:0:0, 7+6:0:0:0:4, 3+0:0:0:0:0, 1+0:0:0:0:0, 3+1:0:0:0:0, 3+2:0:0:0:0, 3+0:0:0:0:0, 1+0:0:0:0:0, 6+3:1:0:0:0, 5+2:1:0:0:0, 5+6:2:0:0:5, 3+0:0:0:0:0, 2+3:3:0:0:0, 6+4:0:0:0:3, 3+1:0:0:0:0, 2+3:0:3:0:3, 2+2:0:2:0:0, 2+1:1:0:0:0, 2+0:0:0:0:0, 3+4:2:0:0:2, 4+1:0:0:0:1, 7+4:0:0:0:3, 5+2:0:0:0:2, 5+3:0:0:0:1, 2+1:1:0:0:0, 3+0:0:0:0:0, 9+5:0:0:0:4, 3+0:0:0:0:0, 2+0:0:0:0:0, 2+0:0:0:0:0, 4+1:0:0:0:0, 3+2:0:0:0:0, 2+0:0:0:0:0, 3+0:0:0:0:0, 4+1:0:0:0:1, 5+2:0:0:0:1, 2+4:0:0:0:0, 3+2:0:0:0:0, 3+2:0:0:0:0, 1+0:0:0:0:0, 643+255:35:7:0:120
D major (2#), 0+0:0:0:0:0,  ,  ,  ,  ,  ,  ,  , 0+0:0:0:0:0, 0+0:0:0:0:0, 1+0:0:0:0:0, 0+0:0:0:0:0, 4+5:0:0:0:0, 0+0:0:0:0:0, 3+2:0:0:0:1, 3+2:0:0:0:1, 0+0:0:0:0:0,  ,  , 0+0:0:0:0:0, 0+1:0:0:0:0, 1+0:0:0:0:0, 1+5:0:0:0:0, 0+0:0:0:0:0, 3+4:0:0:0:0, 0+0:0:0:0:0, 2+1:0:0:0:0, 4+4:0:0:0:2, 0+0:0:0:0:0,  ,  ,  , 3+1:0:0:0:1, 4+3:1:0:0:2, 0+0:0:0:0:0, 4+3:0:0:0:1, 0+0:0:0:0:0, 0+0:0:0:0:0, 3+1:0:0:0:0, 0+0:0:0:0:0, 4+5:0:0:0:0, 0+0:0:0:0:0, 1+0:0:0:0:0, 0+0:0:0:0:0, 0+1:0:0:0:0, 1+0:0:0:0:0, 1+1:0:0:0:0, 1+0:0:0:0:0, 5+2:0:0:0:2, 3+2:0:0:0:0, 2+2:0:0:0:0, 0+0:0:0:0:0, 1+0:0:0:0:0, 1+4:0:0:0:0, 1+1:0:0:0:0, 5+4:0:0:0:0, 5+5:0:0:0:2, 2+1:0:0:0:0, 3+2:1:0:0:1, 0+0:0:0:0:0, 1+0:0:0:0:0, 0+0:0:0:0:0, 0+0:0:0:0:0, 0+0:0:0:0:0, 1+0:0:0:0:0, 2+1:0:0:0:0, 0+0:0:0:0:0, 2+2:0:0:0:2, 5+3:1:0:0:1, 2+1:0:0:0:0, 5+6:2:0:0:0, 1+2:0:0:0:2, 1+1:0:0:0:1, 0+0:0:0:0:0, 2+1:0:0:0:1, 0+0:0:0:0:0, 1+0:0:0:0:0, 1+2:0:2:0:2, 1+2:0:0:0:0, 3+3:1:0:0:1, 2+1:0:0:0:0, 5+2:0:0:0:2, 1+1:0:0:0:0, 2+3:0:0:0:3, 0+0:0:0:0:0, 3+1:0:0:0:1, 4+3:2:0:0:0, 5+2:0:0:0:0, 7+3:2:0:0:2, 4+3:0:0:0:0, 5+2:0:0:0:1, 5+6:0:0:0:6, 0+0:0:0:0:0,  , 0+0:0:0:0:0, 0+0:0:0:0:0, 1+0:0:0:0:0, 0+0:0:0:0:0, 2+1:0:0:0:1, 0+0:0:0:0:0, 2+1:0:0:0:0, 2+1:0:0:0:1, 0+0:0:0:0:0, 0+0:0:0:0:0, 0+0:0:0:0:0, 0+0:0:0:0:0, 0+0:0:0:0:0, 0+0:0:0:0:0, 1+0:0:0:0:0, 0+0:0:0:0:0, 2+2:0:0:0:2, 0+0:0:0:0:0, 2+1:0:0:0:0, 2+2:0:0:0:2, 0+0:0:0:0:0, 0+0:0:0:0:0, 0+0:0:0:0:0, 0+0:0:0:0:0, 0+0:0:0:0:0, 1+0:0:0:0:0, 0+0:0:0:0:0, 1+1:0:0:0:0, 0+0:0:0:0:0, 0+0:0:0:0:0, 1+0:0:0:0:0, 0+0:0:0:0:0, 2+2:0:0:0:2, 0+0:0:0:0:0, 1+0:0:0:0:0, 1+0:0:0:0:0, 1+0:0:0:0:0, 1+0:0:0:0:0, 1+0:0:0:0:0, 1+0:0:0:0:0, 2+1:0:0:0:1, 0+0:0:0:0:0, 2+0:0:0:0:0, 0+0:0:0:0:0, 0+0:0:0:0:0, 2+1:0:0:0:1, 1+0:0:0:0:0, 3+2:0:0:0:2, 1+1:0:0:0:1, 4+3:1:0:0:0, 4+3:1:0:0:1, 0+0:0:0:0:0, 3+3:3:0:0:1, 0+0:0:0:0:0, 2+1:0:0:0:0, 0+0:0:0:0:0, 5+4:1:1:0:1, 2+7:0:0:0:0, 2+1:0:0:0:1, 5+3:1:0:0:3, 3+2:0:0:0:1, 3+4:0:0:0:0, 2+2:0:0:0:2, 0+0:0:0:0:0, 1+1:0:0:0:1, 1+0:0:0:0:0, 2+1:0:0:0:0, 0+0:0:0:0:0, 3+4:0:0:0:1, 0+0:0:0:0:0, 7+5:0:0:0:1, 0+0:0:0:0:0, 0+0:0:0:0:0, 2+1:1:0:0:0, 0+0:0:0:0:0, 2+3:0:0:0:3, 0+0:0:0:0:0, 1+0:0:0:0:0, 0+0:0:0:0:0, 2+1:0:1:0:1, 5+4:0:0:0:3, 4+3:1:0:0:2, 1+0:0:0:0:0, 2+2:0:0:0:2, 2+1:0:0:0:0, 0+0:0:0:0:0, 2+1:0:0:0:0, 0+0:0:0:0:0, 4+3:0:0:0:2, 0+0:0:0:0:0, 3+3:0:0:0:3, 1+1:0:0:0:0, 3+4:0:0:0:1, 6+6:0:0:0:4, 0+0:0:0:0:0, 0+0:0:0:0:0, 1+1:0:1:0:1, 0+0:0:0:0:0, 0+0:0:0:0:0, 0+0:0:0:0:0, 4+3:1:0:0:0, 3+2:1:0:0:0, 5+6:1:0:0:6, 0+0:0:0:0:0, 2+3:1:0:0:0, 4+3:0:0:0:0, 1+1:0:0:0:1, 3+1:0:0:0:0, 3+1:0:0:0:1, 2+1:0:0:0:1, 0+0:0:0:0:0, 5+7:2:0:0:0, 1+1:0:0:0:0, 3+6:0:0:0:3, 3+2:0:0:0:2, 5+3:1:0:0:2, 2+1:0:0:0:1, 1+0:0:0:0:0, 7+5:0:0:0:4, 0+0:0:0:0:0, 1+0:0:0:0:0, 1+0:0:0:0:0, 0+0:0:0:0:0, 3+1:0:0:0:1, 1+0:0:0:0:0, 1+0:0:0:0:0, 2+1:0:0:0:1, 1+1:0:0:0:1, 0+0:0:0:0:0, 1+1:1:0:0:0, 2+2:0:0:0:1, 0+0:0:0:0:0, 336+259:27:5:0:111
G minor (2b), 2+0:0:0:0:0,  ,  ,  ,  ,  ,  ,  , 3+0:0:0:0:0, 2+0:0:0:0:0, 3+0:0:0:0:0, 2+0:0:0:0:0, 6+3:0:0:0:3, 2+0:0:0:0:0, 2+2:0:0:0:1, 4+2:0:0:0:1, 2+0:0:0:0:0,  ,  , 1+0:0:0:0:0, 3+0:0:0:0:0, 2+1:1:0:0:0, 3+0:0:0:0:0, 2+0:0:0:0:0, 5+2:0:0:0:2, 2+0:0:0:0:0, 1+4:0:0:0:0, 5+4:0:0:0:2, 2+0:0:0:0:0,  ,  ,  , 5+1:0:0:0:1, 4+3:3:0:0:0, 3+0:0:0:0:0, 6+3:1:0:0:1, 3+0:0:0:0:0, 2+0:0:0:0:0, 3+1:0:0:0:0, 2+0:0:0:0:0, 6+3:0:0:0:3, 2+0:0:0:0:0, 1+0:0:0:0:0, 1+0:0:0:0:0, 0+0:0:0:0:0, 1+4:0:0:0:0, 1+1:0:0:0:0, 3+0:0:0:0:0, 7+2:0:0:0:2, 2+2:0:1:0:1, 2+2:0:2:0:2, 2+0:0:0:0:0, 2+1:0:0:0:0, 3+0:0:0:0:0, 2+0:0:0:0:0, 7+4:0:0:0:3, 6+4:0:0:0:3, 1+1:0:0:0:0, 5+2:1:0:0:1, 2+0:0:0:0:0, 1+1:0:0:0:0, 1+0:0:0:0:0, 1+0:0:0:0:0, 3+0:0:0:0:0, 2+0:0:0:0:0, 3+1:0:0:0:0, 2+0:0:0:0:0, 4+2:0:0:0:2, 6+3:1:0:0:1, 1+1:0:0:0:0, 7+5:2:0:0:3, 4+2:0:0:0:2, 3+1:1:0:0:0, 2+0:0:0:0:0, 4+1:0:0:0:1, 2+0:0:0:0:0, 3+0:0:0:0:0, 4+1:0:0:0:0, 5+2:0:0:0:2, 7+3:1:0:0:1, 3+1:0:0:0:0, 7+2:0:0:0:2, 5+1:0:0:0:0, 4+3:0:0:0:3, 3+0:0:0:0:0, 4+1:0:0:0:1, 6+3:2:0:0:0, 3+6:0:0:0:0, 4+3:0:0:0:0, 3+2:1:0:0:0, 7+2:0:0:0:1, 7+6:0:0:0:6, 2+0:0:0:0:0,  , 2+0:0:0:0:0, 0+0:0:0:0:0, 2+0:0:0:0:0, 2+0:0:0:0:0, 4+1:0:0:0:1, 2+0:0:0:0:0, 1+1:0:0:0:0, 3+1:0:0:0:1, 2+0:0:0:0:0, 0+0:0:0:0:0, 0+0:0:0:0:0, 0+0:0:0:0:0, 2+0:0:0:0:0, 0+0:0:0:0:0, 2+0:0:0:0:0, 2+0:0:0:0:0, 4+2:0:0:0:2, 2+0:0:0:0:0, 1+2:0:0:0:0, 3+2:0:0:0:2, 2+0:0:0:0:0, 0+0:0:0:0:0, 1+0:0:0:0:0, 0+0:0:0:0:0, 2+0:0:0:0:0, 2+0:0:0:0:0, 2+0:0:0:0:0, 5+1:0:0:0:1, 2+0:0:0:0:0, 1+0:0:0:0:0, 2+0:0:0:0:0, 2+0:0:0:0:0, 4+2:0:0:0:2, 2+0:0:0:0:0, 1+0:0:0:0:0, 0+0:0:0:0:0, 0+0:0:0:0:0, 0+0:0:0:0:0, 1+0:0:0:0:0, 3+0:0:0:0:0, 4+1:0:0:0:1, 3+0:0:0:0:0, 0+0:0:0:0:0, 2+0:0:0:0:0, 2+0:0:0:0:0, 2+1:1:0:0:0, 2+0:0:0:0:0, 5+2:0:0:0:2, 5+1:0:0:0:1, 3+3:1:0:0:0, 5+3:1:0:0:1, 3+0:0:0:0:0, 3+3:0:0:0:1, 3+0:0:0:0:0, 4+1:1:0:0:0, 2+0:0:0:0:0, 8+3:1:0:0:0, 4+2:0:0:0:2, 6+1:0:0:0:1, 5+3:2:0:0:2, 4+2:0:0:0:1, 2+2:0:0:0:0, 4+2:0:0:0:2, 3+0:0:0:0:0, 4+1:0:0:0:1, 1+0:0:0:0:0, 4+1:0:0:0:0, 2+0:0:0:0:0, 4+4:0:0:0:1, 2+0:0:0:0:0, 11+4:0:0:0:0, 3+0:0:0:0:0, 1+0:0:0:0:0, 4+1:1:0:0:0, 2+0:0:0:0:0, 4+3:0:0:0:3, 2+0:0:0:0:0, 1+0:0:0:0:0, 1+0:0:0:0:0, 3+2:0:0:0:1, 7+4:0:0:0:3, 6+3:1:0:0:2, 3+0:0:0:0:0, 4+2:0:0:0:2, 4+1:0:0:0:0, 1+0:0:0:0:0, 4+1:0:0:0:0, 2+0:0:0:0:0, 4+3:1:0:0:1, 2+0:0:0:0:0, 5+3:0:0:0:3, 4+1:0:0:0:0, 2+4:0:0:0:1, 7+6:0:0:0:4, 3+0:0:0:0:0, 1+0:0:0:0:0, 3+1:0:0:0:0, 3+0:0:0:0:0, 3+0:0:0:0:0, 1+0:0:0:0:0, 6+3:1:0:0:0, 5+2:1:0:0:0, 5+6:2:0:0:5, 3+0:0:0:0:0, 2+3:3:0:0:0, 6+4:0:0:0:3, 3+1:0:0:0:1, 3+4:0:0:0:2, 3+1:0:0:0:0, 2+1:1:0:0:0, 2+0:0:0:0:0, 3+7:2:0:0:0, 4+1:0:0:0:0, 7+6:0:0:0:3, 5+2:0:0:0:2, 5+3:1:0:0:2, 2+1:1:0:0:0, 3+0:0:0:0:0, 9+5:0:0:0:4, 3+0:0:0:0:0, 2+0:0:0:0:0, 2+0:0:0:0:0, 4+1:0:0:0:0, 3+1:1:0:0:0, 2+0:0:0:0:0, 3+0:0:0:0:0, 4+1:0:0:0:1, 5+1:0:0:0:1, 2+0:0:0:0:0, 3+1:1:0:0:0, 3+2:0:0:0:1, 1+0:0:0:0:0, 644+249:38:3:0:121
B minor (2#), 0+0:0:0:0:0,  ,  ,  ,  ,  ,  ,  , 0+1:0:0:0:0, 0+0:0:0:0:0, 1+2:0:0:0:0, 0+0:0:0:0:0, 4+6:0:0:0:3, 0+0:0:0:0:0, 3+2:0:0:0:1, 3+1:0:0:0:0, 0+0:0:0:0:0,  ,  , 0+1:0:0:0:0, 0+1:0:0:0:0, 1+0:0:0:0:0, 1+5:0:0:0:0, 0+1:0:0:0:0, 3+3:0:0:0:0, 0+1:0:0:0:0, 2+3:0:0:0:0, 4+3:0:0:0:0, 0+0:0:0:0:0,  ,  ,  , 3+3:0:0:0:0, 4+4:1:0:0:1, 0+2:0:0:0:0, 4+3:0:0:0:0, 0+1:0:0:0:0, 0+0:0:0:0:0, 3+3:0:0:0:0, 0+0:0:0:0:0, 4+6:0:0:0:3, 0+0:0:0:0:0, 1+1:0:0:0:0, 0+1:0:0:0:0, 0+1:0:0:0:0, 1+0:0:0:0:0, 1+1:0:0:0:0, 1+1:0:0:0:0, 5+2:0:0:0:0, 3+2:0:0:0:0, 2+3:0:0:0:0, 0+0:0:0:0:0, 1+0:0:0:0:0, 1+7:0:0:0:0, 1+1:0:0:0:0, 5+3:0:0:0:0, 5+5:0:0:0:0, 2+3:0:0:0:0, 3+1:1:0:0:1, 0+1:0:0:0:0, 2+1:0:0:0:0, 0+0:0:0:0:0, 0+0:0:0:0:0, 0+3:0:0:0:0, 1+0:0:0:0:0, 2+2:0:0:0:0, 0+2:0:0:0:0, 2+0:0:0:0:0, 5+4:1:0:0:1, 2+6:0:0:0:0, 5+8:2:0:0:3, 1+0:0:0:0:0, 1+2:0:0:0:0, 0+0:0:0:0:0, 2+1:0:0:0:0, 0+3:0:0:0:0, 1+1:0:0:0:0, 1+2:0:2:0:2, 1+3:0:0:0:0, 4+3:0:0:0:0, 2+1:0:0:0:0, 5+5:0:0:0:0, 1+1:0:0:0:0, 2+1:0:0:0:0, 0+3:0:0:0:0, 3+4:0:0:0:0, 5+3:0:0:0:0, 5+3:0:0:0:0, 7+5:2:0:0:2, 4+6:0:0:0:1, 5+4:0:0:0:0, 5+3:0:0:0:0, 0+0:0:0:0:0,  , 0+0:0:0:0:0, 0+0:0:0:0:0, 1+1:0:0:0:0, 0+1:0:0:0:0, 2+0:0:0:0:0, 0+1:0:0:0:0, 2+3:0:0:0:0, 2+0:0:0:0:0, 0+0:0:0:0:0, 0+0:0:0:0:0, 0+0:0:0:0:0, 0+0:0:0:0:0, 0+0:0:0:0:0, 0+0:0:0:0:0, 1+1:0:0:0:0, 0+1:0:0:0:0, 2+0:0:0:0:0, 0+2:0:0:0:0, 2+3:0:0:0:0, 2+0:0:0:0:0, 0+0:0:0:0:0, 0+0:0:0:0:0, 0+0:0:0:0:0, 0+0:0:0:0:0, 0+0:0:0:0:0, 1+1:0:0:0:0, 0+0:0:0:0:0, 1+2:0:0:0:0, 0+0:0:0:0:0, 0+0:0:0:0:0, 1+1:0:0:0:0, 0+1:0:0:0:0, 2+0:0:0:0:0, 0+2:0:0:0:0, 1+1:0:0:0:0, 1+0:0:0:0:0, 1+0:0:0:0:0, 1+0:0:0:0:0, 1+1:0:0:0:0, 1+1:0:0:0:0, 2+0:0:0:0:0, 0+1:0:0:0:0, 2+3:0:0:0:0, 0+1:0:0:0:0, 0+0:0:0:0:0, 2+3:0:0:0:0, 1+1:0:0:0:0, 3+1:0:0:0:0, 1+2:0:0:0:0, 4+4:3:0:0:3, 4+2:1:0:0:1, 0+2:0:0:0:0, 3+4:0:0:0:0, 0+0:0:0:0:0, 2+2:0:0:0:0, 0+0:0:0:0:0, 5+5:1:1:0:1, 2+14:0:0:0:0, 2+3:0:0:0:0, 5+2:1:0:0:1, 3+3:0:0:0:0, 3+2:0:0:0:0, 2+0:0:0:0:0, 0+0:0:0:0:0, 1+0:0:0:0:0, 1+1:0:0:0:0, 2+1:0:0:0:0, 0+6:0:0:0:0, 3+5:0:0:0:0, 0+0:0:0:0:0, 7+6:0:0:0:0, 0+1:0:0:0:0, 0+1:0:0:0:0, 3+2:0:0:0:0, 0+1:0:0:0:0, 2+0:0:0:0:0, 0+3:0:0:0:0, 1+1:0:0:0:0, 0+4:0:0:0:0, 2+1:0:1:0:0, 5+4:0:0:0:0, 4+6:1:0:0:1, 1+1:0:0:0:0, 2+0:0:0:0:0, 2+2:0:0:0:0, 0+0:0:0:0:0, 2+2:0:0:0:0, 0+1:0:0:0:0, 4+3:0:0:0:0, 0+2:0:0:0:0, 3+1:0:0:0:0, 1+2:0:0:0:0, 3+4:0:0:0:1, 6+5:0:0:0:0, 0+0:0:0:0:0, 0+1:0:0:0:0, 1+1:0:1:0:0, 0+0:0:0:0:0, 0+2:0:0:0:0, 0+1:0:0:0:0, 4+5:2:0:0:2, 4+3:0:0:0:0, 5+2:1:0:0:1, 0+1:0:0:0:0, 2+4:3:0:0:3, 4+1:0:0:0:0, 1+3:0:0:0:0, 3+1:0:0:0:0, 3+1:0:0:0:0, 2+2:0:0:0:0, 0+2:0:0:0:0, 5+7:2:0:0:0, 1+1:0:0:0:0, 3+9:0:0:0:0, 3+4:0:0:0:0, 5+3:1:0:0:1, 2+3:0:0:0:0, 1+2:0:0:0:0, 7+3:0:0:0:0, 0+1:0:0:0:0, 1+1:0:0:0:0, 1+2:0:0:0:0, 0+1:0:0:0:0, 3+2:0:0:0:0, 1+1:0:0:0:0, 1+1:0:0:0:0, 2+0:0:0:0:0, 1+1:0:0:0:0, 0+2:0:0:0:0, 2+1:0:0:0:0, 4+2:0:0:0:0, 0+0:0:0:0:0, 344+386:23:5:0:33
Eb major (3b), 2+2:0:0:0:2,  ,  ,  ,  ,  ,  ,  , 4+1:0:0:0:0, 2+0:0:0:0:0, 4+2:0:0:0:0, 2+1:0:0:0:0, 7+5:0:0:0:3, 2+0:0:0:0:0, 1+1:0:0:0:0, 5+2:0:0:0:1, 2+0:0:0:0:0,  ,  , 2+0:0:0:0:0, 4+0:0:0:0:0, 2+1:0:0:0:0, 4+2:0:0:0:0, 2+1:0:0:0:0, 6+4:0:0:0:2, 2+0:0:0:0:0, 1+0:0:0:0:0, 6+3:0:0:0:1, 2+0:0:0:0:0,  ,  ,  , 5+3:0:0:0:1, 5+2:1:0:0:1, 4+0:0:0:0:0, 7+2:1:0:0:1, 4+0:0:0:0:0, 2+0:0:0:0:0, 4+2:0:0:0:0, 2+1:0:0:0:0, 7+5:0:0:0:3, 2+0:0:0:0:0, 2+0:0:0:0:0, 2+0:0:0:0:0, 1+0:0:0:0:0, 1+0:0:0:0:0, 2+0:0:0:0:0, 4+1:0:0:0:0, 8+4:0:0:0:1, 3+2:0:0:0:0, 3+2:0:2:0:2, 2+0:0:0:0:0, 3+0:0:0:0:0, 4+2:0:0:0:0, 3+2:0:0:0:0, 8+7:0:0:0:2, 6+4:0:0:0:2, 2+0:0:0:0:0, 6+3:0:0:0:1, 3+0:0:0:0:0, 2+0:0:0:0:0, 1+0:0:0:0:0, 1+0:0:0:0:0, 4+1:0:0:0:0, 2+1:0:0:0:0, 4+2:0:0:0:0, 2+1:0:0:0:0, 5+6:0:0:0:2, 5+3:0:0:0:0, 2+0:0:0:0:0, 8+6:0:0:0:2, 4+2:0:0:0:2, 4+1:1:0:0:0, 2+0:0:0:0:0, 5+2:0:0:0:0, 3+1:0:0:0:0, 4+1:0:0:0:0, 4+2:0:0:0:0, 6+2:0:0:0:0, 8+3:0:0:0:2, 4+2:0:0:0:0, 8+5:0:0:0:0, 5+4:0:0:0:0, 5+7:0:0:0:3, 3+3:0:0:0:0, 5+4:0:0:0:0, 7+5:0:0:0:1, 4+2:0:0:0:0, 5+3:1:0:0:1, 4+3:0:0:0:0, 8+4:0:0:0:0, 8+8:0:0:0:3, 2+0:0:0:0:0,  , 2+0:0:0:0:0, 0+0:0:0:0:0, 3+1:0:0:0:0, 2+1:0:0:0:0, 5+1:0:0:0:1, 2+0:0:0:0:0, 1+2:0:0:0:0, 4+1:0:0:0:1, 2+0:0:0:0:0, 0+0:0:0:0:0, 0+0:0:0:0:0, 0+0:0:0:0:0, 2+0:0:0:0:0, 0+0:0:0:0:0, 3+2:0:0:0:0, 2+1:0:0:0:0, 5+2:0:0:0:2, 2+0:0:0:0:0, 1+2:0:0:0:0, 4+2:0:0:0:2, 2+0:0:0:0:0, 0+0:0:0:0:0, 1+0:0:0:0:0, 0+0:0:0:0:0, 2+2:0:0:0:0, 3+1:0:0:0:0, 2+1:0:0:0:0, 6+1:0:0:0:0, 2+0:0:0:0:0, 1+0:0:0:0:0, 3+2:0:0:0:0, 2+2:0:0:0:0, 5+2:0:0:0:2, 2+0:0:0:0:0, 2+0:0:0:0:0, 0+0:0:0:0:0, 0+0:0:0:0:0, 0+0:0:0:0:0, 2+0:0:0:0:0, 4+1:0:0:0:0, 5+2:0:0:0:1, 3+1:0:0:0:0, 0+0:0:0:0:0, 2+0:0:0:0:0, 2+1:0:0:0:0, 3+3:3:0:0:3, 3+1:0:0:0:0, 6+2:0:0:0:2, 6+3:0:0:0:0, 4+2:1:0:0:1, 6+6:0:0:0:1, 4+1:0:0:0:0, 4+3:0:0:0:1, 3+0:0:0:0:0, 3+2:1:0:0:1, 2+0:0:0:0:0, 9+4:1:0:0:0, 5+4:0:0:0:2, 7+6:0:0:0:2, 6+6:4:0:0:4, 5+4:0:0:0:0, 3+1:0:0:0:0, 5+4:0:0:0:2, 3+4:0:0:0:0, 4+1:0:0:0:1, 1+0:0:0:0:0, 5+3:0:0:0:0, 2+1:0:0:0:0, 5+2:0:0:0:0, 2+0:0:0:0:0, 12+4:0:0:0:0, 4+0:0:0:0:0, 2+0:0:0:0:0, 5+2:0:0:0:0, 2+2:0:0:0:0, 5+7:0:0:0:3, 3+0:0:0:0:0, 2+0:0:0:0:0, 2+0:0:0:0:0, 4+2:0:0:0:1, 8+6:0:0:0:1, 5+4:1:2:0:3, 4+3:0:0:0:0, 5+5:0:0:0:2, 4+2:0:0:0:0, 1+0:0:0:0:0, 4+3:0:0:0:0, 2+0:0:0:0:0, 5+3:1:0:0:1, 2+0:0:0:0:0, 6+3:0:0:0:3, 4+1:0:0:0:0, 1+1:0:0:0:0, 8+6:0:0:0:4, 3+0:0:0:0:0, 2+0:0:0:0:0, 3+1:0:0:0:0, 3+2:0:0:0:0, 4+0:0:0:0:0, 2+0:0:0:0:0, 7+4:0:0:0:0, 5+3:0:0:0:0, 6+10:8:0:0:8, 4+1:0:0:0:0, 3+1:1:0:0:1, 7+6:0:0:0:4, 3+1:0:0:0:0, 2+3:0:3:0:0, 3+2:0:2:0:0, 3+3:0:0:0:0, 2+3:0:0:0:0, 4+4:2:0:0:2, 4+2:0:0:0:0, 8+7:0:0:0:4, 6+4:0:0:0:2, 6+3:0:0:0:1, 3+2:2:0:0:2, 4+2:0:0:0:0, 10+7:0:0:0:2, 3+1:0:0:0:0, 3+0:0:0:0:0, 2+0:0:0:0:0, 5+2:0:0:0:0, 4+2:0:0:0:0, 3+0:0:0:0:0, 4+3:0:0:0:0, 5+1:0:0:0:1, 5+1:0:0:0:1, 3+4:0:0:0:0, 3+2:0:0:0:0, 4+2:0:0:0:0, 1+0:0:0:0:0, 760+388:29:9:0:114
A major (3#), 1+0:0:0:0:0,  ,  ,  ,  ,  ,  ,  , 1+0:0:0:0:0, 0+0:0:0:0:0, 2+3:0:0:0:0, 1+0:0:0:0:0, 3+5:0:0:0:0, 1+3:0:0:0:0, 4+2:0:0:0:1, 3+2:0:0:0:1, 1+0:0:0:0:0,  ,  , 0+0:0:0:0:0, 1+0:0:0:0:0, 1+0:0:0:0:0, 2+3:0:0:0:0, 1+0:0:0:0:0, 2+4:0:0:0:0, 1+3:0:0:0:0, 3+3:0:0:0:0, 4+4:0:0:0:0, 1+1:0:0:0:0,  ,  ,  , 4+5:0:0:0:0, 5+4:1:0:0:0, 1+0:0:0:0:0, 4+3:0:0:0:1, 1+0:0:0:0:0, 0+0:0:0:0:0, 4+3:0:0:0:0, 1+0:0:0:0:0, 3+5:0:0:0:0, 1+3:0:0:0:0, 2+3:0:0:0:0, 0+0:0:0:0:0, 1+0:0:0:0:0, 1+0:0:0:0:0, 2+1:0:0:0:0, 2+1:0:0:0:0, 6+2:0:0:0:0, 3+2:0:0:0:0, 2+1:0:0:0:0, 1+2:0:0:0:0, 0+0:0:0:0:0, 2+7:0:0:0:0, 2+5:0:0:0:0, 4+4:0:0:0:0, 6+5:0:0:0:2, 3+3:0:0:0:0, 4+5:0:0:0:0, 1+2:0:0:0:0, 1+1:0:0:0:0, 1+1:0:0:0:0, 0+0:0:0:0:0, 1+0:0:0:0:0, 2+1:0:0:0:0, 3+3:0:0:0:0, 1+0:0:0:0:0, 3+2:0:0:0:2, 6+6:0:0:0:0, 3+6:0:0:0:0, 4+6:2:0:0:0, 2+2:0:0:0:2, 2+1:0:0:0:1, 1+0:0:0:0:0, 2+2:0:0:0:0, 1+0:0:0:0:0, 2+3:0:0:0:0, 2+2:0:2:0:2, 1+2:0:0:0:0, 4+3:1:0:0:1, 3+1:0:0:0:0, 6+2:0:0:0:2, 2+1:0:0:0:0, 3+5:0:0:0:3, 1+0:0:0:0:0, 4+1:0:0:0:1, 6+3:0:0:0:0, 6+3:0:0:0:0, 8+6:0:0:0:0, 5+6:0:0:0:1, 6+6:0:0:0:0, 6+3:0:0:0:0, 1+2:0:0:0:0,  , 1+1:0:0:0:0, 0+0:0:0:0:0, 2+3:0:0:0:0, 1+0:0:0:0:0, 2+4:0:0:0:0, 1+2:0:0:0:0, 3+3:0:0:0:0, 2+3:0:0:0:0, 1+0:0:0:0:0, 1+0:0:0:0:0, 0+0:0:0:0:0, 1+0:0:0:0:0, 1+0:0:0:0:0, 0+0:0:0:0:0, 2+3:0:0:0:0, 1+0:0:0:0:0, 2+5:0:0:0:0, 1+1:0:0:0:0, 3+3:0:0:0:0, 2+3:0:0:0:0, 1+0:0:0:0:0, 1+0:0:0:0:0, 0+0:0:0:0:0, 1+0:0:0:0:0, 1+0:0:0:0:0, 2+3:0:0:0:0, 1+0:0:0:0:0, 1+1:0:0:0:0, 1+0:0:0:0:0, 0+0:0:0:0:0, 2+3:0:0:0:0, 1+0:0:0:0:0, 2+4:0:0:0:0, 1+1:0:0:0:0, 2+1:0:0:0:0, 1+0:0:0:0:0, 1+0:0:0:0:0, 1+0:0:0:0:0, 2+1:0:0:0:0, 2+1:0:0:0:0, 3+1:0:0:0:1, 1+0:0:0:0:0, 3+3:0:0:0:0, 1+0:0:0:0:0, 1+0:0:0:0:0, 3+1:0:0:0:1, 2+0:0:0:0:0, 4+2:0:0:0:2, 2+1:0:0:0:1, 5+3:1:0:0:0, 5+7:0:0:0:0, 1+2:0:0:0:0, 4+4:0:0:0:0, 0+0:0:0:0:0, 1+1:0:0:0:0, 1+1:0:0:0:0, 4+4:1:1:0:1, 3+7:0:0:0:0, 3+1:0:0:0:1, 6+3:1:0:0:3, 4+8:0:0:0:0, 4+2:0:0:0:0, 3+0:0:0:0:0, 1+1:0:0:0:0, 1+1:0:0:0:0, 1+1:0:0:0:0, 3+1:0:0:0:0, 1+0:0:0:0:0, 4+4:0:0:0:1, 1+0:0:0:0:0, 6+5:0:0:0:1, 1+0:0:0:0:0, 0+0:0:0:0:0, 3+1:1:0:0:0, 1+0:0:0:0:0, 3+0:0:0:0:0, 1+3:0:0:0:0, 2+2:0:0:0:0, 1+3:0:0:0:0, 1+1:0:1:0:1, 6+6:0:0:0:0, 5+6:1:0:0:1, 2+1:0:0:0:0, 3+0:0:0:0:0, 3+1:0:0:0:0, 0+0:0:0:0:0, 2+1:0:1:0:1, 0+0:0:0:0:0, 5+3:0:0:0:2, 1+0:0:0:0:0, 4+3:0:0:0:3, 2+1:0:0:0:0, 4+4:0:0:0:1, 7+5:0:0:0:3, 1+0:0:0:0:0, 0+0:0:0:0:0, 3+2:0:0:0:0, 0+0:0:0:0:0, 1+0:0:0:0:0, 0+0:0:0:0:0, 5+3:1:0:0:0, 4+2:1:0:0:0, 6+6:1:0:0:6, 1+0:0:0:0:0, 3+3:1:0:0:0, 3+3:0:0:0:0, 2+3:0:0:0:0, 3+1:0:0:0:0, 4+2:0:0:0:0, 2+3:0:0:0:1, 1+0:0:0:0:0, 6+7:2:0:0:0, 2+1:0:0:0:0, 4+6:0:0:0:3, 4+3:0:0:0:1, 6+6:0:0:0:1, 3+3:0:0:0:0, 2+2:0:0:0:0, 8+3:0:0:0:0, 1+1:0:0:0:0, 2+2:0:0:0:0, 2+2:0:0:0:0, 1+0:0:0:0:0, 4+3:1:0:0:0, 2+1:0:0:0:0, 2+1:0:0:0:0, 3+1:0:0:0:1, 2+1:0:0:0:1, 1+0:0:0:0:0, 2+1:0:0:0:0, 3+2:0:0:0:0, 0+0:0:0:0:0, 487+404:16:5:0:58
C minor (3b), 2+0:0:0:0:0,  ,  ,  ,  ,  ,  ,  , 4+0:0:0:0:0, 2+0:0:0:0:0, 4+2:0:0:0:0, 2+0:0:0:0:0, 7+3:0:0:0:3, 2+0:0:0:0:0, 1+4:0:0:0:0, 5+2:0:0:0:1, 2+0:0:0:0:0,  ,  , 2+0:0:0:0:0, 4+0:0:0:0:0, 2+1:0:0:0:0, 4+2:0:0:0:0, 2+0:0:0:0:0, 6+2:0:0:0:2, 2+0:0:0:0:0, 1+2:0:0:0:0, 6+3:0:0:0:1, 2+0:0:0:0:0,  ,  ,  , 5+3:0:0:0:1, 5+4:0:0:0:0, 4+0:0:0:0:0, 7+3:1:0:0:1, 4+0:0:0:0:0, 2+0:0:0:0:0, 4+2:0:0:0:0, 2+0:0:0:0:0, 7+3:0:0:0:3, 2+0:0:0:0:0, 2+0:0:0:0:0, 2+0:0:0:0:0, 1+0:0:0:0:0, 1+4:0:0:0:0, 2+0:0:0:0:0, 4+1:0:0:0:0, 8+2:0:0:0:2, 3+2:0:0:0:0, 4+1:0:0:0:1, 2+0:0:0:0:0, 3+0:0:0:0:0, 4+0:0:0:0:0, 3+0:0:0:0:0, 8+4:0:0:0:3, 6+4:0:0:0:2, 2+2:0:0:0:0, 6+3:0:0:0:1, 3+0:0:0:0:0, 2+1:0:0:0:0, 1+0:0:0:0:0, 1+0:0:0:0:0, 4+0:0:0:0:0, 2+0:0:0:0:0, 4+1:0:0:0:0, 2+0:0:0:0:0, 5+2:0:0:0:2, 5+3:0:0:0:0, 2+3:0:0:0:0, 8+6:0:0:0:2, 4+2:0:0:0:2, 4+1:1:0:0:0, 2+0:0:0:0:0, 5+2:0:0:0:0, 3+0:0:0:0:0, 4+0:0:0:0:0, 4+1:0:0:0:0, 6+2:0:0:0:0, 8+3:0:0:0:2, 4+1:0:0:0:0, 8+2:0:0:0:2, 5+1:0:0:0:0, 5+3:0:0:0:3, 3+0:0:0:0:0, 5+1:0:0:0:1, 7+3:2:0:0:0, 4+2:0:0:0:0, 5+5:0:0:0:0, 4+3:0:0:0:0, 8+4:0:0:0:0, 8+6:0:0:0:6, 2+0:0:0:0:0,  , 2+0:0:0:0:0, 0+0:0:0:0:0, 3+1:0:0:0:0, 2+0:0:0:0:0, 5+1:0:0:0:1, 2+0:0:0:0:0, 1+2:0:0:0:0, 4+1:0:0:0:1, 2+0:0:0:0:0, 0+0:0:0:0:0, 0+0:0:0:0:0, 0+0:0:0:0:0, 2+0:0:0:0:0, 0+0:0:0:0:0, 3+2:0:0:0:0, 2+0:0:0:0:0, 5+2:0:0:0:2, 2+0:0:0:0:0, 1+2:0:0:0:0, 4+2:0:0:0:2, 2+0:0:0:0:0, 0+0:0:0:0:0, 1+0:0:0:0:0, 0+0:0:0:0:0, 2+0:0:0:0:0, 3+0:0:0:0:0, 2+0:0:0:0:0, 6+2:0:0:0:1, 2+0:0:0:0:0, 1+0:0:0:0:0, 3+2:0:0:0:0, 2+0:0:0:0:0, 5+2:0:0:0:2, 2+0:0:0:0:0, 2+0:0:0:0:0, 0+0:0:0:0:0, 0+0:0:0:0:0, 0+0:0:0:0:0, 2+0:0:0:0:0, 4+1:0:0:0:0, 5+1:0:0:0:1, 3+0:0:0:0:0, 0+0:0:0:0:0, 2+0:0:0:0:0, 2+0:0:0:0:0, 3+1:1:0:0:0, 3+0:0:0:0:0, 6+2:0:0:0:2, 6+2:0:0:0:1, 4+4:0:0:0:1, 6+6:0:0:0:1, 4+0:0:0:0:0, 4+3:0:0:0:1, 3+0:0:0:0:0, 3+2:1:0:0:1, 2+1:0:0:0:0, 9+4:1:0:0:0, 5+2:0:0:0:2, 7+3:0:0:0:1, 6+3:2:0:0:2, 5+4:0:0:0:0, 3+1:0:0:0:0, 5+2:0:0:0:2, 3+0:0:0:0:0, 4+1:0:0:0:1, 1+0:0:0:0:0, 5+3:0:0:0:0, 2+0:0:0:0:0, 5+4:0:0:0:1, 2+0:0:0:0:0, 12+4:0:0:0:0, 4+0:0:0:0:0, 2+0:0:0:0:0, 5+1:1:0:0:0, 2+0:0:0:0:0, 5+3:0:0:0:3, 3+0:0:0:0:0, 2+0:0:0:0:0, 2+0:0:0:0:0, 4+2:0:0:0:1, 8+4:0:0:0:3, 7+3:1:0:0:2, 4+0:0:0:0:0, 5+2:0:0:0:2, 4+1:0:0:0:0, 1+0:0:0:0:0, 4+1:0:0:0:0, 2+0:0:0:0:0, 5+3:1:0:0:1, 2+0:0:0:0:0, 6+3:0:0:0:3, 4+1:0:0:0:0, 1+6:0:0:0:0, 8+6:0:0:0:4, 3+0:0:0:0:0, 2+0:0:0:0:0, 3+1:0:0:0:0, 3+2:0:0:0:0, 4+0:0:0:0:0, 2+0:0:0:0:0, 7+4:0:0:0:0, 5+3:0:0:0:0, 6+6:2:0:0:5, 4+0:0:0:0:0, 3+3:3:0:0:0, 7+4:0:0:0:3, 3+1:0:0:0:0, 3+4:0:0:0:2, 4+1:0:0:0:0, 3+1:1:0:0:0, 2+0:0:0:0:0, 4+5:0:0:0:0, 4+1:1:0:0:0, 8+4:0:0:0:3, 6+2:0:0:0:2, 6+3:0:0:0:1, 3+1:1:0:0:0, 4+0:0:0:0:0, 10+5:0:0:0:4, 3+0:0:0:0:0, 3+0:0:0:0:0, 2+0:0:0:0:0, 5+1:0:0:0:0, 4+1:1:0:0:0, 3+0:0:0:0:0, 4+3:0:0:0:0, 5+1:0:0:0:1, 5+2:0:0:0:1, 3+4:0:0:0:0, 3+2:0:0:0:0, 4+2:0:0:0:0, 1+0:0:0:0:0, 765+293:21:0:0:108
F# minor (3#), 1+0:0:0:0:0,  ,  ,  ,  ,  ,  ,  , 1+1:0:0:0:0, 0+0:0:0:0:0, 2+5:0:0:0:0, 1+0:0:0:0:0, 3+6:0:0:0:3, 1+0:0:0:0:0, 4+2:0:0:0:1, 3+1:0:0:0:0, 1+0:0:0:0:0,  ,  , 0+1:0:0:0:0, 1+1:0:0:0:0, 1+0:0:0:0:0, 2+5:0:0:0:0, 1+0:0:0:0:0, 2+5:0:0:0:3, 1+0:0:0:0:0, 3+3:0:0:0:0, 4+4:0:0:0:0, 1+0:0:0:0:0,  ,  ,  , 4+3:0:0:0:0, 5+4:1:0:0:1, 1+2:0:0:0:0, 4+4:0:0:0:1, 1+1:0:0:0:0, 0+0:0:0:0:0, 4+3:0:0:0:0, 1+0:0:0:0:0, 3+6:0:0:0:3, 1+0:0:0:0:0, 2+1:0:0:0:0, 0+1:0:0:0:0, 1+1:0:0:0:0, 1+0:0:0:0:0, 2+1:0:0:0:0, 2+1:0:0:0:0, 6+2:0:0:0:0, 3+2:0:0:0:0, 2+3:0:0:0:0, 1+0:0:0:0:0, 0+0:0:0:0:0, 2+7:0:0:0:0, 2+2:0:0:0:0, 4+6:0:0:0:2, 6+5:0:0:0:2, 3+3:0:0:0:0, 4+1:1:0:0:1, 1+1:0:0:0:0, 2+1:0:0:0:0, 1+0:0:0:0:0, 0+0:0:0:0:0, 1+3:0:0:0:0, 2+1:0:0:0:0, 3+5:0:0:0:0, 1+0:0:0:0:0, 3+0:0:0:0:0, 6+6:0:0:0:0, 3+6:0:0:0:0, 4+8:2:0:0:3, 2+0:0:0:0:0, 2+2:0:0:0:0, 1+0:0:0:0:0, 2+3:0:0:0:1, 1+1:0:0:0:0, 2+6:0:0:0:0, 2+2:0:2:0:2, 1+3:0:0:0:0, 5+3:0:0:0:0, 3+2:0:0:0:0, 6+5:0:0:0:0, 2+1:0:0:0:0, 3+7:0:0:0:0, 1+0:0:0:0:0, 4+4:0:0:0:0, 6+3:0:0:0:0, 6+3:0:0:0:0, 8+6:0:0:0:0, 5+6:0:0:0:1, 6+4:0:0:0:0, 6+3:0:0:0:0, 1+0:0:0:0:0,  , 1+0:0:0:0:0, 0+0:0:0:0:0, 2+5:0:0:0:0, 1+0:0:0:0:0, 2+5:0:0:0:3, 1+0:0:0:0:0, 3+3:0:0:0:0, 2+0:0:0:0:0, 1+0:0:0:0:0, 1+0:0:0:0:0, 0+0:0:0:0:0, 1+0:0:0:0:0, 1+0:0:0:0:0, 0+0:0:0:0:0, 2+5:0:0:0:0, 1+0:0:0:0:0, 2+6:0:0:0:3, 1+0:0:0:0:0, 3+3:0:0:0:0, 2+0:0:0:0:0, 1+0:0:0:0:0, 1+0:0:0:0:0, 0+0:0:0:0:0, 1+0:0:0:0:0, 1+0:0:0:0:0, 2+5:0:0:0:0, 1+0:0:0:0:0, 1+2:0:0:0:0, 1+0:0:0:0:0, 0+0:0:0:0:0, 2+5:0:0:0:0, 1+0:0:0:0:0, 2+6:0:0:0:2, 1+0:0:0:0:0, 2+1:0:0:0:0, 1+0:0:0:0:0, 1+0:0:0:0:0, 1+0:0:0:0:0, 2+1:0:0:0:0, 2+1:0:0:0:0, 3+0:0:0:0:0, 1+1:0:0:0:0, 3+3:0:0:0:0, 1+0:0:0:0:0, 1+0:0:0:0:0, 3+3:0:0:0:0, 2+1:0:0:0:0, 4+1:0:0:0:0, 2+2:0:0:0:0, 5+4:0:0:0:0, 5+2:1:0:0:1, 1+2:0:0:0:0, 4+4:0:0:0:0, 0+0:0:0:0:0, 1+2:0:0:0:0, 1+0:0:0:0:0, 4+5:1:1:0:1, 3+14:0:0:0:0, 3+3:0:0:0:0, 6+2:1:0:0:1, 4+8:0:0:0:0, 4+2:0:0:0:0, 3+0:0:0:0:0, 1+0:0:0:0:0, 1+0:0:0:0:0, 1+1:0:0:0:0, 3+2:0:0:0:0, 1+0:0:0:0:0, 4+5:0:0:0:0, 1+0:0:0:0:0, 6+6:0:0:0:1, 1+1:0:0:0:0, 0+1:0:0:0:0, 4+2:0:0:0:0, 1+0:0:0:0:0, 3+0:0:0:0:0, 1+1:0:0:0:0, 2+1:0:0:0:0, 1+4:0:0:0:0, 1+1:0:1:0:0, 6+4:0:0:0:0, 5+6:1:0:0:1, 2+1:0:0:0:0, 3+0:0:0:0:0, 3+2:0:0:0:0, 0+0:0:0:0:0, 2+1:0:1:0:1, 0+0:0:0:0:0, 5+3:0:0:0:0, 1+0:0:0:0:0, 4+1:0:0:0:0, 2+2:0:0:0:0, 5+6:0:0:0:0, 7+5:0:0:0:0, 1+0:0:0:0:0, 0+1:0:0:0:0, 2+1:0:1:0:0, 0+0:0:0:0:0, 1+2:0:0:0:0, 0+1:0:0:0:0, 5+5:2:0:0:2, 5+3:0:0:0:0, 6+2:1:0:0:1, 1+1:0:0:0:0, 3+4:3:0:0:3, 3+4:0:0:0:1, 2+0:0:0:0:0, 3+3:0:0:0:0, 4+2:0:0:0:0, 2+2:0:0:0:0, 1+2:0:0:0:0, 6+8:0:0:0:2, 2+2:0:0:0:0, 4+9:0:0:0:0, 4+4:0:0:0:0, 6+6:0:0:0:1, 3+3:0:0:0:0, 2+2:0:0:0:0, 8+3:0:0:0:0, 1+0:0:0:0:0, 2+1:0:0:0:0, 2+2:0:0:0:0, 1+1:0:0:0:0, 4+2:0:0:0:0, 2+1:0:0:0:0, 2+1:0:0:0:0, 3+0:0:0:0:0, 2+1:0:0:0:0, 1+2:0:0:0:0, 2+1:0:0:0:0, 3+2:0:0:0:1, 0+0:0:0:0:0, 491+435:14:6:0:49
Ab major (4b), 3+2:0:0:0:2,  ,  ,  ,  ,  ,  ,  , 5+1:0:0:0:0, 2+0:0:0:0:0, 5+0:0:0:0:0, 3+0:0:0:0:0, 7+3:0:0:0:3, 3+0:0:0:0:0, 1+1:0:0:0:0, 5+2:0:0:0:1, 3+1:0:0:0:0,  ,  , 2+0:0:0:0:0, 5+0:0:0:0:0, 3+0:0:0:0:0, 5+2:0:0:0:0, 3+0:0:0:0:0, 6+2:0:0:0:2, 3+0:0:0:0:0, 1+0:0:0:0:0, 6+3:0:0:0:1, 3+2:0:0:0:0,  ,  ,  , 6+3:0:0:0:1, 6+2:1:0:0:1, 5+0:0:0:0:0, 7+3:1:0:0:1, 5+0:0:0:0:0, 2+0:0:0:0:0, 5+2:0:0:0:0, 3+0:0:0:0:0, 7+3:0:0:0:3, 3+0:0:0:0:0, 3+0:0:0:0:0, 2+0:0:0:0:0, 1+0:0:0:0:0, 1+4:0:0:0:0, 3+0:0:0:0:0, 5+1:0:0:0:0, 8+2:0:0:0:2, 4+2:0:0:0:0, 4+2:0:2:0:2, 3+0:0:0:0:0, 3+0:0:0:0:0, 5+0:0:0:0:0, 4+0:0:0:0:0, 7+4:1:0:0:4, 7+4:0:0:0:2, 2+0:0:0:0:0, 6+3:0:0:0:1, 4+0:0:0:0:0, 2+0:0:0:0:0, 1+0:0:0:0:0, 2+0:0:0:0:0, 5+0:0:0:0:0, 2+0:0:0:0:0, 5+1:0:0:0:0, 3+0:0:0:0:0, 5+2:0:0:0:2, 6+3:0:0:0:0, 2+0:0:0:0:0, 8+6:0:0:0:2, 5+2:0:0:0:2, 4+1:1:0:0:0, 3+0:0:0:0:0, 6+1:0:0:0:1, 4+0:0:0:0:0, 5+0:0:0:0:0, 5+2:0:0:0:0, 6+2:0:0:0:0, 9+3:0:0:0:2, 3+1:1:0:0:1, 9+2:0:0:0:2, 6+1:0:0:0:0, 6+3:0:0:0:3, 4+0:0:0:0:0, 6+1:0:0:0:1, 8+3:0:0:0:2, 5+5:0:0:0:4, 6+3:1:0:0:1, 5+3:2:0:0:2, 7+4:0:0:0:0, 8+6:0:0:0:6, 3+0:0:0:0:0,  , 3+0:0:0:0:0, 1+0:0:0:0:0, 4+1:0:0:0:0, 3+0:0:0:0:0, 5+1:0:0:0:1, 3+0:0:0:0:0, 1+0:0:0:0:0, 4+1:0:0:0:1, 3+0:0:0:0:0, 0+0:0:0:0:0, 1+0:0:0:0:0, 0+0:0:0:0:0, 3+0:0:0:0:0, 1+0:0:0:0:0, 4+2:0:0:0:0, 3+0:0:0:0:0, 5+2:0:0:0:2, 3+0:0:0:0:0, 1+0:0:0:0:0, 4+2:0:0:0:2, 3+0:0:0:0:0, 0+0:0:0:0:0, 2+0:0:0:0:0, 0+0:0:0:0:0, 3+0:0:0:0:0, 4+0:0:0:0:0, 3+0:0:0:0:0, 6+1:0:0:0:0, 3+1:0:0:0:0, 1+0:0:0:0:0, 4+0:0:0:0:0, 3+0:0:0:0:0, 5+2:0:0:0:2, 3+0:0:0:0:0, 3+0:0:0:0:0, 0+0:0:0:0:0, 0+0:0:0:0:0, 0+0:0:0:0:0, 3+0:0:0:0:0, 5+1:0:0:0:0, 5+1:0:0:0:1, 4+0:0:0:0:0, 0+0:0:0:0:0, 3+0:0:0:0:0, 2+0:0:0:0:0, 4+1:1:0:0:0, 4+0:0:0:0:0, 6+2:0:0:0:2, 7+1:0:0:0:1, 4+2:1:0:0:1, 6+6:0:0:0:1, 5+0:0:0:0:0, 4+3:0:0:0:1, 3+0:0:0:0:0, 3+2:1:0:0:1, 3+1:0:0:0:0, 10+4:1:0:0:0, 6+7:0:0:0:0, 8+1:0:0:0:1, 5+6:4:0:0:4, 6+4:0:0:0:0, 3+1:0:0:0:0, 5+2:0:0:0:2, 4+0:0:0:0:0, 4+1:0:0:0:1, 2+0:0:0:0:0, 4+1:1:0:0:1, 3+0:0:0:0:0, 6+4:0:0:0:1, 3+0:0:0:0:0, 12+5:0:0:0:1, 5+0:0:0:0:0, 2+0:0:0:0:0, 6+1:1:0:0:0, 3+0:0:0:0:0, 5+3:0:0:0:3, 4+0:0:0:0:0, 3+0:0:0:0:0, 2+0:0:0:0:0, 3+2:0:0:0:1, 8+4:0:0:0:3, 8+3:1:0:0:2, 5+0:0:0:0:0, 5+2:0:0:0:2, 5+1:0:0:0:0, 1+0:0:0:0:0, 5+1:0:0:0:0, 3+0:0:0:0:0, 6+3:1:0:0:1, 3+0:0:0:0:0, 6+3:0:0:0:3, 5+1:0:0:0:0, 1+1:0:0:0:0, 8+6:0:0:0:4, 4+0:0:0:0:0, 3+0:0:0:0:0, 4+1:0:0:0:0, 4+0:0:0:0:0, 5+0:0:0:0:0, 2+0:0:0:0:0, 6+4:0:0:0:0, 6+3:0:0:0:0, 5+10:8:0:0:8, 5+3:0:0:0:0, 4+1:1:0:0:1, 7+4:0:0:0:3, 4+1:0:0:0:0, 2+3:0:3:0:3, 3+2:0:2:0:0, 4+3:0:0:0:0, 3+3:0:0:0:0, 5+4:2:0:0:2, 5+1:1:0:0:1, 9+6:0:0:0:3, 7+2:0:0:0:2, 7+3:0:0:0:1, 4+2:2:0:0:2, 5+2:0:0:0:0, 10+5:0:0:0:4, 4+0:0:0:0:0, 4+0:0:0:0:0, 3+0:0:0:0:0, 4+1:1:0:0:1, 5+2:0:0:0:0, 4+0:0:0:0:0, 5+0:0:0:0:0, 5+1:0:0:0:1, 6+1:0:0:0:1, 3+0:0:0:0:0, 4+2:0:0:0:0, 5+2:0:0:0:0, 0+0:0:0:0:0, 883+281:35:7:0:136
E major (4#), 2+1:0:0:0:0,  ,  ,  ,  ,  ,  ,  , 2+1:0:0:0:0, 0+0:0:0:0:0, 3+2:0:0:0:0, 2+1:0:0:0:0, 2+4:0:0:0:0, 2+1:0:0:0:0, 4+2:0:0:0:0, 2+2:0:0:0:0, 2+1:0:0:0:0,  ,  , 0+0:0:0:0:0, 2+1:0:0:0:0, 0+0:0:0:0:0, 3+2:0:0:0:0, 2+1:0:0:0:0, 1+3:0:0:0:0, 2+1:0:0:0:0, 3+3:0:0:0:0, 3+4:0:0:0:0, 2+1:0:0:0:0,  ,  ,  , 5+3:0:0:0:0, 6+4:1:0:0:1, 2+1:0:0:0:0, 3+2:0:0:0:0, 2+1:0:0:0:0, 0+0:0:0:0:0, 5+3:0:0:0:0, 2+1:0:0:0:0, 2+4:0:0:0:0, 2+2:0:0:0:0, 3+1:0:0:0:0, 0+0:0:0:0:0, 1+0:0:0:0:0, 1+0:0:0:0:0, 3+1:0:0:0:0, 3+1:0:0:0:0, 5+2:0:0:0:0, 2+2:0:0:0:0, 3+3:0:0:0:0, 2+1:0:0:0:0, 0+0:0:0:0:0, 3+1:0:0:0:0, 3+1:0:0:0:0, 4+3:1:0:0:1, 7+5:0:0:0:0, 3+3:0:0:0:0, 3+1:1:0:0:1, 2+1:0:0:0:0, 1+1:0:0:0:0, 1+0:0:0:0:0, 1+1:0:0:0:0, 2+1:0:0:0:0, 2+0:0:0:0:0, 4+2:0:0:0:0, 2+2:0:0:0:0, 2+0:0:0:0:0, 7+4:1:0:0:1, 3+3:3:0:0:3, 3+4:2:0:0:2, 3+3:0:0:0:0, 1+1:0:0:0:0, 2+1:0:0:0:0, 3+1:0:0:0:0, 2+3:0:0:0:0, 3+1:0:0:0:0, 5+3:0:0:0:0, 0+0:0:0:0:0, 5+4:1:0:0:1, 3+1:0:0:0:0, 7+5:0:0:0:0, 3+4:0:0:0:0, 4+1:0:0:0:0, 2+3:0:0:0:0, 5+4:0:0:0:0, 5+3:0:0:0:0, 7+3:0:0:0:0, 9+6:0:0:0:0, 6+6:0:0:0:1, 6+4:1:0:0:1, 5+3:0:0:0:0, 2+1:0:0:0:0,  , 2+2:0:0:0:0, 1+1:0:0:0:0, 3+1:0:0:0:0, 2+1:0:0:0:0, 1+3:0:0:0:0, 2+1:0:0:0:0, 3+3:0:0:0:0, 1+2:0:0:0:0, 2+2:0:0:0:0, 1+0:0:0:0:0, 1+1:0:0:0:0, 1+0:0:0:0:0, 2+2:0:0:0:0, 1+1:0:0:0:0, 3+1:0:0:0:0, 2+1:0:0:0:0, 1+3:0:0:0:0, 2+2:0:0:0:0, 3+3:0:0:0:0, 1+1:0:0:0:0, 2+2:0:0:0:0, 1+0:0:0:0:0, 1+1:0:0:0:0, 1+0:0:0:0:0, 2+1:0:0:0:0, 3+1:0:0:0:0, 2+1:0:0:0:0, 0+0:0:0:0:0, 2+1:0:0:0:0, 0+0:0:0:0:0, 3+1:0:0:0:0, 2+1:0:0:0:0, 1+2:0:0:0:0, 2+2:0:0:0:0, 3+1:0:0:0:0, 1+0:0:0:0:0, 1+0:0:0:0:0, 1+0:0:0:0:0, 3+1:0:0:0:0, 3+1:0:0:0:0, 2+0:0:0:0:0, 2+1:0:0:0:0, 2+3:0:0:0:0, 2+1:0:0:0:0, 1+0:0:0:0:0, 4+3:0:0:0:0, 3+1:0:0:0:0, 3+1:0:0:0:0, 3+2:0:0:0:0, 5+4:0:0:0:0, 4+2:1:0:0:1, 2+2:0:0:0:0, 3+4:0:0:0:0, 0+0:0:0:0:0, 1+1:0:0:0:0, 2+1:0:0:0:0, 5+4:1:1:0:1, 4+3:0:0:0:0, 4+3:0:0:0:0, 6+2:0:0:0:0, 5+3:0:0:0:0, 4+2:0:0:0:0, 2+0:0:0:0:0, 2+1:0:0:0:0, 1+1:0:0:0:0, 2+1:0:0:0:0, 3+1:0:0:0:0, 2+6:0:0:0:0, 5+5:0:0:0:0, 2+1:0:0:0:0, 5+4:0:0:0:0, 2+1:0:0:0:0, 0+0:0:0:0:0, 5+2:0:0:0:0, 2+1:0:0:0:0, 2+0:0:0:0:0, 2+3:0:0:0:0, 3+1:0:0:0:0, 1+0:0:0:0:0, 1+1:0:1:0:1, 5+4:0:0:0:0, 6+6:1:0:0:1, 3+1:0:0:0:0, 2+0:0:0:0:0, 4+2:0:0:0:0, 0+0:0:0:0:0, 4+2:0:0:0:0, 1+1:0:0:0:0, 6+3:0:0:0:0, 2+2:0:0:0:0, 3+1:0:0:0:0, 3+2:0:0:0:0, 5+6:0:0:0:0, 6+5:0:0:0:0, 2+2:0:0:0:0, 1+1:0:0:0:0, 3+2:0:1:0:1, 1+0:0:0:0:0, 2+1:0:0:0:0, 0+0:0:0:0:0, 5+5:0:0:0:0, 6+3:0:0:0:0, 6+2:0:0:0:0, 2+1:0:0:0:0, 4+4:3:0:0:3, 2+1:0:0:0:0, 3+3:0:0:0:0, 2+1:0:0:0:0, 4+1:0:0:0:0, 3+2:0:0:0:0, 2+2:0:0:0:0, 7+8:0:0:0:0, 3+3:0:0:0:0, 5+9:0:0:0:0, 5+4:0:0:0:0, 7+3:1:0:0:1, 4+3:0:0:0:0, 3+2:0:0:0:0, 7+3:0:0:0:0, 2+1:0:0:0:0, 3+1:0:0:0:0, 3+2:0:0:0:0, 1+1:0:0:0:0, 5+2:0:0:0:0, 3+1:0:0:0:0, 3+1:0:0:0:0, 2+0:0:0:0:0, 3+1:0:0:0:0, 1+4:0:0:0:0, 1+1:0:0:0:0, 2+2:0:0:0:0, 0+0:0:0:0:0, 578+394:18:3:0:21
F minor (4b), 3+1:0:0:0:0,  ,  ,  ,  ,  ,  ,  , 5+1:0:0:0:0, 2+0:0:0:0:0, 5+2:0:0:0:0, 3+1:0:0:0:0, 7+5:0:0:0:3, 3+0:0:0:0:0, 1+1:0:0:0:0, 5+2:0:0:0:1, 3+0:0:0:0:0,  ,  , 2+0:0:0:0:0, 5+0:0:0:0:0, 2+1:0:0:0:0, 5+2:0:0:0:0, 3+1:0:0:0:0, 6+4:0:0:0:2, 3+0:0:0:0:0, 1+0:0:0:0:0, 6+3:0:0:0:1, 3+2:0:0:0:0,  ,  ,  , 6+3:0:0:0:1, 6+2:1:0:0:1, 5+0:0:0:0:0, 7+3:1:0:0:1, 5+0:0:0:0:0, 2+0:0:0:0:0, 5+2:0:0:0:0, 3+1:0:0:0:0, 7+5:0:0:0:3, 3+0:0:0:0:0, 3+0:0:0:0:0, 2+0:0:0:0:0, 1+0:0:0:0:0, 1+4:0:0:0:0, 3+0:0:0:0:0, 5+1:0:0:0:0, 8+4:0:0:0:1, 4+2:0:0:0:0, 4+2:0:2:0:2, 3+0:0:0:0:0, 3+0:0:0:0:0, 5+2:0:0:0:0, 4+2:0:0:0:0, 7+7:0:0:0:2, 7+4:0:0:0:2, 2+0:0:0:0:0, 6+3:0:0:0:1, 4+0:0:0:0:0, 2+0:0:0:0:0, 1+0:0:0:0:0, 2+0:0:0:0:0, 5+1:0:0:0:0, 2+1:0:0:0:0, 5+2:0:0:0:0, 3+1:0:0:0:0, 5+6:0:0:0:2, 6+3:0:0:0:0, 2+0:0:0:0:0, 8+6:0:0:0:2, 5+2:0:0:0:2, 4+1:1:0:0:0, 3+0:0:0:0:0, 6+2:0:0:0:0, 4+1:0:0:0:0, 5+1:0:0:0:0, 5+2:0:0:0:0, 6+2:0:0:0:0, 9+3:0:0:0:2, 3+2:0:0:0:0, 9+5:0:0:0:0, 6+4:0:0:0:0, 6+7:0:0:0:3, 4+3:0:0:0:0, 6+4:0:0:0:0, 8+5:0:0:0:1, 5+2:0:0:0:0, 6+3:1:0:0:1, 5+3:2:0:0:2, 7+4:0:0:0:0, 8+8:0:0:0:3, 3+0:0:0:0:0,  , 3+0:0:0:0:0, 1+0:0:0:0:0, 4+1:0:0:0:0, 3+1:0:0:0:0, 5+1:0:0:0:1, 3+0:0:0:0:0, 1+0:0:0:0:0, 4+2:0:0:0:1, 3+0:0:0:0:0, 0+0:0:0:0:0, 1+0:0:0:0:0, 0+0:0:0:0:0, 3+0:0:0:0:0, 1+0:0:0:0:0, 4+2:0:0:0:0, 3+1:0:0:0:0, 5+2:0:0:0:2, 3+0:0:0:0:0, 1+0:0:0:0:0, 4+2:0:0:0:2, 3+0:0:0:0:0, 0+0:0:0:0:0, 2+0:0:0:0:0, 0+0:0:0:0:0, 3+2:0:0:0:0, 4+1:0:0:0:0, 3+0:0:0:0:0, 6+1:0:0:0:1, 3+0:0:0:0:0, 1+0:0:0:0:0, 4+2:0:0:0:0, 3+2:0:0:0:0, 5+2:0:0:0:2, 3+0:0:0:0:0, 3+0:0:0:0:0, 0+0:0:0:0:0, 0+0:0:0:0:0, 0+0:0:0:0:0, 3+0:0:0:0:0, 5+1:0:0:0:0, 5+2:0:0:0:1, 4+1:0:0:0:0, 0+0:0:0:0:0, 3+0:0:0:0:0, 2+1:0:0:0:0, 4+3:3:0:0:3, 4+1:0:0:0:0, 6+2:0:0:0:2, 7+1:0:0:0:1, 4+2:1:0:0:1, 6+6:0:0:0:1, 5+1:0:0:0:0, 4+3:0:0:0:1, 3+0:0:0:0:0, 3+2:1:0:0:1, 3+0:0:0:0:0, 10+4:1:0:0:0, 6+7:0:0:0:0, 8+1:0:0:0:1, 5+6:4:0:0:4, 6+4:0:0:0:0, 3+1:0:0:0:0, 5+4:0:0:0:2, 4+4:0:0:0:0, 4+1:0:0:0:1, 2+0:0:0:0:0, 4+3:0:0:0:0, 3+1:0:0:0:0, 6+2:0:0:0:0, 3+0:0:0:0:0, 12+6:0:0:0:3, 5+0:0:0:0:0, 2+0:0:0:0:0, 6+2:0:0:0:0, 3+2:0:0:0:0, 5+7:0:0:0:3, 4+0:0:0:0:0, 3+0:0:0:0:0, 2+0:0:0:0:0, 3+2:0:0:0:1, 8+6:0:0:0:2, 6+4:1:2:0:3, 5+3:0:0:0:0, 5+5:0:0:0:2, 5+2:0:0:0:0, 0+0:0:0:0:0, 5+4:0:0:0:0, 3+1:0:0:0:0, 6+2:1:0:0:1, 3+1:0:0:0:0, 6+6:0:0:0:2, 5+1:0:0:0:0, 1+1:0:0:0:0, 8+6:0:0:0:4, 4+0:0:0:0:0, 3+0:0:0:0:0, 4+1:0:0:0:0, 4+0:0:0:0:0, 5+0:0:0:0:0, 2+0:0:0:0:0, 6+4:0:0:0:0, 6+3:0:0:0:0, 5+10:8:0:0:8, 5+1:0:0:0:0, 4+1:1:0:0:1, 7+6:0:0:0:4, 4+1:0:0:0:0, 2+3:0:3:0:3, 3+2:0:2:0:0, 4+3:0:0:0:0, 3+3:0:0:0:0, 5+4:2:0:0:2, 5+1:1:0:0:1, 9+6:0:0:0:3, 7+2:0:0:0:2, 7+3:0:0:0:1, 4+2:2:0:0:2, 5+2:0:0:0:0, 10+7:0:0:0:2, 4+1:0:0:0:0, 4+0:0:0:0:0, 3+0:0:0:0:0, 4+2:0:0:0:0, 5+2:0:0:0:0, 4+0:0:0:0:0, 5+3:0:0:0:0, 5+1:0:0:0:1, 6+1:0:0:0:1, 3+0:0:0:0:0, 4+2:0:0:0:0, 5+2:0:0:0:0, 0+0:0:0:0:0, 879+383:32:9:0:119
C# minor (4#), 2+2:0:0:0:0,  ,  ,  ,  ,  ,  ,  , 2+1:0:0:0:0, 0+0:0:0:0:0, 3+2:0:0:0:0, 2+1:0:0:0:0, 2+4:0:0:0:0, 2+1:0:0:0:0, 4+2:0:0:0:0, 2+2:0:0:0:0, 2+1:0:0:0:0,  ,  , 0+0:0:0:0:0, 2+1:0:0:0:0, 0+0:0:0:0:0, 3+2:0:0:0:0, 2+1:0:0:0:0, 1+3:0:0:0:0, 2+1:0:0:0:0, 3+3:0:0:0:0, 3+4:0:0:0:0, 2+1:0:0:0:0,  ,  ,  , 5+3:0:0:0:0, 6+4:1:0:0:1, 2+1:0:0:0:0, 3+2:0:0:0:0, 2+1:0:0:0:0, 0+0:0:0:0:0, 5+3:0:0:0:0, 2+1:0:0:0:0, 2+4:0:0:0:0, 2+2:0:0:0:0, 3+1:0:0:0:0, 0+0:0:0:0:0, 1+1:0:0:0:0, 1+0:0:0:0:0, 3+1:0:0:0:0, 3+1:0:0:0:0, 5+8:0:0:0:0, 2+3:0:0:0:0, 3+3:0:0:0:1, 2+0:0:0:0:0, 0+0:0:0:0:0, 3+1:0:0:0:0, 3+1:0:0:0:0, 4+3:1:0:0:1, 7+5:0:0:0:0, 3+2:2:0:0:2, 3+1:1:0:0:1, 2+1:0:0:0:0, 2+1:0:0:0:0, 1+0:0:0:0:0, 1+0:0:0:0:0, 2+3:0:0:0:0, 2+0:0:0:0:0, 4+2:0:0:0:0, 2+2:0:0:0:0, 2+0:0:0:0:0, 7+4:1:0:0:1, 3+3:3:0:0:3, 3+4:2:0:0:2, 3+3:0:0:0:0, 1+1:0:0:0:0, 2+1:0:0:0:0, 3+1:0:0:0:0, 2+3:0:0:0:0, 3+1:0:0:0:0, 3+2:0:2:0:2, 0+3:0:0:0:0, 6+3:0:0:0:0, 3+1:0:0:0:0, 7+5:0:0:0:0, 3+1:0:0:0:0, 4+1:0:0:0:0, 2+3:0:0:0:0, 5+4:0:0:0:0, 5+3:0:0:0:0, 7+3:0:0:0:0, 9+6:0:0:0:0, 6+6:0:0:0:1, 6+4:1:0:0:1, 5+3:0:0:0:0, 2+1:0:0:0:0,  , 2+2:0:0:0:0, 1+1:0:0:0:0, 3+1:0:0:0:0, 2+1:0:0:0:0, 1+3:0:0:0:0, 2+1:0:0:0:0, 3+3:0:0:0:0, 1+2:0:0:0:0, 2+2:0:0:0:0, 1+0:0:0:0:0, 1+0:0:0:0:0, 1+0:0:0:0:0, 2+0:0:0:0:0, 1+0:0:0:0:0, 3+1:0:0:0:0, 2+1:0:0:0:0, 1+3:0:0:0:0, 2+2:0:0:0:0, 3+3:0:0:0:0, 1+1:0:0:0:0, 2+2:0:0:0:0, 1+0:0:0:0:0, 1+0:0:0:0:0, 1+0:0:0:0:0, 2+0:0:0:0:0, 3+1:0:0:0:0, 2+1:0:0:0:0, 0+0:0:0:0:0, 2+1:0:0:0:0, 0+0:0:0:0:0, 3+1:0:0:0:0, 2+1:0:0:0:0, 1+2:0:0:0:0, 2+2:0:0:0:0, 3+1:0:0:0:0, 1+0:0:0:0:0, 1+0:0:0:0:0, 1+0:0:0:0:0, 3+1:0:0:0:0, 3+1:0:0:0:0, 2+0:0:0:0:0, 2+1:0:0:0:0, 3+0:0:0:0:0, 2+1:0:0:0:0, 1+0:0:0:0:0, 4+3:0:0:0:0, 3+1:0:0:0:0, 3+1:0:0:0:0, 3+2:0:0:0:0, 5+4:3:0:0:3, 4+2:1:0:0:1, 2+2:0:0:0:0, 3+2:0:0:0:0, 0+2:0:0:0:0, 1+2:0:0:0:0, 2+0:0:0:0:0, 5+5:1:1:0:1, 4+14:0:0:0:0, 4+3:0:0:0:0, 6+2:0:0:0:0, 5+3:0:0:0:0, 4+1:1:0:0:1, 2+0:0:0:0:0, 2+1:0:0:0:0, 1+1:0:0:0:0, 2+1:0:0:0:0, 3+1:0:0:0:0, 2+6:0:0:0:0, 5+5:0:0:0:0, 2+1:0:0:0:0, 5+4:0:0:0:0, 2+1:0:0:0:0, 0+0:0:0:0:0, 5+2:0:0:0:0, 2+1:0:0:0:0, 2+0:0:0:0:0, 2+3:0:0:0:0, 3+1:0:0:0:0, 1+0:0:0:0:0, 1+1:0:1:0:1, 5+6:0:0:0:0, 6+6:1:0:0:1, 3+1:0:0:0:0, 2+0:0:0:0:0, 4+2:0:0:0:0, 0+0:0:0:0:0, 4+2:0:0:0:0, 1+1:0:0:0:0, 6+3:0:0:0:0, 2+2:0:0:0:0, 3+1:0:0:0:0, 3+2:0:0:0:0, 4+4:0:0:0:1, 6+5:0:0:0:0, 2+0:0:0:0:0, 1+0:0:0:0:0, 3+1:0:1:0:0, 1+2:0:0:0:0, 2+2:0:0:0:0, 0+1:0:0:0:0, 5+5:0:0:0:0, 6+3:0:0:0:0, 6+2:0:0:0:0, 2+1:0:0:0:0, 4+4:3:0:0:3, 2+1:0:0:0:0, 3+3:0:0:0:0, 2+1:0:0:0:0, 4+1:0:0:0:0, 3+2:0:0:0:0, 2+2:0:0:0:0, 6+4:1:1:0:2, 3+2:0:0:0:0, 5+9:0:0:0:0, 5+4:0:0:0:0, 7+3:1:0:0:1, 4+3:0:0:0:0, 3+2:0:0:0:0, 7+3:0:0:0:0, 2+1:0:0:0:0, 3+1:0:0:0:0, 3+2:0:0:0:0, 1+1:0:0:0:0, 5+2:0:0:0:0, 3+1:0:0:0:0, 3+1:0:0:0:0, 2+0:0:0:0:0, 3+1:0:0:0:0, 1+2:0:0:0:0, 1+1:0:0:0:0, 2+2:0:0:0:1, 0+0:0:0:0:0, 577+395:24:6:0:32
Db major (5b), 4+4:0:0:0:3,  ,  ,  ,  ,  ,  ,  , 6+0:0:0:0:0, 2+0:0:0:0:0, 6+0:0:0:0:0, 4+0:0:0:0:0, 7+3:0:0:0:3, 4+0:0:0:0:0, 2+1:0:0:0:0, 5+2:0:0:0:1, 4+0:0:0:0:0,  ,  , 2+0:0:0:0:0, 6+0:0:0:0:0, 3+0:0:0:0:0, 6+2:0:0:0:0, 4+0:0:0:0:0, 6+2:0:0:0:2, 4+0:0:0:0:0, 2+4:0:0:0:0, 6+4:0:0:0:2, 4+0:0:0:0:0,  ,  ,  , 7+1:0:0:0:1, 7+3:3:0:0:0, 6+0:0:0:0:0, 7+2:1:0:0:1, 6+1:0:0:0:0, 2+0:0:0:0:0, 6+2:0:0:0:0, 4+0:0:0:0:0, 7+3:0:0:0:3, 4+0:0:0:0:0, 4+0:0:0:0:0, 2+0:0:0:0:0, 2+0:0:0:0:0, 1+0:0:0:0:0, 4+0:0:0:0:0, 6+0:0:0:0:0, 9+2:0:0:0:2, 4+2:0:0:0:0, 4+2:0:2:0:2, 4+0:0:0:0:0, 3+0:0:0:0:0, 6+0:0:0:0:0, 5+0:0:0:0:0, 7+4:1:0:0:4, 8+4:0:0:0:2, 3+0:0:0:0:0, 7+3:0:0:0:1, 5+0:0:0:0:0, 2+0:0:0:0:0, 2+0:0:0:0:0, 2+0:0:0:0:0, 6+0:0:0:0:0, 3+0:0:0:0:0, 6+1:0:0:0:0, 4+0:0:0:0:0, 6+2:0:0:0:2, 7+3:0:0:0:0, 3+0:0:0:0:0, 8+5:2:0:0:3, 6+2:0:0:0:2, 5+1:1:0:0:0, 4+0:0:0:0:0, 6+1:0:0:0:1, 5+0:0:0:0:0, 6+0:0:0:0:0, 6+2:0:0:0:0, 6+2:0:0:0:0, 10+3:0:0:0:2, 4+1:1:0:0:1, 10+2:0:0:0:2, 7+1:0:0:0:0, 7+3:0:0:0:3, 5+0:0:0:0:0, 7+1:0:0:0:1, 9+3:0:0:0:2, 6+5:0:0:0:4, 7+3:1:0:0:1, 6+3:0:0:0:0, 8+2:1:0:0:2, 9+6:0:0:0:6, 4+0:0:0:0:0,  , 4+0:0:0:0:0, 1+0:0:0:0:0, 5+0:0:0:0:0, 4+0:0:0:0:0, 5+1:0:0:0:1, 4+0:0:0:0:0, 2+1:0:0:0:0, 4+1:0:0:0:1, 4+0:0:0:0:0, 1+0:0:0:0:0, 1+0:0:0:0:0, 1+0:0:0:0:0, 4+0:0:0:0:0, 1+0:0:0:0:0, 5+0:0:0:0:0, 4+0:0:0:0:0, 5+2:0:0:0:2, 4+0:0:0:0:0, 2+2:0:0:0:0, 4+2:0:0:0:2, 4+0:0:0:0:0, 1+0:0:0:0:0, 2+0:0:0:0:0, 1+0:0:0:0:0, 4+0:0:0:0:0, 5+0:0:0:0:0, 4+0:0:0:0:0, 6+0:0:0:0:0, 4+1:0:0:0:0, 1+0:0:0:0:0, 5+0:0:0:0:0, 4+0:0:0:0:0, 5+2:0:0:0:2, 4+0:0:0:0:0, 4+0:0:0:0:0, 0+0:0:0:0:0, 0+0:0:0:0:0, 0+0:0:0:0:0, 4+0:0:0:0:0, 6+0:0:0:0:0, 6+1:0:0:0:1, 5+0:0:0:0:0, 1+0:0:0:0:0, 4+0:0:0:0:0, 3+0:0:0:0:0, 5+1:1:0:0:0, 5+0:0:0:0:0, 7+2:0:0:0:2, 8+1:0:0:0:1, 5+3:1:0:0:0, 7+3:1:0:0:1, 6+0:0:0:0:0, 4+3:0:0:0:3, 3+0:0:0:0:0, 5+1:0:0:0:0, 4+1:0:0:0:0, 10+4:1:0:0:0, 7+2:0:0:0:2, 9+1:0:0:0:1, 6+3:2:0:0:2, 7+4:0:0:0:0, 4+1:0:0:0:0, 6+2:0:0:0:2, 5+0:0:0:0:0, 4+1:0:0:0:1, 2+0:0:0:0:0, 5+1:1:0:0:1, 4+0:0:0:0:0, 7+4:0:0:0:1, 4+0:0:0:0:0, 12+4:0:0:0:0, 6+1:0:0:0:0, 2+0:0:0:0:0, 7+1:1:0:0:0, 4+0:0:0:0:0, 6+3:0:0:0:3, 5+0:0:0:0:0, 4+0:0:0:0:0, 3+0:0:0:0:0, 3+2:0:0:0:1, 9+4:0:0:0:3, 9+3:1:0:0:2, 6+0:0:0:0:0, 6+2:0:0:0:2, 6+1:0:0:0:0, 1+0:0:0:0:0, 6+1:0:0:0:0, 3+0:0:0:0:0, 7+3:1:0:0:1, 4+0:0:0:0:0, 7+3:0:0:0:3, 6+1:0:0:0:0, 2+1:0:0:0:0, 9+6:0:0:0:4, 5+0:0:0:0:0, 3+0:0:0:0:0, 5+1:0:0:0:0, 4+0:0:0:0:0, 6+0:0:0:0:0, 2+0:0:0:0:0, 7+3:2:0:0:3, 7+2:1:0:0:0, 6+6:2:0:0:5, 6+0:0:0:0:0, 5+3:3:0:0:0, 7+4:0:0:0:3, 5+1:0:0:0:0, 1+3:0:3:0:3, 4+2:0:2:0:0, 4+1:1:0:0:0, 4+0:0:0:0:0, 6+7:2:0:0:0, 6+1:1:0:0:1, 10+6:0:0:0:3, 8+2:0:0:0:2, 8+3:0:0:0:1, 5+1:1:0:0:0, 6+0:0:0:0:0, 11+5:0:0:0:4, 5+0:0:0:0:0, 5+0:0:0:0:0, 4+0:0:0:0:0, 5+1:1:0:0:1, 6+2:0:0:0:0, 5+0:0:0:0:0, 6+0:0:0:0:0, 6+1:0:0:0:1, 7+1:0:0:0:1, 4+0:0:0:0:0, 4+1:0:0:0:1, 6+2:0:0:0:0, 0+0:0:0:0:0, 1043+249:35:7:0:133
B major (5#), 2+0:0:0:0:0,  ,  ,  ,  ,  ,  ,  , 3+1:0:0:0:0, 0+0:0:0:0:0, 4+5:0:0:0:0, 2+0:0:0:0:0, 3+8:0:0:0:0, 2+0:0:0:0:0, 4+2:0:0:0:1, 3+1:0:0:0:0, 2+0:0:0:0:0,  ,  , 1+1:0:0:0:0, 3+1:0:0:0:0, 0+0:0:0:0:0, 4+5:0:0:0:0, 2+0:0:0:0:0, 2+7:0:0:0:0, 2+0:0:0:0:0, 3+3:0:0:0:0, 4+4:0:0:0:0, 2+0:0:0:0:0,  ,  ,  , 4+3:0:0:0:0, 7+4:1:0:0:1, 3+2:0:0:0:0, 4+3:0:0:0:0, 3+1:0:0:0:0, 0+0:0:0:0:0, 6+3:0:0:0:0, 2+0:0:0:0:0, 3+8:0:0:0:0, 2+0:0:0:0:0, 4+1:0:0:0:0, 1+1:0:0:0:0, 2+1:0:0:0:0, 0+0:0:0:0:0, 4+1:0:0:0:0, 4+1:0:0:0:0, 6+8:0:0:0:0, 2+2:0:0:0:0, 2+3:0:0:0:0, 2+0:0:0:0:0, 1+0:0:0:0:0, 4+7:0:0:0:0, 4+2:0:0:0:0, 6+6:0:0:0:2, 6+4:0:0:0:0, 4+2:1:0:0:1, 4+1:1:0:0:1, 3+1:0:0:0:0, 1+1:0:0:0:0, 1+0:0:0:0:0, 1+0:0:0:0:0, 3+3:0:0:0:0, 2+1:0:0:0:0, 5+5:0:0:0:0, 2+0:0:0:0:0, 3+0:0:0:0:0, 7+4:0:0:0:0, 4+3:2:0:0:2, 4+4:2:0:0:2, 2+0:0:0:0:0, 2+2:0:0:0:0, 2+0:0:0:0:0, 4+1:0:0:0:0, 3+1:0:0:0:0, 4+6:0:0:0:0, 3+2:0:2:0:2, 1+2:0:0:0:0, 5+3:0:0:0:0, 4+2:0:0:0:0, 8+5:0:0:0:0, 3+1:0:0:0:0, 5+7:0:0:0:0, 2+0:0:0:0:0, 6+4:0:0:0:0, 6+3:0:0:0:0, 8+3:0:0:0:0, 10+5:2:0:0:2, 7+6:0:0:0:1, 7+4:1:0:0:1, 6+3:0:0:0:0, 2+0:0:0:0:0,  , 2+0:0:0:0:0, 1+0:0:0:0:0, 4+5:0:0:0:0, 2+0:0:0:0:0, 2+3:0:0:0:0, 2+1:0:0:0:0, 3+3:0:0:0:0, 2+2:0:0:0:0, 2+0:0:0:0:0, 1+0:0:0:0:0, 1+0:0:0:0:0, 1+0:0:0:0:0, 2+0:0:0:0:0, 1+0:0:0:0:0, 4+5:0:0:0:0, 2+0:0:0:0:0, 2+3:0:0:0:0, 2+2:0:0:0:0, 3+3:0:0:0:0, 2+1:0:0:0:0, 2+0:0:0:0:0, 1+0:0:0:0:0, 1+0:0:0:0:0, 1+0:0:0:0:0, 2+0:0:0:0:0, 4+5:0:0:0:0, 2+0:0:0:0:0, 1+3:0:0:0:0, 2+0:0:0:0:0, 0+0:0:0:0:0, 4+5:0:0:0:0, 2+0:0:0:0:0, 2+4:0:0:0:0, 2+0:0:0:0:0, 4+1:0:0:0:0, 1+0:0:0:0:0, 1+0:0:0:0:0, 1+0:0:0:0:0, 4+1:0:0:0:0, 4+1:0:0:0:0, 3+0:0:0:0:0, 2+1:0:0:0:0, 2+3:0:0:0:0, 2+0:0:0:0:0, 1+0:0:0:0:0, 5+3:0:0:0:0, 4+1:0:0:0:0, 4+1:0:0:0:0, 4+2:0:0:0:0, 6+4:2:0:0:2, 5+2:1:0:0:1, 3+2:0:0:0:0, 4+2:0:0:0:0, 0+0:0:0:0:0, 1+1:0:0:0:0, 2+0:0:0:0:0, 5+8:0:0:0:0, 5+14:0:0:0:0, 5+3:0:0:0:0, 7+2:0:0:0:0, 6+3:0:0:0:1, 5+1:1:0:0:1, 3+0:0:0:0:0, 2+0:0:0:0:0, 0+0:0:0:0:0, 2+1:0:0:0:0, 4+2:0:0:0:0, 2+0:0:0:0:0, 6+5:0:0:0:0, 2+0:0:0:0:0, 6+6:0:0:0:0, 3+1:0:0:0:0, 1+1:0:0:0:0, 6+2:0:0:0:0, 2+0:0:0:0:0, 3+0:0:0:0:0, 3+1:0:0:0:0, 4+1:0:0:0:0, 2+0:0:0:0:0, 2+1:0:1:0:1, 6+6:0:0:0:0, 7+6:1:0:0:1, 4+1:0:0:0:0, 3+0:0:0:0:0, 4+2:0:0:0:0, 0+0:0:0:0:0, 3+1:0:1:0:1, 1+0:0:0:0:0, 7+3:0:0:0:0, 2+0:0:0:0:0, 4+1:0:0:0:0, 3+1:0:0:0:1, 4+4:0:0:0:1, 7+5:0:0:0:0, 2+0:0:0:0:0, 2+1:0:0:0:0, 3+1:0:1:0:0, 1+0:0:0:0:0, 3+2:0:0:0:0, 1+1:0:0:0:0, 6+5:0:0:0:0, 6+3:0:0:0:0, 7+2:0:0:0:0, 3+1:0:0:0:0, 5+4:2:0:0:2, 3+1:0:0:0:0, 2+4:0:0:0:0, 2+3:0:0:0:0, 5+1:0:0:0:0, 4+2:0:0:0:0, 2+0:0:0:0:0, 7+4:1:1:0:2, 4+2:0:0:0:0, 6+9:0:0:0:0, 6+6:0:0:0:0, 8+3:1:0:0:1, 5+3:0:0:0:0, 4+2:0:0:0:0, 8+3:0:0:0:0, 2+0:0:0:0:0, 4+1:0:0:0:0, 3+2:0:0:0:0, 2+1:0:0:0:0, 4+2:0:0:0:0, 4+1:0:0:0:0, 4+1:0:0:0:0, 3+0:0:0:0:0, 3+1:0:0:0:0, 2+2:0:0:0:0, 1+1:0:0:0:0, 3+2:0:0:0:0, 0+0:0:0:0:0, 685+413:19:6:0:31
Bb minor (5b), 4+2:0:0:0:1,  ,  ,  ,  ,  ,  ,  , 6+0:0:0:0:0, 2+0:0:0:0:0, 6+0:0:0:0:0, 4+0:0:0:0:0, 7+3:0:0:0:3, 4+0:0:0:0:0, 2+1:0:0:0:0, 5+2:0:0:0:1, 4+0:0:0:0:0,  ,  , 2+0:0:0:0:0, 6+0:0:0:0:0, 3+0:0:0:0:0, 6+0:0:0:0:0, 4+0:0:0:0:0, 6+2:0:0:0:2, 4+0:0:0:0:0, 2+0:0:0:0:0, 6+3:0:0:0:1, 4+2:0:0:0:0,  ,  ,  , 7+3:0:0:0:1, 7+2:1:0:0:1, 6+0:0:0:0:0, 7+2:1:0:0:1, 6+0:0:0:0:0, 2+0:0:0:0:0, 6+2:0:0:0:0, 4+0:0:0:0:0, 7+3:0:0:0:3, 4+0:0:0:0:0, 4+0:0:0:0:0, 2+0:0:0:0:0, 2+0:0:0:0:0, 1+0:0:0:0:0, 4+0:0:0:0:0, 6+0:0:0:0:0, 9+2:0:0:0:2, 4+2:0:0:0:0, 4+2:0:2:0:2, 4+0:0:0:0:0, 3+0:0:0:0:0, 6+0:0:0:0:0, 5+0:0:0:0:0, 7+4:1:0:0:4, 8+4:0:0:0:2, 3+0:0:0:0:0, 7+3:0:0:0:1, 5+0:0:0:0:0, 2+0:0:0:0:0, 2+0:0:0:0:0, 2+0:0:0:0:0, 6+0:0:0:0:0, 3+0:0:0:0:0, 6+1:0:0:0:0, 4+0:0:0:0:0, 6+2:0:0:0:2, 7+3:0:0:0:0, 3+0:0:0:0:0, 8+5:2:0:0:3, 6+2:0:0:0:2, 5+1:1:0:0:0, 4+0:0:0:0:0, 6+1:0:0:0:1, 5+0:0:0:0:0, 6+0:0:0:0:0, 6+2:0:0:0:0, 6+2:0:0:0:0, 10+3:0:0:0:2, 4+1:1:0:0:1, 10+2:0:0:0:2, 7+1:0:0:0:0, 7+3:0:0:0:3, 5+0:0:0:0:0, 7+1:0:0:0:1, 9+3:0:0:0:2, 6+5:0:0:0:4, 7+3:1:0:0:1, 6+3:2:0:0:2, 8+2:1:0:0:2, 9+6:0:0:0:6, 4+0:0:0:0:0,  , 4+0:0:0:0:0, 1+0:0:0:0:0, 5+0:0:0:0:0, 4+0:0:0:0:0, 5+1:0:0:0:1, 4+0:0:0:0:0, 2+1:0:0:0:0, 4+1:0:0:0:1, 4+0:0:0:0:0, 1+0:0:0:0:0, 1+0:0:0:0:0, 1+0:0:0:0:0, 4+0:0:0:0:0, 1+0:0:0:0:0, 5+0:0:0:0:0, 4+0:0:0:0:0, 5+2:0:0:0:2, 4+0:0:0:0:0, 2+2:0:0:0:0, 4+2:0:0:0:2, 4+0:0:0:0:0, 1+0:0:0:0:0, 2+0:0:0:0:0, 1+0:0:0:0:0, 4+0:0:0:0:0, 5+0:0:0:0:0, 4+0:0:0:0:0, 6+0:0:0:0:0, 4+0:0:0:0:0, 1+0:0:0:0:0, 5+0:0:0:0:0, 4+0:0:0:0:0, 5+2:0:0:0:2, 4+0:0:0:0:0, 4+0:0:0:0:0, 0+0:0:0:0:0, 0+0:0:0:0:0, 0+0:0:0:0:0, 4+0:0:0:0:0, 6+0:0:0:0:0, 6+1:0:0:0:1, 5+0:0:0:0:0, 1+0:0:0:0:0, 4+0:0:0:0:0, 3+0:0:0:0:0, 5+1:1:0:0:0, 5+0:0:0:0:0, 7+2:0:0:0:2, 8+1:0:0:0:1, 5+2:1:0:0:1, 7+3:1:0:0:1, 6+0:0:0:0:0, 4+3:0:0:0:3, 3+0:0:0:0:0, 5+1:0:0:0:0, 4+1:0:0:0:0, 10+4:1:0:0:0, 7+2:0:0:0:2, 9+1:0:0:0:1, 6+3:2:0:0:2, 7+4:0:0:0:0, 4+1:0:0:0:0, 6+2:0:0:0:2, 5+0:0:0:0:0, 4+1:0:0:0:1, 2+0:0:0:0:0, 5+1:1:0:0:1, 4+0:0:0:0:0, 7+4:0:0:0:1, 4+0:0:0:0:0, 12+4:0:0:0:0, 6+0:0:0:0:0, 2+0:0:0:0:0, 7+1:1:0:0:0, 4+0:0:0:0:0, 6+3:0:0:0:3, 5+0:0:0:0:0, 4+0:0:0:0:0, 3+0:0:0:0:0, 3+2:0:0:0:1, 9+4:0:0:0:3, 9+3:1:0:0:2, 6+0:0:0:0:0, 6+2:0:0:0:2, 6+1:0:0:0:0, 1+0:0:0:0:0, 6+1:0:0:0:0, 3+0:0:0:0:0, 7+3:1:0:0:1, 4+0:0:0:0:0, 7+3:0:0:0:3, 6+1:0:0:0:0, 2+1:0:0:0:0, 9+6:0:0:0:4, 5+0:0:0:0:0, 3+0:0:0:0:0, 5+1:0:0:0:0, 4+0:0:0:0:0, 6+0:0:0:0:0, 2+0:0:0:0:0, 7+3:2:0:0:3, 7+2:1:0:0:0, 6+6:2:0:0:5, 6+0:0:0:0:0, 5+1:1:0:0:1, 7+4:0:0:0:3, 5+1:0:0:0:0, 1+3:0:3:0:3, 4+2:0:2:0:0, 3+3:0:0:0:0, 4+0:0:0:0:0, 6+4:2:0:0:2, 6+1:1:0:0:1, 10+6:0:0:0:3, 8+2:0:0:0:2, 8+3:0:0:0:1, 5+1:1:0:0:0, 6+0:0:0:0:0, 11+5:0:0:0:4, 5+0:0:0:0:0, 5+0:0:0:0:0, 4+0:0:0:0:0, 5+1:1:0:0:1, 6+2:0:0:0:0, 5+0:0:0:0:0, 6+0:0:0:0:0, 6+1:0:0:0:1, 7+1:0:0:0:1, 4+0:0:0:0:0, 4+2:0:0:0:0, 6+2:0:0:0:0, 0+0:0:0:0:0, 1042+237:32:7:0:136
G# minor (5#), 2+2:0:0:0:2,  ,  ,  ,  ,  ,  ,  , 3+1:0:0:0:0, 0+0:0:0:0:0, 4+5:0:0:0:0, 2+0:0:0:0:0, 3+8:0:0:0:0, 2+0:0:0:0:0, 4+2:0:0:0:1, 3+1:0:0:0:0, 2+0:0:0:0:0,  ,  , 1+1:0:0:0:0, 3+1:0:0:0:0, 0+0:0:0:0:0, 4+5:0:0:0:0, 2+0:0:0:0:0, 2+7:0:0:0:0, 2+0:0:0:0:0, 3+3:0:0:0:0, 4+4:0:0:0:0, 2+0:0:0:0:0,  ,  ,  , 4+3:0:0:0:0, 7+4:1:0:0:1, 3+2:0:0:0:0, 4+3:0:0:0:0, 3+1:0:0:0:0, 0+0:0:0:0:0, 6+6:0:0:0:1, 2+0:0:0:0:0, 3+8:0:0:0:0, 2+0:0:0:0:0, 4+1:0:0:0:0, 1+1:0:0:0:0, 2+1:0:0:0:0, 0+0:0:0:0:0, 4+1:0:0:0:0, 4+4:0:0:0:0, 6+10:0:0:0:6, 2+2:0:0:0:2, 2+3:0:0:0:0, 2+0:0:0:0:0, 1+0:0:0:0:0, 4+7:0:0:0:0, 4+2:0:0:0:0, 6+6:0:0:0:2, 6+4:0:0:0:0, 4+1:0:0:0:0, 4+1:1:0:0:1, 3+1:0:0:0:0, 1+1:0:0:0:0, 1+0:0:0:0:0, 1+0:0:0:0:0, 3+3:0:0:0:0, 2+1:0:0:0:0, 5+5:0:0:0:0, 2+0:0:0:0:0, 3+0:0:0:0:0, 7+6:0:0:0:1, 4+6:0:0:0:0, 4+4:2:0:0:2, 2+0:0:0:0:0, 2+2:0:0:0:0, 2+0:0:0:0:0, 4+3:0:0:0:1, 3+1:0:0:0:0, 4+6:0:0:0:0, 3+2:0:2:0:2, 1+2:0:0:0:0, 5+3:0:0:0:0, 4+2:0:0:0:0, 8+5:0:0:0:0, 3+1:0:0:0:0, 5+7:0:0:0:0, 2+0:0:0:0:0, 6+4:0:0:0:0, 6+3:0:0:0:0, 8+3:0:0:0:0, 10+5:2:0:0:2, 7+6:0:0:0:1, 7+4:1:0:0:1, 6+3:0:0:0:0, 2+0:0:0:0:0,  , 2+0:0:0:0:0, 1+0:0:0:0:0, 4+5:0:0:0:0, 2+0:0:0:0:0, 2+4:0:0:0:3, 2+0:0:0:0:0, 3+3:0:0:0:0, 2+2:0:0:0:0, 2+0:0:0:0:0, 1+0:0:0:0:0, 1+0:0:0:0:0, 1+0:0:0:0:0, 2+0:0:0:0:0, 1+0:0:0:0:0, 4+5:0:0:0:0, 2+0:0:0:0:0, 2+4:0:0:0:3, 2+0:0:0:0:0, 3+3:0:0:0:0, 2+1:0:0:0:0, 2+0:0:0:0:0, 1+0:0:0:0:0, 1+0:0:0:0:0, 1+0:0:0:0:0, 2+0:0:0:0:0, 4+5:0:0:0:0, 2+0:0:0:0:0, 1+3:0:0:0:0, 2+0:0:0:0:0, 0+0:0:0:0:0, 4+5:0:0:0:0, 2+0:0:0:0:0, 2+3:0:0:0:2, 2+0:0:0:0:0, 4+1:0:0:0:0, 1+0:0:0:0:0, 1+0:0:0:0:0, 1+0:0:0:0:0, 4+1:0:0:0:0, 4+3:0:0:0:0, 3+0:0:0:0:0, 2+0:0:0:0:0, 2+3:0:0:0:0, 2+0:0:0:0:0, 1+0:0:0:0:0, 5+3:0:0:0:0, 4+2:0:0:0:0, 4+1:0:0:0:0, 4+2:0:0:0:0, 6+3:1:0:0:0, 5+2:1:0:0:1, 3+1:0:0:0:0, 4+2:0:0:0:2, 0+3:0:0:0:0, 1+1:0:0:0:0, 2+0:0:0:0:0, 5+5:0:0:0:1, 5+14:0:0:0:0, 5+3:0:0:0:0, 7+2:0:0:0:0, 6+3:0:0:0:1, 5+4:0:0:0:0, 3+0:0:0:0:0, 2+0:0:0:0:0, 0+0:0:0:0:0, 2+1:0:0:0:0, 4+2:0:0:0:0, 2+0:0:0:0:0, 6+5:0:0:0:0, 2+0:0:0:0:0, 6+6:0:0:0:0, 3+1:0:0:0:0, 1+1:0:0:0:0, 6+2:0:0:0:0, 2+0:0:0:0:0, 3+0:0:0:0:0, 3+1:0:0:0:0, 4+1:0:0:0:0, 2+4:0:0:0:0, 2+1:0:1:0:0, 7+6:0:0:0:1, 7+6:1:0:0:1, 4+3:0:0:0:0, 3+0:0:0:0:0, 3+1:0:1:0:1, 0+0:0:0:0:0, 3+1:0:1:0:1, 1+0:0:0:0:0, 7+3:0:0:0:0, 2+0:0:0:0:0, 4+1:0:0:0:0, 3+1:0:0:0:1, 4+4:0:0:0:1, 7+5:0:0:0:0, 2+0:0:0:0:0, 2+1:0:0:0:0, 3+1:0:1:0:0, 1+0:0:0:0:0, 3+2:0:0:0:0, 1+1:0:0:0:0, 6+5:0:0:0:0, 6+3:0:0:0:0, 7+2:0:0:0:0, 3+1:0:0:0:0, 5+4:2:0:0:2, 3+3:0:0:0:1, 2+4:0:0:0:4, 2+3:0:0:0:0, 5+2:0:0:0:0, 4+2:0:0:0:0, 2+0:0:0:0:0, 8+7:2:0:0:0, 4+2:0:0:0:0, 6+9:0:0:0:0, 6+6:0:0:0:0, 8+3:1:0:0:1, 5+3:0:0:0:0, 4+2:0:0:0:0, 8+3:0:0:0:0, 2+0:0:0:0:0, 4+1:0:0:0:0, 3+2:0:0:0:0, 2+1:0:0:0:0, 4+2:0:0:0:0, 4+1:0:0:0:0, 4+6:0:0:0:0, 3+0:0:0:0:0, 3+1:0:0:0:0, 2+2:0:0:0:0, 1+1:0:0:0:1, 3+2:0:0:0:1, 0+0:0:0:0:0, 686+446:15:6:0:55
Gb major (6b), 4+4:0:0:0:4,  ,  ,  ,  ,  ,  ,  , 6+0:0:0:0:0, 2+0:0:0:0:0, 7+0:0:0:0:0, 4+0:0:0:0:0, 8+3:0:0:0:3, 4+0:0:0:0:0, 3+1:0:0:0:0, 6+2:0:0:0:1, 4+0:0:0:0:0,  ,  , 2+0:0:0:0:0, 6+0:0:0:0:0, 3+0:0:0:0:0, 7+2:0:0:0:0, 4+0:0:0:0:0, 7+2:0:0:0:2, 4+0:0:0:0:0, 3+0:0:0:0:0, 7+3:0:0:0:1, 4+0:0:0:0:0,  ,  ,  , 8+3:0:0:0:1, 8+2:1:0:0:1, 6+0:0:0:0:0, 7+2:1:0:0:1, 6+0:0:0:0:0, 2+0:0:0:0:0, 7+2:0:0:0:0, 4+0:0:0:0:0, 8+3:0:0:0:3, 4+0:0:0:0:0, 5+0:0:0:0:0, 2+0:0:0:0:0, 2+0:0:0:0:0, 0+0:0:0:0:0, 5+0:0:0:0:0, 7+0:0:0:0:0, 10+2:0:0:0:2, 4+2:0:0:0:0, 3+2:0:2:0:2, 4+0:0:0:0:0, 3+0:0:0:0:0, 7+0:0:0:0:0, 6+0:0:0:0:0, 8+4:1:0:0:4, 9+4:0:0:0:2, 4+0:0:0:0:0, 8+3:0:0:0:1, 5+0:0:0:0:0, 2+0:0:0:0:0, 2+0:0:0:0:0, 2+0:0:0:0:0, 6+0:0:0:0:0, 4+0:0:0:0:0, 7+1:0:0:0:0, 4+0:0:0:0:0, 7+2:0:0:0:2, 8+3:0:0:0:0, 4+0:0:0:0:0, 9+6:0:0:0:3, 6+2:0:0:0:2, 5+1:1:0:0:0, 4+0:0:0:0:0, 7+1:0:0:0:1, 5+0:0:0:0:0, 7+0:0:0:0:0, 6+2:0:2:0:2, 6+2:0:0:0:0, 10+3:0:0:0:2, 5+1:1:0:0:1, 11+2:0:0:0:2, 7+1:0:0:0:0, 8+3:0:0:0:3, 5+0:0:0:0:0, 8+1:0:0:0:1, 10+3:0:0:0:2, 7+2:0:0:0:0, 8+3:1:0:0:1, 7+3:0:0:0:0, 9+2:1:0:0:2, 10+6:0:0:0:6, 4+0:0:0:0:0,  , 4+0:0:0:0:0, 1+0:0:0:0:0, 6+1:0:0:0:0, 4+0:0:0:0:0, 6+1:0:0:0:1, 4+0:0:0:0:0, 3+2:0:0:0:0, 5+1:0:0:0:1, 4+0:0:0:0:0, 1+0:0:0:0:0, 1+0:0:0:0:0, 1+0:0:0:0:0, 4+0:0:0:0:0, 1+0:0:0:0:0, 6+2:0:0:0:0, 4+0:0:0:0:0, 6+2:0:0:0:2, 4+0:0:0:0:0, 3+2:0:0:0:0, 5+2:0:0:0:2, 4+0:0:0:0:0, 1+0:0:0:0:0, 2+0:0:0:0:0, 1+0:0:0:0:0, 4+0:0:0:0:0, 6+0:0:0:0:0, 4+0:0:0:0:0, 6+1:0:0:0:0, 4+1:0:0:0:0, 1+0:0:0:0:0, 6+0:0:0:0:0, 4+0:0:0:0:0, 6+2:0:0:0:2, 4+0:0:0:0:0, 5+0:0:0:0:0, 1+0:0:0:0:0, 1+0:0:0:0:0, 1+0:0:0:0:0, 5+0:0:0:0:0, 7+0:0:0:0:0, 7+1:0:0:0:1, 5+0:0:0:0:0, 2+0:0:0:0:0, 4+0:0:0:0:0, 3+0:0:0:0:0, 6+1:1:0:0:0, 6+0:0:0:0:0, 8+2:0:0:0:2, 8+1:0:0:0:1, 6+2:1:0:0:1, 8+6:0:0:0:1, 6+0:0:0:0:0, 4+3:0:0:0:3, 3+0:0:0:0:0, 5+1:0:0:0:0, 4+1:0:0:0:0, 10+4:1:0:0:0, 8+2:0:0:0:2, 9+1:0:0:0:1, 7+3:2:0:0:2, 7+4:0:0:0:0, 5+1:0:0:0:0, 7+2:0:0:0:2, 5+0:0:0:0:0, 4+1:0:0:0:1, 3+0:0:0:0:0, 6+1:1:0:0:1, 4+0:0:0:0:0, 8+4:0:0:0:1, 4+0:0:0:0:0, 12+4:0:0:0:0, 6+1:0:0:0:0, 2+0:0:0:0:0, 8+1:1:0:0:0, 4+0:0:0:0:0, 7+3:0:0:0:3, 5+0:0:0:0:0, 5+0:0:0:0:0, 3+0:0:0:0:0, 4+2:0:0:0:1, 10+4:0:0:0:3, 10+3:1:0:0:2, 7+0:0:0:0:0, 7+2:0:0:0:2, 7+1:0:0:0:0, 1+0:0:0:0:0, 7+1:0:0:0:0, 3+0:0:0:0:0, 8+3:1:0:0:1, 4+0:0:0:0:0, 8+3:0:0:0:3, 6+1:0:0:0:0, 3+1:0:0:0:0, 10+6:0:0:0:4, 5+0:0:0:0:0, 3+0:0:0:0:0, 5+1:0:0:0:0, 4+0:0:0:0:0, 6+0:0:0:0:0, 2+0:0:0:0:0, 8+3:2:0:0:3, 8+2:1:0:0:0, 7+6:2:0:0:5, 6+0:0:0:0:0, 6+3:3:0:0:0, 8+4:0:0:0:3, 5+1:0:0:0:0, 1+3:0:3:0:0, 4+2:0:1:0:1, 5+1:1:0:0:0, 4+0:0:0:0:0, 7+5:0:0:0:0, 6+1:1:0:0:0, 10+6:0:0:0:3, 9+2:0:0:0:2, 9+3:0:0:0:1, 6+1:1:0:0:0, 7+0:0:0:0:0, 12+5:0:0:0:4, 5+0:0:0:0:0, 6+0:0:0:0:0, 5+0:0:0:0:0, 5+1:1:0:0:1, 6+2:0:1:0:1, 6+0:0:0:0:0, 7+0:0:0:0:0, 7+1:0:0:0:1, 7+1:0:0:0:1, 4+0:0:0:0:0, 4+1:0:0:0:1, 6+2:0:0:0:0, 0+0:0:0:0:0, 1143+247:28:9:0:131
F# major (6#), 3+2:0:0:0:0,  ,  ,  ,  ,  ,  ,  , 4+1:0:0:0:0, 1+1:0:0:0:0, 5+5:0:0:0:0, 2+0:0:0:0:0, 4+6:0:0:0:3, 3+0:0:0:0:0, 5+2:0:0:0:1, 2+1:0:1:0:1, 3+0:0:0:0:0,  ,  , 1+0:0:0:0:0, 4+1:0:0:0:0, 1+0:0:0:0:0, 5+5:0:0:0:0, 2+0:0:0:0:0, 3+5:0:0:0:3, 3+0:0:0:0:0, 4+3:0:0:0:0, 3+4:0:2:0:2, 3+2:0:0:0:0,  ,  ,  , 5+2:0:0:0:0, 8+4:1:0:0:1, 4+2:0:0:0:0, 5+3:0:0:0:0, 4+1:0:0:0:0, 1+1:0:0:0:0, 7+6:0:0:0:1, 2+0:0:0:0:0, 4+6:0:0:0:3, 3+0:0:0:0:0, 5+1:0:0:0:0, 1+1:0:0:0:0, 2+1:0:0:0:0, 0+0:0:0:0:0, 5+1:0:0:0:0, 5+1:0:0:0:0, 7+8:0:0:0:0, 3+2:0:0:0:0, 3+3:0:0:0:0, 3+0:0:0:0:0, 1+0:0:0:0:0, 5+7:0:0:0:0, 4+2:0:0:0:0, 7+6:0:0:0:2, 7+5:0:0:0:2, 5+3:0:0:0:0, 5+1:1:0:0:1, 4+1:0:0:0:0, 2+1:0:0:0:0, 2+0:0:0:0:0, 1+0:0:0:0:0, 4+3:0:0:0:0, 2+1:0:0:0:0, 6+5:0:0:0:0, 2+0:0:0:0:0, 4+0:0:0:0:0, 8+6:0:0:0:1, 5+6:0:0:0:0, 5+8:2:0:0:3, 3+0:0:0:0:0, 3+2:0:0:0:0, 3+0:0:0:0:0, 5+3:0:0:0:1, 3+1:0:0:0:0, 5+6:0:0:0:0, 3+2:0:2:0:2, 2+3:0:0:0:0, 6+7:0:0:0:1, 4+2:0:0:0:0, 9+5:0:0:0:0, 4+1:0:0:0:0, 6+7:0:0:0:0, 3+0:0:0:0:0, 7+4:0:0:0:0, 7+3:0:0:0:0, 8+3:0:0:0:0, 9+7:0:1:0:1, 8+6:0:0:0:1, 8+4:1:0:0:1, 7+3:0:0:0:0, 3+0:0:0:0:0,  , 3+0:0:0:0:0, 1+0:0:0:0:0, 5+5:0:0:0:0, 2+0:0:0:0:0, 3+5:0:0:0:3, 3+0:0:0:0:0, 4+3:0:0:0:0, 2+2:0:0:0:0, 3+0:0:0:0:0, 1+0:0:0:0:0, 1+0:0:0:0:0, 1+0:0:0:0:0, 3+0:0:0:0:0, 1+0:0:0:0:0, 5+5:0:0:0:0, 2+0:0:0:0:0, 3+6:0:0:0:3, 3+0:0:0:0:0, 4+3:0:0:0:0, 2+1:0:0:0:0, 3+0:0:0:0:0, 1+0:0:0:0:0, 1+0:0:0:0:0, 1+0:0:0:0:0, 2+0:0:0:0:0, 5+5:0:0:0:0, 2+0:0:0:0:0, 2+2:0:0:0:0, 3+0:0:0:0:0, 0+0:0:0:0:0, 5+5:0:0:0:0, 2+0:0:0:0:0, 3+6:0:0:0:2, 3+0:0:0:0:0, 5+1:0:0:0:0, 1+0:0:0:0:0, 1+0:0:0:0:0, 1+0:0:0:0:0, 5+1:0:0:0:0, 5+3:0:0:0:0, 4+0:0:0:0:0, 3+0:0:0:0:0, 2+3:0:0:0:0, 3+0:0:0:0:0, 1+0:0:0:0:0, 6+3:0:0:0:0, 4+1:0:0:0:0, 5+3:0:0:0:0, 5+2:0:0:0:0, 7+4:0:0:0:0, 5+2:1:0:0:1, 4+1:0:0:0:0, 3+4:0:0:0:0, 0+0:0:0:0:0, 2+2:0:0:0:0, 3+0:0:0:0:0, 6+5:0:0:0:1, 6+14:0:0:0:0, 6+3:0:0:0:0, 8+2:0:0:0:0, 7+8:0:0:0:0, 6+2:0:0:0:0, 4+0:0:0:0:0, 3+0:0:0:0:0, 1+0:0:0:0:0, 2+1:0:0:0:0, 5+2:0:0:0:0, 2+0:0:0:0:0, 7+5:0:0:0:0, 2+0:0:0:0:0, 7+6:0:0:0:0, 4+1:0:0:0:0, 1+0:0:0:0:0, 6+8:1:0:0:5, 2+0:0:0:0:0, 4+0:0:0:0:0, 4+1:0:0:0:0, 5+1:0:0:0:0, 3+4:0:0:0:0, 2+1:0:1:0:0, 8+6:0:0:0:1, 8+6:1:0:0:1, 5+3:0:0:0:0, 4+0:0:0:0:0, 4+1:0:1:0:1, 0+0:0:0:0:0, 4+1:0:1:0:1, 2+0:0:0:0:0, 8+3:0:0:0:0, 2+0:0:0:0:0, 5+1:0:0:0:0, 4+1:0:0:0:1, 5+4:0:0:0:1, 7+5:0:0:0:0, 3+0:0:0:0:0, 2+0:0:0:0:0, 4+1:0:1:0:0, 2+2:0:0:0:0, 4+2:0:0:0:0, 1+0:0:0:0:0, 7+7:0:0:0:0, 6+3:0:1:0:1, 8+2:0:0:0:0, 4+1:0:0:0:0, 6+4:2:0:0:2, 4+1:0:0:0:0, 3+4:0:0:0:0, 1+3:0:0:0:0, 5+2:0:0:0:0, 4+2:0:0:0:0, 2+0:0:0:0:0, 9+7:2:0:0:0, 5+2:0:0:0:0, 7+9:0:0:0:0, 7+4:0:0:0:0, 7+7:0:1:0:2, 6+3:0:0:0:0, 5+2:0:0:0:0, 9+3:0:0:0:0, 3+0:0:0:0:0, 5+1:0:0:0:0, 4+2:0:0:0:0, 3+1:0:0:0:0, 5+2:0:0:0:0, 5+1:0:0:0:0, 5+6:0:0:0:0, 4+0:0:0:0:0, 4+1:0:0:0:0, 3+2:0:0:0:0, 2+1:0:0:0:0, 4+2:0:0:0:0, 0+0:0:0:0:0, 830+468:12:12:0:57
Eb minor (6b), 4+2:0:0:0:2,  ,  ,  ,  ,  ,  ,  , 6+1:0:0:0:0, 2+0:0:0:0:0, 7+0:0:0:0:0, 4+0:0:0:0:0, 8+3:0:0:0:3, 4+0:0:0:0:0, 3+4:0:0:0:0, 6+2:0:0:0:1, 4+0:0:0:0:0,  ,  , 2+0:0:0:0:0, 6+0:0:0:0:0, 3+0:0:0:0:0, 7+2:0:0:0:0, 4+0:0:0:0:0, 7+2:0:0:0:2, 4+0:0:0:0:0, 3+0:0:0:0:0, 7+3:0:0:0:1, 4+0:0:0:0:0,  ,  ,  , 8+3:0:0:0:1, 8+2:1:0:0:1, 6+0:0:0:0:0, 7+2:1:0:0:1, 6+0:0:0:0:0, 2+0:0:0:0:0, 7+2:0:0:0:0, 4+0:0:0:0:0, 8+3:0:0:0:3, 4+0:0:0:0:0, 5+0:0:0:0:0, 2+0:0:0:0:0, 2+0:0:0:0:0, 0+0:0:0:0:0, 5+0:0:0:0:0, 7+0:0:0:0:0, 10+2:0:0:0:2, 4+2:0:0:0:0, 3+2:0:2:0:2, 4+0:0:0:0:0, 3+0:0:0:0:0, 7+0:0:0:0:0, 6+0:0:0:0:0, 8+4:1:0:0:4, 9+4:0:0:0:2, 4+0:0:0:0:0, 8+3:0:0:0:1, 5+0:0:0:0:0, 2+0:0:0:0:0, 2+0:0:0:0:0, 2+0:0:0:0:0, 6+0:0:0:0:0, 4+0:0:0:0:0, 7+1:0:0:0:0, 4+0:0:0:0:0, 7+2:0:0:0:2, 8+3:0:0:0:0, 4+0:0:0:0:0, 9+6:0:0:0:3, 6+2:0:0:0:2, 5+1:1:0:0:0, 4+0:0:0:0:0, 7+1:0:0:0:1, 5+0:0:0:0:0, 7+0:0:0:0:0, 6+2:0:2:0:2, 6+2:0:0:0:0, 10+3:0:0:0:2, 5+1:1:0:0:1, 11+2:0:0:0:2, 7+1:0:0:0:0, 8+3:0:0:0:3, 5+0:0:0:0:0, 8+1:0:0:0:1, 10+3:0:0:0:2, 7+5:0:0:0:4, 8+3:1:0:0:1, 7+3:0:0:0:0, 9+2:1:0:0:2, 10+6:0:0:0:6, 4+0:0:0:0:0,  , 4+0:0:0:0:0, 1+0:0:0:0:0, 6+1:0:0:0:0, 4+0:0:0:0:0, 6+1:0:0:0:1, 4+0:0:0:0:0, 3+2:0:0:0:0, 5+1:0:0:0:1, 4+0:0:0:0:0, 1+0:0:0:0:0, 1+0:0:0:0:0, 1+0:0:0:0:0, 4+0:0:0:0:0, 1+0:0:0:0:0, 6+2:0:0:0:0, 4+0:0:0:0:0, 6+2:0:0:0:2, 4+0:0:0:0:0, 3+2:0:0:0:0, 5+2:0:0:0:2, 4+0:0:0:0:0, 1+0:0:0:0:0, 2+0:0:0:0:0, 1+0:0:0:0:0, 4+0:0:0:0:0, 6+0:0:0:0:0, 4+0:0:0:0:0, 6+1:0:0:0:0, 4+1:0:0:0:0, 1+0:0:0:0:0, 6+0:0:0:0:0, 4+0:0:0:0:0, 6+2:0:0:0:2, 4+0:0:0:0:0, 5+0:0:0:0:0, 1+0:0:0:0:0, 1+0:0:0:0:0, 1+0:0:0:0:0, 5+0:0:0:0:0, 7+0:0:0:0:0, 7+1:0:0:0:1, 5+0:0:0:0:0, 2+0:0:0:0:0, 4+0:0:0:0:0, 3+0:0:0:0:0, 6+1:1:0:0:0, 6+0:0:0:0:0, 8+2:0:0:0:2, 8+1:0:0:0:1, 6+2:1:0:0:1, 8+6:0:0:0:1, 6+0:0:0:0:0, 4+3:0:0:0:3, 3+0:0:0:0:0, 5+1:0:0:0:0, 4+1:0:0:0:0, 10+4:1:0:0:0, 8+2:0:0:0:2, 9+1:0:0:0:1, 7+3:2:0:0:2, 7+4:0:0:0:0, 5+1:0:0:0:0, 7+2:0:0:0:2, 5+0:0:0:0:0, 4+1:0:0:0:1, 3+0:0:0:0:0, 6+1:1:0:0:1, 4+0:0:0:0:0, 8+4:0:0:0:1, 4+0:0:0:0:0, 12+4:0:0:0:0, 6+1:0:0:0:0, 2+0:0:0:0:0, 8+1:1:0:0:0, 4+0:0:0:0:0, 7+3:0:0:0:3, 5+0:0:0:0:0, 5+0:0:0:0:0, 3+0:0:0:0:0, 4+2:0:0:0:1, 10+4:0:0:0:3, 10+3:1:0:0:2, 7+0:0:0:0:0, 7+2:0:0:0:2, 7+1:0:0:0:0, 1+0:0:0:0:0, 7+1:0:0:0:0, 3+0:0:0:0:0, 8+3:1:0:0:1, 4+0:0:0:0:0, 8+3:0:0:0:3, 6+1:0:0:0:0, 3+6:0:0:0:0, 10+6:0:0:0:4, 5+0:0:0:0:0, 3+0:0:0:0:0, 5+1:0:0:0:0, 4+0:0:0:0:0, 6+0:0:0:0:0, 2+0:0:0:0:0, 8+3:2:0:0:3, 8+2:1:0:0:0, 7+6:2:0:0:5, 6+0:0:0:0:0, 6+3:3:0:0:0, 8+4:0:0:0:3, 5+1:0:0:0:0, 1+3:0:3:0:3, 3+2:0:2:0:0, 5+1:1:0:0:0, 4+0:0:0:0:0, 7+5:0:0:0:0, 6+1:1:0:0:0, 10+6:0:0:0:3, 9+2:0:0:0:2, 9+3:0:0:0:1, 6+1:1:0:0:0, 7+0:0:0:0:0, 12+5:0:0:0:4, 5+0:0:0:0:0, 6+0:0:0:0:0, 5+0:0:0:0:0, 5+1:1:0:0:1, 6+2:0:1:0:1, 6+0:0:0:0:0, 7+0:0:0:0:0, 7+1:0:0:0:1, 7+1:0:0:0:1, 4+0:0:0:0:0, 4+1:0:0:0:1, 6+2:0:0:0:0, 0+0:0:0:0:0, 1142+257:28:10:0:135
D# minor (6#), 3+2:0:0:0:2,  ,  ,  ,  ,  ,  ,  , 4+1:0:0:0:0, 1+1:0:0:0:0, 5+5:0:0:0:0, 2+0:0:0:0:0, 4+6:0:0:0:3, 3+0:0:0:0:0, 5+2:0:0:0:1, 2+1:0:1:0:1, 3+0:0:0:0:0,  ,  , 1+0:0:0:0:0, 4+1:0:0:0:0, 1+0:0:0:0:0, 5+5:0:0:0:0, 2+0:0:0:0:0, 3+5:0:0:0:3, 3+0:0:0:0:0, 4+3:0:0:0:0, 3+4:0:2:0:2, 3+2:0:0:0:0,  ,  ,  , 5+3:0:0:0:0, 8+4:1:0:0:1, 4+2:0:0:0:0, 5+3:0:0:0:0, 4+1:0:0:0:0, 1+0:0:0:0:0, 7+3:0:0:0:0, 2+0:0:0:0:0, 4+6:0:0:0:3, 3+0:0:0:0:0, 5+1:0:0:0:0, 1+1:0:0:0:0, 2+1:0:0:0:0, 0+0:0:0:0:0, 5+1:0:0:0:0, 5+1:0:0:0:0, 7+10:0:0:0:6, 3+2:0:0:0:2, 3+3:0:0:0:1, 3+0:0:0:0:0, 1+0:0:0:0:0, 5+7:0:0:0:0, 4+2:0:0:0:0, 7+6:0:0:0:2, 7+5:0:0:0:2, 5+3:0:0:0:0, 5+1:1:0:0:1, 4+1:0:0:0:0, 2+1:0:0:0:0, 2+0:0:0:0:0, 1+0:0:0:0:0, 4+3:0:0:0:0, 2+0:0:0:0:0, 6+2:0:0:0:0, 2+0:0:0:0:0, 4+0:0:0:0:0, 8+6:0:0:0:1, 5+6:0:0:0:0, 5+8:2:0:0:3, 3+0:0:0:0:0, 3+2:0:0:0:0, 3+0:0:0:0:0, 5+3:0:0:0:1, 3+1:0:0:0:0, 5+6:0:0:0:0, 3+2:0:2:0:2, 2+3:0:0:0:0, 6+3:0:0:0:0, 4+1:0:0:0:0, 9+5:0:0:0:0, 4+1:0:0:0:0, 6+7:0:0:0:0, 3+0:0:0:0:0, 7+4:0:0:0:0, 7+3:0:0:0:0, 8+3:0:0:0:0, 9+7:0:1:0:1, 8+6:0:0:0:1, 8+4:1:0:0:1, 7+3:0:0:0:0, 3+0:0:0:0:0,  , 3+0:0:0:0:0, 1+0:0:0:0:0, 5+5:0:0:0:0, 2+0:0:0:0:0, 3+4:0:0:0:3, 3+1:0:0:0:0, 4+3:0:0:0:0, 2+0:0:0:0:0, 3+0:0:0:0:0, 1+0:0:0:0:0, 1+0:0:0:0:0, 1+0:0:0:0:0, 3+0:0:0:0:0, 1+0:0:0:0:0, 5+5:0:0:0:0, 2+0:0:0:0:0, 3+4:0:0:0:3, 3+2:0:0:0:0, 4+3:0:0:0:0, 2+0:0:0:0:0, 3+0:0:0:0:0, 1+0:0:0:0:0, 1+0:0:0:0:0, 1+0:0:0:0:0, 2+0:0:0:0:0, 5+5:0:0:0:0, 2+0:0:0:0:0, 2+2:0:0:0:0, 3+0:0:0:0:0, 0+0:0:0:0:0, 5+5:0:0:0:0, 2+0:0:0:0:0, 3+3:0:0:0:2, 3+0:0:0:0:0, 5+1:0:0:0:0, 1+0:0:0:0:0, 1+0:0:0:0:0, 1+0:0:0:0:0, 5+1:0:0:0:0, 5+1:0:0:0:0, 4+0:0:0:0:0, 3+1:0:0:0:0, 2+3:0:0:0:0, 3+1:0:0:0:0, 1+0:0:0:0:0, 6+3:0:0:0:0, 4+1:0:0:0:0, 5+1:0:0:0:0, 5+2:0:0:0:0, 7+4:0:0:0:0, 5+2:1:0:0:1, 4+1:0:0:0:0, 3+4:0:0:0:0, 0+1:0:0:0:0, 2+2:0:0:0:1, 3+0:0:0:0:0, 6+5:0:0:0:1, 6+14:0:0:0:0, 6+3:0:0:0:0, 8+2:0:0:0:0, 7+8:0:0:0:0, 6+2:0:0:0:0, 4+0:0:0:0:0, 3+0:0:0:0:0, 1+0:0:0:0:0, 2+1:0:0:0:0, 5+1:0:0:0:0, 2+0:0:0:0:0, 7+5:0:0:0:0, 2+0:0:0:0:0, 7+6:0:0:0:0, 4+1:0:0:0:0, 1+1:0:0:0:0, 7+2:0:0:0:0, 2+0:0:0:0:0, 4+0:0:0:0:0, 4+1:0:0:0:0, 5+1:0:0:0:0, 3+4:0:0:0:0, 2+1:0:1:0:0, 8+6:0:0:0:1, 8+6:1:0:0:1, 5+1:0:0:0:0, 4+0:0:0:0:0, 4+1:0:1:0:1, 0+0:0:0:0:0, 4+1:0:1:0:1, 2+0:0:0:0:0, 8+3:0:0:0:0, 2+0:0:0:0:0, 5+1:0:0:0:0, 4+1:0:0:0:1, 5+4:0:0:0:1, 7+5:0:0:0:0, 3+0:0:0:0:0, 2+0:0:0:0:0, 4+1:0:1:0:0, 2+2:0:0:0:0, 4+2:0:0:0:0, 1+1:0:0:0:0, 7+5:0:0:0:0, 6+3:0:1:0:1, 8+2:0:0:0:0, 4+1:0:0:0:0, 6+4:2:0:0:2, 4+3:0:0:0:1, 3+4:0:0:0:4, 1+3:0:0:0:0, 5+2:0:0:0:0, 4+2:0:0:0:0, 2+2:0:0:0:0, 9+8:0:0:0:0, 5+2:0:0:0:0, 7+9:0:0:0:0, 7+4:0:0:0:0, 7+7:0:1:0:2, 6+3:0:0:0:0, 5+2:0:0:0:0, 9+3:0:0:0:0, 3+0:0:0:0:0, 5+1:0:0:0:0, 4+2:0:0:0:0, 3+1:0:0:0:0, 5+2:0:0:0:0, 5+1:0:0:0:0, 5+1:0:0:0:0, 4+7:0:0:0:5, 4+6:0:0:0:0, 3+1:0:0:0:1, 2+1:0:0:0:1, 4+2:0:0:0:1, 0+0:0:0:0:0, 831+453:9:12:0:75
Cb major (7b), 4+4:0:0:0:4,  ,  ,  ,  ,  ,  ,  , 6+0:0:0:0:0, 2+0:0:0:0:0, 7+0:0:0:0:0, 4+0:0:0:0:0, 8+3:0:0:0:3, 4+0:0:0:0:0, 3+1:0:0:0:0, 6+2:0:0:0:1, 4+0:0:0:0:0,  ,  , 2+0:0:0:0:0, 6+0:0:0:0:0, 3+0:0:0:0:0, 7+2:0:0:0:0, 4+0:0:0:0:0, 7+2:0:0:0:2, 4+0:0:0:0:0, 3+0:0:0:0:0, 7+3:0:0:0:1, 4+0:0:0:0:0,  ,  ,  , 8+3:0:0:0:1, 8+2:1:0:0:1, 6+0:0:0:0:0, 7+3:1:0:0:1, 6+0:0:0:0:0, 2+0:0:0:0:0, 8+2:0:0:0:0, 4+0:0:0:0:0, 8+3:0:0:0:3, 4+0:0:0:0:0, 5+0:0:0:0:0, 2+0:0:0:0:0, 2+0:0:0:0:0, 0+0:0:0:0:0, 5+0:0:0:0:0, 7+1:0:0:0:0, 10+2:0:0:0:2, 2+3:0:1:0:1, 3+2:0:2:0:2, 4+0:0:0:0:0, 3+0:0:0:0:0, 7+0:0:0:0:0, 6+0:0:0:0:0, 8+4:1:0:0:4, 9+4:0:0:0:2, 4+0:0:0:0:0, 8+3:0:0:0:1, 5+0:0:0:0:0, 2+0:0:0:0:0, 2+0:0:0:0:0, 2+0:0:0:0:0, 6+0:0:0:0:0, 4+0:0:0:0:0, 7+1:0:0:0:0, 4+0:0:0:0:0, 7+2:0:0:0:2, 8+3:0:0:0:0, 4+0:0:0:0:0, 9+6:0:0:0:3, 6+2:0:0:0:2, 5+1:1:0:0:0, 4+0:0:0:0:0, 5+2:2:1:0:1, 5+0:0:0:0:0, 7+0:0:0:0:0, 6+2:0:2:0:2, 6+2:0:0:0:0, 10+3:0:0:0:2, 5+1:1:0:0:1, 11+2:0:0:0:2, 7+1:0:0:0:0, 8+3:0:0:0:3, 5+0:0:0:0:0, 8+1:0:0:0:1, 10+3:0:0:0:2, 8+2:0:0:0:0, 9+3:1:0:0:1, 8+3:0:0:0:0, 9+2:1:0:0:2, 10+6:0:0:0:6, 4+0:0:0:0:0,  , 4+0:0:0:0:0, 1+0:0:0:0:0, 6+1:0:0:0:0, 4+0:0:0:0:0, 6+1:0:0:0:1, 4+0:0:0:0:0, 3+0:0:0:0:0, 5+1:0:0:0:1, 4+0:0:0:0:0, 1+0:0:0:0:0, 1+0:0:0:0:0, 1+0:0:0:0:0, 4+0:0:0:0:0, 1+0:0:0:0:0, 6+2:0:0:0:0, 4+0:0:0:0:0, 6+2:0:0:0:2, 4+0:0:0:0:0, 3+0:0:0:0:0, 5+2:0:0:0:2, 4+0:0:0:0:0, 1+0:0:0:0:0, 2+0:0:0:0:0, 1+0:0:0:0:0, 4+0:0:0:0:0, 6+0:0:0:0:0, 4+0:0:0:0:0, 6+1:0:0:0:0, 4+1:0:0:0:0, 1+0:0:0:0:0, 6+0:0:0:0:0, 4+0:0:0:0:0, 6+2:0:0:0:2, 4+0:0:0:0:0, 5+0:0:0:0:0, 1+0:0:0:0:0, 1+0:0:0:0:0, 1+0:0:0:0:0, 5+0:0:0:0:0, 7+1:0:0:0:0, 7+1:0:0:0:1, 5+0:0:0:0:0, 2+0:0:0:0:0, 4+0:0:0:0:0, 3+0:0:0:0:0, 6+1:1:0:0:0, 6+0:0:0:0:0, 8+2:0:0:0:2, 8+1:0:0:0:1, 6+2:1:0:0:1, 8+6:0:0:0:1, 6+0:0:0:0:0, 5+3:0:0:0:3, 3+0:0:0:0:0, 5+1:0:0:0:0, 4+1:0:0:0:0, 10+4:1:0:0:0, 8+7:0:0:0:0, 9+1:0:0:0:1, 7+3:2:0:0:2, 8+4:0:0:0:0, 5+1:0:0:0:0, 7+2:0:0:0:2, 5+0:0:0:0:0, 4+1:0:0:0:1, 3+0:0:0:0:0, 6+1:1:0:0:1, 4+0:0:0:0:0, 8+4:0:0:0:1, 4+0:0:0:0:0, 12+5:0:0:0:1, 6+0:0:0:0:0, 2+0:0:0:0:0, 8+1:1:0:0:0, 4+0:0:0:0:0, 7+3:0:0:0:3, 5+0:0:0:0:0, 5+0:0:0:0:0, 3+0:0:0:0:0, 4+2:0:0:0:1, 10+4:0:0:0:3, 10+3:1:0:0:2, 7+0:0:0:0:0, 7+2:0:0:0:2, 7+1:0:0:0:0, 1+0:0:0:0:0, 7+1:0:0:0:0, 3+0:0:0:0:0, 8+3:1:0:0:1, 4+0:0:0:0:0, 8+3:0:0:0:3, 6+1:0:0:0:0, 3+1:0:0:0:0, 10+6:0:0:0:4, 5+0:0:0:0:0, 3+0:0:0:0:0, 6+1:0:0:0:0, 4+0:0:0:0:0, 6+0:0:0:0:0, 2+0:0:0:0:0, 8+3:2:0:0:3, 8+2:1:0:0:0, 7+6:2:0:0:5, 6+0:0:0:0:0, 6+3:1:0:0:0, 8+3:0:0:0:0, 5+1:0:0:0:0, 2+3:0:3:0:3, 3+2:0:2:0:0, 4+3:0:0:0:0, 4+0:0:0:0:0, 8+7:2:0:0:0, 6+1:1:0:0:1, 10+6:0:0:0:3, 9+2:0:0:0:2, 10+3:0:0:0:1, 6+1:1:0:0:0, 7+0:0:0:0:0, 12+5:0:0:0:4, 5+0:0:0:0:0, 6+0:0:0:0:0, 5+0:0:0:0:0, 5+1:1:0:0:1, 6+2:0:1:0:1, 6+0:0:0:0:0, 7+0:0:0:0:0, 7+1:0:0:0:1, 7+1:0:0:0:1, 4+0:0:0:0:0, 2+2:2:1:0:1, 4+3:0:1:0:1, 0+0:0:0:0:0, 1143+258:31:14:0:132
C# major (7#), 4+3:0:0:0:1,  ,  ,  ,  ,  ,  ,  , 5+4:0:0:0:0, 2+2:0:0:0:0, 6+2:0:0:0:0, 3+1:0:0:0:0, 5+4:0:0:0:0, 4+1:0:0:0:0, 5+2:0:0:0:0, 3+2:0:1:0:1, 4+3:0:0:0:1,  ,  , 1+0:0:0:0:0, 5+4:0:0:0:0, 2+1:0:0:0:0, 6+2:0:0:0:0, 3+1:0:0:0:0, 4+3:0:0:0:0, 4+1:0:0:0:0, 4+3:0:0:0:0, 4+4:0:2:0:2, 4+4:0:0:0:1,  ,  ,  , 6+3:0:0:0:0, 8+4:3:0:0:3, 5+1:0:0:0:0, 4+2:1:1:0:2, 5+1:0:0:0:0, 2+0:0:0:0:0, 8+3:0:0:0:0, 3+1:0:0:0:0, 5+4:0:0:0:0, 4+2:0:0:0:0, 5+1:0:0:0:0, 2+0:0:0:0:0, 2+0:0:0:0:0, 1+0:0:0:0:0, 5+1:0:0:0:0, 6+1:0:0:0:0, 8+8:0:0:0:0, 4+2:0:0:0:0, 4+3:0:0:0:0, 4+0:0:0:0:0, 1+0:0:0:0:0, 6+1:0:0:0:0, 5+1:0:0:0:0, 8+6:0:0:0:2, 8+5:0:0:0:2, 5+3:0:0:0:0, 6+1:1:0:0:1, 5+1:0:0:0:0, 2+1:0:0:0:0, 2+0:0:0:0:0, 2+0:0:0:0:0, 5+3:0:0:0:0, 3+0:0:0:0:0, 6+2:0:0:0:0, 3+2:0:0:0:0, 5+0:0:0:0:0, 9+6:0:0:0:1, 5+6:0:0:0:0, 6+4:2:0:0:2, 4+3:0:0:0:0, 4+1:0:0:0:0, 4+1:0:0:0:0, 6+1:0:0:0:0, 4+3:0:0:0:0, 6+1:0:0:0:0, 4+2:0:2:0:2, 3+1:0:0:0:0, 7+7:0:0:0:1, 5+1:0:0:0:0, 10+5:0:0:0:0, 5+1:0:0:0:0, 7+1:0:0:0:0, 4+3:0:0:0:0, 7+4:0:0:0:0, 8+3:0:0:0:0, 9+3:0:0:0:0, 9+7:0:1:0:1, 8+6:0:0:0:1, 9+4:1:0:0:1, 8+3:0:0:0:0, 4+1:0:0:0:0,  , 4+2:0:0:0:0, 1+1:0:0:0:0, 5+1:0:0:0:0, 3+1:0:0:0:0, 4+3:0:0:0:0, 4+1:0:0:0:0, 4+3:0:0:0:0, 3+2:0:0:0:0, 4+2:0:0:0:0, 1+0:0:0:0:0, 1+0:0:0:0:0, 1+0:0:0:0:0, 4+0:0:0:0:0, 1+0:0:0:0:0, 5+1:0:0:0:0, 3+1:0:0:0:0, 4+3:0:0:0:0, 4+2:0:0:0:0, 4+3:0:0:0:0, 3+1:0:0:0:0, 4+2:0:0:0:0, 1+0:0:0:0:0, 2+0:0:0:0:0, 1+0:0:0:0:0, 3+0:0:0:0:0, 5+1:0:0:0:0, 3+1:0:0:0:0, 3+0:0:0:0:0, 4+1:0:0:0:0, 1+0:0:0:0:0, 5+1:0:0:0:0, 3+1:0:0:0:0, 4+2:0:0:0:0, 4+2:0:0:0:0, 5+1:0:0:0:0, 0+0:0:0:0:0, 0+0:0:0:0:0, 0+0:0:0:0:0, 5+1:0:0:0:0, 6+1:0:0:0:0, 5+0:0:0:0:0, 4+1:0:0:0:0, 3+0:0:0:0:0, 4+0:0:0:0:0, 2+0:0:0:0:0, 6+3:0:0:0:0, 5+1:0:0:0:0, 6+1:0:0:0:0, 6+2:0:0:0:0, 7+4:0:0:0:0, 6+2:1:0:0:1, 5+2:0:0:0:0, 3+2:0:1:0:1, 1+2:0:0:0:0, 3+2:0:0:0:1, 4+0:0:0:0:0, 5+5:0:1:0:0, 7+14:0:0:0:0, 7+3:0:0:0:0, 8+2:1:0:0:1, 8+8:0:0:0:0, 6+2:0:0:0:0, 5+0:0:0:0:0, 4+0:0:0:0:0, 2+0:0:0:0:0, 3+1:0:0:0:0, 4+2:0:1:0:1, 3+6:0:0:0:0, 7+5:0:0:0:0, 3+1:0:0:0:0, 8+4:0:0:0:0, 5+1:0:0:0:0, 1+0:0:0:0:0, 8+2:0:0:0:0, 3+1:0:0:0:0, 5+0:0:0:0:0, 5+3:0:0:0:0, 5+1:0:0:0:0, 3+0:0:0:0:0, 3+1:0:1:0:1, 7+6:0:2:0:2, 9+6:1:0:0:1, 6+1:0:0:0:0, 5+0:0:0:0:0, 6+2:0:0:0:0, 0+0:0:0:0:0, 6+2:0:0:0:0, 2+1:0:0:0:0, 8+3:0:0:0:0, 3+2:0:0:0:0, 6+1:0:0:0:0, 5+2:0:0:0:0, 5+4:0:0:0:1, 8+5:0:0:0:0, 4+0:0:0:0:0, 2+0:0:0:0:0, 5+1:0:1:0:0, 3+2:0:0:0:0, 5+4:0:0:0:0, 2+3:0:0:0:0, 8+5:0:0:0:0, 7+3:0:1:0:1, 8+2:1:0:0:1, 5+1:0:0:0:0, 6+4:2:0:0:2, 5+1:0:0:0:0, 4+4:0:0:0:0, 1+3:0:0:0:0, 6+2:0:0:0:0, 5+2:0:0:0:0, 3+2:0:0:0:0, 9+8:0:0:0:0, 6+2:0:0:0:0, 8+9:0:0:0:0, 8+4:0:0:0:0, 7+4:0:2:0:2, 6+3:0:0:0:0, 6+2:0:0:0:0, 10+3:0:0:0:0, 4+1:0:0:0:0, 6+1:0:0:0:0, 5+2:0:0:0:0, 4+1:0:0:0:0, 6+2:0:0:0:0, 6+1:0:0:0:0, 6+1:0:0:0:0, 5+7:0:0:0:5, 5+6:0:0:0:0, 3+1:0:0:0:1, 2+1:0:0:0:0, 4+2:0:0:0:1, 0+0:0:0:0:0, 977+448:14:17:0:48
Ab minor (7b), 4+3:0:0:0:2,  ,  ,  ,  ,  ,  ,  , 6+0:0:0:0:0, 2+0:0:0:0:0, 7+0:0:0:0:0, 4+0:0:0:0:0, 8+3:0:0:0:3, 4+0:0:0:0:0, 3+1:0:0:0:0, 6+2:0:0:0:1, 4+0:0:0:0:0,  ,  , 2+0:0:0:0:0, 6+0:0:0:0:0, 3+0:0:0:0:0, 7+2:0:0:0:0, 4+0:0:0:0:0, 7+2:0:0:0:2, 4+0:0:0:0:0, 3+0:0:0:0:0, 7+3:0:0:0:1, 4+0:0:0:0:0,  ,  ,  , 8+3:0:0:0:1, 8+2:1:0:0:1, 6+0:0:0:0:0, 7+3:1:0:0:1, 6+0:0:0:0:0, 2+0:0:0:0:0, 8+2:0:0:0:0, 4+0:0:0:0:0, 8+3:0:0:0:3, 4+0:0:0:0:0, 5+0:0:0:0:0, 2+0:0:0:0:0, 2+0:0:0:0:0, 0+0:0:0:0:0, 5+0:0:0:0:0, 7+1:0:0:0:0, 10+2:0:0:0:2, 2+3:0:1:0:1, 3+2:0:2:0:2, 4+0:0:0:0:0, 3+0:0:0:0:0, 7+0:0:0:0:0, 6+0:0:0:0:0, 8+4:1:0:0:4, 9+4:0:0:0:2, 4+0:0:0:0:0, 8+3:0:0:0:1, 5+0:0:0:0:0, 2+0:0:0:0:0, 2+0:0:0:0:0, 2+0:0:0:0:0, 6+0:0:0:0:0, 4+0:0:0:0:0, 7+1:0:0:0:0, 4+0:0:0:0:0, 7+2:0:0:0:2, 8+3:0:0:0:0, 4+0:0:0:0:0, 9+6:0:0:0:3, 6+2:0:0:0:2, 5+1:1:0:0:0, 4+0:0:0:0:0, 5+2:2:1:0:1, 5+0:0:0:0:0, 7+0:0:0:0:0, 6+2:0:2:0:2, 6+2:0:0:0:0, 10+3:0:0:0:2, 5+1:1:0:0:1, 11+2:0:0:0:2, 7+1:0:0:0:0, 8+3:0:0:0:3, 5+0:0:0:0:0, 8+1:0:0:0:1, 10+3:0:0:0:2, 8+2:0:0:0:0, 9+3:1:0:0:1, 8+3:0:0:0:0, 9+2:1:0:0:2, 10+6:0:0:0:6, 4+0:0:0:0:0,  , 4+0:0:0:0:0, 1+0:0:0:0:0, 6+1:0:0:0:0, 4+0:0:0:0:0, 6+1:0:0:0:1, 4+0:0:0:0:0, 3+0:0:0:0:0, 5+1:0:0:0:1, 4+0:0:0:0:0, 1+0:0:0:0:0, 1+0:0:0:0:0, 1+0:0:0:0:0, 4+0:0:0:0:0, 1+0:0:0:0:0, 6+2:0:0:0:0, 4+0:0:0:0:0, 6+2:0:0:0:2, 4+0:0:0:0:0, 3+0:0:0:0:0, 5+2:0:0:0:2, 4+0:0:0:0:0, 1+0:0:0:0:0, 2+0:0:0:0:0, 1+0:0:0:0:0, 4+0:0:0:0:0, 6+0:0:0:0:0, 4+0:0:0:0:0, 6+1:0:0:0:0, 4+1:0:0:0:0, 1+0:0:0:0:0, 6+0:0:0:0:0, 4+0:0:0:0:0, 6+2:0:0:0:2, 4+0:0:0:0:0, 5+0:0:0:0:0, 1+0:0:0:0:0, 1+0:0:0:0:0, 1+0:0:0:0:0, 5+0:0:0:0:0, 7+1:0:0:0:0, 7+1:0:0:0:1, 5+0:0:0:0:0, 2+0:0:0:0:0, 4+0:0:0:0:0, 3+0:0:0:0:0, 6+1:1:0:0:0, 6+0:0:0:0:0, 8+2:0:0:0:2, 8+1:0:0:0:1, 6+2:1:0:0:1, 8+6:0:0:0:1, 6+0:0:0:0:0, 5+3:0:0:0:3, 3+0:0:0:0:0, 5+1:0:0:0:0, 4+1:0:0:0:0, 10+4:1:0:0:0, 8+7:0:0:0:0, 9+1:0:0:0:1, 7+3:2:0:0:2, 8+4:0:0:0:0, 5+1:0:0:0:0, 7+2:0:0:0:2, 5+0:0:0:0:0, 4+1:0:0:0:1, 3+0:0:0:0:0, 6+1:1:0:0:1, 4+0:0:0:0:0, 8+4:0:0:0:1, 4+0:0:0:0:0, 12+5:0:0:0:1, 6+0:0:0:0:0, 2+0:0:0:0:0, 8+1:1:0:0:0, 4+0:0:0:0:0, 7+3:0:0:0:3, 5+0:0:0:0:0, 5+0:0:0:0:0, 3+0:0:0:0:0, 4+2:0:0:0:1, 10+4:0:0:0:3, 10+3:1:0:0:2, 7+0:0:0:0:0, 7+2:0:0:0:2, 7+1:0:0:0:0, 1+0:0:0:0:0, 7+1:0:0:0:0, 3+0:0:0:0:0, 8+3:1:0:0:1, 4+0:0:0:0:0, 8+3:0:0:0:3, 6+1:0:0:0:0, 3+1:0:0:0:0, 10+6:0:0:0:4, 5+0:0:0:0:0, 3+0:0:0:0:0, 6+1:0:0:0:0, 4+0:0:0:0:0, 6+0:0:0:0:0, 2+0:0:0:0:0, 8+3:2:0:0:3, 8+2:1:0:0:0, 7+6:2:0:0:5, 6+0:0:0:0:0, 6+3:1:0:0:0, 8+3:0:0:0:0, 5+1:0:0:0:0, 2+3:0:3:0:3, 3+2:0:2:0:0, 4+3:0:0:0:0, 4+0:0:0:0:0, 8+7:2:0:0:0, 6+1:1:0:0:1, 10+6:0:0:0:3, 9+2:0:0:0:2, 10+3:0:0:0:1, 6+1:1:0:0:0, 7+0:0:0:0:0, 12+5:0:0:0:4, 5+0:0:0:0:0, 6+0:0:0:0:0, 5+0:0:0:0:0, 5+1:1:0:0:1, 6+2:0:1:0:1, 6+0:0:0:0:0, 7+0:0:0:0:0, 7+1:0:0:0:1, 7+1:0:0:0:1, 4+0:0:0:0:0, 2+2:2:1:0:1, 4+3:0:1:0:1, 0+0:0:0:0:0, 1143+257:31:14:0:130
A# minor (7#), 4+3:0:0:0:1,  ,  ,  ,  ,  ,  ,  , 5+1:0:0:0:0, 2+0:0:0:0:0, 6+2:0:0:0:0, 3+1:0:0:0:0, 5+4:0:0:0:0, 4+1:0:0:0:0, 5+2:0:0:0:0, 3+2:0:1:0:1, 4+1:0:0:0:0,  ,  , 1+0:0:0:0:0, 5+1:0:0:0:0, 2+0:0:0:0:0, 6+2:0:0:0:0, 3+1:0:0:0:0, 4+3:0:0:0:0, 4+1:0:0:0:0, 4+3:0:0:0:0, 4+4:0:2:0:2, 4+1:0:0:0:0,  ,  ,  , 6+3:0:0:0:0, 8+4:3:0:0:3, 5+1:0:0:0:0, 4+2:1:1:0:2, 5+1:0:0:0:0, 2+0:0:0:0:0, 8+3:0:0:0:0, 3+1:0:0:0:0, 5+4:0:0:0:0, 4+2:0:0:0:0, 5+1:0:0:0:0, 2+0:0:0:0:0, 2+1:0:0:0:0, 1+0:0:0:0:0, 5+1:0:0:0:0, 6+1:0:0:0:0, 8+8:0:0:0:0, 4+3:0:0:0:0, 4+3:0:0:0:1, 4+0:0:0:0:0, 1+0:0:0:0:0, 6+1:0:0:0:0, 5+1:0:0:0:0, 7+3:1:0:0:1, 8+5:0:0:0:2, 5+3:0:0:0:0, 6+1:1:0:0:1, 5+1:0:0:0:0, 2+1:0:0:0:0, 2+0:0:0:0:0, 2+0:0:0:0:0, 5+3:0:0:0:0, 3+0:0:0:0:0, 6+2:0:0:0:0, 3+2:0:0:0:0, 5+0:0:0:0:0, 9+6:0:0:0:1, 5+6:0:0:0:0, 6+4:2:0:0:2, 4+3:0:0:0:0, 4+1:0:0:0:0, 4+1:0:0:0:0, 6+1:0:0:0:0, 4+3:0:0:0:0, 6+1:0:0:0:0, 4+2:0:2:0:2, 3+3:0:0:0:0, 7+3:0:0:0:0, 5+1:0:0:0:0, 10+5:0:0:0:0, 5+1:0:0:0:0, 7+1:0:0:0:0, 4+3:0:0:0:0, 7+4:0:0:0:0, 8+3:0:0:0:0, 9+3:0:0:0:0, 9+7:0:1:0:1, 8+6:0:0:0:1, 9+4:1:0:0:1, 8+3:0:0:0:0, 4+1:0:0:0:0,  , 4+2:0:0:0:0, 1+1:0:0:0:0, 5+1:0:0:0:0, 3+1:0:0:0:0, 4+3:0:0:0:0, 4+1:0:0:0:0, 4+3:0:0:0:0, 3+2:0:0:0:0, 4+2:0:0:0:0, 1+0:0:0:0:0, 1+1:0:0:0:0, 1+0:0:0:0:0, 4+2:0:0:0:0, 1+1:0:0:0:0, 5+1:0:0:0:0, 3+1:0:0:0:0, 4+3:0:0:0:0, 4+2:0:0:0:0, 4+3:0:0:0:0, 3+1:0:0:0:0, 4+2:0:0:0:0, 1+0:0:0:0:0, 2+1:0:0:0:0, 1+0:0:0:0:0, 3+1:0:0:0:0, 5+1:0:0:0:0, 3+1:0:0:0:0, 3+0:0:0:0:0, 4+1:0:0:0:0, 1+0:0:0:0:0, 5+1:0:0:0:0, 3+1:0:0:0:0, 4+2:0:0:0:0, 4+2:0:0:0:0, 5+1:0:0:0:0, 0+0:0:0:0:0, 0+0:0:0:0:0, 0+0:0:0:0:0, 5+1:0:0:0:0, 6+1:0:0:0:0, 5+0:0:0:0:0, 4+1:0:0:0:0, 3+0:0:0:0:0, 4+0:0:0:0:0, 2+0:0:0:0:0, 6+3:0:0:0:0, 5+1:0:0:0:0, 6+1:0:0:0:0, 6+2:0:0:0:0, 7+4:0:0:0:0, 6+2:1:0:0:1, 5+2:0:0:0:0, 3+2:0:1:0:1, 1+2:0:0:0:0, 3+2:0:0:0:1, 4+0:0:0:0:0, 5+5:0:1:0:0, 7+14:0:0:0:0, 7+3:0:0:0:0, 8+2:1:0:0:1, 8+8:0:0:0:0, 6+2:0:0:0:0, 5+0:0:0:0:0, 4+0:0:0:0:0, 2+0:0:0:0:0, 3+1:0:0:0:0, 4+2:0:1:0:1, 3+6:0:0:0:0, 7+5:0:0:0:0, 3+1:0:0:0:0, 8+4:0:0:0:0, 5+1:0:0:0:0, 1+0:0:0:0:0, 8+2:0:0:0:0, 3+1:0:0:0:0, 5+0:0:0:0:0, 5+3:0:0:0:0, 5+1:0:0:0:0, 3+0:0:0:0:0, 3+1:0:1:0:1, 8+4:0:0:0:0, 9+6:1:0:0:1, 6+1:0:0:0:0, 5+0:0:0:0:0, 6+2:0:0:0:0, 0+0:0:0:0:0, 6+2:0:0:0:0, 2+1:0:0:0:0, 8+3:0:0:0:0, 3+2:0:0:0:0, 6+1:0:0:0:0, 5+2:0:0:0:0, 5+4:0:0:0:1, 8+5:0:0:0:0, 4+0:0:0:0:0, 2+0:0:0:0:0, 5+1:0:1:0:0, 3+2:0:0:0:0, 5+2:0:0:0:0, 2+1:0:0:0:0, 8+5:0:0:0:0, 7+3:0:1:0:1, 8+2:1:0:0:1, 5+1:0:0:0:0, 6+4:2:0:0:2, 5+3:0:0:0:1, 4+4:0:0:0:4, 1+3:0:0:0:0, 6+2:0:0:0:0, 5+2:0:0:0:0, 3+2:0:0:0:0, 9+8:0:0:0:0, 6+2:0:0:0:0, 8+9:0:0:0:0, 8+4:0:0:0:0, 7+4:0:2:0:2, 6+3:0:0:0:0, 6+2:0:0:0:0, 10+3:0:0:0:0, 4+1:0:0:0:0, 6+1:0:0:0:0, 5+2:0:0:0:0, 4+1:0:0:0:0, 6+2:0:0:0:0, 6+1:0:0:0:0, 6+1:0:0:0:0, 5+0:0:0:0:0, 5+1:0:0:0:0, 3+2:0:0:0:0, 2+1:0:0:0:0, 4+2:0:0:0:1, 0+0:0:0:0:0, 977+422:15:15:0:42
