 , 0, 1, 2, 3, 4, 5, 6, 7, 8, 9, 10, 11, 12, 13, 14, 15, 16, 17, 18, 19, 20, 21, 22, 23, 24, 25, 26, 27, 28, 29, 30, 31, 32, 33, 34, 35, 36, 37, 38, 39, 40, 41, 42, 43, 44, 45, 46, 47, 48, 49, 50, 51, 52, 53, 54, 55, 56, 57, 58, 59, 60, 61, 62, 63, 64, 65, rowcost
C major (0), 0=0+0:0:0:0:0, 1=1+0:0:0:0:0, 1=1+0:0:0:0:0, 1=1+0:0:0:0:0, 2=1+1:0:0:0:0, 0=0+0:0:0:0:0, 3=2+1:0:0:0:0, 1=1+0:0:0:0:0, 2=1+1:0:0:0:0, 1=1+0:0:0:0:0, 1=1+0:0:0:0:0, 1=1+0:0:0:0:0, 2=1+1:0:0:0:0, 0=0+0:0:0:0:0, 3=2+1:0:0:0:0, 0=0+0:0:0:0:0, 1=1+0:0:0:0:0, 3=2+1:0:0:0:0, 0=0+0:0:0:0:0, 0=0+0:0:0:0:0, 1=1+0:0:0:0:0, 0=0+0:0:0:0:0, 0=0+0:0:0:0:0, 3=2+1:1:0:0:1, 5=3+2:0:0:0:0, 1=1+0:0:0:0:0, 1=1+0:0:0:0:0, 1=1+0:0:0:0:0, 2=1+1:0:0:0:0, 0=0+0:0:0:0:0, 3=2+1:0:0:0:0, 0=0+0:0:0:0:0, 3=2+1:0:0:0:0, 0=0+0:0:0:0:0, 1=1+0:0:0:0:0, 3=2+1:1:0:0:1, 3=1+2:0:0:0:0, 3=2+1:0:0:0:0, 3=2+1:0:0:0:0, 0=0+0:0:0:0:0,  , 4=3+1:0:0:0:1, 2=1+1:1:0:0:1, 1=1+0:0:0:0:0, 5=3+2:0:0:0:0, 3=2+1:0:0:0:0, 5=3+2:0:0:0:1, 3=2+1:1:0:0:1,  , 2=2+0:0:0:0:0, 9=5+4:0:0:0:0, 7=3+4:0:0:0:0, 0=0+0:0:0:0:0, 2=1+1:0:0:0:0, 4=2+2:0:0:0:0, 5=3+2:1:0:0:1, 1=1+0:0:0:0:0, 1=1+0:0:0:0:0, 0=0+0:0:0:0:0, 1=0+1:0:0:0:0, 4=3+1:0:0:0:0, 4=2+2:1:0:0:1, 5=3+2:0:0:0:1, 2=2+0:0:0:0:0, 0=0+0:0:0:0:0, 0=0+0:0:0:0:0, 126=82+44:6:0:0:9
A minor (0), 0=0+0:0:0:0:0, 1=1+0:0:0:0:0, 1=1+0:0:0:0:0, 1=1+0:0:0:0:0, 2=1+1:0:0:0:0, 0=0+0:0:0:0:0, 3=2+1:0:0:0:0, 1=1+0:0:0:0:0, 2=1+1:1:0:0:0, 1=1+0:0:0:0:0, 1=1+0:0:0:0:0, 1=1+0:0:0:0:0, 2=1+1:0:0:0:0, 0=0+0:0:0:0:0, 3=2+1:0:0:0:0, 0=0+0:0:0:0:0, 1=1+0:0:0:0:0, 3=2+1:0:0:0:0, 0=0+0:0:0:0:0, 0=0+0:0:0:0:0, 1=1+0:0:0:0:0, 0=0+0:0:0:0:0, 0=0+0:0:0:0:0, 3=2+1:0:0:0:0, 5=3+2:0:0:0:0, 1=1+0:0:0:0:0, 1=1+0:0:0:0:0, 1=1+0:0:0:0:0, 1=1+0:0:0:0:0, 0=0+0:0:0:0:0, 3=2+1:0:0:0:0, 0=0+0:0:0:0:0, 3=2+1:0:0:0:0, 0=0+0:0:0:0:0, 1=1+0:0:0:0:0, 3=2+1:0:0:0:0, 3=1+2:0:0:0:0, 3=2+1:0:0:0:0, 3=2+1:0:0:0:0, 0=0+0:0:0:0:0,  , 5=3+2:0:0:0:0, 2=1+1:0:0:0:1, 1=1+0:0:0:0:0, 5=3+2:0:0:0:0, 3=2+1:0:0:0:0, 6=3+3:0:0:0:0, 3=2+1:1:0:0:1,  , 2=2+0:0:0:0:0, 9=5+4:0:0:0:0, 7=3+4:0:0:0:0, 0=0+0:0:0:0:0, 2=1+1:1:0:0:0, 4=2+2:0:0:0:0, 5=3+2:0:0:0:0, 1=1+0:0:0:0:0, 1=1+0:0:0:0:0, 0=0+0:0:0:0:0, 1=0+1:0:0:0:0, 4=3+1:0:0:0:0, 4=2+2:0:0:0:1, 6=3+3:0:0:0:0, 2=2+0:0:0:0:0, 0=0+0:0:0:0:0, 0=0+0:0:0:0:0, 128=82+46:3:0:0:3
A minor mel (0),  ,  ,  ,  ,  ,  ,  ,  ,  ,  ,  ,  ,  ,  ,  ,  ,  ,  ,  ,  ,  ,  ,  ,  ,  ,  ,  ,  ,  ,  ,  ,  ,  ,  ,  ,  ,  ,  ,  ,  ,  ,  ,  ,  ,  ,  ,  ,  ,  ,  ,  ,  ,  ,  ,  ,  ,  ,  ,  ,  ,  ,  ,  ,  ,  ,  , 0=0+0:0:0:0:0
C major blues (0),  ,  ,  ,  ,  ,  ,  ,  ,  ,  ,  ,  ,  ,  ,  ,  ,  ,  ,  ,  ,  ,  ,  ,  ,  ,  ,  ,  ,  ,  ,  ,  ,  ,  ,  ,  ,  ,  ,  ,  ,  ,  ,  ,  ,  ,  ,  ,  ,  ,  ,  ,  ,  ,  ,  ,  ,  ,  ,  ,  ,  ,  ,  ,  ,  ,  , 0=0+0:0:0:0:0
A minor blues (0),  ,  ,  ,  ,  ,  ,  ,  ,  ,  ,  ,  ,  ,  ,  ,  ,  ,  ,  ,  ,  ,  ,  ,  ,  ,  ,  ,  ,  ,  ,  ,  ,  ,  ,  ,  ,  ,  ,  ,  ,  ,  ,  ,  ,  ,  ,  ,  ,  ,  ,  ,  ,  ,  ,  ,  ,  ,  ,  ,  ,  ,  ,  ,  ,  ,  , 0=0+0:0:0:0:0
C dorian (0),  ,  ,  ,  ,  ,  ,  ,  ,  ,  ,  ,  ,  ,  ,  ,  ,  ,  ,  ,  ,  ,  ,  ,  ,  ,  ,  ,  ,  ,  ,  ,  ,  ,  ,  ,  ,  ,  ,  ,  ,  ,  ,  ,  ,  ,  ,  ,  ,  ,  ,  ,  ,  ,  ,  ,  ,  ,  ,  ,  ,  ,  ,  ,  ,  ,  , 0=0+0:0:0:0:0
C phrygian (0),  ,  ,  ,  ,  ,  ,  ,  ,  ,  ,  ,  ,  ,  ,  ,  ,  ,  ,  ,  ,  ,  ,  ,  ,  ,  ,  ,  ,  ,  ,  ,  ,  ,  ,  ,  ,  ,  ,  ,  ,  ,  ,  ,  ,  ,  ,  ,  ,  ,  ,  ,  ,  ,  ,  ,  ,  ,  ,  ,  ,  ,  ,  ,  ,  ,  , 0=0+0:0:0:0:0
C lydian (0),  ,  ,  ,  ,  ,  ,  ,  ,  ,  ,  ,  ,  ,  ,  ,  ,  ,  ,  ,  ,  ,  ,  ,  ,  ,  ,  ,  ,  ,  ,  ,  ,  ,  ,  ,  ,  ,  ,  ,  ,  ,  ,  ,  ,  ,  ,  ,  ,  ,  ,  ,  ,  ,  ,  ,  ,  ,  ,  ,  ,  ,  ,  ,  ,  ,  , 0=0+0:0:0:0:0
C mixolydian (0),  ,  ,  ,  ,  ,  ,  ,  ,  ,  ,  ,  ,  ,  ,  ,  ,  ,  ,  ,  ,  ,  ,  ,  ,  ,  ,  ,  ,  ,  ,  ,  ,  ,  ,  ,  ,  ,  ,  ,  ,  ,  ,  ,  ,  ,  ,  ,  ,  ,  ,  ,  ,  ,  ,  ,  ,  ,  ,  ,  ,  ,  ,  ,  ,  ,  , 0=0+0:0:0:0:0
C aeolian (0),  ,  ,  ,  ,  ,  ,  ,  ,  ,  ,  ,  ,  ,  ,  ,  ,  ,  ,  ,  ,  ,  ,  ,  ,  ,  ,  ,  ,  ,  ,  ,  ,  ,  ,  ,  ,  ,  ,  ,  ,  ,  ,  ,  ,  ,  ,  ,  ,  ,  ,  ,  ,  ,  ,  ,  ,  ,  ,  ,  ,  ,  ,  ,  ,  ,  , 0=0+0:0:0:0:0
C locrian (0),  ,  ,  ,  ,  ,  ,  ,  ,  ,  ,  ,  ,  ,  ,  ,  ,  ,  ,  ,  ,  ,  ,  ,  ,  ,  ,  ,  ,  ,  ,  ,  ,  ,  ,  ,  ,  ,  ,  ,  ,  ,  ,  ,  ,  ,  ,  ,  ,  ,  ,  ,  ,  ,  ,  ,  ,  ,  ,  ,  ,  ,  ,  ,  ,  ,  , 0=0+0:0:0:0:0
F major (1b), 1=1+0:0:0:0:0, 0=0+0:0:0:0:0, 0=0+0:0:0:0:0, 0=0+0:0:0:0:0, 2=1+1:0:0:0:0, 0=0+0:0:0:0:0, 2=1+1:0:0:0:0, 0=0+0:0:0:0:0, 2=1+1:0:0:0:0, 0=0+0:0:0:0:0, 0=0+0:0:0:0:0, 0=0+0:0:0:0:0, 2=1+1:0:0:0:0, 0=0+0:0:0:0:0, 2=1+1:0:0:0:0, 0=0+0:0:0:0:0, 0=0+0:0:0:0:0, 2=1+1:0:0:0:0, 0=0+0:0:0:0:0, 0=0+0:0:0:0:0, 0=0+0:0:0:0:0, 1=1+0:0:0:0:0, 0=0+0:0:0:0:0, 2=1+1:1:0:0:1, 4=2+2:0:0:0:0, 0=0+0:0:0:0:0, 0=0+0:0:0:0:0, 0=0+0:0:0:0:0, 2=1+1:0:0:0:0, 0=0+0:0:0:0:0, 2=1+1:0:0:0:0, 0=0+0:0:0:0:0, 2=1+1:0:0:0:0, 0=0+0:0:0:0:0, 0=0+0:0:0:0:0, 2=1+1:1:0:0:1, 3=1+2:0:0:0:0, 3=2+1:0:0:0:0, 2=1+1:0:0:0:0, 0=0+0:0:0:0:0,  , 4=2+2:2:0:0:2, 2=1+1:1:0:0:1, 0=0+0:0:0:0:0, 4=2+2:0:0:0:0, 2=1+1:0:0:0:0, 5=3+2:0:0:0:1, 2=1+1:1:0:0:1,  , 1=1+0:0:0:0:0, 9=5+4:0:0:0:0, 7=3+4:0:0:0:0, 0=0+0:0:0:0:0, 3=2+1:0:0:0:0, 2=2+0:0:0:0:0, 4=2+2:1:0:0:1, 0=0+0:0:0:0:0, 0=0+0:0:0:0:0, 0=0+0:0:0:0:0, 2=1+1:0:0:0:0, 2=1+1:0:0:0:0, 4=2+2:1:0:0:1, 5=3+2:0:0:0:1, 0=0+0:0:0:0:0, 0=0+0:0:0:0:0, 0=0+0:0:0:0:0, 94=51+43:8:0:0:10
G major (1#), 0=0+0:0:0:0:0, 1=1+0:0:0:0:0, 2=2+0:0:0:0:0, 1=1+0:0:0:0:0, 3=2+1:0:0:0:0, 1=1+0:0:0:0:0, 4=3+1:0:0:0:0, 1=1+0:0:0:0:0, 2=1+1:1:0:0:0, 1=1+0:0:0:0:0, 2=2+0:0:0:0:0, 1=1+0:0:0:0:0, 3=2+1:0:0:0:0, 1=1+0:0:0:0:0, 4=3+1:0:0:0:0, 0=0+0:0:0:0:0, 2=2+0:0:0:0:0, 4=3+1:0:0:0:0, 0=0+0:0:0:0:0, 1=1+0:0:0:0:0, 2=2+0:0:0:0:0, 1=1+0:0:0:0:0, 0=0+0:0:0:0:0, 5=2+3:2:0:0:0, 6=4+2:0:0:0:0, 1=1+0:0:0:0:0, 2=2+0:0:0:0:0, 1=1+0:0:0:0:0, 3=2+1:0:0:0:0, 1=1+0:0:0:0:0, 4=3+1:0:0:0:0, 0=0+0:0:0:0:0, 3=1+2:2:0:0:0, 1=1+0:0:0:0:0, 1=1+0:0:0:0:0, 4=3+1:0:0:0:0, 3=1+2:0:0:0:0, 3=2+1:1:0:0:1, 5=4+1:0:0:0:0, 0=0+0:0:0:0:0,  , 2=1+1:0:0:0:1, 3=2+1:1:0:0:1, 1=1+0:0:0:0:0, 5=3+2:0:0:0:0, 2=1+1:1:0:0:1, 6=4+2:0:0:0:1, 4=3+1:1:0:0:1,  , 2=2+0:0:0:0:0, 7=3+4:2:0:0:2, 8=4+4:0:0:0:0, 0=0+0:0:0:0:0, 3=2+1:0:0:0:0, 5=3+2:0:0:0:0, 6=3+3:1:0:0:2, 4=2+2:0:0:0:0, 1=1+0:0:0:0:0, 0=0+0:0:0:0:0, 1=0+1:0:0:0:0, 7=3+4:0:0:0:4, 3=1+2:0:0:0:1, 6=4+2:0:0:0:1, 3=3+0:0:0:0:0, 0=0+0:0:0:0:0, 0=0+0:0:0:0:0, 159=106+53:12:0:0:16
D minor (1b), 1=1+0:0:0:0:0, 0=0+0:0:0:0:0, 0=0+0:0:0:0:0, 0=0+0:0:0:0:0, 2=1+1:0:0:0:0, 0=0+0:0:0:0:0, 2=1+1:0:0:0:0, 0=0+0:0:0:0:0, 2=1+1:0:0:0:0, 0=0+0:0:0:0:0, 0=0+0:0:0:0:0, 0=0+0:0:0:0:0, 2=1+1:0:0:0:0, 0=0+0:0:0:0:0, 2=1+1:0:0:0:0, 0=0+0:0:0:0:0, 0=0+0:0:0:0:0, 2=1+1:0:0:0:0, 0=0+0:0:0:0:0, 0=0+0:0:0:0:0, 0=0+0:0:0:0:0, 1=1+0:0:0:0:0, 0=0+0:0:0:0:0, 2=1+1:0:0:0:0, 4=2+2:0:0:0:0, 0=0+0:0:0:0:0, 0=0+0:0:0:0:0, 0=0+0:0:0:0:0, 1=1+0:0:0:0:0, 0=0+0:0:0:0:0, 2=1+1:0:0:0:0, 0=0+0:0:0:0:0, 2=1+1:0:0:0:0, 0=0+0:0:0:0:0, 0=0+0:0:0:0:0, 2=1+1:0:0:0:0, 3=1+2:0:0:0:0, 3=2+1:0:0:0:0, 2=1+1:0:0:0:0, 0=0+0:0:0:0:0,  , 4=2+2:0:0:0:0, 2=1+1:0:0:0:1, 0=0+0:0:0:0:0, 4=2+2:0:0:0:0, 2=1+1:0:0:0:0, 5=3+2:0:0:0:0, 2=1+1:0:0:0:1,  , 1=1+0:0:0:0:0, 9=5+4:0:0:0:0, 7=3+4:0:0:0:0, 0=0+0:0:0:0:0, 3=2+1:0:0:0:0, 2=2+0:0:0:0:0, 4=2+2:0:0:0:0, 0=0+0:0:0:0:0, 0=0+0:0:0:0:0, 0=0+0:0:0:0:0, 2=1+1:0:0:0:0, 2=1+1:0:0:0:0, 4=2+2:0:0:0:1, 5=3+2:0:0:0:0, 0=0+0:0:0:0:0, 0=0+0:0:0:0:0, 0=0+0:0:0:0:0, 93=51+42:0:0:0:3
E minor (1#), 0=0+0:0:0:0:0, 1=1+0:0:0:0:0, 2=2+0:0:0:0:0, 1=1+0:0:0:0:0, 3=2+1:0:0:0:0, 1=1+0:0:0:0:0, 6=3+3:0:0:0:0, 2=1+1:0:0:0:0, 2=1+1:1:0:0:0, 1=1+0:0:0:0:0, 2=2+0:0:0:0:0, 1=1+0:0:0:0:0, 3=2+1:0:0:0:0, 1=1+0:0:0:0:0, 6=3+3:0:0:0:0, 0=0+0:0:0:0:0, 4=2+2:0:0:0:0, 5=3+2:0:0:0:0, 0=0+0:0:0:0:0, 1=1+0:0:0:0:0, 2=2+0:0:0:0:0, 1=1+0:0:0:0:0, 0=0+0:0:0:0:0, 5=2+3:2:0:0:0, 7=4+3:2:0:0:2, 1=1+0:0:0:0:0, 2=2+0:0:0:0:0, 1=1+0:0:0:0:0, 2=2+0:0:0:0:0, 1=1+0:0:0:0:0, 6=3+3:0:0:0:0, 0=0+0:0:0:0:0, 3=1+2:2:0:0:0, 1=1+0:0:0:0:0, 1=1+0:0:0:0:0, 4=3+1:0:0:0:0, 3=1+2:0:0:0:0, 3=2+1:1:0:0:1, 7=4+3:1:0:0:3, 0=0+0:0:0:0:0,  , 2=1+1:0:0:0:1, 3=2+1:1:0:0:1, 1=1+0:0:0:0:0, 7=3+4:3:0:0:2, 1=1+0:0:0:0:0, 6=4+2:0:0:0:0, 4=3+1:0:0:0:1,  , 2=2+0:0:0:0:0, 7=3+4:0:0:0:0, 8=4+4:0:0:0:0, 0=0+0:0:0:0:0, 3=2+1:0:0:0:0, 5=3+2:0:0:0:0, 6=3+3:1:0:0:2, 4=2+2:0:0:0:0, 1=1+0:0:0:0:0, 0=0+0:0:0:0:0, 0=0+0:0:0:0:0, 7=3+4:0:0:0:4, 3=1+2:0:0:0:1, 6=4+2:0:0:0:1, 3=3+0:0:0:0:0, 0=0+0:0:0:0:0, 0=0+0:0:0:0:0, 171=106+65:14:0:0:19
D minor mel (1b),  ,  ,  ,  ,  ,  ,  ,  ,  ,  ,  ,  ,  ,  ,  ,  ,  ,  ,  ,  ,  ,  ,  ,  ,  ,  ,  ,  ,  ,  ,  ,  ,  ,  ,  ,  ,  ,  ,  ,  ,  ,  ,  ,  ,  ,  ,  ,  ,  ,  ,  ,  ,  ,  ,  ,  ,  ,  ,  ,  ,  ,  ,  ,  ,  ,  , 0=0+0:0:0:0:0
E minor mel (1#),  ,  ,  ,  ,  ,  ,  ,  ,  ,  ,  ,  ,  ,  ,  ,  ,  ,  ,  ,  ,  ,  ,  ,  ,  ,  ,  ,  ,  ,  ,  ,  ,  ,  ,  ,  ,  ,  ,  ,  ,  ,  ,  ,  ,  ,  ,  ,  ,  ,  ,  ,  ,  ,  ,  ,  ,  ,  ,  ,  ,  ,  ,  ,  ,  ,  , 0=0+0:0:0:0:0
F major blues (1b),  ,  ,  ,  ,  ,  ,  ,  ,  ,  ,  ,  ,  ,  ,  ,  ,  ,  ,  ,  ,  ,  ,  ,  ,  ,  ,  ,  ,  ,  ,  ,  ,  ,  ,  ,  ,  ,  ,  ,  ,  ,  ,  ,  ,  ,  ,  ,  ,  ,  ,  ,  ,  ,  ,  ,  ,  ,  ,  ,  ,  ,  ,  ,  ,  ,  , 0=0+0:0:0:0:0
G major blues (1#),  ,  ,  ,  ,  ,  ,  ,  ,  ,  ,  ,  ,  ,  ,  ,  ,  ,  ,  ,  ,  ,  ,  ,  ,  ,  ,  ,  ,  ,  ,  ,  ,  ,  ,  ,  ,  ,  ,  ,  ,  ,  ,  ,  ,  ,  ,  ,  ,  ,  ,  ,  ,  ,  ,  ,  ,  ,  ,  ,  ,  ,  ,  ,  ,  ,  , 0=0+0:0:0:0:0
D minor blues (1b),  ,  ,  ,  ,  ,  ,  ,  ,  ,  ,  ,  ,  ,  ,  ,  ,  ,  ,  ,  ,  ,  ,  ,  ,  ,  ,  ,  ,  ,  ,  ,  ,  ,  ,  ,  ,  ,  ,  ,  ,  ,  ,  ,  ,  ,  ,  ,  ,  ,  ,  ,  ,  ,  ,  ,  ,  ,  ,  ,  ,  ,  ,  ,  ,  ,  , 0=0+0:0:0:0:0
E minor blues (1#),  ,  ,  ,  ,  ,  ,  ,  ,  ,  ,  ,  ,  ,  ,  ,  ,  ,  ,  ,  ,  ,  ,  ,  ,  ,  ,  ,  ,  ,  ,  ,  ,  ,  ,  ,  ,  ,  ,  ,  ,  ,  ,  ,  ,  ,  ,  ,  ,  ,  ,  ,  ,  ,  ,  ,  ,  ,  ,  ,  ,  ,  ,  ,  ,  ,  , 0=0+0:0:0:0:0
F dorian (1b),  ,  ,  ,  ,  ,  ,  ,  ,  ,  ,  ,  ,  ,  ,  ,  ,  ,  ,  ,  ,  ,  ,  ,  ,  ,  ,  ,  ,  ,  ,  ,  ,  ,  ,  ,  ,  ,  ,  ,  ,  ,  ,  ,  ,  ,  ,  ,  ,  ,  ,  ,  ,  ,  ,  ,  ,  ,  ,  ,  ,  ,  ,  ,  ,  ,  , 0=0+0:0:0:0:0
G dorian (1#),  ,  ,  ,  ,  ,  ,  ,  ,  ,  ,  ,  ,  ,  ,  ,  ,  ,  ,  ,  ,  ,  ,  ,  ,  ,  ,  ,  ,  ,  ,  ,  ,  ,  ,  ,  ,  ,  ,  ,  ,  ,  ,  ,  ,  ,  ,  ,  ,  ,  ,  ,  ,  ,  ,  ,  ,  ,  ,  ,  ,  ,  ,  ,  ,  ,  , 0=0+0:0:0:0:0
F phrygian (1b),  ,  ,  ,  ,  ,  ,  ,  ,  ,  ,  ,  ,  ,  ,  ,  ,  ,  ,  ,  ,  ,  ,  ,  ,  ,  ,  ,  ,  ,  ,  ,  ,  ,  ,  ,  ,  ,  ,  ,  ,  ,  ,  ,  ,  ,  ,  ,  ,  ,  ,  ,  ,  ,  ,  ,  ,  ,  ,  ,  ,  ,  ,  ,  ,  ,  , 0=0+0:0:0:0:0
G phrygian (1#),  ,  ,  ,  ,  ,  ,  ,  ,  ,  ,  ,  ,  ,  ,  ,  ,  ,  ,  ,  ,  ,  ,  ,  ,  ,  ,  ,  ,  ,  ,  ,  ,  ,  ,  ,  ,  ,  ,  ,  ,  ,  ,  ,  ,  ,  ,  ,  ,  ,  ,  ,  ,  ,  ,  ,  ,  ,  ,  ,  ,  ,  ,  ,  ,  ,  , 0=0+0:0:0:0:0
F lydian (1b),  ,  ,  ,  ,  ,  ,  ,  ,  ,  ,  ,  ,  ,  ,  ,  ,  ,  ,  ,  ,  ,  ,  ,  ,  ,  ,  ,  ,  ,  ,  ,  ,  ,  ,  ,  ,  ,  ,  ,  ,  ,  ,  ,  ,  ,  ,  ,  ,  ,  ,  ,  ,  ,  ,  ,  ,  ,  ,  ,  ,  ,  ,  ,  ,  ,  , 0=0+0:0:0:0:0
G lydian (1#),  ,  ,  ,  ,  ,  ,  ,  ,  ,  ,  ,  ,  ,  ,  ,  ,  ,  ,  ,  ,  ,  ,  ,  ,  ,  ,  ,  ,  ,  ,  ,  ,  ,  ,  ,  ,  ,  ,  ,  ,  ,  ,  ,  ,  ,  ,  ,  ,  ,  ,  ,  ,  ,  ,  ,  ,  ,  ,  ,  ,  ,  ,  ,  ,  ,  , 0=0+0:0:0:0:0
F mixolydian (1b),  ,  ,  ,  ,  ,  ,  ,  ,  ,  ,  ,  ,  ,  ,  ,  ,  ,  ,  ,  ,  ,  ,  ,  ,  ,  ,  ,  ,  ,  ,  ,  ,  ,  ,  ,  ,  ,  ,  ,  ,  ,  ,  ,  ,  ,  ,  ,  ,  ,  ,  ,  ,  ,  ,  ,  ,  ,  ,  ,  ,  ,  ,  ,  ,  ,  , 0=0+0:0:0:0:0
G mixolydian (1#),  ,  ,  ,  ,  ,  ,  ,  ,  ,  ,  ,  ,  ,  ,  ,  ,  ,  ,  ,  ,  ,  ,  ,  ,  ,  ,  ,  ,  ,  ,  ,  ,  ,  ,  ,  ,  ,  ,  ,  ,  ,  ,  ,  ,  ,  ,  ,  ,  ,  ,  ,  ,  ,  ,  ,  ,  ,  ,  ,  ,  ,  ,  ,  ,  ,  , 0=0+0:0:0:0:0
F aeolian (1b),  ,  ,  ,  ,  ,  ,  ,  ,  ,  ,  ,  ,  ,  ,  ,  ,  ,  ,  ,  ,  ,  ,  ,  ,  ,  ,  ,  ,  ,  ,  ,  ,  ,  ,  ,  ,  ,  ,  ,  ,  ,  ,  ,  ,  ,  ,  ,  ,  ,  ,  ,  ,  ,  ,  ,  ,  ,  ,  ,  ,  ,  ,  ,  ,  ,  , 0=0+0:0:0:0:0
G aeolian (1#),  ,  ,  ,  ,  ,  ,  ,  ,  ,  ,  ,  ,  ,  ,  ,  ,  ,  ,  ,  ,  ,  ,  ,  ,  ,  ,  ,  ,  ,  ,  ,  ,  ,  ,  ,  ,  ,  ,  ,  ,  ,  ,  ,  ,  ,  ,  ,  ,  ,  ,  ,  ,  ,  ,  ,  ,  ,  ,  ,  ,  ,  ,  ,  ,  ,  , 0=0+0:0:0:0:0
F locrian (1b),  ,  ,  ,  ,  ,  ,  ,  ,  ,  ,  ,  ,  ,  ,  ,  ,  ,  ,  ,  ,  ,  ,  ,  ,  ,  ,  ,  ,  ,  ,  ,  ,  ,  ,  ,  ,  ,  ,  ,  ,  ,  ,  ,  ,  ,  ,  ,  ,  ,  ,  ,  ,  ,  ,  ,  ,  ,  ,  ,  ,  ,  ,  ,  ,  ,  , 0=0+0:0:0:0:0
G locrian (1#),  ,  ,  ,  ,  ,  ,  ,  ,  ,  ,  ,  ,  ,  ,  ,  ,  ,  ,  ,  ,  ,  ,  ,  ,  ,  ,  ,  ,  ,  ,  ,  ,  ,  ,  ,  ,  ,  ,  ,  ,  ,  ,  ,  ,  ,  ,  ,  ,  ,  ,  ,  ,  ,  ,  ,  ,  ,  ,  ,  ,  ,  ,  ,  ,  ,  , 0=0+0:0:0:0:0
Bb major (2b), 3=2+1:0:0:0:0, 0=0+0:0:0:0:0, 0=0+0:0:0:0:0, 0=0+0:0:0:0:0, 2=1+1:0:0:0:0, 1=1+0:0:0:0:0, 2=1+1:0:0:0:0, 0=0+0:0:0:0:0, 1=0+1:0:0:0:0, 0=0+0:0:0:0:0, 0=0+0:0:0:0:0, 0=0+0:0:0:0:0, 2=1+1:0:0:0:0, 1=1+0:0:0:0:0, 2=1+1:0:0:0:0, 0=0+0:0:0:0:0, 0=0+0:0:0:0:0, 2=1+1:0:1:0:1, 0=0+0:0:0:0:0, 0=0+0:0:0:0:0, 0=0+0:0:0:0:0, 2=2+0:0:0:0:0, 1=1+0:0:0:0:0, 3=2+1:1:0:0:1, 4=2+2:0:0:0:0, 0=0+0:0:0:0:0, 0=0+0:0:0:0:0, 0=0+0:0:0:0:0, 2=1+1:0:0:0:0, 1=1+0:0:0:0:0, 2=1+1:0:0:0:0, 0=0+0:0:0:0:0, 2=1+1:0:0:0:0, 1=1+0:0:0:0:0, 0=0+0:0:0:0:0, 2=1+1:1:0:0:1, 3=1+2:0:0:0:0, 2=1+1:0:0:0:0, 2=1+1:0:0:0:0, 1=1+0:0:0:0:0,  , 3=3+0:0:0:0:0, 3=2+1:1:0:0:1, 0=0+0:0:0:0:0, 3=1+2:0:0:0:0, 2=1+1:0:0:0:0, 4=2+2:0:0:0:1, 2=1+1:1:0:0:1,  , 0=0+0:0:0:0:0, 5=4+1:0:0:0:0, 8=4+4:0:0:0:0, 0=0+0:0:0:0:0, 5=4+1:0:0:0:0, 2=2+0:0:0:0:0, 4=2+2:1:0:0:1, 1=1+0:0:0:0:0, 0=0+0:0:0:0:0, 0=0+0:0:0:0:0, 3=2+1:0:0:0:0, 3=2+1:0:0:0:0, 5=3+2:1:0:0:1, 4=2+2:0:0:0:1, 0=0+0:0:0:0:0, 1=1+0:0:0:0:0, 0=0+0:0:0:0:0, 102=63+39:6:1:0:9
D major (2#), 1=1+0:0:0:0:0, 1=1+0:0:0:0:0, 2=2+0:0:0:0:0, 2=2+0:0:0:0:0, 2=1+1:1:0:0:1, 1=1+0:0:0:0:0, 5=4+1:0:0:0:0, 2=2+0:0:0:0:0, 3=2+1:1:0:0:0, 1=1+0:0:0:0:0, 2=2+0:0:0:0:0, 2=2+0:0:0:0:0, 2=1+1:0:0:0:1, 1=1+0:0:0:0:0, 5=4+1:0:0:0:0, 1=1+0:0:0:0:0, 4=4+0:0:0:0:0, 5=4+1:0:0:0:0, 1=1+0:0:0:0:0, 1=1+0:0:0:0:0, 3=3+0:0:0:0:0, 1=1+0:0:0:0:0, 0=0+0:0:0:0:0, 4=3+1:0:0:0:0, 6=4+2:0:0:0:1, 1=1+0:0:0:0:0, 2=2+0:0:0:0:0, 2=2+0:0:0:0:0, 1=1+0:0:0:0:0, 1=1+0:0:0:0:0, 5=4+1:0:0:0:0, 1=1+0:0:0:0:0, 3=2+1:0:0:0:0, 1=1+0:0:0:0:0, 2=2+0:0:0:0:0, 4=3+1:0:0:0:0, 4=2+2:0:0:0:0, 4=3+1:1:0:0:1, 5=4+1:1:0:0:1, 1=1+0:0:0:0:0,  , 2=1+1:0:0:0:1, 3=2+1:1:0:0:1, 1=1+0:0:0:0:0, 6=4+2:0:0:0:0, 3=2+1:0:0:0:0, 7=4+3:0:0:0:1, 5=4+1:0:0:0:1,  , 4=4+0:0:0:0:0, 7=3+4:3:0:0:3, 7=3+4:0:0:0:0, 0=0+0:0:0:0:0, 3=2+1:0:0:0:0, 1=1+0:0:0:0:0, 5=3+2:2:0:0:2, 3=3+0:0:0:0:0, 3=3+0:0:0:0:0, 1=1+0:0:0:0:0, 2=1+1:0:0:0:0, 6=5+1:0:0:0:0, 4=2+2:2:0:0:2, 7=4+3:1:0:0:1, 4=4+0:0:0:0:0, 2=1+1:0:0:0:0, 0=0+0:0:0:0:0, 181=137+44:13:0:0:17
G minor (2b), 2=2+0:0:0:0:0, 0=0+0:0:0:0:0, 0=0+0:0:0:0:0, 0=0+0:0:0:0:0, 2=1+1:0:0:0:0, 1=1+0:0:0:0:0, 2=1+1:0:0:0:0, 0=0+0:0:0:0:0, 1=0+1:1:0:0:0, 0=0+0:0:0:0:0, 0=0+0:0:0:0:0, 0=0+0:0:0:0:0, 2=1+1:0:0:0:0, 1=1+0:0:0:0:0, 2=1+1:0:0:0:0, 0=0+0:0:0:0:0, 0=0+0:0:0:0:0, 2=1+1:0:1:0:1, 0=0+0:0:0:0:0, 0=0+0:0:0:0:0, 0=0+0:0:0:0:0, 2=2+0:0:0:0:0, 1=1+0:0:0:0:0, 3=2+1:0:0:0:0, 4=2+2:0:0:0:0, 0=0+0:0:0:0:0, 0=0+0:0:0:0:0, 0=0+0:0:0:0:0, 1=1+0:0:0:0:0, 1=1+0:0:0:0:0, 2=1+1:0:0:0:0, 0=0+0:0:0:0:0, 1=1+0:0:0:0:0, 1=1+0:0:0:0:0, 0=0+0:0:0:0:0, 2=1+1:1:0:0:1, 3=1+2:0:0:0:0, 2=1+1:0:0:0:0, 2=1+1:0:0:0:0, 1=1+0:0:0:0:0,  , 4=3+1:0:0:0:0, 3=2+1:1:0:0:1, 0=0+0:0:0:0:0, 3=1+2:0:0:0:0, 2=1+1:0:0:0:0, 4=2+2:0:0:0:0, 2=1+1:1:0:0:1,  , 0=0+0:0:0:0:0, 8=4+4:0:0:0:0, 8=4+4:0:0:0:0, 0=0+0:0:0:0:0, 5=4+1:0:0:0:0, 2=2+0:0:0:0:0, 4=2+2:0:0:0:1, 2=1+1:0:0:0:0, 0=0+0:0:0:0:0, 0=0+0:0:0:0:0, 3=2+1:0:0:0:0, 3=2+1:0:0:0:0, 5=3+2:1:0:0:1, 4=2+2:0:0:0:1, 0=0+0:0:0:0:0, 1=1+0:0:0:0:0, 0=0+0:0:0:0:0, 104=63+41:5:1:0:7
B minor (2#), 3=1+2:0:0:0:0, 1=1+0:0:0:0:0, 2=2+0:0:0:0:0, 2=2+0:0:0:0:0, 1=1+0:0:0:0:0, 1=1+0:0:0:0:0, 5=4+1:0:0:0:0, 2=2+0:0:0:0:0, 3=2+1:1:0:0:0, 1=1+0:0:0:0:0, 2=2+0:0:0:0:0, 2=2+0:0:0:0:0, 1=1+0:0:0:0:0, 1=1+0:0:0:0:0, 5=4+1:0:0:0:0, 1=1+0:0:0:0:0, 6=4+2:0:0:0:0, 5=4+1:0:0:0:0, 1=1+0:0:0:0:0, 1=1+0:0:0:0:0, 4=3+1:0:0:0:0, 2=1+1:0:0:0:0, 0=0+0:0:0:0:0, 6=3+3:2:0:0:0, 6=4+2:1:0:0:1, 1=1+0:0:0:0:0, 2=2+0:0:0:0:0, 2=2+0:0:0:0:0, 1=1+0:0:0:0:0, 1=1+0:0:0:0:0, 5=4+1:0:0:0:0, 1=1+0:0:0:0:0, 4=2+2:2:0:0:0, 1=1+0:0:0:0:0, 2=2+0:0:0:0:0, 4=3+1:0:0:0:0, 4=2+2:0:0:0:0, 4=3+1:1:0:0:1, 5=4+1:1:0:0:1, 1=1+0:0:0:0:0,  , 2=1+1:0:0:0:1, 3=2+1:1:0:0:1, 1=1+0:0:0:0:0, 6=4+2:0:0:0:0, 3=2+1:0:0:0:0, 7=4+3:0:0:0:1, 5=4+1:0:0:0:1,  , 4=4+0:0:0:0:0, 7=3+4:0:0:0:0, 7=3+4:0:0:0:0, 0=0+0:0:0:0:0, 4=2+2:0:0:0:0, 2=1+1:0:0:0:0, 6=3+3:0:0:0:1, 4=3+1:0:0:0:0, 3=3+0:0:0:0:0, 1=1+0:0:0:0:0, 1=1+0:0:0:0:0, 9=5+4:0:0:0:4, 4=2+2:0:0:0:0, 7=4+3:0:0:0:0, 4=4+0:0:0:0:0, 2=1+1:0:0:0:0, 0=0+0:0:0:0:0, 194=137+57:9:0:0:12
G minor mel (2b),  ,  ,  ,  ,  ,  ,  ,  ,  ,  ,  ,  ,  ,  ,  ,  ,  ,  ,  ,  ,  ,  ,  ,  ,  ,  ,  ,  ,  ,  ,  ,  ,  ,  ,  ,  ,  ,  ,  ,  ,  ,  ,  ,  ,  ,  ,  ,  ,  ,  ,  ,  ,  ,  ,  ,  ,  ,  ,  ,  ,  ,  ,  ,  ,  ,  , 0=0+0:0:0:0:0
B minor mel (2#),  ,  ,  ,  ,  ,  ,  ,  ,  ,  ,  ,  ,  ,  ,  ,  ,  ,  ,  ,  ,  ,  ,  ,  ,  ,  ,  ,  ,  ,  ,  ,  ,  ,  ,  ,  ,  ,  ,  ,  ,  ,  ,  ,  ,  ,  ,  ,  ,  ,  ,  ,  ,  ,  ,  ,  ,  ,  ,  ,  ,  ,  ,  ,  ,  ,  , 0=0+0:0:0:0:0
Bb major blues (2b),  ,  ,  ,  ,  ,  ,  ,  ,  ,  ,  ,  ,  ,  ,  ,  ,  ,  ,  ,  ,  ,  ,  ,  ,  ,  ,  ,  ,  ,  ,  ,  ,  ,  ,  ,  ,  ,  ,  ,  ,  ,  ,  ,  ,  ,  ,  ,  ,  ,  ,  ,  ,  ,  ,  ,  ,  ,  ,  ,  ,  ,  ,  ,  ,  ,  , 0=0+0:0:0:0:0
D major blues (2#),  ,  ,  ,  ,  ,  ,  ,  ,  ,  ,  ,  ,  ,  ,  ,  ,  ,  ,  ,  ,  ,  ,  ,  ,  ,  ,  ,  ,  ,  ,  ,  ,  ,  ,  ,  ,  ,  ,  ,  ,  ,  ,  ,  ,  ,  ,  ,  ,  ,  ,  ,  ,  ,  ,  ,  ,  ,  ,  ,  ,  ,  ,  ,  ,  ,  , 0=0+0:0:0:0:0
G minor blues (2b),  ,  ,  ,  ,  ,  ,  ,  ,  ,  ,  ,  ,  ,  ,  ,  ,  ,  ,  ,  ,  ,  ,  ,  ,  ,  ,  ,  ,  ,  ,  ,  ,  ,  ,  ,  ,  ,  ,  ,  ,  ,  ,  ,  ,  ,  ,  ,  ,  ,  ,  ,  ,  ,  ,  ,  ,  ,  ,  ,  ,  ,  ,  ,  ,  ,  , 0=0+0:0:0:0:0
B minor blues (2#),  ,  ,  ,  ,  ,  ,  ,  ,  ,  ,  ,  ,  ,  ,  ,  ,  ,  ,  ,  ,  ,  ,  ,  ,  ,  ,  ,  ,  ,  ,  ,  ,  ,  ,  ,  ,  ,  ,  ,  ,  ,  ,  ,  ,  ,  ,  ,  ,  ,  ,  ,  ,  ,  ,  ,  ,  ,  ,  ,  ,  ,  ,  ,  ,  ,  , 0=0+0:0:0:0:0
Bb dorian (2b),  ,  ,  ,  ,  ,  ,  ,  ,  ,  ,  ,  ,  ,  ,  ,  ,  ,  ,  ,  ,  ,  ,  ,  ,  ,  ,  ,  ,  ,  ,  ,  ,  ,  ,  ,  ,  ,  ,  ,  ,  ,  ,  ,  ,  ,  ,  ,  ,  ,  ,  ,  ,  ,  ,  ,  ,  ,  ,  ,  ,  ,  ,  ,  ,  ,  , 0=0+0:0:0:0:0
D dorian (2#),  ,  ,  ,  ,  ,  ,  ,  ,  ,  ,  ,  ,  ,  ,  ,  ,  ,  ,  ,  ,  ,  ,  ,  ,  ,  ,  ,  ,  ,  ,  ,  ,  ,  ,  ,  ,  ,  ,  ,  ,  ,  ,  ,  ,  ,  ,  ,  ,  ,  ,  ,  ,  ,  ,  ,  ,  ,  ,  ,  ,  ,  ,  ,  ,  ,  , 0=0+0:0:0:0:0
Bb phrygian (2b),  ,  ,  ,  ,  ,  ,  ,  ,  ,  ,  ,  ,  ,  ,  ,  ,  ,  ,  ,  ,  ,  ,  ,  ,  ,  ,  ,  ,  ,  ,  ,  ,  ,  ,  ,  ,  ,  ,  ,  ,  ,  ,  ,  ,  ,  ,  ,  ,  ,  ,  ,  ,  ,  ,  ,  ,  ,  ,  ,  ,  ,  ,  ,  ,  ,  , 0=0+0:0:0:0:0
D phrygian (2#),  ,  ,  ,  ,  ,  ,  ,  ,  ,  ,  ,  ,  ,  ,  ,  ,  ,  ,  ,  ,  ,  ,  ,  ,  ,  ,  ,  ,  ,  ,  ,  ,  ,  ,  ,  ,  ,  ,  ,  ,  ,  ,  ,  ,  ,  ,  ,  ,  ,  ,  ,  ,  ,  ,  ,  ,  ,  ,  ,  ,  ,  ,  ,  ,  ,  , 0=0+0:0:0:0:0
Bb lydian (2b),  ,  ,  ,  ,  ,  ,  ,  ,  ,  ,  ,  ,  ,  ,  ,  ,  ,  ,  ,  ,  ,  ,  ,  ,  ,  ,  ,  ,  ,  ,  ,  ,  ,  ,  ,  ,  ,  ,  ,  ,  ,  ,  ,  ,  ,  ,  ,  ,  ,  ,  ,  ,  ,  ,  ,  ,  ,  ,  ,  ,  ,  ,  ,  ,  ,  , 0=0+0:0:0:0:0
D lydian (2#),  ,  ,  ,  ,  ,  ,  ,  ,  ,  ,  ,  ,  ,  ,  ,  ,  ,  ,  ,  ,  ,  ,  ,  ,  ,  ,  ,  ,  ,  ,  ,  ,  ,  ,  ,  ,  ,  ,  ,  ,  ,  ,  ,  ,  ,  ,  ,  ,  ,  ,  ,  ,  ,  ,  ,  ,  ,  ,  ,  ,  ,  ,  ,  ,  ,  , 0=0+0:0:0:0:0
Bb mixolydian (2b),  ,  ,  ,  ,  ,  ,  ,  ,  ,  ,  ,  ,  ,  ,  ,  ,  ,  ,  ,  ,  ,  ,  ,  ,  ,  ,  ,  ,  ,  ,  ,  ,  ,  ,  ,  ,  ,  ,  ,  ,  ,  ,  ,  ,  ,  ,  ,  ,  ,  ,  ,  ,  ,  ,  ,  ,  ,  ,  ,  ,  ,  ,  ,  ,  ,  , 0=0+0:0:0:0:0
D mixolydian (2#),  ,  ,  ,  ,  ,  ,  ,  ,  ,  ,  ,  ,  ,  ,  ,  ,  ,  ,  ,  ,  ,  ,  ,  ,  ,  ,  ,  ,  ,  ,  ,  ,  ,  ,  ,  ,  ,  ,  ,  ,  ,  ,  ,  ,  ,  ,  ,  ,  ,  ,  ,  ,  ,  ,  ,  ,  ,  ,  ,  ,  ,  ,  ,  ,  ,  , 0=0+0:0:0:0:0
Bb aeolian (2b),  ,  ,  ,  ,  ,  ,  ,  ,  ,  ,  ,  ,  ,  ,  ,  ,  ,  ,  ,  ,  ,  ,  ,  ,  ,  ,  ,  ,  ,  ,  ,  ,  ,  ,  ,  ,  ,  ,  ,  ,  ,  ,  ,  ,  ,  ,  ,  ,  ,  ,  ,  ,  ,  ,  ,  ,  ,  ,  ,  ,  ,  ,  ,  ,  ,  , 0=0+0:0:0:0:0
D aeolian (2#),  ,  ,  ,  ,  ,  ,  ,  ,  ,  ,  ,  ,  ,  ,  ,  ,  ,  ,  ,  ,  ,  ,  ,  ,  ,  ,  ,  ,  ,  ,  ,  ,  ,  ,  ,  ,  ,  ,  ,  ,  ,  ,  ,  ,  ,  ,  ,  ,  ,  ,  ,  ,  ,  ,  ,  ,  ,  ,  ,  ,  ,  ,  ,  ,  ,  , 0=0+0:0:0:0:0
Bb locrian (2b),  ,  ,  ,  ,  ,  ,  ,  ,  ,  ,  ,  ,  ,  ,  ,  ,  ,  ,  ,  ,  ,  ,  ,  ,  ,  ,  ,  ,  ,  ,  ,  ,  ,  ,  ,  ,  ,  ,  ,  ,  ,  ,  ,  ,  ,  ,  ,  ,  ,  ,  ,  ,  ,  ,  ,  ,  ,  ,  ,  ,  ,  ,  ,  ,  ,  , 0=0+0:0:0:0:0
D locrian (2#),  ,  ,  ,  ,  ,  ,  ,  ,  ,  ,  ,  ,  ,  ,  ,  ,  ,  ,  ,  ,  ,  ,  ,  ,  ,  ,  ,  ,  ,  ,  ,  ,  ,  ,  ,  ,  ,  ,  ,  ,  ,  ,  ,  ,  ,  ,  ,  ,  ,  ,  ,  ,  ,  ,  ,  ,  ,  ,  ,  ,  ,  ,  ,  ,  ,  , 0=0+0:0:0:0:0
Eb major (3b), 4=3+1:0:0:0:0, 1=1+0:0:0:0:0, 1=1+0:0:0:0:0, 1=1+0:0:0:0:0, 3=2+1:0:0:0:0, 1=1+0:0:0:0:0, 3=2+1:0:0:0:0, 0=0+0:0:0:0:0, 2=1+1:0:0:0:0, 1=1+0:0:0:0:0, 1=1+0:0:0:0:0, 1=1+0:0:0:0:0, 3=2+1:0:0:0:0, 1=1+0:0:0:0:0, 3=2+1:0:0:0:0, 0=0+0:0:0:0:0, 1=1+0:0:0:0:0, 3=2+1:0:1:0:1, 0=0+0:0:0:0:0, 0=0+0:0:0:0:0, 1=1+0:0:0:0:0, 3=3+0:0:0:0:0, 1=1+0:0:0:0:0, 4=3+1:1:0:0:1, 5=3+2:0:0:0:0, 1=1+0:0:0:0:0, 1=1+0:0:0:0:0, 1=1+0:0:0:0:0, 3=2+1:0:0:0:0, 1=1+0:0:0:0:0, 3=2+1:0:0:0:0, 0=0+0:0:0:0:0, 3=2+1:0:0:0:0, 2=2+0:0:0:0:0, 1=1+0:0:0:0:0, 3=2+1:1:0:0:1, 4=2+2:0:0:0:0, 2=1+1:0:0:0:0, 2=1+1:0:0:0:0, 2=2+0:0:0:0:0,  , 3=3+0:0:0:0:0, 5=3+2:0:0:0:0, 0=0+0:0:0:0:0, 4=2+2:0:0:0:0, 3=2+1:0:0:0:0, 5=3+2:0:0:0:1, 2=1+1:0:0:0:0,  , 1=1+0:0:0:0:0, 5=4+1:0:0:0:0, 5=3+2:0:1:0:1, 0=0+0:0:0:0:0, 6=4+2:0:1:0:1, 5=3+2:0:0:0:0, 4=2+2:1:0:0:1, 3=2+1:0:0:0:0, 0=0+0:0:0:0:0, 1=1+0:0:0:0:0, 3=2+1:0:0:0:0, 4=3+1:0:0:0:0, 5=3+2:0:0:0:0, 5=3+2:0:0:0:1, 1=1+0:0:0:0:0, 2=2+0:0:0:0:0, 0=0+0:0:0:0:0, 145=103+42:3:3:0:8
A major (3#), 1=1+0:0:0:0:0, 2=2+0:0:0:0:0, 3=3+0:0:0:0:0, 3=3+0:0:0:0:0, 3=2+1:0:0:0:1, 2=2+0:0:0:0:0, 8=5+3:0:0:0:0, 3=2+1:0:0:0:0, 3=2+1:1:0:0:0, 2=2+0:0:0:0:0, 3=3+0:0:0:0:0, 3=3+0:0:0:0:0, 3=2+1:0:0:0:1, 2=2+0:0:0:0:0, 8=5+3:0:0:0:0, 1=1+0:0:0:0:0, 7=5+2:0:0:0:0, 7=6+1:0:0:0:0, 1=1+0:0:0:0:0, 2=2+0:0:0:0:0, 4=4+0:0:0:0:0, 2=2+0:0:0:0:0, 0=0+0:0:0:0:0, 7=4+3:2:0:0:0, 8=5+3:0:0:0:1, 2=2+0:0:0:0:0, 3=3+0:0:0:0:0, 3=3+0:0:0:0:0, 2=2+0:0:0:0:0, 2=2+0:0:0:0:0, 8=5+3:0:0:0:0, 1=1+0:0:0:0:0, 5=3+2:2:0:0:0, 2=2+0:0:0:0:0, 3=3+0:0:0:0:0, 4=3+1:0:0:0:0, 3=1+2:0:0:0:2, 6=4+2:0:0:0:0, 8=5+3:0:0:0:1, 1=1+0:0:0:0:0,  , 4=3+1:0:0:0:1, 3=2+1:1:0:0:1, 2=2+0:0:0:0:0, 8=4+4:0:0:0:0, 4=3+1:1:0:0:1, 7=4+3:1:0:0:1, 7=5+2:0:0:0:1,  , 5=5+0:0:0:0:0, 6=2+4:0:0:0:0, 7=3+4:0:0:0:0, 0=0+0:0:0:0:0, 5=3+2:0:0:0:0, 2=1+1:0:0:0:0, 7=4+3:0:0:0:1, 6=4+2:0:0:0:0, 3=3+0:0:0:0:0, 2=2+0:0:0:0:0, 2=2+0:0:0:0:0, 8=4+4:0:0:0:1, 4=2+2:0:0:0:0, 7=4+3:0:0:0:1, 6=4+2:0:0:0:0, 1=1+0:0:0:0:0, 0=0+0:0:0:0:0, 247=176+71:8:0:0:14
C minor (3b), 3=3+0:0:0:0:0, 1=1+0:0:0:0:0, 1=1+0:0:0:0:0, 1=1+0:0:0:0:0, 3=2+1:0:0:0:0, 1=1+0:0:0:0:0, 3=2+1:0:0:0:0, 0=0+0:0:0:0:0, 2=1+1:0:0:0:0, 1=1+0:0:0:0:0, 1=1+0:0:0:0:0, 1=1+0:0:0:0:0, 3=2+1:0:0:0:0, 1=1+0:0:0:0:0, 3=2+1:0:0:0:0, 0=0+0:0:0:0:0, 1=1+0:0:0:0:0, 3=2+1:0:1:0:1, 0=0+0:0:0:0:0, 0=0+0:0:0:0:0, 1=1+0:0:0:0:0, 3=3+0:0:0:0:0, 1=1+0:0:0:0:0, 4=3+1:1:0:0:1, 5=3+2:0:0:0:0, 1=1+0:0:0:0:0, 1=1+0:0:0:0:0, 1=1+0:0:0:0:0, 3=2+1:0:0:0:0, 1=1+0:0:0:0:0, 3=2+1:0:0:0:0, 0=0+0:0:0:0:0, 3=2+1:0:0:0:0, 2=2+0:0:0:0:0, 1=1+0:0:0:0:0, 3=2+1:1:0:0:1, 4=2+2:0:0:0:0, 2=1+1:0:0:0:1, 4=1+3:0:0:0:0, 2=2+0:0:0:0:0,  , 4=3+1:0:0:0:0, 3=2+1:1:0:0:1, 0=0+0:0:0:0:0, 4=2+2:0:0:0:0, 3=2+1:0:0:0:0, 5=3+2:0:0:0:1, 2=1+1:0:0:0:0,  , 1=1+0:0:0:0:0, 5=4+1:0:0:0:0, 8=4+4:0:0:0:0, 0=0+0:0:0:0:0, 6=5+1:0:0:0:0, 5=3+2:0:0:0:0, 4=2+2:1:0:0:1, 2=2+0:0:0:0:0, 0=0+0:0:0:0:0, 1=1+0:0:0:0:0, 3=2+1:0:0:0:0, 4=3+1:0:0:0:0, 5=3+2:0:0:0:0, 5=3+2:0:0:0:1, 1=1+0:0:0:0:0, 2=2+0:0:0:0:0, 0=0+0:0:0:0:0, 147=104+43:4:1:0:8
F# minor (3#), 3=1+2:0:0:0:0, 2=2+0:0:0:0:0, 3=3+0:0:0:0:0, 5=3+2:0:0:0:0, 2=2+0:0:0:0:0, 3=2+1:0:0:0:0, 8=5+3:0:0:0:0, 3=2+1:0:0:0:0, 3=2+1:1:0:0:0, 2=2+0:0:0:0:0, 3=3+0:0:0:0:0, 5=3+2:0:0:0:0, 2=2+0:0:0:0:0, 3=2+1:0:0:0:0, 8=5+3:0:0:0:0, 1=1+0:0:0:0:0, 6=5+1:0:0:0:0, 8=6+2:0:0:0:1, 1=1+0:0:0:0:0, 2=2+0:0:0:0:0, 7=4+3:0:0:0:0, 3=2+1:0:0:0:0, 0=0+0:0:0:0:0, 7=4+3:2:0:0:0, 8=5+3:1:0:0:1, 2=2+0:0:0:0:0, 3=3+0:0:0:0:0, 5=3+2:0:0:0:0, 2=2+0:0:0:0:0, 3=2+1:0:0:0:0, 8=5+3:0:0:0:0, 1=1+0:0:0:0:0, 5=3+2:2:0:0:0, 2=2+0:0:0:0:0, 4=3+1:0:0:0:0, 4=3+1:0:0:0:0, 3=1+2:0:0:0:2, 5=4+1:1:0:0:1, 8=5+3:0:0:0:1, 1=1+0:0:0:0:0,  , 4=3+1:0:0:0:1, 3=2+1:1:0:0:1, 2=2+0:0:0:0:0, 8=4+4:0:0:0:0, 6=3+3:0:0:0:0, 7=4+3:1:0:0:2, 7=5+2:0:0:0:1,  , 7=5+2:0:0:0:0, 6=2+4:0:0:0:0, 7=3+4:0:0:0:0, 0=0+0:0:0:0:0, 5=3+2:0:0:0:0, 2=1+1:0:0:0:0, 7=4+3:0:0:0:1, 6=4+2:0:0:0:0, 3=3+0:0:0:0:0, 3=2+1:0:0:0:0, 4=2+2:0:0:0:2, 8=4+4:0:0:0:1, 4=2+2:0:0:0:0, 7=4+3:0:0:0:1, 6=4+2:0:0:0:0, 1=1+0:0:0:0:0, 0=0+0:0:0:0:0, 267=176+91:9:0:0:16
C minor mel (3b),  ,  ,  ,  ,  ,  ,  ,  ,  ,  ,  ,  ,  ,  ,  ,  ,  ,  ,  ,  ,  ,  ,  ,  ,  ,  ,  ,  ,  ,  ,  ,  ,  ,  ,  ,  ,  ,  ,  ,  ,  ,  ,  ,  ,  ,  ,  ,  ,  ,  ,  ,  ,  ,  ,  ,  ,  ,  ,  ,  ,  ,  ,  ,  ,  ,  , 0=0+0:0:0:0:0
F# minor mel (3#),  ,  ,  ,  ,  ,  ,  ,  ,  ,  ,  ,  ,  ,  ,  ,  ,  ,  ,  ,  ,  ,  ,  ,  ,  ,  ,  ,  ,  ,  ,  ,  ,  ,  ,  ,  ,  ,  ,  ,  ,  ,  ,  ,  ,  ,  ,  ,  ,  ,  ,  ,  ,  ,  ,  ,  ,  ,  ,  ,  ,  ,  ,  ,  ,  ,  , 0=0+0:0:0:0:0
Eb major blues (3b),  ,  ,  ,  ,  ,  ,  ,  ,  ,  ,  ,  ,  ,  ,  ,  ,  ,  ,  ,  ,  ,  ,  ,  ,  ,  ,  ,  ,  ,  ,  ,  ,  ,  ,  ,  ,  ,  ,  ,  ,  ,  ,  ,  ,  ,  ,  ,  ,  ,  ,  ,  ,  ,  ,  ,  ,  ,  ,  ,  ,  ,  ,  ,  ,  ,  , 0=0+0:0:0:0:0
A major blues (3#),  ,  ,  ,  ,  ,  ,  ,  ,  ,  ,  ,  ,  ,  ,  ,  ,  ,  ,  ,  ,  ,  ,  ,  ,  ,  ,  ,  ,  ,  ,  ,  ,  ,  ,  ,  ,  ,  ,  ,  ,  ,  ,  ,  ,  ,  ,  ,  ,  ,  ,  ,  ,  ,  ,  ,  ,  ,  ,  ,  ,  ,  ,  ,  ,  ,  , 0=0+0:0:0:0:0
C minor blues (3b),  ,  ,  ,  ,  ,  ,  ,  ,  ,  ,  ,  ,  ,  ,  ,  ,  ,  ,  ,  ,  ,  ,  ,  ,  ,  ,  ,  ,  ,  ,  ,  ,  ,  ,  ,  ,  ,  ,  ,  ,  ,  ,  ,  ,  ,  ,  ,  ,  ,  ,  ,  ,  ,  ,  ,  ,  ,  ,  ,  ,  ,  ,  ,  ,  ,  , 0=0+0:0:0:0:0
F# minor blues (3#),  ,  ,  ,  ,  ,  ,  ,  ,  ,  ,  ,  ,  ,  ,  ,  ,  ,  ,  ,  ,  ,  ,  ,  ,  ,  ,  ,  ,  ,  ,  ,  ,  ,  ,  ,  ,  ,  ,  ,  ,  ,  ,  ,  ,  ,  ,  ,  ,  ,  ,  ,  ,  ,  ,  ,  ,  ,  ,  ,  ,  ,  ,  ,  ,  ,  , 0=0+0:0:0:0:0
Eb dorian (3b),  ,  ,  ,  ,  ,  ,  ,  ,  ,  ,  ,  ,  ,  ,  ,  ,  ,  ,  ,  ,  ,  ,  ,  ,  ,  ,  ,  ,  ,  ,  ,  ,  ,  ,  ,  ,  ,  ,  ,  ,  ,  ,  ,  ,  ,  ,  ,  ,  ,  ,  ,  ,  ,  ,  ,  ,  ,  ,  ,  ,  ,  ,  ,  ,  ,  , 0=0+0:0:0:0:0
A dorian (3#),  ,  ,  ,  ,  ,  ,  ,  ,  ,  ,  ,  ,  ,  ,  ,  ,  ,  ,  ,  ,  ,  ,  ,  ,  ,  ,  ,  ,  ,  ,  ,  ,  ,  ,  ,  ,  ,  ,  ,  ,  ,  ,  ,  ,  ,  ,  ,  ,  ,  ,  ,  ,  ,  ,  ,  ,  ,  ,  ,  ,  ,  ,  ,  ,  ,  , 0=0+0:0:0:0:0
Eb phrygian (3b),  ,  ,  ,  ,  ,  ,  ,  ,  ,  ,  ,  ,  ,  ,  ,  ,  ,  ,  ,  ,  ,  ,  ,  ,  ,  ,  ,  ,  ,  ,  ,  ,  ,  ,  ,  ,  ,  ,  ,  ,  ,  ,  ,  ,  ,  ,  ,  ,  ,  ,  ,  ,  ,  ,  ,  ,  ,  ,  ,  ,  ,  ,  ,  ,  ,  , 0=0+0:0:0:0:0
A phrygian (3#),  ,  ,  ,  ,  ,  ,  ,  ,  ,  ,  ,  ,  ,  ,  ,  ,  ,  ,  ,  ,  ,  ,  ,  ,  ,  ,  ,  ,  ,  ,  ,  ,  ,  ,  ,  ,  ,  ,  ,  ,  ,  ,  ,  ,  ,  ,  ,  ,  ,  ,  ,  ,  ,  ,  ,  ,  ,  ,  ,  ,  ,  ,  ,  ,  ,  , 0=0+0:0:0:0:0
Eb lydian (3b),  ,  ,  ,  ,  ,  ,  ,  ,  ,  ,  ,  ,  ,  ,  ,  ,  ,  ,  ,  ,  ,  ,  ,  ,  ,  ,  ,  ,  ,  ,  ,  ,  ,  ,  ,  ,  ,  ,  ,  ,  ,  ,  ,  ,  ,  ,  ,  ,  ,  ,  ,  ,  ,  ,  ,  ,  ,  ,  ,  ,  ,  ,  ,  ,  ,  , 0=0+0:0:0:0:0
A lydian (3#),  ,  ,  ,  ,  ,  ,  ,  ,  ,  ,  ,  ,  ,  ,  ,  ,  ,  ,  ,  ,  ,  ,  ,  ,  ,  ,  ,  ,  ,  ,  ,  ,  ,  ,  ,  ,  ,  ,  ,  ,  ,  ,  ,  ,  ,  ,  ,  ,  ,  ,  ,  ,  ,  ,  ,  ,  ,  ,  ,  ,  ,  ,  ,  ,  ,  , 0=0+0:0:0:0:0
Eb mixolydian (3b),  ,  ,  ,  ,  ,  ,  ,  ,  ,  ,  ,  ,  ,  ,  ,  ,  ,  ,  ,  ,  ,  ,  ,  ,  ,  ,  ,  ,  ,  ,  ,  ,  ,  ,  ,  ,  ,  ,  ,  ,  ,  ,  ,  ,  ,  ,  ,  ,  ,  ,  ,  ,  ,  ,  ,  ,  ,  ,  ,  ,  ,  ,  ,  ,  ,  , 0=0+0:0:0:0:0
A mixolydian (3#),  ,  ,  ,  ,  ,  ,  ,  ,  ,  ,  ,  ,  ,  ,  ,  ,  ,  ,  ,  ,  ,  ,  ,  ,  ,  ,  ,  ,  ,  ,  ,  ,  ,  ,  ,  ,  ,  ,  ,  ,  ,  ,  ,  ,  ,  ,  ,  ,  ,  ,  ,  ,  ,  ,  ,  ,  ,  ,  ,  ,  ,  ,  ,  ,  ,  , 0=0+0:0:0:0:0
Eb aeolian (3b),  ,  ,  ,  ,  ,  ,  ,  ,  ,  ,  ,  ,  ,  ,  ,  ,  ,  ,  ,  ,  ,  ,  ,  ,  ,  ,  ,  ,  ,  ,  ,  ,  ,  ,  ,  ,  ,  ,  ,  ,  ,  ,  ,  ,  ,  ,  ,  ,  ,  ,  ,  ,  ,  ,  ,  ,  ,  ,  ,  ,  ,  ,  ,  ,  ,  , 0=0+0:0:0:0:0
A aeolian (3#),  ,  ,  ,  ,  ,  ,  ,  ,  ,  ,  ,  ,  ,  ,  ,  ,  ,  ,  ,  ,  ,  ,  ,  ,  ,  ,  ,  ,  ,  ,  ,  ,  ,  ,  ,  ,  ,  ,  ,  ,  ,  ,  ,  ,  ,  ,  ,  ,  ,  ,  ,  ,  ,  ,  ,  ,  ,  ,  ,  ,  ,  ,  ,  ,  ,  , 0=0+0:0:0:0:0
Eb locrian (3b),  ,  ,  ,  ,  ,  ,  ,  ,  ,  ,  ,  ,  ,  ,  ,  ,  ,  ,  ,  ,  ,  ,  ,  ,  ,  ,  ,  ,  ,  ,  ,  ,  ,  ,  ,  ,  ,  ,  ,  ,  ,  ,  ,  ,  ,  ,  ,  ,  ,  ,  ,  ,  ,  ,  ,  ,  ,  ,  ,  ,  ,  ,  ,  ,  ,  , 0=0+0:0:0:0:0
A locrian (3#),  ,  ,  ,  ,  ,  ,  ,  ,  ,  ,  ,  ,  ,  ,  ,  ,  ,  ,  ,  ,  ,  ,  ,  ,  ,  ,  ,  ,  ,  ,  ,  ,  ,  ,  ,  ,  ,  ,  ,  ,  ,  ,  ,  ,  ,  ,  ,  ,  ,  ,  ,  ,  ,  ,  ,  ,  ,  ,  ,  ,  ,  ,  ,  ,  ,  , 0=0+0:0:0:0:0
Ab major (4b), 5=4+1:0:0:0:0, 1=1+0:0:0:0:0, 2=2+0:0:0:0:0, 1=1+0:0:0:0:0, 4=3+1:0:0:0:0, 2=2+0:0:0:0:0, 2=1+1:0:0:0:0, 0=0+0:0:0:0:0, 3=2+1:0:0:0:0, 1=1+0:0:0:0:0, 2=2+0:0:0:0:0, 1=1+0:0:0:0:0, 4=3+1:0:0:0:0, 2=2+0:0:0:0:0, 2=1+1:0:0:0:0, 0=0+0:0:0:0:0, 2=2+0:0:0:0:0, 3=2+1:0:1:0:1, 1=1+0:0:0:0:0, 1=1+0:0:0:0:0, 1=1+0:0:0:0:0, 5=4+1:0:0:0:0, 2=2+0:0:0:0:0, 5=4+1:1:0:0:1, 4=2+2:0:0:0:0, 1=1+0:0:0:0:0, 2=2+0:0:0:0:0, 1=1+0:0:0:0:0, 4=3+1:0:0:0:0, 2=2+0:0:0:0:0, 2=1+1:0:0:0:0, 0=0+0:0:0:0:0, 3=2+1:0:0:0:0, 3=3+0:0:0:0:0, 1=1+0:0:0:0:0, 3=2+1:0:0:0:0, 4=2+2:0:0:0:0, 2=1+1:0:0:0:0, 3=2+1:0:0:0:0, 3=3+0:0:0:0:0,  , 6=4+2:2:0:0:2, 4=3+1:1:0:0:1, 1=1+0:0:0:0:0, 3=1+2:0:0:0:0, 3=2+1:0:0:0:0, 6=4+2:0:0:0:1, 2=1+1:0:0:0:0,  , 2=2+0:0:0:0:0, 4=3+1:0:0:0:0, 9=5+4:0:0:0:0, 1=1+0:0:0:0:0, 8=6+2:0:1:0:1, 3=1+2:0:0:0:0, 5=3+2:1:0:0:1, 4=3+1:0:0:0:0, 0=0+0:0:0:0:0, 1=1+0:0:0:0:0, 4=3+1:0:0:0:0, 4=3+1:0:0:0:0, 5=3+2:0:0:0:0, 6=4+2:0:0:0:1, 1=1+0:0:0:0:0, 2=2+0:0:0:0:0, 1=1+0:0:0:0:0, 175=129+46:5:2:0:9
E major (4#), 2=2+0:0:0:0:0, 2=2+0:0:0:0:0, 4=4+0:0:0:0:0, 3=3+0:0:0:0:0, 3=3+0:0:0:0:0, 4=3+1:0:0:0:0, 8=5+3:0:0:0:0, 3=2+1:0:0:0:0, 4=3+1:1:0:0:0, 2=2+0:0:0:0:0, 4=4+0:0:0:0:0, 3=3+0:0:0:0:0, 3=3+0:0:0:0:0, 4=3+1:0:0:0:0, 8=5+3:0:0:0:0, 1=1+0:0:0:0:0, 8=6+2:0:0:0:0, 8=6+2:0:0:0:0, 2=2+0:0:0:0:0, 3=3+0:0:0:0:0, 5=4+1:0:0:0:0, 4=3+1:0:0:0:0, 1=1+0:0:0:0:0, 8=5+3:2:0:0:0, 7=4+3:0:0:0:2, 2=2+0:0:0:0:0, 4=4+0:0:0:0:0, 3=3+0:0:0:0:0, 3=3+0:0:0:0:0, 4=3+1:0:0:0:0, 8=5+3:0:0:0:0, 1=1+0:0:0:0:0, 5=3+2:2:0:0:0, 3=3+0:0:0:0:0, 3=3+0:0:0:0:0, 5=4+1:0:0:0:0, 3=1+2:0:0:0:2, 5=3+2:0:0:0:1, 9=6+3:0:0:0:1, 2=2+0:0:0:0:0,  , 5=4+1:0:0:0:1, 4=3+1:1:0:0:1, 3=3+0:0:0:0:0, 8=4+4:2:0:0:1, 6=3+3:0:0:0:0, 7=4+3:0:0:0:2, 7=5+2:0:0:0:1,  , 6=6+0:0:0:0:0, 5=1+4:0:0:0:0, 8=4+4:0:0:0:0, 1=1+0:0:0:0:0, 6=4+2:0:0:0:1, 2=1+1:0:0:0:0, 8=5+3:0:0:0:1, 8=5+3:2:0:0:0, 3=3+0:0:0:0:0, 2=2+0:0:0:0:0, 3=3+0:0:0:0:0, 8=4+4:0:0:0:4, 4=2+2:0:0:0:0, 7=4+3:0:0:0:2, 6=4+2:0:0:0:0, 1=1+0:0:0:0:0, 1=1+0:0:0:0:0, 283=205+78:10:0:0:20
F minor (4b), 4=4+0:0:0:0:0, 1=1+0:0:0:0:0, 2=2+0:0:0:0:0, 1=1+0:0:0:0:0, 4=3+1:0:0:0:0, 2=2+0:0:0:0:0, 2=1+1:0:0:0:0, 0=0+0:0:0:0:0, 3=2+1:0:0:0:0, 1=1+0:0:0:0:0, 2=2+0:0:0:0:0, 1=1+0:0:0:0:0, 4=3+1:0:0:0:0, 2=2+0:0:0:0:0, 2=1+1:0:0:0:0, 0=0+0:0:0:0:0, 2=2+0:0:0:0:0, 3=2+1:0:1:0:1, 1=1+0:0:0:0:0, 1=1+0:0:0:0:0, 1=1+0:0:0:0:0, 4=4+0:0:0:0:0, 2=2+0:0:0:0:0, 5=4+1:1:0:0:1, 4=2+2:0:0:0:0, 1=1+0:0:0:0:0, 2=2+0:0:0:0:0, 1=1+0:0:0:0:0, 4=3+1:0:0:0:0, 2=2+0:0:0:0:0, 2=1+1:0:0:0:0, 0=0+0:0:0:0:0, 3=2+1:0:0:0:0, 3=3+0:0:0:0:0, 1=1+0:0:0:0:0, 3=2+1:0:0:0:0, 4=2+2:0:0:0:0, 2=1+1:0:0:0:0, 3=2+1:0:0:0:0, 3=3+0:0:0:0:0,  , 6=4+2:2:0:0:2, 4=3+1:1:0:0:1, 1=1+0:0:0:0:0, 3=1+2:0:0:0:0, 3=2+1:0:0:0:0, 6=4+2:0:0:0:1, 2=1+1:0:0:0:0,  , 2=2+0:0:0:0:0, 4=3+1:0:0:0:0, 9=5+4:0:0:0:0, 1=1+0:0:0:0:0, 8=7+1:0:0:0:0, 3=3+0:0:0:0:0, 5=3+2:1:0:0:1, 3=3+0:0:0:0:0, 0=0+0:0:0:0:0, 1=1+0:0:0:0:0, 4=3+1:0:0:0:0, 4=3+1:0:0:0:0, 5=3+2:0:0:0:0, 6=4+2:0:0:0:1, 1=1+0:0:0:0:0, 2=2+0:0:0:0:0, 1=1+0:0:0:0:0, 172=132+40:5:1:0:8
C# minor (4#), 4=2+2:0:0:0:0, 2=2+0:0:0:0:0, 4=4+0:0:0:0:0, 3=3+0:0:0:0:0, 4=3+1:1:0:0:1, 5=3+2:0:0:0:0, 6=5+1:0:0:0:0, 2=2+0:0:0:0:0, 4=3+1:1:0:0:0, 2=2+0:0:0:0:0, 4=4+0:0:0:0:0, 3=3+0:0:0:0:0, 4=3+1:1:0:0:1, 5=3+2:0:0:0:0, 6=5+1:0:0:0:0, 1=1+0:0:0:0:0, 6=6+0:0:0:0:0, 7=6+1:0:0:0:0, 2=2+0:0:0:0:0, 3=3+0:0:0:0:0, 4=4+0:0:0:0:0, 4=3+1:0:0:0:0, 1=1+0:0:0:0:0, 8=5+3:2:0:0:0, 7=5+2:1:0:0:1, 2=2+0:0:0:0:0, 4=4+0:0:0:0:0, 3=3+0:0:0:0:0, 4=3+1:1:0:0:1, 5=3+2:0:0:0:0, 6=5+1:0:0:0:0, 1=1+0:0:0:0:0, 5=3+2:2:0:0:0, 4=3+1:0:0:0:0, 3=3+0:0:0:0:0, 5=4+1:1:0:0:1, 3=1+2:2:0:0:2, 5=4+1:1:0:0:1, 7=6+1:1:0:0:1, 2=2+0:0:0:0:0,  , 5=4+1:0:0:0:1, 6=4+2:0:0:0:0, 3=3+0:0:0:0:0, 5=4+1:0:0:0:0, 4=3+1:1:0:0:1, 7=5+2:1:0:0:2, 6=5+1:1:0:0:1,  , 6=6+0:0:0:0:0, 7=4+3:2:0:0:3, 8=4+4:1:0:0:1, 1=1+0:0:0:0:0, 6=4+2:0:0:0:1, 2=1+1:0:0:0:0, 8=5+3:0:0:0:1, 6=5+1:0:0:0:0, 3=3+0:0:0:0:0, 2=2+0:0:0:0:0, 5=3+2:0:0:0:1, 6=4+2:1:0:0:1, 5=2+3:2:0:0:2, 7=5+2:1:0:0:2, 4=4+0:0:0:0:0, 1=1+0:0:0:0:0, 1=1+0:0:0:0:0, 274=213+61:24:0:0:26
F minor mel (4b),  ,  ,  ,  ,  ,  ,  ,  ,  ,  ,  ,  ,  ,  ,  ,  ,  ,  ,  ,  ,  ,  ,  ,  ,  ,  ,  ,  ,  ,  ,  ,  ,  ,  ,  ,  ,  ,  ,  ,  ,  ,  ,  ,  ,  ,  ,  ,  ,  ,  ,  ,  ,  ,  ,  ,  ,  ,  ,  ,  ,  ,  ,  ,  ,  ,  , 0=0+0:0:0:0:0
C# minor mel (4#),  ,  ,  ,  ,  ,  ,  ,  ,  ,  ,  ,  ,  ,  ,  ,  ,  ,  ,  ,  ,  ,  ,  ,  ,  ,  ,  ,  ,  ,  ,  ,  ,  ,  ,  ,  ,  ,  ,  ,  ,  ,  ,  ,  ,  ,  ,  ,  ,  ,  ,  ,  ,  ,  ,  ,  ,  ,  ,  ,  ,  ,  ,  ,  ,  ,  , 0=0+0:0:0:0:0
Ab major blues (4b),  ,  ,  ,  ,  ,  ,  ,  ,  ,  ,  ,  ,  ,  ,  ,  ,  ,  ,  ,  ,  ,  ,  ,  ,  ,  ,  ,  ,  ,  ,  ,  ,  ,  ,  ,  ,  ,  ,  ,  ,  ,  ,  ,  ,  ,  ,  ,  ,  ,  ,  ,  ,  ,  ,  ,  ,  ,  ,  ,  ,  ,  ,  ,  ,  ,  , 0=0+0:0:0:0:0
E major blues (4#),  ,  ,  ,  ,  ,  ,  ,  ,  ,  ,  ,  ,  ,  ,  ,  ,  ,  ,  ,  ,  ,  ,  ,  ,  ,  ,  ,  ,  ,  ,  ,  ,  ,  ,  ,  ,  ,  ,  ,  ,  ,  ,  ,  ,  ,  ,  ,  ,  ,  ,  ,  ,  ,  ,  ,  ,  ,  ,  ,  ,  ,  ,  ,  ,  ,  , 0=0+0:0:0:0:0
F minor blues (4b),  ,  ,  ,  ,  ,  ,  ,  ,  ,  ,  ,  ,  ,  ,  ,  ,  ,  ,  ,  ,  ,  ,  ,  ,  ,  ,  ,  ,  ,  ,  ,  ,  ,  ,  ,  ,  ,  ,  ,  ,  ,  ,  ,  ,  ,  ,  ,  ,  ,  ,  ,  ,  ,  ,  ,  ,  ,  ,  ,  ,  ,  ,  ,  ,  ,  , 0=0+0:0:0:0:0
C# minor blues (4#),  ,  ,  ,  ,  ,  ,  ,  ,  ,  ,  ,  ,  ,  ,  ,  ,  ,  ,  ,  ,  ,  ,  ,  ,  ,  ,  ,  ,  ,  ,  ,  ,  ,  ,  ,  ,  ,  ,  ,  ,  ,  ,  ,  ,  ,  ,  ,  ,  ,  ,  ,  ,  ,  ,  ,  ,  ,  ,  ,  ,  ,  ,  ,  ,  ,  , 0=0+0:0:0:0:0
Ab dorian (4b),  ,  ,  ,  ,  ,  ,  ,  ,  ,  ,  ,  ,  ,  ,  ,  ,  ,  ,  ,  ,  ,  ,  ,  ,  ,  ,  ,  ,  ,  ,  ,  ,  ,  ,  ,  ,  ,  ,  ,  ,  ,  ,  ,  ,  ,  ,  ,  ,  ,  ,  ,  ,  ,  ,  ,  ,  ,  ,  ,  ,  ,  ,  ,  ,  ,  , 0=0+0:0:0:0:0
E dorian (4#),  ,  ,  ,  ,  ,  ,  ,  ,  ,  ,  ,  ,  ,  ,  ,  ,  ,  ,  ,  ,  ,  ,  ,  ,  ,  ,  ,  ,  ,  ,  ,  ,  ,  ,  ,  ,  ,  ,  ,  ,  ,  ,  ,  ,  ,  ,  ,  ,  ,  ,  ,  ,  ,  ,  ,  ,  ,  ,  ,  ,  ,  ,  ,  ,  ,  , 0=0+0:0:0:0:0
Ab phrygian (4b),  ,  ,  ,  ,  ,  ,  ,  ,  ,  ,  ,  ,  ,  ,  ,  ,  ,  ,  ,  ,  ,  ,  ,  ,  ,  ,  ,  ,  ,  ,  ,  ,  ,  ,  ,  ,  ,  ,  ,  ,  ,  ,  ,  ,  ,  ,  ,  ,  ,  ,  ,  ,  ,  ,  ,  ,  ,  ,  ,  ,  ,  ,  ,  ,  ,  , 0=0+0:0:0:0:0
E phrygian (4#),  ,  ,  ,  ,  ,  ,  ,  ,  ,  ,  ,  ,  ,  ,  ,  ,  ,  ,  ,  ,  ,  ,  ,  ,  ,  ,  ,  ,  ,  ,  ,  ,  ,  ,  ,  ,  ,  ,  ,  ,  ,  ,  ,  ,  ,  ,  ,  ,  ,  ,  ,  ,  ,  ,  ,  ,  ,  ,  ,  ,  ,  ,  ,  ,  ,  , 0=0+0:0:0:0:0
Ab lydian (4b),  ,  ,  ,  ,  ,  ,  ,  ,  ,  ,  ,  ,  ,  ,  ,  ,  ,  ,  ,  ,  ,  ,  ,  ,  ,  ,  ,  ,  ,  ,  ,  ,  ,  ,  ,  ,  ,  ,  ,  ,  ,  ,  ,  ,  ,  ,  ,  ,  ,  ,  ,  ,  ,  ,  ,  ,  ,  ,  ,  ,  ,  ,  ,  ,  ,  , 0=0+0:0:0:0:0
E lydian (4#),  ,  ,  ,  ,  ,  ,  ,  ,  ,  ,  ,  ,  ,  ,  ,  ,  ,  ,  ,  ,  ,  ,  ,  ,  ,  ,  ,  ,  ,  ,  ,  ,  ,  ,  ,  ,  ,  ,  ,  ,  ,  ,  ,  ,  ,  ,  ,  ,  ,  ,  ,  ,  ,  ,  ,  ,  ,  ,  ,  ,  ,  ,  ,  ,  ,  , 0=0+0:0:0:0:0
Ab mixolydian (4b),  ,  ,  ,  ,  ,  ,  ,  ,  ,  ,  ,  ,  ,  ,  ,  ,  ,  ,  ,  ,  ,  ,  ,  ,  ,  ,  ,  ,  ,  ,  ,  ,  ,  ,  ,  ,  ,  ,  ,  ,  ,  ,  ,  ,  ,  ,  ,  ,  ,  ,  ,  ,  ,  ,  ,  ,  ,  ,  ,  ,  ,  ,  ,  ,  ,  , 0=0+0:0:0:0:0
E mixolydian (4#),  ,  ,  ,  ,  ,  ,  ,  ,  ,  ,  ,  ,  ,  ,  ,  ,  ,  ,  ,  ,  ,  ,  ,  ,  ,  ,  ,  ,  ,  ,  ,  ,  ,  ,  ,  ,  ,  ,  ,  ,  ,  ,  ,  ,  ,  ,  ,  ,  ,  ,  ,  ,  ,  ,  ,  ,  ,  ,  ,  ,  ,  ,  ,  ,  ,  , 0=0+0:0:0:0:0
Ab aeolian (4b),  ,  ,  ,  ,  ,  ,  ,  ,  ,  ,  ,  ,  ,  ,  ,  ,  ,  ,  ,  ,  ,  ,  ,  ,  ,  ,  ,  ,  ,  ,  ,  ,  ,  ,  ,  ,  ,  ,  ,  ,  ,  ,  ,  ,  ,  ,  ,  ,  ,  ,  ,  ,  ,  ,  ,  ,  ,  ,  ,  ,  ,  ,  ,  ,  ,  , 0=0+0:0:0:0:0
E aeolian (4#),  ,  ,  ,  ,  ,  ,  ,  ,  ,  ,  ,  ,  ,  ,  ,  ,  ,  ,  ,  ,  ,  ,  ,  ,  ,  ,  ,  ,  ,  ,  ,  ,  ,  ,  ,  ,  ,  ,  ,  ,  ,  ,  ,  ,  ,  ,  ,  ,  ,  ,  ,  ,  ,  ,  ,  ,  ,  ,  ,  ,  ,  ,  ,  ,  ,  , 0=0+0:0:0:0:0
Ab locrian (4b),  ,  ,  ,  ,  ,  ,  ,  ,  ,  ,  ,  ,  ,  ,  ,  ,  ,  ,  ,  ,  ,  ,  ,  ,  ,  ,  ,  ,  ,  ,  ,  ,  ,  ,  ,  ,  ,  ,  ,  ,  ,  ,  ,  ,  ,  ,  ,  ,  ,  ,  ,  ,  ,  ,  ,  ,  ,  ,  ,  ,  ,  ,  ,  ,  ,  , 0=0+0:0:0:0:0
E locrian (4#),  ,  ,  ,  ,  ,  ,  ,  ,  ,  ,  ,  ,  ,  ,  ,  ,  ,  ,  ,  ,  ,  ,  ,  ,  ,  ,  ,  ,  ,  ,  ,  ,  ,  ,  ,  ,  ,  ,  ,  ,  ,  ,  ,  ,  ,  ,  ,  ,  ,  ,  ,  ,  ,  ,  ,  ,  ,  ,  ,  ,  ,  ,  ,  ,  ,  , 0=0+0:0:0:0:0
Db major (5b), 5=4+1:0:0:0:0, 2=2+0:0:0:0:0, 3=3+0:0:0:0:0, 2=2+0:0:0:0:0, 5=4+1:0:0:0:0, 5=3+2:0:0:0:0, 3=2+1:0:0:0:0, 0=0+0:0:0:0:0, 3=2+1:0:0:0:0, 2=2+0:0:0:0:0, 3=3+0:0:0:0:0, 2=2+0:0:0:0:0, 5=4+1:0:0:0:0, 5=3+2:0:0:0:0, 3=2+1:0:0:0:0, 0=0+0:0:0:0:0, 3=3+0:0:0:0:0, 5=4+1:0:1:0:1, 1=1+0:0:0:0:0, 2=2+0:0:0:0:0, 2=2+0:0:0:0:0, 6=5+1:0:0:0:0, 2=2+0:0:0:0:0, 6=4+2:0:0:0:0, 4=3+1:0:0:0:0, 2=2+0:0:0:0:0, 3=3+0:0:0:0:0, 2=2+0:0:0:0:0, 5=4+1:0:0:0:0, 5=3+2:0:0:0:0, 3=2+1:0:0:0:0, 0=0+0:0:0:0:0, 4=3+1:0:0:0:0, 5=4+1:0:0:0:0, 2=2+0:0:0:0:0, 3=2+1:0:0:0:0, 4=2+2:0:0:0:0, 3=2+1:0:0:0:0, 4=3+1:0:0:0:0, 3=3+0:0:0:0:0,  , 6=6+0:0:0:0:0, 4=3+1:1:0:0:1, 2=2+0:0:0:0:0, 5=1+4:0:0:0:0, 4=3+1:0:0:0:0, 6=4+2:0:0:0:1, 3=2+1:0:0:0:0,  , 4=3+1:0:0:0:0, 4=1+3:0:0:0:0, 9=5+4:0:0:0:0, 1=1+0:0:0:0:0, 9=7+2:0:1:0:1, 3=1+2:0:0:0:0, 5=3+2:0:0:0:0, 5=4+1:0:0:0:0, 0=0+0:0:0:0:0, 2=2+0:0:0:0:0, 5=4+1:0:0:0:0, 4=3+1:0:0:0:0, 7=4+3:0:0:0:0, 6=4+2:0:0:0:1, 1=1+0:0:0:0:0, 2=2+0:0:0:0:0, 1=1+0:0:0:0:0, 225=168+57:1:2:0:5
B major (5#), 5=3+2:0:0:0:0, 3=3+0:0:0:0:0, 5=5+0:0:0:0:0, 6=4+2:0:0:0:0, 4=4+0:0:0:0:0, 3=3+0:0:0:0:0, 7=6+1:0:0:0:0, 3=2+1:0:0:0:0, 5=4+1:1:0:0:0, 3=3+0:0:0:0:0, 5=5+0:0:0:0:0, 6=4+2:0:0:0:0, 4=4+0:0:0:0:0, 3=3+0:0:0:0:0, 7=6+1:0:0:0:0, 1=1+0:0:0:0:0, 7=7+0:0:0:0:0, 9=7+2:0:0:0:2, 2=2+0:0:0:0:0, 3=3+0:0:0:0:0, 6=5+1:0:0:0:0, 5=4+1:0:0:0:0, 1=1+0:0:0:0:0, 8=5+3:0:0:0:2, 8=5+3:2:0:0:2, 3=3+0:0:0:0:0, 5=5+0:0:0:0:0, 6=4+2:0:0:0:0, 4=4+0:0:0:0:0, 3=3+0:0:0:0:0, 7=6+1:0:0:0:0, 1=1+0:0:0:0:0, 6=4+2:2:0:0:0, 4=4+0:0:0:0:0, 5=4+1:0:0:0:0, 6=5+1:0:0:0:0, 4=2+2:2:0:0:2, 5=4+1:1:0:0:1, 7=6+1:1:0:0:1, 3=3+0:0:0:0:0,  , 3=3+0:0:0:0:0, 4=3+1:1:0:0:1, 3=3+0:0:0:0:0, 7=5+2:0:0:0:0, 7=4+3:1:0:0:3, 9=6+3:1:0:0:2, 7=6+1:0:0:0:1,  , 8=7+1:0:0:0:0, 8=5+3:2:0:0:3, 8=4+4:1:0:0:1, 1=1+0:0:0:0:0, 7=5+2:1:0:0:1, 3=2+1:0:0:0:0, 7=4+3:0:0:0:1, 7=6+1:0:0:0:0, 3=3+0:0:0:0:0, 3=3+0:0:0:0:0, 3=3+0:0:0:0:0, 8=4+4:0:0:0:4, 5=3+2:0:0:0:0, 8=5+3:1:0:0:1, 7=5+2:0:0:0:0, 3=2+1:0:0:0:0, 1=1+0:0:0:0:0, 318=250+68:17:0:0:28
Bb minor (5b), 5=4+1:0:0:0:0, 2=2+0:0:0:0:0, 3=3+0:0:0:0:0, 2=2+0:0:0:0:0, 5=4+1:0:0:0:0, 3=3+0:0:0:0:0, 3=2+1:0:0:0:0, 0=0+0:0:0:0:0, 3=2+1:0:0:0:0, 2=2+0:0:0:0:0, 3=3+0:0:0:0:0, 2=2+0:0:0:0:0, 5=4+1:0:0:0:0, 3=3+0:0:0:0:0, 3=2+1:0:0:0:0, 0=0+0:0:0:0:0, 3=3+0:0:0:0:0, 5=4+1:0:1:0:1, 1=1+0:0:0:0:0, 2=2+0:0:0:0:0, 2=2+0:0:0:0:0, 6=5+1:0:0:0:0, 2=2+0:0:0:0:0, 5=4+1:0:0:0:0, 5=3+2:0:0:0:0, 2=2+0:0:0:0:0, 3=3+0:0:0:0:0, 2=2+0:0:0:0:0, 5=4+1:0:0:0:0, 3=3+0:0:0:0:0, 3=2+1:0:0:0:0, 0=0+0:0:0:0:0, 4=3+1:0:0:0:0, 4=4+0:0:0:0:0, 2=2+0:0:0:0:0, 3=2+1:0:0:0:0, 4=2+2:0:0:0:0, 3=2+1:0:0:0:0, 4=3+1:0:0:0:0, 3=3+0:0:0:0:0,  , 6=6+0:0:0:0:0, 6=4+2:0:0:0:0, 2=2+0:0:0:0:0, 3=1+2:0:0:0:0, 4=3+1:0:0:0:0, 6=4+2:0:0:0:1, 3=2+1:0:0:0:0,  , 3=3+0:0:0:0:0, 2=1+1:0:0:0:0, 9=5+4:0:0:0:0, 1=1+0:0:0:0:0, 10=8+2:0:0:0:0, 3=1+2:0:0:0:0, 5=3+2:0:0:0:0, 4=4+0:0:0:0:0, 0=0+0:0:0:0:0, 2=2+0:0:0:0:0, 5=4+1:0:0:0:0, 4=3+1:0:0:0:0, 6=4+2:0:0:0:0, 6=4+2:0:0:0:1, 1=1+0:0:0:0:0, 2=2+0:0:0:0:0, 1=1+0:0:0:0:0, 214=170+44:0:1:0:3
G# minor (5#), 5=3+2:0:0:0:0, 3=3+0:0:0:0:0, 5=5+0:0:0:0:0, 4=4+0:0:0:0:0, 7=4+3:1:0:0:1, 3=3+0:0:0:0:0, 9=6+3:0:0:0:0, 2=2+0:0:0:0:0, 5=4+1:0:0:0:0, 3=3+0:0:0:0:0, 5=5+0:0:0:0:0, 4=4+0:0:0:0:0, 7=4+3:1:0:0:1, 3=3+0:0:0:0:0, 9=6+3:0:0:0:0, 1=1+0:0:0:0:0, 9=7+2:0:0:0:0, 9=7+2:0:0:0:2, 2=2+0:0:0:0:0, 3=3+0:0:0:0:0, 8=5+3:0:0:0:0, 5=4+1:0:0:0:0, 1=1+0:0:0:0:0, 8=6+2:1:0:0:1, 8=5+3:2:0:0:2, 6=3+3:0:0:0:0, 7=5+2:0:0:0:0, 5=4+1:0:0:0:0, 7=4+3:1:0:0:1, 3=3+0:0:0:0:0, 9=6+3:0:0:0:0, 1=1+0:0:0:0:0, 5=4+1:1:0:0:1, 5=4+1:0:0:0:0, 5=4+1:0:0:0:0, 7=5+2:1:0:0:1, 4=3+1:0:0:0:0, 5=4+1:1:0:0:1, 7=6+1:1:0:0:1, 4=3+1:0:0:0:0,  , 6=4+2:2:0:0:2, 4=3+1:1:0:0:1, 3=3+0:0:0:0:0, 9=5+4:0:0:0:0, 7=4+3:1:0:0:3, 9=6+3:1:0:0:2, 7=6+1:0:0:0:0,  , 8=7+1:0:0:0:0, 8=5+3:2:0:0:3, 8=4+4:1:0:0:1, 1=1+0:0:0:0:0, 8=6+2:0:0:0:0, 4=2+2:2:0:0:2, 7=5+2:2:0:0:2, 7=6+1:0:0:0:0, 3=3+0:0:0:0:0, 4=3+1:0:0:0:0, 4=3+1:0:0:0:0, 7=6+1:0:0:0:0, 6=4+2:1:0:0:1, 9=6+3:1:0:0:2, 5=5+0:0:0:0:0, 2=2+0:0:0:0:0, 1=1+0:0:0:0:0, 345=259+86:24:0:0:31
Bb minor mel (5b),  ,  ,  ,  ,  ,  ,  ,  ,  ,  ,  ,  ,  ,  ,  ,  ,  ,  ,  ,  ,  ,  ,  ,  ,  ,  ,  ,  ,  ,  ,  ,  ,  ,  ,  ,  ,  ,  ,  ,  ,  ,  ,  ,  ,  ,  ,  ,  ,  ,  ,  ,  ,  ,  ,  ,  ,  ,  ,  ,  ,  ,  ,  ,  ,  ,  , 0=0+0:0:0:0:0
G# minor mel (5#),  ,  ,  ,  ,  ,  ,  ,  ,  ,  ,  ,  ,  ,  ,  ,  ,  ,  ,  ,  ,  ,  ,  ,  ,  ,  ,  ,  ,  ,  ,  ,  ,  ,  ,  ,  ,  ,  ,  ,  ,  ,  ,  ,  ,  ,  ,  ,  ,  ,  ,  ,  ,  ,  ,  ,  ,  ,  ,  ,  ,  ,  ,  ,  ,  ,  , 0=0+0:0:0:0:0
Db major blues (5b),  ,  ,  ,  ,  ,  ,  ,  ,  ,  ,  ,  ,  ,  ,  ,  ,  ,  ,  ,  ,  ,  ,  ,  ,  ,  ,  ,  ,  ,  ,  ,  ,  ,  ,  ,  ,  ,  ,  ,  ,  ,  ,  ,  ,  ,  ,  ,  ,  ,  ,  ,  ,  ,  ,  ,  ,  ,  ,  ,  ,  ,  ,  ,  ,  ,  , 0=0+0:0:0:0:0
B major blues (5#),  ,  ,  ,  ,  ,  ,  ,  ,  ,  ,  ,  ,  ,  ,  ,  ,  ,  ,  ,  ,  ,  ,  ,  ,  ,  ,  ,  ,  ,  ,  ,  ,  ,  ,  ,  ,  ,  ,  ,  ,  ,  ,  ,  ,  ,  ,  ,  ,  ,  ,  ,  ,  ,  ,  ,  ,  ,  ,  ,  ,  ,  ,  ,  ,  ,  , 0=0+0:0:0:0:0
Bb minor blues (5b),  ,  ,  ,  ,  ,  ,  ,  ,  ,  ,  ,  ,  ,  ,  ,  ,  ,  ,  ,  ,  ,  ,  ,  ,  ,  ,  ,  ,  ,  ,  ,  ,  ,  ,  ,  ,  ,  ,  ,  ,  ,  ,  ,  ,  ,  ,  ,  ,  ,  ,  ,  ,  ,  ,  ,  ,  ,  ,  ,  ,  ,  ,  ,  ,  ,  , 0=0+0:0:0:0:0
G# minor blues (5#),  ,  ,  ,  ,  ,  ,  ,  ,  ,  ,  ,  ,  ,  ,  ,  ,  ,  ,  ,  ,  ,  ,  ,  ,  ,  ,  ,  ,  ,  ,  ,  ,  ,  ,  ,  ,  ,  ,  ,  ,  ,  ,  ,  ,  ,  ,  ,  ,  ,  ,  ,  ,  ,  ,  ,  ,  ,  ,  ,  ,  ,  ,  ,  ,  ,  , 0=0+0:0:0:0:0
Db dorian (5b),  ,  ,  ,  ,  ,  ,  ,  ,  ,  ,  ,  ,  ,  ,  ,  ,  ,  ,  ,  ,  ,  ,  ,  ,  ,  ,  ,  ,  ,  ,  ,  ,  ,  ,  ,  ,  ,  ,  ,  ,  ,  ,  ,  ,  ,  ,  ,  ,  ,  ,  ,  ,  ,  ,  ,  ,  ,  ,  ,  ,  ,  ,  ,  ,  ,  , 0=0+0:0:0:0:0
B dorian (5#),  ,  ,  ,  ,  ,  ,  ,  ,  ,  ,  ,  ,  ,  ,  ,  ,  ,  ,  ,  ,  ,  ,  ,  ,  ,  ,  ,  ,  ,  ,  ,  ,  ,  ,  ,  ,  ,  ,  ,  ,  ,  ,  ,  ,  ,  ,  ,  ,  ,  ,  ,  ,  ,  ,  ,  ,  ,  ,  ,  ,  ,  ,  ,  ,  ,  , 0=0+0:0:0:0:0
Db phrygian (5b),  ,  ,  ,  ,  ,  ,  ,  ,  ,  ,  ,  ,  ,  ,  ,  ,  ,  ,  ,  ,  ,  ,  ,  ,  ,  ,  ,  ,  ,  ,  ,  ,  ,  ,  ,  ,  ,  ,  ,  ,  ,  ,  ,  ,  ,  ,  ,  ,  ,  ,  ,  ,  ,  ,  ,  ,  ,  ,  ,  ,  ,  ,  ,  ,  ,  , 0=0+0:0:0:0:0
B phrygian (5#),  ,  ,  ,  ,  ,  ,  ,  ,  ,  ,  ,  ,  ,  ,  ,  ,  ,  ,  ,  ,  ,  ,  ,  ,  ,  ,  ,  ,  ,  ,  ,  ,  ,  ,  ,  ,  ,  ,  ,  ,  ,  ,  ,  ,  ,  ,  ,  ,  ,  ,  ,  ,  ,  ,  ,  ,  ,  ,  ,  ,  ,  ,  ,  ,  ,  , 0=0+0:0:0:0:0
Db lydian (5b),  ,  ,  ,  ,  ,  ,  ,  ,  ,  ,  ,  ,  ,  ,  ,  ,  ,  ,  ,  ,  ,  ,  ,  ,  ,  ,  ,  ,  ,  ,  ,  ,  ,  ,  ,  ,  ,  ,  ,  ,  ,  ,  ,  ,  ,  ,  ,  ,  ,  ,  ,  ,  ,  ,  ,  ,  ,  ,  ,  ,  ,  ,  ,  ,  ,  , 0=0+0:0:0:0:0
B lydian (5#),  ,  ,  ,  ,  ,  ,  ,  ,  ,  ,  ,  ,  ,  ,  ,  ,  ,  ,  ,  ,  ,  ,  ,  ,  ,  ,  ,  ,  ,  ,  ,  ,  ,  ,  ,  ,  ,  ,  ,  ,  ,  ,  ,  ,  ,  ,  ,  ,  ,  ,  ,  ,  ,  ,  ,  ,  ,  ,  ,  ,  ,  ,  ,  ,  ,  , 0=0+0:0:0:0:0
Db mixolydian (5b),  ,  ,  ,  ,  ,  ,  ,  ,  ,  ,  ,  ,  ,  ,  ,  ,  ,  ,  ,  ,  ,  ,  ,  ,  ,  ,  ,  ,  ,  ,  ,  ,  ,  ,  ,  ,  ,  ,  ,  ,  ,  ,  ,  ,  ,  ,  ,  ,  ,  ,  ,  ,  ,  ,  ,  ,  ,  ,  ,  ,  ,  ,  ,  ,  ,  , 0=0+0:0:0:0:0
B mixolydian (5#),  ,  ,  ,  ,  ,  ,  ,  ,  ,  ,  ,  ,  ,  ,  ,  ,  ,  ,  ,  ,  ,  ,  ,  ,  ,  ,  ,  ,  ,  ,  ,  ,  ,  ,  ,  ,  ,  ,  ,  ,  ,  ,  ,  ,  ,  ,  ,  ,  ,  ,  ,  ,  ,  ,  ,  ,  ,  ,  ,  ,  ,  ,  ,  ,  ,  , 0=0+0:0:0:0:0
Db aeolian (5b),  ,  ,  ,  ,  ,  ,  ,  ,  ,  ,  ,  ,  ,  ,  ,  ,  ,  ,  ,  ,  ,  ,  ,  ,  ,  ,  ,  ,  ,  ,  ,  ,  ,  ,  ,  ,  ,  ,  ,  ,  ,  ,  ,  ,  ,  ,  ,  ,  ,  ,  ,  ,  ,  ,  ,  ,  ,  ,  ,  ,  ,  ,  ,  ,  ,  , 0=0+0:0:0:0:0
B aeolian (5#),  ,  ,  ,  ,  ,  ,  ,  ,  ,  ,  ,  ,  ,  ,  ,  ,  ,  ,  ,  ,  ,  ,  ,  ,  ,  ,  ,  ,  ,  ,  ,  ,  ,  ,  ,  ,  ,  ,  ,  ,  ,  ,  ,  ,  ,  ,  ,  ,  ,  ,  ,  ,  ,  ,  ,  ,  ,  ,  ,  ,  ,  ,  ,  ,  ,  , 0=0+0:0:0:0:0
Db locrian (5b),  ,  ,  ,  ,  ,  ,  ,  ,  ,  ,  ,  ,  ,  ,  ,  ,  ,  ,  ,  ,  ,  ,  ,  ,  ,  ,  ,  ,  ,  ,  ,  ,  ,  ,  ,  ,  ,  ,  ,  ,  ,  ,  ,  ,  ,  ,  ,  ,  ,  ,  ,  ,  ,  ,  ,  ,  ,  ,  ,  ,  ,  ,  ,  ,  ,  , 0=0+0:0:0:0:0
B locrian (5#),  ,  ,  ,  ,  ,  ,  ,  ,  ,  ,  ,  ,  ,  ,  ,  ,  ,  ,  ,  ,  ,  ,  ,  ,  ,  ,  ,  ,  ,  ,  ,  ,  ,  ,  ,  ,  ,  ,  ,  ,  ,  ,  ,  ,  ,  ,  ,  ,  ,  ,  ,  ,  ,  ,  ,  ,  ,  ,  ,  ,  ,  ,  ,  ,  ,  , 0=0+0:0:0:0:0
Gb major (6b), 7=5+2:0:0:0:0, 5=2+3:0:0:0:0, 3=3+0:0:0:0:0, 3=3+0:0:0:0:0, 5=4+1:0:0:0:0, 5=3+2:0:0:0:0, 4=3+1:0:0:0:0, 1=1+0:0:0:0:0, 4=3+1:0:0:0:0, 2=2+0:0:0:0:0, 3=3+0:0:0:0:0, 3=3+0:0:0:0:0, 5=4+1:0:0:0:0, 5=3+2:0:0:0:0, 4=3+1:0:0:0:0, 1=1+0:0:0:0:0, 6=5+1:0:0:0:0, 6=5+1:0:1:0:1, 2=2+0:0:0:0:0, 2=2+0:0:0:0:0, 6=3+3:0:0:0:0, 6=5+1:0:0:0:0, 3=2+1:0:0:0:0, 7=5+2:0:0:0:0, 5=4+1:0:0:0:0, 2=2+0:0:0:0:0, 3=3+0:0:0:0:0, 3=3+0:0:0:0:0, 5=4+1:0:0:0:0, 5=3+2:0:0:0:0, 4=3+1:0:0:0:0, 1=1+0:0:0:0:0, 5=4+1:0:0:0:0, 5=4+1:0:0:0:0, 3=3+0:0:0:0:0, 4=3+1:0:0:0:0, 5=3+2:0:0:0:0, 4=3+1:0:0:0:0, 5=4+1:0:0:0:0, 4=4+0:0:0:0:0,  , 7=6+1:1:0:0:0, 6=4+2:0:0:0:0, 2=2+0:0:0:0:0, 3=2+1:0:0:0:0, 5=4+1:0:0:0:0, 7=4+3:0:1:0:0, 4=3+1:0:0:0:0,  , 6=5+1:0:0:0:0, 5=2+3:0:0:0:0, 6=4+2:1:1:0:1, 1=1+0:0:0:0:0, 9=7+2:0:1:0:1, 3=1+2:0:0:0:0, 6=4+2:0:0:0:0, 6=5+1:0:0:0:0, 2=2+0:0:0:0:0, 3=3+0:0:0:0:0, 7=5+2:0:0:0:2, 7=5+2:0:0:0:0, 8=5+3:0:0:0:0, 6=4+2:0:1:0:0, 2=2+0:0:0:0:0, 3=3+0:0:0:0:0, 1=1+0:0:0:0:0, 276=210+66:2:5:0:5
F# major (6#), 6=4+2:0:0:0:0, 6=3+3:0:0:0:0, 5=5+0:0:0:0:0, 4=4+0:0:0:0:0, 5=4+1:1:0:0:1, 6=4+2:0:0:0:0, 7=6+1:0:0:0:0, 2=2+0:0:0:0:0, 5=4+1:0:0:0:0, 3=3+0:0:0:0:0, 5=5+0:0:0:0:0, 4=4+0:0:0:0:0, 5=4+1:1:0:0:1, 6=4+2:0:0:0:0, 7=6+1:0:0:0:0, 1=1+0:0:0:0:0, 7=7+0:0:0:0:0, 10=8+2:0:0:0:1, 2=2+0:0:0:0:0, 3=3+0:0:0:0:0, 8=5+3:0:0:0:0, 6=5+1:0:0:0:0, 3=2+1:0:0:0:0, 9=7+2:1:0:0:1, 10=8+2:0:0:0:2, 6=3+3:0:0:0:0, 5=5+0:0:0:0:0, 4=4+0:0:0:0:0, 5=4+1:1:0:0:1, 6=4+2:0:0:0:0, 7=6+1:0:0:0:0, 1=1+0:0:0:0:0, 5=4+1:1:0:0:1, 6=5+1:0:0:0:0, 4=4+0:0:0:0:0, 6=5+1:1:0:0:1, 4=2+2:2:0:0:2, 5=4+1:1:0:0:1, 7=6+1:1:0:0:1, 4=4+0:0:0:0:0,  , 5=4+1:0:0:0:1, 6=3+3:1:3:0:3, 3=3+0:0:0:0:0, 6=5+1:0:0:0:0, 5=4+1:1:0:0:1, 9=6+3:1:0:0:2, 7=6+1:0:0:0:0,  , 8=7+1:0:0:0:0, 8=5+3:2:0:0:3, 7=5+2:1:0:0:2, 1=1+0:0:0:0:0, 10=8+2:0:0:0:0, 4=2+2:2:0:0:2, 7=5+2:2:0:0:2, 8=7+1:0:0:0:0, 3=3+0:0:0:0:0, 3=3+0:0:0:0:0, 6=4+2:0:0:0:2, 8=6+2:1:0:0:1, 7=4+3:2:0:0:2, 9=6+3:1:0:0:2, 5=5+0:0:0:0:0, 3=3+0:0:0:0:0, 1=1+0:0:0:0:0, 349=277+72:24:3:0:36
Eb minor (6b), 5=4+1:0:1:0:1, 2=2+0:0:0:0:0, 3=3+0:0:0:0:0, 3=3+0:0:0:0:0, 5=4+1:0:0:0:0, 5=3+2:0:0:0:0, 4=3+1:0:0:0:0, 1=1+0:0:0:0:0, 4=3+1:0:0:0:0, 2=2+0:0:0:0:0, 3=3+0:0:0:0:0, 3=3+0:0:0:0:0, 5=4+1:0:0:0:0, 5=3+2:0:0:0:0, 4=3+1:0:0:0:0, 1=1+0:0:0:0:0, 5=5+0:0:0:0:0, 6=5+1:0:1:0:1, 2=2+0:0:0:0:0, 2=2+0:0:0:0:0, 3=3+0:0:0:0:0, 6=5+1:0:0:0:0, 3=2+1:0:0:0:0, 7=6+1:0:0:0:0, 6=4+2:0:0:0:0, 2=2+0:0:0:0:0, 3=3+0:0:0:0:0, 3=3+0:0:0:0:0, 5=4+1:0:0:0:0, 5=3+2:0:0:0:0, 4=3+1:0:0:0:0, 1=1+0:0:0:0:0, 5=4+1:0:0:0:0, 5=4+1:0:0:0:0, 3=3+0:0:0:0:0, 4=3+1:0:0:0:0, 5=3+2:0:0:0:0, 4=3+1:0:0:0:0, 5=4+1:0:0:0:0, 6=4+2:0:0:0:0,  , 6=6+0:0:0:0:0, 6=4+2:0:0:0:0, 2=2+0:0:0:0:0, 3=2+1:0:0:0:0, 5=4+1:0:0:0:0, 6=4+2:0:1:0:0, 4=3+1:0:0:0:0,  , 5=5+0:0:0:0:0, 3=2+1:0:0:0:0, 6=4+2:1:1:0:1, 1=1+0:0:0:0:0, 9=7+2:0:1:0:1, 3=1+2:0:0:0:0, 6=4+2:0:0:0:0, 6=5+1:0:0:0:0, 2=2+0:0:0:0:0, 3=3+0:0:0:0:0, 7=5+2:0:0:0:2, 7=5+2:0:0:0:0, 7=5+2:0:0:0:0, 6=4+2:0:1:0:0, 2=2+0:0:0:0:0, 3=3+0:0:0:0:0, 1=1+0:0:0:0:0, 264=210+54:1:6:0:6
D# minor (6#), 5=4+1:0:0:0:0, 3=3+0:0:0:0:0, 5=5+0:0:0:0:0, 4=4+0:0:0:0:0, 5=4+1:1:0:0:1, 6=4+2:0:0:0:0, 7=6+1:0:0:0:0, 2=2+0:0:0:0:0, 5=4+1:0:0:0:0, 3=3+0:0:0:0:0, 5=5+0:0:0:0:0, 4=4+0:0:0:0:0, 5=4+1:1:0:0:1, 6=4+2:0:0:0:0, 7=6+1:0:0:0:0, 1=1+0:0:0:0:0, 7=7+0:0:0:0:0, 9=8+1:0:0:0:0, 2=2+0:0:0:0:0, 3=3+0:0:0:0:0, 5=5+0:0:0:0:0, 6=5+1:0:0:0:0, 3=2+1:0:0:0:0, 7=6+1:1:1:0:1, 9=7+2:1:0:0:1, 3=3+0:0:0:0:0, 5=5+0:0:0:0:0, 4=4+0:0:0:0:0, 5=4+1:1:0:0:1, 6=4+2:0:0:0:0, 7=6+1:0:0:0:0, 1=1+0:0:0:0:0, 4=4+0:0:0:0:0, 6=5+1:0:0:0:0, 4=4+0:0:0:0:0, 6=5+1:1:0:0:1, 4=2+2:2:0:0:2, 5=4+1:1:0:0:1, 7=6+1:1:0:0:1, 6=4+2:0:0:0:0,  , 5=5+0:0:0:0:0, 6=3+3:1:3:0:3, 3=3+0:0:0:0:0, 6=5+1:0:0:0:0, 5=4+1:1:0:0:1, 8=6+2:1:0:0:2, 7=6+1:0:0:0:0,  , 7=7+0:0:0:0:0, 7=3+4:4:0:0:4, 7=5+2:1:0:0:2, 1=1+0:0:0:0:0, 10=8+2:0:0:0:0, 4=2+2:2:0:0:2, 7=5+2:2:0:0:2, 8=7+1:0:0:0:0, 3=3+0:0:0:0:0, 3=3+0:0:0:0:0, 6=4+2:0:0:0:2, 8=6+2:1:0:0:1, 6=4+2:2:0:0:2, 8=6+2:1:0:0:2, 5=5+0:0:0:0:0, 3=3+0:0:0:0:0, 1=1+0:0:0:0:0, 331=274+57:26:4:0:33
Eb minor mel (6b),  ,  ,  ,  ,  ,  ,  ,  ,  ,  ,  ,  ,  ,  ,  ,  ,  ,  ,  ,  ,  ,  ,  ,  ,  ,  ,  ,  ,  ,  ,  ,  ,  ,  ,  ,  ,  ,  ,  ,  ,  ,  ,  ,  ,  ,  ,  ,  ,  ,  ,  ,  ,  ,  ,  ,  ,  ,  ,  ,  ,  ,  ,  ,  ,  ,  , 0=0+0:0:0:0:0
D# minor mel (6#),  ,  ,  ,  ,  ,  ,  ,  ,  ,  ,  ,  ,  ,  ,  ,  ,  ,  ,  ,  ,  ,  ,  ,  ,  ,  ,  ,  ,  ,  ,  ,  ,  ,  ,  ,  ,  ,  ,  ,  ,  ,  ,  ,  ,  ,  ,  ,  ,  ,  ,  ,  ,  ,  ,  ,  ,  ,  ,  ,  ,  ,  ,  ,  ,  ,  , 0=0+0:0:0:0:0
Gb major blues (6b),  ,  ,  ,  ,  ,  ,  ,  ,  ,  ,  ,  ,  ,  ,  ,  ,  ,  ,  ,  ,  ,  ,  ,  ,  ,  ,  ,  ,  ,  ,  ,  ,  ,  ,  ,  ,  ,  ,  ,  ,  ,  ,  ,  ,  ,  ,  ,  ,  ,  ,  ,  ,  ,  ,  ,  ,  ,  ,  ,  ,  ,  ,  ,  ,  ,  , 0=0+0:0:0:0:0
F# major blues (6#),  ,  ,  ,  ,  ,  ,  ,  ,  ,  ,  ,  ,  ,  ,  ,  ,  ,  ,  ,  ,  ,  ,  ,  ,  ,  ,  ,  ,  ,  ,  ,  ,  ,  ,  ,  ,  ,  ,  ,  ,  ,  ,  ,  ,  ,  ,  ,  ,  ,  ,  ,  ,  ,  ,  ,  ,  ,  ,  ,  ,  ,  ,  ,  ,  ,  , 0=0+0:0:0:0:0
Eb minor blues (6b),  ,  ,  ,  ,  ,  ,  ,  ,  ,  ,  ,  ,  ,  ,  ,  ,  ,  ,  ,  ,  ,  ,  ,  ,  ,  ,  ,  ,  ,  ,  ,  ,  ,  ,  ,  ,  ,  ,  ,  ,  ,  ,  ,  ,  ,  ,  ,  ,  ,  ,  ,  ,  ,  ,  ,  ,  ,  ,  ,  ,  ,  ,  ,  ,  ,  , 0=0+0:0:0:0:0
D# minor blues (6#),  ,  ,  ,  ,  ,  ,  ,  ,  ,  ,  ,  ,  ,  ,  ,  ,  ,  ,  ,  ,  ,  ,  ,  ,  ,  ,  ,  ,  ,  ,  ,  ,  ,  ,  ,  ,  ,  ,  ,  ,  ,  ,  ,  ,  ,  ,  ,  ,  ,  ,  ,  ,  ,  ,  ,  ,  ,  ,  ,  ,  ,  ,  ,  ,  ,  , 0=0+0:0:0:0:0
Gb dorian (6b),  ,  ,  ,  ,  ,  ,  ,  ,  ,  ,  ,  ,  ,  ,  ,  ,  ,  ,  ,  ,  ,  ,  ,  ,  ,  ,  ,  ,  ,  ,  ,  ,  ,  ,  ,  ,  ,  ,  ,  ,  ,  ,  ,  ,  ,  ,  ,  ,  ,  ,  ,  ,  ,  ,  ,  ,  ,  ,  ,  ,  ,  ,  ,  ,  ,  , 0=0+0:0:0:0:0
F# dorian (6#),  ,  ,  ,  ,  ,  ,  ,  ,  ,  ,  ,  ,  ,  ,  ,  ,  ,  ,  ,  ,  ,  ,  ,  ,  ,  ,  ,  ,  ,  ,  ,  ,  ,  ,  ,  ,  ,  ,  ,  ,  ,  ,  ,  ,  ,  ,  ,  ,  ,  ,  ,  ,  ,  ,  ,  ,  ,  ,  ,  ,  ,  ,  ,  ,  ,  , 0=0+0:0:0:0:0
Gb phrygian (6b),  ,  ,  ,  ,  ,  ,  ,  ,  ,  ,  ,  ,  ,  ,  ,  ,  ,  ,  ,  ,  ,  ,  ,  ,  ,  ,  ,  ,  ,  ,  ,  ,  ,  ,  ,  ,  ,  ,  ,  ,  ,  ,  ,  ,  ,  ,  ,  ,  ,  ,  ,  ,  ,  ,  ,  ,  ,  ,  ,  ,  ,  ,  ,  ,  ,  , 0=0+0:0:0:0:0
F# phrygian (6#),  ,  ,  ,  ,  ,  ,  ,  ,  ,  ,  ,  ,  ,  ,  ,  ,  ,  ,  ,  ,  ,  ,  ,  ,  ,  ,  ,  ,  ,  ,  ,  ,  ,  ,  ,  ,  ,  ,  ,  ,  ,  ,  ,  ,  ,  ,  ,  ,  ,  ,  ,  ,  ,  ,  ,  ,  ,  ,  ,  ,  ,  ,  ,  ,  ,  , 0=0+0:0:0:0:0
Gb lydian (6b),  ,  ,  ,  ,  ,  ,  ,  ,  ,  ,  ,  ,  ,  ,  ,  ,  ,  ,  ,  ,  ,  ,  ,  ,  ,  ,  ,  ,  ,  ,  ,  ,  ,  ,  ,  ,  ,  ,  ,  ,  ,  ,  ,  ,  ,  ,  ,  ,  ,  ,  ,  ,  ,  ,  ,  ,  ,  ,  ,  ,  ,  ,  ,  ,  ,  , 0=0+0:0:0:0:0
F# lydian (6#),  ,  ,  ,  ,  ,  ,  ,  ,  ,  ,  ,  ,  ,  ,  ,  ,  ,  ,  ,  ,  ,  ,  ,  ,  ,  ,  ,  ,  ,  ,  ,  ,  ,  ,  ,  ,  ,  ,  ,  ,  ,  ,  ,  ,  ,  ,  ,  ,  ,  ,  ,  ,  ,  ,  ,  ,  ,  ,  ,  ,  ,  ,  ,  ,  ,  , 0=0+0:0:0:0:0
Gb mixolydian (6b),  ,  ,  ,  ,  ,  ,  ,  ,  ,  ,  ,  ,  ,  ,  ,  ,  ,  ,  ,  ,  ,  ,  ,  ,  ,  ,  ,  ,  ,  ,  ,  ,  ,  ,  ,  ,  ,  ,  ,  ,  ,  ,  ,  ,  ,  ,  ,  ,  ,  ,  ,  ,  ,  ,  ,  ,  ,  ,  ,  ,  ,  ,  ,  ,  ,  , 0=0+0:0:0:0:0
F# mixolydian (6#),  ,  ,  ,  ,  ,  ,  ,  ,  ,  ,  ,  ,  ,  ,  ,  ,  ,  ,  ,  ,  ,  ,  ,  ,  ,  ,  ,  ,  ,  ,  ,  ,  ,  ,  ,  ,  ,  ,  ,  ,  ,  ,  ,  ,  ,  ,  ,  ,  ,  ,  ,  ,  ,  ,  ,  ,  ,  ,  ,  ,  ,  ,  ,  ,  ,  , 0=0+0:0:0:0:0
Gb aeolian (6b),  ,  ,  ,  ,  ,  ,  ,  ,  ,  ,  ,  ,  ,  ,  ,  ,  ,  ,  ,  ,  ,  ,  ,  ,  ,  ,  ,  ,  ,  ,  ,  ,  ,  ,  ,  ,  ,  ,  ,  ,  ,  ,  ,  ,  ,  ,  ,  ,  ,  ,  ,  ,  ,  ,  ,  ,  ,  ,  ,  ,  ,  ,  ,  ,  ,  , 0=0+0:0:0:0:0
F# aeolian (6#),  ,  ,  ,  ,  ,  ,  ,  ,  ,  ,  ,  ,  ,  ,  ,  ,  ,  ,  ,  ,  ,  ,  ,  ,  ,  ,  ,  ,  ,  ,  ,  ,  ,  ,  ,  ,  ,  ,  ,  ,  ,  ,  ,  ,  ,  ,  ,  ,  ,  ,  ,  ,  ,  ,  ,  ,  ,  ,  ,  ,  ,  ,  ,  ,  ,  , 0=0+0:0:0:0:0
Gb locrian (6b),  ,  ,  ,  ,  ,  ,  ,  ,  ,  ,  ,  ,  ,  ,  ,  ,  ,  ,  ,  ,  ,  ,  ,  ,  ,  ,  ,  ,  ,  ,  ,  ,  ,  ,  ,  ,  ,  ,  ,  ,  ,  ,  ,  ,  ,  ,  ,  ,  ,  ,  ,  ,  ,  ,  ,  ,  ,  ,  ,  ,  ,  ,  ,  ,  ,  , 0=0+0:0:0:0:0
F# locrian (6#),  ,  ,  ,  ,  ,  ,  ,  ,  ,  ,  ,  ,  ,  ,  ,  ,  ,  ,  ,  ,  ,  ,  ,  ,  ,  ,  ,  ,  ,  ,  ,  ,  ,  ,  ,  ,  ,  ,  ,  ,  ,  ,  ,  ,  ,  ,  ,  ,  ,  ,  ,  ,  ,  ,  ,  ,  ,  ,  ,  ,  ,  ,  ,  ,  ,  , 0=0+0:0:0:0:0
Cb major (7b), 7=5+2:0:0:0:0, 2=2+0:0:0:0:0, 4=4+0:0:0:0:0, 5=3+2:0:0:0:0, 5=5+0:0:0:0:0, 4=4+0:0:0:0:0, 6=5+1:0:0:0:0, 2=1+1:0:0:0:0, 4=3+1:1:0:0:0, 2=2+0:0:0:0:0, 4=4+0:0:0:0:0, 3=3+0:0:0:0:0, 8=5+3:0:0:0:0, 4=4+0:0:0:0:0, 7=4+3:0:0:0:0, 1=1+0:0:0:0:0, 7=6+1:0:0:0:0, 7=6+1:0:1:0:1, 2=2+0:0:0:0:0, 3=3+0:0:0:0:0, 5=4+1:0:0:0:0, 7=6+1:0:0:0:0, 2=2+0:0:0:0:0, 10=7+3:2:0:0:0, 7=5+2:0:0:0:0, 2=2+0:0:0:0:0, 4=4+0:0:0:0:0, 5=3+2:0:0:0:0, 5=5+0:0:0:0:0, 4=4+0:0:0:0:0, 6=5+1:0:0:0:0, 1=1+0:0:0:0:0, 6=4+2:2:0:0:0, 5=5+0:0:0:0:0, 4=3+1:0:0:0:0, 6=5+1:0:0:0:0, 4=3+1:0:0:0:0, 5=4+1:0:0:0:0, 7=6+1:0:0:0:0, 4=4+0:0:0:0:0,  , 7=7+0:0:0:0:0, 5=3+2:0:1:0:1, 2=2+0:0:0:0:0, 6=2+4:0:0:0:0, 7=4+3:0:0:0:2, 8=5+3:0:1:0:0, 5=4+1:0:0:0:1,  , 6=5+1:0:0:0:0, 3=2+1:0:0:0:1, 7=5+2:1:1:0:1, 1=1+0:0:0:0:0, 9=6+3:0:2:0:2, 5=4+1:0:0:0:0, 9=6+3:1:0:0:0, 7=6+1:0:0:0:0, 2=2+0:0:0:0:0, 4=3+1:0:0:0:0, 6=5+1:0:0:0:0, 6=5+1:0:0:0:0, 7=5+2:0:0:0:0, 8=5+3:0:1:0:0, 5=3+2:0:0:0:0, 4=3+1:0:0:0:0, 1=1+0:0:0:0:0, 316=248+68:7:7:0:9
C# major (7#), 6=5+1:0:0:0:0, 3=3+0:0:0:0:0, 5=5+0:0:0:0:0, 4=4+0:0:0:0:0, 5=4+1:1:0:0:1, 6=4+2:0:0:0:0, 7=6+1:0:0:0:0, 2=2+0:0:0:0:0, 5=4+1:0:0:0:0, 3=3+0:0:0:0:0, 5=5+0:0:0:0:0, 4=4+0:0:0:0:0, 5=4+1:1:0:0:1, 6=4+2:0:0:0:0, 7=6+1:0:0:0:0, 1=1+0:0:0:0:0, 7=7+0:0:0:0:0, 9=8+1:0:0:0:0, 2=2+0:0:0:0:0, 3=3+0:0:0:0:0, 5=5+0:0:0:0:0, 7=6+1:0:0:0:0, 2=2+0:0:0:0:0, 9=7+2:1:0:0:1, 9=6+3:2:0:0:2, 3=3+0:0:0:0:0, 5=5+0:0:0:0:0, 4=4+0:0:0:0:0, 5=4+1:1:0:0:1, 6=4+2:0:0:0:0, 7=6+1:0:0:0:0, 1=1+0:0:0:0:0, 5=4+1:1:0:0:1, 6=5+1:0:0:0:0, 4=4+0:0:0:0:0, 6=5+1:1:0:0:1, 4=2+2:2:0:0:2, 5=4+1:1:0:0:1, 7=6+1:1:0:0:1, 6=4+2:0:0:0:0,  , 5=5+0:0:0:0:0, 6=3+3:1:3:0:3, 3=3+0:0:0:0:0, 6=5+1:0:0:0:0, 5=4+1:1:0:0:1, 9=7+2:1:0:0:2, 7=6+1:0:0:0:0,  , 7=7+0:0:0:0:0, 8=5+3:2:0:0:3, 9=5+4:1:0:0:1, 1=1+0:0:0:0:0, 10=8+2:1:0:0:1, 4=2+2:2:0:0:2, 7=5+2:2:0:0:2, 8=7+1:0:0:0:0, 3=3+0:0:0:0:0, 3=3+0:0:0:0:0, 7=5+2:0:0:0:1, 8=6+2:1:0:0:1, 7=4+3:2:0:0:2, 9=7+2:1:0:0:2, 5=5+0:0:0:0:0, 3=3+0:0:0:0:0, 1=1+0:0:0:0:0, 342=281+61:27:3:0:33
Ab minor (7b), 9=5+4:0:0:0:0, 5=2+3:0:0:0:0, 6=4+2:0:0:0:0, 4=3+1:0:0:0:0, 8=5+3:0:0:0:0, 4=4+0:0:0:0:0, 7=4+3:0:0:0:0, 1=1+0:0:0:0:0, 4=3+1:0:0:0:0, 5=2+3:0:0:0:0, 6=4+2:0:0:0:0, 4=3+1:0:0:0:0, 8=5+3:0:0:0:0, 4=4+0:0:0:0:0, 7=4+3:0:0:0:0, 1=1+0:0:0:0:0, 8=6+2:0:0:0:0, 8=6+2:0:1:0:1, 2=2+0:0:0:0:0, 3=3+0:0:0:0:0, 7=4+3:0:0:0:0, 6=5+1:0:1:0:1, 2=2+0:0:0:0:0, 8=6+2:0:0:0:0, 7=5+2:0:0:0:0, 5=2+3:0:0:0:0, 6=4+2:0:0:0:0, 4=3+1:0:0:0:0, 8=5+3:0:0:0:0, 4=4+0:0:0:0:0, 7=4+3:0:0:0:0, 1=1+0:0:0:0:0, 5=4+1:0:0:0:0, 6=5+1:0:0:0:0, 4=3+1:0:0:0:0, 6=4+2:0:0:0:0, 4=3+1:0:0:0:0, 5=4+1:0:0:0:0, 7=6+1:0:0:0:0, 5=4+1:0:0:0:0,  , 6=4+2:0:0:0:0, 5=3+2:0:1:0:1, 2=2+0:0:0:0:0, 6=2+4:0:0:0:0, 7=4+3:0:0:0:2, 8=5+3:0:1:0:0, 5=4+1:0:0:0:0,  , 6=5+1:0:0:0:0, 5=2+3:0:0:0:1, 10=6+4:1:0:0:1, 1=1+0:0:0:0:0, 8=6+2:0:2:0:2, 4=2+2:0:0:0:0, 7=5+2:0:0:0:0, 7=6+1:0:0:0:0, 2=2+0:0:0:0:0, 4=3+1:0:0:0:0, 6=5+1:0:0:0:0, 6=5+1:0:0:0:0, 7=5+2:0:0:0:0, 8=5+3:0:1:0:0, 3=3+0:0:0:0:0, 3=3+0:0:0:0:0, 1=1+0:0:0:0:0, 338=238+100:1:7:0:9
A# minor (7#), 6=5+1:0:0:0:0, 3=3+0:0:0:0:0, 5=5+0:0:0:0:0, 4=4+0:0:0:0:0, 5=4+1:1:0:0:1, 4=4+0:0:0:0:0, 7=6+1:0:0:0:0, 2=2+0:0:0:0:0, 5=4+1:0:0:0:0, 3=3+0:0:0:0:0, 5=5+0:0:0:0:0, 4=4+0:0:0:0:0, 5=4+1:1:0:0:1, 4=4+0:0:0:0:0, 7=6+1:0:0:0:0, 1=1+0:0:0:0:0, 7=7+0:0:0:0:0, 9=8+1:0:0:0:0, 2=2+0:0:0:0:0, 3=3+0:0:0:0:0, 5=5+0:0:0:0:0, 7=6+1:0:0:0:0, 2=2+0:0:0:0:0, 8=7+1:1:0:0:1, 8=6+2:2:0:0:2, 3=3+0:0:0:0:0, 5=5+0:0:0:0:0, 4=4+0:0:0:0:0, 5=4+1:1:0:0:1, 4=4+0:0:0:0:0, 7=6+1:0:0:0:0, 1=1+0:0:0:0:0, 5=4+1:1:0:0:1, 5=5+0:0:0:0:0, 4=4+0:0:0:0:0, 6=5+1:1:0:0:1, 4=2+2:2:0:0:2, 5=4+1:1:0:0:1, 7=6+1:1:0:0:1, 4=4+0:0:0:0:0,  , 5=5+0:0:0:0:0, 6=3+3:1:3:0:3, 3=3+0:0:0:0:0, 7=5+2:0:0:0:0, 5=4+1:1:0:0:1, 9=7+2:1:0:0:2, 7=6+1:0:0:0:0,  , 7=7+0:0:0:0:0, 7=3+4:4:0:0:4, 9=5+4:1:0:0:1, 1=1+0:0:0:0:0, 10=8+2:1:0:0:1, 4=2+2:2:0:0:2, 7=5+2:2:0:0:2, 7=7+0:0:0:0:0, 3=3+0:0:0:0:0, 3=3+0:0:0:0:0, 6=5+1:0:0:0:0, 7=6+1:1:0:0:1, 6=4+2:2:0:0:2, 9=7+2:1:0:0:2, 5=5+0:0:0:0:0, 3=3+0:0:0:0:0, 1=1+0:0:0:0:0, 327=279+48:29:3:0:33
Ab minor mel (7b),  ,  ,  ,  ,  ,  ,  ,  ,  ,  ,  ,  ,  ,  ,  ,  ,  ,  ,  ,  ,  ,  ,  ,  ,  ,  ,  ,  ,  ,  ,  ,  ,  ,  ,  ,  ,  ,  ,  ,  ,  ,  ,  ,  ,  ,  ,  ,  ,  ,  ,  ,  ,  ,  ,  ,  ,  ,  ,  ,  ,  ,  ,  ,  ,  ,  , 0=0+0:0:0:0:0
A# minor mel (7#),  ,  ,  ,  ,  ,  ,  ,  ,  ,  ,  ,  ,  ,  ,  ,  ,  ,  ,  ,  ,  ,  ,  ,  ,  ,  ,  ,  ,  ,  ,  ,  ,  ,  ,  ,  ,  ,  ,  ,  ,  ,  ,  ,  ,  ,  ,  ,  ,  ,  ,  ,  ,  ,  ,  ,  ,  ,  ,  ,  ,  ,  ,  ,  ,  ,  , 0=0+0:0:0:0:0
Cb major blues (7b),  ,  ,  ,  ,  ,  ,  ,  ,  ,  ,  ,  ,  ,  ,  ,  ,  ,  ,  ,  ,  ,  ,  ,  ,  ,  ,  ,  ,  ,  ,  ,  ,  ,  ,  ,  ,  ,  ,  ,  ,  ,  ,  ,  ,  ,  ,  ,  ,  ,  ,  ,  ,  ,  ,  ,  ,  ,  ,  ,  ,  ,  ,  ,  ,  ,  , 0=0+0:0:0:0:0
C# major blues (7#),  ,  ,  ,  ,  ,  ,  ,  ,  ,  ,  ,  ,  ,  ,  ,  ,  ,  ,  ,  ,  ,  ,  ,  ,  ,  ,  ,  ,  ,  ,  ,  ,  ,  ,  ,  ,  ,  ,  ,  ,  ,  ,  ,  ,  ,  ,  ,  ,  ,  ,  ,  ,  ,  ,  ,  ,  ,  ,  ,  ,  ,  ,  ,  ,  ,  , 0=0+0:0:0:0:0
Ab minor blues (7b),  ,  ,  ,  ,  ,  ,  ,  ,  ,  ,  ,  ,  ,  ,  ,  ,  ,  ,  ,  ,  ,  ,  ,  ,  ,  ,  ,  ,  ,  ,  ,  ,  ,  ,  ,  ,  ,  ,  ,  ,  ,  ,  ,  ,  ,  ,  ,  ,  ,  ,  ,  ,  ,  ,  ,  ,  ,  ,  ,  ,  ,  ,  ,  ,  ,  , 0=0+0:0:0:0:0
A# minor blues (7#),  ,  ,  ,  ,  ,  ,  ,  ,  ,  ,  ,  ,  ,  ,  ,  ,  ,  ,  ,  ,  ,  ,  ,  ,  ,  ,  ,  ,  ,  ,  ,  ,  ,  ,  ,  ,  ,  ,  ,  ,  ,  ,  ,  ,  ,  ,  ,  ,  ,  ,  ,  ,  ,  ,  ,  ,  ,  ,  ,  ,  ,  ,  ,  ,  ,  , 0=0+0:0:0:0:0
Cb dorian (7b),  ,  ,  ,  ,  ,  ,  ,  ,  ,  ,  ,  ,  ,  ,  ,  ,  ,  ,  ,  ,  ,  ,  ,  ,  ,  ,  ,  ,  ,  ,  ,  ,  ,  ,  ,  ,  ,  ,  ,  ,  ,  ,  ,  ,  ,  ,  ,  ,  ,  ,  ,  ,  ,  ,  ,  ,  ,  ,  ,  ,  ,  ,  ,  ,  ,  , 0=0+0:0:0:0:0
C# dorian (7#),  ,  ,  ,  ,  ,  ,  ,  ,  ,  ,  ,  ,  ,  ,  ,  ,  ,  ,  ,  ,  ,  ,  ,  ,  ,  ,  ,  ,  ,  ,  ,  ,  ,  ,  ,  ,  ,  ,  ,  ,  ,  ,  ,  ,  ,  ,  ,  ,  ,  ,  ,  ,  ,  ,  ,  ,  ,  ,  ,  ,  ,  ,  ,  ,  ,  , 0=0+0:0:0:0:0
Cb phrygian (7b),  ,  ,  ,  ,  ,  ,  ,  ,  ,  ,  ,  ,  ,  ,  ,  ,  ,  ,  ,  ,  ,  ,  ,  ,  ,  ,  ,  ,  ,  ,  ,  ,  ,  ,  ,  ,  ,  ,  ,  ,  ,  ,  ,  ,  ,  ,  ,  ,  ,  ,  ,  ,  ,  ,  ,  ,  ,  ,  ,  ,  ,  ,  ,  ,  ,  , 0=0+0:0:0:0:0
C# phrygian (7#),  ,  ,  ,  ,  ,  ,  ,  ,  ,  ,  ,  ,  ,  ,  ,  ,  ,  ,  ,  ,  ,  ,  ,  ,  ,  ,  ,  ,  ,  ,  ,  ,  ,  ,  ,  ,  ,  ,  ,  ,  ,  ,  ,  ,  ,  ,  ,  ,  ,  ,  ,  ,  ,  ,  ,  ,  ,  ,  ,  ,  ,  ,  ,  ,  ,  , 0=0+0:0:0:0:0
Cb lydian (7b),  ,  ,  ,  ,  ,  ,  ,  ,  ,  ,  ,  ,  ,  ,  ,  ,  ,  ,  ,  ,  ,  ,  ,  ,  ,  ,  ,  ,  ,  ,  ,  ,  ,  ,  ,  ,  ,  ,  ,  ,  ,  ,  ,  ,  ,  ,  ,  ,  ,  ,  ,  ,  ,  ,  ,  ,  ,  ,  ,  ,  ,  ,  ,  ,  ,  , 0=0+0:0:0:0:0
C# lydian (7#),  ,  ,  ,  ,  ,  ,  ,  ,  ,  ,  ,  ,  ,  ,  ,  ,  ,  ,  ,  ,  ,  ,  ,  ,  ,  ,  ,  ,  ,  ,  ,  ,  ,  ,  ,  ,  ,  ,  ,  ,  ,  ,  ,  ,  ,  ,  ,  ,  ,  ,  ,  ,  ,  ,  ,  ,  ,  ,  ,  ,  ,  ,  ,  ,  ,  , 0=0+0:0:0:0:0
Cb mixolydian (7b),  ,  ,  ,  ,  ,  ,  ,  ,  ,  ,  ,  ,  ,  ,  ,  ,  ,  ,  ,  ,  ,  ,  ,  ,  ,  ,  ,  ,  ,  ,  ,  ,  ,  ,  ,  ,  ,  ,  ,  ,  ,  ,  ,  ,  ,  ,  ,  ,  ,  ,  ,  ,  ,  ,  ,  ,  ,  ,  ,  ,  ,  ,  ,  ,  ,  , 0=0+0:0:0:0:0
C# mixolydian (7#),  ,  ,  ,  ,  ,  ,  ,  ,  ,  ,  ,  ,  ,  ,  ,  ,  ,  ,  ,  ,  ,  ,  ,  ,  ,  ,  ,  ,  ,  ,  ,  ,  ,  ,  ,  ,  ,  ,  ,  ,  ,  ,  ,  ,  ,  ,  ,  ,  ,  ,  ,  ,  ,  ,  ,  ,  ,  ,  ,  ,  ,  ,  ,  ,  ,  , 0=0+0:0:0:0:0
Cb aeolian (7b),  ,  ,  ,  ,  ,  ,  ,  ,  ,  ,  ,  ,  ,  ,  ,  ,  ,  ,  ,  ,  ,  ,  ,  ,  ,  ,  ,  ,  ,  ,  ,  ,  ,  ,  ,  ,  ,  ,  ,  ,  ,  ,  ,  ,  ,  ,  ,  ,  ,  ,  ,  ,  ,  ,  ,  ,  ,  ,  ,  ,  ,  ,  ,  ,  ,  , 0=0+0:0:0:0:0
C# aeolian (7#),  ,  ,  ,  ,  ,  ,  ,  ,  ,  ,  ,  ,  ,  ,  ,  ,  ,  ,  ,  ,  ,  ,  ,  ,  ,  ,  ,  ,  ,  ,  ,  ,  ,  ,  ,  ,  ,  ,  ,  ,  ,  ,  ,  ,  ,  ,  ,  ,  ,  ,  ,  ,  ,  ,  ,  ,  ,  ,  ,  ,  ,  ,  ,  ,  ,  , 0=0+0:0:0:0:0
Cb locrian (7b),  ,  ,  ,  ,  ,  ,  ,  ,  ,  ,  ,  ,  ,  ,  ,  ,  ,  ,  ,  ,  ,  ,  ,  ,  ,  ,  ,  ,  ,  ,  ,  ,  ,  ,  ,  ,  ,  ,  ,  ,  ,  ,  ,  ,  ,  ,  ,  ,  ,  ,  ,  ,  ,  ,  ,  ,  ,  ,  ,  ,  ,  ,  ,  ,  ,  , 0=0+0:0:0:0:0
C# locrian (7#),  ,  ,  ,  ,  ,  ,  ,  ,  ,  ,  ,  ,  ,  ,  ,  ,  ,  ,  ,  ,  ,  ,  ,  ,  ,  ,  ,  ,  ,  ,  ,  ,  ,  ,  ,  ,  ,  ,  ,  ,  ,  ,  ,  ,  ,  ,  ,  ,  ,  ,  ,  ,  ,  ,  ,  ,  ,  ,  ,  ,  ,  ,  ,  ,  ,  , 0=0+0:0:0:0:0
