 , 0, 1, 2, 3, 4, 5, 6, 7, 8, 9, 10, 11, 12, 13, 14, 15, 16, 17, 18, 19, 20, 21, 22, 23, 24, 25, 26, 27, 28, 29, 30, 31, 32, 33, 34, 35, 36, 37, 38, 39, 40, 41, 42, 43, 44, 45, 46, 47, 48, 49, 50, 51, 52, 53, 54, 55, 56, 57, 58, 59, 60, 61, 62, 63, 64, 65, 66, 67, 68, 69, 70, 71, 72, 73, 74, 75, 76, 77, 78, 79, 80, 81, 82, 83, 84, 85, 86, 87, 88, 89, 90, 91, 92, 93, 94, 95, 96, 97, 98, 99, 100, 101, 102, 103, 104, 105, 106, 107, 108, 109, 110, 111, 112, 113, 114, 115, 116, 117, 118, 119, 120, 121, 122, 123, 124, 125, 126, 127, 128, 129, 130, 131, 132, 133, 134, 135, 136, 137, 138, 139, 140, 141, 142, 143, 144, 145, 146, 147, 148, 149, 150, 151, 152, 153, 154, 155, 156, 157, 158, 159, 160, 161, 162, 163, 164, 165, 166, 167, 168, 169, 170, rowcost
C major (0), 1+1:0:0:0:1, 0+0:0:0:0:0, 1+1:0:0:0:0, 0+0:0:0:0:0, 0+0:0:0:0:0, 0+0:0:0:0:0, 3+4:0:0:0:3, 0+0:0:0:0:0, 5+3:2:0:0:2, 0+0:0:0:0:0, 2+1:0:0:0:0, 0+0:0:0:0:0, 0+0:0:0:0:0, 0+0:0:0:0:0, 2+2:0:0:0:2, 0+0:0:0:0:0, 2+1:0:0:0:0, 1+1:0:0:0:1, 3+2:0:0:0:1, 0+0:0:0:0:0, 0+0:0:0:0:0, 0+0:0:0:0:0, 3+2:0:0:0:0, 0+0:0:0:0:0, 1+1:0:0:0:1, 0+0:0:0:0:0, 5+4:0:0:1:2, 1+1:0:0:0:0, 2+1:1:0:0:1, 1+1:0:0:0:0, 2+2:0:0:0:1, 0+0:0:0:0:0, 3+2:1:0:0:1, 0+0:0:0:0:0, 0+0:0:0:0:0, 2+1:0:0:0:0, 1+2:0:0:0:0, 2+2:0:0:0:1, 2+2:0:0:0:1, 0+0:0:0:0:0, 2+1:1:0:0:1, 0+0:0:0:0:0, 1+1:0:0:0:1, 1+2:0:0:0:0, 1+3:0:0:0:3, 1+1:0:0:0:1, 3+3:0:0:0:1, 0+0:0:0:0:0, 0+0:0:0:0:0, 1+1:0:0:0:0, 4+3:0:0:0:2, 0+0:0:0:0:0, 3+3:0:0:0:1, 0+0:0:0:0:0, 1+1:0:0:0:0, 1+1:0:0:0:1, 4+3:0:0:0:0, 0+0:0:0:0:0, 5+4:0:0:1:2, 1+1:0:0:0:0, 4+2:0:0:0:0, 2+1:0:0:0:0, 4+3:0:0:0:2, 2+1:0:0:0:0, 3+4:1:0:0:1, 0+0:0:0:0:0, 0+0:0:0:0:0, 0+0:0:0:0:0, 0+0:0:0:0:0, 0+0:0:0:0:0, 2+2:0:0:0:2, 0+0:0:0:0:0, 3+2:2:0:0:2, 1+1:0:0:0:1, 1+1:0:0:0:1, 0+0:0:0:0:0, 0+0:0:0:0:0, 1+1:0:0:0:0, 2+3:0:0:0:3, 1+1:0:0:0:1,  , 0+0:0:0:0:0, 3+3:0:0:0:1, 2+1:0:0:0:0,  , 2+1:0:0:0:0, 1+3:0:0:0:0, 2+1:0:0:0:0, 0+0:0:0:0:0, 1+1:0:0:0:0, 5+4:0:0:1:3, 2+2:0:0:0:0, 1+0:0:0:0:0, 1+1:0:0:0:0, 1+1:0:0:0:1, 1+2:0:0:0:0, 5+3:1:0:0:1, 1+1:0:0:0:0, 4+5:0:0:0:1, 0+0:0:0:0:0, 0+0:0:0:0:0, 1+1:0:0:0:0, 5+3:0:0:0:2, 0+0:0:0:0:0, 4+4:3:0:0:3, 0+0:0:0:0:0, 3+2:0:0:0:2, 0+0:0:0:0:0, 0+0:0:0:0:0, 0+0:0:0:0:0, 2+2:0:0:0:1, 1+0:0:0:0:0, 0+0:0:0:0:0, 5+4:0:0:0:0, 6+7:0:0:0:1, 1+3:0:0:0:1, 0+0:0:0:0:0, 1+1:0:0:0:0, 2+1:0:0:0:0, 1+1:0:0:0:1, 0+0:0:0:0:0, 0+0:0:0:0:0, 5+4:0:0:1:3, 1+1:0:0:0:0, 2+1:0:0:0:0, 5+5:0:0:0:0, 7+10:0:0:0:8, 2+1:0:0:0:0, 5+5:1:2:0:4, 4+2:0:0:0:0, 1+1:0:0:0:0, 4+2:0:0:0:0, 0+0:0:0:0:0, 2+2:0:0:0:1, 4+3:0:0:0:2, 0+0:0:0:0:0, 3+1:1:0:0:1, 0+0:0:0:0:0, 0+0:0:0:0:0, 2+1:0:0:0:0, 0+0:0:0:0:0, 3+3:0:0:0:2, 1+2:0:0:0:2, 0+0:0:0:0:0, 0+0:0:0:0:0, 0+0:0:0:0:0, 3+6:0:0:0:2, 0+0:0:0:0:0, 0+0:0:0:0:0, 0+0:0:0:0:0, 1+1:0:0:0:1, 2+2:0:0:0:1, 3+2:0:0:0:0, 0+0:0:0:0:0, 4+3:0:0:1:2, 2+2:0:0:0:2, 3+4:0:0:0:0, 3+3:0:0:0:0, 3+2:0:0:0:1, 1+1:0:0:0:1, 6+3:2:0:0:2, 0+0:0:0:0:0, 2+1:0:0:0:1, 1+0:0:0:0:0, 1+0:0:0:0:0, 1+1:0:0:0:0, 4+4:0:0:0:3, 1+2:0:0:0:2, 1+0:0:0:0:0, 1+0:0:0:0:0, 0+0:0:0:0:0, 258+226:16:2:5:103
A minor (0), 1+1:0:0:0:0, 0+0:0:0:0:0, 1+3:0:0:0:0, 0+1:0:0:0:0, 0+1:0:0:0:0, 0+0:0:0:0:0, 3+2:0:0:0:0, 0+1:0:0:0:0, 5+3:1:0:0:0, 0+0:0:0:0:0, 2+2:0:0:0:0, 0+1:0:0:0:0, 0+1:0:0:0:0, 0+0:0:0:0:0, 2+1:0:0:0:1, 0+1:0:0:0:0, 1+1:0:0:0:0, 1+1:0:0:0:0, 3+1:0:0:0:0, 0+1:0:0:0:0, 0+0:0:0:0:0, 0+0:0:0:0:0, 4+5:0:0:0:0, 0+1:0:0:0:0, 1+1:0:0:0:0, 0+0:0:0:0:0, 5+4:0:0:1:1, 1+2:0:0:0:0, 2+2:1:0:0:0, 1+1:0:0:0:1, 2+1:0:0:0:0, 0+1:0:0:0:0, 3+1:0:0:0:0, 0+2:0:0:0:0, 0+3:0:0:0:0, 2+2:0:0:0:0, 1+4:0:0:0:0, 2+2:0:0:0:2, 2+1:0:0:0:0, 0+1:0:0:0:0, 2+0:0:0:0:0, 0+1:0:0:0:0, 1+1:0:0:0:0, 1+3:0:0:0:0, 1+3:0:0:0:0, 1+1:0:0:0:0, 3+4:0:0:0:0, 0+2:0:0:0:0, 0+0:0:0:0:0, 1+0:0:0:0:0, 4+2:0:0:0:0, 0+1:0:0:0:0, 3+3:0:0:0:0, 0+1:0:0:0:0, 1+4:0:0:0:0, 1+2:0:0:0:0, 4+4:0:0:0:0, 0+0:0:0:0:0, 5+3:0:0:1:1, 1+2:0:0:0:0, 4+3:0:0:0:2, 2+2:0:0:0:1, 5+4:0:0:0:0, 2+3:0:0:0:0, 3+3:0:0:0:3, 0+3:0:0:0:0, 0+3:0:0:0:0, 0+4:0:0:0:0, 0+0:0:0:0:0, 0+3:0:0:0:0, 2+4:0:0:0:0, 0+1:0:0:0:0, 3+1:1:0:0:1, 1+5:0:0:0:0, 1+2:0:0:0:1, 0+4:0:0:0:0, 0+1:0:0:0:0, 1+1:0:0:0:1, 2+2:0:0:0:1, 1+1:0:0:0:0,  , 0+1:0:0:0:0, 3+3:0:0:0:0, 2+2:0:0:0:0,  , 2+4:0:0:0:0, 1+1:0:0:0:0, 2+3:0:0:0:0, 0+0:0:0:0:0, 1+1:0:0:0:1, 5+4:0:0:1:1, 2+2:0:0:0:0, 1+1:0:0:0:0, 1+1:0:0:0:1, 1+0:0:0:0:0, 1+3:0:0:0:0, 5+2:0:0:0:1, 1+2:0:0:0:1, 5+6:0:0:0:2, 0+3:0:0:0:0, 0+0:0:0:0:0, 1+0:0:0:0:0, 5+5:0:0:0:1, 0+2:0:0:0:0, 4+2:1:0:0:0, 0+1:0:0:0:0, 3+5:0:0:0:2, 0+3:0:0:0:0, 0+0:0:0:0:0, 0+0:0:0:0:0, 2+1:0:0:0:1, 1+1:0:0:0:0, 0+0:0:0:0:0, 5+4:0:0:0:0, 6+7:0:0:0:1, 1+3:0:0:0:1, 0+0:0:0:0:0, 1+3:0:0:0:1, 2+3:0:0:0:0, 1+3:0:0:0:0, 0+0:0:0:0:0, 0+1:0:0:0:0, 5+4:0:0:1:1, 1+4:0:0:0:0, 2+2:0:0:0:1, 5+6:0:0:0:3, 7+7:0:0:0:3, 2+3:0:0:0:0, 5+7:1:2:0:2, 4+4:0:0:0:0, 1+1:0:0:0:0, 4+4:0:0:0:0, 0+2:0:0:0:0, 2+2:0:0:0:1, 4+5:0:0:0:0, 0+1:0:0:0:0, 3+2:0:0:0:0, 0+0:0:0:0:0, 0+1:0:0:0:0, 2+4:0:0:0:0, 0+1:0:0:0:0, 3+3:0:0:0:0, 1+0:0:0:0:0, 0+1:0:0:0:0, 0+0:0:0:0:0, 0+1:0:0:0:0, 3+5:0:0:0:0, 0+2:0:0:0:0, 0+0:0:0:0:0, 0+2:0:0:0:0, 1+2:0:0:0:0, 2+5:0:0:0:0, 3+2:0:0:0:1, 0+0:0:0:0:0, 4+2:0:0:1:1, 2+5:0:0:0:0, 3+8:0:0:0:1, 3+3:0:0:0:1, 3+4:0:0:0:0, 1+1:0:0:0:0, 6+5:2:0:0:1, 0+0:0:0:0:0, 2+1:0:0:0:0, 1+1:0:0:0:0, 1+0:0:0:0:0, 1+1:0:0:0:1, 4+3:0:0:0:1, 1+1:0:0:0:0, 1+0:0:0:0:0, 1+0:0:0:0:0, 0+0:0:0:0:0, 260+344:7:2:5:48
F major (1b), 2+1:0:0:0:1, 0+0:0:0:0:0, 2+1:0:0:0:0, 1+0:0:0:0:0, 0+0:0:0:0:0, 1+0:0:0:0:0, 4+4:0:0:0:3, 0+0:0:0:0:0, 4+3:2:0:0:2, 0+0:0:0:0:0, 3+1:0:0:0:0, 1+0:0:0:0:0, 0+0:0:0:0:0, 1+0:0:0:0:0, 3+2:0:0:0:2, 0+0:0:0:0:0, 2+1:0:0:0:0, 2+1:0:0:0:1, 4+2:0:0:0:1, 0+0:0:0:0:0, 1+0:0:0:0:0, 0+0:0:0:0:0, 4+2:0:0:0:0, 1+0:0:0:0:0, 1+1:0:0:0:1, 1+0:0:0:0:0, 6+4:0:0:1:2, 1+1:0:0:0:0, 1+1:1:0:0:1, 1+1:0:0:0:0, 3+2:0:0:0:1, 0+0:0:0:0:0, 2+2:1:0:0:1, 0+0:0:0:0:0, 1+0:0:0:0:0, 3+1:0:0:0:0, 1+2:0:0:0:0, 3+2:0:0:0:1, 3+2:0:0:0:1, 0+0:0:0:0:0, 1+1:1:0:0:1, 0+0:0:0:0:0, 2+1:0:0:0:1, 2+2:0:0:0:0, 1+3:0:0:0:3, 2+1:0:0:0:1, 4+3:0:0:0:1, 0+0:0:0:0:0, 0+0:0:0:0:0, 2+1:0:0:0:0, 5+3:0:0:0:2, 1+0:0:0:0:0, 3+3:0:0:0:1, 0+0:0:0:0:0, 2+1:0:0:0:0, 2+1:0:0:0:1, 4+3:0:0:0:0, 1+0:0:0:0:0, 6+4:0:0:1:2, 2+1:0:0:0:0, 3+2:0:0:0:0, 2+1:0:0:0:0, 5+3:0:0:0:2, 2+1:0:0:0:0, 2+4:1:0:0:1, 0+0:0:0:0:0, 1+0:0:0:0:0, 1+0:0:0:0:0, 0+0:0:0:0:0, 1+0:0:0:0:0, 3+2:0:0:0:2, 1+0:0:0:0:0, 2+2:2:0:0:2, 1+1:0:0:0:1, 2+1:0:0:0:1, 1+0:0:0:0:0, 1+0:0:0:0:0, 2+1:0:0:0:0, 3+3:0:0:0:3, 2+1:0:0:0:1,  , 1+0:0:0:0:0, 4+3:0:0:0:1, 3+1:0:0:0:0,  , 2+1:0:0:0:0, 2+3:0:0:0:0, 3+1:0:0:0:0, 1+0:0:0:0:0, 2+1:0:0:0:0, 6+4:0:0:1:3, 3+2:0:0:0:0, 0+0:0:0:0:0, 1+1:0:0:0:0, 2+1:0:0:0:1, 1+2:0:0:0:0, 4+3:1:0:0:1, 1+1:0:0:0:0, 5+5:0:0:0:1, 1+0:0:0:0:0, 1+0:0:0:0:0, 2+1:0:0:0:0, 6+3:0:0:0:2, 1+0:0:0:0:0, 3+4:3:0:0:3, 0+0:0:0:0:0, 4+5:0:0:0:0, 1+0:0:0:0:0, 0+0:0:0:0:0, 1+0:0:0:0:0, 3+2:0:0:0:1, 1+1:0:0:0:0, 0+0:0:0:0:0, 4+4:0:0:0:1, 7+5:0:0:0:4, 2+1:0:0:0:0, 0+0:0:0:0:0, 1+1:0:0:0:0, 3+1:0:0:0:0, 2+1:0:0:0:1, 0+0:0:0:0:0, 1+0:0:0:0:0, 6+4:0:0:1:3, 2+1:0:0:0:0, 1+1:0:0:0:0, 4+5:0:0:0:0, 10+9:5:0:0:7, 2+1:0:0:0:0, 4+5:1:2:0:4, 3+2:0:0:0:0, 2+1:0:0:0:0, 5+2:0:0:0:0, 0+0:0:0:0:0, 3+2:0:0:0:1, 5+3:0:0:0:2, 0+0:0:0:0:0, 2+1:1:0:0:1, 1+0:0:0:0:0, 1+0:0:0:0:0, 3+1:0:0:0:0, 0+0:0:0:0:0, 4+3:0:0:0:2, 2+2:0:0:0:2, 0+0:0:0:0:0, 0+0:0:0:0:0, 1+0:0:0:0:0, 4+6:0:0:0:2, 0+0:0:0:0:0, 0+0:0:0:0:0, 1+0:0:0:0:0, 2+1:0:0:0:1, 3+2:0:0:0:1, 3+2:0:0:0:0, 1+0:0:0:0:0, 5+3:0:0:1:2, 1+1:1:0:0:1, 2+2:0:0:0:0, 4+3:0:0:0:0, 4+2:0:0:0:1, 1+1:0:0:0:1, 5+3:2:0:0:2, 1+0:0:0:0:0, 3+1:0:0:0:1, 1+1:0:0:0:0, 1+1:0:0:0:0, 2+1:0:0:0:0, 5+4:0:0:0:3, 1+2:0:0:0:2, 1+0:0:0:0:0, 1+0:0:0:0:0, 0+0:0:0:0:0, 336+224:22:2:5:102
G major (1#), 1+1:0:0:0:1, 1+0:0:0:0:0, 2+1:0:0:0:0, 0+0:0:0:0:0, 1+0:0:0:0:0, 1+0:0:0:0:0, 4+4:0:0:0:3, 0+0:0:0:0:0, 5+3:1:0:0:0, 1+0:0:0:0:0, 3+1:0:0:0:0, 0+0:0:0:0:0, 1+0:0:0:0:0, 1+0:0:0:0:0, 3+2:0:0:0:2, 0+0:0:0:0:0, 1+1:0:0:0:0, 2+1:0:0:0:1, 4+2:0:0:0:1, 0+0:0:0:0:0, 0+0:0:0:0:0, 1+0:0:0:0:0, 4+2:0:0:0:0, 0+0:0:0:0:0, 2+1:0:0:0:1, 1+0:0:0:0:0, 5+4:0:0:1:2, 0+0:0:0:0:0, 3+3:0:0:0:1, 2+1:0:0:0:0, 3+2:0:0:0:1, 0+0:0:0:0:0, 3+2:1:0:0:1, 1+0:0:0:0:0, 1+0:0:0:0:0, 2+1:0:0:0:0, 2+2:0:0:0:0, 3+2:0:0:0:1, 3+2:0:0:0:1, 0+0:0:0:0:0, 2+1:1:0:0:0, 1+0:0:0:0:0, 2+1:0:0:0:1, 1+2:0:0:0:0, 2+3:0:0:0:3, 2+1:0:0:0:1, 4+3:0:0:0:1, 0+0:0:0:0:0, 0+0:0:0:0:0, 2+1:0:0:0:0, 5+3:0:0:0:2, 0+0:0:0:0:0, 2+3:0:2:0:3, 1+0:0:0:0:0, 2+1:0:0:0:0, 1+1:0:0:0:1, 5+3:0:0:0:0, 1+0:0:0:0:0, 5+4:0:0:1:1, 0+0:0:0:0:0, 5+5:0:0:0:0, 3+1:0:0:0:0, 5+3:0:0:0:2, 2+1:0:0:0:0, 4+4:1:0:0:1, 1+0:0:0:0:0, 1+0:0:0:0:0, 0+0:0:0:0:0, 1+0:0:0:0:0, 1+0:0:0:0:0, 3+2:0:0:0:2, 0+0:0:0:0:0, 3+2:1:0:0:1, 2+1:0:0:0:1, 2+1:0:0:0:1, 1+0:0:0:0:0, 1+0:0:0:0:0, 2+1:0:0:0:0, 3+3:0:0:0:3, 1+1:0:0:0:1,  , 1+0:0:0:0:0, 4+3:0:0:0:1, 2+1:0:0:0:0,  , 3+1:0:0:0:0, 2+3:0:0:0:0, 3+1:0:0:0:0, 1+0:0:0:0:0, 2+1:0:0:0:0, 5+5:0:0:1:1, 1+1:0:0:0:1, 2+2:0:0:0:0, 2+1:0:0:0:0, 2+1:0:0:0:1, 0+0:0:0:0:0, 5+6:0:0:0:1, 2+1:0:0:0:1, 5+5:0:0:0:1, 0+0:0:0:0:0, 1+0:0:0:0:0, 2+1:0:0:0:0, 6+3:0:0:0:2, 0+0:0:0:0:0, 5+6:0:0:0:3, 1+0:0:0:0:0, 4+5:0:0:0:0, 1+0:0:0:0:0, 1+0:0:0:0:0, 1+0:0:0:0:0, 3+2:0:0:0:1, 0+0:0:0:0:0, 0+0:0:0:0:0, 4+4:0:0:0:1, 7+7:0:0:0:1, 1+1:0:0:0:0, 0+0:0:0:0:0, 3+2:0:0:0:0, 3+1:0:0:0:0, 2+1:0:0:0:1, 1+0:0:0:0:0, 1+0:0:0:0:0, 5+5:0:0:1:3, 0+0:0:0:0:0, 3+2:0:0:0:0, 6+4:0:0:0:2, 8+9:0:0:0:4, 3+3:0:0:0:0, 4+5:1:2:0:4, 5+3:0:0:0:0, 2+1:0:0:0:0, 4+2:0:0:0:0, 1+0:0:0:0:0, 3+2:0:0:0:1, 5+6:0:0:0:0, 0+0:0:0:0:0, 3+3:1:0:0:0, 1+2:0:0:0:0, 1+0:0:0:0:0, 2+1:0:0:0:0, 1+0:0:0:0:0, 4+3:0:0:0:2, 2+2:0:0:0:2, 0+0:0:0:0:0, 0+0:0:0:0:0, 1+0:0:0:0:0, 4+6:0:0:0:2, 0+0:0:0:0:0, 1+0:0:0:0:0, 1+0:0:0:0:0, 2+1:0:0:0:1, 3+2:0:0:0:1, 4+2:0:0:0:0, 1+0:0:0:0:0, 4+4:0:0:1:2, 1+2:0:0:0:2, 4+4:0:0:0:0, 4+3:0:0:0:0, 4+2:0:0:0:1, 1+1:0:0:0:1, 5+3:2:0:0:2, 1+0:0:0:0:0, 3+1:0:0:0:1, 0+0:0:0:0:0, 0+0:0:0:0:0, 2+1:0:0:0:0, 5+4:0:0:0:3, 1+2:0:0:0:2, 1+0:0:0:0:0, 1+0:0:0:0:0, 0+0:0:0:0:0, 352+246:9:4:5:93
D minor (1b), 2+0:0:0:0:0, 0+0:0:0:0:0, 2+3:0:0:0:0, 1+1:0:0:0:0, 0+1:0:0:0:0, 1+0:0:0:0:0, 4+2:0:0:0:0, 0+2:0:0:0:0, 4+3:1:0:0:0, 0+1:0:0:0:0, 3+2:0:0:0:0, 1+1:0:0:0:0, 0+1:0:0:0:0, 1+0:0:0:0:0, 3+1:0:0:0:1, 0+1:0:0:0:0, 1+1:0:0:0:0, 2+1:0:0:0:0, 4+1:0:0:0:0, 0+1:0:0:0:0, 1+0:0:0:0:0, 0+0:0:0:0:0, 5+5:0:0:0:0, 1+1:0:0:0:0, 1+1:0:0:0:0, 1+0:0:0:0:0, 6+4:0:0:1:1, 1+2:0:0:0:0, 1+2:1:0:0:0, 1+3:0:0:0:0, 3+1:0:0:0:0, 0+1:0:0:0:0, 2+1:0:0:0:0, 0+1:0:0:0:0, 1+3:0:0:0:0, 3+2:0:0:0:0, 1+4:0:0:0:0, 3+2:0:0:0:2, 3+1:0:0:0:0, 0+3:0:0:0:0, 1+1:1:0:0:0, 0+2:0:0:0:0, 2+1:0:0:0:0, 2+3:0:0:0:0, 1+3:0:0:0:0, 2+1:0:0:0:0, 4+1:0:0:0:0, 0+1:0:0:0:0, 0+1:0:0:0:0, 2+0:0:0:0:0, 5+2:0:0:0:0, 1+1:0:0:0:0, 3+3:0:0:0:0, 0+1:0:0:0:0, 2+4:0:0:0:0, 2+2:0:0:0:0, 4+4:0:0:0:0, 1+0:0:0:0:0, 6+3:0:0:1:1, 2+2:0:0:0:0, 3+3:0:0:0:2, 2+2:0:0:0:0, 5+2:0:0:0:1, 2+2:0:0:0:1, 2+3:0:0:0:3, 0+1:0:0:0:0, 1+3:0:0:0:0, 1+4:0:0:0:0, 0+0:0:0:0:0, 1+3:0:0:0:0, 3+2:0:0:0:0, 1+1:0:0:0:0, 2+1:1:0:0:1, 1+5:0:0:0:0, 2+2:0:0:0:1, 1+4:0:0:0:0, 1+1:0:0:0:0, 2+1:0:0:0:1, 3+1:0:0:0:1, 2+1:0:0:0:0,  , 1+1:0:0:0:0, 4+1:0:0:0:0, 3+2:0:0:0:0,  , 2+4:0:0:0:0, 2+1:0:0:0:0, 3+3:0:0:0:0, 1+0:0:0:0:0, 2+1:0:0:0:1, 6+4:0:0:1:1, 3+2:0:0:0:0, 0+1:0:0:0:0, 1+3:0:0:0:0, 2+0:0:0:0:0, 1+4:0:0:0:2, 4+2:0:0:0:1, 1+2:0:0:0:1, 6+6:0:0:0:2, 1+3:0:0:0:0, 1+0:0:0:0:0, 2+0:0:0:0:0, 6+4:0:0:0:1, 1+2:0:0:0:0, 3+2:1:0:0:0, 0+1:0:0:0:0, 4+5:0:0:0:2, 1+3:0:0:0:0, 0+0:0:0:0:0, 1+0:0:0:0:0, 3+1:0:0:0:1, 1+4:0:0:0:1, 0+0:0:0:0:0, 6+4:0:0:0:0, 7+7:0:0:0:1, 2+3:0:0:0:1, 0+1:0:0:0:0, 1+3:0:0:0:1, 3+3:0:0:0:0, 2+3:0:0:0:0, 0+0:0:0:0:0, 1+1:0:0:0:0, 6+4:0:0:1:1, 2+4:0:0:0:0, 1+2:0:0:0:1, 4+4:0:0:0:2, 8+9:0:0:0:4, 2+3:0:0:0:0, 4+5:1:2:0:4, 3+3:0:0:0:1, 2+1:0:0:0:0, 5+4:0:0:0:0, 0+2:0:0:0:0, 3+2:0:0:0:1, 5+5:0:0:0:0, 0+1:0:0:0:0, 2+2:0:0:0:0, 1+0:0:0:0:0, 1+1:0:0:0:0, 3+4:0:0:0:0, 0+1:0:0:0:0, 4+3:0:0:0:0, 2+0:0:0:0:0, 0+2:0:0:0:0, 0+0:0:0:0:0, 1+1:0:0:0:0, 4+5:0:0:0:0, 0+2:0:0:0:0, 0+0:0:0:0:0, 1+2:0:0:0:0, 2+2:0:0:0:0, 3+5:0:0:0:0, 3+2:0:0:0:1, 1+0:0:0:0:0, 5+2:0:0:1:1, 1+3:1:0:0:0, 3+3:0:0:0:1, 4+3:0:0:0:1, 4+1:0:0:0:0, 1+1:0:0:0:0, 5+5:2:0:0:1, 1+0:0:0:0:0, 3+1:0:0:0:0, 1+2:0:0:0:0, 1+1:0:0:0:0, 2+1:0:0:0:1, 5+3:0:0:0:1, 1+1:0:0:0:0, 1+0:0:0:0:0, 1+0:0:0:0:0, 0+0:0:0:0:0, 338+333:9:2:5:53
E minor (1#), 1+1:0:0:0:0, 1+0:0:0:0:0, 2+3:0:0:0:0, 0+1:0:0:0:0, 1+1:0:0:0:0, 1+0:0:0:0:0, 4+2:0:0:0:0, 0+0:0:0:0:0, 5+5:1:0:0:1, 1+0:0:0:0:0, 3+2:0:0:0:0, 0+1:0:0:0:0, 1+1:0:0:0:0, 1+0:0:0:0:0, 3+1:0:0:0:1, 0+0:0:0:0:0, 1+2:0:0:0:0, 2+1:0:0:0:0, 4+1:0:0:0:0, 0+0:0:0:0:0, 0+0:0:0:0:0, 1+0:0:0:0:0, 5+5:0:0:0:0, 0+1:0:0:0:0, 2+1:0:0:0:0, 1+0:0:0:0:0, 5+3:0:0:1:1, 0+1:0:0:0:0, 3+4:0:0:0:0, 2+1:0:0:0:1, 3+1:0:0:0:0, 0+1:0:0:0:0, 3+1:0:0:0:0, 1+2:0:0:0:0, 1+3:0:0:0:0, 2+2:0:0:0:0, 2+4:0:0:0:0, 3+2:0:0:0:2, 3+1:0:0:0:0, 0+1:0:0:0:0, 2+6:1:0:0:1, 1+1:0:0:0:0, 2+1:0:0:0:0, 1+3:0:0:0:0, 2+3:0:0:0:0, 2+1:0:0:0:0, 4+1:0:0:0:0, 0+1:0:0:0:0, 0+0:0:0:0:0, 2+0:0:0:0:0, 5+2:0:0:0:0, 0+0:0:0:0:0, 2+3:0:2:0:2, 1+1:0:0:0:0, 2+4:0:0:0:0, 1+2:0:0:0:0, 5+4:0:0:0:0, 1+0:0:0:0:0, 5+3:0:0:1:1, 0+1:0:0:0:0, 5+8:0:0:0:1, 3+2:0:0:0:1, 5+2:0:0:0:1, 2+3:0:0:0:0, 4+3:0:0:0:3, 1+3:0:0:0:0, 1+3:0:0:0:0, 0+4:0:0:0:0, 1+0:0:0:0:0, 1+3:0:0:0:0, 3+2:0:0:0:0, 0+2:0:0:0:0, 3+4:1:0:0:1, 2+5:0:0:0:0, 2+2:0:0:0:1, 1+4:0:0:0:0, 1+1:0:0:0:0, 2+1:0:0:0:1, 3+1:0:0:0:1, 1+2:0:0:0:0,  , 1+1:0:0:0:0, 4+1:0:0:0:0, 2+2:0:0:0:0,  , 3+4:0:0:0:0, 2+1:0:0:0:0, 3+3:0:0:0:0, 1+0:0:0:0:0, 2+1:0:0:0:1, 5+4:0:0:1:1, 1+3:0:0:0:0, 2+5:0:0:0:0, 2+1:0:0:0:1, 2+0:0:0:0:0, 0+0:0:0:0:0, 5+7:0:0:0:0, 2+2:0:0:0:1, 6+6:0:0:0:2, 0+3:0:0:0:0, 1+0:0:0:0:0, 2+0:0:0:0:0, 6+4:0:0:0:1, 0+2:0:0:0:0, 5+7:0:0:0:0, 1+1:0:0:0:0, 4+5:0:0:0:2, 1+3:0:0:0:0, 1+0:0:0:0:0, 1+0:0:0:0:0, 3+1:0:0:0:1, 0+1:0:0:0:0, 0+0:0:0:0:0, 6+4:0:0:0:0, 7+7:0:0:0:1, 1+3:0:0:0:1, 0+0:0:0:0:0, 2+3:0:0:0:1, 3+3:0:0:0:0, 2+3:0:0:0:0, 1+0:0:0:0:0, 1+1:0:0:0:0, 5+4:0:0:1:1, 0+4:0:0:0:0, 3+2:0:0:0:1, 6+4:0:0:0:2, 8+8:0:0:0:3, 3+3:0:0:0:0, 4+5:1:2:0:3, 5+4:0:0:0:0, 2+1:0:0:0:0, 4+4:0:0:0:0, 1+2:0:0:0:0, 3+2:0:0:0:1, 5+5:0:0:0:0, 0+1:0:0:0:0, 3+4:0:0:0:0, 1+0:0:0:0:0, 1+1:0:0:0:0, 2+4:0:0:0:0, 1+1:0:0:0:0, 4+3:0:0:0:0, 2+0:0:0:0:0, 0+1:0:0:0:0, 0+1:0:0:0:0, 1+1:0:0:0:0, 4+5:0:0:0:0, 0+2:0:0:0:0, 1+0:0:0:0:0, 1+2:0:0:0:0, 2+2:0:0:0:0, 3+5:0:0:0:0, 4+2:0:0:0:1, 1+0:0:0:0:0, 4+6:0:0:1:1, 1+5:0:0:0:0, 4+8:0:0:0:1, 4+3:0:0:0:1, 4+1:0:0:0:0, 1+1:0:0:0:0, 5+5:2:0:0:1, 1+0:0:0:0:0, 3+1:0:0:0:0, 0+1:0:0:0:0, 0+0:0:0:0:0, 2+1:0:0:0:1, 5+3:0:0:0:1, 1+1:0:0:0:0, 1+0:0:0:0:0, 1+0:0:0:0:0, 0+0:0:0:0:0, 355+359:6:4:5:51
Bb major (2b), 2+1:0:0:0:1, 0+0:0:0:0:0, 2+1:0:0:0:0, 2+0:0:0:0:0, 1+0:0:0:0:0, 1+1:0:0:0:0, 5+4:0:0:0:3, 1+0:0:0:0:0, 5+3:2:0:0:2, 0+0:0:0:0:0, 3+1:0:0:0:0, 2+0:0:0:0:0, 1+0:0:0:0:0, 1+1:0:0:0:0, 4+2:0:0:0:2, 1+0:0:0:0:0, 2+1:0:0:0:0, 2+1:0:0:0:0, 5+2:0:0:0:1, 1+0:0:0:0:0, 1+0:0:0:0:0, 0+0:0:0:0:0, 4+2:0:0:0:0, 2+0:0:0:0:0, 2+1:0:0:0:1, 1+0:0:0:0:0, 7+4:0:0:1:2, 2+1:0:0:0:0, 2+1:1:0:0:1, 0+0:0:0:0:0, 4+2:0:0:0:1, 1+0:0:0:0:0, 3+2:1:0:0:1, 1+0:0:0:0:0, 1+1:0:0:0:0, 4+1:0:0:0:0, 2+2:0:0:0:0, 3+2:0:0:0:1, 4+2:0:0:0:1, 1+0:0:0:0:0, 2+1:1:0:0:1, 1+0:0:0:0:0, 3+1:0:0:0:1, 3+2:0:0:0:0, 2+3:0:0:0:3, 2+1:0:0:0:0, 5+3:0:0:0:1, 1+0:0:0:0:0, 1+0:0:0:0:0, 3+1:0:0:0:0, 6+3:0:0:0:2, 2+1:0:0:0:0, 3+2:1:0:0:1, 1+0:0:0:0:0, 2+1:0:0:0:0, 3+1:0:0:0:1, 5+3:0:0:0:0, 1+2:0:0:0:0, 7+4:0:0:1:2, 3+1:0:0:0:0, 4+2:0:0:0:0, 1+1:0:0:0:0, 5+3:0:0:0:1, 3+1:0:0:0:0, 3+4:1:0:0:1, 0+0:0:0:0:0, 2+1:0:0:0:0, 2+0:0:0:0:0, 1+0:0:0:0:0, 2+1:0:0:0:0, 4+2:0:0:0:2, 2+0:0:0:0:0, 3+2:2:0:0:2, 1+1:0:0:0:0, 2+1:0:0:0:1, 2+0:0:0:0:0, 2+0:0:0:0:0, 3+1:0:0:0:0, 4+3:0:0:0:3, 3+1:0:0:0:1,  , 2+0:0:0:0:0, 5+3:0:0:0:1, 4+1:0:0:0:0,  , 3+1:0:0:0:0, 3+7:0:0:0:0, 4+2:0:0:0:0, 2+1:0:0:0:0, 3+3:0:0:0:0, 7+4:0:0:1:3, 4+2:0:0:0:0, 1+0:0:0:0:0, 0+0:0:0:0:0, 3+1:0:0:0:1, 2+2:0:0:0:0, 5+3:1:0:0:1, 2+1:0:0:0:0, 4+5:0:0:0:1, 2+0:0:0:0:0, 2+0:0:0:0:0, 3+1:0:0:0:0, 7+3:0:0:0:2, 2+0:0:0:0:0, 4+4:3:0:0:3, 0+0:0:0:0:0, 3+5:0:0:0:3, 2+1:0:0:0:0, 1+0:0:0:0:0, 1+1:0:0:0:0, 4+3:1:0:0:1, 2+1:0:0:0:0, 0+0:0:0:0:0, 5+4:0:0:0:1, 8+5:0:0:0:4, 3+1:0:0:0:0, 1+0:0:0:0:0, 1+1:0:0:0:0, 4+4:0:0:0:0, 3+1:0:0:0:1, 1+0:0:0:0:0, 2+1:0:0:0:0, 7+4:0:0:1:3, 3+1:0:0:0:0, 2+1:0:0:0:0, 3+5:0:0:0:0, 9+9:5:0:0:7, 3+1:0:0:0:0, 6+5:4:0:0:4, 4+2:0:0:0:0, 3+4:0:0:0:0, 6+2:0:0:0:0, 1+0:0:0:0:0, 4+2:0:0:0:1, 6+3:0:0:0:2, 1+0:0:0:0:0, 3+1:1:0:0:1, 1+1:0:0:0:0, 1+4:0:0:0:0, 4+1:0:0:0:0, 1+0:0:0:0:0, 5+3:0:0:0:1, 3+2:0:0:0:2, 1+0:0:0:0:0, 1+0:0:0:0:0, 2+1:0:0:0:0, 5+6:0:0:0:2, 1+0:0:0:0:0, 0+0:0:0:0:0, 2+1:0:0:0:0, 3+1:0:0:0:1, 4+2:0:0:0:1, 4+2:0:0:0:0, 1+3:0:0:0:0, 6+3:0:0:1:2, 2+1:1:0:0:1, 3+2:0:0:0:0, 3+3:0:0:0:0, 5+2:0:0:0:1, 2+1:0:0:0:1, 6+3:2:0:0:2, 1+2:0:0:0:0, 4+1:0:0:0:1, 2+0:0:0:0:0, 2+0:0:0:0:0, 3+1:0:0:0:0, 6+4:0:0:0:3, 2+2:0:0:0:2, 1+0:0:0:0:0, 1+0:0:0:0:0, 1+0:0:0:0:0, 456+257:27:0:5:100
D major (2#), 2+1:0:0:0:0, 2+0:0:0:0:0, 2+3:0:0:0:0, 1+1:0:0:0:0, 2+1:0:0:0:0, 1+1:0:0:0:0, 4+2:0:0:0:0, 1+0:0:0:0:0, 4+3:1:0:0:0, 2+1:0:0:0:0, 3+2:0:0:0:0, 1+1:0:0:0:0, 2+1:0:0:0:0, 1+1:0:0:0:0, 4+1:0:0:0:1, 1+1:0:0:0:0, 1+1:0:0:0:0, 2+2:0:0:0:0, 4+2:0:0:0:1, 1+0:0:0:0:0, 1+0:0:0:0:0, 2+0:0:0:0:0, 4+2:0:0:0:0, 1+0:0:0:0:0, 3+1:0:0:0:1, 1+0:0:0:0:0, 5+4:0:0:1:1, 1+2:0:0:0:0, 4+2:1:0:0:0, 3+3:0:0:0:0, 4+1:0:0:0:0, 1+1:0:0:0:0, 2+1:0:0:0:0, 2+1:0:0:0:0, 1+1:0:0:0:0, 3+2:0:0:0:0, 3+4:0:0:0:0, 3+2:0:0:0:1, 3+1:0:0:0:0, 1+0:0:0:0:0, 1+1:1:0:0:0, 2+2:0:0:0:0, 2+1:0:0:0:0, 2+3:0:0:0:0, 3+3:0:0:0:0, 3+1:0:0:0:0, 4+4:0:0:0:0, 1+0:0:0:0:0, 1+0:0:0:0:0, 2+2:0:0:0:0, 5+2:0:0:0:0, 1+0:0:0:0:0, 2+3:0:2:0:2, 2+1:0:0:0:0, 2+1:0:0:0:0, 2+1:0:0:0:1, 6+5:0:0:0:1, 1+1:0:0:0:0, 5+3:0:0:1:1, 1+4:0:0:0:0, 6+3:0:0:0:2, 4+2:0:0:0:0, 5+4:0:0:0:0, 3+2:0:0:0:1, 3+3:0:0:0:3, 2+1:0:0:0:0, 1+2:0:0:0:0, 1+0:0:0:0:0, 2+1:0:0:0:0, 1+3:0:0:0:0, 3+4:0:0:0:0, 1+0:0:0:0:0, 2+2:1:0:0:1, 3+2:1:0:0:1, 2+2:0:0:0:1, 2+4:0:0:0:0, 2+1:0:0:0:0, 3+1:0:0:0:1, 3+2:0:0:0:1, 2+1:0:0:0:1,  , 1+3:0:0:0:0, 4+3:0:0:0:0, 3+2:0:0:0:0,  , 4+2:0:0:0:1, 2+7:0:0:0:3, 4+4:0:0:0:0, 2+4:0:0:0:0, 3+1:0:0:0:1, 5+4:0:0:1:1, 2+5:0:0:0:0, 3+1:0:0:0:0, 3+3:0:0:0:0, 3+0:0:0:0:0, 1+4:2:0:0:0, 4+2:0:0:0:1, 3+2:0:0:0:1, 7+6:0:0:0:2, 1+3:0:0:0:0, 2+0:0:0:0:0, 2+1:0:0:0:0, 6+5:0:0:0:1, 1+2:0:0:0:0, 4+2:1:0:0:0, 2+1:0:0:0:0, 4+5:0:0:0:2, 2+3:0:0:0:0, 2+1:0:0:0:0, 2+0:0:0:0:0, 4+2:0:0:0:1, 1+0:0:0:0:0, 0+0:0:0:0:0, 3+6:2:0:0:3, 6+7:0:0:0:1, 2+3:0:0:0:1, 1+1:0:0:0:0, 3+3:0:0:0:1, 4+5:0:0:0:0, 3+3:0:0:0:0, 2+1:0:0:0:0, 1+3:0:0:0:0, 5+4:0:0:1:1, 1+3:0:0:0:0, 4+2:0:0:0:1, 7+4:0:0:0:2, 7+9:0:0:0:4, 4+3:0:0:0:0, 3+5:1:2:0:4, 6+3:0:0:0:1, 2+4:0:0:0:1, 5+4:0:0:0:0, 2+1:0:0:0:0, 4+2:0:0:0:1, 4+5:0:0:0:0, 1+0:0:0:0:0, 2+3:1:0:0:0, 2+4:0:0:0:0, 1+4:0:0:0:0, 3+4:0:0:0:0, 2+1:0:0:0:0, 5+3:0:0:0:0, 3+0:0:0:0:0, 1+2:0:0:0:0, 0+0:0:0:0:0, 1+4:0:0:0:0, 3+5:0:0:0:0, 1+2:0:0:0:0, 2+1:0:0:0:0, 2+3:0:0:0:0, 3+2:0:0:0:0, 4+5:0:0:0:0, 5+3:0:0:0:2, 1+3:0:0:0:0, 5+4:0:0:1:2, 2+2:0:0:0:2, 6+3:0:0:0:1, 5+3:0:0:0:1, 4+4:0:0:0:0, 2+1:0:0:0:0, 6+5:2:0:0:1, 1+1:0:0:0:0, 3+3:0:0:0:0, 1+3:0:0:0:0, 1+0:0:0:0:0, 3+1:0:0:0:0, 5+3:0:0:0:1, 2+1:0:0:0:0, 1+0:0:0:0:0, 1+0:0:0:0:0, 0+0:0:0:0:0, 444+373:14:4:5:67
G minor (2b), 2+1:0:0:0:1, 0+2:0:0:0:0, 2+1:0:0:0:0, 2+0:0:0:0:0, 1+0:0:0:0:0, 1+0:0:0:0:0, 5+2:0:0:0:0, 1+2:0:0:0:0, 5+3:1:0:0:0, 0+1:0:0:0:0, 3+2:0:0:0:0, 2+1:0:0:0:0, 1+1:0:0:0:0, 1+1:0:0:0:0, 4+1:0:0:0:1, 1+1:0:0:0:0, 2+1:0:0:0:0, 2+1:0:0:0:0, 5+2:0:0:0:1, 1+0:0:0:0:0, 1+0:0:0:0:0, 0+1:0:0:0:0, 4+1:0:0:0:1, 2+0:0:0:0:0, 2+1:0:0:0:1, 1+0:0:0:0:0, 7+4:0:0:1:2, 2+0:0:0:0:0, 2+2:1:0:0:0, 0+1:0:0:0:0, 4+1:0:0:0:0, 1+1:0:0:0:0, 3+1:0:0:0:0, 1+1:0:0:0:0, 1+1:0:0:0:0, 4+2:0:0:0:0, 2+4:0:0:0:0, 3+2:0:0:0:2, 4+1:0:0:0:0, 1+3:0:0:0:0, 2+0:0:0:0:0, 1+2:0:0:0:0, 3+1:0:0:0:0, 3+3:0:0:0:0, 2+3:0:0:0:0, 2+1:0:0:0:1, 5+1:0:0:0:0, 1+1:0:0:0:0, 1+1:0:0:0:0, 3+0:0:0:0:0, 6+3:0:0:0:2, 2+0:0:0:0:0, 3+3:0:0:0:0, 1+1:0:0:0:0, 2+4:0:0:0:0, 3+2:0:0:0:0, 5+5:0:0:0:1, 1+2:0:0:0:0, 7+4:0:0:1:1, 3+0:0:0:0:0, 4+6:0:0:0:0, 1+3:0:0:0:0, 5+2:0:0:0:1, 3+2:0:0:0:1, 3+3:0:0:0:3, 0+1:0:0:0:0, 2+2:0:0:0:0, 2+0:0:0:0:0, 1+0:0:0:0:0, 2+0:0:0:0:0, 4+2:0:0:0:2, 2+0:0:0:0:0, 3+2:1:0:0:1, 1+2:0:0:0:0, 2+2:0:0:0:1, 2+1:0:0:0:0, 2+1:0:0:0:0, 3+1:0:0:0:0, 4+3:0:0:0:3, 3+1:0:0:0:1,  , 2+3:0:0:0:0, 5+3:0:0:0:1, 4+1:0:0:0:1,  , 3+2:0:0:0:1, 3+7:0:0:0:3, 4+4:0:0:0:0, 2+4:0:0:0:0, 3+4:0:0:0:0, 7+5:0:0:1:1, 4+1:0:0:0:1, 1+4:0:0:0:0, 0+1:0:0:0:0, 3+3:0:0:0:1, 2+0:0:0:0:0, 5+2:0:0:0:1, 2+2:0:0:0:1, 4+7:1:0:0:0, 2+0:0:0:0:0, 2+1:0:0:0:0, 3+1:0:0:0:0, 7+3:0:0:0:2, 2+0:0:0:0:0, 4+2:1:0:0:0, 0+2:0:0:0:0, 3+2:0:0:0:2, 2+3:0:0:0:0, 1+1:0:0:0:0, 1+3:0:0:0:0, 4+6:1:0:0:0, 2+4:0:0:0:1, 0+0:0:0:0:0, 7+4:0:0:0:0, 8+7:0:0:0:1, 3+3:0:0:0:1, 1+1:0:0:0:0, 1+3:0:0:0:1, 4+5:0:0:0:0, 3+3:0:0:0:0, 1+1:0:0:0:0, 2+1:0:0:0:0, 7+5:0:0:1:2, 3+0:0:0:0:0, 2+2:0:0:0:0, 3+4:0:0:0:2, 9+10:5:0:0:3, 3+3:0:0:0:0, 5+5:1:2:0:4, 4+3:0:0:0:1, 3+4:0:0:0:1, 6+4:0:0:0:0, 1+1:0:0:0:0, 4+3:0:0:0:0, 6+6:0:0:0:0, 1+2:0:0:0:0, 3+2:0:0:0:0, 1+4:0:0:0:0, 1+4:0:0:0:0, 4+4:0:0:0:0, 1+1:0:0:0:0, 5+3:0:0:0:0, 3+0:0:0:0:0, 1+2:0:0:0:0, 1+0:0:0:0:0, 2+1:0:0:0:0, 5+4:0:0:0:0, 1+2:0:0:0:0, 0+1:0:0:0:0, 2+3:0:0:0:0, 3+2:0:0:0:0, 4+5:0:0:0:0, 4+3:0:0:0:2, 1+3:0:0:0:0, 6+4:0:0:1:2, 2+2:2:0:0:0, 4+3:0:0:0:1, 3+3:0:0:0:1, 5+1:0:0:0:0, 2+1:0:0:0:0, 6+5:2:0:0:1, 1+0:0:0:0:0, 4+1:0:0:0:1, 2+0:0:0:0:0, 2+0:0:0:0:0, 3+1:0:0:0:0, 6+4:0:0:0:3, 2+2:0:0:0:2, 1+0:0:0:0:0, 1+0:0:0:0:0, 1+0:0:0:0:0, 458+353:16:2:5:72
B minor (2#), 2+1:0:0:0:1, 2+0:0:0:0:0, 2+3:0:0:0:0, 1+0:0:0:0:0, 2+2:0:0:0:0, 1+2:0:0:0:1, 4+4:0:0:0:1, 1+0:0:0:0:0, 4+5:1:0:0:1, 2+0:0:0:0:0, 3+2:0:0:0:0, 1+0:0:0:0:0, 2+1:0:0:0:0, 1+0:0:0:0:0, 4+1:0:0:0:1, 1+0:0:0:0:0, 1+2:0:0:0:0, 2+3:0:0:0:1, 4+3:0:0:0:1, 1+0:0:0:0:0, 1+0:0:0:0:0, 2+0:0:0:0:0, 5+5:0:0:0:0, 1+0:0:0:0:0, 3+1:0:0:0:0, 1+0:0:0:0:0, 5+4:0:0:1:1, 1+2:0:0:0:0, 4+2:1:0:0:0, 3+3:0:0:0:0, 4+1:0:0:0:0, 1+1:0:0:0:0, 2+1:0:0:0:0, 2+1:0:0:0:0, 1+3:0:0:0:0, 3+2:0:0:0:0, 3+4:0:0:0:0, 3+2:0:0:0:1, 3+1:0:0:0:0, 1+1:0:0:0:0, 1+6:1:0:0:1, 2+1:0:0:0:0, 2+1:0:0:0:0, 2+3:0:0:0:0, 3+3:0:0:0:0, 3+1:0:0:0:0, 4+1:0:0:0:0, 1+1:0:0:0:0, 1+0:0:0:0:0, 3+6:0:0:0:1, 5+4:0:0:0:1, 1+0:0:0:0:0, 2+4:0:2:0:0, 2+2:0:0:0:0, 2+3:0:0:0:0, 2+0:0:0:0:0, 6+4:0:0:0:0, 1+3:0:0:0:0, 5+4:0:0:1:2, 1+1:0:0:0:0, 6+8:0:0:0:1, 4+2:0:0:0:1, 5+4:0:0:0:0, 3+3:0:0:0:0, 3+3:0:0:0:3, 2+1:0:0:0:0, 1+3:0:0:0:0, 1+0:0:0:0:0, 2+2:0:0:0:0, 1+5:0:0:0:3, 4+4:0:0:0:1, 1+2:0:0:0:0, 2+4:1:0:0:1, 3+5:0:0:0:0, 2+2:0:0:0:1, 2+4:0:0:0:0, 2+1:0:0:0:0, 3+1:0:0:0:1, 3+1:0:0:0:1, 2+2:0:0:0:0,  , 1+4:0:0:0:3, 4+5:0:0:0:2, 3+2:0:0:0:0,  , 4+4:0:0:0:0, 2+1:0:0:0:0, 4+3:0:0:0:0, 2+0:0:0:0:0, 3+1:0:0:0:1, 5+4:0:0:1:1, 2+5:0:0:0:0, 3+1:0:0:0:0, 3+3:0:0:0:0, 3+0:0:0:0:0, 1+0:0:0:0:0, 5+8:2:0:0:2, 3+2:0:0:0:1, 7+6:0:0:0:2, 1+2:0:0:0:0, 2+1:0:0:0:0, 2+2:0:0:0:1, 7+6:0:0:0:1, 1+2:0:0:0:0, 4+7:0:0:0:0, 2+1:0:0:0:0, 4+5:0:0:0:2, 2+3:0:0:0:0, 2+0:0:0:0:0, 2+0:0:0:0:0, 4+1:0:0:0:1, 1+1:0:0:0:0, 0+2:0:0:0:0, 3+6:2:0:0:5, 7+9:0:0:0:3, 3+3:0:0:0:0, 1+0:0:0:0:0, 3+3:0:0:0:1, 4+3:0:0:0:0, 3+3:0:0:0:0, 2+0:0:0:0:0, 1+1:0:0:0:0, 5+4:0:0:1:1, 1+3:0:0:0:0, 4+2:0:0:0:1, 7+6:0:0:0:3, 7+9:0:0:0:4, 4+3:0:0:0:0, 3+5:1:2:0:4, 6+3:0:0:0:1, 2+1:0:0:0:0, 5+4:0:0:0:0, 2+2:0:0:0:0, 5+5:0:0:0:0, 4+9:0:0:0:2, 1+1:0:0:0:0, 2+7:1:0:0:1, 2+3:0:0:0:0, 1+4:0:0:0:0, 3+1:0:0:0:0, 2+1:0:0:0:0, 5+3:0:0:0:0, 3+0:0:0:0:0, 1+1:0:0:0:0, 0+1:0:0:0:0, 1+5:0:0:0:4, 4+5:0:0:0:1, 1+2:0:0:0:0, 2+0:0:0:0:0, 2+2:0:0:0:0, 3+2:0:0:0:0, 4+5:0:0:0:0, 5+2:0:0:0:1, 1+0:0:0:0:0, 5+6:0:0:1:1, 2+5:0:0:0:0, 5+8:0:0:0:1, 5+3:0:0:0:1, 4+1:0:0:0:0, 2+1:0:0:0:0, 6+9:2:3:0:5, 1+2:0:0:0:1, 3+6:0:0:0:2, 1+6:0:0:0:0, 1+0:0:0:0:0, 3+1:0:0:0:1, 5+6:0:0:0:1, 2+2:0:0:0:1, 1+0:0:0:0:0, 1+0:0:0:0:0, 0+0:0:0:0:0, 452+435:12:7:5:90
Eb major (3b), 2+1:0:0:0:0, 1+0:0:0:0:0, 3+1:0:0:0:0, 2+0:0:0:0:0, 2+0:0:0:0:0, 2+0:0:0:0:0, 5+4:0:0:0:2, 2+0:0:0:0:0, 6+3:2:0:0:2, 1+0:0:0:0:0, 2+1:0:0:0:0, 2+0:0:0:0:0, 2+0:0:0:0:0, 2+0:0:0:0:0, 4+2:0:0:0:2, 2+0:0:0:0:0, 1+1:0:0:0:0, 3+1:0:0:0:0, 5+2:0:0:0:2, 2+0:0:0:0:0, 1+0:0:0:0:0, 1+0:0:0:0:0, 3+2:0:0:0:0, 2+0:0:0:0:0, 3+1:0:0:0:1, 2+0:0:0:0:0, 7+4:0:0:1:2, 3+1:0:0:0:0, 2+1:0:0:0:0, 1+0:0:0:0:0, 5+2:0:0:0:1, 2+0:0:0:0:0, 4+2:1:0:0:1, 2+0:0:0:0:0, 2+0:0:0:0:0, 4+1:0:0:0:0, 3+2:0:0:0:0, 4+2:0:0:0:1, 5+2:0:0:0:1, 2+0:0:0:0:0, 3+1:1:0:0:1, 2+0:0:0:0:0, 3+1:0:0:0:0, 3+2:0:0:0:0, 3+3:0:0:0:3, 3+1:0:0:0:0, 4+3:0:0:0:1, 2+0:0:0:0:0, 2+0:0:0:0:0, 4+1:0:0:0:0, 6+3:0:0:0:1, 3+0:0:0:0:0, 3+2:0:0:0:1, 2+0:0:0:0:0, 3+1:0:0:0:0, 3+1:0:0:0:1, 6+3:0:0:0:0, 2+0:0:0:0:0, 7+4:0:0:1:2, 4+1:0:0:0:0, 5+2:0:0:0:0, 2+1:0:0:0:0, 6+3:0:0:0:1, 4+1:0:0:0:0, 4+4:1:0:0:1, 1+0:0:0:0:0, 3+0:0:0:0:0, 2+0:0:0:0:0, 2+0:0:0:0:0, 3+0:0:0:0:0, 4+2:0:0:0:1, 3+0:0:0:0:0, 4+2:2:0:0:2, 2+1:0:0:0:0, 2+1:0:0:0:1, 3+0:0:0:0:0, 3+0:0:0:0:0, 4+1:0:0:0:0, 5+3:0:0:0:3, 4+1:0:0:0:1,  , 3+0:0:0:0:0, 4+3:0:0:0:1, 5+1:0:0:0:0,  , 4+1:0:0:0:0, 2+3:0:0:0:0, 4+1:0:0:0:0, 3+0:0:0:0:0, 4+1:0:0:0:0, 8+4:0:0:1:3, 5+2:0:0:0:0, 1+0:0:0:0:0, 1+0:0:0:0:0, 4+1:0:0:0:1, 3+2:0:0:0:0, 6+3:1:0:0:1, 3+1:0:0:0:0, 3+2:1:0:0:1, 3+0:0:0:0:0, 3+0:0:0:0:0, 4+1:0:0:0:0, 7+3:0:0:0:2, 3+0:0:0:0:0, 5+4:3:0:0:3, 1+0:0:0:0:0, 2+5:0:0:0:3, 2+0:0:0:0:0, 2+0:0:0:0:0, 2+0:0:0:0:0, 4+2:0:0:0:1, 3+1:0:0:0:0, 1+0:0:0:0:0, 6+4:0:0:0:1, 8+5:0:0:0:4, 4+1:0:0:0:0, 2+0:0:0:0:0, 2+1:0:0:0:0, 5+1:0:0:0:0, 3+1:0:0:0:0, 2+0:0:0:0:0, 3+0:0:0:0:0, 8+4:0:0:1:3, 4+1:0:0:0:0, 3+1:0:0:0:0, 4+5:0:0:0:0, 10+9:5:0:0:7, 4+1:0:0:0:0, 7+5:4:0:0:4, 5+2:0:0:0:0, 2+1:0:0:0:0, 6+2:0:0:0:1, 2+0:0:0:0:0, 5+2:0:0:0:1, 7+3:0:0:0:2, 2+0:0:0:0:0, 4+1:1:0:0:1, 2+0:0:0:0:0, 1+0:0:0:0:0, 4+1:0:0:0:1, 2+0:0:0:0:0, 6+3:0:0:0:1, 4+2:0:0:0:2, 2+0:0:0:0:0, 2+0:0:0:0:0, 3+0:0:0:0:0, 6+6:0:0:0:1, 2+0:0:0:0:0, 1+0:0:0:0:0, 3+0:0:0:0:0, 4+1:0:0:0:1, 5+2:0:0:0:1, 5+2:0:0:0:0, 2+0:0:0:0:0, 6+3:0:0:1:2, 3+1:1:0:0:1, 4+2:0:0:0:0, 4+3:0:0:0:0, 6+2:0:0:0:1, 3+1:0:0:0:1, 7+3:2:0:0:2, 2+0:0:0:0:0, 4+1:0:0:0:1, 3+1:0:0:0:0, 3+1:0:0:0:0, 4+1:0:0:0:0, 7+4:0:0:0:2, 3+2:0:0:0:2, 0+0:0:0:0:0, 0+0:0:0:0:0, 1+0:0:0:0:0, 570+218:25:0:5:94
A major (3#), 1+1:0:0:0:0, 2+0:0:0:0:0, 3+3:0:0:0:0, 2+1:0:0:0:0, 3+1:0:0:0:0, 1+0:0:0:0:0, 3+2:0:0:0:0, 2+1:0:0:0:0, 5+3:0:0:0:0, 2+0:0:0:0:0, 4+2:0:0:0:0, 2+1:0:0:0:0, 3+1:0:0:0:0, 1+0:0:0:0:0, 3+1:0:0:0:1, 2+1:0:0:0:0, 2+1:0:0:0:0, 2+1:0:0:0:0, 3+1:0:0:0:0, 2+1:0:0:0:0, 1+0:0:0:0:0, 2+0:0:0:0:0, 6+5:0:0:0:0, 2+1:0:0:0:0, 3+1:0:0:0:0, 1+0:0:0:0:0, 4+4:0:0:1:1, 2+2:0:0:0:0, 5+4:0:0:0:0, 3+1:0:0:0:1, 3+1:0:0:0:0, 2+1:0:0:0:0, 3+1:0:0:0:0, 3+2:0:0:0:0, 2+3:0:0:0:0, 4+2:0:0:0:0, 4+4:0:0:0:0, 3+2:0:0:0:1, 2+1:0:0:0:0, 2+1:0:0:0:0, 2+3:0:0:0:0, 3+1:0:0:0:0, 3+1:0:0:0:0, 3+3:0:0:0:0, 3+3:0:0:0:0, 3+1:0:0:0:0, 3+4:0:0:0:0, 2+2:0:0:0:0, 1+0:0:0:0:0, 1+2:0:0:0:0, 4+2:0:0:0:0, 2+1:0:0:0:0, 3+3:0:2:0:2, 3+1:0:0:0:0, 3+4:0:0:0:0, 3+2:0:0:0:0, 5+4:0:0:0:0, 1+0:0:0:0:0, 4+3:0:0:1:1, 2+2:0:0:0:0, 7+8:0:0:0:1, 5+2:0:0:0:1, 4+4:0:0:0:0, 4+3:0:0:0:0, 4+3:0:0:0:3, 3+3:0:0:0:0, 2+3:0:0:0:0, 2+4:0:0:0:0, 2+0:0:0:0:0, 2+3:0:0:0:0, 2+4:0:0:0:0, 2+1:0:0:0:0, 3+2:1:0:0:1, 4+5:0:0:0:0, 3+2:0:0:0:1, 3+4:0:0:0:0, 3+1:0:0:0:0, 3+1:0:0:0:1, 2+2:0:0:0:1, 3+1:0:0:0:0,  , 2+1:0:0:0:0, 3+3:0:0:0:0, 4+2:0:0:0:0,  , 4+4:0:0:0:1, 3+1:0:0:0:0, 5+3:0:0:0:0, 2+0:0:0:0:0, 3+1:0:0:0:1, 4+4:0:0:1:1, 3+2:0:0:0:0, 4+5:0:0:0:0, 3+1:0:0:0:1, 2+0:0:0:0:0, 2+3:0:0:0:0, 5+2:0:0:0:1, 4+2:0:0:0:1, 8+6:0:0:0:2, 2+3:0:0:0:0, 2+0:0:0:0:0, 1+1:0:0:0:0, 5+5:0:0:0:1, 2+2:0:0:0:0, 5+7:0:0:0:0, 3+1:0:0:0:0, 5+5:0:0:0:2, 3+3:0:0:0:0, 2+0:0:0:0:0, 2+0:0:0:0:0, 3+1:0:0:0:1, 2+4:0:0:0:0, 0+0:0:0:0:0, 6+4:0:0:0:0, 5+7:0:0:0:1, 3+3:0:0:0:1, 1+0:0:0:0:0, 4+3:0:0:0:1, 5+3:0:0:0:0, 4+3:0:0:0:0, 2+0:0:0:0:0, 2+1:0:0:0:0, 4+4:0:0:1:1, 2+4:0:0:0:0, 5+5:0:0:0:0, 6+6:1:0:0:2, 6+7:0:0:0:3, 5+3:0:0:0:0, 4+7:1:2:0:2, 6+4:0:0:0:1, 3+1:0:0:0:0, 6+4:0:0:0:0, 3+2:0:0:0:0, 4+2:0:0:0:1, 3+5:0:0:0:0, 2+1:0:0:0:0, 3+4:0:0:0:0, 2+0:0:0:0:0, 2+1:0:0:0:0, 4+4:0:0:0:0, 3+1:0:0:0:0, 4+3:0:0:0:0, 2+0:0:0:0:0, 2+1:0:0:0:0, 0+0:0:0:0:0, 2+1:0:0:0:0, 2+5:0:0:0:0, 2+2:0:0:0:0, 2+0:0:0:0:0, 3+2:0:0:0:0, 4+2:0:0:0:0, 5+5:0:0:0:0, 4+2:0:0:0:1, 1+0:0:0:0:0, 4+5:0:0:1:1, 3+4:0:0:0:0, 6+8:0:0:0:1, 6+3:0:0:0:1, 3+4:0:0:0:0, 3+1:0:0:0:0, 5+8:2:3:0:3, 1+0:0:0:0:0, 2+3:0:0:0:0, 2+2:0:0:0:0, 1+1:0:0:0:0, 3+1:0:0:0:1, 4+3:0:0:0:1, 1+1:0:0:0:0, 0+0:0:0:0:0, 0+0:0:0:0:0, 0+0:0:0:0:0, 502+384:5:7:5:50
C minor (3b), 2+1:0:0:0:0, 1+0:0:0:0:0, 3+1:0:0:0:0, 2+0:0:0:0:0, 2+0:0:0:0:0, 2+0:0:0:0:0, 5+4:0:0:0:2, 2+0:0:0:0:0, 6+3:0:0:0:2, 1+0:0:0:0:0, 2+1:0:0:0:0, 2+0:0:0:0:0, 2+0:0:0:0:0, 2+0:0:0:0:0, 4+2:0:0:0:2, 2+0:0:0:0:0, 1+1:0:0:0:0, 3+1:0:0:0:0, 5+2:0:0:0:2, 2+0:0:0:0:0, 1+0:0:0:0:0, 1+0:0:0:0:0, 3+2:0:0:0:0, 2+0:0:0:0:0, 3+1:0:0:0:1, 2+0:0:0:0:0, 7+4:0:0:1:2, 3+1:0:0:0:0, 2+3:0:0:0:0, 1+1:0:0:0:0, 5+2:0:0:0:1, 2+0:0:0:0:0, 4+2:1:0:0:1, 2+0:0:0:0:0, 2+0:0:0:0:0, 4+1:0:0:0:0, 3+2:0:0:0:0, 4+2:0:0:0:1, 5+2:0:0:0:1, 2+0:0:0:0:0, 3+2:0:0:0:1, 2+0:0:0:0:0, 3+1:0:0:0:0, 3+2:0:0:0:0, 3+3:0:0:0:3, 3+1:0:0:0:0, 4+3:0:0:0:1, 2+0:0:0:0:0, 2+0:0:0:0:0, 4+1:0:0:0:0, 6+3:0:0:0:1, 3+0:0:0:0:0, 3+2:0:0:0:1, 2+0:0:0:0:0, 3+1:0:0:0:0, 3+1:0:0:0:1, 6+3:0:0:0:0, 2+0:0:0:0:0, 7+4:0:0:1:2, 4+1:0:0:0:0, 5+5:0:0:0:0, 2+1:0:0:0:0, 6+3:0:0:0:1, 4+1:0:0:0:0, 4+4:1:0:0:1, 1+0:0:0:0:0, 3+0:0:0:0:0, 2+0:0:0:0:0, 2+0:0:0:0:0, 3+0:0:0:0:0, 4+2:0:0:0:1, 3+0:0:0:0:0, 4+3:0:0:0:2, 2+1:0:0:0:0, 2+1:0:0:0:1, 3+0:0:0:0:0, 3+0:0:0:0:0, 4+1:0:0:0:0, 5+3:0:0:0:3, 4+1:0:0:0:1,  , 3+0:0:0:0:0, 4+3:0:0:0:1, 5+1:0:0:0:0,  , 4+1:0:0:0:0, 2+3:0:0:0:0, 4+1:0:0:0:0, 3+0:0:0:0:0, 4+1:0:0:0:0, 8+4:0:0:1:3, 5+2:0:0:0:0, 1+2:0:0:0:0, 1+1:0:0:0:0, 4+1:0:0:0:1, 3+2:0:0:0:0, 6+3:1:0:0:1, 3+1:0:0:0:1, 3+2:1:0:0:1, 3+0:0:0:0:0, 3+0:0:0:0:0, 4+1:0:0:0:0, 7+3:0:0:0:2, 3+0:0:0:0:0, 5+6:0:0:0:3, 1+0:0:0:0:0, 2+2:0:0:0:2, 2+0:0:0:0:0, 2+0:0:0:0:0, 2+0:0:0:0:0, 4+2:0:0:0:1, 3+1:0:0:0:0, 1+0:0:0:0:0, 6+4:0:0:0:1, 8+5:0:0:0:4, 4+1:0:0:0:0, 2+0:0:0:0:0, 2+1:0:0:0:0, 5+1:0:0:0:0, 3+1:0:0:0:0, 2+0:0:0:0:0, 3+0:0:0:0:0, 8+4:0:0:1:3, 4+0:0:0:0:0, 3+2:0:0:0:0, 4+4:0:0:0:2, 8+10:0:0:0:8, 4+1:0:0:0:0, 7+5:2:0:0:3, 5+3:0:0:0:0, 2+1:0:0:0:0, 6+2:0:0:0:1, 2+0:0:0:0:0, 5+2:0:0:0:1, 7+3:0:0:0:2, 2+0:0:0:0:0, 4+2:0:0:0:1, 2+0:0:0:0:0, 1+0:0:0:0:0, 4+1:0:0:0:1, 2+0:0:0:0:0, 6+3:0:0:0:1, 4+2:0:0:0:2, 2+0:0:0:0:0, 2+0:0:0:0:0, 3+0:0:0:0:0, 6+6:0:0:0:1, 2+0:0:0:0:0, 1+0:0:0:0:0, 3+0:0:0:0:0, 4+1:0:0:0:1, 5+2:0:0:0:1, 5+2:0:0:0:0, 2+0:0:0:0:0, 6+3:0:0:1:2, 3+2:2:0:0:0, 4+4:0:0:0:0, 4+3:0:0:0:0, 6+2:0:0:0:1, 3+1:0:0:0:1, 7+3:2:0:0:2, 2+0:0:0:0:0, 4+1:0:0:0:1, 3+1:0:0:0:0, 3+1:0:0:0:0, 4+1:0:0:0:0, 7+4:0:0:0:2, 3+2:0:0:0:2, 0+0:0:0:0:0, 0+0:0:0:0:0, 1+0:0:0:0:0, 568+233:10:0:5:95
F# minor (3#), 1+1:0:0:0:0, 2+0:0:0:0:0, 3+3:0:0:0:0, 2+1:0:0:0:0, 3+1:0:0:0:0, 1+0:0:0:0:0, 3+2:0:0:0:0, 2+1:0:0:0:0, 5+5:1:0:0:1, 2+0:0:0:0:0, 4+2:0:0:0:0, 2+1:0:0:0:0, 3+1:0:0:0:0, 1+0:0:0:0:0, 3+1:0:0:0:1, 2+0:0:0:0:0, 2+2:0:0:0:0, 2+3:0:0:0:1, 3+2:0:0:0:1, 2+1:0:0:0:0, 1+0:0:0:0:0, 2+0:0:0:0:0, 6+5:0:0:0:0, 2+1:0:0:0:0, 3+1:0:0:0:0, 1+0:0:0:0:0, 4+4:0:0:1:1, 2+2:0:0:0:0, 5+4:0:0:0:0, 3+1:0:0:0:1, 3+1:0:0:0:0, 2+0:0:0:0:0, 4+2:1:0:0:1, 3+2:0:0:0:0, 2+3:0:0:0:0, 4+2:0:0:0:0, 4+4:0:0:0:0, 3+2:0:0:0:1, 2+1:0:0:0:0, 2+1:0:0:0:0, 2+6:1:0:0:1, 3+1:0:0:0:0, 3+1:0:0:0:0, 3+3:0:0:0:0, 3+3:0:0:0:0, 3+1:0:0:0:0, 3+4:0:0:0:0, 2+2:0:0:0:0, 1+0:0:0:0:0, 1+2:0:0:0:0, 4+4:0:0:0:1, 2+2:0:0:0:0, 3+4:0:2:0:0, 3+1:0:0:0:0, 3+4:0:0:0:0, 3+2:0:0:0:0, 5+4:0:0:0:0, 1+0:0:0:0:0, 4+3:0:0:1:1, 2+2:0:0:0:0, 7+8:0:0:0:1, 5+2:0:0:0:1, 4+4:0:0:0:0, 4+3:0:0:0:0, 4+6:0:0:0:3, 3+3:0:0:0:0, 2+3:0:0:0:0, 2+4:0:0:0:0, 2+0:0:0:0:0, 2+3:0:0:0:0, 2+4:0:0:0:0, 2+1:0:0:0:0, 3+4:1:0:0:1, 4+5:0:0:0:0, 3+2:0:0:0:1, 3+4:0:0:0:0, 3+1:0:0:0:0, 3+1:0:0:0:1, 2+2:0:0:0:1, 3+1:0:0:0:0,  , 2+1:0:0:0:0, 3+3:0:0:0:0, 4+2:0:0:0:0,  , 4+4:0:0:0:1, 3+1:0:0:0:0, 5+3:0:0:0:0, 2+0:0:0:0:0, 3+1:0:0:0:1, 4+4:0:0:1:1, 3+2:0:0:0:0, 4+5:0:0:0:0, 3+1:0:0:0:1, 2+0:0:0:0:0, 2+0:0:0:0:0, 6+8:2:0:0:2, 4+2:0:0:0:1, 8+6:0:0:0:2, 2+3:0:0:0:0, 2+0:0:0:0:0, 1+1:0:0:0:0, 5+5:0:0:0:1, 2+2:0:0:0:0, 5+7:0:0:0:0, 3+1:0:0:0:0, 5+5:0:0:0:2, 3+3:0:0:0:0, 2+0:0:0:0:0, 2+0:0:0:0:0, 3+1:0:0:0:1, 2+1:0:0:0:0, 0+2:0:0:0:0, 4+6:2:0:0:5, 6+9:0:0:0:3, 3+3:0:0:0:1, 1+0:0:0:0:0, 4+5:0:0:0:1, 5+3:0:0:0:0, 4+3:0:0:0:0, 2+0:0:0:0:0, 2+1:0:0:0:0, 4+4:0:0:1:1, 2+4:0:0:0:0, 5+5:0:0:0:0, 6+7:0:0:0:2, 6+7:0:0:0:3, 5+3:0:0:0:0, 4+7:1:2:0:2, 6+4:0:0:0:1, 3+1:0:0:0:0, 6+4:0:0:0:0, 3+2:0:0:0:0, 4+2:0:0:0:1, 3+5:0:0:0:0, 2+1:0:0:0:0, 3+7:1:0:0:1, 2+0:0:0:0:0, 2+1:0:0:0:0, 4+4:0:0:0:0, 3+1:0:0:0:0, 4+3:0:0:0:0, 2+0:0:0:0:0, 2+1:0:0:0:0, 0+0:0:0:0:0, 2+1:0:0:0:0, 2+5:0:0:0:0, 2+2:0:0:0:0, 2+0:0:0:0:0, 3+2:0:0:0:0, 4+2:0:0:0:0, 5+5:0:0:0:0, 4+2:0:0:0:1, 1+0:0:0:0:0, 4+5:0:0:1:1, 3+5:0:0:0:0, 6+8:0:0:0:1, 6+3:0:0:0:1, 3+4:0:0:0:0, 3+1:0:0:0:0, 5+8:2:3:0:3, 1+1:0:0:0:1, 2+6:0:0:0:2, 2+6:0:0:0:0, 1+0:0:0:0:0, 3+1:0:0:0:1, 4+3:0:0:0:1, 1+2:0:0:0:1, 0+0:0:0:0:0, 0+0:0:0:0:0, 0+1:0:0:0:0, 503+423:12:7:5:67
Ab major (4b), 2+2:0:0:0:1, 2+0:0:0:0:0, 4+1:0:0:0:0, 2+0:0:0:0:0, 2+0:0:0:0:0, 3+1:0:0:0:0, 6+4:0:0:0:2, 2+0:0:0:0:0, 6+3:2:0:0:2, 2+0:0:0:0:0, 3+3:0:0:0:2, 2+0:0:0:0:0, 2+0:0:0:0:0, 3+1:0:0:0:0, 5+2:0:0:0:2, 2+0:0:0:0:0, 1+1:0:0:0:0, 4+1:0:0:0:0, 6+2:0:0:0:2, 2+0:0:0:0:0, 1+2:0:0:0:0, 2+0:0:0:0:0, 4+2:0:0:0:1, 2+0:0:0:0:0, 4+1:1:0:0:1, 3+1:0:0:0:0, 8+4:0:0:1:2, 4+1:0:0:0:0, 3+1:0:0:0:0, 2+1:0:0:0:0, 6+2:0:0:0:1, 2+0:0:0:0:0, 4+2:1:0:0:1, 3+0:0:0:0:0, 3+1:0:0:0:0, 4+2:1:0:0:1, 3+2:2:0:0:2, 5+5:0:0:0:0, 6+2:0:0:0:1, 3+0:0:0:0:0, 3+1:1:0:0:1, 3+0:0:0:0:0, 4+1:0:0:0:0, 3+2:0:0:0:0, 3+3:3:0:0:3, 4+1:0:0:0:0, 5+3:0:0:0:1, 3+0:0:0:0:0, 2+0:0:0:0:0, 5+1:0:0:0:0, 7+3:0:0:0:1, 3+1:0:0:0:0, 3+2:0:0:0:0, 3+0:0:0:0:0, 4+1:0:0:0:0, 3+1:0:0:0:1, 5+3:0:0:0:0, 3+2:0:0:0:0, 8+4:0:0:1:2, 5+1:0:0:0:0, 6+2:0:0:0:0, 2+1:0:0:0:0, 7+3:0:0:0:1, 4+1:0:0:0:0, 4+4:1:0:0:1, 2+0:0:0:0:0, 4+1:0:0:0:0, 2+1:0:0:0:0, 2+0:0:0:0:0, 4+1:0:0:0:0, 5+2:0:0:0:1, 4+0:0:0:0:0, 4+2:2:0:0:2, 3+1:0:0:0:0, 3+1:0:0:0:1, 3+3:0:0:0:0, 4+2:0:0:0:0, 5+2:0:0:0:0, 6+3:0:0:0:3, 5+2:1:0:0:1,  , 4+1:0:0:0:0, 5+3:0:0:0:1, 6+3:0:0:0:0,  , 5+1:0:0:0:0, 3+7:0:0:0:0, 4+2:1:0:0:1, 4+1:0:0:0:0, 5+3:0:0:0:0, 9+4:0:0:1:3, 6+2:0:0:0:0, 2+0:0:0:0:0, 2+1:0:0:0:0, 5+1:0:0:0:1, 3+2:0:0:0:0, 5+3:1:0:0:1, 4+1:0:0:0:0, 4+4:1:0:0:4, 4+0:0:0:0:0, 3+1:0:0:0:0, 5+1:0:0:0:0, 8+3:0:0:0:2, 4+0:0:0:0:0, 5+4:2:0:0:2, 2+0:0:0:0:0, 3+5:0:0:0:3, 2+1:0:0:0:0, 3+0:0:0:0:0, 3+1:0:0:0:0, 5+3:1:0:0:1, 4+1:0:0:0:0, 1+0:0:0:0:0, 7+4:0:0:0:1, 9+7:0:0:0:1, 5+1:0:0:0:0, 2+0:0:0:0:0, 3+1:0:0:0:0, 6+4:0:0:0:0, 3+2:0:0:0:0, 3+0:0:0:0:0, 4+1:0:0:0:0, 9+4:0:0:1:3, 5+1:0:0:0:0, 4+1:0:0:0:0, 3+5:0:0:0:0, 11+9:5:0:0:7, 4+1:1:0:0:1, 6+5:4:0:0:4, 6+2:0:0:0:0, 3+4:0:0:0:0, 6+2:0:0:0:2, 2+0:0:0:0:0, 6+2:0:0:0:1, 8+3:0:0:0:2, 3+0:0:0:0:0, 4+1:1:0:0:1, 3+1:0:0:0:0, 2+4:0:0:0:0, 5+3:0:0:0:0, 2+0:0:0:0:0, 7+3:0:0:0:1, 5+2:0:0:0:2, 3+0:0:0:0:0, 3+0:0:0:0:0, 4+1:0:0:0:0, 7+6:0:0:0:1, 3+0:0:0:0:0, 2+0:0:0:0:0, 4+1:0:0:0:0, 5+1:0:0:0:1, 6+2:0:0:0:1, 5+2:0:0:0:0, 3+3:0:0:0:0, 7+3:0:0:1:2, 4+1:1:0:0:1, 5+2:0:0:0:0, 4+3:0:0:0:0, 7+2:0:0:0:1, 3+1:0:0:0:1, 8+3:2:0:0:2, 3+2:0:0:0:0, 5+1:0:0:0:1, 4+1:0:0:0:0, 3+1:0:0:0:0, 5+3:0:0:0:0, 8+4:0:0:0:2, 3+2:2:0:0:2, 0+0:0:0:0:0, 0+0:0:0:0:0, 1+0:0:0:0:0, 680+289:37:0:5:100
E major (4#), 1+1:0:0:0:0, 3+0:0:0:0:0, 4+3:0:0:0:0, 2+0:0:0:0:0, 3+1:0:0:0:0, 2+0:0:0:0:0, 4+2:0:0:0:0, 2+0:0:0:0:0, 5+5:1:0:0:1, 3+0:0:0:0:0, 5+2:0:0:0:0, 2+0:0:0:0:0, 3+1:0:0:0:0, 2+0:0:0:0:0, 4+1:0:0:0:1, 2+0:0:0:0:0, 2+1:0:0:0:0, 3+1:0:0:0:0, 4+1:0:0:0:0, 2+0:0:0:0:0, 1+0:0:0:0:0, 3+0:0:0:0:0, 7+5:0:0:0:0, 2+0:0:0:0:0, 4+1:0:0:0:0, 2+0:0:0:0:0, 5+4:0:0:1:1, 3+1:0:0:0:0, 6+4:0:0:0:0, 4+1:0:0:0:1, 4+1:0:0:0:0, 2+0:0:0:0:0, 3+5:0:0:0:0, 4+2:0:0:0:0, 3+3:0:0:0:0, 3+2:0:0:0:0, 4+4:0:0:0:0, 4+2:0:0:0:1, 3+1:0:0:0:0, 3+1:0:0:0:0, 2+6:1:0:0:1, 4+1:0:0:0:0, 4+1:0:0:0:0, 2+3:0:0:0:0, 2+3:0:0:0:0, 4+1:0:0:0:0, 4+4:0:0:0:0, 3+1:0:0:0:0, 1+0:0:0:0:0, 2+2:0:0:0:0, 5+2:0:0:0:0, 2+0:0:0:0:0, 3+3:0:2:0:2, 4+1:0:0:0:0, 4+4:0:0:0:0, 2+0:0:0:0:0, 4+6:0:0:0:0, 2+1:0:0:0:0, 5+3:0:0:1:1, 3+1:0:0:0:0, 8+8:0:0:0:1, 5+2:0:0:0:1, 5+4:0:0:0:0, 4+3:0:0:0:0, 4+6:0:0:0:3, 4+3:0:0:0:0, 3+3:0:0:0:0, 2+0:0:0:0:0, 2+0:0:0:0:0, 3+3:0:0:0:0, 3+4:0:0:0:0, 3+2:0:0:0:0, 2+2:1:0:0:1, 5+5:0:0:0:0, 4+2:0:0:0:1, 3+4:0:0:0:0, 4+1:0:0:0:0, 4+1:0:0:0:1, 3+2:0:0:0:1, 4+2:0:0:0:0,  , 3+1:0:0:0:0, 4+3:0:0:0:0, 5+2:0:0:0:0,  , 5+4:0:0:0:1, 4+1:0:0:0:0, 4+3:0:0:0:0, 3+0:0:0:0:0, 4+1:0:0:0:1, 5+4:0:0:1:1, 4+3:0:0:0:0, 5+5:0:0:0:0, 4+1:0:0:0:1, 3+0:0:0:0:0, 2+0:0:0:0:0, 5+7:0:0:0:0, 5+2:0:0:0:1, 9+6:0:0:0:2, 3+2:0:0:0:0, 2+0:0:0:0:0, 2+1:0:0:0:0, 6+5:0:0:0:1, 3+2:0:0:0:0, 4+7:0:0:0:0, 4+1:0:0:0:0, 6+5:0:0:0:2, 3+3:0:0:0:0, 3+0:0:0:0:0, 3+0:0:0:0:0, 4+1:0:0:0:1, 3+1:0:0:0:0, 0+0:0:0:0:0, 7+4:0:0:0:0, 6+7:0:0:0:1, 4+3:0:0:0:1, 1+0:0:0:0:0, 5+5:0:0:0:1, 6+3:0:0:0:0, 4+3:0:0:0:0, 3+0:0:0:0:0, 3+1:0:0:0:0, 5+4:0:0:1:1, 3+1:0:0:0:0, 6+5:0:0:0:0, 6+7:0:0:0:1, 7+7:0:0:0:3, 4+3:0:0:0:0, 3+5:1:2:0:3, 7+4:0:0:0:1, 4+1:0:0:0:0, 5+4:0:0:0:0, 3+2:0:0:0:0, 5+2:0:0:0:1, 4+5:0:0:0:0, 3+1:0:0:0:0, 3+7:1:0:0:1, 3+3:0:0:0:0, 3+4:0:0:0:0, 4+1:0:0:0:0, 3+1:0:0:0:0, 5+3:0:0:0:0, 3+0:0:0:0:0, 3+1:0:0:0:0, 1+1:0:0:0:0, 3+5:0:0:0:0, 3+3:0:0:0:0, 3+2:0:0:0:0, 3+0:0:0:0:0, 4+2:0:0:0:0, 5+2:0:0:0:0, 6+5:0:0:0:0, 4+2:0:0:0:1, 2+0:0:0:0:0, 5+6:0:0:1:1, 4+5:0:0:0:0, 7+8:0:0:0:1, 6+3:0:0:0:1, 4+4:0:0:0:0, 3+1:0:0:0:0, 6+8:2:3:0:3, 2+1:0:0:0:0, 3+3:0:0:0:0, 3+1:0:0:0:0, 1+0:0:0:0:0, 4+1:0:0:0:1, 5+3:0:0:0:1, 1+1:0:0:0:0, 0+0:0:0:0:0, 0+0:0:0:0:0, 0+0:0:0:0:0, 604+391:7:7:5:52
F minor (4b), 2+1:0:0:0:0, 2+0:0:0:0:0, 4+1:0:0:0:0, 2+0:0:0:0:0, 2+0:0:0:0:0, 3+1:0:0:0:0, 6+4:0:0:0:2, 2+0:0:0:0:0, 6+3:2:0:0:2, 2+0:0:0:0:0, 3+1:0:0:0:0, 2+0:0:0:0:0, 2+0:0:0:0:0, 3+1:0:0:0:0, 5+2:0:0:0:2, 2+0:0:0:0:0, 1+1:0:0:0:0, 4+1:0:0:0:0, 6+2:0:0:0:2, 2+0:0:0:0:0, 1+0:0:0:0:0, 2+0:0:0:0:0, 4+2:0:0:0:0, 2+0:0:0:0:0, 4+1:0:0:0:1, 3+0:0:0:0:0, 8+4:0:0:1:2, 4+1:0:0:0:0, 3+1:0:0:0:0, 2+1:0:0:0:0, 6+2:0:0:0:1, 2+0:0:0:0:0, 4+2:1:0:0:1, 3+0:0:0:0:0, 3+1:0:0:0:0, 4+1:0:0:0:1, 3+2:0:0:0:0, 5+2:0:0:0:1, 6+2:0:0:0:1, 3+0:0:0:0:0, 3+1:1:0:0:1, 3+0:0:0:0:0, 4+1:0:0:0:0, 3+2:0:0:0:0, 3+3:0:0:0:3, 4+1:0:0:0:0, 5+3:0:0:0:1, 3+0:0:0:0:0, 2+0:0:0:0:0, 5+1:0:0:0:0, 7+3:0:0:0:1, 3+1:0:0:0:0, 3+2:0:0:0:0, 3+0:0:0:0:0, 4+1:0:0:0:0, 3+1:0:0:0:1, 5+3:0:0:0:0, 3+2:0:0:0:0, 8+4:0:0:1:2, 5+1:0:0:0:0, 6+2:0:0:0:0, 2+1:0:0:0:0, 7+3:0:0:0:1, 4+1:0:0:0:0, 4+4:1:0:0:1, 2+0:0:0:0:0, 4+1:0:0:0:0, 2+0:0:0:0:0, 2+0:0:0:0:0, 4+1:0:0:0:0, 5+2:0:0:0:1, 4+0:0:0:0:0, 4+2:2:0:0:2, 3+1:0:0:0:0, 3+1:0:0:0:1, 3+0:0:0:0:0, 4+0:0:0:0:0, 5+1:0:0:0:0, 6+3:0:0:0:3, 5+1:0:0:0:1,  , 4+0:0:0:0:0, 5+3:0:0:0:1, 6+1:0:0:0:0,  , 5+1:0:0:0:0, 3+7:0:0:0:0, 4+2:1:0:0:1, 4+1:0:0:0:0, 5+3:0:0:0:0, 9+4:0:0:1:3, 6+2:0:0:0:0, 2+0:0:0:0:0, 2+1:0:0:0:0, 5+1:0:0:0:1, 3+2:0:0:0:0, 5+3:1:0:0:1, 4+1:0:0:0:0, 4+2:1:0:0:1, 4+0:0:0:0:0, 3+0:0:0:0:0, 5+1:0:0:0:0, 8+3:0:0:0:2, 4+0:0:0:0:0, 5+4:2:0:0:2, 2+0:0:0:0:0, 3+2:0:0:0:2, 2+0:0:0:0:0, 3+0:0:0:0:0, 3+1:0:0:0:0, 5+3:1:0:0:1, 4+1:0:0:0:0, 1+0:0:0:0:0, 7+4:0:0:0:1, 9+5:0:0:0:4, 5+1:0:0:0:0, 2+0:0:0:0:0, 3+1:0:0:0:0, 6+4:0:0:0:0, 3+1:0:0:0:0, 3+0:0:0:0:0, 4+1:0:0:0:0, 9+4:0:0:1:3, 5+1:0:0:0:0, 4+1:0:0:0:0, 3+1:0:0:0:0, 11+9:5:0:0:7, 4+1:1:0:0:1, 6+5:4:0:0:4, 6+2:0:0:0:0, 3+4:0:0:0:0, 6+2:0:0:0:2, 2+0:0:0:0:0, 6+2:0:0:0:1, 8+3:0:0:0:2, 3+0:0:0:0:0, 4+1:1:0:0:1, 3+1:0:0:0:0, 2+4:0:0:0:0, 4+1:0:0:0:1, 2+0:0:0:0:0, 7+3:0:0:0:1, 5+2:0:0:0:2, 3+0:0:0:0:0, 3+0:0:0:0:0, 4+1:0:0:0:0, 7+6:0:0:0:1, 3+0:0:0:0:0, 2+0:0:0:0:0, 4+1:0:0:0:0, 5+1:0:0:0:1, 6+2:0:0:0:1, 5+2:0:0:0:0, 3+3:0:0:0:0, 7+3:0:0:1:2, 4+1:1:0:0:1, 5+2:0:0:0:0, 4+3:0:0:0:0, 7+2:0:0:0:1, 3+1:0:0:0:1, 8+3:2:0:0:2, 3+2:0:0:0:0, 5+1:0:0:0:1, 4+1:0:0:0:0, 3+1:0:0:0:0, 5+1:0:0:0:0, 8+4:0:0:0:2, 3+2:0:0:0:2, 0+0:0:0:0:0, 0+0:0:0:0:0, 1+0:0:0:0:0, 679+250:27:0:5:95
C# minor (4#), 1+1:0:0:0:1, 3+0:0:0:0:0, 4+2:0:0:0:0, 2+0:0:0:0:0, 3+1:0:0:0:0, 2+1:0:0:0:1, 4+4:0:0:0:1, 2+0:0:0:0:0, 5+5:1:0:0:1, 3+0:0:0:0:0, 5+2:0:0:0:0, 2+0:0:0:0:0, 3+1:0:0:0:0, 2+1:0:0:0:1, 4+4:0:0:0:2, 2+0:0:0:0:0, 2+2:0:0:0:0, 3+3:0:0:0:1, 4+3:0:0:0:1, 2+0:0:0:0:0, 1+0:0:0:0:0, 3+0:0:0:0:0, 7+5:0:0:0:0, 2+0:0:0:0:0, 4+1:0:0:0:0, 3+1:0:0:0:1, 5+4:0:0:1:1, 3+1:0:0:0:0, 6+4:0:0:0:0, 4+1:0:0:0:1, 4+1:0:0:0:0, 2+0:0:0:0:0, 4+2:1:0:0:1, 4+2:0:0:0:0, 3+2:0:0:0:0, 3+1:0:0:0:0, 4+4:0:0:0:0, 4+2:0:0:0:1, 3+1:0:0:0:0, 3+1:0:0:0:0, 2+6:1:0:0:1, 4+2:0:0:0:0, 4+5:0:0:0:1, 2+0:0:0:0:0, 2+4:0:0:0:0, 4+2:0:0:0:0, 6+4:0:0:0:1, 3+1:0:0:0:0, 1+0:0:0:0:0, 3+6:0:0:0:1, 5+4:0:0:0:1, 2+0:0:0:0:0, 3+4:0:2:0:0, 4+2:0:0:0:0, 4+3:0:0:0:0, 2+0:0:0:0:0, 5+4:0:0:0:4, 2+1:0:0:0:1, 6+4:0:0:1:1, 3+1:0:0:0:0, 8+8:0:0:0:1, 5+2:0:0:0:1, 5+4:0:0:0:0, 4+3:0:0:0:0, 4+3:0:0:0:3, 4+3:0:0:0:0, 3+3:0:0:0:0, 2+0:0:0:0:0, 2+2:0:0:0:0, 3+5:0:0:0:3, 4+4:0:0:0:1, 3+2:0:0:0:0, 2+2:1:0:0:1, 5+2:0:0:0:0, 4+3:0:0:0:0, 3+1:0:0:0:0, 4+2:0:0:0:0, 4+1:0:0:0:1, 3+2:0:0:0:1, 4+2:0:0:0:0,  , 3+4:0:0:0:3, 4+5:0:0:0:2, 5+2:0:0:0:0,  , 6+3:0:0:0:0, 4+4:0:0:0:1, 4+3:0:0:0:0, 3+3:0:0:0:0, 5+3:0:0:0:0, 5+6:0:0:1:1, 4+3:0:0:0:0, 5+5:0:0:0:0, 4+1:0:0:0:1, 3+0:0:0:0:0, 2+0:0:0:0:0, 6+8:2:0:0:2, 6+5:0:0:0:0, 9+6:0:0:0:2, 3+2:0:0:0:0, 2+1:0:0:0:0, 2+2:0:0:0:1, 7+6:0:0:0:1, 3+2:0:0:0:0, 4+7:0:0:0:0, 4+1:0:0:0:0, 6+5:0:0:0:2, 3+2:0:0:0:0, 3+2:0:0:0:0, 3+5:0:0:0:0, 5+8:0:0:0:0, 3+1:0:0:0:0, 0+0:0:0:0:0, 5+6:2:0:0:5, 7+9:0:0:0:3, 5+3:0:0:0:0, 1+0:0:0:0:0, 5+3:0:0:0:1, 6+3:0:0:0:0, 4+2:0:0:0:0, 3+3:0:0:0:0, 3+5:0:0:0:0, 5+5:0:0:1:1, 3+1:0:0:0:0, 6+2:0:0:0:1, 6+4:1:0:0:3, 7+8:0:0:0:0, 4+6:0:0:0:0, 3+5:1:2:0:3, 7+4:0:0:0:1, 4+1:0:0:0:0, 5+4:0:0:0:0, 3+2:0:0:0:0, 6+5:0:0:0:0, 4+9:0:0:0:0, 3+1:0:0:0:0, 3+7:1:0:0:1, 3+3:0:0:0:0, 3+4:0:0:0:0, 4+1:0:0:0:0, 3+1:0:0:0:0, 5+10:0:0:0:4, 3+4:0:0:0:2, 3+1:0:0:0:0, 1+1:0:0:0:0, 3+5:0:0:0:0, 3+3:0:0:0:0, 3+2:0:0:0:0, 3+0:0:0:0:0, 4+3:0:0:0:0, 5+5:0:0:0:0, 6+2:0:0:0:0, 4+2:0:0:0:1, 3+1:0:0:0:1, 6+7:0:0:1:3, 4+5:0:0:0:0, 7+8:0:0:0:1, 6+3:0:0:0:1, 4+4:0:0:0:0, 3+1:0:0:0:0, 6+7:2:0:0:4, 2+1:0:0:0:1, 3+6:0:0:0:2, 3+1:0:0:0:0, 1+0:0:0:0:0, 4+1:0:0:0:1, 5+6:0:0:0:1, 1+1:0:0:0:1, 0+0:0:0:0:0, 0+0:0:0:0:0, 0+0:0:0:0:0, 621+472:13:4:5:95
Db major (5b), 2+2:0:0:0:1, 2+0:0:0:0:0, 5+1:0:0:0:0, 3+0:0:0:0:0, 3+0:0:0:0:0, 3+0:0:0:0:0, 6+4:0:0:0:2, 3+0:0:0:0:0, 7+3:2:0:0:2, 2+0:0:0:0:0, 4+3:0:0:0:2, 3+0:0:0:0:0, 3+0:0:0:0:0, 3+0:0:0:0:0, 5+2:0:0:0:2, 3+0:0:0:0:0, 2+1:0:0:0:0, 4+1:0:0:0:0, 6+2:0:0:0:2, 3+0:0:0:0:0, 1+0:0:0:0:0, 2+0:0:0:0:0, 5+2:0:0:0:1, 3+0:0:0:0:0, 4+1:0:0:0:1, 3+0:0:0:0:0, 8+4:0:0:1:2, 5+1:0:0:0:0, 4+1:0:0:0:0, 2+0:0:0:0:0, 6+2:0:0:0:1, 3+0:0:0:0:0, 5+2:1:0:0:1, 4+0:0:0:0:0, 4+0:0:0:0:0, 5+1:0:0:0:1, 4+2:0:0:0:0, 4+2:0:0:0:1, 6+2:0:0:0:1, 4+0:0:0:0:0, 4+1:1:0:0:1, 4+0:0:0:0:0, 5+1:0:0:0:0, 4+2:0:0:0:0, 3+3:0:0:0:3, 4+1:0:0:0:0, 5+3:0:0:0:1, 4+0:0:0:0:0, 2+0:0:0:0:0, 5+1:0:0:0:0, 7+3:0:0:0:1, 4+1:0:0:0:0, 2+2:0:0:0:0, 4+0:0:0:0:0, 5+1:0:0:0:0, 4+1:0:0:0:1, 5+3:1:0:0:1, 3+0:0:0:0:0, 8+4:0:0:1:2, 6+0:0:0:0:0, 7+4:0:0:0:0, 3+1:0:0:0:0, 7+5:1:0:0:3, 5+1:0:0:0:0, 5+4:1:0:0:1, 3+0:0:0:0:0, 5+1:0:0:0:0, 3+0:0:0:0:0, 2+0:0:0:0:0, 5+0:0:0:0:0, 5+2:0:0:0:1, 5+0:0:0:0:0, 5+2:2:0:0:2, 4+1:0:0:0:0, 4+1:0:0:0:1, 4+0:0:0:0:0, 5+0:0:0:0:0, 5+1:0:0:0:0, 6+3:0:0:0:3, 6+1:0:0:0:1,  , 5+0:0:0:0:0, 5+3:0:0:0:1, 7+1:0:0:0:0,  , 4+1:0:0:0:0, 4+3:0:0:0:0, 5+1:0:0:0:1, 4+0:0:0:0:0, 5+1:0:0:0:0, 9+4:0:0:1:3, 7+1:0:0:0:1, 3+3:0:0:0:0, 2+0:0:0:0:0, 5+1:0:0:0:1, 4+2:0:0:0:0, 6+3:1:0:0:1, 5+3:0:0:0:0, 5+4:1:0:0:4, 5+0:0:0:0:0, 3+0:0:0:0:0, 5+1:0:0:0:0, 8+3:0:0:0:2, 5+0:0:0:0:0, 6+4:2:0:0:2, 3+0:0:0:0:0, 4+5:0:0:0:3, 3+0:0:0:0:0, 3+0:0:0:0:0, 3+0:0:0:0:0, 5+2:0:0:0:1, 5+1:0:0:0:0, 1+0:0:0:0:0, 8+4:0:0:0:1, 9+7:0:0:0:1, 6+1:0:0:0:0, 2+0:0:0:0:0, 4+1:0:0:0:0, 7+4:0:0:0:0, 4+1:0:0:0:0, 3+0:0:0:0:0, 5+0:0:0:0:0, 9+4:0:0:1:3, 6+0:0:0:0:0, 5+2:0:0:0:0, 2+1:0:0:0:0, 11+9:5:0:0:7, 5+1:1:0:0:1, 7+5:1:2:0:4, 5+2:0:0:0:0, 4+1:0:0:0:0, 7+2:0:0:0:2, 3+0:0:0:0:0, 6+2:0:0:0:1, 8+3:0:0:0:2, 4+0:0:0:0:0, 5+1:1:0:0:1, 3+0:0:0:0:0, 3+0:0:0:0:0, 5+1:0:0:0:1, 3+0:0:0:0:0, 7+3:0:0:0:2, 5+2:0:0:0:2, 4+0:0:0:0:0, 3+0:0:0:0:0, 5+0:0:0:0:0, 7+6:0:0:0:1, 4+0:0:0:0:0, 2+0:0:0:0:0, 5+1:0:0:0:0, 6+1:0:0:0:1, 7+2:0:0:0:1, 4+2:0:0:0:0, 3+0:0:0:0:0, 7+3:0:0:1:2, 5+1:1:0:0:1, 6+3:0:0:0:0, 4+4:0:0:0:2, 7+2:0:0:0:1, 4+1:0:0:0:1, 8+3:1:0:0:1, 3+0:0:0:0:0, 5+1:0:0:0:1, 5+0:0:0:0:0, 3+0:0:0:0:0, 5+1:0:0:0:0, 8+4:0:0:0:2, 3+2:0:0:0:2, 0+0:0:0:0:0, 0+0:0:0:0:0, 1+0:0:0:0:0, 765+234:23:2:5:106
B major (5#), 2+1:0:0:0:0, 4+3:0:0:0:0, 5+2:0:0:0:1, 2+0:0:0:0:0, 4+2:0:0:0:0, 3+2:0:0:0:1, 4+4:0:0:0:1, 3+0:0:0:0:0, 6+5:1:0:0:1, 4+3:0:0:0:0, 5+3:1:0:0:2, 2+0:0:0:0:0, 4+2:0:0:0:0, 3+2:0:0:0:1, 3+4:0:0:0:1, 3+0:0:0:0:0, 3+2:0:0:0:0, 4+3:0:0:0:1, 3+3:0:0:0:1, 3+0:0:0:0:0, 1+0:0:0:0:0, 4+0:0:0:0:0, 7+5:0:0:0:0, 2+0:0:0:0:0, 5+2:0:0:0:0, 3+4:0:0:0:3, 5+4:0:0:1:1, 4+4:0:0:0:0, 7+2:0:0:0:1, 5+3:0:0:0:0, 5+1:0:0:0:0, 3+0:0:0:0:0, 5+2:1:0:0:1, 5+2:0:0:0:0, 4+3:0:0:0:1, 3+1:0:0:0:0, 5+4:0:0:0:0, 5+2:0:0:0:1, 4+1:0:0:0:0, 4+1:0:0:0:0, 3+6:1:0:0:1, 5+2:0:0:0:0, 5+5:0:0:0:1, 2+4:0:0:0:0, 3+4:0:0:0:0, 5+2:0:0:0:0, 4+6:0:0:0:3, 4+1:0:0:0:0, 2+0:0:0:0:0, 4+6:0:0:0:1, 6+4:0:0:0:1, 3+2:0:0:0:0, 4+4:0:2:0:0, 5+2:0:0:0:0, 5+2:0:0:0:1, 2+0:0:0:0:0, 5+6:0:0:0:0, 3+2:0:0:0:1, 5+4:0:0:1:2, 4+8:0:0:0:0, 9+3:0:0:0:2, 6+2:0:0:0:1, 6+4:0:0:0:0, 5+3:0:0:0:0, 4+6:1:3:0:1, 5+2:0:0:0:0, 4+3:0:0:0:2, 2+0:0:0:0:0, 3+2:0:0:0:0, 4+5:0:0:0:3, 3+4:0:0:0:2, 4+2:0:0:0:0, 3+4:1:0:0:1, 6+2:0:0:0:0, 3+1:0:0:0:1, 4+1:0:0:0:0, 5+2:0:0:0:0, 5+1:0:0:0:1, 4+2:0:0:0:1, 5+5:0:0:0:0,  , 4+4:0:0:0:3, 4+5:0:0:0:2, 6+6:0:0:0:0,  , 7+3:0:0:0:0, 4+4:0:0:0:1, 4+3:0:0:0:0, 4+3:0:0:0:0, 6+3:0:0:0:0, 6+6:0:0:1:2, 5+8:0:0:0:0, 5+1:0:0:0:0, 5+3:0:0:0:0, 4+0:0:0:0:0, 3+0:0:0:0:0, 7+8:2:0:0:2, 6+2:0:0:0:1, 8+6:0:0:0:3, 4+2:0:0:0:0, 3+1:0:0:0:0, 3+2:0:0:0:1, 6+6:0:0:0:1, 4+5:0:0:0:0, 5+7:2:0:0:3, 5+1:0:0:0:0, 6+5:0:0:0:2, 3+2:0:0:0:0, 4+2:0:0:0:0, 4+5:0:0:0:0, 5+8:0:0:0:0, 4+1:0:0:0:0, 1+2:0:0:0:0, 6+6:2:0:0:5, 5+7:0:0:0:3, 6+3:0:0:0:0, 2+0:0:0:0:0, 6+3:0:0:0:1, 7+3:0:0:0:0, 5+2:0:0:0:0, 4+3:0:0:0:0, 4+5:0:0:0:3, 7+6:0:0:1:1, 4+7:0:0:0:0, 7+2:0:0:0:1, 7+4:1:0:0:3, 8+9:0:0:0:4, 5+3:1:0:0:1, 4+5:1:2:0:4, 8+3:0:0:0:1, 4+3:0:0:0:2, 4+6:0:0:0:0, 4+1:0:0:0:0, 7+5:0:0:0:0, 5+9:0:0:0:2, 4+1:0:0:0:0, 4+7:1:0:0:1, 4+3:0:0:0:0, 3+3:0:0:0:3, 3+1:0:0:0:0, 4+1:0:0:0:0, 6+7:0:0:0:0, 4+2:0:0:0:0, 4+1:0:0:0:0, 2+1:0:0:0:0, 4+5:0:0:0:4, 5+5:0:0:0:1, 4+2:0:0:0:0, 4+0:0:0:0:0, 5+3:0:0:0:0, 6+5:0:0:0:0, 7+2:0:0:0:0, 5+2:0:0:0:1, 3+6:0:0:0:0, 5+6:0:0:1:1, 5+5:0:0:0:0, 8+8:0:0:0:1, 7+3:0:0:0:1, 5+4:0:0:0:0, 4+1:0:0:0:0, 7+9:2:3:0:5, 3+2:0:0:0:1, 3+6:0:0:0:2, 4+6:0:0:0:0, 2+0:0:0:0:0, 5+1:0:0:0:1, 6+3:0:0:0:1, 2+1:0:0:0:0, 0+0:0:0:0:0, 0+0:0:0:0:0, 0+0:0:0:0:0, 736+527:18:10:5:119
Bb minor (5b), 3+2:0:0:0:0, 2+0:0:0:0:0, 5+1:0:0:0:0, 3+0:0:0:0:0, 3+0:0:0:0:0, 3+1:0:0:0:0, 6+4:0:0:0:2, 3+0:0:0:0:0, 7+3:2:0:0:2, 2+0:0:0:0:0, 4+3:0:0:0:0, 3+1:0:0:0:0, 3+0:0:0:0:0, 3+1:0:0:0:0, 5+2:0:0:0:2, 3+0:0:0:0:0, 2+1:0:0:0:0, 4+1:0:0:0:0, 6+2:0:0:0:2, 3+0:0:0:0:0, 1+2:0:0:0:0, 2+0:0:0:0:0, 5+3:0:0:0:1, 3+1:0:0:0:0, 4+1:1:0:0:1, 3+1:0:0:0:0, 8+4:0:0:1:2, 5+1:0:0:0:0, 4+1:0:0:0:0, 2+0:0:0:0:0, 6+2:0:0:0:1, 3+0:0:0:0:0, 5+2:1:0:0:1, 4+0:0:0:0:0, 4+1:0:0:0:0, 5+2:1:0:0:1, 4+2:2:0:0:2, 4+5:0:0:0:0, 6+2:0:0:0:1, 4+0:0:0:0:0, 4+1:1:0:0:1, 4+0:0:0:0:0, 5+1:0:0:0:0, 4+2:0:0:0:0, 3+3:3:0:0:3, 4+2:0:0:0:1, 5+3:0:0:0:1, 4+0:0:0:0:0, 2+0:0:0:0:0, 5+1:0:0:0:0, 7+3:0:0:0:1, 4+1:0:0:0:0, 2+2:0:0:0:0, 4+0:0:0:0:0, 5+1:0:0:0:0, 4+1:0:0:0:1, 5+3:1:0:0:1, 3+2:0:0:0:0, 8+4:0:0:1:2, 6+1:0:0:0:0, 7+2:0:0:0:0, 3+1:0:0:0:0, 7+5:1:0:0:3, 5+1:0:0:0:0, 5+4:1:0:0:1, 3+0:0:0:0:0, 5+1:0:0:0:0, 3+1:0:0:0:0, 2+0:0:0:0:0, 5+1:0:0:0:0, 5+2:0:0:0:1, 5+0:0:0:0:0, 5+2:2:0:0:2, 4+1:0:0:0:0, 4+1:0:0:0:1, 4+3:0:0:0:0, 5+2:0:0:0:0, 5+2:0:0:0:0, 6+3:0:0:0:3, 6+2:1:0:0:1,  , 5+1:0:0:0:0, 5+3:0:0:0:1, 7+3:0:0:0:0,  , 4+1:0:0:0:0, 4+7:0:0:0:0, 5+2:1:0:0:1, 4+1:0:0:0:0, 5+3:0:0:0:0, 9+4:0:0:1:3, 7+2:0:0:0:0, 3+0:0:0:0:0, 2+0:0:0:0:0, 5+1:0:0:0:1, 4+2:0:0:0:0, 6+3:1:0:0:1, 5+1:0:0:0:0, 5+2:1:0:0:1, 5+0:0:0:0:0, 3+1:0:0:0:0, 5+1:0:0:0:0, 8+3:0:0:0:2, 5+0:0:0:0:0, 6+4:2:0:0:2, 3+0:0:0:0:0, 4+6:0:0:0:3, 3+1:0:0:0:0, 3+0:0:0:0:0, 3+1:0:0:0:0, 5+3:1:0:0:1, 5+1:0:0:0:0, 1+0:0:0:0:0, 8+4:1:0:0:1, 9+5:0:0:0:4, 6+1:0:0:0:0, 2+0:0:0:0:0, 4+1:0:0:0:0, 7+4:0:0:0:0, 4+2:0:0:0:0, 3+0:0:0:0:0, 5+1:0:0:0:0, 9+4:0:0:1:3, 6+0:0:0:0:0, 5+2:0:0:0:0, 2+1:0:0:0:0, 11+9:5:0:0:7, 5+1:1:0:0:1, 7+5:4:0:0:4, 5+2:0:0:0:0, 4+4:0:0:0:0, 7+2:0:0:0:2, 3+0:0:0:0:0, 6+2:0:0:0:1, 8+3:0:0:0:2, 4+0:0:0:0:0, 5+1:1:0:0:1, 3+1:0:0:0:0, 3+4:0:0:0:0, 6+3:0:0:0:0, 3+0:0:0:0:0, 7+3:0:0:0:2, 5+2:0:0:0:2, 4+0:0:0:0:0, 3+0:0:0:0:0, 5+1:0:0:0:0, 7+6:0:0:0:1, 4+0:0:0:0:0, 2+0:0:0:0:0, 5+1:0:0:0:0, 6+1:0:0:0:1, 7+2:0:0:0:1, 4+2:0:0:0:0, 3+3:0:0:0:0, 7+3:0:0:1:2, 5+1:1:0:0:1, 6+2:0:0:0:0, 4+4:0:0:0:2, 7+2:0:0:0:1, 4+1:0:0:0:1, 8+3:1:0:0:1, 3+2:0:0:0:0, 5+1:0:0:0:1, 5+0:0:0:0:0, 3+0:0:0:0:0, 5+1:0:0:0:0, 8+4:0:0:0:2, 3+2:2:0:0:2, 0+0:0:0:0:0, 0+0:0:0:0:0, 1+0:0:0:0:0, 767+283:39:0:5:103
G# minor (5#), 2+1:0:0:0:0, 5+2:0:0:0:2, 5+2:0:0:0:1, 2+0:0:0:0:0, 4+1:0:0:0:0, 3+1:0:0:0:1, 4+4:0:0:0:1, 3+0:0:0:0:0, 6+5:1:0:0:1, 4+0:0:0:0:0, 6+2:0:0:0:0, 2+0:0:0:0:0, 4+1:0:0:0:0, 3+2:0:0:0:1, 3+4:0:0:0:1, 3+0:0:0:0:0, 3+2:0:0:0:0, 4+3:0:0:0:1, 3+3:0:0:0:1, 3+0:0:0:0:0, 1+0:0:0:0:0, 4+0:0:0:0:0, 7+5:0:0:0:0, 2+0:0:0:0:0, 5+1:0:0:0:0, 4+1:0:0:0:1, 5+4:0:0:1:1, 4+4:0:0:0:0, 7+2:0:0:0:1, 5+3:0:0:0:0, 5+1:0:0:0:0, 3+0:0:0:0:0, 5+2:1:0:0:1, 5+2:0:0:0:0, 4+3:0:0:0:1, 3+1:0:0:0:0, 5+4:0:0:0:0, 5+2:0:0:0:1, 4+3:0:0:0:1, 4+1:0:0:0:0, 3+6:1:0:0:1, 5+2:0:0:0:0, 5+5:0:0:0:1, 2+4:0:0:0:0, 3+4:0:0:0:0, 5+2:0:0:0:0, 6+4:0:0:0:1, 4+1:0:0:0:0, 2+0:0:0:0:0, 4+6:0:0:0:1, 6+4:0:0:0:1, 3+2:0:0:0:0, 4+4:0:2:0:0, 5+2:0:0:0:0, 5+2:0:0:0:1, 2+4:0:0:0:4, 6+4:0:0:0:4, 3+1:0:0:0:1, 6+4:0:0:1:1, 4+8:0:0:0:0, 9+3:0:0:0:2, 6+2:0:0:0:1, 6+5:0:0:0:3, 5+4:0:0:0:0, 4+6:1:3:0:1, 5+3:0:0:0:0, 4+3:0:0:0:0, 2+0:0:0:0:0, 3+0:0:0:0:0, 4+5:0:0:0:3, 4+4:0:0:0:1, 4+4:0:0:0:0, 3+4:1:0:0:1, 6+2:0:0:0:0, 3+1:0:0:0:1, 4+1:0:0:0:0, 5+1:0:0:0:0, 5+1:0:0:0:1, 4+5:0:0:0:1, 5+5:0:0:0:0,  , 4+4:0:0:0:3, 4+5:0:0:0:2, 6+6:0:0:0:0,  , 6+4:0:0:0:1, 4+1:0:0:0:0, 4+3:0:0:0:0, 4+0:0:0:0:0, 5+1:0:0:0:1, 7+6:0:0:1:1, 5+8:0:0:0:0, 5+1:0:0:0:0, 5+1:0:0:0:1, 4+4:0:0:0:3, 3+4:0:0:0:0, 7+8:2:0:0:2, 6+2:0:0:0:1, 8+6:0:0:0:3, 4+2:0:0:0:0, 3+3:0:0:0:1, 3+2:0:0:0:1, 6+6:0:0:0:1, 4+5:0:0:0:0, 5+7:2:0:0:3, 5+1:0:0:0:0, 6+5:0:0:0:2, 3+3:0:0:0:0, 4+0:0:0:0:0, 4+0:0:0:0:0, 4+6:1:0:0:5, 4+6:0:0:0:0, 1+2:0:0:0:0, 6+6:2:0:0:5, 6+9:0:0:0:3, 5+3:0:0:0:1, 2+0:0:0:0:0, 6+3:0:0:0:1, 7+3:0:0:0:0, 5+3:0:0:0:0, 4+0:0:0:0:0, 4+5:0:0:0:3, 7+6:0:0:1:1, 4+7:0:0:0:0, 7+2:0:0:0:1, 7+4:1:0:0:3, 8+8:0:0:0:0, 6+5:0:0:0:4, 4+5:1:2:0:3, 8+4:0:0:0:1, 4+3:0:0:0:2, 4+6:0:0:0:0, 4+3:0:0:0:1, 7+5:0:0:0:0, 5+9:0:0:0:2, 4+1:0:0:0:0, 4+7:1:0:0:1, 4+3:0:0:0:0, 3+3:0:0:0:3, 3+5:0:0:0:0, 4+3:0:0:0:1, 6+10:0:0:0:4, 4+4:0:0:0:2, 4+1:0:0:0:0, 2+1:0:0:0:0, 4+5:0:0:0:4, 5+5:0:0:0:1, 4+2:0:0:0:0, 4+0:0:0:0:0, 5+2:0:0:0:0, 6+2:0:0:0:0, 7+5:0:0:0:0, 5+2:0:0:0:1, 4+1:0:0:0:1, 6+7:0:0:1:3, 5+5:0:0:0:0, 8+8:0:0:0:1, 7+3:0:0:0:1, 5+7:0:0:0:3, 4+5:0:0:0:0, 7+7:2:0:0:4, 3+1:0:0:0:1, 3+6:0:0:0:2, 4+6:0:0:0:0, 2+2:0:0:0:0, 5+5:1:0:0:2, 6+6:0:0:0:1, 2+1:0:0:0:1, 0+0:0:0:0:0, 0+0:0:0:0:0, 0+0:0:0:0:0, 745+542:18:7:5:147
Gb major (6b), 3+1:0:0:0:0, 3+0:0:0:0:0, 5+1:0:0:0:0, 4+0:0:0:0:0, 4+0:0:0:0:0, 3+0:0:0:0:0, 6+4:0:0:0:2, 4+0:0:0:0:0, 7+3:2:0:0:2, 3+0:0:0:0:0, 4+3:0:0:0:2, 4+0:0:0:0:0, 4+0:0:0:0:0, 3+0:0:0:0:0, 6+2:0:0:0:2, 4+0:0:0:0:0, 2+1:0:0:0:0, 4+1:0:0:0:0, 6+2:0:0:0:2, 4+0:0:0:0:0, 2+0:0:0:0:0, 3+0:0:0:0:0, 5+2:0:0:0:0, 4+0:0:0:0:0, 5+1:0:0:0:1, 3+0:0:0:0:0, 8+4:0:0:1:2, 6+1:0:0:0:0, 5+1:0:0:0:0, 3+0:0:0:0:0, 7+2:0:0:0:1, 4+0:0:0:0:0, 5+2:1:0:0:1, 5+0:0:0:0:0, 4+0:0:0:0:0, 6+1:0:0:0:1, 5+2:0:0:0:0, 5+2:0:0:0:1, 6+2:0:0:0:1, 5+0:0:0:0:0, 4+1:1:0:0:1, 5+0:0:0:0:0, 5+1:0:0:0:0, 5+2:0:0:0:0, 4+3:0:0:0:3, 5+1:0:0:0:0, 5+3:0:0:0:1, 5+0:0:0:0:0, 3+0:0:0:0:0, 5+1:0:0:0:0, 7+3:0:0:0:1, 5+0:0:0:0:0, 2+2:0:0:0:0, 5+0:0:0:0:0, 5+1:0:0:0:0, 5+1:0:0:0:1, 6+3:0:0:0:1, 3+0:0:0:0:0, 8+4:0:0:1:2, 7+1:0:0:0:0, 8+2:0:0:0:0, 4+1:0:0:0:0, 7+3:0:0:0:2, 6+1:0:0:0:0, 5+4:1:0:0:1, 4+0:0:0:0:0, 5+0:0:0:0:0, 4+0:0:0:0:0, 3+0:0:0:0:0, 5+0:0:0:0:0, 5+2:0:0:0:1, 6+0:0:0:0:0, 5+2:2:0:0:2, 5+1:0:0:0:0, 4+1:0:0:0:1, 5+0:0:0:0:0, 6+0:0:0:0:0, 6+1:0:0:0:0, 6+3:0:0:0:3, 7+1:0:0:0:1,  , 5+0:0:0:0:0, 5+3:0:0:0:1, 8+1:0:0:0:0,  , 5+1:0:0:0:1, 4+3:0:0:0:0, 6+1:0:0:0:1, 5+0:0:0:0:0, 6+1:0:0:0:0, 9+4:0:0:1:3, 8+2:0:0:0:0, 4+0:0:0:0:0, 3+0:0:0:0:0, 6+1:0:0:0:1, 5+2:0:0:0:0, 6+3:1:0:0:1, 6+1:0:0:0:0, 6+4:1:0:0:4, 6+0:0:0:0:0, 4+0:0:0:0:0, 5+1:0:0:0:0, 8+3:0:0:0:2, 6+0:0:0:0:0, 6+4:2:0:0:2, 4+0:0:0:0:0, 4+5:0:0:0:3, 4+0:0:0:0:0, 4+0:0:0:0:0, 4+0:0:0:0:0, 6+2:0:0:0:1, 6+1:0:0:0:0, 1+0:0:0:0:0, 8+4:0:0:0:1, 9+7:0:0:0:1, 7+3:0:0:0:1, 3+0:0:0:0:0, 5+1:0:0:0:0, 8+1:0:0:0:0, 5+1:0:0:0:0, 4+0:0:0:0:0, 5+0:0:0:0:0, 9+4:0:0:1:3, 7+1:0:0:0:0, 6+1:0:0:0:0, 3+1:0:0:0:0, 11+9:5:0:0:7, 6+1:1:0:0:1, 7+5:1:2:0:4, 6+2:0:0:0:0, 4+1:0:0:0:0, 8+2:0:0:0:2, 4+0:0:0:0:0, 7+2:0:0:0:1, 8+3:0:0:0:3, 5+0:0:0:0:0, 5+1:1:0:0:1, 4+0:0:0:0:0, 3+0:0:0:0:0, 6+1:0:0:0:1, 4+0:0:0:0:0, 8+3:0:0:0:2, 6+2:0:0:0:2, 5+0:0:0:0:0, 3+0:0:0:0:0, 5+0:0:0:0:0, 7+6:0:0:0:1, 5+0:0:0:0:0, 3+0:0:0:0:0, 6+0:0:0:0:0, 7+1:0:0:0:1, 8+2:0:0:0:1, 5+2:0:0:0:1, 3+0:0:0:0:0, 8+3:0:0:1:2, 6+1:1:0:0:1, 7+2:0:0:0:0, 5+3:0:0:0:1, 7+2:0:0:0:1, 5+1:0:0:0:1, 9+3:1:0:0:1, 3+0:0:0:0:0, 5+1:0:0:0:1, 6+0:0:0:0:0, 4+0:0:0:0:0, 6+1:0:0:0:0, 8+4:0:0:0:2, 4+2:0:0:0:2, 0+0:0:0:0:0, 0+0:0:0:0:0, 1+0:0:0:0:0, 871+220:21:2:5:105
F# major (6#), 2+1:0:0:0:1, 4+0:0:0:0:0, 5+3:0:0:0:0, 3+1:0:0:0:0, 5+1:0:0:0:0, 3+1:0:0:0:1, 5+4:0:0:0:1, 4+0:0:0:0:0, 7+5:1:0:0:1, 4+0:0:0:0:0, 6+2:0:0:0:0, 3+1:0:0:0:0, 5+1:0:0:0:0, 3+1:0:0:0:1, 4+4:0:0:0:2, 4+0:0:0:0:0, 3+2:0:0:0:0, 5+3:0:0:0:1, 4+3:0:0:0:1, 4+1:0:0:0:0, 1+0:0:0:0:0, 4+0:0:0:0:0, 7+5:0:0:0:0, 3+1:0:0:0:0, 6+1:0:0:0:0, 3+1:0:0:0:1, 6+4:0:0:1:1, 5+4:0:0:0:0, 8+2:0:0:0:1, 5+1:0:0:0:1, 6+1:0:0:0:0, 4+0:0:0:0:0, 6+2:1:0:0:1, 6+2:0:0:0:0, 4+3:0:0:0:0, 4+2:0:0:0:0, 6+4:0:0:0:0, 5+2:0:0:0:1, 5+1:0:0:0:0, 5+1:0:0:0:0, 4+6:1:0:0:1, 6+1:0:0:0:0, 6+1:0:0:0:0, 3+3:0:0:0:0, 4+3:0:0:0:0, 6+1:0:0:0:0, 5+4:0:0:0:0, 5+2:0:0:0:0, 3+0:0:0:0:0, 4+6:5:5:0:6, 7+4:0:0:0:1, 4+2:0:0:0:0, 3+4:0:2:0:0, 6+1:0:0:0:0, 5+4:0:0:0:0, 3+0:0:0:0:0, 6+6:0:0:0:0, 3+1:0:0:0:1, 7+4:0:0:1:1, 5+8:0:0:0:0, 10+3:0:0:0:2, 6+2:0:0:0:1, 6+4:1:0:0:1, 6+3:0:0:0:0, 6+3:0:0:0:3, 5+3:0:0:0:0, 5+3:0:0:0:0, 3+4:0:0:0:0, 4+0:0:0:0:0, 5+5:0:0:0:3, 5+4:0:0:0:1, 5+4:0:0:0:0, 4+4:1:0:0:1, 7+5:0:0:0:0, 3+2:0:0:0:1, 5+4:0:0:0:0, 6+1:0:0:0:0, 6+1:0:0:0:1, 5+5:0:0:0:1, 6+7:0:0:0:2,  , 5+4:0:0:0:3, 5+5:0:0:0:2, 7+6:0:0:0:3,  , 7+4:0:0:0:1, 5+1:0:0:0:0, 5+3:0:0:0:0, 5+0:0:0:0:0, 6+1:0:0:0:1, 8+6:0:0:1:1, 6+8:0:0:0:0, 6+1:0:0:0:0, 5+1:0:0:0:1, 5+4:0:0:0:3, 4+4:0:0:0:0, 8+8:2:0:0:2, 7+2:0:0:0:1, 8+6:0:0:0:3, 5+3:0:0:0:0, 4+0:0:0:0:0, 4+2:0:0:0:1, 7+6:0:0:0:1, 5+2:0:0:0:0, 6+7:0:0:0:0, 5+1:0:0:0:0, 6+5:0:0:0:2, 4+3:0:0:0:0, 5+0:0:0:0:0, 4+0:0:0:0:0, 5+6:1:0:0:5, 5+6:0:0:0:0, 1+0:0:0:0:0, 7+6:2:0:0:5, 7+9:0:0:0:3, 6+3:0:0:0:1, 3+0:0:0:0:0, 6+3:0:0:0:1, 8+3:0:0:0:0, 6+3:0:0:0:0, 5+0:0:0:0:0, 5+5:0:0:0:3, 8+6:0:0:1:1, 5+7:0:0:0:0, 8+2:0:0:0:1, 7+4:1:0:0:3, 8+7:1:0:0:4, 6+3:0:0:0:0, 5+5:1:2:0:3, 9+4:0:0:0:1, 5+1:0:0:0:0, 5+4:0:0:0:1, 5+2:0:0:0:0, 7+2:0:0:0:1, 6+5:0:0:0:0, 5+1:0:0:0:0, 5+7:1:0:0:1, 4+0:0:0:0:0, 3+1:0:0:0:0, 4+4:0:0:0:1, 5+1:0:0:0:0, 7+8:3:3:0:5, 5+4:0:0:0:2, 5+3:0:0:0:0, 3+1:0:0:0:0, 5+5:0:0:0:4, 6+5:0:0:0:1, 5+2:0:0:0:0, 4+0:0:0:0:0, 6+2:0:0:0:0, 7+2:0:0:0:0, 8+5:0:0:0:0, 6+2:0:0:0:1, 3+1:0:0:0:1, 7+7:0:0:1:3, 6+5:0:0:0:0, 9+8:0:0:0:1, 7+3:0:0:0:1, 6+4:0:0:0:0, 5+1:0:0:0:0, 8+7:2:0:0:4, 3+1:0:0:0:1, 4+6:0:0:0:2, 5+6:0:0:0:0, 3+2:0:0:0:1, 6+1:0:0:0:1, 7+6:0:0:0:1, 3+2:0:0:0:1, 0+0:0:0:0:0, 0+0:0:0:0:0, 1+1:0:0:0:0, 866+502:24:12:5:132
Eb minor (6b), 2+2:0:1:0:0, 3+0:0:0:0:0, 5+1:0:0:0:0, 4+0:0:0:0:0, 4+0:0:0:0:0, 3+0:0:0:0:0, 6+4:0:0:0:2, 4+0:0:0:0:0, 7+3:2:0:0:2, 3+0:0:0:0:0, 4+3:0:0:0:2, 4+0:0:0:0:0, 4+0:0:0:0:0, 3+0:0:0:0:0, 6+2:0:0:0:2, 4+0:0:0:0:0, 2+1:0:0:0:0, 4+1:0:0:0:0, 6+2:0:0:0:2, 4+0:0:0:0:0, 2+0:0:0:0:0, 3+0:0:0:0:0, 5+2:0:0:0:1, 4+0:0:0:0:0, 5+1:0:0:0:1, 3+0:0:0:0:0, 8+4:0:0:1:2, 6+1:0:0:0:0, 5+1:0:0:0:0, 3+0:0:0:0:0, 7+2:0:0:0:1, 4+0:0:0:0:0, 5+2:1:0:0:1, 5+0:0:0:0:0, 4+0:0:0:0:0, 6+1:0:0:0:1, 5+2:0:0:0:0, 5+2:0:0:0:1, 6+2:0:0:0:1, 5+0:0:0:0:0, 4+1:1:0:0:1, 5+0:0:0:0:0, 5+1:0:0:0:0, 5+2:0:0:0:0, 4+3:0:0:0:3, 5+1:0:0:0:0, 5+3:0:0:0:1, 5+0:0:0:0:0, 3+0:0:0:0:0, 5+1:0:0:0:0, 7+3:0:0:0:1, 5+0:0:0:0:0, 2+2:0:0:0:0, 5+0:0:0:0:0, 5+1:0:0:0:0, 5+1:0:0:0:1, 6+3:0:0:0:1, 3+0:0:0:0:0, 8+4:0:0:1:2, 7+1:0:0:0:0, 8+2:0:0:0:0, 4+1:0:0:0:0, 7+3:0:0:0:2, 6+1:0:0:0:0, 5+4:1:0:0:1, 4+0:0:0:0:0, 5+0:0:0:0:0, 4+0:0:0:0:0, 3+0:0:0:0:0, 5+0:0:0:0:0, 5+2:0:0:0:1, 6+0:0:0:0:0, 5+2:2:0:0:2, 5+1:0:0:0:0, 4+1:0:0:0:1, 5+0:0:0:0:0, 6+0:0:0:0:0, 6+1:0:0:0:0, 6+3:0:0:0:3, 7+1:0:0:0:1,  , 5+0:0:0:0:0, 5+3:0:0:0:1, 8+1:0:0:0:0,  , 5+1:0:0:0:1, 4+3:0:0:0:0, 6+1:0:0:0:1, 5+0:0:0:0:0, 6+1:0:0:0:0, 9+4:0:0:1:3, 8+2:0:0:0:0, 4+0:0:0:0:0, 3+0:0:0:0:0, 6+1:0:0:0:1, 5+2:0:0:0:0, 6+3:1:0:0:1, 6+3:0:0:0:0, 6+4:1:0:0:4, 6+0:0:0:0:0, 4+0:0:0:0:0, 5+1:0:0:0:0, 8+3:0:0:0:2, 6+0:0:0:0:0, 6+4:2:0:0:2, 4+0:0:0:0:0, 4+5:0:0:0:3, 4+0:0:0:0:0, 4+0:0:0:0:0, 4+0:0:0:0:0, 6+2:0:0:0:1, 6+1:0:0:0:0, 1+0:0:0:0:0, 8+4:0:0:0:1, 9+7:0:0:0:1, 7+1:0:0:0:0, 3+0:0:0:0:0, 5+1:0:0:0:0, 8+1:0:0:0:0, 5+1:0:0:0:0, 4+0:0:0:0:0, 5+0:0:0:0:0, 9+4:0:0:1:3, 7+1:0:0:0:0, 6+2:0:0:0:0, 3+1:0:0:0:0, 11+9:5:0:0:7, 6+1:1:0:0:1, 7+5:1:2:0:4, 6+2:0:0:0:0, 4+1:0:0:0:0, 8+2:0:0:0:2, 4+0:0:0:0:0, 7+2:0:0:0:1, 8+3:0:0:0:3, 5+0:0:0:0:0, 5+1:1:0:0:1, 4+0:0:0:0:0, 3+0:0:0:0:0, 6+1:0:0:0:1, 4+0:0:0:0:0, 8+3:0:0:0:2, 6+2:0:0:0:2, 5+0:0:0:0:0, 3+0:0:0:0:0, 5+0:0:0:0:0, 7+6:0:0:0:1, 5+0:0:0:0:0, 3+0:0:0:0:0, 6+0:0:0:0:0, 7+1:0:0:0:1, 8+2:0:0:0:1, 5+2:0:0:0:1, 3+0:0:0:0:0, 8+3:0:0:1:2, 6+1:1:0:0:1, 7+2:0:0:0:0, 5+3:0:0:0:1, 7+2:0:0:0:1, 5+1:0:0:0:1, 9+3:1:0:0:1, 3+0:0:0:0:0, 5+1:0:0:0:1, 6+0:0:0:0:0, 4+0:0:0:0:0, 6+1:0:0:0:0, 8+4:0:0:0:2, 4+2:0:0:0:2, 0+0:0:0:0:0, 0+0:0:0:0:0, 1+0:0:0:0:0, 870+222:21:3:5:105
D# minor (6#), 2+1:0:0:0:1, 4+0:0:0:0:0, 5+3:0:0:0:0, 3+1:0:0:0:0, 5+1:0:0:0:0, 3+1:0:0:0:1, 5+4:0:0:0:1, 4+0:0:0:0:0, 7+5:1:0:0:1, 4+0:0:0:0:0, 6+2:0:0:0:0, 3+1:0:0:0:0, 5+1:0:0:0:0, 3+0:0:0:0:0, 4+1:0:0:0:1, 4+0:0:0:0:0, 3+2:0:0:0:0, 5+3:0:0:0:1, 4+3:0:0:0:1, 4+1:0:0:0:0, 1+0:0:0:0:0, 4+0:0:0:0:0, 7+5:0:0:0:0, 3+1:0:0:0:0, 6+1:0:0:0:0, 3+1:0:0:0:1, 6+4:0:0:1:1, 5+1:0:0:0:0, 8+4:0:0:0:0, 5+1:0:0:0:1, 6+1:0:0:0:0, 4+1:0:0:0:0, 5+1:0:0:0:0, 6+2:0:0:0:0, 4+3:0:0:0:0, 4+2:0:0:0:0, 6+4:0:0:0:0, 5+2:0:0:0:1, 5+1:0:0:0:0, 5+1:0:0:0:0, 4+6:1:0:0:1, 6+1:0:0:0:0, 6+1:0:0:0:0, 3+3:0:0:0:0, 4+3:0:0:0:0, 6+1:0:0:0:0, 5+4:0:0:0:0, 5+2:0:0:0:0, 3+0:0:0:0:0, 4+6:5:5:0:6, 7+4:0:0:0:1, 4+0:0:0:0:0, 3+4:0:2:0:0, 6+1:0:0:0:0, 5+4:0:0:0:0, 3+0:0:0:0:0, 7+4:0:0:0:4, 3+1:0:0:0:1, 7+4:0:0:1:1, 5+1:0:0:0:0, 10+8:0:0:0:1, 6+2:0:0:0:1, 6+4:1:0:0:1, 6+3:0:0:0:0, 6+3:0:0:0:3, 5+3:0:0:0:0, 5+3:0:0:0:0, 3+4:0:0:0:0, 4+0:0:0:0:0, 5+3:0:0:0:0, 4+4:0:0:0:0, 5+1:0:0:0:0, 4+4:1:0:0:1, 7+5:0:0:0:0, 3+2:0:0:0:1, 5+4:0:0:0:0, 6+1:0:0:0:0, 6+1:0:0:0:1, 5+2:0:0:0:1, 6+1:0:0:0:0,  , 5+1:0:0:0:0, 5+3:0:0:0:0, 7+2:0:0:0:0,  , 7+4:0:0:0:1, 5+1:0:0:0:0, 5+3:0:0:0:0, 5+0:0:0:0:0, 6+1:0:0:0:1, 7+4:0:0:1:1, 6+2:0:0:0:0, 6+5:0:0:0:0, 5+1:0:0:0:1, 5+0:0:0:0:0, 4+0:0:0:0:0, 8+8:2:0:0:2, 7+2:0:0:0:1, 8+6:0:0:0:3, 5+3:0:0:0:0, 4+0:0:0:0:0, 4+2:0:0:0:1, 7+6:0:0:0:1, 5+2:0:0:0:0, 6+7:0:0:0:0, 5+1:0:0:0:0, 6+5:0:0:0:2, 4+3:0:0:0:0, 5+0:0:0:0:0, 4+0:0:0:0:0, 5+6:1:0:0:5, 5+6:0:0:0:0, 1+0:0:0:0:0, 7+6:2:0:0:5, 7+9:0:0:0:3, 6+3:0:0:0:1, 3+0:0:0:0:0, 6+3:0:0:0:1, 8+3:0:0:0:0, 6+3:0:0:0:0, 5+0:0:0:0:0, 5+1:0:0:0:0, 7+4:0:0:1:1, 5+4:0:0:0:0, 8+2:0:0:0:1, 7+4:1:0:0:3, 8+7:1:0:0:4, 6+3:0:0:0:0, 5+5:1:2:0:3, 9+4:0:0:0:1, 5+1:0:0:0:0, 5+4:0:0:0:1, 5+2:0:0:0:0, 7+2:0:0:0:1, 6+5:0:0:0:0, 5+1:0:0:0:0, 5+7:1:0:0:1, 4+0:0:0:0:0, 3+1:0:0:0:0, 4+4:0:0:0:1, 5+1:0:0:0:0, 7+3:0:0:0:0, 5+0:0:0:0:0, 5+1:0:0:0:0, 3+0:0:0:0:0, 5+1:0:0:0:0, 5+5:0:0:0:0, 5+2:0:0:0:0, 4+0:0:0:0:0, 6+2:0:0:0:0, 7+2:0:0:0:0, 8+5:0:0:0:0, 6+2:0:0:0:1, 3+1:0:0:0:1, 7+7:0:0:1:3, 6+5:0:0:0:0, 9+8:0:0:0:1, 7+3:0:0:0:1, 6+4:0:0:0:0, 5+1:0:0:0:0, 8+7:2:0:0:4, 3+1:0:0:0:1, 4+6:0:0:0:2, 5+6:0:0:0:0, 3+0:0:0:0:0, 6+1:0:0:0:1, 7+6:0:0:0:1, 3+2:0:0:0:1, 0+0:0:0:0:0, 0+0:0:0:0:0, 1+0:0:0:0:0, 862+428:20:9:5:98
Cb major (7b), 3+1:0:0:0:0, 4+0:0:0:0:0, 6+1:0:0:0:0, 4+0:0:0:0:0, 5+0:0:0:0:0, 4+0:0:0:0:0, 7+4:0:0:0:2, 4+0:0:0:0:0, 7+3:2:0:0:2, 4+0:0:0:0:0, 5+1:0:0:0:0, 4+0:0:0:0:0, 5+0:0:0:0:0, 4+0:0:0:0:0, 7+2:0:0:0:2, 4+0:0:0:0:0, 2+1:0:0:0:0, 5+1:0:0:0:0, 7+2:0:0:0:2, 4+0:0:0:0:0, 2+0:0:0:0:0, 4+0:0:0:0:0, 6+2:0:0:0:0, 4+0:0:0:0:0, 6+1:0:0:0:1, 4+0:0:0:0:0, 8+4:0:0:1:2, 6+1:0:0:0:0, 6+1:0:0:0:0, 4+1:0:0:0:0, 8+2:0:0:0:1, 4+0:0:0:0:0, 5+2:1:0:0:1, 6+0:0:0:0:0, 5+0:0:0:0:0, 6+1:0:0:0:1, 6+2:0:0:0:0, 6+2:0:0:0:1, 7+2:0:0:0:1, 5+0:0:0:0:0, 4+1:1:0:0:1, 6+0:0:0:0:0, 6+1:0:0:0:0, 5+2:0:0:0:0, 5+3:0:0:0:3, 6+1:0:0:0:0, 6+3:0:0:0:1, 5+0:0:0:0:0, 3+0:0:0:0:0, 6+1:0:0:0:0, 8+3:0:0:0:1, 5+1:0:0:0:0, 3+2:0:0:0:0, 6+0:0:0:0:0, 6+1:0:0:0:0, 5+1:0:0:0:1, 7+3:1:0:0:1, 4+0:0:0:0:0, 8+4:0:0:1:2, 7+1:0:0:0:0, 9+2:0:0:0:0, 5+1:0:0:0:0, 8+3:0:0:0:2, 6+1:0:0:0:0, 6+4:1:0:0:1, 5+0:0:0:0:0, 6+0:0:0:0:0, 4+0:0:0:0:0, 4+0:0:0:0:0, 6+0:0:0:0:0, 6+2:0:0:0:1, 6+0:0:0:0:0, 5+2:2:0:0:2, 6+1:0:0:0:0, 5+1:0:0:0:1, 6+0:0:0:0:0, 7+0:0:0:0:0, 7+1:0:0:0:0, 7+3:0:0:0:3, 7+1:0:0:0:1,  , 6+0:0:0:0:0, 6+3:0:0:0:1, 8+1:0:0:0:0,  , 6+1:0:0:0:0, 5+3:0:0:0:0, 7+1:0:0:0:1, 6+0:0:0:0:0, 7+1:0:0:0:0, 9+4:0:0:1:3, 8+2:0:0:0:0, 5+0:0:0:0:0, 4+1:0:0:0:0, 7+1:0:0:0:1, 5+2:0:0:0:0, 6+3:1:0:0:1, 7+1:0:0:0:0, 7+2:1:0:0:1, 6+0:0:0:0:0, 5+0:0:0:0:0, 6+1:0:0:0:0, 9+3:0:0:0:2, 6+0:0:0:0:0, 7+4:2:0:0:2, 5+0:0:0:0:0, 5+5:0:0:0:3, 5+0:0:0:0:0, 5+0:0:0:0:0, 5+0:0:0:0:0, 7+2:0:0:0:1, 6+1:0:0:0:0, 1+0:0:0:0:0, 9+4:0:0:0:1, 10+7:0:0:0:1, 7+1:0:0:0:0, 3+0:0:0:0:0, 6+1:0:0:0:0, 9+1:0:0:0:0, 6+1:0:0:0:0, 5+0:0:0:0:0, 6+0:0:0:0:0, 9+4:0:0:1:3, 7+1:0:0:0:0, 7+1:0:0:0:0, 4+1:0:0:0:0, 12+9:5:0:0:7, 7+1:1:0:0:1, 7+5:1:2:0:4, 7+2:0:0:0:0, 5+1:0:0:0:0, 8+2:0:0:0:2, 5+0:0:0:0:0, 8+2:0:0:0:1, 9+3:0:0:0:3, 5+0:0:0:0:0, 5+1:1:0:0:1, 5+0:0:0:0:0, 4+0:0:0:0:0, 6+1:0:0:0:1, 5+0:0:0:0:0, 9+3:0:0:0:2, 7+2:0:0:0:2, 5+0:0:0:0:0, 3+0:0:0:0:0, 6+0:0:0:0:0, 8+6:0:0:0:1, 5+0:0:0:0:0, 4+0:0:0:0:0, 7+0:0:0:0:0, 8+1:0:0:0:1, 9+2:0:0:0:1, 6+2:0:0:0:0, 4+0:0:0:0:0, 8+3:0:0:1:2, 6+1:1:0:0:1, 8+2:0:0:0:0, 6+3:0:0:0:1, 8+2:0:0:0:1, 5+1:0:0:0:1, 9+3:1:0:0:1, 4+0:0:0:0:0, 6+1:0:0:0:1, 6+0:0:0:0:0, 4+0:0:0:0:0, 7+1:0:0:0:0, 9+4:0:0:0:2, 4+2:2:0:0:2, 0+0:0:0:0:0, 0+0:0:0:0:0, 0+0:0:0:0:0, 979+217:24:2:5:97
C# major (7#), 3+1:0:0:0:1, 4+0:0:0:0:0, 6+3:0:0:0:0, 4+0:0:0:0:0, 5+1:0:0:0:0, 4+1:0:0:0:1, 6+4:0:0:0:1, 4+0:0:0:0:0, 7+5:1:0:0:1, 4+0:0:0:0:0, 7+2:0:0:0:0, 4+0:0:0:0:0, 5+1:0:0:0:0, 4+0:0:0:0:0, 5+1:0:0:0:1, 4+0:0:0:0:0, 3+2:0:0:0:0, 6+3:0:0:0:1, 5+3:0:0:0:1, 4+0:0:0:0:0, 2+0:0:0:0:0, 4+0:0:0:0:0, 8+5:0:0:0:0, 4+0:0:0:0:0, 6+1:0:0:0:0, 4+1:0:0:0:1, 7+4:0:0:1:1, 5+1:0:0:0:0, 8+4:0:0:0:0, 5+1:0:0:0:1, 7+1:0:0:0:0, 4+0:0:0:0:0, 6+2:1:0:0:1, 6+2:0:0:0:0, 5+3:0:0:0:0, 5+2:0:0:0:0, 6+4:0:0:0:0, 6+2:0:0:0:1, 6+3:0:0:0:1, 5+1:0:0:0:0, 4+6:1:0:0:1, 6+1:0:0:0:0, 7+1:0:0:0:0, 4+3:0:0:0:0, 4+3:0:0:0:0, 7+1:0:0:0:0, 8+4:0:0:0:1, 5+1:0:0:0:0, 3+0:0:0:0:0, 5+6:5:5:0:6, 8+4:0:0:0:1, 5+0:0:0:0:0, 3+3:0:2:0:2, 6+1:0:0:0:0, 6+4:0:0:0:0, 4+0:0:0:0:0, 6+4:0:0:0:4, 4+1:0:0:0:1, 8+4:0:0:1:1, 6+1:0:0:0:0, 10+8:0:0:0:1, 6+2:0:0:0:1, 7+4:1:0:0:1, 6+3:0:0:0:0, 6+3:0:0:0:3, 5+3:0:0:0:0, 6+3:0:0:0:0, 4+0:0:0:0:0, 4+0:0:0:0:0, 6+3:0:0:0:0, 6+4:0:0:0:1, 6+2:0:0:0:0, 4+2:1:0:0:1, 7+5:0:0:0:0, 4+2:0:0:0:1, 6+4:0:0:0:0, 7+1:0:0:0:0, 7+1:0:0:0:1, 6+5:0:0:0:1, 7+2:0:0:0:0,  , 6+4:0:0:0:3, 6+5:0:0:0:2, 8+2:0:0:0:0,  , 7+4:0:0:0:1, 6+1:0:0:0:0, 6+3:0:0:0:0, 6+0:0:0:0:0, 7+1:0:0:0:1, 9+6:0:0:1:1, 7+3:0:0:0:0, 6+5:0:0:0:0, 5+1:0:0:0:1, 6+0:0:0:0:0, 4+0:0:0:0:0, 8+8:2:0:0:2, 7+2:0:0:0:1, 9+6:0:0:0:3, 6+2:0:0:0:0, 5+0:0:0:0:0, 5+2:0:0:0:1, 8+6:0:0:0:1, 6+2:0:0:0:0, 6+7:0:0:0:0, 5+1:0:0:0:0, 7+5:0:0:0:2, 5+3:0:0:0:0, 5+0:0:0:0:0, 5+0:0:0:0:0, 6+1:0:0:0:1, 5+1:0:0:0:0, 1+0:0:0:0:0, 8+6:2:0:0:5, 8+9:0:0:0:3, 7+3:0:0:0:1, 3+0:0:0:0:0, 6+3:0:0:0:1, 9+3:0:0:0:0, 7+3:0:0:0:0, 5+0:0:0:0:0, 6+5:0:0:0:0, 8+5:0:0:1:1, 6+1:0:0:0:0, 8+2:0:0:0:1, 7+4:1:0:0:3, 9+7:1:0:0:4, 6+3:0:0:0:0, 5+5:1:2:0:3, 9+4:0:0:0:1, 6+1:0:0:0:0, 6+4:0:0:0:1, 5+2:0:0:0:0, 9+5:0:0:0:0, 7+9:0:0:0:0, 5+1:0:0:0:0, 5+7:1:0:0:1, 5+3:0:0:0:0, 4+1:0:0:0:0, 5+4:0:0:0:1, 5+1:0:0:0:0, 8+3:0:0:0:0, 6+0:0:0:0:0, 5+1:0:0:0:0, 3+1:0:0:0:0, 6+5:0:0:0:0, 6+3:0:0:0:0, 5+2:0:0:0:0, 4+0:0:0:0:0, 7+2:0:0:0:0, 8+2:0:0:0:0, 9+5:0:0:0:0, 6+2:0:0:0:1, 4+1:0:0:0:1, 8+7:0:0:1:3, 6+5:0:0:0:0, 9+8:0:0:0:1, 8+3:0:0:0:1, 7+4:0:0:0:0, 5+1:0:0:0:0, 8+7:2:0:0:4, 4+1:0:0:0:1, 5+6:0:0:0:2, 5+1:0:0:0:0, 3+0:0:0:0:0, 7+1:0:0:0:1, 8+6:0:0:0:1, 3+1:0:0:0:1, 0+0:0:0:0:0, 0+0:0:0:0:0, 1+0:0:0:0:0, 963+429:20:9:5:104
Ab minor (7b), 3+1:0:0:0:0, 4+0:0:0:0:0, 6+1:0:0:0:0, 4+0:0:0:0:0, 5+0:0:0:0:0, 4+0:0:0:0:0, 7+4:0:0:0:2, 4+0:0:0:0:0, 7+3:2:0:0:2, 4+0:0:0:0:0, 5+1:0:0:0:0, 4+0:0:0:0:0, 5+0:0:0:0:0, 4+0:0:0:0:0, 7+2:0:0:0:2, 4+0:0:0:0:0, 2+1:0:0:0:0, 5+1:0:0:0:0, 7+2:0:0:0:2, 4+0:0:0:0:0, 2+0:0:0:0:0, 4+0:0:0:0:0, 6+2:0:0:0:0, 4+0:0:0:0:0, 6+1:0:0:0:1, 4+0:0:0:0:0, 8+4:0:0:1:2, 6+1:0:0:0:0, 6+1:0:0:0:0, 4+1:0:0:0:0, 8+2:0:0:0:1, 4+0:0:0:0:0, 5+2:1:0:0:1, 6+0:0:0:0:0, 5+0:0:0:0:0, 6+1:0:0:0:1, 6+2:0:0:0:0, 6+2:0:0:0:1, 7+2:0:0:0:1, 5+0:0:0:0:0, 4+1:1:0:0:1, 6+0:0:0:0:0, 6+1:0:0:0:0, 5+2:0:0:0:0, 5+3:0:0:0:3, 6+1:0:0:0:0, 6+3:0:0:0:1, 5+0:0:0:0:0, 3+0:0:0:0:0, 6+1:0:0:0:0, 8+3:0:0:0:1, 5+1:0:0:0:0, 3+2:0:0:0:0, 6+0:0:0:0:0, 6+1:0:0:0:0, 5+1:0:0:0:1, 7+3:1:0:0:1, 4+0:0:0:0:0, 8+4:0:0:1:2, 7+1:0:0:0:0, 9+2:0:0:0:0, 5+1:0:0:0:0, 8+3:0:0:0:2, 6+1:0:0:0:0, 6+4:1:0:0:1, 5+0:0:0:0:0, 6+0:0:0:0:0, 4+0:0:0:0:0, 4+0:0:0:0:0, 6+0:0:0:0:0, 6+2:0:0:0:1, 6+0:0:0:0:0, 5+2:2:0:0:2, 6+1:0:0:0:0, 5+1:0:0:0:1, 6+0:0:0:0:0, 7+0:0:0:0:0, 7+1:0:0:0:0, 7+3:0:0:0:3, 7+1:0:0:0:1,  , 6+0:0:0:0:0, 6+3:0:0:0:1, 8+1:0:0:0:0,  , 6+1:0:0:0:0, 5+3:0:0:0:0, 7+1:0:0:0:1, 6+0:0:0:0:0, 7+1:0:0:0:0, 9+4:0:0:1:3, 8+2:0:0:0:0, 5+0:0:0:0:0, 4+1:0:0:0:0, 7+1:0:0:0:1, 5+2:0:0:0:0, 6+3:1:0:0:1, 7+1:0:0:0:0, 7+4:1:0:0:4, 6+0:0:0:0:0, 5+0:0:0:0:0, 6+1:0:0:0:0, 9+3:0:0:0:2, 6+0:0:0:0:0, 7+4:2:0:0:2, 5+0:0:0:0:0, 5+5:0:0:0:3, 5+0:0:0:0:0, 5+0:0:0:0:0, 5+0:0:0:0:0, 7+2:0:0:0:1, 6+1:0:0:0:0, 1+0:0:0:0:0, 9+4:0:0:0:1, 10+7:0:0:0:1, 7+1:0:0:0:0, 3+0:0:0:0:0, 6+1:0:0:0:0, 9+1:0:0:0:0, 6+1:0:0:0:0, 5+0:0:0:0:0, 6+0:0:0:0:0, 9+4:0:0:1:3, 7+1:0:0:0:0, 7+1:0:0:0:0, 4+1:0:0:0:0, 12+9:5:0:0:7, 7+1:1:0:0:1, 7+5:1:2:0:4, 7+2:0:0:0:0, 5+1:0:0:0:0, 8+2:0:0:0:2, 5+0:0:0:0:0, 8+2:0:0:0:1, 9+3:0:0:0:3, 5+0:0:0:0:0, 5+1:1:0:0:1, 5+0:0:0:0:0, 4+0:0:0:0:0, 6+1:0:0:0:1, 5+0:0:0:0:0, 9+3:0:0:0:2, 7+2:0:0:0:2, 5+0:0:0:0:0, 3+0:0:0:0:0, 6+0:0:0:0:0, 8+6:0:0:0:1, 5+0:0:0:0:0, 4+0:0:0:0:0, 7+0:0:0:0:0, 8+1:0:0:0:1, 9+2:0:0:0:1, 6+2:0:0:0:0, 4+0:0:0:0:0, 8+3:0:0:1:2, 6+1:1:0:0:1, 8+2:0:0:0:0, 6+3:0:0:0:1, 8+2:0:0:0:1, 5+1:0:0:0:1, 9+3:1:0:0:1, 4+0:0:0:0:0, 6+1:0:0:0:1, 6+0:0:0:0:0, 4+0:0:0:0:0, 7+1:0:0:0:0, 9+4:0:0:0:2, 4+2:0:0:0:2, 0+0:0:0:0:0, 0+0:0:0:0:0, 0+0:0:0:0:0, 979+219:22:2:5:100
A# minor (7#), 3+1:0:0:0:1, 4+0:0:0:0:0, 6+3:0:0:0:0, 4+0:0:0:0:0, 5+1:0:0:0:0, 4+1:0:0:0:0, 6+4:0:0:0:1, 4+0:0:0:0:0, 7+5:1:0:0:1, 4+0:0:0:0:0, 7+2:0:0:0:0, 4+0:0:0:0:0, 5+1:0:0:0:0, 4+0:0:0:0:0, 5+1:0:0:0:1, 4+0:0:0:0:0, 3+2:0:0:0:0, 6+3:0:0:0:1, 5+3:0:0:0:1, 4+0:0:0:0:0, 2+0:0:0:0:0, 4+0:0:0:0:0, 8+5:0:0:0:0, 4+0:0:0:0:0, 6+1:0:0:0:0, 4+3:0:0:0:0, 7+4:0:0:1:1, 5+1:0:0:0:0, 8+4:0:0:0:0, 5+1:0:0:0:1, 7+1:0:0:0:0, 4+0:0:0:0:0, 6+2:1:0:0:1, 6+2:0:0:0:0, 5+3:0:0:0:0, 5+2:0:0:0:0, 6+4:0:0:0:0, 6+2:0:0:0:1, 6+1:0:0:0:0, 5+1:0:0:0:0, 4+6:1:0:0:1, 6+1:0:0:0:0, 7+1:0:0:0:0, 4+3:0:0:0:0, 4+3:0:0:0:0, 7+1:0:0:0:0, 6+4:0:0:0:0, 5+2:0:0:0:0, 3+0:0:0:0:0, 5+6:5:5:0:6, 8+4:0:0:0:1, 5+0:0:0:0:0, 3+3:0:2:0:2, 6+1:0:0:0:0, 6+4:0:0:0:0, 4+0:0:0:0:0, 6+4:0:0:0:4, 4+1:0:0:0:1, 8+4:0:0:1:1, 6+1:0:0:0:0, 10+8:0:0:0:1, 6+2:0:0:0:1, 7+4:1:0:0:1, 6+3:0:0:0:0, 6+3:0:0:0:3, 5+3:0:0:0:0, 6+3:0:0:0:0, 4+0:0:0:0:0, 4+0:0:0:0:0, 6+3:0:0:0:0, 5+4:0:0:0:0, 6+2:0:0:0:0, 4+2:1:0:0:1, 7+5:0:0:0:0, 4+2:0:0:0:1, 6+4:0:0:0:0, 7+1:0:0:0:0, 7+1:0:0:0:1, 6+2:0:0:0:1, 7+2:0:0:0:0,  , 6+1:0:0:0:0, 6+3:0:0:0:0, 8+2:0:0:0:0,  , 7+4:0:0:0:1, 6+1:0:0:0:0, 6+3:0:0:0:0, 6+0:0:0:0:0, 7+1:0:0:0:1, 8+4:0:0:1:1, 7+3:0:0:0:0, 6+5:0:0:0:0, 5+1:0:0:0:1, 6+0:0:0:0:0, 4+0:0:0:0:0, 8+8:2:0:0:2, 7+2:0:0:0:1, 9+6:0:0:0:3, 6+2:0:0:0:0, 5+0:0:0:0:0, 5+1:0:0:0:0, 8+6:0:0:0:1, 6+2:0:0:0:0, 6+7:0:0:0:0, 5+1:0:0:0:0, 7+5:0:0:0:2, 5+3:0:0:0:0, 5+0:0:0:0:0, 5+0:0:0:0:0, 6+1:0:0:0:1, 5+1:0:0:0:0, 1+0:0:0:0:0, 10+4:0:0:0:0, 7+7:0:0:0:1, 7+3:0:0:0:1, 3+0:0:0:0:0, 6+3:0:0:0:1, 9+3:0:0:0:0, 7+3:0:0:0:0, 5+0:0:0:0:0, 6+5:0:0:0:0, 8+5:0:0:1:1, 6+1:0:0:0:0, 8+2:0:0:0:1, 7+4:1:0:0:3, 9+7:1:0:0:4, 6+3:0:0:0:0, 5+5:1:2:0:3, 9+4:0:0:0:1, 6+1:0:0:0:0, 6+4:0:0:0:1, 5+2:0:0:0:0, 9+5:0:0:0:0, 7+9:0:0:0:0, 5+1:0:0:0:0, 5+7:1:0:0:1, 5+3:0:0:0:0, 4+1:0:0:0:0, 5+4:0:0:0:1, 5+1:0:0:0:0, 8+3:0:0:0:0, 6+0:0:0:0:0, 5+1:0:0:0:0, 3+1:0:0:0:0, 6+5:0:0:0:0, 6+3:0:0:0:0, 5+2:0:0:0:0, 4+0:0:0:0:0, 7+2:0:0:0:0, 8+2:0:0:0:0, 9+5:0:0:0:0, 6+2:0:0:0:1, 4+3:0:0:0:0, 8+7:0:0:1:3, 6+5:0:0:0:0, 9+8:0:0:0:1, 8+3:0:0:0:1, 7+4:0:0:0:0, 5+1:0:0:0:0, 8+8:2:3:0:3, 4+1:0:0:0:1, 5+6:0:0:0:2, 5+1:0:0:0:0, 3+0:0:0:0:0, 7+1:0:0:0:1, 8+6:0:0:0:1, 3+1:0:0:0:1, 0+0:0:0:0:0, 0+0:0:0:0:0, 1+0:0:0:0:0, 960+418:18:12:5:84
