 , 0, 1, 2, 3, 4, 5, 6, 7, 8, 9, 10, 11, 12, 13, 14, 15, 16, 17, 18, 19, 20, 21, 22, 23, 24, 25, 26, 27, 28, 29, 30, 31, 32, 33, 34, 35, 36, 37, 38, 39, 40, 41, 42, 43, 44, 45, 46, 47, 48, 49, 50, 51, 52, 53, 54, 55, 56, 57, 58, 59, 60, 61, 62, 63, 64, 65, 66, 67, 68, 69, 70, 71, 72, 73, 74, 75, 76, 77, 78, 79, 80, 81, 82, 83, 84, 85, 86, 87, 88, 89, 90, 91, 92, 93, 94, 95, 96, 97, 98, 99, 100, 101, 102, 103, 104, 105, 106, 107, 108, 109, 110, 111, 112, 113, 114, 115, 116, 117, 118, 119, 120, 121, 122, 123, 124, 125, 126, 127, 128, 129, 130, 131, 132, 133, 134, 135, 136, 137, 138, 139, 140, 141, 142, 143, 144, 145, 146, 147, 148, 149, 150, 151, 152, 153, 154, 155, 156, 157, 158, 159, 160, 161, 162, 163, 164, 165, 166, 167, 168, 169, 170, 171, 172, 173, 174, 175, 176, 177, 178, 179, 180, 181, 182, 183, 184, 185, 186, 187, 188, 189, 190, 191, 192, 193, 194, 195, 196, 197, 198, 199, 200, 201, 202, 203, 204, 205, 206, 207, 208, 209, rowcost
C major (0), 1+4:0:0:0:0, 2+2:0:0:0:0, 2+1:0:0:0:0, 2+1:0:0:0:0, 2+2:0:0:0:0, 1+2:0:0:0:0, 2+1:0:0:0:0, 2+2:0:0:0:0, 0+0:0:0:0:0, 1+0:0:0:0:0, 2+1:0:0:0:0, 0+0:0:0:0:0, 1+5:0:0:0:0, 2+2:0:0:0:0, 1+2:0:0:0:0, 1+3:0:0:0:0, 2+1:0:0:0:0, 1+2:0:0:0:0, 2+1:0:0:0:0, 2+0:0:0:0:0, 0+0:0:0:0:0, 0+0:0:0:0:0, 2+1:0:0:0:0, 0+0:0:0:0:0, 2+1:0:0:0:0, 2+2:0:0:0:0, 3+3:0:0:0:0, 1+4:0:0:0:0, 2+1:0:0:0:0, 2+2:0:0:0:0, 2+3:0:0:0:0, 3+1:0:0:0:0, 0+0:0:0:0:0, 1+1:0:0:0:0, 2+1:0:0:0:0, 0+0:0:0:0:0, 1+0:0:0:0:0, 2+3:0:0:0:0, 2+1:0:0:0:0, 1+0:0:0:0:0, 2+2:0:0:0:0, 3+2:0:0:0:0, 1+0:0:0:0:0, 3+1:0:0:0:0, 2+1:0:0:0:0, 1+1:0:0:0:0, 1+0:0:0:0:0, 1+1:0:0:0:0, 2+1:0:0:0:0, 3+2:0:0:0:0, 2+1:0:0:0:0, 2+1:0:0:0:0, 2+2:0:0:0:0, 2+3:0:0:0:0, 2+1:0:0:0:0, 4+2:1:0:0:0, 1+1:0:0:0:0, 0+0:0:0:0:0, 1+0:0:0:0:0, 1+0:0:0:0:0, 3+1:0:0:0:0, 2+0:0:0:0:0, 3+1:0:0:0:0, 1+0:0:0:0:0, 4+3:0:0:0:0, 2+1:1:0:0:1, 2+3:0:0:0:0, 3+1:0:0:0:0, 0+0:0:0:0:0, 0+0:0:0:0:0, 2+2:0:0:0:0, 0+0:0:0:0:0, 1+0:0:0:0:0, 2+2:0:0:0:0, 2+1:0:0:0:0, 2+2:0:0:0:0, 2+1:0:0:0:0, 4+2:0:0:0:1, 1+1:0:0:0:0, 2+1:0:0:0:0, 1+1:0:0:0:1, 0+0:0:0:0:0, 4+1:0:0:0:0, 1+1:0:0:0:0, 2+1:0:0:0:0, 2+2:0:0:0:0, 3+3:1:0:0:1, 1+2:0:0:0:0, 2+1:0:0:0:0, 3+2:0:0:0:0, 2+0:0:0:0:0, 2+1:0:0:0:0, 1+1:0:0:0:0, 0+0:0:0:0:0, 1+0:0:0:0:0, 0+0:0:0:0:0, 2+1:0:0:0:0, 3+2:0:0:0:0, 2+1:0:0:0:0, 2+1:0:0:0:0, 2+2:0:0:0:0, 2+3:0:0:0:0, 1+0:0:0:0:0, 3+2:0:0:0:0, 1+1:0:0:0:0, 0+0:0:0:0:0, 1+0:0:0:0:0, 1+0:0:0:0:0, 3+1:0:0:0:0, 2+0:0:0:0:0, 3+1:0:0:0:0, 1+0:0:0:0:0, 4+3:0:0:0:0, 2+1:1:0:0:1, 2+3:0:0:0:0, 3+1:0:0:0:0, 0+0:0:0:0:0, 0+0:0:0:0:0, 3+3:1:0:0:1, 0+0:0:0:0:0, 1+0:0:0:0:0, 2+2:0:0:0:0, 2+4:0:0:0:1, 2+2:0:0:0:0, 2+1:0:0:0:0, 4+2:0:0:0:1, 1+1:0:0:0:0, 2+1:0:0:0:0, 1+1:0:0:0:1, 0+0:0:0:0:0, 3+0:0:0:0:0, 1+1:0:0:0:0, 2+1:0:0:0:0, 2+2:0:0:0:0, 3+3:0:0:0:0, 2+1:0:0:0:0, 2+0:0:0:0:0, 3+1:0:0:0:0, 2+1:0:0:0:0, 2+1:0:0:0:0, 1+0:0:0:0:0, 0+0:0:0:0:0, 1+0:0:0:0:0, 0+0:0:0:0:0, 2+1:0:0:0:0, 2+2:0:0:0:0, 3+4:2:0:0:2, 2+3:0:0:0:0, 2+1:0:0:0:0, 2+2:0:0:0:0, 2+4:0:0:0:0, 1+1:0:0:0:0, 2+1:0:0:0:0, 1+1:0:0:0:0, 2+1:0:0:0:0, 1+0:0:0:0:0, 2+1:0:0:0:0, 3+1:0:0:0:0, 2+1:0:0:0:0, 2+1:0:0:0:0, 3+1:0:0:0:0, 2+1:1:0:0:1, 1+3:0:0:0:0, 3+2:0:0:0:0, 1+0:0:0:0:0, 1+1:0:0:0:0, 1+0:0:0:0:0, 0+0:0:0:0:0, 3+1:0:0:0:0, 2+1:0:0:0:0, 4+2:0:0:0:0, 2+4:0:0:0:0, 2+1:0:0:0:0, 2+2:0:0:0:0, 2+3:0:0:0:0, 3+1:0:0:0:0, 1+0:0:0:0:0, 1+1:0:0:0:0, 2+3:1:0:0:1, 1+2:0:0:0:2, 1+0:0:0:0:0, 3+1:0:0:0:0, 1+0:0:0:0:0, 2+1:0:0:0:0, 3+1:0:0:0:0, 3+1:0:0:0:0, 2+2:0:0:0:0, 1+1:0:0:0:0, 1+1:0:0:0:1, 1+1:0:0:0:0, 1+0:0:0:0:0, 1+0:0:0:0:0, 1+0:0:0:0:0, 1+1:0:0:0:1, 3+2:0:0:0:0, 1+1:0:0:0:0, 2+1:0:0:0:0, 1+1:0:0:0:0, 2+1:0:0:0:0, 1+1:0:0:0:0, 1+0:0:0:0:0, 1+1:0:0:0:0, 1+0:0:0:0:0, 0+0:0:0:0:0, 1+0:0:0:0:0, 1+0:0:0:0:0, 1+0:0:0:0:0, 1+0:0:0:0:0, 1+0:0:0:0:0, 1+0:0:0:0:0, 349+239:9:0:0:17
A minor (0), 1+0:0:0:0:0, 2+1:0:0:0:0, 2+1:0:0:0:0, 2+2:0:0:0:0, 2+0:0:0:0:0, 1+0:0:0:0:0, 2+1:0:0:0:0, 2+0:0:0:0:0, 0+2:0:0:0:0, 1+0:0:0:0:0, 2+1:0:0:0:1, 0+1:0:0:0:0, 1+0:0:0:0:0, 2+0:0:0:0:0, 1+0:0:0:0:0, 1+0:0:0:0:0, 2+0:0:0:0:0, 1+0:0:0:0:0, 2+1:0:0:0:0, 2+0:0:0:0:0, 0+0:0:0:0:0, 0+0:0:0:0:0, 2+1:0:0:0:0, 0+2:0:0:0:0, 2+2:0:0:0:0, 2+2:0:0:0:0, 3+1:0:0:0:1, 1+0:0:0:0:0, 2+1:0:0:0:1, 2+1:0:0:0:0, 2+1:0:0:0:0, 3+3:0:0:0:1, 0+1:0:0:0:0, 1+2:0:0:0:0, 2+1:0:0:0:0, 0+0:0:0:0:0, 1+0:0:0:0:0, 2+3:0:0:0:3, 2+1:0:0:0:1, 1+0:0:0:0:0, 2+1:0:0:0:0, 3+2:0:0:0:2, 1+0:0:0:0:0, 3+2:0:0:0:1, 2+1:0:0:0:0, 1+2:0:0:0:0, 1+1:0:0:0:0, 1+3:0:0:0:1, 2+1:0:0:0:1, 3+2:0:0:0:0, 2+1:0:0:0:0, 2+1:0:0:0:0, 2+3:0:0:0:0, 2+3:0:0:0:3, 2+1:0:0:0:0, 4+2:1:0:0:0, 1+1:0:0:0:0, 0+0:0:0:0:0, 1+0:0:0:0:0, 1+2:0:0:0:0, 3+1:0:0:0:1, 2+0:0:0:0:0, 3+2:0:0:0:0, 1+0:0:0:0:0, 4+2:0:0:0:1, 3+1:0:0:0:0, 2+1:0:0:0:0, 3+2:0:0:0:1, 0+1:0:0:0:0, 0+1:0:0:0:0, 2+1:0:0:0:1, 0+2:0:0:0:0, 1+0:0:0:0:0, 2+2:0:0:0:0, 2+1:0:0:0:1, 2+1:0:0:0:0, 2+1:0:0:0:1, 4+1:0:0:0:0, 1+1:0:0:0:0, 2+1:0:0:0:1, 1+1:0:0:0:0, 0+0:0:0:0:0, 4+4:0:0:0:0, 1+3:0:0:0:1, 2+2:0:0:0:0, 2+2:0:0:0:0, 3+1:1:0:0:0, 1+0:0:0:0:0, 2+0:0:0:0:0, 3+1:0:0:0:1, 2+1:0:0:0:0, 2+1:0:0:0:1, 1+2:0:0:0:0, 0+0:0:0:0:0, 1+0:0:0:0:0, 0+2:0:0:0:0, 2+1:0:0:0:1, 3+2:0:0:0:0, 2+1:0:0:0:0, 2+1:0:0:0:0, 2+3:0:0:0:0, 2+3:0:0:0:3, 1+0:0:0:0:0, 3+2:0:0:0:1, 1+1:0:0:0:0, 0+0:0:0:0:0, 1+0:0:0:0:0, 1+2:0:0:0:0, 3+1:0:0:0:1, 2+0:0:0:0:0, 3+2:0:0:0:0, 1+0:0:0:0:0, 4+2:0:0:0:1, 3+1:0:0:0:0, 2+1:0:0:0:0, 3+2:0:0:0:1, 0+1:0:0:0:0, 0+0:0:0:0:0, 3+3:1:0:0:1, 0+1:0:0:0:0, 1+0:0:0:0:0, 2+2:0:0:0:0, 2+1:0:0:0:1, 2+1:0:0:0:0, 2+1:0:0:0:1, 4+1:0:0:0:0, 1+1:0:0:0:0, 2+1:0:0:0:1, 1+1:0:0:0:0, 0+0:0:0:0:0, 3+3:0:0:0:0, 1+3:0:0:0:1, 2+2:0:0:0:0, 2+2:0:0:0:0, 3+1:0:0:0:1, 2+0:0:0:0:0, 2+0:0:0:0:0, 3+1:0:0:0:1, 2+1:0:0:0:0, 2+1:0:0:0:1, 1+2:0:0:0:0, 0+0:0:0:0:0, 1+0:0:0:0:0, 0+2:0:0:0:0, 2+2:0:0:0:0, 2+2:0:0:0:0, 3+2:2:0:0:0, 2+1:0:0:0:0, 2+1:0:0:0:1, 2+1:0:0:0:0, 2+1:0:0:0:0, 1+0:0:0:0:0, 2+1:0:0:0:0, 1+2:0:0:0:0, 2+2:0:0:0:0, 1+2:0:0:0:0, 2+1:0:0:0:1, 3+1:0:0:0:0, 2+1:0:0:0:1, 2+2:0:0:0:0, 3+1:0:0:0:0, 3+2:0:0:0:0, 1+0:0:0:0:0, 3+2:0:0:0:1, 1+0:0:0:0:0, 1+2:0:0:0:0, 1+0:0:0:0:0, 0+2:0:0:0:0, 3+2:0:0:0:1, 2+1:0:0:0:0, 3+2:1:0:0:0, 2+1:0:0:0:0, 2+1:0:0:0:1, 2+1:0:0:0:0, 2+1:0:0:0:0, 3+2:0:0:0:1, 1+0:0:0:0:0, 1+2:0:0:0:0, 2+1:0:0:0:0, 1+2:0:0:0:0, 1+0:0:0:0:0, 3+1:0:0:0:0, 1+1:0:0:0:0, 2+2:0:0:0:0, 3+1:0:0:0:0, 3+1:0:0:0:0, 2+1:0:0:0:0, 1+0:0:0:0:0, 1+1:0:0:0:0, 1+2:0:0:0:0, 1+0:0:0:0:0, 1+1:0:0:0:0, 1+0:0:0:0:0, 2+2:0:0:0:0, 3+1:0:0:0:1, 1+0:0:0:0:0, 2+1:0:0:0:1, 1+1:0:0:0:0, 2+1:0:0:0:0, 1+1:0:0:0:1, 1+1:0:0:0:0, 1+2:0:0:0:0, 1+0:0:0:0:0, 0+1:0:0:0:0, 1+0:0:0:0:0, 1+0:0:0:0:0, 1+0:0:0:0:0, 1+0:0:0:0:0, 1+0:0:0:0:0, 1+0:0:0:0:0, 352+229:6:0:0:52
F major (1b), 0+0:0:0:0:0, 1+0:0:0:0:0, 1+1:0:0:0:0, 1+1:0:0:0:0, 1+0:0:0:0:0, 1+0:0:0:0:0, 1+0:0:0:0:0, 1+0:0:0:0:0, 0+0:0:0:0:0, 0+0:0:0:0:0, 1+1:0:0:0:0, 0+0:0:0:0:0, 0+0:0:0:0:0, 1+0:0:0:0:0, 0+0:0:0:0:0, 0+0:0:0:0:0, 1+0:0:0:0:0, 1+0:0:0:0:0, 1+0:0:0:0:0, 1+0:0:0:0:0, 0+0:0:0:0:0, 1+0:0:0:0:0, 1+1:0:0:0:0, 0+0:0:0:0:0, 1+1:0:0:0:0, 2+1:0:0:0:0, 2+1:0:0:0:0, 0+0:0:0:0:0, 2+1:0:0:0:0, 2+1:0:1:0:0, 1+0:0:0:0:0, 2+2:0:0:0:0, 0+0:0:0:0:0, 1+1:0:0:0:0, 1+1:0:0:0:0, 1+0:0:0:0:0, 0+0:0:0:0:0, 3+3:0:0:0:0, 1+1:0:0:0:0, 0+0:0:0:0:0, 1+2:0:0:0:0, 4+2:0:0:0:0, 0+0:0:0:0:0, 2+2:0:0:0:0, 2+1:0:0:0:0, 1+1:1:0:0:1, 0+0:0:0:0:0, 1+1:0:0:0:0, 1+1:0:0:0:0, 3+2:0:0:0:0, 1+1:0:0:0:0, 1+1:0:0:0:0, 2+2:0:0:0:0, 3+3:0:0:0:0, 1+1:0:0:0:0, 3+2:1:0:0:0, 2+1:0:0:0:0, 0+0:0:0:0:0, 0+0:0:0:0:0, 0+0:0:0:0:0, 2+1:0:0:0:0, 1+0:0:0:0:0, 2+1:0:0:0:0, 0+0:0:0:0:0, 3+3:0:0:0:0, 2+1:0:0:0:1, 1+1:0:0:0:0, 2+2:0:0:0:0, 0+0:0:0:0:0, 0+0:0:0:0:0, 1+1:0:0:0:0, 0+0:0:0:0:0, 0+0:0:0:0:0, 2+1:0:0:0:0, 1+1:0:0:0:0, 1+0:0:0:0:0, 2+1:0:0:0:0, 3+2:0:0:0:0, 0+0:0:0:0:0, 1+1:0:0:0:0, 2+1:0:0:0:0, 0+0:0:0:0:0, 3+1:0:0:0:0, 1+1:0:0:0:0, 1+1:0:0:0:0, 2+1:0:0:0:0, 2+1:1:0:0:1, 0+0:0:0:0:0, 1+0:0:0:0:0, 2+1:0:0:0:0, 1+0:0:0:0:0, 1+1:0:0:0:0, 0+0:0:0:0:0, 0+0:0:0:0:0, 0+0:0:0:0:0, 0+0:0:0:0:0, 1+1:0:0:0:0, 3+2:0:0:0:0, 1+1:0:0:0:0, 1+1:0:0:0:0, 2+2:0:0:0:0, 3+3:0:0:0:0, 0+0:0:0:0:0, 2+2:0:0:0:0, 2+1:0:0:0:0, 0+0:0:0:0:0, 0+0:0:0:0:0, 0+0:0:0:0:0, 2+1:0:0:0:0, 1+0:0:0:0:0, 2+1:0:0:0:0, 0+0:0:0:0:0, 3+3:0:0:0:0, 2+1:0:0:0:1, 1+1:0:0:0:0, 2+2:0:0:0:0, 0+0:0:0:0:0, 0+0:0:0:0:0, 3+1:0:0:0:0, 0+0:0:0:0:0, 0+0:0:0:0:0, 2+1:0:0:0:0, 1+1:0:0:0:0, 1+0:0:0:0:0, 2+1:0:0:0:0, 3+2:0:0:0:0, 0+0:0:0:0:0, 1+1:0:0:0:0, 2+1:0:0:0:0, 0+0:0:0:0:0, 2+0:0:0:0:0, 1+1:0:0:0:0, 1+1:0:0:0:0, 2+1:0:0:0:0, 2+1:0:0:0:0, 1+1:0:0:0:0, 1+0:0:0:0:0, 2+1:0:0:0:0, 1+0:0:0:0:0, 1+1:0:0:0:0, 0+0:0:0:0:0, 0+0:0:0:0:0, 0+0:0:0:0:0, 0+0:0:0:0:0, 1+1:0:0:0:0, 2+1:0:0:0:0, 2+2:2:0:0:2, 1+1:0:0:0:0, 2+1:0:0:0:0, 2+1:0:1:0:0, 1+0:0:0:0:0, 0+0:0:0:0:0, 2+1:0:1:0:0, 1+0:0:0:0:0, 1+1:0:0:0:0, 0+0:0:0:0:0, 1+1:0:0:0:0, 3+1:0:0:0:0, 1+1:0:0:0:0, 1+1:0:0:0:0, 3+3:0:0:0:0, 2+3:0:0:0:0, 0+0:0:0:0:0, 2+2:0:0:0:0, 1+0:0:0:0:0, 1+1:1:0:0:1, 0+0:0:0:0:0, 0+0:0:0:0:0, 2+1:0:0:0:0, 2+2:0:0:0:0, 3+2:0:0:0:0, 1+1:0:0:0:0, 2+1:0:0:0:0, 2+1:0:1:0:0, 1+1:0:0:0:0, 2+2:0:0:0:0, 1+0:0:0:0:0, 1+0:0:0:0:0, 1+1:1:0:0:1, 1+2:0:0:0:2, 0+0:0:0:0:0, 2+1:0:0:0:0, 0+0:0:0:0:0, 1+1:0:0:0:0, 3+3:0:0:0:0, 2+1:0:0:0:0, 1+1:0:0:0:0, 0+0:0:0:0:0, 2+1:0:0:0:0, 1+1:1:0:0:1, 0+0:0:0:0:0, 0+0:0:0:0:0, 0+0:0:0:0:0, 2+1:0:0:0:0, 2+1:0:0:0:0, 0+0:0:0:0:0, 2+1:0:0:0:0, 1+1:0:1:0:0, 1+1:0:0:0:0, 1+1:0:0:0:0, 0+0:0:0:0:0, 1+1:0:0:0:0, 0+0:0:0:0:0, 0+0:0:0:0:0, 0+0:0:0:0:0, 0+0:0:0:0:0, 0+0:0:0:0:0, 0+0:0:0:0:0, 0+0:0:0:0:0, 0+0:0:0:0:0, 230+153:8:5:0:11
G major (1#), 2+1:0:0:0:0, 3+1:0:0:0:0, 3+1:0:0:0:0, 2+2:0:0:0:0, 2+0:0:0:0:0, 1+0:0:0:0:0, 2+1:0:0:0:0, 2+1:0:0:0:1, 0+0:0:0:0:0, 2+3:0:0:0:0, 1+0:0:0:0:0, 1+3:0:0:0:0, 2+2:0:0:0:0, 2+0:0:0:0:0, 2+1:0:0:0:0, 2+1:0:0:0:0, 2+0:0:0:0:0, 1+0:0:0:0:0, 2+1:0:0:0:0, 2+2:0:0:0:2, 0+0:0:0:0:0, 1+0:0:0:0:0, 2+1:0:0:0:0, 1+0:0:0:0:0, 2+2:0:0:0:0, 3+2:0:0:0:0, 3+1:0:0:0:1, 2+2:0:0:0:0, 2+1:0:0:0:1, 2+1:0:0:0:0, 3+1:0:0:0:0, 3+1:0:0:0:0, 0+0:0:0:0:0, 2+1:0:0:0:0, 2+1:0:0:0:0, 1+0:0:0:0:0, 2+0:0:0:0:0, 2+3:0:0:0:0, 2+1:0:0:0:0, 2+2:0:0:0:0, 3+1:0:0:0:0, 3+3:0:0:0:1, 2+2:0:0:0:0, 3+1:0:0:0:0, 2+1:0:0:0:0, 2+2:0:0:0:0, 1+0:0:0:0:0, 2+1:0:0:0:0, 2+1:0:0:0:0, 3+2:1:1:0:1, 3+3:0:0:0:0, 3+1:0:0:0:0, 3+3:0:0:0:0, 2+2:0:0:0:1, 3+2:0:0:0:0, 3+2:1:0:0:0, 1+1:0:0:0:0, 1+0:0:0:0:0, 1+0:0:0:0:0, 2+2:0:0:0:0, 3+1:0:0:0:1, 2+0:0:0:0:0, 4+2:0:0:0:0, 2+2:0:0:0:0, 4+2:0:0:0:1, 3+1:0:0:0:0, 3+1:0:0:0:0, 3+2:0:0:0:0, 0+0:0:0:0:0, 1+3:0:0:0:0, 2+1:0:0:0:0, 1+2:0:0:0:0, 2+1:0:0:0:0, 3+2:0:0:0:0, 1+0:0:0:0:0, 3+1:0:0:0:0, 2+1:0:0:0:1, 3+1:0:0:0:0, 2+1:0:0:0:0, 3+2:0:0:0:0, 2+1:0:0:0:0, 1+3:0:0:0:0, 4+4:0:0:0:0, 1+2:0:0:0:0, 2+1:0:0:0:0, 3+2:0:0:0:0, 3+1:1:0:0:0, 2+2:0:0:0:0, 2+0:0:0:0:0, 3+1:0:0:0:1, 2+1:0:0:0:1, 3+2:0:0:0:0, 1+1:0:0:0:0, 1+2:0:0:0:0, 1+0:0:0:0:0, 1+2:0:0:0:0, 2+1:0:0:0:0, 3+2:1:1:0:1, 3+3:0:0:0:0, 3+1:0:0:0:0, 3+3:0:0:0:0, 2+2:0:0:0:1, 2+2:0:0:0:0, 3+1:0:0:0:0, 1+1:0:0:0:0, 1+0:0:0:0:0, 1+0:0:0:0:0, 2+2:0:0:0:0, 3+1:0:0:0:1, 2+0:0:0:0:0, 4+2:0:0:0:0, 2+2:0:0:0:0, 4+2:0:0:0:1, 3+1:0:0:0:0, 3+3:0:0:0:0, 3+1:0:0:0:0, 0+0:0:0:0:0, 1+0:0:0:0:0, 3+3:1:0:0:1, 1+2:0:0:0:0, 2+1:0:0:0:0, 3+2:0:0:0:0, 1+0:0:0:0:0, 3+1:0:0:0:0, 2+1:0:0:0:1, 3+1:0:0:0:0, 2+1:0:0:0:0, 3+2:0:0:0:0, 2+1:0:0:0:0, 1+3:0:0:0:0, 3+3:0:0:0:0, 1+2:0:0:0:0, 2+1:0:0:0:0, 3+2:0:0:0:0, 3+1:0:0:0:1, 3+0:0:0:0:0, 2+0:0:0:0:0, 3+1:0:0:0:1, 2+1:0:0:0:1, 3+2:0:0:0:0, 1+1:0:0:0:0, 1+2:0:0:0:0, 1+0:0:0:0:0, 1+2:0:0:0:0, 2+2:0:0:0:0, 3+2:0:0:0:0, 3+2:2:0:0:0, 3+1:0:0:0:0, 2+1:0:0:0:1, 2+1:0:0:0:0, 2+1:0:0:0:1, 2+1:0:0:0:0, 2+1:0:0:0:0, 2+2:0:0:0:0, 2+1:0:0:0:0, 2+3:0:0:0:0, 2+1:0:0:0:0, 2+1:0:0:0:0, 3+1:0:0:0:1, 2+1:0:0:0:0, 3+1:0:0:0:0, 3+2:0:0:0:0, 2+2:0:0:0:0, 3+2:0:0:0:0, 1+0:0:0:0:0, 2+2:0:0:0:0, 1+0:0:0:0:0, 1+2:0:0:0:0, 4+2:0:0:0:1, 2+1:0:0:0:0, 4+2:1:0:0:0, 3+1:0:0:0:0, 2+1:0:0:0:1, 2+1:0:0:0:0, 3+1:0:0:0:0, 3+2:0:0:0:1, 1+0:0:0:0:0, 2+2:0:0:0:0, 2+1:1:0:0:0, 3+3:0:1:0:1, 2+1:0:0:0:0, 3+1:0:0:0:0, 2+2:0:0:0:0, 2+1:0:0:0:0, 3+1:0:0:0:0, 3+1:0:0:0:0, 3+2:0:0:0:0, 1+0:0:0:0:0, 2+1:0:0:0:0, 2+2:0:0:0:0, 1+0:0:0:0:0, 2+2:0:0:0:0, 2+1:0:0:0:0, 3+2:0:0:0:0, 3+1:0:0:0:1, 2+2:0:0:0:0, 2+1:0:0:0:1, 1+1:0:0:0:0, 3+1:0:0:0:0, 1+1:0:0:0:0, 1+0:0:0:0:0, 1+1:1:1:0:1, 1+0:0:0:0:0, 1+1:0:0:0:0, 1+0:0:0:0:0, 1+0:0:0:0:0, 1+0:0:0:0:0, 1+0:0:0:0:0, 1+0:0:0:0:0, 1+0:0:0:0:0, 439+263:10:4:0:32
D minor (1b), 0+0:0:0:0:0, 1+1:0:0:0:0, 1+1:0:0:0:0, 1+2:0:0:0:0, 1+0:0:0:0:0, 1+0:0:0:0:0, 1+1:0:0:0:0, 1+1:0:0:0:1, 0+2:0:0:0:0, 0+0:0:0:0:0, 1+1:0:0:0:1, 0+1:0:0:0:0, 0+0:0:0:0:0, 1+0:0:0:0:0, 0+0:0:0:0:0, 0+0:0:0:0:0, 1+0:0:0:0:0, 1+0:0:0:0:0, 1+1:0:0:0:0, 1+0:0:0:0:0, 0+0:0:0:0:0, 1+2:0:0:0:0, 1+1:0:0:0:0, 0+2:0:0:0:0, 1+2:0:0:0:0, 2+2:0:0:0:0, 2+1:0:0:0:1, 0+0:0:0:0:0, 2+1:0:0:0:1, 2+1:0:1:0:1, 1+1:0:0:0:0, 2+3:0:0:0:1, 0+2:0:0:0:0, 1+2:0:0:0:0, 1+1:0:0:0:0, 1+3:0:0:0:0, 0+0:0:0:0:0, 3+3:0:0:0:0, 1+1:0:0:0:0, 0+0:0:0:0:0, 1+2:0:0:0:0, 4+2:0:0:0:0, 0+0:0:0:0:0, 2+2:0:0:0:1, 2+1:0:0:0:0, 1+1:1:0:0:0, 0+1:0:0:0:0, 1+3:0:0:0:1, 1+1:0:0:0:1, 3+2:0:0:0:0, 1+1:0:0:0:0, 1+1:0:0:0:0, 2+3:0:0:0:0, 3+3:0:0:0:0, 1+1:0:0:0:0, 3+3:1:0:0:1, 2+1:0:0:0:0, 0+1:0:0:0:0, 0+0:0:0:0:0, 0+2:0:0:0:0, 2+1:0:0:0:1, 1+0:0:0:0:0, 2+2:0:0:0:0, 0+0:0:0:0:0, 3+3:0:0:0:0, 2+1:0:0:0:0, 1+1:0:0:0:0, 2+2:0:0:0:1, 0+2:0:0:0:0, 0+0:0:0:0:0, 1+1:0:0:0:1, 0+2:0:0:0:0, 0+0:0:0:0:0, 2+2:0:0:0:0, 1+0:0:0:0:0, 1+1:0:0:0:0, 2+1:0:0:0:1, 3+1:0:0:0:0, 0+1:0:0:0:0, 1+1:0:0:0:1, 2+1:0:0:0:0, 0+0:0:0:0:0, 3+1:0:0:0:0, 1+1:0:0:0:0, 1+2:0:0:0:0, 2+2:0:0:0:0, 2+1:1:0:0:0, 0+0:0:0:0:0, 1+0:0:0:0:0, 2+1:0:0:0:1, 1+1:0:0:0:0, 1+1:0:0:0:1, 0+2:0:0:0:0, 0+0:0:0:0:0, 0+0:0:0:0:0, 0+2:0:0:0:0, 1+1:0:0:0:1, 3+2:0:0:0:0, 1+1:0:0:0:0, 1+1:0:0:0:0, 2+3:0:0:0:0, 3+3:0:0:0:0, 0+0:0:0:0:0, 2+2:0:0:0:1, 2+1:0:0:0:0, 0+1:0:0:0:0, 0+0:0:0:0:0, 0+2:0:0:0:0, 2+1:0:0:0:1, 1+0:0:0:0:0, 2+2:0:0:0:0, 0+0:0:0:0:0, 3+3:0:0:0:0, 2+1:0:0:0:0, 1+1:0:0:0:0, 2+2:0:0:0:1, 0+2:0:0:0:0, 0+0:0:0:0:0, 3+1:0:0:0:0, 0+0:0:0:0:0, 0+0:0:0:0:0, 2+2:0:0:0:0, 1+0:0:0:0:0, 1+1:0:0:0:0, 2+1:0:0:0:1, 3+1:0:0:0:0, 0+1:0:0:0:0, 1+1:0:0:0:1, 2+1:0:0:0:0, 0+0:0:0:0:0, 2+0:0:0:0:0, 1+1:0:0:0:0, 1+2:0:0:0:0, 2+2:0:0:0:0, 2+1:0:0:0:1, 1+0:0:0:0:0, 1+0:0:0:0:0, 2+1:0:0:0:1, 1+1:0:0:0:0, 1+1:0:0:0:1, 0+2:0:0:0:0, 0+0:0:0:0:0, 0+0:0:0:0:0, 0+2:0:0:0:0, 1+2:0:0:0:0, 2+2:0:0:0:0, 2+2:2:0:0:0, 1+1:0:0:0:0, 2+1:0:0:0:1, 2+1:0:1:0:1, 1+1:0:0:0:0, 0+0:0:0:0:0, 2+1:0:1:0:1, 1+2:0:0:0:0, 1+2:0:0:0:0, 0+2:0:0:0:0, 1+1:0:0:0:1, 3+1:0:0:0:0, 1+1:0:0:0:1, 1+2:0:0:0:0, 2+1:1:0:0:1, 2+2:0:0:0:0, 0+0:0:0:0:0, 2+2:0:0:0:1, 1+0:0:0:0:0, 1+1:1:0:0:0, 0+0:0:0:0:0, 0+0:0:0:0:0, 2+1:0:0:0:0, 2+1:0:0:0:0, 2+2:1:0:0:0, 1+1:0:0:0:0, 2+1:0:0:0:1, 2+1:0:1:0:1, 1+1:0:0:0:0, 2+2:0:0:0:1, 1+0:0:0:0:0, 1+2:0:0:0:0, 1+1:0:0:0:0, 1+2:0:0:0:0, 0+0:0:0:0:0, 2+1:0:0:0:0, 0+1:0:0:0:0, 1+2:0:0:0:0, 3+1:0:0:0:0, 2+1:0:0:0:0, 1+1:0:0:0:0, 0+0:0:0:0:0, 2+1:0:0:0:0, 1+1:1:0:0:0, 0+0:0:0:0:0, 0+1:0:0:0:0, 0+0:0:0:0:0, 2+2:0:0:0:0, 2+1:0:0:0:1, 0+0:0:0:0:0, 2+1:0:0:0:1, 1+1:0:1:0:1, 1+1:0:0:0:0, 1+1:0:0:0:1, 0+1:0:0:0:0, 1+2:0:0:0:0, 0+0:0:0:0:0, 0+1:0:0:0:0, 0+0:0:0:0:0, 0+0:0:0:0:0, 0+0:0:0:0:0, 0+0:0:0:0:0, 0+0:0:0:0:0, 0+0:0:0:0:0, 228+222:9:5:0:40
E minor (1#), 2+1:0:0:0:0, 3+1:0:0:0:0, 3+1:0:0:0:0, 2+2:0:0:0:0, 2+0:0:0:0:0, 1+0:0:0:0:0, 2+1:0:0:0:0, 2+1:0:0:0:1, 0+0:0:0:0:0, 2+3:0:0:0:0, 1+1:1:0:0:0, 1+1:0:0:0:0, 2+0:0:0:0:0, 2+0:0:0:0:0, 2+1:0:0:0:0, 2+1:0:0:0:0, 2+0:0:0:0:0, 1+0:0:0:0:0, 2+1:0:0:0:0, 2+0:0:0:0:0, 0+1:0:0:0:0, 1+0:0:0:0:0, 2+1:0:0:0:0, 1+0:0:0:0:0, 2+2:0:0:0:0, 3+2:0:0:0:0, 3+1:0:0:0:1, 2+0:0:0:0:0, 2+1:0:0:0:1, 2+1:0:0:0:0, 3+1:0:0:0:0, 3+3:0:0:0:1, 0+1:0:0:0:0, 2+2:0:0:0:0, 2+1:0:0:0:0, 1+0:0:0:0:0, 2+2:0:0:0:0, 2+3:0:0:0:3, 2+1:0:0:0:1, 2+0:0:0:0:0, 3+1:0:0:0:0, 3+2:0:0:0:2, 2+2:0:0:0:0, 3+2:0:0:0:1, 2+1:0:0:0:0, 2+2:0:0:0:0, 1+1:0:0:0:0, 2+1:0:0:0:0, 2+1:0:0:0:1, 3+2:1:1:0:1, 3+1:0:0:0:0, 3+1:0:0:0:0, 3+3:0:0:0:0, 2+3:0:0:0:3, 3+1:0:0:0:0, 3+3:1:0:0:1, 1+1:0:0:0:0, 1+0:0:0:0:0, 1+0:0:0:0:0, 2+2:0:0:0:0, 3+1:0:0:0:1, 2+0:0:0:0:0, 4+2:0:0:0:0, 2+0:0:0:0:0, 4+2:0:0:0:1, 3+1:0:0:0:0, 3+1:0:0:0:0, 3+2:0:0:0:1, 0+1:0:0:0:0, 1+1:0:0:0:0, 2+1:0:0:0:1, 1+1:0:0:0:0, 2+0:0:0:0:0, 3+2:0:0:0:0, 1+0:0:0:0:0, 3+1:0:0:0:0, 2+1:0:0:0:1, 3+1:0:0:0:0, 2+1:0:0:0:0, 3+2:0:0:0:0, 2+1:0:0:0:0, 1+3:0:0:0:0, 4+4:0:0:0:0, 1+2:0:0:0:0, 2+2:0:0:0:0, 3+2:0:0:0:0, 3+1:1:0:0:0, 2+0:0:0:0:0, 2+0:0:0:0:0, 3+1:0:0:0:1, 2+1:0:0:0:1, 3+2:0:0:0:0, 1+2:0:0:0:0, 1+1:0:0:0:0, 1+0:0:0:0:0, 1+0:0:0:0:0, 2+1:0:0:0:1, 3+2:1:1:0:1, 3+1:0:0:0:0, 3+1:0:0:0:0, 3+3:0:0:0:0, 2+3:0:0:0:3, 2+3:0:0:0:0, 3+2:0:0:0:1, 1+1:0:0:0:0, 1+0:0:0:0:0, 1+0:0:0:0:0, 2+2:0:0:0:0, 3+1:0:0:0:1, 2+0:0:0:0:0, 4+2:0:0:0:0, 2+0:0:0:0:0, 4+2:0:0:0:1, 3+1:0:0:0:0, 3+1:0:0:0:0, 3+2:0:0:0:1, 0+1:0:0:0:0, 1+1:0:0:0:0, 3+3:1:0:0:1, 1+2:0:0:0:0, 2+1:0:0:0:0, 3+2:0:0:0:0, 1+0:0:0:0:0, 3+1:0:0:0:0, 2+1:0:0:0:1, 3+1:0:0:0:0, 2+1:0:0:0:0, 3+2:0:0:0:0, 2+1:0:0:0:0, 1+3:0:0:0:0, 3+3:0:0:0:0, 1+2:0:0:0:0, 2+2:0:0:0:0, 3+2:0:0:0:0, 3+1:0:0:0:1, 3+0:0:0:0:0, 2+0:0:0:0:0, 3+1:0:0:0:1, 2+1:0:0:0:1, 3+2:0:0:0:0, 1+2:0:0:0:0, 1+1:0:0:0:0, 1+0:0:0:0:0, 1+0:0:0:0:0, 2+2:0:0:0:0, 3+2:0:0:0:0, 3+2:2:0:0:0, 3+1:0:0:0:0, 2+1:0:0:0:1, 2+1:0:0:0:0, 2+1:0:0:0:1, 2+1:0:0:0:0, 2+1:0:0:0:0, 2+2:0:0:0:0, 2+2:0:0:0:0, 2+2:0:0:0:0, 2+1:0:0:0:1, 2+1:0:0:0:0, 3+1:0:0:0:1, 2+2:0:0:0:0, 2+1:1:0:0:1, 3+2:0:0:0:0, 2+0:0:0:0:0, 3+2:0:0:0:1, 1+0:0:0:0:0, 2+2:0:0:0:0, 1+0:0:0:0:0, 1+2:0:0:0:0, 4+2:0:0:0:1, 2+1:0:0:0:0, 4+2:1:0:0:0, 3+1:0:0:0:0, 2+1:0:0:0:1, 2+1:0:0:0:0, 3+1:0:0:0:0, 3+2:0:0:0:1, 1+0:0:0:0:0, 2+2:0:0:0:0, 2+1:0:0:0:0, 2+2:0:0:0:0, 2+0:0:0:0:0, 3+1:0:0:0:0, 2+2:0:0:0:0, 2+2:0:0:0:0, 2+1:1:0:0:1, 3+1:0:0:0:0, 3+1:0:0:0:0, 1+0:0:0:0:0, 1+1:0:0:0:0, 2+2:0:0:0:0, 1+0:0:0:0:0, 2+1:0:0:0:0, 2+0:0:0:0:0, 3+2:0:0:0:0, 3+1:0:0:0:1, 2+0:0:0:0:0, 2+1:0:0:0:1, 1+1:0:0:0:0, 3+1:0:0:0:0, 2+2:0:0:0:0, 1+1:0:0:0:0, 2+2:0:0:0:0, 1+0:0:0:0:0, 1+0:0:0:0:0, 1+0:0:0:0:0, 1+0:0:0:0:0, 1+0:0:0:0:0, 1+0:0:0:0:0, 1+0:0:0:0:0, 1+0:0:0:0:0, 437+247:11:2:0:50
Bb major (2b), 0+0:0:0:0:0, 0+0:0:0:0:0, 1+1:0:0:0:0, 1+1:0:0:0:0, 0+0:0:0:0:0, 0+0:0:0:0:0, 1+0:0:0:0:0, 1+1:0:0:0:0, 1+0:0:0:0:0, 0+0:0:0:0:0, 1+1:0:0:0:0, 0+0:0:0:0:0, 1+0:0:0:0:0, 0+0:0:0:0:0, 0+0:0:0:0:0, 0+0:0:0:0:0, 0+0:0:0:0:0, 0+0:0:0:0:0, 1+1:0:0:0:0, 1+0:0:0:0:0, 0+0:0:0:0:0, 1+1:0:0:0:0, 1+1:0:0:0:0, 1+0:0:0:0:0, 1+1:0:0:0:0, 1+1:0:0:0:0, 1+1:0:0:0:0, 1+0:0:0:0:0, 1+1:0:0:0:0, 1+1:0:1:0:0, 0+0:0:0:0:0, 2+2:0:0:0:0, 1+0:0:0:0:0, 1+1:1:0:0:1, 1+1:0:0:0:0, 2+1:0:0:0:0, 1+0:0:0:0:0, 2+1:0:0:0:1, 1+1:0:0:0:0, 1+0:0:0:0:0, 0+0:0:0:0:0, 3+2:0:0:0:1, 1+1:0:0:0:0, 2+1:0:0:0:1, 1+1:0:0:0:0, 1+1:1:0:0:1, 0+0:0:0:0:0, 1+1:0:0:0:0, 1+1:0:0:0:0, 2+2:0:0:0:0, 2+1:0:0:0:0, 2+1:0:0:0:0, 1+2:0:0:0:0, 2+1:0:0:0:1, 1+1:0:1:0:1, 3+2:1:0:0:2, 2+1:0:0:0:0, 0+0:0:0:0:0, 0+0:0:0:0:0, 0+0:0:0:0:0, 1+1:0:0:0:0, 0+0:0:0:0:0, 1+1:0:0:0:0, 1+1:0:0:0:0, 2+1:0:0:0:1, 1+1:0:0:0:1, 2+1:0:0:0:0, 2+2:0:0:0:0, 1+0:0:0:0:0, 0+0:0:0:0:0, 1+0:0:0:0:0, 0+0:0:0:0:0, 0+0:0:0:0:0, 1+1:0:0:0:0, 1+1:0:0:0:0, 0+0:0:0:0:0, 1+1:0:0:0:0, 2+1:0:0:0:0, 0+0:0:0:0:0, 1+0:0:0:0:0, 1+1:0:0:0:0, 0+0:0:0:0:0, 3+2:0:0:0:0, 1+1:0:0:0:0, 1+1:0:0:0:0, 1+1:0:0:0:0, 1+1:1:0:0:1, 1+0:0:0:0:0, 0+0:0:0:0:0, 1+1:0:0:0:0, 1+0:0:0:0:0, 1+1:0:0:0:0, 1+0:0:0:0:0, 0+0:0:0:0:0, 0+0:0:0:0:0, 1+0:0:0:0:0, 1+1:0:0:0:0, 2+2:0:0:0:0, 2+1:0:0:0:0, 2+1:0:0:0:0, 1+2:0:0:0:0, 2+1:0:0:0:1, 1+1:0:0:0:0, 2+1:0:0:0:1, 2+1:0:0:0:0, 0+0:0:0:0:0, 0+0:0:0:0:0, 0+0:0:0:0:0, 1+1:0:0:0:0, 0+0:0:0:0:0, 1+1:0:0:0:0, 1+1:0:0:0:0, 2+1:0:0:0:1, 1+1:0:0:0:1, 2+1:0:0:0:0, 2+2:0:0:0:0, 1+0:0:0:0:0, 0+0:0:0:0:0, 2+1:1:0:0:1, 0+0:0:0:0:0, 0+0:0:0:0:0, 1+1:0:0:0:0, 1+1:0:0:0:0, 0+0:0:0:0:0, 1+1:0:0:0:0, 2+1:0:0:0:0, 0+0:0:0:0:0, 1+0:0:0:0:0, 1+1:0:0:0:0, 0+0:0:0:0:0, 2+1:0:0:0:0, 1+1:0:0:0:0, 1+1:0:0:0:0, 1+1:0:0:0:0, 1+1:0:0:0:0, 2+1:0:0:0:0, 0+0:0:0:0:0, 1+1:0:0:0:0, 1+0:0:0:0:0, 1+1:0:0:0:0, 1+0:0:0:0:0, 0+0:0:0:0:0, 0+0:0:0:0:0, 1+0:0:0:0:0, 1+1:0:0:0:0, 1+1:0:0:0:0, 1+2:2:0:0:2, 2+1:0:0:0:0, 1+1:0:0:0:0, 1+1:0:1:0:0, 1+0:0:0:0:0, 0+0:0:0:0:0, 1+1:0:1:0:0, 0+0:0:0:0:0, 1+1:0:0:0:0, 1+0:0:0:0:0, 1+1:0:0:0:0, 2+1:0:0:0:0, 2+1:0:0:0:0, 1+1:0:0:0:0, 2+1:0:0:0:0, 1+2:0:0:0:2, 1+0:0:0:0:0, 2+2:0:0:0:0, 0+0:0:0:0:0, 1+1:1:0:0:1, 0+0:0:0:0:0, 1+0:0:0:0:0, 1+0:0:0:0:0, 1+1:0:0:0:0, 2+1:0:0:0:0, 1+1:0:1:0:1, 1+1:0:0:0:0, 1+1:0:1:0:0, 2+1:0:0:0:0, 2+2:0:0:0:0, 0+0:0:0:0:0, 0+0:0:0:0:0, 1+1:1:0:0:1, 2+2:0:0:0:0, 0+0:0:0:0:0, 1+1:0:0:0:0, 0+0:0:0:0:0, 1+1:0:0:0:1, 2+1:0:0:0:0, 1+0:0:0:0:0, 1+1:0:1:0:0, 0+0:0:0:0:0, 1+1:0:0:0:0, 1+1:1:0:0:1, 0+0:0:0:0:0, 1+0:0:0:0:0, 0+0:0:0:0:0, 1+1:0:0:0:0, 1+1:0:0:0:0, 1+0:0:0:0:0, 1+1:0:0:0:0, 1+1:0:1:0:0, 2+1:0:0:0:0, 1+1:0:0:0:0, 0+0:0:0:0:0, 1+1:1:0:0:1, 0+0:0:0:0:0, 0+0:0:0:0:0, 0+0:0:0:0:0, 0+0:0:0:0:0, 0+0:0:0:0:0, 0+0:0:0:0:0, 0+0:0:0:0:0, 0+0:0:0:0:0, 192+135:11:8:0:27
D major (2#), 2+0:0:0:0:0, 3+1:0:0:0:0, 3+1:0:0:0:0, 3+2:0:0:0:0, 2+0:0:0:0:0, 1+0:0:0:0:0, 3+2:0:0:0:1, 1+0:0:0:0:0, 1+2:0:0:0:0, 2+0:0:0:0:0, 1+1:1:0:0:0, 2+1:0:0:0:0, 2+0:0:0:0:0, 2+0:0:0:0:0, 2+0:0:0:0:0, 2+0:0:0:0:0, 2+0:0:0:0:0, 1+0:0:0:0:0, 3+2:0:0:0:1, 1+0:0:0:0:0, 1+2:0:0:0:0, 2+2:0:0:0:0, 2+1:0:0:0:0, 2+2:0:0:0:0, 3+2:0:0:0:0, 3+2:0:0:0:0, 2+1:1:0:0:0, 2+0:0:0:0:0, 1+1:1:0:0:0, 3+1:0:0:0:0, 3+1:0:0:0:0, 4+3:0:0:0:1, 1+2:0:0:0:0, 2+1:1:0:0:0, 2+1:0:0:0:0, 2+3:0:0:0:0, 2+0:0:0:0:0, 3+3:0:0:0:0, 2+1:0:0:0:1, 2+0:0:0:0:0, 3+1:0:0:0:0, 3+3:1:0:0:0, 2+0:0:0:0:0, 3+2:0:0:0:1, 3+1:0:0:0:0, 2+1:1:0:0:0, 2+1:0:0:0:0, 3+3:0:0:0:1, 2+1:0:0:0:1, 3+2:1:1:0:1, 3+1:0:0:0:0, 3+1:0:0:0:0, 3+3:0:0:0:0, 3+3:0:0:0:0, 3+1:0:0:0:0, 3+3:1:0:0:1, 2+1:0:0:0:0, 2+1:0:0:0:0, 1+0:0:0:0:0, 3+2:0:0:0:0, 2+1:1:0:0:0, 2+0:0:0:0:0, 4+2:0:0:0:0, 2+0:0:0:0:0, 4+2:1:0:0:0, 4+1:0:0:0:0, 3+1:0:0:0:0, 3+2:0:0:0:1, 1+2:0:0:0:0, 1+0:0:0:0:0, 2+1:0:0:0:1, 2+2:0:0:0:0, 2+0:0:0:0:0, 3+2:0:0:0:0, 1+1:1:0:0:0, 4+1:0:0:0:0, 2+1:1:0:0:0, 3+1:0:0:0:0, 3+1:0:0:0:0, 3+1:0:0:0:1, 3+1:0:0:0:0, 1+0:0:0:0:0, 4+1:0:0:0:0, 2+3:1:0:0:0, 3+2:0:0:0:0, 3+2:0:0:0:0, 2+1:1:0:0:0, 2+0:0:0:0:0, 2+0:0:0:0:0, 3+1:1:0:0:0, 2+1:1:1:0:1, 3+1:0:0:0:1, 2+2:0:0:0:0, 1+0:0:0:0:0, 1+0:0:0:0:0, 2+2:0:0:0:0, 2+1:0:0:0:1, 3+2:1:1:0:1, 3+1:0:0:0:0, 3+1:0:0:0:0, 3+3:0:0:0:0, 3+3:0:0:0:0, 2+0:0:0:0:0, 3+2:0:0:0:1, 2+1:0:0:0:0, 2+1:0:0:0:0, 1+0:0:0:0:0, 3+2:0:0:0:0, 2+1:1:0:0:0, 2+0:0:0:0:0, 4+2:0:0:0:0, 2+0:0:0:0:0, 4+2:1:0:0:0, 4+1:0:0:0:0, 3+1:0:0:0:0, 3+2:0:0:0:1, 1+2:0:0:0:0, 1+0:0:0:0:0, 2+1:0:0:0:1, 2+2:0:0:0:0, 2+0:0:0:0:0, 3+2:0:0:0:0, 1+1:1:0:0:0, 4+1:0:0:0:0, 2+1:1:0:0:0, 3+1:0:0:0:0, 3+1:0:0:0:0, 3+1:0:0:0:1, 3+1:0:0:0:0, 1+0:0:0:0:0, 2+1:0:0:0:1, 2+3:1:0:0:0, 3+2:0:0:0:0, 3+2:0:0:0:0, 2+1:1:0:0:0, 2+0:0:0:0:0, 2+0:0:0:0:0, 3+1:1:0:0:0, 2+1:1:1:0:1, 3+1:0:0:0:1, 2+2:0:0:0:0, 1+0:0:0:0:0, 1+0:0:0:0:0, 2+2:0:0:0:0, 3+2:0:0:0:0, 3+2:0:0:0:0, 2+2:2:0:0:0, 3+1:0:0:0:0, 1+1:1:0:0:0, 3+1:0:0:0:0, 2+1:1:1:0:1, 2+0:0:0:0:0, 3+1:0:0:0:0, 2+2:0:0:0:0, 3+2:0:0:0:0, 3+2:0:0:0:0, 2+1:0:0:0:1, 2+1:0:0:0:0, 3+1:0:0:0:1, 3+2:0:0:0:0, 2+1:1:0:0:1, 4+2:0:0:0:0, 2+0:0:0:0:0, 3+2:0:0:0:1, 2+0:0:0:0:0, 2+1:1:0:0:0, 1+0:0:0:0:0, 2+2:0:0:0:0, 3+2:1:0:0:0, 2+1:0:0:0:0, 3+2:1:0:0:0, 3+1:0:0:0:0, 1+1:1:0:0:0, 3+1:0:0:0:0, 3+1:0:0:0:0, 3+2:0:0:0:1, 2+0:0:0:0:0, 2+2:0:0:0:0, 2+1:1:1:0:1, 3+3:2:0:0:2, 2+0:0:0:0:0, 3+1:0:0:0:0, 3+1:0:0:0:0, 3+2:0:0:0:0, 2+1:1:0:0:1, 3+1:0:0:0:0, 3+1:0:0:0:0, 1+0:0:0:0:0, 3+1:0:0:0:0, 2+1:1:0:0:0, 1+0:0:0:0:0, 3+1:0:0:0:0, 2+0:0:0:0:0, 3+2:0:0:0:0, 2+1:1:0:0:0, 2+0:0:0:0:0, 1+1:1:0:0:0, 2+1:0:0:0:0, 3+1:0:0:0:0, 1+1:0:0:0:1, 2+1:0:0:0:0, 2+1:1:0:0:0, 1+0:0:0:0:0, 2+1:0:0:0:0, 1+0:0:0:0:0, 1+0:0:0:0:0, 1+0:0:0:0:0, 1+0:0:0:0:0, 1+0:0:0:0:0, 1+0:0:0:0:0, 483+234:42:6:0:34
G minor (2b), 0+1:0:0:0:0, 0+1:0:0:0:0, 1+1:0:0:0:0, 1+2:0:0:0:0, 0+0:0:0:0:0, 0+0:0:0:0:0, 1+1:0:0:0:0, 1+1:0:0:0:1, 1+0:0:0:0:0, 0+3:0:0:0:0, 1+0:0:0:0:0, 0+3:0:0:0:0, 1+0:0:0:0:0, 0+0:0:0:0:0, 0+1:0:0:0:0, 0+1:0:0:0:0, 0+0:0:0:0:0, 0+0:0:0:0:0, 1+1:0:0:0:0, 1+0:0:0:0:0, 0+0:0:0:0:0, 1+2:0:0:0:0, 1+1:0:0:0:0, 1+2:0:0:0:0, 1+2:0:0:0:0, 1+2:0:0:0:0, 1+1:0:0:0:1, 1+0:0:0:0:0, 1+1:0:0:0:1, 1+1:0:1:0:1, 0+1:0:0:0:0, 2+3:0:0:0:1, 1+2:0:0:0:0, 1+1:1:0:0:0, 1+1:0:0:0:0, 2+3:0:0:0:0, 1+0:0:0:0:0, 2+3:0:0:0:0, 1+1:0:0:0:0, 1+2:0:0:0:0, 0+1:0:0:0:0, 3+2:0:0:0:0, 1+0:0:0:0:0, 2+2:0:0:0:1, 1+1:0:0:0:0, 1+2:0:0:0:0, 0+0:0:0:0:0, 1+1:0:0:0:0, 1+1:0:0:0:0, 2+2:0:0:0:0, 2+1:0:0:0:0, 2+1:0:0:0:0, 1+3:0:0:0:0, 2+3:0:0:0:0, 1+2:0:1:0:1, 3+2:1:0:0:0, 2+1:0:0:0:0, 0+2:0:0:0:0, 0+0:0:0:0:0, 0+2:0:0:0:0, 1+1:0:0:0:1, 0+0:0:0:0:0, 1+2:0:0:0:0, 1+0:0:0:0:0, 2+3:0:0:0:0, 1+1:0:0:0:0, 2+1:0:0:0:0, 2+2:0:0:0:1, 1+2:0:0:0:0, 0+3:0:0:0:0, 1+2:0:0:0:0, 0+2:0:0:0:0, 0+1:0:0:0:0, 1+2:0:0:0:0, 1+0:0:0:0:0, 0+1:0:0:0:0, 1+1:0:0:0:1, 2+2:0:0:0:1, 0+1:0:0:0:0, 1+1:0:0:0:0, 1+1:0:0:0:0, 0+3:0:0:0:0, 3+4:0:0:0:0, 2+2:0:0:0:0, 1+2:0:0:0:0, 1+2:0:0:0:0, 1+1:1:0:0:0, 1+0:0:0:0:0, 0+0:0:0:0:0, 1+1:0:0:0:1, 1+1:0:0:0:1, 1+2:0:0:0:0, 1+2:0:0:0:0, 0+2:0:0:0:0, 0+0:0:0:0:0, 1+2:0:0:0:0, 1+1:0:0:0:0, 2+2:0:0:0:0, 2+1:0:0:0:0, 2+1:0:0:0:0, 1+3:0:0:0:0, 2+3:0:0:0:0, 1+0:0:0:0:0, 2+2:0:0:0:1, 2+1:0:0:0:0, 0+1:0:0:0:0, 0+0:0:0:0:0, 0+2:0:0:0:0, 1+1:0:0:0:1, 0+0:0:0:0:0, 1+2:0:0:0:0, 1+0:0:0:0:0, 2+3:0:0:0:0, 1+1:0:0:0:0, 2+1:0:0:0:0, 2+2:0:0:0:1, 1+2:0:0:0:0, 0+3:0:0:0:0, 2+3:1:0:0:1, 0+2:0:0:0:0, 0+1:0:0:0:0, 1+2:0:0:0:0, 1+0:0:0:0:0, 0+1:0:0:0:0, 1+1:0:0:0:1, 2+2:0:0:0:1, 0+1:0:0:0:0, 1+1:0:0:0:0, 1+1:0:0:0:0, 0+3:0:0:0:0, 2+3:0:0:0:0, 2+2:0:0:0:0, 1+2:0:0:0:0, 1+2:0:0:0:0, 1+1:0:0:0:1, 2+0:0:0:0:0, 0+0:0:0:0:0, 1+1:0:0:0:1, 1+1:0:0:0:1, 1+2:0:0:0:0, 1+2:0:0:0:0, 0+2:0:0:0:0, 0+0:0:0:0:0, 1+2:0:0:0:0, 1+2:0:0:0:0, 1+2:0:0:0:0, 1+2:2:0:0:0, 2+1:0:0:0:0, 1+1:0:0:0:1, 1+1:0:1:0:1, 1+1:0:0:0:1, 0+1:0:0:0:0, 1+1:0:1:0:1, 0+2:0:0:0:0, 1+2:0:0:0:0, 1+2:0:0:0:0, 1+1:0:0:0:0, 2+1:0:0:0:0, 2+1:0:0:0:1, 1+2:0:0:0:0, 2+1:0:0:0:0, 1+2:0:0:0:0, 1+0:0:0:0:0, 2+2:0:0:0:1, 0+0:0:0:0:0, 1+2:0:0:0:0, 0+0:0:0:0:0, 1+2:0:0:0:0, 1+2:0:0:0:1, 1+1:0:0:0:0, 1+2:1:0:0:0, 2+1:0:0:0:0, 1+1:0:0:0:1, 1+1:0:1:0:1, 2+1:0:0:0:0, 2+2:0:0:0:1, 0+0:0:0:0:0, 0+2:0:0:0:0, 1+1:1:0:0:0, 2+3:0:0:0:0, 0+1:0:0:0:0, 1+1:0:0:0:0, 0+2:0:0:0:0, 1+1:0:0:0:0, 2+1:0:0:0:0, 1+1:0:0:0:0, 1+2:0:1:0:1, 0+0:0:0:0:0, 1+1:0:0:0:0, 1+2:0:0:0:0, 0+0:0:0:0:0, 1+1:0:0:0:0, 0+1:0:0:0:0, 1+2:0:0:0:0, 1+1:0:0:0:1, 1+0:0:0:0:0, 1+1:0:0:0:1, 1+1:0:1:0:1, 2+1:0:0:0:0, 1+1:0:0:0:0, 0+0:0:0:0:0, 1+1:0:0:0:0, 0+0:0:0:0:0, 0+1:0:0:0:0, 0+0:0:0:0:0, 0+0:0:0:0:0, 0+0:0:0:0:0, 0+0:0:0:0:0, 0+0:0:0:0:0, 0+0:0:0:0:0, 194+269:8:7:0:36
B minor (2#), 2+0:0:0:0:0, 3+1:0:0:0:0, 3+1:0:0:0:0, 3+2:0:0:0:0, 2+0:0:0:0:0, 1+2:0:0:0:0, 3+2:0:0:0:1, 1+0:0:0:0:0, 1+2:0:0:0:0, 2+0:0:0:0:0, 1+1:1:0:0:0, 2+1:0:0:0:0, 2+0:0:0:0:0, 2+0:0:0:0:0, 2+0:0:0:0:0, 2+0:0:0:0:0, 2+0:0:0:0:0, 1+2:0:0:0:0, 3+2:0:0:0:1, 1+0:0:0:0:0, 1+2:0:0:0:0, 2+0:0:0:0:0, 2+1:0:0:0:0, 2+2:0:0:0:0, 3+2:0:0:0:0, 3+2:0:0:0:0, 2+1:0:0:0:0, 2+0:0:0:0:0, 1+1:1:0:0:0, 3+1:0:0:0:0, 3+1:0:0:0:0, 4+3:0:0:0:1, 1+2:0:0:0:0, 2+2:0:0:0:0, 2+1:0:0:0:0, 2+0:0:0:0:0, 2+0:0:0:0:0, 2+3:0:0:0:2, 2+1:0:0:0:1, 2+0:0:0:0:0, 3+2:0:0:0:0, 3+2:0:0:0:1, 2+0:0:0:0:0, 3+2:0:0:0:1, 3+3:0:0:0:0, 2+2:0:0:0:0, 2+1:0:0:0:0, 3+3:0:0:0:1, 2+1:0:0:0:1, 3+2:1:1:0:1, 3+1:0:0:0:0, 3+1:0:0:0:0, 3+3:0:0:0:0, 2+3:0:0:0:2, 3+1:0:0:0:0, 3+3:1:0:0:1, 2+1:0:0:0:0, 2+0:0:0:0:0, 1+0:0:0:0:0, 3+2:0:0:0:0, 2+1:0:0:0:0, 2+1:0:0:0:0, 3+1:1:0:0:1, 2+0:0:0:0:0, 5+3:0:0:0:0, 4+3:0:0:0:0, 3+1:0:0:0:0, 3+2:0:0:0:1, 1+2:0:0:0:0, 1+0:0:0:0:0, 2+1:0:0:0:1, 2+2:0:0:0:0, 2+0:0:0:0:0, 3+2:0:0:0:0, 1+1:1:0:0:0, 4+2:0:0:0:0, 2+4:0:0:0:0, 3+3:1:0:0:1, 3+1:0:0:0:0, 3+1:0:0:0:1, 2+1:0:0:0:0, 1+0:0:0:0:0, 4+1:0:0:0:0, 2+3:1:0:0:0, 3+2:0:0:0:0, 3+2:0:0:0:0, 2+1:0:0:0:0, 2+0:0:0:0:0, 2+3:0:0:0:0, 3+1:1:0:0:0, 2+1:1:1:0:1, 3+1:0:0:0:1, 2+2:0:0:0:0, 1+0:0:0:0:0, 1+0:0:0:0:0, 2+2:0:0:0:0, 2+1:0:0:0:1, 3+2:1:1:0:1, 3+1:0:0:0:0, 3+1:0:0:0:0, 3+3:0:0:0:0, 2+3:0:0:0:2, 2+0:0:0:0:0, 3+2:0:0:0:1, 2+1:0:0:0:0, 2+0:0:0:0:0, 1+0:0:0:0:0, 3+2:0:0:0:0, 2+1:0:0:0:0, 2+1:0:0:0:0, 3+1:1:0:0:1, 2+0:0:0:0:0, 5+3:0:0:0:0, 4+3:0:0:0:0, 3+1:0:0:0:0, 3+2:0:0:0:1, 1+2:0:0:0:0, 1+0:0:0:0:0, 2+1:0:0:0:1, 2+2:0:0:0:0, 2+0:0:0:0:0, 3+2:0:0:0:0, 1+1:1:0:0:0, 4+2:0:0:0:0, 2+4:0:0:0:0, 3+3:1:0:0:1, 3+1:0:0:0:0, 3+1:0:0:0:1, 2+1:0:0:0:0, 1+1:0:0:0:0, 2+1:0:0:0:1, 2+3:1:0:0:0, 3+2:0:0:0:0, 3+2:0:0:0:0, 2+1:0:0:0:0, 2+0:0:0:0:0, 2+3:0:0:0:0, 3+1:1:0:0:0, 2+1:1:1:0:1, 3+1:0:0:0:1, 2+2:0:0:0:0, 1+0:0:0:0:0, 1+0:0:0:0:0, 2+2:0:0:0:0, 3+2:0:0:0:0, 3+2:0:0:0:0, 2+2:2:0:0:0, 3+1:0:0:0:0, 1+3:3:0:0:0, 3+2:0:0:0:1, 2+1:1:1:0:1, 2+0:0:0:0:0, 3+1:0:0:0:0, 2+1:0:0:0:0, 3+2:0:0:0:0, 3+2:0:0:0:0, 2+1:0:0:0:1, 2+2:1:0:0:0, 3+1:0:0:0:1, 3+2:0:0:0:0, 2+1:1:0:0:1, 4+2:0:0:0:0, 2+0:0:0:0:0, 3+2:0:0:0:1, 2+4:0:0:0:0, 2+2:0:0:0:0, 1+0:0:0:0:0, 2+2:0:0:0:0, 3+2:1:0:0:0, 2+1:0:0:0:0, 3+2:1:0:0:0, 3+1:0:0:0:0, 1+3:3:0:0:0, 3+2:0:0:0:1, 3+1:0:0:0:0, 3+2:0:0:0:1, 2+3:0:0:0:0, 2+1:0:0:0:0, 2+1:1:1:0:1, 3+2:0:0:0:0, 2+0:0:0:0:0, 3+1:0:0:0:0, 3+1:0:0:0:0, 3+2:0:0:0:0, 2+1:1:0:0:1, 3+1:0:0:0:0, 3+1:0:0:0:0, 1+0:0:0:0:0, 2+1:0:0:0:0, 2+2:0:0:0:0, 1+0:0:0:0:0, 3+1:0:0:0:0, 2+0:0:0:0:0, 3+2:0:0:0:0, 2+1:1:0:0:0, 2+0:0:0:0:0, 1+1:1:0:0:0, 2+1:0:0:0:0, 3+1:0:0:0:0, 1+1:0:0:0:1, 2+1:0:0:0:0, 2+2:0:0:0:0, 1+0:0:0:0:0, 2+1:0:0:0:0, 1+0:0:0:0:0, 1+0:0:0:0:0, 1+0:0:0:0:0, 1+0:0:0:0:0, 1+0:0:0:0:0, 1+0:0:0:0:0, 477+274:34:6:0:45
Eb major (3b), 0+0:0:0:0:0, 0+0:0:0:0:0, 1+0:0:0:0:0, 1+1:0:0:0:1, 0+0:0:0:0:0, 1+0:0:0:0:0, 0+0:0:0:0:0, 1+0:0:0:0:0, 1+0:0:0:0:0, 0+0:0:0:0:0, 1+1:0:0:0:0, 1+0:0:0:0:0, 1+1:0:0:0:0, 0+0:0:0:0:0, 0+0:0:0:0:0, 0+0:0:0:0:0, 0+0:0:0:0:0, 1+0:0:0:0:0, 0+0:0:0:0:0, 1+0:0:0:0:0, 0+0:0:0:0:0, 1+0:0:0:0:0, 1+1:0:0:0:0, 2+0:0:0:0:0, 1+1:0:0:0:0, 2+1:0:0:0:0, 1+1:0:0:0:0, 1+1:0:0:0:0, 1+1:0:0:0:0, 2+1:0:1:0:0, 0+0:0:0:0:0, 1+1:0:0:0:0, 1+0:0:0:0:0, 2+1:0:0:0:0, 1+1:0:0:0:0, 2+1:0:0:0:0, 1+2:0:0:0:0, 2+1:0:0:0:1, 2+1:0:0:0:0, 1+1:0:0:0:0, 0+0:0:0:0:0, 3+2:0:0:0:2, 2+1:0:0:0:0, 1+1:0:0:0:1, 1+1:0:0:0:0, 2+1:1:0:0:1, 1+0:0:0:0:0, 2+1:0:0:0:0, 2+1:0:0:0:0, 2+2:0:0:0:0, 2+1:0:0:0:0, 2+1:0:0:0:0, 1+2:0:0:0:0, 2+1:0:0:0:1, 2+1:0:1:0:1, 2+2:1:0:0:2, 2+1:0:0:0:0, 1+0:0:0:0:0, 0+0:0:0:0:0, 1+0:0:0:0:0, 1+1:0:0:0:0, 1+0:0:0:0:0, 1+1:0:0:0:0, 1+1:0:0:0:0, 2+1:0:0:0:1, 1+1:0:0:0:1, 1+1:0:1:0:0, 1+1:0:0:0:1, 1+0:0:0:0:0, 1+0:0:0:0:0, 0+0:0:0:0:0, 1+0:0:0:0:0, 0+0:0:0:0:0, 2+1:0:0:0:0, 2+1:0:0:0:0, 0+0:0:0:0:0, 1+1:0:0:0:0, 1+1:0:0:0:0, 1+0:0:0:0:0, 0+0:0:0:0:0, 1+1:0:0:0:0, 1+0:0:0:0:0, 2+2:0:0:0:0, 2+1:0:0:0:0, 1+1:0:0:0:1, 2+1:0:0:0:0, 1+1:1:0:0:1, 1+1:0:0:0:0, 0+0:0:0:0:0, 2+1:0:0:0:0, 1+0:0:0:0:0, 0+0:0:0:0:0, 1+1:0:0:0:0, 1+0:0:0:0:0, 0+0:0:0:0:0, 2+0:0:0:0:0, 2+1:0:0:0:0, 2+2:0:0:0:0, 2+1:0:0:0:0, 2+1:0:0:0:0, 1+2:0:0:0:0, 2+1:0:0:0:1, 2+1:0:0:0:0, 1+1:0:0:0:1, 2+1:0:0:0:0, 1+0:0:0:0:0, 0+0:0:0:0:0, 1+0:0:0:0:0, 1+1:0:0:0:0, 1+0:0:0:0:0, 1+1:0:0:0:0, 1+1:0:0:0:0, 2+1:0:0:0:1, 1+1:0:0:0:1, 1+1:0:1:0:0, 1+1:0:0:0:1, 1+0:0:0:0:0, 1+0:0:0:0:0, 1+1:1:0:0:1, 1+0:0:0:0:0, 0+0:0:0:0:0, 2+1:0:0:0:0, 1+1:0:0:0:0, 0+0:0:0:0:0, 1+1:0:0:0:0, 1+1:0:0:0:0, 1+0:0:0:0:0, 0+0:0:0:0:0, 1+1:0:0:0:0, 1+0:0:0:0:0, 1+1:0:0:0:0, 2+1:0:0:0:0, 1+1:0:0:0:1, 2+1:0:0:0:0, 1+1:0:0:0:0, 2+1:0:0:0:1, 0+0:0:0:0:0, 2+1:0:0:0:1, 1+0:0:0:0:0, 0+0:0:0:0:0, 1+1:0:0:0:0, 1+0:0:0:0:0, 0+0:0:0:0:0, 2+0:0:0:0:0, 1+1:0:0:0:0, 2+1:0:0:0:0, 1+2:2:0:0:2, 1+1:0:1:0:0, 1+1:0:0:0:0, 2+1:0:1:0:0, 1+0:0:0:0:0, 0+0:0:0:0:0, 1+1:0:1:0:0, 1+0:0:0:0:0, 1+1:0:0:0:1, 2+1:0:0:0:0, 2+1:0:0:0:0, 2+1:0:0:0:0, 1+1:0:0:0:1, 1+1:0:0:0:1, 1+1:0:0:0:0, 1+2:0:0:0:2, 1+1:0:0:0:0, 3+2:0:0:0:1, 0+0:0:0:0:0, 2+1:1:0:0:1, 0+0:0:0:0:0, 2+0:0:0:0:0, 1+0:0:0:0:0, 1+1:0:0:0:1, 2+1:0:0:0:0, 1+1:0:1:0:0, 1+1:0:0:0:0, 2+1:0:1:0:0, 1+1:0:1:0:0, 1+1:0:0:0:1, 0+0:0:0:0:0, 1+0:0:0:0:0, 1+1:1:0:0:1, 2+1:0:0:0:0, 0+0:0:0:0:0, 1+1:0:0:0:0, 1+0:0:0:0:0, 1+1:0:0:0:1, 1+1:0:0:0:0, 0+0:0:0:0:0, 1+1:0:1:0:0, 0+0:0:0:0:0, 1+1:0:0:0:0, 2+1:1:0:0:1, 0+0:0:0:0:0, 2+1:0:0:0:0, 0+0:0:0:0:0, 2+1:0:0:0:0, 1+1:0:0:0:0, 1+1:0:0:0:0, 1+1:0:0:0:0, 2+1:0:1:0:0, 2+1:0:0:0:0, 0+0:0:0:0:0, 1+0:0:0:0:0, 2+1:1:0:0:1, 1+0:0:0:0:0, 0+0:0:0:0:0, 0+0:0:0:0:0, 0+0:0:0:0:0, 0+0:0:0:0:0, 0+0:0:0:0:0, 0+0:0:0:0:0, 0+0:0:0:0:0, 225+135:10:12:0:39
A major (3#), 2+0:0:0:0:0, 3+1:0:0:0:0, 3+1:0:0:0:0, 3+2:0:0:0:0, 2+0:0:0:0:0, 1+2:0:0:0:0, 2+2:1:0:0:0, 2+0:0:0:0:0, 1+0:0:0:0:0, 2+0:0:0:0:0, 2+1:1:0:0:0, 3+1:0:0:0:0, 2+0:0:0:0:0, 3+0:0:0:0:0, 2+0:0:0:0:0, 2+0:0:0:0:0, 2+0:0:0:0:0, 1+2:0:0:0:0, 2+2:1:0:0:0, 1+0:0:0:0:0, 2+1:0:0:0:0, 2+0:0:0:0:0, 3+1:0:0:0:0, 2+0:0:0:0:0, 3+2:0:0:0:0, 3+2:0:0:0:2, 2+1:0:0:0:0, 2+0:0:0:0:0, 1+3:3:0:0:0, 3+2:0:0:0:1, 3+1:0:0:0:0, 4+3:1:0:0:0, 2+1:0:0:0:0, 3+2:0:0:0:0, 3+1:0:0:0:0, 2+0:0:0:0:0, 2+2:0:0:0:0, 2+3:0:0:0:2, 2+1:1:0:0:0, 2+0:0:0:0:0, 4+2:0:0:0:0, 3+2:0:0:0:1, 2+2:0:0:0:0, 3+2:1:0:0:0, 3+1:0:0:0:0, 3+2:0:0:0:0, 3+1:0:0:0:0, 3+1:0:0:0:0, 2+1:1:0:0:0, 5+3:0:0:0:1, 3+2:0:0:0:0, 3+1:0:0:0:0, 3+3:0:0:0:0, 2+3:0:0:0:2, 3+3:0:0:0:0, 3+3:1:0:0:0, 2+1:0:0:0:0, 2+0:0:0:0:0, 2+0:0:0:0:0, 3+2:0:0:0:0, 2+1:0:0:0:0, 2+1:0:0:0:0, 3+1:1:0:0:1, 2+0:0:0:0:0, 5+3:0:0:0:0, 4+3:0:0:0:0, 3+1:0:0:0:0, 3+2:1:0:0:0, 2+1:0:0:0:0, 2+1:0:0:0:0, 2+1:1:0:0:0, 3+1:0:0:0:0, 2+0:0:0:0:0, 3+2:0:0:0:2, 2+1:1:0:0:0, 4+2:0:0:0:0, 2+4:0:0:0:3, 3+3:2:0:0:0, 3+1:0:0:0:0, 3+1:1:0:0:0, 2+1:0:0:0:0, 2+1:0:0:0:0, 2+4:2:0:0:0, 2+3:1:0:0:0, 3+2:0:0:0:0, 3+2:0:0:0:2, 2+1:0:0:0:0, 2+0:0:0:0:0, 2+3:0:0:0:0, 3+1:1:0:0:0, 2+1:1:1:0:1, 3+1:1:0:0:0, 2+2:0:0:0:0, 2+1:0:0:0:0, 2+0:0:0:0:0, 2+0:0:0:0:0, 2+1:1:0:0:0, 5+3:0:0:0:1, 3+2:0:0:0:0, 3+1:0:0:0:0, 3+3:0:0:0:0, 2+3:0:0:0:2, 3+3:0:0:0:0, 3+2:1:0:0:0, 2+1:0:0:0:0, 2+0:0:0:0:0, 2+0:0:0:0:0, 3+2:0:0:0:0, 2+1:0:0:0:0, 2+1:0:0:0:0, 3+1:1:0:0:1, 2+0:0:0:0:0, 5+3:0:0:0:0, 4+3:0:0:0:0, 3+1:0:0:0:0, 3+2:1:0:0:0, 2+1:0:0:0:0, 2+1:0:0:0:0, 3+3:1:0:0:1, 3+1:0:0:0:0, 2+0:0:0:0:0, 3+2:0:0:0:2, 2+1:1:0:0:0, 4+2:0:0:0:0, 2+4:0:0:0:3, 3+3:2:0:0:0, 3+1:0:0:0:0, 3+1:1:0:0:0, 2+1:0:0:0:0, 2+1:0:0:0:0, 2+1:1:0:0:0, 2+3:1:0:0:0, 3+2:0:0:0:0, 3+2:0:0:0:2, 2+1:0:0:0:0, 2+0:0:0:0:0, 2+3:0:0:0:0, 3+1:1:0:0:0, 2+1:1:1:0:1, 3+1:1:0:0:0, 2+2:0:0:0:0, 2+1:0:0:0:0, 2+0:0:0:0:0, 2+0:0:0:0:0, 3+2:0:0:0:0, 3+2:0:0:0:0, 2+2:2:0:0:0, 3+1:0:0:0:0, 1+3:3:0:0:0, 3+2:0:0:0:1, 2+1:1:1:0:1, 3+0:0:0:0:0, 3+2:0:0:0:0, 3+2:0:0:0:0, 4+2:0:0:0:0, 3+2:0:0:0:0, 1+1:1:0:0:0, 3+2:1:0:0:0, 3+1:1:0:0:0, 3+2:0:0:0:0, 3+3:0:0:0:2, 4+2:0:0:0:0, 2+0:0:0:0:0, 3+2:1:0:0:0, 3+2:0:0:0:0, 3+2:0:0:0:0, 2+0:0:0:0:0, 2+2:0:0:0:0, 3+2:1:0:0:0, 3+1:0:0:0:0, 3+2:1:0:0:0, 3+1:0:0:0:0, 1+3:3:0:0:0, 3+2:0:0:0:1, 3+1:0:0:0:0, 3+2:1:0:0:0, 2+1:0:0:0:1, 3+2:0:0:0:0, 3+1:1:1:0:1, 3+2:0:0:0:0, 2+0:0:0:0:0, 4+1:0:0:0:0, 3+1:0:0:0:0, 3+2:0:0:0:0, 4+1:0:0:0:0, 4+1:0:0:0:0, 3+1:0:0:0:0, 2+0:0:0:0:0, 2+1:0:0:0:0, 3+2:0:0:0:0, 2+0:0:0:0:0, 3+1:0:0:0:0, 3+0:0:0:0:0, 2+1:0:0:0:0, 2+1:0:0:0:0, 2+1:0:0:0:0, 2+1:0:0:0:0, 2+1:0:0:0:0, 3+1:0:0:0:0, 1+2:0:0:0:0, 3+1:0:0:0:0, 3+2:0:0:0:0, 2+0:0:0:0:0, 2+0:0:0:0:0, 1+0:0:0:0:0, 1+0:0:0:0:0, 1+0:0:0:0:0, 1+0:0:0:0:0, 1+0:0:0:0:0, 1+0:0:0:0:0, 528+283:55:4:0:38
C minor (3b), 0+4:0:0:0:0, 0+0:0:0:0:0, 1+0:0:0:0:0, 1+1:0:0:0:1, 0+2:0:0:0:0, 1+0:0:0:0:0, 0+1:0:0:0:0, 1+2:0:0:0:0, 1+0:0:0:0:0, 0+1:0:0:0:0, 1+3:0:0:0:1, 1+0:0:0:0:0, 1+5:0:0:0:0, 0+2:0:0:0:0, 0+2:0:0:0:0, 0+3:0:0:0:0, 0+1:0:0:0:0, 1+0:0:0:0:0, 0+1:0:0:0:0, 1+0:0:0:0:0, 0+0:0:0:0:0, 1+0:0:0:0:0, 1+1:0:0:0:0, 2+0:0:0:0:0, 1+2:0:0:0:0, 2+2:0:0:0:0, 1+1:0:0:0:1, 1+2:0:0:0:0, 1+1:0:0:0:1, 2+1:0:1:0:1, 0+3:0:0:0:0, 1+1:0:0:0:0, 1+0:0:0:0:0, 2+1:0:0:0:0, 1+3:0:0:0:0, 2+0:0:0:0:0, 1+0:0:0:0:0, 2+3:0:0:0:0, 2+1:0:0:0:0, 1+2:0:0:0:0, 0+1:0:0:0:0, 3+2:0:0:0:0, 2+0:0:0:0:0, 1+1:0:0:0:0, 1+1:0:0:0:0, 2+2:0:0:0:0, 1+0:0:0:0:0, 2+1:0:0:0:0, 2+1:0:0:0:0, 2+2:0:0:0:0, 2+3:0:0:0:0, 2+1:0:0:0:0, 1+3:0:0:0:0, 2+3:0:0:0:0, 3+1:0:0:0:0, 2+2:1:0:0:0, 2+1:0:0:0:0, 1+0:0:0:0:0, 0+3:0:0:0:0, 1+2:0:0:0:0, 1+1:0:0:0:1, 1+0:0:0:0:0, 1+2:0:0:0:0, 1+2:0:0:0:0, 2+3:0:0:0:0, 1+1:0:0:0:0, 1+3:0:1:0:1, 1+1:0:0:0:0, 1+0:0:0:0:0, 1+0:0:0:0:0, 0+2:0:0:0:0, 1+2:0:0:0:0, 0+1:0:0:0:0, 2+2:0:0:0:0, 2+0:0:0:0:0, 0+2:0:0:0:0, 1+1:0:0:0:0, 1+2:0:0:0:1, 1+1:0:0:0:0, 0+1:0:0:0:0, 1+1:0:0:0:0, 1+3:0:0:0:0, 2+4:0:0:0:0, 3+2:0:0:0:0, 1+1:0:0:0:0, 2+2:0:0:0:0, 1+1:1:0:0:0, 1+2:0:0:0:0, 0+0:0:0:0:0, 2+1:0:0:0:1, 1+0:0:0:0:0, 0+1:0:0:0:0, 1+1:0:0:0:0, 1+0:0:0:0:0, 0+2:0:0:0:0, 2+0:0:0:0:0, 2+1:0:0:0:0, 2+2:0:0:0:0, 2+3:0:0:0:0, 2+1:0:0:0:0, 1+3:0:0:0:0, 2+3:0:0:0:0, 2+0:0:0:0:0, 1+1:0:0:0:0, 2+1:0:0:0:0, 1+0:0:0:0:0, 0+3:0:0:0:0, 1+2:0:0:0:0, 1+1:0:0:0:1, 1+0:0:0:0:0, 1+2:0:0:0:0, 1+2:0:0:0:0, 2+3:0:0:0:0, 1+1:0:0:0:0, 1+3:0:1:0:1, 1+1:0:0:0:0, 1+0:0:0:0:0, 1+0:0:0:0:0, 1+3:1:0:0:1, 1+2:0:0:0:0, 0+1:0:0:0:0, 2+2:0:0:0:0, 1+4:0:0:0:1, 0+2:0:0:0:0, 1+1:0:0:0:0, 1+2:0:0:0:1, 1+1:0:0:0:0, 0+1:0:0:0:0, 1+1:0:0:0:0, 1+3:0:0:0:0, 1+3:0:0:0:0, 3+2:0:0:0:0, 1+1:0:0:0:0, 2+2:0:0:0:0, 1+3:0:0:0:0, 2+0:0:0:0:0, 0+1:0:0:0:0, 2+2:0:0:0:0, 1+0:0:0:0:0, 0+1:0:0:0:0, 1+1:0:0:0:0, 1+0:0:0:0:0, 0+2:0:0:0:0, 2+0:0:0:0:0, 1+2:0:0:0:0, 2+2:0:0:0:0, 1+4:2:0:0:2, 1+3:0:1:0:1, 1+1:0:0:0:0, 2+1:0:1:0:1, 1+0:0:0:0:0, 0+1:0:0:0:0, 2+1:0:0:0:0, 1+2:0:0:0:0, 1+1:0:0:0:0, 2+3:0:0:0:0, 2+1:0:0:0:0, 2+1:0:0:0:1, 1+2:0:0:0:0, 1+2:0:0:0:0, 1+1:0:0:0:0, 1+1:0:0:0:0, 1+2:0:0:0:0, 3+2:0:0:0:0, 0+0:0:0:0:0, 2+1:0:0:0:0, 0+2:0:0:0:0, 2+0:0:0:0:0, 1+1:0:0:0:0, 1+1:0:0:0:0, 2+2:0:0:0:0, 1+4:0:1:0:1, 1+1:0:0:0:0, 2+1:0:1:0:1, 1+3:0:1:0:1, 1+1:0:0:0:0, 0+0:0:0:0:0, 1+2:0:0:0:0, 1+3:1:0:0:1, 2+2:0:0:0:0, 0+2:0:0:0:0, 1+1:0:0:0:0, 1+2:0:0:0:0, 1+2:0:0:0:0, 1+1:0:0:0:0, 0+1:0:0:0:0, 1+2:0:1:0:1, 0+1:0:0:0:0, 1+1:0:0:0:0, 2+1:0:0:0:0, 0+2:0:0:0:0, 2+2:0:0:0:0, 0+1:0:0:0:0, 2+2:0:0:0:0, 1+1:0:0:0:1, 1+2:0:0:0:0, 1+1:0:0:0:0, 3+1:0:0:0:0, 2+1:0:0:0:0, 0+0:0:0:0:0, 1+0:0:0:0:0, 2+1:0:0:0:0, 1+0:0:0:0:0, 0+0:0:0:0:0, 0+1:0:0:0:0, 0+1:0:0:0:0, 0+1:0:0:0:0, 0+1:0:0:0:0, 0+1:0:0:0:0, 0+1:0:0:0:0, 230+295:6:9:0:25
F# minor (3#), 2+4:0:0:0:0, 3+1:0:0:0:0, 3+1:0:0:0:0, 3+2:0:0:0:0, 2+0:0:0:0:0, 1+0:0:0:0:0, 3+1:0:0:0:0, 2+0:0:0:0:0, 1+0:0:0:0:0, 2+0:0:0:0:0, 2+1:1:0:0:0, 3+1:0:0:0:0, 2+5:0:0:0:0, 3+0:0:0:0:0, 2+0:0:0:0:0, 2+0:0:0:0:0, 2+0:0:0:0:0, 1+0:0:0:0:0, 3+1:0:0:0:0, 2+0:0:0:0:0, 2+1:0:0:0:0, 2+0:0:0:0:0, 3+1:0:0:0:0, 2+0:0:0:0:0, 3+2:0:0:0:0, 3+2:0:0:0:2, 2+1:0:0:0:0, 2+4:0:0:0:0, 1+3:3:0:0:3, 3+2:0:0:0:1, 3+1:0:0:0:0, 4+3:1:0:0:0, 2+1:0:0:0:0, 3+2:0:0:0:0, 3+1:0:0:0:0, 2+0:0:0:0:0, 2+2:0:0:0:0, 2+3:0:0:0:2, 2+4:0:0:0:0, 2+3:0:0:0:0, 4+1:0:0:0:0, 3+2:0:0:0:1, 2+2:0:0:0:0, 3+2:1:0:0:0, 3+1:0:0:0:0, 3+2:0:0:0:0, 3+4:0:0:0:0, 3+1:0:0:0:0, 2+3:0:0:0:0, 5+3:0:0:0:1, 3+2:0:0:0:0, 3+1:0:0:0:0, 3+3:0:0:0:0, 2+3:0:0:0:2, 3+3:0:0:0:0, 3+3:1:0:0:0, 2+1:0:0:0:0, 2+0:0:0:0:0, 2+0:0:0:0:0, 3+2:0:0:0:0, 2+1:1:0:0:0, 2+0:0:0:0:0, 4+2:0:0:0:0, 2+0:0:0:0:0, 5+3:0:0:0:0, 3+1:1:0:0:1, 3+1:0:0:0:0, 3+2:1:0:0:0, 2+1:0:0:0:0, 2+1:0:0:0:0, 2+1:1:0:0:0, 3+1:0:0:0:0, 2+0:0:0:0:0, 3+2:0:0:0:2, 2+1:1:0:0:0, 4+1:0:0:0:0, 2+1:1:0:0:0, 3+1:1:0:0:1, 3+1:0:0:0:0, 3+1:1:0:0:0, 2+1:0:0:0:0, 2+1:0:0:0:0, 2+4:2:0:0:0, 2+2:0:0:0:0, 3+2:0:0:0:0, 3+2:0:0:0:2, 2+1:0:0:0:0, 2+0:0:0:0:0, 2+0:0:0:0:0, 3+1:1:0:0:0, 2+1:1:1:0:1, 3+1:1:0:0:0, 2+1:0:0:0:0, 2+1:0:0:0:0, 2+0:0:0:0:0, 2+0:0:0:0:0, 2+3:0:0:0:0, 5+3:0:0:0:1, 3+2:0:0:0:0, 3+1:0:0:0:0, 3+3:0:0:0:0, 2+3:0:0:0:2, 3+3:0:0:0:0, 3+2:1:0:0:0, 2+1:0:0:0:0, 2+0:0:0:0:0, 2+0:0:0:0:0, 3+2:0:0:0:0, 2+1:1:0:0:0, 2+0:0:0:0:0, 4+2:0:0:0:0, 2+0:0:0:0:0, 5+3:0:0:0:0, 3+1:1:0:0:1, 3+1:0:0:0:0, 3+2:1:0:0:0, 2+1:0:0:0:0, 2+1:0:0:0:0, 3+3:1:0:0:1, 3+1:0:0:0:0, 2+0:0:0:0:0, 3+2:0:0:0:2, 2+1:1:0:0:0, 4+1:0:0:0:0, 2+1:1:0:0:0, 3+1:1:0:0:1, 3+1:0:0:0:0, 3+1:1:0:0:0, 2+1:0:0:0:0, 2+1:0:0:0:0, 3+3:1:0:0:1, 2+3:1:0:0:0, 3+2:0:0:0:0, 3+2:0:0:0:2, 2+1:0:0:0:0, 2+0:0:0:0:0, 2+0:0:0:0:0, 3+1:1:0:0:0, 2+1:1:1:0:1, 3+1:1:0:0:0, 2+1:0:0:0:0, 2+1:0:0:0:0, 2+0:0:0:0:0, 2+0:0:0:0:0, 3+2:0:0:0:0, 3+2:0:0:0:2, 2+2:2:0:0:0, 3+1:0:0:0:0, 1+3:3:0:0:0, 3+2:0:0:0:1, 2+1:1:1:0:1, 3+0:0:0:0:0, 3+2:0:0:0:0, 3+2:0:0:0:0, 4+2:0:0:0:0, 3+1:0:0:0:0, 1+3:3:0:0:0, 3+2:1:0:0:0, 3+1:1:0:0:0, 3+2:0:0:0:0, 4+1:0:0:0:0, 3+1:1:0:0:1, 2+3:0:0:0:0, 3+3:0:0:0:0, 3+2:0:0:0:0, 3+2:0:0:0:0, 2+0:0:0:0:0, 2+2:0:0:0:0, 4+1:0:0:0:0, 3+1:0:0:0:0, 3+3:1:0:0:1, 3+1:0:0:0:0, 1+3:3:0:0:0, 3+2:0:0:0:1, 3+1:0:0:0:0, 3+2:1:0:0:0, 2+1:0:0:0:1, 3+2:0:0:0:0, 3+1:1:1:0:1, 3+2:0:0:0:0, 2+0:0:0:0:0, 4+1:0:0:0:0, 3+1:0:0:0:0, 3+2:0:0:0:0, 4+1:0:0:0:0, 4+1:0:0:0:0, 3+1:0:0:0:0, 2+0:0:0:0:0, 2+1:0:0:0:0, 3+2:0:0:0:0, 2+0:0:0:0:0, 3+2:0:0:0:0, 3+3:0:0:0:0, 2+1:0:0:0:0, 2+1:0:0:0:0, 3+2:0:0:0:0, 2+1:0:0:0:0, 3+2:0:0:0:0, 4+1:0:0:0:0, 1+2:0:0:0:0, 3+2:0:0:0:0, 3+2:0:0:0:0, 2+2:0:0:0:0, 2+0:0:0:0:0, 1+0:0:0:0:0, 1+0:0:0:0:0, 1+0:0:0:0:0, 1+0:0:0:0:0, 1+0:0:0:0:0, 1+0:0:0:0:0, 536+290:52:4:0:40
Ab major (4b), 1+0:0:0:0:0, 0+0:0:0:0:0, 1+0:0:0:0:0, 2+1:0:0:0:1, 0+0:0:0:0:0, 1+2:0:0:0:0, 0+0:0:0:0:0, 0+0:0:0:0:0, 1+0:0:0:0:0, 0+0:0:0:0:0, 2+1:0:0:0:0, 1+0:0:0:0:0, 1+0:0:0:0:0, 0+2:0:0:0:0, 0+0:0:0:0:0, 0+0:0:0:0:0, 0+0:0:0:0:0, 1+2:0:0:0:0, 0+0:0:0:0:0, 0+0:0:0:0:0, 0+0:0:0:0:0, 1+1:0:0:0:0, 1+1:0:0:0:0, 2+0:0:0:0:0, 2+1:0:0:0:0, 2+1:0:0:0:0, 2+1:0:0:0:0, 2+1:0:0:0:0, 2+1:0:0:0:0, 2+1:0:1:0:0, 0+0:0:0:0:0, 2+1:0:0:0:1, 2+0:0:0:0:0, 2+1:1:0:0:1, 2+1:0:0:0:0, 2+1:0:0:0:0, 1+0:0:0:0:0, 1+3:0:0:0:0, 2+1:0:0:0:0, 1+0:0:0:0:0, 0+2:0:0:0:0, 2+2:0:0:0:0, 2+0:0:0:0:0, 2+1:0:0:0:1, 2+1:0:0:0:1, 2+1:1:0:0:1, 1+0:0:0:0:0, 2+1:0:0:0:0, 2+1:0:0:0:0, 2+2:0:0:0:0, 2+1:0:0:0:0, 3+1:0:0:0:0, 1+2:0:0:0:0, 1+3:0:0:0:0, 3+1:0:0:0:0, 3+2:1:0:0:2, 2+1:0:0:0:0, 1+0:0:0:0:0, 1+0:0:0:0:0, 1+0:0:0:0:0, 2+1:0:0:0:0, 2+1:0:0:0:0, 2+1:0:0:0:0, 2+0:0:0:0:0, 1+1:0:0:0:1, 2+1:0:0:0:1, 1+1:0:1:0:0, 2+1:0:0:0:1, 2+0:0:0:0:0, 1+0:0:0:0:0, 1+0:0:0:0:0, 1+0:0:0:0:0, 1+0:0:0:0:0, 2+1:0:0:0:0, 3+1:0:0:0:0, 1+0:0:0:0:0, 2+1:0:0:0:0, 2+1:0:0:0:0, 1+0:0:0:0:0, 1+0:0:0:0:0, 2+1:0:0:0:0, 2+0:0:0:0:0, 1+1:0:0:0:0, 2+1:0:0:0:0, 2+1:0:0:0:0, 2+1:0:0:0:0, 2+1:1:0:0:1, 2+1:0:0:0:0, 1+0:0:0:0:0, 1+1:0:0:0:1, 0+0:0:0:0:0, 1+0:0:0:0:0, 2+0:0:0:0:0, 1+0:0:0:0:0, 1+0:0:0:0:0, 2+0:0:0:0:0, 2+1:0:0:0:0, 2+2:0:0:0:0, 2+1:0:0:0:0, 3+1:0:0:0:0, 1+2:0:0:0:0, 1+3:0:0:0:0, 2+0:0:0:0:0, 2+2:0:0:0:0, 2+1:0:0:0:0, 1+0:0:0:0:0, 1+0:0:0:0:0, 1+0:0:0:0:0, 2+1:0:0:0:0, 2+1:0:0:0:0, 2+1:0:0:0:0, 2+0:0:0:0:0, 1+1:0:0:0:1, 2+1:0:0:0:1, 1+1:0:1:0:0, 2+1:0:0:0:1, 2+0:0:0:0:0, 1+0:0:0:0:0, 1+1:0:0:0:0, 1+0:0:0:0:0, 1+0:0:0:0:0, 2+1:0:0:0:0, 2+1:0:0:0:0, 1+0:0:0:0:0, 2+1:0:0:0:0, 2+1:0:0:0:0, 1+0:0:0:0:0, 1+0:0:0:0:0, 2+1:0:0:0:0, 1+0:0:0:0:0, 0+0:0:0:0:0, 2+1:0:0:0:0, 2+1:0:0:0:0, 2+1:0:0:0:0, 2+1:0:0:0:0, 1+1:0:0:0:1, 1+0:0:0:0:0, 1+1:0:0:0:1, 0+0:0:0:0:0, 1+0:0:0:0:0, 2+0:0:0:0:0, 1+0:0:0:0:0, 1+0:0:0:0:0, 2+0:0:0:0:0, 2+1:0:0:0:0, 2+1:0:0:0:0, 2+2:0:0:0:0, 2+1:0:1:0:0, 2+1:0:0:0:0, 2+2:0:1:0:0, 0+0:0:0:0:0, 1+0:0:0:0:0, 1+1:0:1:0:0, 1+0:0:0:0:0, 2+1:0:0:0:0, 2+0:0:0:0:0, 2+1:0:0:0:0, 2+2:0:0:0:0, 1+1:0:0:0:1, 2+1:0:0:0:1, 1+1:0:0:0:0, 1+2:0:0:0:2, 1+0:0:0:0:0, 4+2:0:0:0:0, 0+1:0:0:0:0, 2+1:1:0:0:1, 1+0:0:0:0:0, 2+0:0:0:0:0, 0+0:0:0:0:0, 2+1:0:0:0:1, 1+1:0:0:0:0, 1+1:0:1:0:0, 2+1:0:0:0:0, 2+1:0:1:0:0, 1+1:0:1:0:0, 2+1:0:0:0:1, 1+0:0:0:0:0, 1+1:0:0:0:0, 1+1:0:0:0:0, 2+1:0:0:0:1, 1+0:0:0:0:0, 1+1:0:0:0:1, 1+0:0:0:0:0, 2+1:0:0:0:1, 1+1:0:0:0:0, 0+0:0:0:0:0, 1+1:0:1:0:0, 1+0:0:0:0:0, 2+1:0:0:0:1, 2+1:1:0:0:1, 1+0:0:0:0:0, 2+1:0:0:0:0, 1+0:0:0:0:0, 2+1:0:0:0:0, 2+1:0:0:0:0, 2+1:0:0:0:0, 2+1:0:0:0:0, 2+1:0:1:0:0, 2+1:0:0:0:0, 1+0:0:0:0:0, 1+0:0:0:0:0, 2+1:1:0:0:1, 1+0:0:0:0:0, 0+0:0:0:0:0, 0+0:0:0:0:0, 0+0:0:0:0:0, 0+0:0:0:0:0, 0+0:0:0:0:0, 0+0:0:0:0:0, 0+0:0:0:0:0, 292+143:7:11:0:31
E major (4#), 3+1:0:0:0:0, 3+1:0:0:0:0, 3+1:0:0:0:0, 4+2:0:0:0:0, 2+0:0:0:0:0, 1+0:0:0:0:0, 3+1:0:0:0:0, 2+1:1:0:0:0, 1+0:0:0:0:0, 2+3:0:0:0:0, 3+1:1:0:0:0, 3+1:0:0:0:0, 2+5:0:0:0:0, 3+0:0:0:0:0, 2+1:0:0:0:0, 2+1:0:0:0:0, 2+0:0:0:0:0, 1+0:0:0:0:0, 3+1:0:0:0:0, 1+2:2:0:0:0, 2+0:0:0:0:0, 2+2:0:0:0:0, 2+1:0:0:0:0, 2+0:0:0:0:0, 4+2:0:0:0:0, 3+2:0:0:0:0, 3+1:1:0:0:0, 3+0:0:0:0:0, 2+1:1:0:0:0, 3+1:0:0:0:0, 3+1:0:0:0:0, 5+3:1:0:0:0, 3+1:0:0:0:0, 3+2:0:0:0:0, 4+1:0:0:0:0, 2+0:0:0:0:0, 2+2:0:0:0:0, 2+3:0:0:0:1, 2+4:0:0:0:0, 2+3:0:0:0:0, 4+1:0:0:0:0, 3+2:0:0:0:1, 2+2:0:0:0:0, 4+2:1:0:0:0, 4+1:0:0:0:0, 3+2:0:0:0:0, 3+4:0:0:0:0, 3+1:0:0:0:0, 2+3:0:0:0:0, 5+3:0:0:0:1, 2+2:0:0:0:0, 4+1:0:0:0:0, 3+3:0:0:0:0, 2+3:0:0:0:1, 2+3:0:0:0:0, 4+3:1:0:0:0, 2+1:0:0:0:0, 2+0:0:0:0:0, 3+0:0:0:0:0, 3+2:0:0:0:0, 3+1:1:0:0:0, 3+0:0:0:0:0, 5+2:0:0:0:0, 3+0:0:0:0:0, 4+2:1:0:0:0, 5+1:0:0:0:0, 2+1:1:0:0:1, 4+2:1:0:0:0, 3+1:0:0:0:0, 2+1:0:0:0:0, 3+1:1:0:0:0, 3+1:0:0:0:0, 3+0:0:0:0:0, 3+2:0:0:0:1, 3+3:2:0:0:2, 5+1:0:0:0:0, 3+1:1:0:0:0, 4+1:1:0:0:1, 3+1:0:0:0:0, 4+2:1:0:0:1, 3+1:0:0:0:0, 3+1:0:0:0:0, 2+4:2:0:0:0, 2+2:0:0:0:0, 4+2:0:0:0:0, 3+2:0:0:0:1, 3+1:1:0:0:0, 3+0:0:0:0:0, 3+0:0:0:0:0, 3+1:1:0:0:0, 3+1:0:0:0:1, 4+1:1:0:0:0, 3+1:0:0:0:0, 2+1:0:0:0:0, 3+0:0:0:0:0, 2+0:0:0:0:0, 2+3:0:0:0:0, 5+3:0:0:0:1, 2+2:0:0:0:0, 4+1:0:0:0:0, 3+3:0:0:0:0, 2+3:0:0:0:1, 3+3:0:0:0:0, 4+2:1:0:0:0, 2+1:0:0:0:0, 2+0:0:0:0:0, 3+0:0:0:0:0, 3+2:0:0:0:0, 3+1:1:0:0:0, 3+0:0:0:0:0, 5+2:0:0:0:0, 3+0:0:0:0:0, 4+2:1:0:0:0, 5+1:0:0:0:0, 2+1:1:0:0:1, 4+2:1:0:0:0, 3+1:0:0:0:0, 2+1:0:0:0:0, 3+4:2:0:0:0, 3+1:0:0:0:0, 3+0:0:0:0:0, 3+2:0:0:0:1, 3+1:1:0:0:0, 5+1:0:0:0:0, 3+1:1:0:0:0, 4+1:1:0:0:1, 3+1:0:0:0:0, 4+2:1:0:0:1, 3+1:0:0:0:0, 2+1:0:0:0:0, 3+3:1:0:0:1, 2+2:0:0:0:0, 4+1:0:0:0:0, 3+2:0:0:0:0, 3+1:1:0:0:0, 2+0:0:0:0:0, 3+0:0:0:0:0, 3+1:1:0:0:0, 3+1:0:0:0:1, 4+1:1:0:0:0, 3+1:0:0:0:0, 2+1:0:0:0:0, 3+0:0:0:0:0, 2+0:0:0:0:0, 4+2:0:0:0:0, 3+2:0:0:0:0, 3+2:2:0:0:0, 4+1:0:0:0:0, 2+1:1:0:0:0, 3+1:0:0:0:0, 3+1:0:0:0:1, 4+1:0:0:0:0, 3+1:0:0:0:0, 3+2:0:0:0:0, 5+2:0:0:0:0, 3+1:0:0:0:0, 1+3:3:0:0:0, 3+2:1:0:0:0, 3+1:1:0:0:0, 4+2:0:0:0:0, 3+1:1:0:0:1, 4+2:0:0:0:0, 2+3:0:0:0:0, 4+3:0:0:0:0, 2+2:0:0:0:0, 3+2:0:0:0:0, 3+0:0:0:0:0, 2+0:0:0:0:0, 3+2:1:0:0:0, 4+1:0:0:0:0, 4+2:1:0:0:0, 2+1:1:0:0:1, 2+1:1:0:0:0, 3+1:0:0:0:0, 2+1:1:0:0:1, 4+2:1:0:0:0, 3+1:0:0:0:1, 2+2:0:0:0:0, 4+1:1:1:0:1, 2+2:0:0:0:0, 3+0:0:0:0:0, 4+1:0:0:0:0, 3+2:0:0:0:0, 4+2:0:0:0:0, 3+1:1:0:0:1, 3+1:1:0:0:1, 2+1:1:0:0:1, 3+0:0:0:0:0, 3+1:0:0:0:0, 3+2:0:0:0:0, 3+0:0:0:0:0, 3+2:0:0:0:0, 4+3:0:0:0:0, 1+1:0:0:0:0, 3+1:0:0:0:0, 4+2:0:0:0:0, 1+1:0:0:0:0, 3+2:0:0:0:0, 3+1:0:0:0:0, 2+2:0:0:0:0, 3+2:0:0:0:0, 3+2:0:0:0:0, 2+2:0:0:0:0, 2+0:0:0:0:0, 1+0:0:0:0:0, 1+0:0:0:0:0, 1+0:0:0:0:0, 1+0:0:0:0:0, 1+0:0:0:0:0, 1+0:0:0:0:0, 605+284:58:1:0:29
F minor (4b), 1+0:0:0:0:0, 0+2:0:0:0:0, 1+1:0:0:0:0, 2+1:0:0:0:0, 0+2:0:0:0:0, 1+2:0:0:0:0, 0+0:0:0:0:0, 0+0:0:0:0:0, 1+0:0:0:0:0, 0+0:0:0:0:0, 2+1:0:0:0:0, 1+0:0:0:0:0, 1+0:0:0:0:0, 0+2:0:0:0:0, 0+0:0:0:0:0, 0+0:0:0:0:0, 0+2:0:0:0:0, 1+2:0:0:0:0, 0+0:0:0:0:0, 0+0:0:0:0:0, 0+0:0:0:0:0, 1+1:0:0:0:0, 1+1:0:0:0:0, 2+0:0:0:0:0, 2+1:0:0:0:0, 2+2:0:0:0:0, 2+1:0:0:0:0, 2+0:0:0:0:0, 2+1:0:0:0:0, 2+1:0:1:0:1, 0+3:0:0:0:0, 2+1:0:0:0:0, 2+0:0:0:0:0, 2+1:1:0:0:1, 2+1:0:0:0:0, 2+1:0:0:0:0, 1+0:0:0:0:0, 1+3:0:0:0:0, 2+1:0:0:0:0, 1+0:0:0:0:0, 0+2:0:0:0:0, 2+2:0:0:0:0, 2+0:0:0:0:0, 2+2:0:0:0:0, 2+1:0:0:0:0, 2+1:1:0:0:1, 1+0:0:0:0:0, 2+1:0:0:0:0, 2+1:0:0:0:0, 2+2:0:0:0:0, 2+1:0:0:0:0, 3+1:0:0:0:0, 1+2:0:0:0:0, 1+3:0:0:0:0, 3+1:0:0:0:0, 3+2:1:0:0:0, 2+1:0:0:0:0, 1+0:0:0:0:0, 1+0:0:0:0:0, 1+0:0:0:0:0, 2+1:0:0:0:0, 2+0:0:0:0:0, 2+1:0:0:0:0, 2+0:0:0:0:0, 1+3:0:0:0:0, 2+1:0:0:0:0, 1+3:0:1:0:1, 2+1:0:0:0:0, 2+0:0:0:0:0, 1+0:0:0:0:0, 1+1:0:0:0:0, 1+0:0:0:0:0, 1+0:0:0:0:0, 2+2:0:0:0:0, 3+1:0:0:0:0, 1+2:0:0:0:0, 2+1:0:0:0:0, 2+2:0:0:0:1, 1+1:0:0:0:0, 1+1:0:0:0:0, 2+1:0:0:0:0, 2+0:0:0:0:0, 1+1:0:0:0:0, 2+1:0:0:0:0, 2+1:0:0:0:0, 2+2:0:0:0:0, 2+1:1:0:0:1, 2+0:0:0:0:0, 1+1:0:0:0:0, 1+2:0:0:0:0, 0+0:0:0:0:0, 1+1:0:0:0:0, 2+0:0:0:0:0, 1+0:0:0:0:0, 1+0:0:0:0:0, 2+0:0:0:0:0, 2+1:0:0:0:0, 2+2:0:0:0:0, 2+1:0:0:0:0, 3+1:0:0:0:0, 1+2:0:0:0:0, 1+3:0:0:0:0, 2+0:0:0:0:0, 2+2:0:0:0:0, 2+1:0:0:0:0, 1+0:0:0:0:0, 1+0:0:0:0:0, 1+0:0:0:0:0, 2+1:0:0:0:0, 2+0:0:0:0:0, 2+1:0:0:0:0, 2+0:0:0:0:0, 1+3:0:0:0:0, 2+1:0:0:0:0, 1+3:0:1:0:1, 2+1:0:0:0:0, 2+0:0:0:0:0, 1+0:0:0:0:0, 1+1:0:0:0:0, 1+0:0:0:0:0, 1+0:0:0:0:0, 2+2:0:0:0:0, 2+1:0:0:0:0, 1+2:0:0:0:0, 2+1:0:0:0:0, 2+2:0:0:0:1, 1+1:0:0:0:0, 1+1:0:0:0:0, 2+1:0:0:0:0, 1+0:0:0:0:0, 0+0:0:0:0:0, 2+1:0:0:0:0, 2+1:0:0:0:0, 2+2:0:0:0:0, 2+3:0:0:0:0, 1+0:0:0:0:0, 1+1:0:0:0:0, 1+2:0:0:0:0, 0+0:0:0:0:0, 1+1:0:0:0:0, 2+0:0:0:0:0, 1+0:0:0:0:0, 1+0:0:0:0:0, 2+0:0:0:0:0, 2+1:0:0:0:0, 2+2:0:0:0:0, 2+4:0:0:0:0, 2+3:0:1:0:1, 2+1:0:0:0:0, 3+2:0:0:0:0, 0+0:0:0:0:0, 1+0:0:0:0:0, 1+2:0:1:0:1, 1+1:0:0:0:0, 2+1:0:0:0:0, 2+0:0:0:0:0, 2+1:0:0:0:0, 2+2:0:0:0:0, 1+1:0:0:0:0, 2+1:0:0:0:0, 1+3:0:0:0:0, 1+3:0:0:0:0, 1+0:0:0:0:0, 4+2:0:0:0:0, 0+1:0:0:0:0, 2+1:1:0:0:1, 1+0:0:0:0:0, 2+0:0:0:0:0, 0+1:0:0:0:0, 2+1:0:0:0:0, 1+2:0:0:0:0, 2+1:0:0:0:0, 2+1:0:0:0:0, 2+1:0:1:0:1, 1+3:0:1:0:1, 2+1:0:0:0:0, 1+0:0:0:0:0, 1+1:0:0:0:0, 1+1:0:0:0:0, 2+2:0:0:0:0, 1+0:0:0:0:0, 1+2:0:0:0:0, 1+0:0:0:0:0, 2+1:0:0:0:0, 1+3:0:0:0:0, 0+1:0:0:0:0, 2+1:0:0:0:0, 1+0:0:0:0:0, 2+1:0:0:0:0, 2+1:1:0:0:1, 1+0:0:0:0:0, 2+0:0:0:0:0, 1+0:0:0:0:0, 2+1:0:0:0:0, 2+1:0:0:0:0, 2+0:0:0:0:0, 2+1:0:0:0:0, 3+1:0:0:0:0, 2+1:0:0:0:0, 1+1:0:0:0:0, 1+0:0:0:0:0, 2+1:1:0:0:1, 1+0:0:0:0:0, 0+0:0:0:0:0, 0+0:0:0:0:0, 0+0:0:0:0:0, 0+0:0:0:0:0, 0+0:0:0:0:0, 0+0:0:0:0:0, 0+0:0:0:0:0, 296+199:7:7:0:15
C# minor (4#), 3+1:0:0:0:0, 3+1:0:0:0:0, 3+1:0:0:0:0, 4+2:0:0:0:0, 2+0:0:0:0:0, 1+0:0:0:0:0, 3+1:0:0:0:0, 2+1:1:0:0:0, 1+0:0:0:0:0, 2+3:0:0:0:0, 3+1:1:0:0:0, 3+1:0:0:0:0, 2+0:0:0:0:0, 3+0:0:0:0:0, 2+1:0:0:0:0, 2+1:0:0:0:0, 2+0:0:0:0:0, 1+0:0:0:0:0, 3+1:0:0:0:0, 1+2:2:0:0:0, 2+0:0:0:0:0, 2+2:0:0:0:0, 2+1:0:0:0:0, 2+0:0:0:0:0, 4+2:0:0:0:0, 3+2:0:0:0:0, 3+1:1:0:0:0, 3+0:0:0:0:0, 2+1:1:0:0:0, 3+1:0:0:0:0, 3+1:0:0:0:0, 5+3:1:0:0:0, 3+1:0:0:0:0, 3+2:0:0:0:0, 4+1:0:0:0:0, 2+0:0:0:0:0, 2+2:0:0:0:0, 2+3:0:0:0:1, 2+1:1:0:0:0, 2+0:0:0:0:0, 4+1:0:0:0:0, 3+2:0:0:0:1, 2+0:0:0:0:0, 4+2:1:0:0:0, 4+1:0:0:0:0, 3+2:0:0:0:0, 3+1:0:0:0:0, 3+1:0:0:0:0, 2+1:1:0:0:0, 4+2:1:1:0:1, 2+1:1:0:0:1, 4+1:0:0:0:0, 3+3:0:0:0:0, 3+3:0:0:0:0, 2+1:1:0:0:1, 4+3:1:0:0:0, 2+1:0:0:0:0, 2+0:0:0:0:0, 3+0:0:0:0:0, 3+2:0:0:0:0, 3+1:1:0:0:0, 3+0:0:0:0:0, 5+2:0:0:0:0, 3+0:0:0:0:0, 5+3:0:0:0:0, 5+1:0:0:0:0, 2+1:1:0:0:1, 4+2:1:0:0:0, 3+1:0:0:0:0, 2+1:0:0:0:0, 3+1:1:0:0:0, 3+1:0:0:0:0, 3+0:0:0:0:0, 3+2:0:0:0:0, 3+0:0:0:0:0, 5+1:0:0:0:0, 3+1:1:0:0:0, 4+1:1:0:0:1, 3+1:0:0:0:0, 4+2:1:0:0:1, 3+1:0:0:0:0, 3+1:0:0:0:0, 2+4:2:0:0:0, 2+2:0:0:0:0, 4+2:0:0:0:0, 3+2:0:0:0:0, 3+1:1:0:0:0, 3+0:0:0:0:0, 3+0:0:0:0:0, 3+1:1:0:0:0, 3+1:0:0:0:1, 4+2:1:0:0:1, 3+2:0:0:0:0, 2+1:0:0:0:0, 3+0:0:0:0:0, 2+0:0:0:0:0, 2+1:1:0:0:0, 4+2:1:1:0:1, 2+1:1:0:0:1, 4+1:0:0:0:0, 3+3:0:0:0:0, 3+3:0:0:0:0, 3+0:0:0:0:0, 4+2:1:0:0:0, 2+1:0:0:0:0, 2+0:0:0:0:0, 3+0:0:0:0:0, 3+2:0:0:0:0, 3+1:1:0:0:0, 3+0:0:0:0:0, 5+2:0:0:0:0, 3+0:0:0:0:0, 5+3:0:0:0:0, 5+1:0:0:0:0, 2+1:1:0:0:1, 4+2:1:0:0:0, 3+1:0:0:0:0, 2+1:0:0:0:0, 4+3:1:0:0:1, 3+2:0:0:0:0, 3+1:0:0:0:0, 3+2:0:0:0:0, 3+0:0:0:0:0, 5+1:0:0:0:0, 3+1:1:0:0:0, 4+1:1:0:0:1, 3+1:0:0:0:0, 4+2:1:0:0:1, 4+1:0:0:0:0, 2+3:0:0:0:0, 3+3:1:0:0:1, 2+2:0:0:0:0, 4+2:0:0:0:0, 3+2:0:0:0:0, 3+1:1:0:0:0, 2+0:0:0:0:0, 3+0:0:0:0:0, 3+1:1:0:0:0, 3+1:0:0:0:1, 4+2:1:0:0:1, 3+2:0:0:0:0, 2+1:0:0:0:0, 3+0:0:0:0:0, 2+0:0:0:0:0, 4+2:0:0:0:0, 3+2:0:0:0:0, 3+2:2:0:0:0, 4+1:0:0:0:0, 2+1:1:0:0:0, 3+1:0:0:0:0, 3+1:0:0:0:1, 4+1:0:0:0:0, 3+1:0:0:0:0, 3+2:0:0:0:0, 5+2:0:0:0:0, 3+2:0:0:0:0, 1+1:1:0:0:0, 3+1:0:0:0:0, 3+1:1:0:0:0, 4+2:0:0:0:0, 4+1:0:0:0:0, 4+2:0:0:0:0, 2+0:0:0:0:0, 4+2:1:0:0:0, 3+0:0:0:0:0, 3+2:0:0:0:0, 3+0:0:0:0:0, 2+2:0:0:0:0, 3+2:1:0:0:0, 4+1:0:0:0:0, 4+2:1:0:0:0, 2+1:1:0:0:1, 2+1:1:0:0:0, 3+1:0:0:0:0, 2+1:1:0:0:1, 4+2:1:0:0:0, 3+0:0:0:0:0, 3+2:0:0:0:0, 4+1:1:1:0:1, 2+2:0:0:0:0, 3+0:0:0:0:0, 4+1:0:0:0:0, 3+2:0:0:0:0, 4+1:0:0:0:0, 4+1:0:0:0:0, 4+1:0:0:0:0, 2+1:1:0:0:1, 3+0:0:0:0:0, 3+1:0:0:0:0, 3+2:0:0:0:0, 3+0:0:0:0:0, 3+1:0:0:0:0, 4+0:0:0:0:0, 1+1:0:0:0:0, 3+1:0:0:0:0, 4+2:0:0:0:0, 1+1:0:0:0:0, 4+2:0:0:0:0, 3+1:0:0:0:0, 2+2:0:0:0:0, 3+2:0:0:0:0, 2+1:0:1:0:1, 2+1:1:0:0:1, 2+0:0:0:0:0, 1+0:0:0:0:0, 1+0:0:0:0:0, 1+0:0:0:0:0, 1+0:0:0:0:0, 1+0:0:0:0:0, 1+0:0:0:0:0, 614+247:56:4:0:26
Db major (5b), 1+0:0:0:0:0, 0+0:0:0:0:0, 1+0:0:0:0:0, 2+1:0:0:0:1, 0+0:0:0:0:0, 1+0:0:0:0:0, 0+1:0:0:0:0, 1+0:0:0:0:0, 1+0:0:0:0:0, 0+0:0:0:0:0, 3+1:0:0:0:0, 2+0:0:0:0:0, 1+1:0:0:0:0, 1+0:0:0:0:0, 0+0:0:0:0:0, 0+0:0:0:0:0, 0+0:0:0:0:0, 1+0:0:0:0:0, 0+1:0:0:0:0, 0+0:0:0:0:0, 1+0:0:0:0:0, 1+1:0:0:0:1, 2+1:0:0:0:0, 2+0:0:0:0:0, 2+1:0:0:0:1, 2+1:0:0:0:0, 2+1:0:0:0:0, 2+1:0:0:0:0, 2+1:0:0:0:0, 2+1:0:1:0:0, 0+0:0:0:0:0, 3+1:0:0:0:1, 3+0:0:0:0:0, 2+1:0:0:0:0, 3+1:0:0:0:1, 2+1:0:0:0:0, 1+2:0:0:0:0, 1+1:0:0:0:1, 3+1:0:0:0:0, 1+1:0:0:0:0, 1+0:0:0:0:0, 2+2:0:0:0:1, 2+1:0:0:0:0, 3+1:0:0:0:1, 2+1:0:0:0:0, 2+1:0:0:0:0, 2+0:0:0:0:0, 1+1:0:0:0:0, 3+1:0:0:0:0, 3+2:0:0:0:0, 2+1:0:0:0:0, 3+1:0:0:0:0, 1+2:0:0:0:0, 1+1:0:0:0:1, 2+1:0:1:0:1, 3+2:0:0:0:1, 2+1:0:0:0:0, 1+0:0:0:0:0, 2+0:0:0:0:0, 1+0:0:0:0:0, 2+1:0:0:0:0, 2+0:0:0:0:0, 2+1:0:0:0:0, 2+1:0:0:0:0, 1+1:0:0:0:1, 2+1:0:0:0:1, 1+1:0:1:0:0, 3+1:0:0:0:1, 3+0:0:0:0:0, 2+0:0:0:0:0, 2+0:0:0:0:0, 2+0:0:0:0:0, 1+0:0:0:0:0, 2+1:0:0:0:0, 4+1:0:0:0:0, 1+0:0:0:0:0, 2+1:0:0:0:0, 3+1:0:0:0:0, 1+0:0:0:0:0, 2+0:0:0:0:0, 2+1:0:0:0:0, 3+0:0:0:0:0, 2+2:0:0:0:0, 1+1:0:0:0:0, 2+1:0:0:0:1, 2+1:0:0:0:0, 2+1:1:0:0:1, 2+1:0:0:0:0, 1+0:0:0:0:0, 1+1:0:0:0:1, 0+0:0:0:0:0, 2+0:0:0:0:0, 2+1:0:0:0:0, 2+0:0:0:0:0, 2+0:0:0:0:0, 2+0:0:0:0:0, 3+1:0:0:0:0, 3+2:0:0:0:0, 2+1:0:0:0:0, 3+1:0:0:0:0, 1+2:0:0:0:0, 1+1:0:0:0:1, 3+1:0:0:0:0, 3+1:0:0:0:1, 2+1:0:0:0:0, 1+0:0:0:0:0, 2+0:0:0:0:0, 1+0:0:0:0:0, 2+1:0:0:0:0, 2+0:0:0:0:0, 2+1:0:0:0:0, 2+1:0:0:0:0, 1+1:0:0:0:1, 2+1:0:0:0:1, 1+1:0:1:0:0, 3+1:0:0:0:1, 3+0:0:0:0:0, 2+0:0:0:0:0, 2+1:0:0:0:0, 2+0:0:0:0:0, 1+0:0:0:0:0, 2+1:0:0:0:0, 3+1:0:0:0:0, 1+0:0:0:0:0, 2+1:0:0:0:0, 3+1:0:0:0:0, 1+0:0:0:0:0, 2+0:0:0:0:0, 2+1:0:0:0:0, 2+0:0:0:0:0, 1+5:0:0:0:0, 1+1:0:0:0:0, 2+1:0:0:0:1, 2+1:0:0:0:0, 2+1:0:0:0:0, 1+1:0:0:0:1, 1+0:0:0:0:0, 1+1:0:0:0:1, 0+0:0:0:0:0, 2+0:0:0:0:0, 2+1:0:0:0:0, 2+0:0:0:0:0, 2+0:0:0:0:0, 2+0:0:0:0:0, 2+1:0:0:0:1, 2+1:0:0:0:0, 2+2:0:0:0:0, 2+1:0:1:0:0, 2+1:0:0:0:0, 2+1:0:1:0:0, 0+0:0:0:0:0, 2+0:0:0:0:0, 1+1:0:1:0:0, 2+0:0:0:0:0, 3+1:0:0:0:1, 2+1:0:0:0:0, 2+1:0:0:0:0, 3+1:0:0:0:0, 2+1:0:0:0:1, 2+1:0:0:0:1, 2+1:0:0:0:0, 1+2:0:0:0:2, 1+1:0:0:0:0, 5+2:0:0:0:1, 1+0:0:0:0:0, 2+1:0:0:0:0, 2+0:0:0:0:0, 2+1:0:0:0:0, 0+0:0:0:0:0, 3+1:0:0:0:0, 1+1:0:0:0:0, 1+1:0:1:0:1, 2+1:0:0:0:0, 2+1:0:1:0:0, 1+1:0:1:0:0, 3+1:0:0:0:1, 1+0:0:0:0:0, 2+0:0:0:0:0, 2+1:0:0:0:0, 2+1:0:0:0:0, 1+0:0:0:0:0, 2+1:0:0:0:0, 1+0:0:0:0:0, 2+1:0:0:0:1, 2+1:0:0:0:0, 1+0:0:0:0:0, 1+1:0:1:0:0, 2+0:0:0:0:0, 2+1:0:0:0:0, 2+1:0:0:0:0, 2+0:0:0:0:0, 2+1:0:0:0:0, 2+0:0:0:0:0, 2+1:0:0:0:0, 2+1:0:0:0:0, 2+1:0:0:0:0, 2+1:0:0:0:0, 2+1:0:1:0:0, 2+1:0:0:0:0, 2+1:0:0:0:0, 2+0:0:0:0:0, 2+1:0:0:0:0, 2+0:0:0:0:0, 0+0:0:0:0:0, 0+0:0:0:0:0, 0+0:0:0:0:0, 0+0:0:0:0:0, 0+0:0:0:0:0, 0+0:0:0:0:0, 0+0:0:0:0:0, 357+144:1:12:0:35
B major (5#), 3+0:0:0:0:0, 3+1:0:0:0:0, 3+1:0:0:0:0, 4+2:0:0:0:0, 2+0:0:0:0:0, 2+0:0:0:0:0, 3+1:0:0:0:0, 2+0:0:0:0:0, 1+2:0:0:0:0, 2+0:0:0:0:0, 3+1:1:0:0:0, 4+1:0:0:0:0, 2+0:0:0:0:0, 3+0:0:0:0:0, 2+0:0:0:0:0, 2+0:0:0:0:0, 2+0:0:0:0:0, 2+0:0:0:0:0, 3+1:0:0:0:0, 2+0:0:0:0:0, 2+2:0:0:0:0, 2+0:0:0:0:0, 1+2:1:0:0:1, 3+2:0:0:0:0, 4+2:0:0:0:0, 4+2:0:0:0:0, 3+1:1:0:0:0, 3+0:0:0:0:0, 2+1:1:0:0:0, 4+1:0:0:0:0, 3+1:0:0:0:0, 5+3:1:0:0:0, 3+1:0:0:0:0, 4+2:0:0:0:0, 4+1:0:0:0:0, 2+0:0:0:0:0, 2+0:0:0:0:0, 3+3:0:0:0:0, 3+1:1:0:0:0, 2+0:0:0:0:0, 4+1:0:0:0:0, 4+2:0:0:0:0, 3+0:0:0:0:0, 4+2:1:0:0:0, 4+3:0:0:0:0, 4+2:0:0:0:0, 4+1:0:0:0:0, 4+3:0:0:0:1, 3+1:1:0:0:0, 4+2:1:1:0:1, 2+1:1:0:0:1, 4+1:0:0:0:0, 3+3:0:0:0:0, 3+3:0:0:0:0, 3+1:1:0:0:1, 4+3:1:0:0:0, 1+1:0:0:0:1, 3+0:0:0:0:0, 3+0:0:0:0:0, 4+2:0:0:0:0, 3+1:1:0:0:0, 4+0:0:0:0:0, 5+2:0:0:0:0, 3+0:0:0:0:0, 3+4:1:0:0:1, 3+2:1:0:0:1, 2+1:1:0:0:1, 4+2:1:0:0:0, 3+1:0:0:0:0, 3+1:0:0:0:0, 3+1:1:0:0:0, 4+2:0:0:0:0, 3+0:0:0:0:0, 4+2:0:0:0:0, 4+1:1:0:0:0, 5+1:0:0:0:0, 3+1:1:0:0:0, 4+1:1:0:0:1, 4+1:0:0:0:0, 4+1:1:0:0:0, 3+1:0:0:0:0, 4+1:0:0:0:0, 3+4:1:0:0:1, 3+2:0:0:0:0, 4+2:0:0:0:0, 4+2:0:0:0:0, 3+1:1:0:0:0, 3+0:0:0:0:0, 3+0:0:0:0:0, 4+1:1:0:0:0, 2+1:1:1:0:1, 4+1:1:0:0:0, 3+2:0:0:0:0, 3+0:0:0:0:0, 3+0:0:0:0:0, 3+2:0:0:0:0, 3+1:1:0:0:0, 4+2:1:1:0:1, 2+1:1:0:0:1, 4+1:0:0:0:0, 3+3:0:0:0:0, 3+3:0:0:0:0, 4+0:0:0:0:0, 4+2:1:0:0:0, 1+1:0:0:0:1, 3+0:0:0:0:0, 3+0:0:0:0:0, 4+2:0:0:0:0, 3+1:1:0:0:0, 4+0:0:0:0:0, 5+2:0:0:0:0, 3+0:0:0:0:0, 3+4:1:0:0:1, 3+2:1:0:0:1, 2+1:1:0:0:1, 4+2:1:0:0:0, 3+2:0:0:0:0, 3+0:0:0:0:0, 5+1:0:0:0:0, 4+2:0:0:0:0, 3+0:0:0:0:0, 4+2:0:0:0:0, 3+1:1:0:0:0, 5+1:0:0:0:0, 3+1:1:0:0:0, 4+1:1:0:0:1, 4+1:0:0:0:0, 4+1:1:0:0:0, 3+1:0:0:0:0, 3+0:0:0:0:0, 4+0:0:0:0:0, 3+3:1:0:0:0, 4+2:0:0:0:0, 4+2:0:0:0:0, 3+1:1:0:0:0, 2+0:0:0:0:0, 3+0:0:0:0:0, 4+1:1:0:0:0, 2+1:1:1:0:1, 4+1:1:0:0:0, 3+2:0:0:0:0, 3+0:0:0:0:0, 3+0:0:0:0:0, 3+2:0:0:0:0, 4+2:0:0:0:0, 4+2:0:0:0:0, 3+2:2:0:0:0, 4+1:0:0:0:0, 2+1:1:0:0:0, 4+1:0:0:0:0, 2+1:1:1:0:1, 4+0:0:0:0:0, 1+2:0:0:0:0, 3+1:1:0:0:1, 5+2:0:0:0:0, 4+2:0:0:0:0, 2+1:1:0:0:0, 3+1:0:0:0:0, 3+1:1:0:0:0, 4+2:0:0:0:0, 4+1:0:0:0:0, 2+3:1:0:0:1, 2+0:0:0:0:0, 5+2:1:0:0:0, 3+0:0:0:0:0, 4+1:0:0:0:1, 3+0:0:0:0:0, 3+2:0:0:0:0, 3+1:1:0:0:1, 4+1:0:0:0:0, 4+2:1:0:0:1, 2+1:1:0:0:1, 2+1:1:0:0:0, 4+1:0:0:0:0, 2+1:1:0:0:1, 4+2:1:0:0:0, 3+0:0:0:0:0, 4+2:0:0:0:0, 4+1:1:1:0:1, 2+2:0:0:0:0, 3+0:0:0:0:0, 4+1:0:0:0:0, 4+1:0:0:0:0, 4+2:0:0:0:0, 4+1:0:0:0:0, 3+1:1:0:0:1, 2+1:1:0:0:1, 3+0:0:0:0:0, 3+1:0:0:0:0, 4+2:0:0:0:0, 3+0:0:0:0:0, 4+1:0:0:0:0, 4+0:0:0:0:0, 2+1:0:0:0:0, 2+1:0:0:0:0, 3+2:0:0:0:0, 1+1:0:0:0:0, 2+2:0:0:0:0, 2+1:0:0:0:0, 2+2:0:0:0:0, 4+1:0:0:0:0, 3+1:0:1:0:1, 3+0:0:0:0:0, 2+1:0:0:0:0, 0+0:0:0:0:0, 0+0:0:0:0:0, 0+0:0:0:0:0, 0+0:0:0:0:0, 0+0:0:0:0:0, 0+0:0:0:0:0, 648+239:63:7:0:32
Bb minor (5b), 1+0:0:0:0:0, 0+0:0:0:0:0, 1+0:0:0:0:0, 2+1:0:0:0:1, 0+0:0:0:0:0, 1+0:0:0:0:0, 0+1:0:0:0:0, 1+0:0:0:0:0, 1+0:0:0:0:0, 0+0:0:0:0:0, 3+1:0:0:0:0, 2+0:0:0:0:0, 1+1:0:0:0:0, 1+0:0:0:0:0, 0+0:0:0:0:0, 0+0:0:0:0:0, 0+0:0:0:0:0, 1+0:0:0:0:0, 0+1:0:0:0:0, 0+0:0:0:0:0, 1+0:0:0:0:0, 1+1:0:0:0:0, 2+1:0:0:0:0, 2+0:0:0:0:0, 2+1:0:0:0:0, 2+1:0:0:0:0, 2+1:0:0:0:0, 2+1:0:0:0:0, 2+1:0:0:0:0, 2+1:0:1:0:0, 0+0:0:0:0:0, 3+2:0:0:0:1, 3+0:0:0:0:0, 2+1:0:0:0:0, 3+1:0:0:0:1, 2+1:0:0:0:0, 1+2:0:0:0:0, 1+1:0:0:0:1, 3+1:0:0:0:0, 1+1:0:0:0:0, 1+0:0:0:0:0, 2+2:0:0:0:1, 2+1:0:0:0:0, 3+1:0:0:0:1, 2+1:0:0:0:0, 2+1:0:0:0:0, 2+0:0:0:0:0, 1+1:0:0:0:0, 3+1:0:0:0:0, 3+2:0:0:0:0, 2+1:0:0:0:0, 3+1:0:0:0:0, 1+2:0:0:0:0, 1+1:0:0:0:1, 2+1:0:1:0:1, 3+2:0:0:0:0, 2+1:0:0:0:1, 1+0:0:0:0:0, 2+0:0:0:0:0, 1+0:0:0:0:0, 2+1:0:0:0:0, 2+0:0:0:0:0, 2+1:0:0:0:0, 2+1:0:0:0:0, 1+1:0:0:0:1, 2+1:0:0:0:1, 2+1:0:0:0:0, 3+2:0:0:0:0, 3+0:0:0:0:0, 2+0:0:0:0:0, 2+1:0:0:0:0, 2+0:0:0:0:0, 1+0:0:0:0:0, 2+1:0:0:0:0, 4+1:0:0:0:0, 1+0:0:0:0:0, 2+1:0:0:0:0, 3+2:0:0:0:0, 1+0:0:0:0:0, 2+1:0:0:0:0, 2+1:0:0:0:0, 3+0:0:0:0:0, 2+3:0:0:0:0, 1+1:0:0:0:0, 2+1:0:0:0:1, 2+1:0:0:0:0, 2+1:1:0:0:1, 2+1:0:0:0:0, 1+0:0:0:0:0, 1+1:0:0:0:0, 0+0:0:0:0:0, 2+1:0:0:0:0, 2+1:0:0:0:0, 2+0:0:0:0:0, 2+0:0:0:0:0, 2+0:0:0:0:0, 3+1:0:0:0:0, 3+2:0:0:0:0, 2+1:0:0:0:0, 3+1:0:0:0:0, 1+2:0:0:0:0, 1+1:0:0:0:1, 3+1:0:0:0:0, 3+1:0:0:0:1, 2+1:0:0:0:0, 1+0:0:0:0:0, 2+0:0:0:0:0, 1+0:0:0:0:0, 2+1:0:0:0:0, 2+0:0:0:0:0, 2+1:0:0:0:0, 2+1:0:0:0:0, 1+1:0:0:0:1, 2+1:0:0:0:1, 2+1:0:0:0:0, 3+2:0:0:0:0, 3+0:0:0:0:0, 2+0:0:0:0:0, 2+1:0:0:0:0, 2+0:0:0:0:0, 1+0:0:0:0:0, 2+1:0:0:0:0, 3+1:0:0:0:0, 1+0:0:0:0:0, 2+1:0:0:0:0, 3+2:0:0:0:0, 1+0:0:0:0:0, 2+1:0:0:0:0, 2+1:0:0:0:0, 2+0:0:0:0:0, 1+5:0:0:0:0, 1+1:0:0:0:0, 2+1:0:0:0:1, 2+1:0:0:0:0, 2+1:0:0:0:0, 1+1:0:0:0:0, 1+0:0:0:0:0, 1+1:0:0:0:0, 0+0:0:0:0:0, 2+1:0:0:0:0, 2+1:0:0:0:0, 2+0:0:0:0:0, 2+0:0:0:0:0, 2+0:0:0:0:0, 2+1:0:0:0:0, 2+1:0:0:0:0, 2+2:0:0:0:0, 3+1:0:0:0:0, 2+1:0:0:0:0, 2+1:0:1:0:0, 0+0:0:0:0:0, 2+0:0:0:0:0, 1+1:0:1:0:0, 2+0:0:0:0:0, 3+1:0:0:0:1, 2+1:0:0:0:0, 2+1:0:0:0:0, 3+1:0:0:0:0, 2+1:0:0:0:0, 2+1:0:0:0:0, 2+3:0:0:0:0, 1+2:0:0:0:2, 1+1:0:0:0:0, 5+2:0:0:0:1, 1+0:0:0:0:0, 2+1:0:0:0:0, 2+0:0:0:0:0, 2+1:0:0:0:0, 0+0:0:0:0:0, 3+1:0:0:0:0, 1+1:0:0:0:0, 1+1:0:1:0:1, 2+1:0:0:0:0, 2+1:0:1:0:0, 1+1:0:1:0:1, 3+2:0:0:0:1, 1+0:0:0:0:0, 2+0:0:0:0:0, 2+1:0:0:0:0, 2+1:0:0:0:0, 1+0:0:0:0:0, 2+1:0:0:0:0, 1+0:0:0:0:0, 2+1:0:0:0:0, 2+3:0:0:0:0, 1+1:0:0:0:0, 1+1:0:1:0:1, 2+0:0:0:0:0, 2+1:0:0:0:0, 2+1:0:0:0:0, 2+0:0:0:0:0, 2+1:0:0:0:0, 2+0:0:0:0:0, 2+1:0:0:0:0, 2+1:0:0:0:0, 2+1:0:0:0:0, 2+1:0:0:0:0, 2+1:0:1:0:0, 2+1:0:0:0:0, 2+1:0:0:0:0, 2+0:0:0:0:0, 2+1:0:0:0:0, 2+0:0:0:0:0, 0+0:0:0:0:0, 0+0:0:0:0:0, 0+0:0:0:0:0, 0+0:0:0:0:0, 0+0:0:0:0:0, 0+0:0:0:0:0, 0+0:0:0:0:0, 360+161:1:9:0:26
G# minor (5#), 3+0:0:0:0:0, 3+1:0:0:0:0, 3+1:0:0:0:0, 4+2:0:0:0:0, 2+0:0:0:0:0, 2+0:0:0:0:0, 3+1:0:0:0:0, 2+1:1:0:0:0, 1+2:0:0:0:0, 2+0:0:0:0:0, 3+1:1:0:0:0, 4+1:0:0:0:0, 2+0:0:0:0:0, 3+0:0:0:0:0, 2+0:0:0:0:0, 2+0:0:0:0:0, 2+0:0:0:0:0, 2+0:0:0:0:0, 3+1:0:0:0:0, 2+0:0:0:0:0, 2+2:0:0:0:0, 2+0:0:0:0:0, 1+2:1:0:0:1, 3+2:0:0:0:0, 4+2:0:0:0:0, 4+2:0:0:0:0, 3+1:1:0:0:0, 3+0:0:0:0:0, 2+1:1:0:0:0, 4+1:0:0:0:0, 3+1:0:0:0:0, 5+3:1:0:0:0, 3+2:0:0:0:0, 4+2:0:0:0:0, 4+1:0:0:0:0, 2+0:0:0:0:0, 2+0:0:0:0:0, 3+3:0:0:0:0, 3+1:1:0:0:1, 2+0:0:0:0:0, 4+1:0:0:0:0, 4+2:0:0:0:0, 3+0:0:0:0:0, 4+2:1:0:0:0, 4+1:0:0:0:0, 4+1:0:0:0:1, 4+1:0:0:0:0, 4+3:0:0:0:1, 3+1:1:0:0:0, 4+2:1:1:0:1, 2+1:1:0:0:1, 4+1:0:0:0:0, 3+3:0:0:0:0, 3+3:0:0:0:0, 3+1:1:0:0:1, 4+3:1:0:0:0, 1+1:0:0:0:1, 3+0:0:0:0:0, 3+0:0:0:0:0, 4+2:0:0:0:0, 3+1:1:0:0:0, 4+0:0:0:0:0, 5+2:0:0:0:0, 3+0:0:0:0:0, 3+4:1:0:0:1, 3+2:1:0:0:1, 2+1:1:0:0:1, 4+2:1:0:0:0, 3+2:0:0:0:0, 3+0:0:0:0:0, 3+1:1:0:0:0, 4+2:0:0:0:0, 3+0:0:0:0:0, 4+2:0:0:0:0, 4+1:1:0:0:0, 5+1:0:0:0:0, 3+1:1:0:0:0, 4+1:1:0:0:1, 4+1:0:0:0:0, 4+1:1:0:0:0, 4+1:0:0:0:0, 4+0:0:0:0:0, 5+1:0:0:0:0, 3+1:1:0:0:1, 4+2:0:0:0:0, 4+2:0:0:0:0, 3+1:1:0:0:0, 3+0:0:0:0:0, 3+0:0:0:0:0, 4+1:1:0:0:0, 2+1:1:1:0:1, 4+1:1:0:0:0, 3+2:0:0:0:0, 3+0:0:0:0:0, 3+0:0:0:0:0, 3+2:0:0:0:0, 3+1:1:0:0:0, 4+2:1:1:0:1, 2+1:1:0:0:1, 4+1:0:0:0:0, 3+3:0:0:0:0, 3+3:0:0:0:0, 4+0:0:0:0:0, 4+2:1:0:0:0, 1+1:0:0:0:1, 3+0:0:0:0:0, 3+0:0:0:0:0, 4+2:0:0:0:0, 3+1:1:0:0:0, 4+0:0:0:0:0, 5+2:0:0:0:0, 3+0:0:0:0:0, 3+4:1:0:0:1, 3+2:1:0:0:1, 2+1:1:0:0:1, 4+2:1:0:0:0, 3+2:0:0:0:0, 3+0:0:0:0:0, 5+1:0:0:0:0, 4+0:0:0:0:0, 3+0:0:0:0:0, 4+2:0:0:0:0, 3+1:1:0:0:0, 5+1:0:0:0:0, 3+1:1:0:0:0, 4+1:1:0:0:1, 4+1:0:0:0:0, 4+1:1:0:0:0, 4+1:0:0:0:0, 3+0:0:0:0:0, 4+0:0:0:0:0, 3+1:1:0:0:1, 4+2:0:0:0:0, 4+2:0:0:0:0, 3+1:1:0:0:0, 2+0:0:0:0:0, 3+0:0:0:0:0, 4+1:1:0:0:0, 2+1:1:1:0:1, 4+1:1:0:0:0, 3+2:0:0:0:0, 3+0:0:0:0:0, 3+0:0:0:0:0, 3+2:0:0:0:0, 4+2:0:0:0:0, 4+2:0:0:0:0, 3+2:2:0:0:0, 4+1:0:0:0:0, 2+1:1:0:0:0, 4+1:0:0:0:0, 2+1:1:1:0:1, 4+0:0:0:0:0, 3+1:0:0:0:0, 4+2:0:0:0:0, 5+2:0:0:0:0, 4+2:0:0:0:0, 2+1:1:0:0:0, 3+1:0:0:0:0, 3+1:1:0:0:0, 4+2:0:0:0:0, 4+1:0:0:0:0, 2+3:1:0:0:1, 2+0:0:0:0:0, 5+2:1:0:0:0, 3+0:0:0:0:0, 4+1:0:0:0:1, 3+0:0:0:0:0, 3+2:0:0:0:0, 3+1:1:0:0:1, 4+1:0:0:0:0, 4+2:1:0:0:1, 2+1:1:0:0:1, 2+1:1:0:0:0, 4+1:0:0:0:0, 2+1:1:0:0:1, 4+2:1:0:0:0, 3+0:0:0:0:0, 4+2:0:0:0:0, 4+1:1:1:0:1, 2+2:0:0:0:0, 3+0:0:0:0:0, 4+1:0:0:0:0, 4+1:0:0:0:0, 4+2:0:0:0:0, 4+1:0:0:0:0, 3+1:1:0:0:1, 2+1:1:0:0:1, 3+0:0:0:0:0, 3+1:0:0:0:0, 4+2:0:0:0:0, 3+0:0:0:0:0, 4+1:0:0:0:0, 4+0:0:0:0:0, 2+1:0:0:0:1, 2+1:0:0:0:1, 4+1:0:0:0:0, 1+1:0:0:0:1, 2+2:0:0:0:1, 2+1:0:0:0:0, 2+2:0:0:0:0, 3+2:0:0:0:1, 4+2:0:0:0:0, 3+0:0:0:0:0, 2+1:0:0:0:0, 0+0:0:0:0:0, 0+0:0:0:0:0, 0+0:0:0:0:0, 0+0:0:0:0:0, 0+0:0:0:0:0, 0+0:0:0:0:0, 656+230:63:6:0:38
Gb major (6b), 1+0:0:0:0:0, 0+0:0:0:0:0, 0+0:0:0:0:0, 2+1:0:1:0:0, 0+0:0:0:0:0, 1+2:0:0:0:0, 1+0:0:0:0:0, 1+0:0:0:0:0, 2+0:0:0:0:0, 0+0:0:0:0:0, 3+1:0:0:0:0, 3+0:0:0:0:0, 1+1:0:0:0:0, 1+0:0:0:0:0, 0+0:0:0:0:0, 0+0:0:0:0:0, 0+0:0:0:0:0, 1+2:0:0:0:0, 1+0:0:0:0:0, 0+2:0:0:0:0, 2+0:0:0:0:0, 2+0:0:0:0:0, 1+1:0:1:0:1, 3+0:0:0:0:0, 2+1:0:1:0:1, 2+1:0:0:0:0, 2+1:0:0:0:0, 2+1:0:0:0:0, 2+1:0:0:0:0, 3+1:0:1:0:0, 0+0:0:0:0:0, 3+1:0:1:0:0, 4+0:0:0:0:0, 2+1:0:0:0:1, 2+1:0:1:0:1, 3+0:0:0:0:0, 1+0:0:0:0:0, 2+1:0:0:0:1, 3+1:0:0:0:0, 1+1:0:0:0:0, 1+0:0:0:0:0, 3+2:0:0:0:1, 2+1:0:0:0:0, 2+1:0:1:0:0, 3+1:0:0:0:1, 2+1:0:0:0:0, 3+0:0:0:0:0, 2+1:0:0:0:0, 3+1:0:0:0:0, 3+2:0:0:0:1, 2+1:0:0:0:1, 2+2:0:0:0:2, 1+2:0:0:0:2, 2+1:0:0:0:1, 2+3:0:1:0:2, 2+4:0:0:0:4, 3+1:0:0:0:0, 2+0:0:0:0:0, 2+0:0:0:0:0, 2+0:0:0:0:0, 2+1:0:0:0:0, 2+1:0:0:0:0, 2+1:0:0:0:1, 2+1:0:0:0:1, 2+1:0:0:0:1, 2+1:0:1:0:0, 1+1:0:1:0:0, 2+1:0:1:0:0, 4+0:0:0:0:0, 2+0:0:0:0:0, 2+0:0:0:0:0, 3+0:0:0:0:0, 1+0:0:0:0:0, 2+1:0:0:0:0, 4+1:0:0:0:0, 2+0:0:0:0:0, 3+1:0:0:0:0, 3+1:0:0:0:0, 2+0:0:0:0:0, 2+0:0:0:0:0, 3+1:0:0:0:1, 3+0:0:0:0:0, 2+2:0:0:0:0, 2+1:0:0:0:0, 2+1:0:1:0:0, 2+1:0:0:0:0, 2+1:1:0:0:1, 2+1:0:0:0:0, 1+0:0:0:0:0, 2+1:0:0:0:1, 1+0:0:0:0:0, 2+0:0:0:0:0, 3+1:0:0:0:0, 2+0:0:0:0:0, 2+0:0:0:0:0, 3+0:0:0:0:0, 3+1:0:0:0:0, 3+2:0:0:0:1, 2+1:0:0:0:1, 2+2:0:0:0:2, 1+2:0:0:0:2, 2+1:0:0:0:1, 3+1:0:0:0:0, 2+1:0:1:0:0, 3+1:0:0:0:0, 2+0:0:0:0:0, 2+0:0:0:0:0, 2+0:0:0:0:0, 2+1:0:0:0:0, 2+1:0:0:0:0, 2+1:0:0:0:1, 2+1:0:0:0:1, 2+1:0:0:0:1, 2+1:0:1:0:0, 1+1:0:1:0:0, 2+1:0:1:0:0, 4+0:0:0:0:0, 2+0:0:0:0:0, 2+1:0:0:0:0, 3+0:0:0:0:0, 1+0:0:0:0:0, 2+1:0:0:0:0, 3+1:0:0:0:0, 2+0:0:0:0:0, 3+1:0:0:0:0, 3+1:0:0:0:0, 2+0:0:0:0:0, 2+0:0:0:0:0, 3+1:0:0:0:1, 2+0:0:0:0:0, 1+1:0:0:0:0, 2+1:0:0:0:0, 2+1:0:1:0:0, 2+1:0:0:0:0, 2+1:0:0:0:0, 1+2:0:0:0:1, 1+0:0:0:0:0, 2+1:0:0:0:1, 1+0:0:0:0:0, 2+0:0:0:0:0, 3+1:0:0:0:0, 2+0:0:0:0:0, 2+0:0:0:0:0, 3+0:0:0:0:0, 2+1:0:1:0:1, 2+1:0:0:0:0, 2+2:0:0:0:0, 2+1:0:1:0:0, 2+1:0:0:0:0, 3+2:0:1:0:0, 1+0:0:0:0:0, 2+0:0:0:0:0, 2+1:0:1:0:0, 2+1:0:0:0:0, 4+1:0:0:0:1, 3+1:0:0:0:0, 2+1:0:0:0:0, 3+1:0:0:0:0, 2+1:0:0:0:1, 2+1:0:1:0:0, 2+1:0:0:0:0, 2+2:0:0:0:2, 1+1:0:0:0:0, 4+2:0:1:0:0, 2+0:0:0:0:0, 2+1:0:0:0:0, 2+0:0:0:0:0, 3+1:0:0:0:0, 0+1:0:0:0:0, 3+1:0:0:0:1, 1+1:0:0:0:0, 1+1:0:1:0:0, 2+1:0:0:0:0, 3+1:0:1:0:0, 1+1:0:1:0:0, 2+1:0:1:0:0, 2+0:0:0:0:0, 2+1:0:0:0:0, 3+1:0:0:0:0, 3+1:0:0:0:0, 1+0:0:0:0:0, 2+1:0:0:0:1, 2+0:0:0:0:0, 2+1:0:1:0:0, 2+1:0:0:0:0, 1+0:0:0:0:0, 1+1:0:1:0:0, 2+0:0:0:0:0, 3+1:0:0:0:1, 2+1:0:0:0:0, 2+0:0:0:0:0, 3+1:0:0:0:0, 2+0:0:0:0:0, 2+1:0:0:0:0, 2+1:0:0:0:0, 2+1:0:0:0:0, 2+1:0:0:0:0, 3+1:0:1:0:0, 2+1:0:0:0:0, 2+0:0:0:0:0, 3+0:0:0:0:0, 2+1:0:0:0:0, 2+0:0:0:0:0, 1+0:0:0:0:0, 0+0:0:0:0:0, 0+0:0:0:0:0, 0+0:0:0:0:0, 0+0:0:0:0:0, 0+0:0:0:0:0, 0+0:0:0:0:0, 410+152:1:30:0:47
F# major (6#), 3+0:0:0:0:0, 3+1:0:0:0:0, 3+1:0:0:0:0, 4+2:0:0:0:0, 2+0:0:0:0:0, 2+0:0:0:0:0, 3+1:0:0:0:0, 2+0:0:0:0:0, 2+0:0:0:0:0, 2+0:0:0:0:0, 3+1:1:0:0:0, 4+1:0:0:0:0, 3+0:0:0:0:0, 3+0:0:0:0:0, 2+0:0:0:0:0, 2+0:0:0:0:0, 2+0:0:0:0:0, 2+0:0:0:0:0, 3+1:0:0:0:0, 2+0:0:0:0:0, 2+0:0:0:0:0, 2+0:0:0:0:0, 1+2:1:0:0:1, 4+0:0:0:0:0, 4+2:0:0:0:0, 4+2:0:0:0:0, 3+1:1:0:0:0, 4+0:0:0:0:0, 2+1:1:0:0:0, 4+1:0:0:0:0, 2+1:1:1:0:1, 5+3:1:0:0:0, 4+1:0:0:0:0, 4+2:0:0:0:0, 4+1:0:0:0:0, 3+0:0:0:0:0, 3+2:0:0:0:0, 2+3:0:0:0:1, 3+1:1:0:0:0, 3+0:0:0:0:0, 4+1:0:0:0:0, 3+2:0:0:0:1, 4+0:0:0:0:0, 4+2:1:0:0:0, 4+1:0:0:0:1, 4+2:0:0:0:0, 4+1:0:0:0:0, 4+1:0:0:0:0, 3+1:1:0:0:0, 4+2:1:1:0:1, 3+1:1:0:0:1, 5+1:0:0:0:0, 3+3:0:0:0:0, 3+3:0:0:0:0, 4+1:1:0:0:1, 4+3:1:0:0:0, 1+1:0:0:0:1, 3+0:0:0:0:0, 3+0:0:0:0:0, 4+2:0:0:0:0, 3+1:1:0:0:0, 4+0:0:0:0:0, 5+2:0:0:0:0, 4+0:0:0:0:0, 3+4:1:0:0:1, 3+1:1:0:0:1, 3+1:1:0:0:1, 4+2:1:0:0:0, 4+1:0:0:0:0, 3+1:0:0:0:0, 3+1:1:0:0:0, 4+1:0:0:0:0, 3+0:0:0:0:0, 4+2:0:0:0:1, 4+1:1:0:0:0, 4+1:1:1:0:1, 3+1:1:0:0:0, 4+1:1:0:0:1, 4+1:0:0:0:0, 4+1:1:0:0:0, 4+1:0:0:0:0, 4+1:0:0:0:0, 4+4:1:0:0:1, 3+2:0:0:0:0, 4+2:0:0:0:0, 4+2:0:0:0:0, 3+1:1:0:0:0, 4+0:0:0:0:0, 3+0:0:0:0:0, 4+1:1:0:0:0, 2+1:1:1:0:1, 4+1:1:0:0:0, 4+2:0:0:0:0, 3+1:0:0:0:0, 3+0:0:0:0:0, 4+0:0:0:0:0, 3+1:1:0:0:0, 4+2:1:1:0:1, 3+1:1:0:0:1, 5+1:0:0:0:0, 3+3:0:0:0:0, 3+3:0:0:0:0, 5+0:0:0:0:0, 4+2:1:0:0:0, 1+1:0:0:0:1, 3+0:0:0:0:0, 3+0:0:0:0:0, 4+2:0:0:0:0, 3+1:1:0:0:0, 4+0:0:0:0:0, 5+2:0:0:0:0, 4+0:0:0:0:0, 3+4:1:0:0:1, 3+1:1:0:0:1, 3+1:1:0:0:1, 4+2:1:0:0:0, 4+1:0:0:0:0, 3+1:0:0:0:0, 4+3:1:0:0:1, 4+1:0:0:0:0, 3+0:0:0:0:0, 4+2:0:0:0:1, 3+1:1:0:0:0, 4+1:1:1:0:1, 3+1:1:0:0:0, 4+1:1:0:0:1, 4+1:0:0:0:0, 4+1:1:0:0:0, 4+1:0:0:0:0, 3+1:0:0:0:0, 3+3:1:0:0:1, 3+2:0:0:0:0, 4+2:0:0:0:0, 4+2:0:0:0:0, 3+1:1:0:0:0, 3+0:0:0:0:0, 3+0:0:0:0:0, 4+1:1:0:0:0, 2+1:1:1:0:1, 4+1:1:0:0:0, 4+2:0:0:0:0, 3+1:0:0:0:0, 3+0:0:0:0:0, 4+0:0:0:0:0, 4+2:0:0:0:0, 4+2:0:0:0:0, 3+2:2:0:0:0, 5+1:0:0:0:0, 2+1:1:0:0:0, 4+1:0:0:0:0, 2+1:1:1:0:1, 4+0:0:0:0:0, 1+2:0:0:0:0, 3+2:0:0:0:0, 5+2:0:0:0:0, 5+2:0:0:0:0, 2+1:1:0:0:0, 3+1:0:0:0:0, 4+1:1:0:0:0, 4+2:0:0:0:0, 4+1:0:0:0:0, 2+3:1:0:0:1, 3+0:0:0:0:0, 5+2:1:0:0:0, 3+0:0:0:0:0, 4+2:0:0:0:0, 3+0:0:0:0:0, 4+2:0:0:0:0, 3+1:1:0:0:1, 4+1:0:0:0:0, 4+2:1:0:0:1, 3+1:1:0:0:1, 2+1:1:0:0:0, 4+1:0:0:0:0, 3+1:1:0:0:1, 4+2:1:0:0:0, 3+1:0:0:0:1, 3+2:0:0:0:0, 4+1:1:1:0:1, 3+2:0:0:0:0, 3+0:0:0:0:0, 4+1:0:0:0:0, 4+1:0:0:0:0, 4+2:0:0:0:0, 4+1:0:0:0:0, 3+1:1:0:0:1, 3+1:1:0:0:1, 3+0:0:0:0:0, 4+1:0:0:0:0, 4+2:0:0:0:0, 3+0:0:0:0:0, 5+1:0:0:0:0, 4+0:0:0:0:0, 3+1:0:0:0:0, 2+1:0:0:0:0, 2+2:0:0:0:0, 1+1:0:0:0:0, 2+2:0:0:0:0, 1+1:0:0:0:0, 2+2:0:0:0:0, 3+2:0:0:0:1, 2+2:0:1:0:0, 2+2:0:0:0:0, 1+0:0:0:0:0, 0+0:0:0:0:0, 0+0:0:0:0:0, 0+0:0:0:0:0, 0+0:0:0:0:0, 0+0:0:0:0:0, 0+0:0:0:0:0, 676+236:66:10:0:40
Eb minor (6b), 1+0:0:0:0:0, 0+0:0:0:0:0, 0+0:0:0:0:0, 2+1:0:1:0:0, 0+0:0:0:0:0, 1+2:0:0:0:0, 1+0:0:0:0:0, 1+1:0:0:0:0, 2+1:0:0:0:0, 0+0:0:0:0:0, 3+1:0:0:0:0, 3+0:0:0:0:0, 1+1:0:0:0:0, 1+0:0:0:0:0, 0+0:0:0:0:0, 0+0:0:0:0:0, 0+0:0:0:0:0, 1+2:0:0:0:0, 1+0:0:0:0:0, 0+2:0:0:0:0, 2+0:0:0:0:0, 2+1:0:0:0:1, 1+1:0:1:0:0, 3+1:0:0:0:0, 2+1:0:1:0:0, 2+1:0:0:0:0, 2+1:0:0:0:0, 2+1:0:0:0:0, 2+1:0:0:0:0, 3+1:0:1:0:0, 0+0:0:0:0:0, 3+1:0:1:0:0, 4+0:0:0:0:0, 2+1:0:0:0:0, 2+1:0:1:0:0, 3+1:0:0:0:0, 1+2:0:0:0:0, 2+1:0:0:0:1, 3+1:0:0:0:0, 1+1:0:0:0:0, 1+0:0:0:0:0, 3+2:0:0:0:1, 2+1:0:0:0:0, 2+1:0:1:0:0, 3+1:0:0:0:1, 2+1:0:0:0:0, 3+0:0:0:0:0, 2+1:0:0:0:0, 3+1:0:0:0:0, 3+2:0:0:0:0, 2+1:0:0:0:0, 2+1:0:1:0:1, 1+2:0:0:0:0, 2+1:0:0:0:1, 2+1:0:1:0:1, 2+2:0:1:0:0, 3+1:0:0:0:0, 2+0:0:0:0:0, 2+0:0:0:0:0, 2+0:0:0:0:0, 2+1:0:0:0:0, 2+1:0:0:0:0, 2+1:0:0:0:1, 2+1:0:0:0:0, 2+1:0:0:0:1, 2+1:0:1:0:0, 1+1:0:1:0:0, 2+1:0:1:0:0, 4+0:0:0:0:0, 2+0:0:0:0:0, 2+0:0:0:0:0, 3+0:0:0:0:0, 1+0:0:0:0:0, 2+1:0:0:0:0, 4+1:0:0:0:0, 2+0:0:0:0:0, 3+1:0:0:0:0, 3+1:0:0:0:0, 2+0:0:0:0:0, 2+0:0:0:0:0, 3+1:0:0:0:1, 3+0:0:0:0:0, 2+2:0:0:0:0, 2+1:0:0:0:0, 2+1:0:1:0:0, 2+1:0:0:0:0, 2+1:1:0:0:1, 2+1:0:0:0:0, 1+0:0:0:0:0, 2+1:0:0:0:0, 1+0:0:0:0:0, 2+0:0:0:0:0, 3+1:0:0:0:0, 2+0:0:0:0:0, 2+0:0:0:0:0, 3+1:0:0:0:0, 3+1:0:0:0:0, 3+2:0:0:0:0, 2+1:0:0:0:0, 2+1:0:1:0:1, 1+2:0:0:0:0, 2+1:0:0:0:1, 3+1:0:0:0:0, 2+1:0:1:0:0, 3+1:0:0:0:0, 2+0:0:0:0:0, 2+0:0:0:0:0, 2+0:0:0:0:0, 2+1:0:0:0:0, 2+1:0:0:0:0, 2+1:0:0:0:1, 2+1:0:0:0:0, 2+1:0:0:0:1, 2+1:0:1:0:0, 1+1:0:1:0:0, 2+1:0:1:0:0, 4+0:0:0:0:0, 2+0:0:0:0:0, 2+1:0:0:0:0, 3+0:0:0:0:0, 1+0:0:0:0:0, 2+1:0:0:0:0, 3+1:0:0:0:0, 2+0:0:0:0:0, 3+1:0:0:0:0, 3+1:0:0:0:0, 2+0:0:0:0:0, 2+0:0:0:0:0, 3+1:0:0:0:1, 2+0:0:0:0:0, 1+1:0:0:0:0, 2+1:0:0:0:0, 2+1:0:1:0:0, 2+1:0:0:0:0, 2+1:0:0:0:0, 1+2:0:0:0:1, 1+0:0:0:0:0, 2+1:0:0:0:0, 1+0:0:0:0:0, 2+0:0:0:0:0, 3+1:0:0:0:0, 2+0:0:0:0:0, 2+0:0:0:0:0, 3+1:0:0:0:0, 2+1:0:1:0:0, 2+1:0:0:0:0, 2+2:0:0:0:0, 2+1:0:1:0:0, 2+1:0:0:0:0, 3+1:0:1:0:0, 1+0:0:0:0:0, 2+0:0:0:0:0, 2+1:0:1:0:0, 2+1:0:0:0:0, 4+1:0:0:0:1, 3+1:0:0:0:0, 2+1:0:0:0:0, 3+1:0:0:0:0, 2+1:0:0:0:1, 2+1:0:1:0:0, 2+1:0:0:0:0, 2+2:0:0:0:2, 1+1:0:0:0:0, 4+2:0:1:0:0, 2+0:0:0:0:0, 2+1:0:0:0:0, 2+0:0:0:0:0, 3+1:0:0:0:0, 0+0:0:0:0:0, 3+1:0:0:0:0, 1+1:0:0:0:0, 1+1:0:1:0:0, 2+1:0:0:0:0, 3+1:0:1:0:0, 1+1:0:1:0:0, 2+1:0:1:0:0, 2+0:0:0:0:0, 2+1:0:0:0:0, 3+1:0:0:0:0, 3+1:0:0:0:0, 1+0:0:0:0:0, 2+1:0:0:0:1, 2+0:0:0:0:0, 2+1:0:1:0:0, 2+1:0:0:0:0, 1+0:0:0:0:0, 1+1:0:1:0:0, 2+0:0:0:0:0, 3+1:0:0:0:1, 2+1:0:0:0:0, 2+0:0:0:0:0, 3+1:0:0:0:0, 2+0:0:0:0:0, 2+1:0:0:0:0, 2+1:0:0:0:0, 2+1:0:0:0:0, 2+1:0:0:0:0, 3+1:0:1:0:0, 2+1:0:0:0:0, 2+0:0:0:0:0, 3+0:0:0:0:0, 2+1:0:0:0:0, 2+0:0:0:0:0, 1+0:0:0:0:0, 0+0:0:0:0:0, 0+0:0:0:0:0, 0+0:0:0:0:0, 0+0:0:0:0:0, 0+0:0:0:0:0, 0+0:0:0:0:0, 410+153:1:33:0:23
D# minor (6#), 3+0:0:0:0:0, 3+1:0:0:0:0, 3+1:0:0:0:0, 4+2:0:0:0:0, 2+0:0:0:0:0, 2+0:0:0:0:0, 3+1:0:0:0:0, 2+0:0:0:0:0, 2+0:0:0:0:0, 2+0:0:0:0:0, 3+1:1:0:0:0, 4+1:0:0:0:0, 3+0:0:0:0:0, 3+0:0:0:0:0, 2+0:0:0:0:0, 2+0:0:0:0:0, 2+0:0:0:0:0, 2+0:0:0:0:0, 3+1:0:0:0:0, 2+0:0:0:0:0, 2+0:0:0:0:0, 2+0:0:0:0:0, 1+2:1:0:0:1, 4+0:0:0:0:0, 4+2:0:0:0:0, 4+2:0:0:0:0, 3+1:1:0:0:0, 4+0:0:0:0:0, 2+1:1:0:0:0, 4+1:0:0:0:0, 2+1:1:1:0:1, 5+3:1:0:0:0, 4+1:0:0:0:0, 4+2:0:0:0:0, 4+1:0:0:0:0, 3+0:0:0:0:0, 3+2:0:0:0:0, 2+3:0:0:0:1, 3+1:1:0:0:0, 3+0:0:0:0:0, 4+1:0:0:0:0, 3+2:0:0:0:1, 4+0:0:0:0:0, 4+2:1:0:0:0, 4+1:0:0:0:1, 4+2:0:0:0:0, 4+1:0:0:0:0, 4+1:0:0:0:0, 3+1:1:0:0:0, 4+2:1:1:0:1, 3+1:1:0:0:1, 5+1:0:0:0:0, 3+3:0:0:0:0, 3+3:0:0:0:0, 4+1:1:0:0:1, 4+3:1:0:0:0, 1+1:0:0:0:1, 3+0:0:0:0:0, 3+0:0:0:0:0, 4+2:0:0:0:0, 3+1:1:0:0:0, 4+0:0:0:0:0, 5+2:0:0:0:0, 4+0:0:0:0:0, 3+4:1:0:0:1, 3+1:1:0:0:1, 3+1:1:0:0:1, 4+2:1:0:0:0, 4+1:0:0:0:0, 3+1:0:0:0:0, 3+1:1:0:0:0, 4+1:0:0:0:0, 3+0:0:0:0:0, 4+2:0:0:0:1, 4+1:1:0:0:0, 4+1:1:1:0:1, 3+1:1:0:0:0, 4+1:1:0:0:1, 4+1:0:0:0:0, 4+1:1:0:0:0, 4+1:0:0:0:0, 4+1:0:0:0:0, 4+4:1:0:0:1, 3+2:0:0:0:0, 4+2:0:0:0:0, 4+2:0:0:0:0, 3+1:1:0:0:0, 4+0:0:0:0:0, 3+0:0:0:0:0, 4+1:1:0:0:0, 2+1:1:1:0:1, 4+1:1:0:0:0, 4+2:0:0:0:0, 3+1:0:0:0:0, 3+0:0:0:0:0, 4+0:0:0:0:0, 3+1:1:0:0:0, 4+2:1:1:0:1, 3+1:1:0:0:1, 5+1:0:0:0:0, 3+3:0:0:0:0, 3+3:0:0:0:0, 5+0:0:0:0:0, 4+2:1:0:0:0, 1+1:0:0:0:1, 3+0:0:0:0:0, 3+0:0:0:0:0, 4+2:0:0:0:0, 3+1:1:0:0:0, 4+0:0:0:0:0, 5+2:0:0:0:0, 4+0:0:0:0:0, 3+4:1:0:0:1, 3+1:1:0:0:1, 3+1:1:0:0:1, 4+2:1:0:0:0, 4+1:0:0:0:0, 3+1:0:0:0:0, 4+3:1:0:0:1, 4+1:0:0:0:0, 3+0:0:0:0:0, 4+2:0:0:0:1, 3+1:1:0:0:0, 4+1:1:1:0:1, 3+1:1:0:0:0, 4+1:1:0:0:1, 4+1:0:0:0:0, 4+1:1:0:0:0, 4+1:0:0:0:0, 3+1:0:0:0:0, 3+3:1:0:0:1, 3+2:0:0:0:0, 4+2:0:0:0:0, 4+2:0:0:0:0, 3+1:1:0:0:0, 3+0:0:0:0:0, 3+0:0:0:0:0, 4+1:1:0:0:0, 2+1:1:1:0:1, 4+1:1:0:0:0, 4+2:0:0:0:0, 3+1:0:0:0:0, 3+0:0:0:0:0, 4+0:0:0:0:0, 4+2:0:0:0:0, 4+2:0:0:0:0, 3+2:2:0:0:0, 5+1:0:0:0:0, 2+1:1:0:0:0, 4+1:0:0:0:0, 2+1:1:1:0:1, 4+0:0:0:0:0, 3+1:0:0:0:0, 4+2:0:0:0:0, 5+2:0:0:0:0, 5+2:0:0:0:0, 2+1:1:0:0:0, 3+1:0:0:0:0, 4+1:1:0:0:0, 4+2:0:0:0:0, 4+1:0:0:0:0, 2+3:1:0:0:1, 3+0:0:0:0:0, 5+2:1:0:0:0, 3+0:0:0:0:0, 4+2:0:0:0:0, 3+0:0:0:0:0, 4+2:0:0:0:0, 3+1:1:0:0:1, 4+1:0:0:0:0, 4+2:1:0:0:1, 3+1:1:0:0:1, 2+1:1:0:0:0, 4+1:0:0:0:0, 3+1:1:0:0:1, 4+2:1:0:0:0, 3+1:0:0:0:1, 3+2:0:0:0:0, 4+1:1:1:0:1, 3+2:0:0:0:0, 3+0:0:0:0:0, 4+1:0:0:0:0, 4+1:0:0:0:0, 4+2:0:0:0:0, 4+1:0:0:0:0, 3+1:1:0:0:1, 3+1:1:0:0:1, 3+0:0:0:0:0, 4+1:0:0:0:0, 4+2:0:0:0:0, 3+0:0:0:0:0, 5+1:0:0:0:0, 4+0:0:0:0:0, 3+1:0:0:0:1, 2+1:0:0:0:1, 3+1:0:0:0:0, 1+2:0:0:0:1, 2+2:0:0:0:1, 1+1:0:0:0:0, 2+2:0:0:0:0, 3+2:0:0:0:1, 2+3:0:1:0:1, 3+0:0:0:0:0, 2+0:0:0:0:0, 0+0:0:0:0:0, 0+0:0:0:0:0, 0+0:0:0:0:0, 0+0:0:0:0:0, 0+0:0:0:0:0, 0+0:0:0:0:0, 682+234:66:10:0:45
Cb major (7b), 2+0:0:0:0:0, 1+0:0:0:0:0, 1+0:0:0:0:0, 2+1:0:1:0:0, 0+0:0:0:0:0, 1+2:0:0:0:0, 1+0:0:0:0:0, 1+0:0:0:0:0, 2+0:0:0:0:0, 1+0:0:0:0:0, 3+1:0:0:0:0, 4+0:0:0:0:0, 2+0:0:0:0:0, 1+2:0:0:0:0, 1+0:0:0:0:0, 1+0:0:0:0:0, 0+0:0:0:0:0, 1+2:0:0:0:0, 1+0:0:0:0:0, 0+0:0:0:0:0, 2+0:0:0:0:0, 3+1:0:0:0:0, 1+1:0:1:0:1, 4+0:0:0:0:0, 2+1:0:1:0:1, 2+1:0:1:0:1, 2+1:0:0:0:0, 3+1:0:0:0:0, 2+1:0:0:0:0, 3+1:0:1:0:0, 1+0:0:0:0:0, 3+1:0:1:0:0, 4+0:0:0:0:0, 3+1:0:0:0:0, 2+1:0:1:0:1, 4+1:0:0:0:0, 2+0:0:0:0:0, 2+3:0:0:0:0, 3+1:0:0:0:0, 2+0:0:0:0:0, 2+0:0:0:0:0, 1+1:1:1:0:1, 3+2:0:0:0:2, 2+1:0:1:0:0, 2+1:0:1:0:1, 3+1:0:0:0:0, 3+0:0:0:0:0, 3+1:0:0:0:0, 3+1:0:0:0:0, 4+2:0:0:0:0, 3+1:0:0:0:0, 3+1:0:1:0:1, 2+2:0:0:0:2, 2+1:0:0:0:1, 3+3:0:1:0:2, 2+4:0:0:0:4, 3+1:0:0:0:0, 3+0:0:0:0:0, 2+0:0:0:0:0, 3+0:0:0:0:0, 2+1:0:0:0:0, 2+0:0:0:0:0, 2+1:0:1:0:1, 3+0:0:0:0:0, 2+1:0:0:0:1, 2+1:0:1:0:0, 2+1:0:1:0:0, 2+1:0:1:0:0, 4+0:0:0:0:0, 3+0:0:0:0:0, 2+0:0:0:0:0, 4+0:0:0:0:0, 2+0:0:0:0:0, 2+1:0:1:0:1, 4+1:0:0:0:0, 3+0:0:0:0:0, 3+1:0:0:0:0, 3+1:0:0:0:0, 3+0:0:0:0:0, 3+0:0:0:0:0, 2+1:0:1:0:1, 4+0:0:0:0:0, 2+1:0:0:0:0, 3+1:0:0:0:0, 2+1:0:1:0:1, 2+1:0:1:0:1, 2+1:1:0:0:1, 3+1:0:0:0:0, 1+0:0:0:0:0, 2+1:0:0:0:1, 1+0:0:0:0:0, 3+0:0:0:0:0, 3+0:0:0:0:0, 3+0:0:0:0:0, 2+0:0:0:0:0, 4+0:0:0:0:0, 3+1:0:0:0:0, 4+2:0:0:0:0, 3+1:0:0:0:0, 3+1:0:1:0:1, 2+2:0:0:0:0, 2+3:0:0:0:0, 4+0:0:0:0:0, 2+2:0:1:0:1, 3+1:0:0:0:0, 3+0:0:0:0:0, 2+0:0:0:0:0, 3+0:0:0:0:0, 2+1:0:0:0:0, 2+0:0:0:0:0, 2+1:0:1:0:1, 3+0:0:0:0:0, 2+1:0:0:0:1, 2+1:0:1:0:0, 2+1:0:1:0:0, 2+1:0:1:0:0, 4+0:0:0:0:0, 3+0:0:0:0:0, 2+1:0:0:0:0, 4+0:0:0:0:0, 2+0:0:0:0:0, 2+1:0:1:0:1, 3+1:0:0:0:0, 3+0:0:0:0:0, 3+1:0:0:0:0, 3+1:0:0:0:0, 3+0:0:0:0:0, 3+0:0:0:0:0, 2+1:0:1:0:1, 3+0:0:0:0:0, 1+0:0:0:0:0, 3+1:0:0:0:0, 2+1:0:1:0:1, 2+1:0:1:0:1, 2+1:0:0:0:0, 2+1:0:0:0:1, 1+0:0:0:0:0, 2+1:0:0:0:1, 1+0:0:0:0:0, 3+0:0:0:0:0, 3+0:0:0:0:0, 3+0:0:0:0:0, 2+0:0:0:0:0, 4+0:0:0:0:0, 2+1:0:1:0:1, 2+1:0:1:0:1, 2+2:0:0:0:0, 3+1:0:1:0:0, 2+1:0:0:0:0, 3+1:0:1:0:0, 1+0:0:0:0:0, 3+0:0:0:0:0, 2+1:0:1:0:0, 3+0:0:0:0:0, 4+1:0:0:0:0, 4+0:0:0:0:0, 2+1:0:0:0:0, 3+2:1:0:0:1, 2+1:0:1:0:0, 2+1:0:1:0:0, 2+1:0:0:0:0, 2+2:0:0:0:2, 2+0:0:0:0:0, 4+2:0:1:0:1, 2+1:0:0:0:0, 3+1:0:0:0:0, 2+0:0:0:0:0, 4+0:0:0:0:0, 1+0:0:0:0:0, 2+1:0:1:0:0, 2+1:0:0:0:0, 2+1:0:1:0:0, 2+1:0:0:0:0, 3+1:0:1:0:0, 2+1:0:1:0:0, 2+1:0:1:0:0, 2+0:0:0:0:0, 3+1:0:0:0:0, 3+1:0:0:0:0, 2+1:0:1:0:0, 2+0:0:0:0:0, 1+1:0:1:0:1, 3+0:0:0:0:0, 2+1:0:1:0:0, 2+1:0:0:0:0, 1+0:0:0:0:0, 2+1:0:1:0:0, 2+0:0:0:0:0, 2+1:0:1:0:1, 3+1:0:0:0:0, 2+0:0:0:0:0, 4+0:0:0:0:0, 3+0:0:0:0:0, 2+1:0:1:0:1, 2+1:0:0:0:0, 3+1:0:0:0:0, 2+1:0:0:0:0, 3+1:0:1:0:0, 3+1:0:0:0:0, 2+0:0:0:0:0, 3+0:0:0:0:0, 3+1:0:0:0:0, 2+0:0:0:0:0, 2+0:0:0:0:0, 0+0:0:0:0:0, 0+0:0:0:0:0, 0+0:0:0:0:0, 0+0:0:0:0:0, 0+0:0:0:0:0, 0+0:0:0:0:0, 485+140:3:50:0:45
C# major (7#), 2+1:1:1:0:1, 3+1:0:0:0:0, 3+1:0:0:0:0, 4+2:0:0:0:0, 2+0:0:0:0:0, 2+0:0:0:0:0, 3+1:0:0:0:0, 2+1:1:0:0:0, 2+0:0:0:0:0, 2+3:0:0:0:0, 3+1:1:0:0:0, 4+1:0:0:0:0, 3+0:0:0:0:0, 3+0:0:0:0:0, 1+1:1:1:0:1, 1+1:1:1:0:1, 2+0:0:0:0:0, 2+0:0:0:0:0, 3+1:0:0:0:0, 2+0:0:0:0:0, 2+0:0:0:0:0, 3+0:0:0:0:0, 3+1:0:0:0:0, 4+0:0:0:0:0, 4+2:0:0:0:0, 4+2:0:0:0:0, 3+1:1:0:0:0, 4+0:0:0:0:0, 2+1:1:0:0:0, 5+1:0:0:0:0, 2+1:1:1:0:1, 5+3:1:0:0:0, 4+1:0:0:0:0, 4+2:0:0:0:0, 4+1:0:0:0:0, 4+0:0:0:0:0, 3+2:0:0:0:0, 3+3:0:0:0:1, 3+1:1:0:0:0, 3+0:0:0:0:0, 4+1:0:0:0:0, 4+2:0:0:0:1, 4+0:0:0:0:0, 4+2:1:0:0:0, 4+1:0:0:0:0, 4+2:0:0:0:0, 4+1:0:0:0:0, 4+1:0:0:0:0, 3+1:1:0:0:0, 4+2:1:1:0:1, 3+1:1:0:0:1, 5+1:0:0:0:0, 3+3:0:0:0:0, 4+3:0:0:0:0, 4+1:1:0:0:1, 4+3:1:0:0:0, 2+1:0:0:0:1, 3+0:0:0:0:0, 3+0:0:0:0:0, 4+2:0:0:0:0, 3+1:1:0:0:0, 4+0:0:0:0:0, 5+2:0:0:0:0, 4+0:0:0:0:0, 5+3:0:0:0:0, 5+1:0:0:0:0, 3+1:1:0:0:1, 4+2:1:0:0:0, 4+1:0:0:0:0, 3+1:0:0:0:0, 3+1:1:0:0:0, 4+1:0:0:0:0, 3+0:0:0:0:0, 4+2:0:0:0:0, 4+0:0:0:0:0, 4+1:1:1:0:1, 3+1:1:0:0:0, 4+1:1:0:0:1, 3+1:1:1:0:1, 3+2:2:1:0:2, 4+1:0:0:0:0, 4+3:0:0:0:0, 4+4:1:0:0:1, 3+2:0:0:0:0, 4+2:0:0:0:0, 4+2:0:0:0:0, 3+1:1:0:0:0, 4+0:0:0:0:0, 3+0:0:0:0:0, 4+1:1:0:0:0, 3+1:0:0:0:1, 3+2:2:1:0:2, 4+2:0:0:0:0, 3+1:0:0:0:0, 3+0:0:0:0:0, 4+0:0:0:0:0, 3+1:1:0:0:0, 4+2:1:1:0:1, 3+1:1:0:0:1, 5+1:0:0:0:0, 3+3:0:0:0:0, 4+3:0:0:0:0, 5+0:0:0:0:0, 4+2:1:0:0:0, 2+1:0:0:0:1, 3+0:0:0:0:0, 3+0:0:0:0:0, 4+2:0:0:0:0, 3+1:1:0:0:0, 4+0:0:0:0:0, 5+2:0:0:0:0, 4+0:0:0:0:0, 5+3:0:0:0:0, 5+1:0:0:0:0, 3+1:1:0:0:1, 4+2:1:0:0:0, 4+1:0:0:0:0, 3+1:0:0:0:0, 4+3:1:0:0:1, 4+2:0:0:0:0, 2+1:1:1:0:1, 4+2:0:0:0:0, 3+0:0:0:0:0, 4+1:1:1:0:1, 3+1:1:0:0:0, 4+1:1:0:0:1, 3+1:1:1:0:1, 3+2:2:1:0:2, 4+1:0:0:0:0, 3+3:0:0:0:0, 3+3:1:0:0:1, 3+2:0:0:0:0, 4+2:0:0:0:0, 4+2:0:0:0:0, 3+1:1:0:0:0, 3+0:0:0:0:0, 3+0:0:0:0:0, 4+1:1:0:0:0, 3+1:0:0:0:1, 3+2:2:1:0:2, 4+2:0:0:0:0, 3+1:0:0:0:0, 3+0:0:0:0:0, 4+0:0:0:0:0, 4+2:0:0:0:0, 4+2:0:0:0:0, 3+2:2:0:0:0, 5+1:0:0:0:0, 2+1:1:0:0:0, 5+1:0:0:0:0, 3+1:0:0:0:1, 3+1:1:1:0:1, 4+1:0:0:0:0, 4+2:0:0:0:0, 5+2:0:0:0:0, 5+2:0:0:0:0, 2+1:1:0:0:0, 3+1:0:0:0:0, 4+1:1:0:0:0, 4+2:0:0:0:0, 4+1:0:0:0:0, 4+2:0:0:0:0, 3+0:0:0:0:0, 5+2:1:0:0:0, 3+0:0:0:0:0, 4+2:0:0:0:0, 3+0:0:0:0:0, 4+2:0:0:0:0, 2+2:2:1:0:1, 4+1:0:0:0:0, 3+2:2:1:0:1, 3+1:1:0:0:1, 2+1:1:0:0:0, 5+1:0:0:0:0, 3+1:1:0:0:1, 4+2:1:0:0:0, 3+0:0:0:0:0, 4+2:0:0:0:0, 4+1:1:1:0:1, 3+2:0:0:0:0, 3+0:0:0:0:0, 4+1:0:0:0:0, 3+2:2:2:0:2, 4+1:0:0:0:0, 4+1:0:0:0:0, 3+1:1:0:0:1, 3+1:1:0:0:1, 3+0:0:0:0:0, 4+1:0:0:0:0, 4+2:0:0:0:0, 3+0:0:0:0:0, 5+1:0:0:0:0, 4+0:0:0:0:0, 3+1:0:0:0:1, 2+1:0:0:0:0, 2+2:0:0:0:0, 1+1:0:0:0:0, 2+2:0:0:0:0, 1+1:0:0:0:0, 2+2:0:0:0:0, 3+2:0:0:0:1, 2+3:0:1:0:1, 2+2:0:0:0:1, 0+0:0:0:0:0, 0+0:0:0:0:0, 0+0:0:0:0:0, 0+0:0:0:0:0, 0+0:0:0:0:0, 0+0:0:0:0:0, 0+0:0:0:0:0, 692+248:71:22:0:50
Ab minor (7b), 2+0:0:0:0:0, 1+0:0:0:0:0, 1+0:0:0:0:0, 2+1:0:1:0:0, 0+0:0:0:0:0, 1+2:0:0:0:0, 1+0:0:0:0:0, 1+0:0:0:0:0, 2+0:0:0:0:0, 1+0:0:0:0:0, 3+1:0:0:0:0, 4+0:0:0:0:0, 2+0:0:0:0:0, 1+2:0:0:0:0, 1+0:0:0:0:0, 1+0:0:0:0:0, 0+0:0:0:0:0, 1+2:0:0:0:0, 1+0:0:0:0:0, 0+0:0:0:0:0, 2+0:0:0:0:0, 3+1:0:0:0:1, 1+1:0:1:0:1, 4+0:0:0:0:0, 2+1:0:1:0:1, 2+1:0:1:0:1, 2+1:0:0:0:0, 3+1:0:0:0:0, 2+1:0:0:0:0, 3+2:0:1:0:0, 1+0:0:0:0:0, 3+1:0:1:0:0, 4+0:0:0:0:0, 3+1:0:0:0:0, 2+1:0:1:0:1, 4+1:0:0:0:0, 2+0:0:0:0:0, 2+3:0:0:0:0, 3+1:0:0:0:0, 2+0:0:0:0:0, 2+0:0:0:0:0, 1+1:1:1:0:1, 3+2:0:0:0:2, 2+1:0:1:0:0, 2+1:0:1:0:0, 3+1:0:0:0:0, 3+0:0:0:0:0, 3+1:0:0:0:0, 3+1:0:0:0:0, 4+2:0:0:0:0, 3+1:0:0:0:0, 3+1:0:1:0:1, 2+2:0:0:0:0, 2+1:0:0:0:1, 3+3:0:1:0:2, 2+3:0:0:0:0, 3+1:0:0:0:0, 3+0:0:0:0:0, 2+0:0:0:0:0, 3+0:0:0:0:0, 2+1:0:0:0:0, 2+1:0:0:0:0, 2+1:0:1:0:1, 3+0:0:0:0:0, 2+1:0:0:0:1, 2+1:0:1:0:0, 2+1:0:1:0:0, 2+1:0:1:0:0, 4+0:0:0:0:0, 3+0:0:0:0:0, 2+0:0:0:0:0, 4+0:0:0:0:0, 2+0:0:0:0:0, 2+1:0:1:0:1, 4+1:0:0:0:0, 3+0:0:0:0:0, 3+1:0:0:0:0, 3+1:0:0:0:0, 3+0:0:0:0:0, 3+0:0:0:0:0, 2+1:0:1:0:1, 4+0:0:0:0:0, 2+1:0:0:0:0, 3+1:0:0:0:0, 2+1:0:1:0:1, 2+1:0:1:0:1, 2+1:1:0:0:1, 3+1:0:0:0:0, 1+0:0:0:0:0, 2+1:0:0:0:1, 1+0:0:0:0:0, 3+0:0:0:0:0, 3+0:0:0:0:0, 3+0:0:0:0:0, 2+0:0:0:0:0, 4+0:0:0:0:0, 3+1:0:0:0:0, 4+2:0:0:0:0, 3+1:0:0:0:0, 3+1:0:1:0:1, 2+2:0:0:0:0, 2+3:0:0:0:0, 4+0:0:0:0:0, 2+1:0:1:0:0, 3+1:0:0:0:0, 3+0:0:0:0:0, 2+0:0:0:0:0, 3+0:0:0:0:0, 2+1:0:0:0:0, 2+1:0:0:0:0, 2+1:0:1:0:1, 3+0:0:0:0:0, 2+1:0:0:0:1, 2+1:0:1:0:0, 2+1:0:1:0:0, 2+1:0:1:0:0, 4+0:0:0:0:0, 3+0:0:0:0:0, 2+1:0:0:0:0, 4+0:0:0:0:0, 2+0:0:0:0:0, 2+1:0:1:0:1, 3+1:0:0:0:0, 3+0:0:0:0:0, 3+1:0:0:0:0, 3+1:0:0:0:0, 3+0:0:0:0:0, 3+0:0:0:0:0, 2+1:0:1:0:1, 3+0:0:0:0:0, 1+0:0:0:0:0, 3+1:0:0:0:0, 2+1:0:1:0:1, 2+1:0:1:0:1, 2+1:0:0:0:0, 2+1:0:0:0:1, 1+0:0:0:0:0, 2+1:0:0:0:1, 1+0:0:0:0:0, 3+0:0:0:0:0, 3+0:0:0:0:0, 3+0:0:0:0:0, 2+0:0:0:0:0, 4+0:0:0:0:0, 2+1:0:1:0:1, 2+1:0:1:0:1, 2+2:0:0:0:0, 3+1:0:1:0:0, 2+1:0:0:0:0, 3+2:0:1:0:0, 1+0:0:0:0:0, 3+0:0:0:0:0, 2+1:0:1:0:0, 3+1:0:0:0:0, 4+1:0:0:0:1, 3+1:0:1:0:1, 2+1:0:0:0:0, 3+1:1:0:0:1, 2+1:0:1:0:0, 2+1:0:1:0:0, 2+1:0:0:0:0, 2+2:0:0:0:2, 2+0:0:0:0:0, 4+2:0:1:0:1, 2+1:0:0:0:0, 3+1:0:0:0:0, 2+0:0:0:0:0, 4+0:0:0:0:0, 1+0:0:0:0:0, 2+1:0:1:0:0, 2+1:0:0:0:0, 2+1:0:1:0:0, 2+1:0:0:0:0, 3+2:0:1:0:0, 2+1:0:1:0:0, 2+1:0:1:0:0, 2+0:0:0:0:0, 3+1:0:0:0:0, 3+1:0:0:0:0, 2+1:0:1:0:0, 2+0:0:0:0:0, 1+1:0:1:0:0, 3+0:0:0:0:0, 2+1:0:1:0:0, 2+1:0:0:0:0, 1+0:0:0:0:0, 2+1:0:1:0:0, 2+0:0:0:0:0, 2+1:0:1:0:0, 3+1:0:0:0:0, 2+0:0:0:0:0, 3+1:0:1:0:1, 3+0:0:0:0:0, 2+1:0:1:0:1, 2+1:0:0:0:0, 3+1:0:0:0:0, 2+1:0:0:0:0, 3+1:0:1:0:0, 3+1:0:0:0:0, 2+2:0:0:0:0, 3+0:0:0:0:0, 3+1:0:0:0:0, 2+0:0:0:0:0, 2+0:0:0:0:0, 0+0:0:0:0:0, 0+0:0:0:0:0, 0+0:0:0:0:0, 0+0:0:0:0:0, 0+0:0:0:0:0, 0+0:0:0:0:0, 483+147:3:52:0:39
A# minor (7#), 2+1:1:1:0:1, 3+1:0:0:0:0, 3+1:0:0:0:0, 4+2:0:0:0:0, 2+0:0:0:0:0, 2+0:0:0:0:0, 3+1:0:0:0:0, 2+1:1:0:0:0, 2+0:0:0:0:0, 2+3:0:0:0:0, 3+1:1:0:0:0, 4+1:0:0:0:0, 3+0:0:0:0:0, 3+0:0:0:0:0, 1+1:1:1:0:1, 1+1:1:1:0:1, 2+0:0:0:0:0, 2+0:0:0:0:0, 3+1:0:0:0:0, 2+0:0:0:0:0, 2+0:0:0:0:0, 3+0:0:0:0:0, 3+1:0:0:0:0, 4+0:0:0:0:0, 4+2:0:0:0:0, 4+2:0:0:0:0, 3+1:1:0:0:0, 4+0:0:0:0:0, 2+1:1:0:0:0, 5+1:0:0:0:0, 2+1:1:1:0:1, 5+3:1:0:0:0, 4+1:0:0:0:0, 4+2:0:0:0:0, 4+1:0:0:0:0, 4+0:0:0:0:0, 3+2:0:0:0:0, 3+3:0:0:0:1, 3+1:1:0:0:0, 3+0:0:0:0:0, 4+1:0:0:0:0, 4+2:0:0:0:1, 4+0:0:0:0:0, 4+2:1:0:0:0, 4+1:0:0:0:0, 4+2:0:0:0:0, 4+1:0:0:0:0, 4+1:0:0:0:0, 3+1:1:0:0:0, 4+2:1:1:0:1, 3+1:1:0:0:1, 5+1:0:0:0:0, 3+3:0:0:0:0, 4+3:0:0:0:0, 4+1:1:0:0:1, 4+3:1:0:0:0, 2+1:0:0:0:1, 3+0:0:0:0:0, 3+0:0:0:0:0, 4+2:0:0:0:0, 3+1:1:0:0:0, 4+0:0:0:0:0, 5+2:0:0:0:0, 4+0:0:0:0:0, 5+3:0:0:0:0, 5+1:0:0:0:0, 3+1:1:0:0:1, 4+2:1:0:0:0, 4+1:0:0:0:0, 3+1:0:0:0:0, 3+1:1:0:0:0, 4+1:0:0:0:0, 3+0:0:0:0:0, 4+2:0:0:0:0, 4+0:0:0:0:0, 4+1:1:1:0:1, 3+1:1:0:0:0, 4+1:1:0:0:1, 3+1:1:1:0:1, 3+2:2:1:0:2, 4+1:0:0:0:0, 4+3:0:0:0:0, 4+4:1:0:0:1, 3+2:0:0:0:0, 4+2:0:0:0:0, 4+2:0:0:0:0, 3+1:1:0:0:0, 4+0:0:0:0:0, 3+0:0:0:0:0, 4+1:1:0:0:0, 3+1:0:0:0:1, 3+2:2:1:0:2, 4+2:0:0:0:0, 3+1:0:0:0:0, 3+0:0:0:0:0, 4+0:0:0:0:0, 3+1:1:0:0:0, 4+2:1:1:0:1, 3+1:1:0:0:1, 5+1:0:0:0:0, 3+3:0:0:0:0, 4+3:0:0:0:0, 5+0:0:0:0:0, 4+2:1:0:0:0, 2+1:0:0:0:1, 3+0:0:0:0:0, 3+0:0:0:0:0, 4+2:0:0:0:0, 3+1:1:0:0:0, 4+0:0:0:0:0, 5+2:0:0:0:0, 4+0:0:0:0:0, 5+3:0:0:0:0, 5+1:0:0:0:0, 3+1:1:0:0:1, 4+2:1:0:0:0, 4+1:0:0:0:0, 3+1:0:0:0:0, 4+3:1:0:0:1, 4+2:0:0:0:0, 2+1:1:1:0:1, 4+2:0:0:0:0, 3+0:0:0:0:0, 4+1:1:1:0:1, 3+1:1:0:0:0, 4+1:1:0:0:1, 3+1:1:1:0:1, 3+2:2:1:0:2, 4+1:0:0:0:0, 3+3:0:0:0:0, 3+3:1:0:0:1, 3+2:0:0:0:0, 4+2:0:0:0:0, 4+2:0:0:0:0, 3+1:1:0:0:0, 3+0:0:0:0:0, 3+0:0:0:0:0, 4+1:1:0:0:0, 3+1:0:0:0:1, 3+2:2:1:0:2, 4+2:0:0:0:0, 3+1:0:0:0:0, 3+0:0:0:0:0, 4+0:0:0:0:0, 4+2:0:0:0:0, 4+2:0:0:0:0, 3+2:2:0:0:0, 5+1:0:0:0:0, 2+1:1:0:0:0, 5+1:0:0:0:0, 3+1:0:0:0:1, 3+1:1:1:0:1, 4+1:0:0:0:0, 4+2:0:0:0:0, 5+2:0:0:0:0, 5+2:0:0:0:0, 2+1:1:0:0:0, 3+1:0:0:0:0, 4+1:1:0:0:0, 4+2:0:0:0:0, 4+1:0:0:0:0, 4+2:0:0:0:0, 3+0:0:0:0:0, 5+2:1:0:0:0, 3+0:0:0:0:0, 4+2:0:0:0:0, 3+0:0:0:0:0, 4+2:0:0:0:0, 2+2:2:1:0:1, 4+1:0:0:0:0, 3+2:2:1:0:1, 3+1:1:0:0:1, 2+1:1:0:0:0, 5+1:0:0:0:0, 3+1:1:0:0:1, 4+2:1:0:0:0, 3+0:0:0:0:0, 4+2:0:0:0:0, 4+1:1:1:0:1, 3+2:0:0:0:0, 3+0:0:0:0:0, 4+1:0:0:0:0, 3+2:2:2:0:2, 4+1:0:0:0:0, 4+1:0:0:0:0, 3+1:1:0:0:1, 3+1:1:0:0:1, 3+0:0:0:0:0, 4+1:0:0:0:0, 4+2:0:0:0:0, 3+0:0:0:0:0, 5+1:0:0:0:0, 4+0:0:0:0:0, 3+1:0:0:0:1, 2+1:0:0:0:0, 2+2:0:0:0:2, 1+1:0:0:0:1, 3+1:0:0:0:0, 1+1:0:0:0:1, 2+2:0:0:0:0, 3+2:0:0:0:1, 2+3:0:1:0:1, 2+2:0:0:0:1, 0+0:0:0:0:0, 0+0:0:0:0:0, 0+0:0:0:0:0, 0+0:0:0:0:0, 0+0:0:0:0:0, 0+0:0:0:0:0, 0+0:0:0:0:0, 693+247:71:22:0:54
