 , 0, 1, 2, 3, 4, 5, 6, 7, 8, 9, 10, 11, 12, 13, 14, 15, 16, 17, 18, 19, 20, 21, 22, 23, 24, 25, 26, 27, 28, 29, 30, 31, 32, 33, 34, 35, 36, 37, 38, 39, 40, 41, 42, 43, 44, 45, 46, 47, 48, 49, 50, 51, 52, 53, 54, 55, 56, 57, 58, 59, 60, 61, 62, 63, 64, 65, 66, 67, 68, 69, 70, 71, 72, 73, 74, 75, 76, 77, 78, 79, 80, 81, 82, 83, 84, 85, 86, 87, 88, 89, 90, 91, 92, 93, 94, 95, 96, 97, 98, 99, 100, 101, 102, 103, 104, 105, 106, 107, 108, 109, 110, 111, 112, 113, 114, 115, 116, 117, 118, 119, 120, 121, 122, 123, 124, 125, 126, 127, 128, rowcost
C major (0), 2=2+0:0:0:0:0, 2=2+0:0:0:0:0, 7=4+3:0:0:0:0, 2=2+0:0:0:0:0, 3=2+1:0:0:0:0, 5=5+0:0:0:0:0, 2=2+0:0:0:0:0, 2=2+0:0:0:0:0, 1=1+0:0:0:0:0, 4=3+1:0:0:0:0, 1=1+0:0:0:0:0, 6=2+4:2:0:0:2, 6=4+2:0:0:0:0, 3=3+0:0:0:0:0, 7=6+1:0:0:0:1, 7=4+3:3:0:0:3, 6=5+1:0:0:0:0, 11=6+5:0:0:0:0, 4=4+0:0:0:0:0, 7=5+2:0:0:0:0, 4=3+1:0:0:0:1, 1=1+0:0:0:0:0, 3=3+0:0:0:0:0, 5=4+1:0:0:0:1, 10=6+4:0:0:0:0, 8=5+3:2:0:0:2, 4=3+1:0:0:0:0, 6=4+2:0:0:0:1, 7=4+3:0:0:0:1, 7=5+2:0:0:0:0, 1=1+0:0:0:0:0, 2=2+0:0:0:0:0, 6=4+2:0:0:0:1,  ,  ,  ,  ,  ,  ,  ,  ,  ,  ,  ,  ,  ,  ,  ,  ,  ,  ,  ,  ,  ,  ,  ,  ,  ,  ,  ,  ,  ,  ,  ,  ,  ,  ,  ,  ,  ,  ,  ,  ,  ,  ,  ,  ,  ,  ,  ,  ,  ,  ,  ,  ,  ,  ,  ,  ,  ,  ,  ,  ,  ,  ,  ,  , 5=4+1:0:0:0:0, 5=4+1:0:0:0:0, 5=4+1:0:0:0:0, 7=3+4:0:0:0:1, 5=4+1:0:0:0:0, 2=2+0:0:0:0:0,  , 2=2+0:0:0:0:0, 2=2+0:0:0:0:0, 4=3+1:0:0:0:0, 1=1+0:0:0:0:0, 4=1+3:0:0:0:0, 6=4+2:0:0:0:0, 6=4+2:0:0:0:0, 5=2+3:1:0:0:0, 4=2+2:0:0:0:0, 5=3+2:2:0:0:2, 4=3+1:0:0:0:0, 4=3+1:0:0:0:0, 1=1+0:0:0:0:0, 5=3+2:0:0:0:0, 6=4+2:0:0:0:0, 6=4+2:0:0:0:0, 9=5+4:0:0:0:1, 14=8+6:0:0:0:0, 4=3+1:0:0:0:0, 2=2+0:0:0:0:0, 7=5+2:0:0:0:0, 2=2+0:0:0:0:0, 3=3+0:0:0:0:0, 7=4+3:3:0:0:3, 7=4+3:0:0:0:0, 301=209+92:13:0:0:20
A minor (0), 2=2+0:0:0:0:0, 2=2+0:0:0:0:0, 7=4+3:0:0:0:0, 2=2+0:0:0:0:0, 3=2+1:0:0:0:0, 7=5+2:0:0:0:0, 2=2+0:0:0:0:0, 2=2+0:0:0:0:0, 1=1+0:0:0:0:0, 4=2+2:0:0:0:0, 1=1+0:0:0:0:0, 6=2+4:2:0:0:2, 6=4+2:0:0:0:0, 3=3+0:0:0:0:0, 10=6+4:0:0:0:0, 9=5+4:2:0:0:0, 6=5+1:0:0:0:0, 11=6+5:0:0:0:0, 4=3+1:1:0:0:1, 7=5+2:0:0:0:0, 4=3+1:0:0:0:1, 1=1+0:0:0:0:0, 3=3+0:0:0:0:0, 5=4+1:0:0:0:1, 10=6+4:0:0:0:0, 8=5+3:2:0:0:2, 6=3+3:0:0:0:0, 7=4+3:0:0:0:0, 7=4+3:0:0:0:1, 7=5+2:0:0:0:0, 1=1+0:0:0:0:0, 3=2+1:0:0:0:0, 8=5+3:0:0:0:0,  ,  ,  ,  ,  ,  ,  ,  ,  ,  ,  ,  ,  ,  ,  ,  ,  ,  ,  ,  ,  ,  ,  ,  ,  ,  ,  ,  ,  ,  ,  ,  ,  ,  ,  ,  ,  ,  ,  ,  ,  ,  ,  ,  ,  ,  ,  ,  ,  ,  ,  ,  ,  ,  ,  ,  ,  ,  ,  ,  ,  ,  ,  ,  , 5=4+1:0:0:0:0, 5=4+1:0:0:0:0, 5=4+1:0:0:0:0, 7=3+4:0:0:0:1, 5=4+1:0:0:0:0, 2=2+0:0:0:0:0,  , 2=2+0:0:0:0:0, 2=2+0:0:0:0:0, 4=3+1:0:0:0:0, 1=1+0:0:0:0:0, 4=1+3:0:0:0:0, 4=4+0:0:0:0:0, 6=4+2:0:0:0:0, 5=2+3:1:0:0:0, 4=2+2:0:0:0:0, 5=3+2:2:0:0:2, 4=3+1:0:0:0:0, 3=3+0:0:0:0:0, 1=1+0:0:0:0:0, 3=3+0:0:0:0:0, 5=4+1:0:0:0:0, 7=4+3:0:0:0:0, 9=5+4:0:0:0:1, 14=8+6:0:0:0:0, 4=3+1:0:0:0:0, 2=2+0:0:0:0:0, 7=5+2:0:0:0:0, 2=2+0:0:0:0:0, 6=3+3:0:0:0:0, 9=5+4:2:0:0:0, 7=4+3:0:0:0:0, 314=210+104:12:0:0:12
A minor mel (0),  ,  ,  ,  ,  ,  ,  ,  ,  ,  ,  ,  ,  ,  ,  ,  ,  ,  ,  ,  ,  ,  ,  ,  ,  ,  ,  ,  ,  ,  ,  ,  ,  ,  ,  ,  ,  ,  ,  ,  ,  ,  ,  ,  ,  ,  ,  ,  ,  ,  ,  ,  ,  ,  ,  ,  ,  ,  ,  ,  ,  ,  ,  ,  ,  ,  ,  ,  ,  ,  ,  ,  ,  ,  ,  ,  ,  ,  ,  ,  ,  ,  ,  ,  ,  ,  ,  ,  ,  ,  ,  ,  ,  ,  ,  ,  ,  ,  ,  ,  ,  ,  ,  ,  ,  ,  ,  ,  ,  ,  ,  ,  ,  ,  ,  ,  ,  ,  ,  ,  ,  ,  ,  ,  ,  ,  ,  ,  ,  , 0=0+0:0:0:0:0
C major blues (0),  ,  ,  ,  ,  ,  ,  ,  ,  ,  ,  ,  ,  ,  ,  ,  ,  ,  ,  ,  ,  ,  ,  ,  ,  ,  ,  ,  ,  ,  ,  ,  ,  ,  ,  ,  ,  ,  ,  ,  ,  ,  ,  ,  ,  ,  ,  ,  ,  ,  ,  ,  ,  ,  ,  ,  ,  ,  ,  ,  ,  ,  ,  ,  ,  ,  ,  ,  ,  ,  ,  ,  ,  ,  ,  ,  ,  ,  ,  ,  ,  ,  ,  ,  ,  ,  ,  ,  ,  ,  ,  ,  ,  ,  ,  ,  ,  ,  ,  ,  ,  ,  ,  ,  ,  ,  ,  ,  ,  ,  ,  ,  ,  ,  ,  ,  ,  ,  ,  ,  ,  ,  ,  ,  ,  ,  ,  ,  ,  , 0=0+0:0:0:0:0
A minor blues (0),  ,  ,  ,  ,  ,  ,  ,  ,  ,  ,  ,  ,  ,  ,  ,  ,  ,  ,  ,  ,  ,  ,  ,  ,  ,  ,  ,  ,  ,  ,  ,  ,  ,  ,  ,  ,  ,  ,  ,  ,  ,  ,  ,  ,  ,  ,  ,  ,  ,  ,  ,  ,  ,  ,  ,  ,  ,  ,  ,  ,  ,  ,  ,  ,  ,  ,  ,  ,  ,  ,  ,  ,  ,  ,  ,  ,  ,  ,  ,  ,  ,  ,  ,  ,  ,  ,  ,  ,  ,  ,  ,  ,  ,  ,  ,  ,  ,  ,  ,  ,  ,  ,  ,  ,  ,  ,  ,  ,  ,  ,  ,  ,  ,  ,  ,  ,  ,  ,  ,  ,  ,  ,  ,  ,  ,  ,  ,  ,  , 0=0+0:0:0:0:0
C dorian (0),  ,  ,  ,  ,  ,  ,  ,  ,  ,  ,  ,  ,  ,  ,  ,  ,  ,  ,  ,  ,  ,  ,  ,  ,  ,  ,  ,  ,  ,  ,  ,  ,  ,  ,  ,  ,  ,  ,  ,  ,  ,  ,  ,  ,  ,  ,  ,  ,  ,  ,  ,  ,  ,  ,  ,  ,  ,  ,  ,  ,  ,  ,  ,  ,  ,  ,  ,  ,  ,  ,  ,  ,  ,  ,  ,  ,  ,  ,  ,  ,  ,  ,  ,  ,  ,  ,  ,  ,  ,  ,  ,  ,  ,  ,  ,  ,  ,  ,  ,  ,  ,  ,  ,  ,  ,  ,  ,  ,  ,  ,  ,  ,  ,  ,  ,  ,  ,  ,  ,  ,  ,  ,  ,  ,  ,  ,  ,  ,  , 0=0+0:0:0:0:0
C phrygian (0),  ,  ,  ,  ,  ,  ,  ,  ,  ,  ,  ,  ,  ,  ,  ,  ,  ,  ,  ,  ,  ,  ,  ,  ,  ,  ,  ,  ,  ,  ,  ,  ,  ,  ,  ,  ,  ,  ,  ,  ,  ,  ,  ,  ,  ,  ,  ,  ,  ,  ,  ,  ,  ,  ,  ,  ,  ,  ,  ,  ,  ,  ,  ,  ,  ,  ,  ,  ,  ,  ,  ,  ,  ,  ,  ,  ,  ,  ,  ,  ,  ,  ,  ,  ,  ,  ,  ,  ,  ,  ,  ,  ,  ,  ,  ,  ,  ,  ,  ,  ,  ,  ,  ,  ,  ,  ,  ,  ,  ,  ,  ,  ,  ,  ,  ,  ,  ,  ,  ,  ,  ,  ,  ,  ,  ,  ,  ,  ,  , 0=0+0:0:0:0:0
C lydian (0),  ,  ,  ,  ,  ,  ,  ,  ,  ,  ,  ,  ,  ,  ,  ,  ,  ,  ,  ,  ,  ,  ,  ,  ,  ,  ,  ,  ,  ,  ,  ,  ,  ,  ,  ,  ,  ,  ,  ,  ,  ,  ,  ,  ,  ,  ,  ,  ,  ,  ,  ,  ,  ,  ,  ,  ,  ,  ,  ,  ,  ,  ,  ,  ,  ,  ,  ,  ,  ,  ,  ,  ,  ,  ,  ,  ,  ,  ,  ,  ,  ,  ,  ,  ,  ,  ,  ,  ,  ,  ,  ,  ,  ,  ,  ,  ,  ,  ,  ,  ,  ,  ,  ,  ,  ,  ,  ,  ,  ,  ,  ,  ,  ,  ,  ,  ,  ,  ,  ,  ,  ,  ,  ,  ,  ,  ,  ,  ,  , 0=0+0:0:0:0:0
C mixolydian (0),  ,  ,  ,  ,  ,  ,  ,  ,  ,  ,  ,  ,  ,  ,  ,  ,  ,  ,  ,  ,  ,  ,  ,  ,  ,  ,  ,  ,  ,  ,  ,  ,  ,  ,  ,  ,  ,  ,  ,  ,  ,  ,  ,  ,  ,  ,  ,  ,  ,  ,  ,  ,  ,  ,  ,  ,  ,  ,  ,  ,  ,  ,  ,  ,  ,  ,  ,  ,  ,  ,  ,  ,  ,  ,  ,  ,  ,  ,  ,  ,  ,  ,  ,  ,  ,  ,  ,  ,  ,  ,  ,  ,  ,  ,  ,  ,  ,  ,  ,  ,  ,  ,  ,  ,  ,  ,  ,  ,  ,  ,  ,  ,  ,  ,  ,  ,  ,  ,  ,  ,  ,  ,  ,  ,  ,  ,  ,  ,  , 0=0+0:0:0:0:0
C aeolian (0),  ,  ,  ,  ,  ,  ,  ,  ,  ,  ,  ,  ,  ,  ,  ,  ,  ,  ,  ,  ,  ,  ,  ,  ,  ,  ,  ,  ,  ,  ,  ,  ,  ,  ,  ,  ,  ,  ,  ,  ,  ,  ,  ,  ,  ,  ,  ,  ,  ,  ,  ,  ,  ,  ,  ,  ,  ,  ,  ,  ,  ,  ,  ,  ,  ,  ,  ,  ,  ,  ,  ,  ,  ,  ,  ,  ,  ,  ,  ,  ,  ,  ,  ,  ,  ,  ,  ,  ,  ,  ,  ,  ,  ,  ,  ,  ,  ,  ,  ,  ,  ,  ,  ,  ,  ,  ,  ,  ,  ,  ,  ,  ,  ,  ,  ,  ,  ,  ,  ,  ,  ,  ,  ,  ,  ,  ,  ,  ,  , 0=0+0:0:0:0:0
C locrian (0),  ,  ,  ,  ,  ,  ,  ,  ,  ,  ,  ,  ,  ,  ,  ,  ,  ,  ,  ,  ,  ,  ,  ,  ,  ,  ,  ,  ,  ,  ,  ,  ,  ,  ,  ,  ,  ,  ,  ,  ,  ,  ,  ,  ,  ,  ,  ,  ,  ,  ,  ,  ,  ,  ,  ,  ,  ,  ,  ,  ,  ,  ,  ,  ,  ,  ,  ,  ,  ,  ,  ,  ,  ,  ,  ,  ,  ,  ,  ,  ,  ,  ,  ,  ,  ,  ,  ,  ,  ,  ,  ,  ,  ,  ,  ,  ,  ,  ,  ,  ,  ,  ,  ,  ,  ,  ,  ,  ,  ,  ,  ,  ,  ,  ,  ,  ,  ,  ,  ,  ,  ,  ,  ,  ,  ,  ,  ,  ,  , 0=0+0:0:0:0:0
F major (1b), 1=1+0:0:0:0:0, 2=2+0:0:0:0:0, 7=4+3:0:0:0:0, 1=1+0:0:0:0:0, 5=3+2:0:0:0:1, 3=3+0:0:0:0:0, 3=2+1:0:0:0:0, 1=1+0:0:0:0:0, 1=1+0:0:0:0:0, 6=2+4:0:3:0:0, 1=1+0:0:0:0:0, 6=2+4:2:0:0:2, 3=3+0:0:0:0:0, 2=2+0:0:0:0:0, 5=4+1:0:0:0:1, 7=4+3:3:0:0:3, 4=3+1:0:0:0:0, 12=6+6:0:0:0:3, 4=4+0:0:0:0:0, 6=4+2:0:0:0:0, 4=3+1:0:0:0:1, 1=1+0:0:0:0:0, 4=4+0:0:0:0:0, 6=5+1:0:0:0:1, 7=4+3:0:0:0:0, 7=4+3:2:0:0:2, 4=3+1:0:0:0:0, 6=4+2:0:1:0:1, 8=5+3:0:0:0:1, 3=3+0:0:0:0:0, 2=2+0:0:0:0:0, 2=2+0:0:0:0:0, 5=3+2:0:0:0:0,  ,  ,  ,  ,  ,  ,  ,  ,  ,  ,  ,  ,  ,  ,  ,  ,  ,  ,  ,  ,  ,  ,  ,  ,  ,  ,  ,  ,  ,  ,  ,  ,  ,  ,  ,  ,  ,  ,  ,  ,  ,  ,  ,  ,  ,  ,  ,  ,  ,  ,  ,  ,  ,  ,  ,  ,  ,  ,  ,  ,  ,  ,  ,  , 4=3+1:0:0:0:0, 5=4+1:0:0:0:0, 4=3+1:0:0:0:0, 8=4+4:0:0:0:1, 3=3+0:0:0:0:0, 2=2+0:0:0:0:0,  , 1=1+0:0:0:0:0, 1=1+0:0:0:0:0, 3=2+1:0:0:0:0, 1=1+0:0:0:0:0, 5=2+3:0:0:0:0, 4=2+2:0:0:0:0, 5=3+2:0:0:0:0, 6=3+3:1:0:0:0, 2=2+0:0:0:0:0, 8=4+4:2:0:0:4, 3=2+1:1:0:0:1, 5=4+1:0:0:0:0, 2=2+0:0:0:0:0, 6=4+2:0:0:0:0, 7=5+2:0:0:0:0, 6=5+1:0:0:0:1, 7=4+3:0:1:0:1, 10=7+3:0:0:0:0, 3=2+1:0:0:0:0, 2=2+0:0:0:0:0, 7=5+2:0:0:0:0, 1=1+0:0:0:0:0, 2=2+0:0:0:0:0, 8=5+3:2:0:0:3, 5=3+2:0:0:0:2, 275=189+86:13:5:0:29
G major (1#), 3=2+1:0:0:0:0, 3=3+0:0:0:0:0, 7=5+2:0:0:0:0, 3=3+0:0:0:0:0, 3=2+1:0:0:0:0, 6=6+0:0:0:0:0, 4=3+1:0:0:0:0, 2=2+0:0:0:0:0, 1=1+0:0:0:0:0, 4=2+2:0:0:0:0, 1=1+0:0:0:0:0, 5=1+4:4:0:0:4, 6=4+2:0:0:0:0, 4=4+0:0:0:0:0, 7=6+1:0:0:0:1, 8=4+4:2:0:0:0, 7=6+1:0:0:0:0, 11=6+5:1:0:0:1, 7=4+3:0:0:0:0, 5=4+1:0:0:0:1, 4=2+2:0:0:0:0, 0=0+0:0:0:0:0, 2=2+0:0:0:0:0, 3=2+1:0:0:0:1, 7=6+1:0:0:0:0, 9=6+3:2:0:0:2, 4=4+0:0:0:0:0, 8=5+3:0:0:0:0, 7=4+3:1:0:0:2, 6=6+0:0:0:0:0, 1=1+0:0:0:0:0, 2=2+0:0:0:0:0, 7=4+3:0:0:0:0,  ,  ,  ,  ,  ,  ,  ,  ,  ,  ,  ,  ,  ,  ,  ,  ,  ,  ,  ,  ,  ,  ,  ,  ,  ,  ,  ,  ,  ,  ,  ,  ,  ,  ,  ,  ,  ,  ,  ,  ,  ,  ,  ,  ,  ,  ,  ,  ,  ,  ,  ,  ,  ,  ,  ,  ,  ,  ,  ,  ,  ,  ,  ,  , 6=5+1:0:0:0:0, 7=6+1:0:0:0:0, 6=5+1:0:0:0:0, 6=2+4:1:0:0:0, 6=5+1:0:0:0:0, 3=2+1:0:0:0:0,  , 3=2+1:0:0:0:0, 2=2+0:0:0:0:0, 5=4+1:0:0:0:0, 1=1+0:0:0:0:0, 4=1+3:0:0:0:0, 5=3+2:2:0:0:2, 5=3+2:1:0:0:1, 4=1+3:1:0:0:0, 4=2+2:0:0:0:0, 4=2+2:2:0:0:2, 4=3+1:0:0:0:0, 2=2+0:0:0:0:0, 1=1+0:0:0:0:0, 2=2+0:0:0:0:0, 4=3+1:0:0:0:0, 6=3+3:0:0:0:0, 9=5+4:1:0:0:0, 13=9+4:0:0:0:0, 5=4+1:0:0:0:0, 2=2+0:0:0:0:0, 8=6+2:0:0:0:0, 2=2+0:0:0:0:0, 4=4+0:0:0:0:0, 8=4+4:2:0:0:0, 7=4+3:1:0:0:1, 305=213+92:21:0:0:18
D minor (1b), 1=1+0:0:0:0:0, 2=2+0:0:0:0:0, 7=4+3:0:0:0:0, 1=1+0:0:0:0:0, 4=3+1:0:0:0:0, 3=3+0:0:0:0:0, 3=2+1:0:0:0:0, 1=1+0:0:0:0:0, 1=1+0:0:0:0:0, 6=2+4:0:3:0:0, 1=1+0:0:0:0:0, 6=2+4:2:0:0:2, 5=3+2:0:0:0:0, 2=2+0:0:0:0:0, 5=4+1:0:0:0:1, 7=4+3:3:0:0:3, 4=3+1:0:0:0:0, 11=6+5:0:0:0:0, 4=3+1:1:0:0:1, 5=4+1:0:1:0:0, 5=3+2:0:0:0:0, 1=1+0:0:0:0:0, 4=4+0:0:0:0:0, 6=5+1:0:0:0:1, 7=4+3:0:0:0:0, 7=4+3:2:0:0:2, 4=3+1:0:0:0:0, 6=4+2:0:1:0:1, 8=5+3:0:0:0:1, 3=3+0:0:0:0:0, 2=2+0:0:0:0:0, 2=2+0:0:0:0:0, 7=3+4:0:0:0:3,  ,  ,  ,  ,  ,  ,  ,  ,  ,  ,  ,  ,  ,  ,  ,  ,  ,  ,  ,  ,  ,  ,  ,  ,  ,  ,  ,  ,  ,  ,  ,  ,  ,  ,  ,  ,  ,  ,  ,  ,  ,  ,  ,  ,  ,  ,  ,  ,  ,  ,  ,  ,  ,  ,  ,  ,  ,  ,  ,  ,  ,  ,  ,  , 4=3+1:0:0:0:0, 5=4+1:0:0:0:0, 4=3+1:0:0:0:0, 8=4+4:0:0:0:1, 4=3+1:0:0:0:0, 2=2+0:0:0:0:0,  , 1=1+0:0:0:0:0, 1=1+0:0:0:0:0, 3=2+1:0:0:0:0, 1=1+0:0:0:0:0, 5=2+3:0:0:0:0, 4=2+2:0:0:0:0, 5=3+2:0:0:0:0, 6=3+3:1:0:0:0, 2=2+0:0:0:0:0, 8=4+4:2:0:0:4, 3=2+1:1:0:0:1, 4=4+0:0:0:0:0, 2=2+0:0:0:0:0, 4=4+0:0:0:0:0, 6=5+1:0:0:0:0, 6=5+1:0:0:0:1, 7=4+3:0:1:0:1, 10=7+3:0:0:0:0, 3=2+1:0:0:0:0, 2=2+0:0:0:0:0, 7=5+2:0:0:0:0, 1=1+0:0:0:0:0, 2=2+0:0:0:0:0, 7=4+3:3:0:0:3, 6=3+3:0:0:0:2, 274=187+87:15:6:0:28
E minor (1#), 2=2+0:0:0:0:0, 3=3+0:0:0:0:0, 5=5+0:0:0:0:0, 3=3+0:0:0:0:0, 4=2+2:0:0:0:1, 6=6+0:0:0:0:0, 3=3+0:0:0:0:0, 2=2+0:0:0:0:0, 1=1+0:0:0:0:0, 4=3+1:0:0:0:1, 3=1+2:0:0:0:0, 7=3+4:0:2:0:2, 4=4+0:0:0:0:0, 4=4+0:0:0:0:0, 8=6+2:0:0:0:2, 8=5+3:1:0:0:2, 7=6+1:0:0:0:1, 12=7+5:0:0:0:4, 6=4+2:0:0:0:2, 7=5+2:0:0:0:1, 4=3+1:0:0:0:1, 1=0+1:0:0:0:0, 3=2+1:0:0:0:0, 3=2+1:0:0:0:0, 8=6+2:0:0:0:1, 11=8+3:0:0:0:3, 4=4+0:0:0:0:0, 7=5+2:0:0:0:2, 7=3+4:3:0:0:4, 6=6+0:0:0:0:0, 1=1+0:0:0:0:0, 3=2+1:0:0:0:0, 9=4+5:0:0:0:4,  ,  ,  ,  ,  ,  ,  ,  ,  ,  ,  ,  ,  ,  ,  ,  ,  ,  ,  ,  ,  ,  ,  ,  ,  ,  ,  ,  ,  ,  ,  ,  ,  ,  ,  ,  ,  ,  ,  ,  ,  ,  ,  ,  ,  ,  ,  ,  ,  ,  ,  ,  ,  ,  ,  ,  ,  ,  ,  ,  ,  ,  ,  ,  , 6=5+1:0:0:0:0, 6=6+0:0:0:0:0, 5=5+0:0:0:0:0, 6=3+3:0:0:0:2, 5=5+0:0:0:0:0, 2=2+0:0:0:0:0,  , 2=2+0:0:0:0:0, 2=2+0:0:0:0:0, 5=4+1:0:0:0:1, 1=1+0:0:0:0:0, 4=1+3:0:0:0:0, 3=3+0:0:0:0:0, 5=3+2:1:0:0:1, 3=1+2:0:0:0:0, 4=2+2:0:0:0:0, 4=2+2:2:0:0:2, 4=3+1:0:0:0:0, 2=2+0:0:0:0:0, 1=1+0:0:0:0:0, 2=2+0:0:0:0:0, 4=3+1:0:0:0:0, 6=3+3:0:0:0:0, 7=6+1:0:0:0:1, 10=9+1:0:0:0:0, 5=4+1:0:0:0:1, 2=2+0:0:0:0:0, 7=6+1:0:0:0:1, 2=2+0:0:0:0:0, 5=4+1:0:0:0:1, 8=5+3:1:0:0:2, 7=5+2:0:0:0:2, 301=225+76:8:2:0:45
D minor mel (1b),  ,  ,  ,  ,  ,  ,  ,  ,  ,  ,  ,  ,  ,  ,  ,  ,  ,  ,  ,  ,  ,  ,  ,  ,  ,  ,  ,  ,  ,  ,  ,  ,  ,  ,  ,  ,  ,  ,  ,  ,  ,  ,  ,  ,  ,  ,  ,  ,  ,  ,  ,  ,  ,  ,  ,  ,  ,  ,  ,  ,  ,  ,  ,  ,  ,  ,  ,  ,  ,  ,  ,  ,  ,  ,  ,  ,  ,  ,  ,  ,  ,  ,  ,  ,  ,  ,  ,  ,  ,  ,  ,  ,  ,  ,  ,  ,  ,  ,  ,  ,  ,  ,  ,  ,  ,  ,  ,  ,  ,  ,  ,  ,  ,  ,  ,  ,  ,  ,  ,  ,  ,  ,  ,  ,  ,  ,  ,  ,  , 0=0+0:0:0:0:0
E minor mel (1#),  ,  ,  ,  ,  ,  ,  ,  ,  ,  ,  ,  ,  ,  ,  ,  ,  ,  ,  ,  ,  ,  ,  ,  ,  ,  ,  ,  ,  ,  ,  ,  ,  ,  ,  ,  ,  ,  ,  ,  ,  ,  ,  ,  ,  ,  ,  ,  ,  ,  ,  ,  ,  ,  ,  ,  ,  ,  ,  ,  ,  ,  ,  ,  ,  ,  ,  ,  ,  ,  ,  ,  ,  ,  ,  ,  ,  ,  ,  ,  ,  ,  ,  ,  ,  ,  ,  ,  ,  ,  ,  ,  ,  ,  ,  ,  ,  ,  ,  ,  ,  ,  ,  ,  ,  ,  ,  ,  ,  ,  ,  ,  ,  ,  ,  ,  ,  ,  ,  ,  ,  ,  ,  ,  ,  ,  ,  ,  ,  , 0=0+0:0:0:0:0
F major blues (1b),  ,  ,  ,  ,  ,  ,  ,  ,  ,  ,  ,  ,  ,  ,  ,  ,  ,  ,  ,  ,  ,  ,  ,  ,  ,  ,  ,  ,  ,  ,  ,  ,  ,  ,  ,  ,  ,  ,  ,  ,  ,  ,  ,  ,  ,  ,  ,  ,  ,  ,  ,  ,  ,  ,  ,  ,  ,  ,  ,  ,  ,  ,  ,  ,  ,  ,  ,  ,  ,  ,  ,  ,  ,  ,  ,  ,  ,  ,  ,  ,  ,  ,  ,  ,  ,  ,  ,  ,  ,  ,  ,  ,  ,  ,  ,  ,  ,  ,  ,  ,  ,  ,  ,  ,  ,  ,  ,  ,  ,  ,  ,  ,  ,  ,  ,  ,  ,  ,  ,  ,  ,  ,  ,  ,  ,  ,  ,  ,  , 0=0+0:0:0:0:0
G major blues (1#),  ,  ,  ,  ,  ,  ,  ,  ,  ,  ,  ,  ,  ,  ,  ,  ,  ,  ,  ,  ,  ,  ,  ,  ,  ,  ,  ,  ,  ,  ,  ,  ,  ,  ,  ,  ,  ,  ,  ,  ,  ,  ,  ,  ,  ,  ,  ,  ,  ,  ,  ,  ,  ,  ,  ,  ,  ,  ,  ,  ,  ,  ,  ,  ,  ,  ,  ,  ,  ,  ,  ,  ,  ,  ,  ,  ,  ,  ,  ,  ,  ,  ,  ,  ,  ,  ,  ,  ,  ,  ,  ,  ,  ,  ,  ,  ,  ,  ,  ,  ,  ,  ,  ,  ,  ,  ,  ,  ,  ,  ,  ,  ,  ,  ,  ,  ,  ,  ,  ,  ,  ,  ,  ,  ,  ,  ,  ,  ,  , 0=0+0:0:0:0:0
D minor blues (1b),  ,  ,  ,  ,  ,  ,  ,  ,  ,  ,  ,  ,  ,  ,  ,  ,  ,  ,  ,  ,  ,  ,  ,  ,  ,  ,  ,  ,  ,  ,  ,  ,  ,  ,  ,  ,  ,  ,  ,  ,  ,  ,  ,  ,  ,  ,  ,  ,  ,  ,  ,  ,  ,  ,  ,  ,  ,  ,  ,  ,  ,  ,  ,  ,  ,  ,  ,  ,  ,  ,  ,  ,  ,  ,  ,  ,  ,  ,  ,  ,  ,  ,  ,  ,  ,  ,  ,  ,  ,  ,  ,  ,  ,  ,  ,  ,  ,  ,  ,  ,  ,  ,  ,  ,  ,  ,  ,  ,  ,  ,  ,  ,  ,  ,  ,  ,  ,  ,  ,  ,  ,  ,  ,  ,  ,  ,  ,  ,  , 0=0+0:0:0:0:0
E minor blues (1#),  ,  ,  ,  ,  ,  ,  ,  ,  ,  ,  ,  ,  ,  ,  ,  ,  ,  ,  ,  ,  ,  ,  ,  ,  ,  ,  ,  ,  ,  ,  ,  ,  ,  ,  ,  ,  ,  ,  ,  ,  ,  ,  ,  ,  ,  ,  ,  ,  ,  ,  ,  ,  ,  ,  ,  ,  ,  ,  ,  ,  ,  ,  ,  ,  ,  ,  ,  ,  ,  ,  ,  ,  ,  ,  ,  ,  ,  ,  ,  ,  ,  ,  ,  ,  ,  ,  ,  ,  ,  ,  ,  ,  ,  ,  ,  ,  ,  ,  ,  ,  ,  ,  ,  ,  ,  ,  ,  ,  ,  ,  ,  ,  ,  ,  ,  ,  ,  ,  ,  ,  ,  ,  ,  ,  ,  ,  ,  ,  , 0=0+0:0:0:0:0
F dorian (1b),  ,  ,  ,  ,  ,  ,  ,  ,  ,  ,  ,  ,  ,  ,  ,  ,  ,  ,  ,  ,  ,  ,  ,  ,  ,  ,  ,  ,  ,  ,  ,  ,  ,  ,  ,  ,  ,  ,  ,  ,  ,  ,  ,  ,  ,  ,  ,  ,  ,  ,  ,  ,  ,  ,  ,  ,  ,  ,  ,  ,  ,  ,  ,  ,  ,  ,  ,  ,  ,  ,  ,  ,  ,  ,  ,  ,  ,  ,  ,  ,  ,  ,  ,  ,  ,  ,  ,  ,  ,  ,  ,  ,  ,  ,  ,  ,  ,  ,  ,  ,  ,  ,  ,  ,  ,  ,  ,  ,  ,  ,  ,  ,  ,  ,  ,  ,  ,  ,  ,  ,  ,  ,  ,  ,  ,  ,  ,  ,  , 0=0+0:0:0:0:0
G dorian (1#),  ,  ,  ,  ,  ,  ,  ,  ,  ,  ,  ,  ,  ,  ,  ,  ,  ,  ,  ,  ,  ,  ,  ,  ,  ,  ,  ,  ,  ,  ,  ,  ,  ,  ,  ,  ,  ,  ,  ,  ,  ,  ,  ,  ,  ,  ,  ,  ,  ,  ,  ,  ,  ,  ,  ,  ,  ,  ,  ,  ,  ,  ,  ,  ,  ,  ,  ,  ,  ,  ,  ,  ,  ,  ,  ,  ,  ,  ,  ,  ,  ,  ,  ,  ,  ,  ,  ,  ,  ,  ,  ,  ,  ,  ,  ,  ,  ,  ,  ,  ,  ,  ,  ,  ,  ,  ,  ,  ,  ,  ,  ,  ,  ,  ,  ,  ,  ,  ,  ,  ,  ,  ,  ,  ,  ,  ,  ,  ,  , 0=0+0:0:0:0:0
F phrygian (1b),  ,  ,  ,  ,  ,  ,  ,  ,  ,  ,  ,  ,  ,  ,  ,  ,  ,  ,  ,  ,  ,  ,  ,  ,  ,  ,  ,  ,  ,  ,  ,  ,  ,  ,  ,  ,  ,  ,  ,  ,  ,  ,  ,  ,  ,  ,  ,  ,  ,  ,  ,  ,  ,  ,  ,  ,  ,  ,  ,  ,  ,  ,  ,  ,  ,  ,  ,  ,  ,  ,  ,  ,  ,  ,  ,  ,  ,  ,  ,  ,  ,  ,  ,  ,  ,  ,  ,  ,  ,  ,  ,  ,  ,  ,  ,  ,  ,  ,  ,  ,  ,  ,  ,  ,  ,  ,  ,  ,  ,  ,  ,  ,  ,  ,  ,  ,  ,  ,  ,  ,  ,  ,  ,  ,  ,  ,  ,  ,  , 0=0+0:0:0:0:0
G phrygian (1#),  ,  ,  ,  ,  ,  ,  ,  ,  ,  ,  ,  ,  ,  ,  ,  ,  ,  ,  ,  ,  ,  ,  ,  ,  ,  ,  ,  ,  ,  ,  ,  ,  ,  ,  ,  ,  ,  ,  ,  ,  ,  ,  ,  ,  ,  ,  ,  ,  ,  ,  ,  ,  ,  ,  ,  ,  ,  ,  ,  ,  ,  ,  ,  ,  ,  ,  ,  ,  ,  ,  ,  ,  ,  ,  ,  ,  ,  ,  ,  ,  ,  ,  ,  ,  ,  ,  ,  ,  ,  ,  ,  ,  ,  ,  ,  ,  ,  ,  ,  ,  ,  ,  ,  ,  ,  ,  ,  ,  ,  ,  ,  ,  ,  ,  ,  ,  ,  ,  ,  ,  ,  ,  ,  ,  ,  ,  ,  ,  , 0=0+0:0:0:0:0
F lydian (1b),  ,  ,  ,  ,  ,  ,  ,  ,  ,  ,  ,  ,  ,  ,  ,  ,  ,  ,  ,  ,  ,  ,  ,  ,  ,  ,  ,  ,  ,  ,  ,  ,  ,  ,  ,  ,  ,  ,  ,  ,  ,  ,  ,  ,  ,  ,  ,  ,  ,  ,  ,  ,  ,  ,  ,  ,  ,  ,  ,  ,  ,  ,  ,  ,  ,  ,  ,  ,  ,  ,  ,  ,  ,  ,  ,  ,  ,  ,  ,  ,  ,  ,  ,  ,  ,  ,  ,  ,  ,  ,  ,  ,  ,  ,  ,  ,  ,  ,  ,  ,  ,  ,  ,  ,  ,  ,  ,  ,  ,  ,  ,  ,  ,  ,  ,  ,  ,  ,  ,  ,  ,  ,  ,  ,  ,  ,  ,  ,  , 0=0+0:0:0:0:0
G lydian (1#),  ,  ,  ,  ,  ,  ,  ,  ,  ,  ,  ,  ,  ,  ,  ,  ,  ,  ,  ,  ,  ,  ,  ,  ,  ,  ,  ,  ,  ,  ,  ,  ,  ,  ,  ,  ,  ,  ,  ,  ,  ,  ,  ,  ,  ,  ,  ,  ,  ,  ,  ,  ,  ,  ,  ,  ,  ,  ,  ,  ,  ,  ,  ,  ,  ,  ,  ,  ,  ,  ,  ,  ,  ,  ,  ,  ,  ,  ,  ,  ,  ,  ,  ,  ,  ,  ,  ,  ,  ,  ,  ,  ,  ,  ,  ,  ,  ,  ,  ,  ,  ,  ,  ,  ,  ,  ,  ,  ,  ,  ,  ,  ,  ,  ,  ,  ,  ,  ,  ,  ,  ,  ,  ,  ,  ,  ,  ,  ,  , 0=0+0:0:0:0:0
F mixolydian (1b),  ,  ,  ,  ,  ,  ,  ,  ,  ,  ,  ,  ,  ,  ,  ,  ,  ,  ,  ,  ,  ,  ,  ,  ,  ,  ,  ,  ,  ,  ,  ,  ,  ,  ,  ,  ,  ,  ,  ,  ,  ,  ,  ,  ,  ,  ,  ,  ,  ,  ,  ,  ,  ,  ,  ,  ,  ,  ,  ,  ,  ,  ,  ,  ,  ,  ,  ,  ,  ,  ,  ,  ,  ,  ,  ,  ,  ,  ,  ,  ,  ,  ,  ,  ,  ,  ,  ,  ,  ,  ,  ,  ,  ,  ,  ,  ,  ,  ,  ,  ,  ,  ,  ,  ,  ,  ,  ,  ,  ,  ,  ,  ,  ,  ,  ,  ,  ,  ,  ,  ,  ,  ,  ,  ,  ,  ,  ,  ,  , 0=0+0:0:0:0:0
G mixolydian (1#),  ,  ,  ,  ,  ,  ,  ,  ,  ,  ,  ,  ,  ,  ,  ,  ,  ,  ,  ,  ,  ,  ,  ,  ,  ,  ,  ,  ,  ,  ,  ,  ,  ,  ,  ,  ,  ,  ,  ,  ,  ,  ,  ,  ,  ,  ,  ,  ,  ,  ,  ,  ,  ,  ,  ,  ,  ,  ,  ,  ,  ,  ,  ,  ,  ,  ,  ,  ,  ,  ,  ,  ,  ,  ,  ,  ,  ,  ,  ,  ,  ,  ,  ,  ,  ,  ,  ,  ,  ,  ,  ,  ,  ,  ,  ,  ,  ,  ,  ,  ,  ,  ,  ,  ,  ,  ,  ,  ,  ,  ,  ,  ,  ,  ,  ,  ,  ,  ,  ,  ,  ,  ,  ,  ,  ,  ,  ,  ,  , 0=0+0:0:0:0:0
F aeolian (1b),  ,  ,  ,  ,  ,  ,  ,  ,  ,  ,  ,  ,  ,  ,  ,  ,  ,  ,  ,  ,  ,  ,  ,  ,  ,  ,  ,  ,  ,  ,  ,  ,  ,  ,  ,  ,  ,  ,  ,  ,  ,  ,  ,  ,  ,  ,  ,  ,  ,  ,  ,  ,  ,  ,  ,  ,  ,  ,  ,  ,  ,  ,  ,  ,  ,  ,  ,  ,  ,  ,  ,  ,  ,  ,  ,  ,  ,  ,  ,  ,  ,  ,  ,  ,  ,  ,  ,  ,  ,  ,  ,  ,  ,  ,  ,  ,  ,  ,  ,  ,  ,  ,  ,  ,  ,  ,  ,  ,  ,  ,  ,  ,  ,  ,  ,  ,  ,  ,  ,  ,  ,  ,  ,  ,  ,  ,  ,  ,  , 0=0+0:0:0:0:0
G aeolian (1#),  ,  ,  ,  ,  ,  ,  ,  ,  ,  ,  ,  ,  ,  ,  ,  ,  ,  ,  ,  ,  ,  ,  ,  ,  ,  ,  ,  ,  ,  ,  ,  ,  ,  ,  ,  ,  ,  ,  ,  ,  ,  ,  ,  ,  ,  ,  ,  ,  ,  ,  ,  ,  ,  ,  ,  ,  ,  ,  ,  ,  ,  ,  ,  ,  ,  ,  ,  ,  ,  ,  ,  ,  ,  ,  ,  ,  ,  ,  ,  ,  ,  ,  ,  ,  ,  ,  ,  ,  ,  ,  ,  ,  ,  ,  ,  ,  ,  ,  ,  ,  ,  ,  ,  ,  ,  ,  ,  ,  ,  ,  ,  ,  ,  ,  ,  ,  ,  ,  ,  ,  ,  ,  ,  ,  ,  ,  ,  ,  , 0=0+0:0:0:0:0
F locrian (1b),  ,  ,  ,  ,  ,  ,  ,  ,  ,  ,  ,  ,  ,  ,  ,  ,  ,  ,  ,  ,  ,  ,  ,  ,  ,  ,  ,  ,  ,  ,  ,  ,  ,  ,  ,  ,  ,  ,  ,  ,  ,  ,  ,  ,  ,  ,  ,  ,  ,  ,  ,  ,  ,  ,  ,  ,  ,  ,  ,  ,  ,  ,  ,  ,  ,  ,  ,  ,  ,  ,  ,  ,  ,  ,  ,  ,  ,  ,  ,  ,  ,  ,  ,  ,  ,  ,  ,  ,  ,  ,  ,  ,  ,  ,  ,  ,  ,  ,  ,  ,  ,  ,  ,  ,  ,  ,  ,  ,  ,  ,  ,  ,  ,  ,  ,  ,  ,  ,  ,  ,  ,  ,  ,  ,  ,  ,  ,  ,  , 0=0+0:0:0:0:0
G locrian (1#),  ,  ,  ,  ,  ,  ,  ,  ,  ,  ,  ,  ,  ,  ,  ,  ,  ,  ,  ,  ,  ,  ,  ,  ,  ,  ,  ,  ,  ,  ,  ,  ,  ,  ,  ,  ,  ,  ,  ,  ,  ,  ,  ,  ,  ,  ,  ,  ,  ,  ,  ,  ,  ,  ,  ,  ,  ,  ,  ,  ,  ,  ,  ,  ,  ,  ,  ,  ,  ,  ,  ,  ,  ,  ,  ,  ,  ,  ,  ,  ,  ,  ,  ,  ,  ,  ,  ,  ,  ,  ,  ,  ,  ,  ,  ,  ,  ,  ,  ,  ,  ,  ,  ,  ,  ,  ,  ,  ,  ,  ,  ,  ,  ,  ,  ,  ,  ,  ,  ,  ,  ,  ,  ,  ,  ,  ,  ,  ,  , 0=0+0:0:0:0:0
Bb major (2b), 2=1+1:0:0:0:0, 2=2+0:0:0:0:0, 3=3+0:0:0:0:0, 1=1+0:0:0:0:0, 4=2+2:0:0:0:1, 2=2+0:0:0:0:0, 1=1+0:0:0:0:0, 1=1+0:0:0:0:0, 1=1+0:0:0:0:0, 3=2+1:0:0:0:0, 1=1+0:0:0:0:0, 6=2+4:0:4:0:0, 2=2+0:0:0:0:0, 1=1+0:0:0:0:0, 5=3+2:0:0:0:2, 7=4+3:2:0:0:3, 4=3+1:0:0:0:1, 12=7+5:0:0:0:5, 5=3+2:0:0:0:2, 4=3+1:0:0:0:0, 4=3+1:0:0:0:1, 2=1+1:0:0:0:0, 7=6+1:0:0:0:0, 8=6+2:1:0:0:0, 4=3+1:0:0:0:0, 9=6+3:0:3:0:0, 2=2+0:0:0:0:0, 6=4+2:0:1:0:1, 7=4+3:0:0:0:1, 2=2+0:0:0:0:0, 2=1+1:0:0:0:1, 2=2+0:0:0:0:0, 4=2+2:0:0:0:0,  ,  ,  ,  ,  ,  ,  ,  ,  ,  ,  ,  ,  ,  ,  ,  ,  ,  ,  ,  ,  ,  ,  ,  ,  ,  ,  ,  ,  ,  ,  ,  ,  ,  ,  ,  ,  ,  ,  ,  ,  ,  ,  ,  ,  ,  ,  ,  ,  ,  ,  ,  ,  ,  ,  ,  ,  ,  ,  ,  ,  ,  ,  ,  , 3=3+0:0:0:0:0, 3=3+0:0:0:0:0, 3=3+0:0:0:0:0, 6=3+3:0:1:0:2, 2=2+0:0:0:0:0, 1=1+0:0:0:0:0,  , 1=1+0:0:0:0:0, 1=1+0:0:0:0:0, 3=2+1:0:0:0:1, 0=0+0:0:0:0:0, 4=3+1:0:0:0:0, 3=1+2:0:0:0:0, 3=2+1:0:0:0:1, 9=4+5:0:0:0:4, 4=3+1:0:0:0:1, 8=7+1:0:0:0:0, 4=2+2:1:0:0:1, 4=4+0:0:0:0:0, 2=2+0:0:0:0:0, 6=4+2:0:0:0:0, 9=7+2:0:0:0:0, 7=4+3:1:0:0:1, 4=3+1:0:1:0:0, 7=6+1:0:0:0:0, 3=2+1:0:0:0:1, 2=2+0:0:0:0:0, 6=5+1:0:0:0:1, 0=0+0:0:0:0:0, 2=1+1:0:0:0:1, 7=4+3:2:0:0:3, 5=3+2:0:2:0:0, 248=175+73:7:12:0:35
D major (2#), 4=3+1:0:0:0:0, 3=3+0:0:0:0:0, 8=5+3:0:0:0:0, 4=4+0:0:0:0:0, 2=1+1:1:0:0:1, 8=6+2:1:0:0:1, 3=3+0:0:0:0:0, 3=3+0:0:0:0:0, 2=2+0:0:0:0:0, 6=2+4:0:0:0:0, 1=1+0:0:0:0:0, 5=1+4:4:0:0:4, 7=5+2:0:0:0:0, 4=4+0:0:0:0:0, 8=7+1:0:0:0:1, 7=4+3:3:0:0:3, 7=6+1:0:0:0:0, 10=4+6:2:0:0:2, 4=3+1:1:0:0:1, 5=3+2:1:0:0:0, 3=1+2:0:0:0:1, 0=0+0:0:0:0:0, 1=1+0:0:0:0:0, 2=1+1:0:0:0:1, 9=6+3:1:0:0:1, 10=7+3:2:0:0:2, 8=5+3:0:0:0:0, 8=6+2:0:0:0:0, 6=4+2:1:0:0:0, 6=6+0:0:0:0:0, 2=2+0:0:0:0:0, 2=2+0:0:0:0:0, 8=4+4:1:0:0:2,  ,  ,  ,  ,  ,  ,  ,  ,  ,  ,  ,  ,  ,  ,  ,  ,  ,  ,  ,  ,  ,  ,  ,  ,  ,  ,  ,  ,  ,  ,  ,  ,  ,  ,  ,  ,  ,  ,  ,  ,  ,  ,  ,  ,  ,  ,  ,  ,  ,  ,  ,  ,  ,  ,  ,  ,  ,  ,  ,  ,  ,  ,  ,  , 7=6+1:0:0:0:0, 7=6+1:0:0:0:0, 7=6+1:0:0:0:0, 6=2+4:1:0:0:0, 7=6+1:0:0:0:0, 2=2+0:0:0:0:0,  , 2=2+0:0:0:0:0, 3=3+0:0:0:0:0, 7=6+1:0:0:0:0, 1=1+0:0:0:0:0, 3=0+3:2:0:0:2, 3=3+0:0:0:0:0, 6=4+2:1:0:0:1, 3=1+2:0:0:0:0, 3=1+2:1:0:0:1, 6=2+4:2:0:0:2, 3=2+1:0:0:0:0, 1=1+0:0:0:0:0, 0=0+0:0:0:0:0, 1=1+0:0:0:0:0, 3=2+1:0:0:0:0, 3=2+1:0:0:0:1, 11=7+4:1:0:0:0, 16=10+6:0:0:0:0, 6=5+1:0:0:0:0, 2=2+0:0:0:0:0, 9=7+2:0:0:0:0, 2=2+0:0:0:0:0, 7=5+2:0:0:0:0, 7=4+3:3:0:0:3, 8=5+3:1:0:0:3, 318=221+97:30:0:0:33
G minor (2b), 2=1+1:0:0:0:0, 2=2+0:0:0:0:0, 5=3+2:0:0:0:0, 1=1+0:0:0:0:0, 3=2+1:0:0:0:0, 2=2+0:0:0:0:0, 2=1+1:0:0:0:0, 1=1+0:0:0:0:0, 1=1+0:0:0:0:0, 3=2+1:0:0:0:0, 1=1+0:0:0:0:0, 6=2+4:0:4:0:0, 2=2+0:0:0:0:0, 1=1+0:0:0:0:0, 4=3+1:0:0:0:1, 7=4+3:2:0:0:2, 4=3+1:0:0:0:0, 11=6+5:2:0:0:3, 5=3+2:0:0:0:2, 4=3+1:0:1:0:0, 4=3+1:0:0:0:1, 1=1+0:0:0:0:0, 6=6+0:0:0:0:0, 8=6+2:1:0:0:0, 4=3+1:0:0:0:0, 8=5+3:2:0:0:2, 2=2+0:0:0:0:0, 8=5+3:0:0:0:0, 7=4+3:0:0:0:1, 2=2+0:0:0:0:0, 1=1+0:0:0:0:0, 2=2+0:0:0:0:0, 6=3+3:0:0:0:0,  ,  ,  ,  ,  ,  ,  ,  ,  ,  ,  ,  ,  ,  ,  ,  ,  ,  ,  ,  ,  ,  ,  ,  ,  ,  ,  ,  ,  ,  ,  ,  ,  ,  ,  ,  ,  ,  ,  ,  ,  ,  ,  ,  ,  ,  ,  ,  ,  ,  ,  ,  ,  ,  ,  ,  ,  ,  ,  ,  ,  ,  ,  ,  , 4=3+1:0:0:0:0, 4=3+1:0:0:0:0, 4=3+1:0:0:0:0, 8=4+4:0:0:0:1, 3=2+1:0:0:0:0, 2=1+1:0:0:0:0,  , 2=1+1:0:0:0:0, 1=1+0:0:0:0:0, 3=2+1:0:0:0:0, 0=0+0:0:0:0:0, 6=3+3:0:0:0:0, 3=1+2:0:0:0:0, 4=2+2:0:0:0:0, 6=3+3:1:0:0:0, 5=3+2:0:0:0:0, 7=5+2:2:0:0:2, 4=2+2:1:0:0:1, 5=4+1:0:0:0:0, 2=2+0:0:0:0:0, 4=4+0:0:0:0:0, 8=7+1:0:0:0:0, 8=4+4:1:0:0:1, 8=4+4:0:0:0:1, 10=6+4:0:0:0:0, 3=2+1:0:0:0:0, 2=2+0:0:0:0:0, 7=5+2:0:0:0:0, 0=0+0:0:0:0:0, 1=1+0:0:0:0:0, 7=4+3:2:0:0:2, 7=3+4:0:2:0:2, 264=174+90:14:7:0:22
B minor (2#), 3=3+0:0:0:0:0, 3=3+0:0:0:0:0, 8=5+3:0:0:0:0, 4=4+0:0:0:0:0, 3=2+1:0:0:0:1, 7=6+1:1:0:0:1, 3=3+0:0:0:0:0, 3=3+0:0:0:0:0, 2=2+0:0:0:0:0, 6=2+4:0:0:0:4, 1=1+0:0:0:0:0, 7=3+4:0:2:0:2, 5=5+0:0:0:0:0, 4=4+0:0:0:0:0, 9=6+3:1:0:0:3, 8=5+3:2:0:0:3, 7=6+1:0:0:0:1, 12=6+6:2:0:0:4, 4=4+0:0:0:0:0, 7=5+2:1:0:0:1, 4=3+1:0:0:0:1, 0=0+0:0:0:0:0, 1=1+0:0:0:0:0, 2=1+1:0:0:0:1, 9=6+3:1:0:0:2, 13=9+4:0:0:0:3, 6=5+1:0:0:0:0, 8=6+2:0:0:0:2, 8=4+4:1:0:0:3, 6=4+2:2:0:0:2, 3=2+1:0:0:0:1, 2=2+0:0:0:0:0, 5=4+1:0:0:0:1,  ,  ,  ,  ,  ,  ,  ,  ,  ,  ,  ,  ,  ,  ,  ,  ,  ,  ,  ,  ,  ,  ,  ,  ,  ,  ,  ,  ,  ,  ,  ,  ,  ,  ,  ,  ,  ,  ,  ,  ,  ,  ,  ,  ,  ,  ,  ,  ,  ,  ,  ,  ,  ,  ,  ,  ,  ,  ,  ,  ,  ,  ,  ,  , 7=6+1:0:0:0:0, 7=6+1:0:0:0:0, 7=6+1:0:0:0:0, 6=3+3:0:0:0:3, 6=6+0:0:0:0:0, 2=2+0:0:0:0:0,  , 2=2+0:0:0:0:0, 3=3+0:0:0:0:0, 7=6+1:0:0:0:1, 1=1+0:0:0:0:0, 3=0+3:2:0:0:2, 3=3+0:0:0:0:0, 6=4+2:1:0:0:1, 6=1+5:1:0:0:5, 3=2+1:0:0:0:1, 5=4+1:0:0:0:0, 3=2+1:0:0:0:0, 1=1+0:0:0:0:0, 0=0+0:0:0:0:0, 1=1+0:0:0:0:0, 3=2+1:0:0:0:0, 5=2+3:0:0:0:0, 9=7+2:1:0:0:2, 13=10+3:0:0:0:0, 6=5+1:0:0:0:1, 2=2+0:0:0:0:0, 9=7+2:0:0:0:1, 2=2+0:0:0:0:0, 6=5+1:0:0:0:1, 8=5+3:2:0:0:3, 8=5+3:1:0:0:3, 323=236+87:19:2:0:60
G minor mel (2b),  ,  ,  ,  ,  ,  ,  ,  ,  ,  ,  ,  ,  ,  ,  ,  ,  ,  ,  ,  ,  ,  ,  ,  ,  ,  ,  ,  ,  ,  ,  ,  ,  ,  ,  ,  ,  ,  ,  ,  ,  ,  ,  ,  ,  ,  ,  ,  ,  ,  ,  ,  ,  ,  ,  ,  ,  ,  ,  ,  ,  ,  ,  ,  ,  ,  ,  ,  ,  ,  ,  ,  ,  ,  ,  ,  ,  ,  ,  ,  ,  ,  ,  ,  ,  ,  ,  ,  ,  ,  ,  ,  ,  ,  ,  ,  ,  ,  ,  ,  ,  ,  ,  ,  ,  ,  ,  ,  ,  ,  ,  ,  ,  ,  ,  ,  ,  ,  ,  ,  ,  ,  ,  ,  ,  ,  ,  ,  ,  , 0=0+0:0:0:0:0
B minor mel (2#),  ,  ,  ,  ,  ,  ,  ,  ,  ,  ,  ,  ,  ,  ,  ,  ,  ,  ,  ,  ,  ,  ,  ,  ,  ,  ,  ,  ,  ,  ,  ,  ,  ,  ,  ,  ,  ,  ,  ,  ,  ,  ,  ,  ,  ,  ,  ,  ,  ,  ,  ,  ,  ,  ,  ,  ,  ,  ,  ,  ,  ,  ,  ,  ,  ,  ,  ,  ,  ,  ,  ,  ,  ,  ,  ,  ,  ,  ,  ,  ,  ,  ,  ,  ,  ,  ,  ,  ,  ,  ,  ,  ,  ,  ,  ,  ,  ,  ,  ,  ,  ,  ,  ,  ,  ,  ,  ,  ,  ,  ,  ,  ,  ,  ,  ,  ,  ,  ,  ,  ,  ,  ,  ,  ,  ,  ,  ,  ,  , 0=0+0:0:0:0:0
Bb major blues (2b),  ,  ,  ,  ,  ,  ,  ,  ,  ,  ,  ,  ,  ,  ,  ,  ,  ,  ,  ,  ,  ,  ,  ,  ,  ,  ,  ,  ,  ,  ,  ,  ,  ,  ,  ,  ,  ,  ,  ,  ,  ,  ,  ,  ,  ,  ,  ,  ,  ,  ,  ,  ,  ,  ,  ,  ,  ,  ,  ,  ,  ,  ,  ,  ,  ,  ,  ,  ,  ,  ,  ,  ,  ,  ,  ,  ,  ,  ,  ,  ,  ,  ,  ,  ,  ,  ,  ,  ,  ,  ,  ,  ,  ,  ,  ,  ,  ,  ,  ,  ,  ,  ,  ,  ,  ,  ,  ,  ,  ,  ,  ,  ,  ,  ,  ,  ,  ,  ,  ,  ,  ,  ,  ,  ,  ,  ,  ,  ,  , 0=0+0:0:0:0:0
D major blues (2#),  ,  ,  ,  ,  ,  ,  ,  ,  ,  ,  ,  ,  ,  ,  ,  ,  ,  ,  ,  ,  ,  ,  ,  ,  ,  ,  ,  ,  ,  ,  ,  ,  ,  ,  ,  ,  ,  ,  ,  ,  ,  ,  ,  ,  ,  ,  ,  ,  ,  ,  ,  ,  ,  ,  ,  ,  ,  ,  ,  ,  ,  ,  ,  ,  ,  ,  ,  ,  ,  ,  ,  ,  ,  ,  ,  ,  ,  ,  ,  ,  ,  ,  ,  ,  ,  ,  ,  ,  ,  ,  ,  ,  ,  ,  ,  ,  ,  ,  ,  ,  ,  ,  ,  ,  ,  ,  ,  ,  ,  ,  ,  ,  ,  ,  ,  ,  ,  ,  ,  ,  ,  ,  ,  ,  ,  ,  ,  ,  , 0=0+0:0:0:0:0
G minor blues (2b),  ,  ,  ,  ,  ,  ,  ,  ,  ,  ,  ,  ,  ,  ,  ,  ,  ,  ,  ,  ,  ,  ,  ,  ,  ,  ,  ,  ,  ,  ,  ,  ,  ,  ,  ,  ,  ,  ,  ,  ,  ,  ,  ,  ,  ,  ,  ,  ,  ,  ,  ,  ,  ,  ,  ,  ,  ,  ,  ,  ,  ,  ,  ,  ,  ,  ,  ,  ,  ,  ,  ,  ,  ,  ,  ,  ,  ,  ,  ,  ,  ,  ,  ,  ,  ,  ,  ,  ,  ,  ,  ,  ,  ,  ,  ,  ,  ,  ,  ,  ,  ,  ,  ,  ,  ,  ,  ,  ,  ,  ,  ,  ,  ,  ,  ,  ,  ,  ,  ,  ,  ,  ,  ,  ,  ,  ,  ,  ,  , 0=0+0:0:0:0:0
B minor blues (2#),  ,  ,  ,  ,  ,  ,  ,  ,  ,  ,  ,  ,  ,  ,  ,  ,  ,  ,  ,  ,  ,  ,  ,  ,  ,  ,  ,  ,  ,  ,  ,  ,  ,  ,  ,  ,  ,  ,  ,  ,  ,  ,  ,  ,  ,  ,  ,  ,  ,  ,  ,  ,  ,  ,  ,  ,  ,  ,  ,  ,  ,  ,  ,  ,  ,  ,  ,  ,  ,  ,  ,  ,  ,  ,  ,  ,  ,  ,  ,  ,  ,  ,  ,  ,  ,  ,  ,  ,  ,  ,  ,  ,  ,  ,  ,  ,  ,  ,  ,  ,  ,  ,  ,  ,  ,  ,  ,  ,  ,  ,  ,  ,  ,  ,  ,  ,  ,  ,  ,  ,  ,  ,  ,  ,  ,  ,  ,  ,  , 0=0+0:0:0:0:0
Bb dorian (2b),  ,  ,  ,  ,  ,  ,  ,  ,  ,  ,  ,  ,  ,  ,  ,  ,  ,  ,  ,  ,  ,  ,  ,  ,  ,  ,  ,  ,  ,  ,  ,  ,  ,  ,  ,  ,  ,  ,  ,  ,  ,  ,  ,  ,  ,  ,  ,  ,  ,  ,  ,  ,  ,  ,  ,  ,  ,  ,  ,  ,  ,  ,  ,  ,  ,  ,  ,  ,  ,  ,  ,  ,  ,  ,  ,  ,  ,  ,  ,  ,  ,  ,  ,  ,  ,  ,  ,  ,  ,  ,  ,  ,  ,  ,  ,  ,  ,  ,  ,  ,  ,  ,  ,  ,  ,  ,  ,  ,  ,  ,  ,  ,  ,  ,  ,  ,  ,  ,  ,  ,  ,  ,  ,  ,  ,  ,  ,  ,  , 0=0+0:0:0:0:0
D dorian (2#),  ,  ,  ,  ,  ,  ,  ,  ,  ,  ,  ,  ,  ,  ,  ,  ,  ,  ,  ,  ,  ,  ,  ,  ,  ,  ,  ,  ,  ,  ,  ,  ,  ,  ,  ,  ,  ,  ,  ,  ,  ,  ,  ,  ,  ,  ,  ,  ,  ,  ,  ,  ,  ,  ,  ,  ,  ,  ,  ,  ,  ,  ,  ,  ,  ,  ,  ,  ,  ,  ,  ,  ,  ,  ,  ,  ,  ,  ,  ,  ,  ,  ,  ,  ,  ,  ,  ,  ,  ,  ,  ,  ,  ,  ,  ,  ,  ,  ,  ,  ,  ,  ,  ,  ,  ,  ,  ,  ,  ,  ,  ,  ,  ,  ,  ,  ,  ,  ,  ,  ,  ,  ,  ,  ,  ,  ,  ,  ,  , 0=0+0:0:0:0:0
Bb phrygian (2b),  ,  ,  ,  ,  ,  ,  ,  ,  ,  ,  ,  ,  ,  ,  ,  ,  ,  ,  ,  ,  ,  ,  ,  ,  ,  ,  ,  ,  ,  ,  ,  ,  ,  ,  ,  ,  ,  ,  ,  ,  ,  ,  ,  ,  ,  ,  ,  ,  ,  ,  ,  ,  ,  ,  ,  ,  ,  ,  ,  ,  ,  ,  ,  ,  ,  ,  ,  ,  ,  ,  ,  ,  ,  ,  ,  ,  ,  ,  ,  ,  ,  ,  ,  ,  ,  ,  ,  ,  ,  ,  ,  ,  ,  ,  ,  ,  ,  ,  ,  ,  ,  ,  ,  ,  ,  ,  ,  ,  ,  ,  ,  ,  ,  ,  ,  ,  ,  ,  ,  ,  ,  ,  ,  ,  ,  ,  ,  ,  , 0=0+0:0:0:0:0
D phrygian (2#),  ,  ,  ,  ,  ,  ,  ,  ,  ,  ,  ,  ,  ,  ,  ,  ,  ,  ,  ,  ,  ,  ,  ,  ,  ,  ,  ,  ,  ,  ,  ,  ,  ,  ,  ,  ,  ,  ,  ,  ,  ,  ,  ,  ,  ,  ,  ,  ,  ,  ,  ,  ,  ,  ,  ,  ,  ,  ,  ,  ,  ,  ,  ,  ,  ,  ,  ,  ,  ,  ,  ,  ,  ,  ,  ,  ,  ,  ,  ,  ,  ,  ,  ,  ,  ,  ,  ,  ,  ,  ,  ,  ,  ,  ,  ,  ,  ,  ,  ,  ,  ,  ,  ,  ,  ,  ,  ,  ,  ,  ,  ,  ,  ,  ,  ,  ,  ,  ,  ,  ,  ,  ,  ,  ,  ,  ,  ,  ,  , 0=0+0:0:0:0:0
Bb lydian (2b),  ,  ,  ,  ,  ,  ,  ,  ,  ,  ,  ,  ,  ,  ,  ,  ,  ,  ,  ,  ,  ,  ,  ,  ,  ,  ,  ,  ,  ,  ,  ,  ,  ,  ,  ,  ,  ,  ,  ,  ,  ,  ,  ,  ,  ,  ,  ,  ,  ,  ,  ,  ,  ,  ,  ,  ,  ,  ,  ,  ,  ,  ,  ,  ,  ,  ,  ,  ,  ,  ,  ,  ,  ,  ,  ,  ,  ,  ,  ,  ,  ,  ,  ,  ,  ,  ,  ,  ,  ,  ,  ,  ,  ,  ,  ,  ,  ,  ,  ,  ,  ,  ,  ,  ,  ,  ,  ,  ,  ,  ,  ,  ,  ,  ,  ,  ,  ,  ,  ,  ,  ,  ,  ,  ,  ,  ,  ,  ,  , 0=0+0:0:0:0:0
D lydian (2#),  ,  ,  ,  ,  ,  ,  ,  ,  ,  ,  ,  ,  ,  ,  ,  ,  ,  ,  ,  ,  ,  ,  ,  ,  ,  ,  ,  ,  ,  ,  ,  ,  ,  ,  ,  ,  ,  ,  ,  ,  ,  ,  ,  ,  ,  ,  ,  ,  ,  ,  ,  ,  ,  ,  ,  ,  ,  ,  ,  ,  ,  ,  ,  ,  ,  ,  ,  ,  ,  ,  ,  ,  ,  ,  ,  ,  ,  ,  ,  ,  ,  ,  ,  ,  ,  ,  ,  ,  ,  ,  ,  ,  ,  ,  ,  ,  ,  ,  ,  ,  ,  ,  ,  ,  ,  ,  ,  ,  ,  ,  ,  ,  ,  ,  ,  ,  ,  ,  ,  ,  ,  ,  ,  ,  ,  ,  ,  ,  , 0=0+0:0:0:0:0
Bb mixolydian (2b),  ,  ,  ,  ,  ,  ,  ,  ,  ,  ,  ,  ,  ,  ,  ,  ,  ,  ,  ,  ,  ,  ,  ,  ,  ,  ,  ,  ,  ,  ,  ,  ,  ,  ,  ,  ,  ,  ,  ,  ,  ,  ,  ,  ,  ,  ,  ,  ,  ,  ,  ,  ,  ,  ,  ,  ,  ,  ,  ,  ,  ,  ,  ,  ,  ,  ,  ,  ,  ,  ,  ,  ,  ,  ,  ,  ,  ,  ,  ,  ,  ,  ,  ,  ,  ,  ,  ,  ,  ,  ,  ,  ,  ,  ,  ,  ,  ,  ,  ,  ,  ,  ,  ,  ,  ,  ,  ,  ,  ,  ,  ,  ,  ,  ,  ,  ,  ,  ,  ,  ,  ,  ,  ,  ,  ,  ,  ,  ,  , 0=0+0:0:0:0:0
D mixolydian (2#),  ,  ,  ,  ,  ,  ,  ,  ,  ,  ,  ,  ,  ,  ,  ,  ,  ,  ,  ,  ,  ,  ,  ,  ,  ,  ,  ,  ,  ,  ,  ,  ,  ,  ,  ,  ,  ,  ,  ,  ,  ,  ,  ,  ,  ,  ,  ,  ,  ,  ,  ,  ,  ,  ,  ,  ,  ,  ,  ,  ,  ,  ,  ,  ,  ,  ,  ,  ,  ,  ,  ,  ,  ,  ,  ,  ,  ,  ,  ,  ,  ,  ,  ,  ,  ,  ,  ,  ,  ,  ,  ,  ,  ,  ,  ,  ,  ,  ,  ,  ,  ,  ,  ,  ,  ,  ,  ,  ,  ,  ,  ,  ,  ,  ,  ,  ,  ,  ,  ,  ,  ,  ,  ,  ,  ,  ,  ,  ,  , 0=0+0:0:0:0:0
Bb aeolian (2b),  ,  ,  ,  ,  ,  ,  ,  ,  ,  ,  ,  ,  ,  ,  ,  ,  ,  ,  ,  ,  ,  ,  ,  ,  ,  ,  ,  ,  ,  ,  ,  ,  ,  ,  ,  ,  ,  ,  ,  ,  ,  ,  ,  ,  ,  ,  ,  ,  ,  ,  ,  ,  ,  ,  ,  ,  ,  ,  ,  ,  ,  ,  ,  ,  ,  ,  ,  ,  ,  ,  ,  ,  ,  ,  ,  ,  ,  ,  ,  ,  ,  ,  ,  ,  ,  ,  ,  ,  ,  ,  ,  ,  ,  ,  ,  ,  ,  ,  ,  ,  ,  ,  ,  ,  ,  ,  ,  ,  ,  ,  ,  ,  ,  ,  ,  ,  ,  ,  ,  ,  ,  ,  ,  ,  ,  ,  ,  ,  , 0=0+0:0:0:0:0
D aeolian (2#),  ,  ,  ,  ,  ,  ,  ,  ,  ,  ,  ,  ,  ,  ,  ,  ,  ,  ,  ,  ,  ,  ,  ,  ,  ,  ,  ,  ,  ,  ,  ,  ,  ,  ,  ,  ,  ,  ,  ,  ,  ,  ,  ,  ,  ,  ,  ,  ,  ,  ,  ,  ,  ,  ,  ,  ,  ,  ,  ,  ,  ,  ,  ,  ,  ,  ,  ,  ,  ,  ,  ,  ,  ,  ,  ,  ,  ,  ,  ,  ,  ,  ,  ,  ,  ,  ,  ,  ,  ,  ,  ,  ,  ,  ,  ,  ,  ,  ,  ,  ,  ,  ,  ,  ,  ,  ,  ,  ,  ,  ,  ,  ,  ,  ,  ,  ,  ,  ,  ,  ,  ,  ,  ,  ,  ,  ,  ,  ,  , 0=0+0:0:0:0:0
Bb locrian (2b),  ,  ,  ,  ,  ,  ,  ,  ,  ,  ,  ,  ,  ,  ,  ,  ,  ,  ,  ,  ,  ,  ,  ,  ,  ,  ,  ,  ,  ,  ,  ,  ,  ,  ,  ,  ,  ,  ,  ,  ,  ,  ,  ,  ,  ,  ,  ,  ,  ,  ,  ,  ,  ,  ,  ,  ,  ,  ,  ,  ,  ,  ,  ,  ,  ,  ,  ,  ,  ,  ,  ,  ,  ,  ,  ,  ,  ,  ,  ,  ,  ,  ,  ,  ,  ,  ,  ,  ,  ,  ,  ,  ,  ,  ,  ,  ,  ,  ,  ,  ,  ,  ,  ,  ,  ,  ,  ,  ,  ,  ,  ,  ,  ,  ,  ,  ,  ,  ,  ,  ,  ,  ,  ,  ,  ,  ,  ,  ,  , 0=0+0:0:0:0:0
D locrian (2#),  ,  ,  ,  ,  ,  ,  ,  ,  ,  ,  ,  ,  ,  ,  ,  ,  ,  ,  ,  ,  ,  ,  ,  ,  ,  ,  ,  ,  ,  ,  ,  ,  ,  ,  ,  ,  ,  ,  ,  ,  ,  ,  ,  ,  ,  ,  ,  ,  ,  ,  ,  ,  ,  ,  ,  ,  ,  ,  ,  ,  ,  ,  ,  ,  ,  ,  ,  ,  ,  ,  ,  ,  ,  ,  ,  ,  ,  ,  ,  ,  ,  ,  ,  ,  ,  ,  ,  ,  ,  ,  ,  ,  ,  ,  ,  ,  ,  ,  ,  ,  ,  ,  ,  ,  ,  ,  ,  ,  ,  ,  ,  ,  ,  ,  ,  ,  ,  ,  ,  ,  ,  ,  ,  ,  ,  ,  ,  ,  , 0=0+0:0:0:0:0
Eb major (3b), 0=0+0:0:0:0:0, 2=2+0:0:0:0:0, 2=2+0:0:0:0:0, 0=0+0:0:0:0:0, 4=2+2:0:0:0:1, 3=2+1:0:0:0:0, 0=0+0:0:0:0:0, 1=1+0:0:0:0:0, 1=1+0:0:0:0:0, 4=3+1:0:0:0:1, 0=0+0:0:0:0:0, 6=2+4:0:4:0:0, 1=1+0:0:0:0:0, 1=1+0:0:0:0:0, 6=4+2:0:0:0:2, 6=3+3:2:0:0:3, 4=3+1:0:0:0:1, 12=7+5:0:0:0:2, 2=2+0:0:0:0:0, 4=3+1:0:0:0:0, 5=4+1:0:0:0:1, 1=1+0:0:0:0:0, 8=6+2:0:0:0:0, 10=6+4:1:0:0:1, 7=4+3:0:0:0:1, 7=4+3:0:3:0:0, 2=2+0:0:0:0:0, 5=3+2:0:1:0:1, 6=3+3:0:0:0:1, 2=2+0:0:0:0:0, 2=1+1:0:0:0:1, 1=1+0:0:0:0:0, 2=1+1:0:0:0:0,  ,  ,  ,  ,  ,  ,  ,  ,  ,  ,  ,  ,  ,  ,  ,  ,  ,  ,  ,  ,  ,  ,  ,  ,  ,  ,  ,  ,  ,  ,  ,  ,  ,  ,  ,  ,  ,  ,  ,  ,  ,  ,  ,  ,  ,  ,  ,  ,  ,  ,  ,  ,  ,  ,  ,  ,  ,  ,  ,  ,  ,  ,  ,  , 3=2+1:0:0:0:0, 2=2+0:0:0:0:0, 2=2+0:0:0:0:0, 6=3+3:0:1:0:2, 1=1+0:0:0:0:0, 0=0+0:0:0:0:0,  , 0=0+0:0:0:0:0, 1=1+0:0:0:0:0, 3=2+1:0:0:0:1, 0=0+0:0:0:0:0, 7=3+4:0:0:0:2, 3=2+1:0:0:0:0, 5=2+3:0:0:0:0, 8=5+3:0:0:0:3, 3=2+1:0:0:0:1, 7=5+2:1:0:0:1, 4=2+2:1:0:0:1, 7=5+2:0:0:0:0, 3=2+1:0:0:0:0, 5=5+0:0:0:0:0, 10=6+4:3:2:0:3, 8=4+4:1:0:0:1, 4=3+1:0:1:0:0, 5=4+1:0:0:0:0, 4=3+1:0:0:0:1, 1=1+0:0:0:0:0, 5=3+2:0:0:0:0, 0=0+0:0:0:0:0, 3=2+1:0:0:0:1, 6=3+3:2:0:0:3, 4=2+2:0:2:0:0, 237=154+83:11:14:0:36
A major (3#), 3=3+0:0:0:0:0, 3=3+0:0:0:0:0, 5=5+0:0:0:0:0, 4=4+0:0:0:0:0, 3=2+1:1:0:0:1, 7=6+1:1:0:0:1, 3=3+0:0:0:0:0, 3=3+0:0:0:0:0, 2=2+0:0:0:0:0, 4=3+1:0:0:0:1, 4=2+2:0:0:0:0, 7=3+4:0:2:0:2, 5=5+0:0:0:0:0, 4=4+0:0:0:0:0, 9=7+2:0:0:0:2, 10=8+2:0:0:0:1, 7=6+1:0:0:0:1, 11=5+6:1:0:0:5, 6=4+2:0:0:0:2, 8=6+2:0:0:0:1, 4=3+1:0:0:0:1, 0=0+0:0:0:0:0, 0=0+0:0:0:0:0, 4=2+2:0:0:0:0, 9=7+2:0:0:0:1, 12=9+3:0:0:0:3, 5=5+0:0:0:0:0, 7=4+3:1:0:0:3, 7=4+3:1:0:0:2, 6=4+2:2:0:0:2, 2=2+0:0:0:0:0, 2=1+1:1:0:0:1, 6=3+3:0:0:0:0,  ,  ,  ,  ,  ,  ,  ,  ,  ,  ,  ,  ,  ,  ,  ,  ,  ,  ,  ,  ,  ,  ,  ,  ,  ,  ,  ,  ,  ,  ,  ,  ,  ,  ,  ,  ,  ,  ,  ,  ,  ,  ,  ,  ,  ,  ,  ,  ,  ,  ,  ,  ,  ,  ,  ,  ,  ,  ,  ,  ,  ,  ,  ,  , 7=6+1:0:0:0:0, 7=6+1:0:0:0:0, 7=6+1:0:0:0:0, 6=2+4:1:0:0:0, 6=6+0:0:0:0:0, 2=2+0:0:0:0:0,  , 2=2+0:0:0:0:0, 3=3+0:0:0:0:0, 7=6+1:0:0:0:1, 1=1+0:0:0:0:0, 4=1+3:2:0:0:2, 3=3+0:0:0:0:0, 6=4+2:1:0:0:1, 4=2+2:0:0:0:0, 2=0+2:0:0:0:2, 4=3+1:0:0:0:0, 3=2+1:0:0:0:0, 0=0+0:0:0:0:0, 0=0+0:0:0:0:0, 0=0+0:0:0:0:0, 3=2+1:0:0:0:0, 6=3+3:0:0:0:0, 9=8+1:0:0:0:1, 11=10+1:0:0:0:0, 6=5+1:0:0:0:1, 2=2+0:0:0:0:0, 7=5+2:1:0:0:2, 2=2+0:0:0:0:0, 6=5+1:0:0:0:1, 10=8+2:0:0:0:1, 8=6+2:0:0:0:2, 316=239+77:13:2:0:44
C minor (3b), 0=0+0:0:0:0:0, 2=2+0:0:0:0:0, 5=2+3:0:0:0:0, 0=0+0:0:0:0:0, 4=2+2:0:0:0:1, 2=2+0:0:0:0:0, 1=0+1:0:0:0:0, 1=1+0:0:0:0:0, 1=1+0:0:0:0:0, 4=3+1:0:0:0:0, 0=0+0:0:0:0:0, 7=3+4:2:0:0:2, 1=1+0:0:0:0:0, 1=1+0:0:0:0:0, 5=4+1:0:0:0:1, 6=3+3:2:0:0:2, 4=3+1:0:0:0:0, 9=5+4:1:0:0:2, 2=2+0:0:0:0:0, 5=3+2:0:0:0:0, 5=4+1:0:0:0:1, 1=1+0:0:0:0:0, 7=6+1:0:0:0:0, 8=6+2:1:0:0:0, 5=4+1:0:0:0:0, 6=3+3:2:0:0:2, 3=2+1:0:0:0:0, 5=3+2:0:1:0:1, 6=3+3:0:0:0:1, 2=2+0:0:0:0:0, 1=1+0:0:0:0:0, 1=1+0:0:0:0:0, 3=1+2:0:0:0:1,  ,  ,  ,  ,  ,  ,  ,  ,  ,  ,  ,  ,  ,  ,  ,  ,  ,  ,  ,  ,  ,  ,  ,  ,  ,  ,  ,  ,  ,  ,  ,  ,  ,  ,  ,  ,  ,  ,  ,  ,  ,  ,  ,  ,  ,  ,  ,  ,  ,  ,  ,  ,  ,  ,  ,  ,  ,  ,  ,  ,  ,  ,  ,  , 3=2+1:0:0:0:0, 3=2+1:0:0:0:0, 3=2+1:0:0:0:0, 8=4+4:0:0:0:1, 1=1+0:0:0:0:0, 0=0+0:0:0:0:0,  , 0=0+0:0:0:0:0, 1=1+0:0:0:0:0, 3=2+1:0:0:0:0, 0=0+0:0:0:0:0, 4=3+1:0:0:0:0, 4=2+2:0:0:0:0, 4=2+2:0:0:0:0, 7=4+3:1:0:0:0, 4=2+2:0:0:0:0, 6=4+2:2:0:0:2, 4=2+2:1:0:0:1, 5=4+1:1:0:0:1, 2=2+0:0:0:0:0, 7=5+2:0:0:0:0, 10=8+2:0:0:0:0, 7=4+3:1:0:0:1, 8=4+4:0:0:0:1, 7=4+3:0:0:0:0, 4=3+1:0:0:0:0, 1=1+0:0:0:0:0, 5=3+2:0:0:0:0, 0=0+0:0:0:0:0, 2=2+0:0:0:0:0, 6=3+3:2:0:0:2, 5=2+3:0:2:0:0, 237=153+84:16:3:0:23
F# minor (3#), 3=3+0:0:0:0:0, 3=3+0:0:0:0:0, 5=5+0:0:0:0:0, 4=4+0:0:0:0:0, 4=2+2:1:0:0:2, 7=6+1:1:0:0:1, 3=3+0:0:0:0:0, 3=3+0:0:0:0:0, 2=2+0:0:0:0:0, 6=2+4:0:0:0:4, 2=2+0:0:0:0:0, 7=3+4:0:2:0:2, 5=5+0:0:0:0:0, 4=4+0:0:0:0:0, 9=7+2:0:0:0:2, 10=8+2:0:0:0:1, 7=6+1:0:0:0:1, 11=5+6:1:0:0:5, 6=4+2:0:0:0:2, 8=6+2:0:0:0:1, 4=3+1:0:0:0:1, 0=0+0:0:0:0:0, 0=0+0:0:0:0:0, 4=2+2:0:0:0:0, 9=7+2:0:0:0:1, 12=9+3:0:0:0:3, 5=5+0:0:0:0:0, 7=4+3:1:0:0:3, 8=5+3:0:0:0:2, 6=6+0:0:0:0:0, 3=2+1:0:0:0:1, 2=2+0:0:0:0:0, 5=3+2:0:0:0:1,  ,  ,  ,  ,  ,  ,  ,  ,  ,  ,  ,  ,  ,  ,  ,  ,  ,  ,  ,  ,  ,  ,  ,  ,  ,  ,  ,  ,  ,  ,  ,  ,  ,  ,  ,  ,  ,  ,  ,  ,  ,  ,  ,  ,  ,  ,  ,  ,  ,  ,  ,  ,  ,  ,  ,  ,  ,  ,  ,  ,  ,  ,  ,  , 6=6+0:0:0:0:0, 6=6+0:0:0:0:0, 6=6+0:0:0:0:0, 6=3+3:0:0:0:2, 6=6+0:0:0:0:0, 2=2+0:0:0:0:0,  , 2=2+0:0:0:0:0, 3=3+0:0:0:0:0, 7=6+1:0:0:0:1, 1=1+0:0:0:0:0, 4=2+2:0:0:0:2, 7=4+3:0:0:0:1, 6=5+1:0:0:0:0, 8=3+5:0:0:0:4, 3=2+1:0:0:0:1, 4=3+1:0:0:0:0, 3=2+1:0:0:0:0, 0=0+0:0:0:0:0, 0=0+0:0:0:0:0, 0=0+0:0:0:0:0, 3=2+1:0:0:0:0, 6=3+3:0:0:0:0, 9=8+1:0:0:0:1, 11=10+1:0:0:0:0, 6=5+1:0:0:0:1, 2=2+0:0:0:0:0, 7=5+2:1:0:0:2, 2=2+0:0:0:0:0, 6=5+1:0:0:0:1, 10=8+2:0:0:0:1, 8=6+2:0:0:0:2, 324=249+75:5:2:0:52
C minor mel (3b),  ,  ,  ,  ,  ,  ,  ,  ,  ,  ,  ,  ,  ,  ,  ,  ,  ,  ,  ,  ,  ,  ,  ,  ,  ,  ,  ,  ,  ,  ,  ,  ,  ,  ,  ,  ,  ,  ,  ,  ,  ,  ,  ,  ,  ,  ,  ,  ,  ,  ,  ,  ,  ,  ,  ,  ,  ,  ,  ,  ,  ,  ,  ,  ,  ,  ,  ,  ,  ,  ,  ,  ,  ,  ,  ,  ,  ,  ,  ,  ,  ,  ,  ,  ,  ,  ,  ,  ,  ,  ,  ,  ,  ,  ,  ,  ,  ,  ,  ,  ,  ,  ,  ,  ,  ,  ,  ,  ,  ,  ,  ,  ,  ,  ,  ,  ,  ,  ,  ,  ,  ,  ,  ,  ,  ,  ,  ,  ,  , 0=0+0:0:0:0:0
F# minor mel (3#),  ,  ,  ,  ,  ,  ,  ,  ,  ,  ,  ,  ,  ,  ,  ,  ,  ,  ,  ,  ,  ,  ,  ,  ,  ,  ,  ,  ,  ,  ,  ,  ,  ,  ,  ,  ,  ,  ,  ,  ,  ,  ,  ,  ,  ,  ,  ,  ,  ,  ,  ,  ,  ,  ,  ,  ,  ,  ,  ,  ,  ,  ,  ,  ,  ,  ,  ,  ,  ,  ,  ,  ,  ,  ,  ,  ,  ,  ,  ,  ,  ,  ,  ,  ,  ,  ,  ,  ,  ,  ,  ,  ,  ,  ,  ,  ,  ,  ,  ,  ,  ,  ,  ,  ,  ,  ,  ,  ,  ,  ,  ,  ,  ,  ,  ,  ,  ,  ,  ,  ,  ,  ,  ,  ,  ,  ,  ,  ,  , 0=0+0:0:0:0:0
Eb major blues (3b),  ,  ,  ,  ,  ,  ,  ,  ,  ,  ,  ,  ,  ,  ,  ,  ,  ,  ,  ,  ,  ,  ,  ,  ,  ,  ,  ,  ,  ,  ,  ,  ,  ,  ,  ,  ,  ,  ,  ,  ,  ,  ,  ,  ,  ,  ,  ,  ,  ,  ,  ,  ,  ,  ,  ,  ,  ,  ,  ,  ,  ,  ,  ,  ,  ,  ,  ,  ,  ,  ,  ,  ,  ,  ,  ,  ,  ,  ,  ,  ,  ,  ,  ,  ,  ,  ,  ,  ,  ,  ,  ,  ,  ,  ,  ,  ,  ,  ,  ,  ,  ,  ,  ,  ,  ,  ,  ,  ,  ,  ,  ,  ,  ,  ,  ,  ,  ,  ,  ,  ,  ,  ,  ,  ,  ,  ,  ,  ,  , 0=0+0:0:0:0:0
A major blues (3#),  ,  ,  ,  ,  ,  ,  ,  ,  ,  ,  ,  ,  ,  ,  ,  ,  ,  ,  ,  ,  ,  ,  ,  ,  ,  ,  ,  ,  ,  ,  ,  ,  ,  ,  ,  ,  ,  ,  ,  ,  ,  ,  ,  ,  ,  ,  ,  ,  ,  ,  ,  ,  ,  ,  ,  ,  ,  ,  ,  ,  ,  ,  ,  ,  ,  ,  ,  ,  ,  ,  ,  ,  ,  ,  ,  ,  ,  ,  ,  ,  ,  ,  ,  ,  ,  ,  ,  ,  ,  ,  ,  ,  ,  ,  ,  ,  ,  ,  ,  ,  ,  ,  ,  ,  ,  ,  ,  ,  ,  ,  ,  ,  ,  ,  ,  ,  ,  ,  ,  ,  ,  ,  ,  ,  ,  ,  ,  ,  , 0=0+0:0:0:0:0
C minor blues (3b),  ,  ,  ,  ,  ,  ,  ,  ,  ,  ,  ,  ,  ,  ,  ,  ,  ,  ,  ,  ,  ,  ,  ,  ,  ,  ,  ,  ,  ,  ,  ,  ,  ,  ,  ,  ,  ,  ,  ,  ,  ,  ,  ,  ,  ,  ,  ,  ,  ,  ,  ,  ,  ,  ,  ,  ,  ,  ,  ,  ,  ,  ,  ,  ,  ,  ,  ,  ,  ,  ,  ,  ,  ,  ,  ,  ,  ,  ,  ,  ,  ,  ,  ,  ,  ,  ,  ,  ,  ,  ,  ,  ,  ,  ,  ,  ,  ,  ,  ,  ,  ,  ,  ,  ,  ,  ,  ,  ,  ,  ,  ,  ,  ,  ,  ,  ,  ,  ,  ,  ,  ,  ,  ,  ,  ,  ,  ,  ,  , 0=0+0:0:0:0:0
F# minor blues (3#),  ,  ,  ,  ,  ,  ,  ,  ,  ,  ,  ,  ,  ,  ,  ,  ,  ,  ,  ,  ,  ,  ,  ,  ,  ,  ,  ,  ,  ,  ,  ,  ,  ,  ,  ,  ,  ,  ,  ,  ,  ,  ,  ,  ,  ,  ,  ,  ,  ,  ,  ,  ,  ,  ,  ,  ,  ,  ,  ,  ,  ,  ,  ,  ,  ,  ,  ,  ,  ,  ,  ,  ,  ,  ,  ,  ,  ,  ,  ,  ,  ,  ,  ,  ,  ,  ,  ,  ,  ,  ,  ,  ,  ,  ,  ,  ,  ,  ,  ,  ,  ,  ,  ,  ,  ,  ,  ,  ,  ,  ,  ,  ,  ,  ,  ,  ,  ,  ,  ,  ,  ,  ,  ,  ,  ,  ,  ,  ,  , 0=0+0:0:0:0:0
Eb dorian (3b),  ,  ,  ,  ,  ,  ,  ,  ,  ,  ,  ,  ,  ,  ,  ,  ,  ,  ,  ,  ,  ,  ,  ,  ,  ,  ,  ,  ,  ,  ,  ,  ,  ,  ,  ,  ,  ,  ,  ,  ,  ,  ,  ,  ,  ,  ,  ,  ,  ,  ,  ,  ,  ,  ,  ,  ,  ,  ,  ,  ,  ,  ,  ,  ,  ,  ,  ,  ,  ,  ,  ,  ,  ,  ,  ,  ,  ,  ,  ,  ,  ,  ,  ,  ,  ,  ,  ,  ,  ,  ,  ,  ,  ,  ,  ,  ,  ,  ,  ,  ,  ,  ,  ,  ,  ,  ,  ,  ,  ,  ,  ,  ,  ,  ,  ,  ,  ,  ,  ,  ,  ,  ,  ,  ,  ,  ,  ,  ,  , 0=0+0:0:0:0:0
A dorian (3#),  ,  ,  ,  ,  ,  ,  ,  ,  ,  ,  ,  ,  ,  ,  ,  ,  ,  ,  ,  ,  ,  ,  ,  ,  ,  ,  ,  ,  ,  ,  ,  ,  ,  ,  ,  ,  ,  ,  ,  ,  ,  ,  ,  ,  ,  ,  ,  ,  ,  ,  ,  ,  ,  ,  ,  ,  ,  ,  ,  ,  ,  ,  ,  ,  ,  ,  ,  ,  ,  ,  ,  ,  ,  ,  ,  ,  ,  ,  ,  ,  ,  ,  ,  ,  ,  ,  ,  ,  ,  ,  ,  ,  ,  ,  ,  ,  ,  ,  ,  ,  ,  ,  ,  ,  ,  ,  ,  ,  ,  ,  ,  ,  ,  ,  ,  ,  ,  ,  ,  ,  ,  ,  ,  ,  ,  ,  ,  ,  , 0=0+0:0:0:0:0
Eb phrygian (3b),  ,  ,  ,  ,  ,  ,  ,  ,  ,  ,  ,  ,  ,  ,  ,  ,  ,  ,  ,  ,  ,  ,  ,  ,  ,  ,  ,  ,  ,  ,  ,  ,  ,  ,  ,  ,  ,  ,  ,  ,  ,  ,  ,  ,  ,  ,  ,  ,  ,  ,  ,  ,  ,  ,  ,  ,  ,  ,  ,  ,  ,  ,  ,  ,  ,  ,  ,  ,  ,  ,  ,  ,  ,  ,  ,  ,  ,  ,  ,  ,  ,  ,  ,  ,  ,  ,  ,  ,  ,  ,  ,  ,  ,  ,  ,  ,  ,  ,  ,  ,  ,  ,  ,  ,  ,  ,  ,  ,  ,  ,  ,  ,  ,  ,  ,  ,  ,  ,  ,  ,  ,  ,  ,  ,  ,  ,  ,  ,  , 0=0+0:0:0:0:0
A phrygian (3#),  ,  ,  ,  ,  ,  ,  ,  ,  ,  ,  ,  ,  ,  ,  ,  ,  ,  ,  ,  ,  ,  ,  ,  ,  ,  ,  ,  ,  ,  ,  ,  ,  ,  ,  ,  ,  ,  ,  ,  ,  ,  ,  ,  ,  ,  ,  ,  ,  ,  ,  ,  ,  ,  ,  ,  ,  ,  ,  ,  ,  ,  ,  ,  ,  ,  ,  ,  ,  ,  ,  ,  ,  ,  ,  ,  ,  ,  ,  ,  ,  ,  ,  ,  ,  ,  ,  ,  ,  ,  ,  ,  ,  ,  ,  ,  ,  ,  ,  ,  ,  ,  ,  ,  ,  ,  ,  ,  ,  ,  ,  ,  ,  ,  ,  ,  ,  ,  ,  ,  ,  ,  ,  ,  ,  ,  ,  ,  ,  , 0=0+0:0:0:0:0
Eb lydian (3b),  ,  ,  ,  ,  ,  ,  ,  ,  ,  ,  ,  ,  ,  ,  ,  ,  ,  ,  ,  ,  ,  ,  ,  ,  ,  ,  ,  ,  ,  ,  ,  ,  ,  ,  ,  ,  ,  ,  ,  ,  ,  ,  ,  ,  ,  ,  ,  ,  ,  ,  ,  ,  ,  ,  ,  ,  ,  ,  ,  ,  ,  ,  ,  ,  ,  ,  ,  ,  ,  ,  ,  ,  ,  ,  ,  ,  ,  ,  ,  ,  ,  ,  ,  ,  ,  ,  ,  ,  ,  ,  ,  ,  ,  ,  ,  ,  ,  ,  ,  ,  ,  ,  ,  ,  ,  ,  ,  ,  ,  ,  ,  ,  ,  ,  ,  ,  ,  ,  ,  ,  ,  ,  ,  ,  ,  ,  ,  ,  , 0=0+0:0:0:0:0
A lydian (3#),  ,  ,  ,  ,  ,  ,  ,  ,  ,  ,  ,  ,  ,  ,  ,  ,  ,  ,  ,  ,  ,  ,  ,  ,  ,  ,  ,  ,  ,  ,  ,  ,  ,  ,  ,  ,  ,  ,  ,  ,  ,  ,  ,  ,  ,  ,  ,  ,  ,  ,  ,  ,  ,  ,  ,  ,  ,  ,  ,  ,  ,  ,  ,  ,  ,  ,  ,  ,  ,  ,  ,  ,  ,  ,  ,  ,  ,  ,  ,  ,  ,  ,  ,  ,  ,  ,  ,  ,  ,  ,  ,  ,  ,  ,  ,  ,  ,  ,  ,  ,  ,  ,  ,  ,  ,  ,  ,  ,  ,  ,  ,  ,  ,  ,  ,  ,  ,  ,  ,  ,  ,  ,  ,  ,  ,  ,  ,  ,  , 0=0+0:0:0:0:0
Eb mixolydian (3b),  ,  ,  ,  ,  ,  ,  ,  ,  ,  ,  ,  ,  ,  ,  ,  ,  ,  ,  ,  ,  ,  ,  ,  ,  ,  ,  ,  ,  ,  ,  ,  ,  ,  ,  ,  ,  ,  ,  ,  ,  ,  ,  ,  ,  ,  ,  ,  ,  ,  ,  ,  ,  ,  ,  ,  ,  ,  ,  ,  ,  ,  ,  ,  ,  ,  ,  ,  ,  ,  ,  ,  ,  ,  ,  ,  ,  ,  ,  ,  ,  ,  ,  ,  ,  ,  ,  ,  ,  ,  ,  ,  ,  ,  ,  ,  ,  ,  ,  ,  ,  ,  ,  ,  ,  ,  ,  ,  ,  ,  ,  ,  ,  ,  ,  ,  ,  ,  ,  ,  ,  ,  ,  ,  ,  ,  ,  ,  ,  , 0=0+0:0:0:0:0
A mixolydian (3#),  ,  ,  ,  ,  ,  ,  ,  ,  ,  ,  ,  ,  ,  ,  ,  ,  ,  ,  ,  ,  ,  ,  ,  ,  ,  ,  ,  ,  ,  ,  ,  ,  ,  ,  ,  ,  ,  ,  ,  ,  ,  ,  ,  ,  ,  ,  ,  ,  ,  ,  ,  ,  ,  ,  ,  ,  ,  ,  ,  ,  ,  ,  ,  ,  ,  ,  ,  ,  ,  ,  ,  ,  ,  ,  ,  ,  ,  ,  ,  ,  ,  ,  ,  ,  ,  ,  ,  ,  ,  ,  ,  ,  ,  ,  ,  ,  ,  ,  ,  ,  ,  ,  ,  ,  ,  ,  ,  ,  ,  ,  ,  ,  ,  ,  ,  ,  ,  ,  ,  ,  ,  ,  ,  ,  ,  ,  ,  ,  , 0=0+0:0:0:0:0
Eb aeolian (3b),  ,  ,  ,  ,  ,  ,  ,  ,  ,  ,  ,  ,  ,  ,  ,  ,  ,  ,  ,  ,  ,  ,  ,  ,  ,  ,  ,  ,  ,  ,  ,  ,  ,  ,  ,  ,  ,  ,  ,  ,  ,  ,  ,  ,  ,  ,  ,  ,  ,  ,  ,  ,  ,  ,  ,  ,  ,  ,  ,  ,  ,  ,  ,  ,  ,  ,  ,  ,  ,  ,  ,  ,  ,  ,  ,  ,  ,  ,  ,  ,  ,  ,  ,  ,  ,  ,  ,  ,  ,  ,  ,  ,  ,  ,  ,  ,  ,  ,  ,  ,  ,  ,  ,  ,  ,  ,  ,  ,  ,  ,  ,  ,  ,  ,  ,  ,  ,  ,  ,  ,  ,  ,  ,  ,  ,  ,  ,  ,  , 0=0+0:0:0:0:0
A aeolian (3#),  ,  ,  ,  ,  ,  ,  ,  ,  ,  ,  ,  ,  ,  ,  ,  ,  ,  ,  ,  ,  ,  ,  ,  ,  ,  ,  ,  ,  ,  ,  ,  ,  ,  ,  ,  ,  ,  ,  ,  ,  ,  ,  ,  ,  ,  ,  ,  ,  ,  ,  ,  ,  ,  ,  ,  ,  ,  ,  ,  ,  ,  ,  ,  ,  ,  ,  ,  ,  ,  ,  ,  ,  ,  ,  ,  ,  ,  ,  ,  ,  ,  ,  ,  ,  ,  ,  ,  ,  ,  ,  ,  ,  ,  ,  ,  ,  ,  ,  ,  ,  ,  ,  ,  ,  ,  ,  ,  ,  ,  ,  ,  ,  ,  ,  ,  ,  ,  ,  ,  ,  ,  ,  ,  ,  ,  ,  ,  ,  , 0=0+0:0:0:0:0
Eb locrian (3b),  ,  ,  ,  ,  ,  ,  ,  ,  ,  ,  ,  ,  ,  ,  ,  ,  ,  ,  ,  ,  ,  ,  ,  ,  ,  ,  ,  ,  ,  ,  ,  ,  ,  ,  ,  ,  ,  ,  ,  ,  ,  ,  ,  ,  ,  ,  ,  ,  ,  ,  ,  ,  ,  ,  ,  ,  ,  ,  ,  ,  ,  ,  ,  ,  ,  ,  ,  ,  ,  ,  ,  ,  ,  ,  ,  ,  ,  ,  ,  ,  ,  ,  ,  ,  ,  ,  ,  ,  ,  ,  ,  ,  ,  ,  ,  ,  ,  ,  ,  ,  ,  ,  ,  ,  ,  ,  ,  ,  ,  ,  ,  ,  ,  ,  ,  ,  ,  ,  ,  ,  ,  ,  ,  ,  ,  ,  ,  ,  , 0=0+0:0:0:0:0
A locrian (3#),  ,  ,  ,  ,  ,  ,  ,  ,  ,  ,  ,  ,  ,  ,  ,  ,  ,  ,  ,  ,  ,  ,  ,  ,  ,  ,  ,  ,  ,  ,  ,  ,  ,  ,  ,  ,  ,  ,  ,  ,  ,  ,  ,  ,  ,  ,  ,  ,  ,  ,  ,  ,  ,  ,  ,  ,  ,  ,  ,  ,  ,  ,  ,  ,  ,  ,  ,  ,  ,  ,  ,  ,  ,  ,  ,  ,  ,  ,  ,  ,  ,  ,  ,  ,  ,  ,  ,  ,  ,  ,  ,  ,  ,  ,  ,  ,  ,  ,  ,  ,  ,  ,  ,  ,  ,  ,  ,  ,  ,  ,  ,  ,  ,  ,  ,  ,  ,  ,  ,  ,  ,  ,  ,  ,  ,  ,  ,  ,  , 0=0+0:0:0:0:0
Ab major (4b), 0=0+0:0:0:0:0, 0=0+0:0:0:0:0, 1=1+0:0:0:0:0, 0=0+0:0:0:0:0, 3=1+2:0:0:0:1, 1=1+0:0:0:0:0, 0=0+0:0:0:0:0, 0=0+0:0:0:0:0, 0=0+0:0:0:0:0, 4=3+1:0:0:0:1, 0=0+0:0:0:0:0, 6=2+4:0:4:0:0, 0=0+0:0:0:0:0, 0=0+0:0:0:0:0, 5=3+2:0:0:0:2, 5=2+3:2:0:0:3, 2=1+1:0:0:0:1, 11=6+5:0:0:0:2, 1=1+0:0:0:0:0, 3=2+1:0:0:0:1, 4=3+1:0:0:0:1, 3=2+1:0:0:0:0, 8=7+1:0:0:0:0, 11=8+3:0:0:0:0, 6=4+2:0:0:0:1, 7=4+3:0:3:0:0, 1=1+0:0:0:0:0, 4=2+2:0:1:0:1, 7=4+3:0:0:0:1, 2=2+0:0:0:0:0, 2=1+1:0:0:0:1, 0=0+0:0:0:0:0, 2=1+1:0:0:0:0,  ,  ,  ,  ,  ,  ,  ,  ,  ,  ,  ,  ,  ,  ,  ,  ,  ,  ,  ,  ,  ,  ,  ,  ,  ,  ,  ,  ,  ,  ,  ,  ,  ,  ,  ,  ,  ,  ,  ,  ,  ,  ,  ,  ,  ,  ,  ,  ,  ,  ,  ,  ,  ,  ,  ,  ,  ,  ,  ,  ,  ,  ,  ,  , 1=1+0:0:0:0:0, 1=1+0:0:0:0:0, 1=1+0:0:0:0:0, 7=4+3:0:1:0:2, 0=0+0:0:0:0:0, 0=0+0:0:0:0:0,  , 0=0+0:0:0:0:0, 0=0+0:0:0:0:0, 3=2+1:0:0:0:1, 0=0+0:0:0:0:0, 3=2+1:0:0:0:0, 5=3+2:0:0:0:0, 4=3+1:0:0:0:1, 10=5+5:0:0:0:4, 2=1+1:0:0:0:1, 7=5+2:1:0:0:1, 5=4+1:0:0:0:0, 7=5+2:0:0:0:0, 2=2+0:0:0:0:0, 8=6+2:0:0:0:0, 9=8+1:0:0:0:0, 9=6+3:0:0:0:0, 3=2+1:0:1:0:0, 4=3+1:0:0:0:0, 3=2+1:0:0:0:1, 0=0+0:0:0:0:0, 4=3+1:0:0:0:1, 0=0+0:0:0:0:0, 2=1+1:0:0:0:1, 5=2+3:2:0:0:3, 4=2+2:0:2:0:0, 208=136+72:5:12:0:32
E major (4#), 3=3+0:0:0:0:0, 3=3+0:0:0:0:0, 5=5+0:0:0:0:0, 4=4+0:0:0:0:0, 4=3+1:0:0:0:1, 7=7+0:0:0:0:0, 3=3+0:0:0:0:0, 3=3+0:0:0:0:0, 2=2+0:0:0:0:0, 6=2+4:0:0:0:4, 2=2+0:0:0:0:0, 7=2+5:1:0:0:5, 5=5+0:0:0:0:0, 4=4+0:0:0:0:0, 9=7+2:0:0:0:2, 10=8+2:0:0:0:1, 7=6+1:0:0:0:1, 12=7+5:0:0:0:4, 5=1+4:2:0:0:4, 8=6+2:0:0:0:1, 4=3+1:0:0:0:1, 1=1+0:0:0:0:0, 1=1+0:0:0:0:0, 4=2+2:0:0:0:0, 10=8+2:0:0:0:1, 11=7+4:1:0:0:4, 5=5+0:0:0:0:0, 7=4+3:1:0:0:3, 9=6+3:0:0:0:2, 6=6+0:0:0:0:0, 3=2+1:0:0:0:1, 2=2+0:0:0:0:0, 4=2+2:0:0:0:0,  ,  ,  ,  ,  ,  ,  ,  ,  ,  ,  ,  ,  ,  ,  ,  ,  ,  ,  ,  ,  ,  ,  ,  ,  ,  ,  ,  ,  ,  ,  ,  ,  ,  ,  ,  ,  ,  ,  ,  ,  ,  ,  ,  ,  ,  ,  ,  ,  ,  ,  ,  ,  ,  ,  ,  ,  ,  ,  ,  ,  ,  ,  ,  , 6=6+0:0:0:0:0, 6=6+0:0:0:0:0, 6=6+0:0:0:0:0, 7=4+3:0:0:0:2, 6=6+0:0:0:0:0, 2=2+0:0:0:0:0,  , 2=2+0:0:0:0:0, 3=3+0:0:0:0:0, 7=6+1:0:0:0:1, 1=1+0:0:0:0:0, 4=2+2:0:0:0:2, 8=5+3:0:0:0:1, 7=6+1:0:0:0:0, 8=3+5:0:0:0:4, 3=2+1:0:0:0:1, 3=2+1:0:0:0:0, 2=1+1:0:0:0:0, 0=0+0:0:0:0:0, 0=0+0:0:0:0:0, 1=1+0:0:0:0:0, 2=1+1:0:0:0:0, 5=2+3:0:0:0:0, 9=8+1:0:0:0:1, 11=10+1:0:0:0:0, 6=5+1:0:0:0:1, 2=2+0:0:0:0:0, 7=5+2:1:0:0:2, 2=2+0:0:0:0:0, 6=5+1:0:0:0:1, 10=8+2:0:0:0:1, 8=6+2:0:0:0:2, 326=250+76:6:0:0:54
F minor (4b), 0=0+0:0:0:0:0, 0=0+0:0:0:0:0, 1=1+0:0:0:0:0, 0=0+0:0:0:0:0, 3=1+2:0:0:0:1, 1=1+0:0:0:0:0, 0=0+0:0:0:0:0, 0=0+0:0:0:0:0, 0=0+0:0:0:0:0, 4=3+1:0:0:0:1, 0=0+0:0:0:0:0, 6=2+4:0:4:0:0, 0=0+0:0:0:0:0, 0=0+0:0:0:0:0, 5=3+2:0:0:0:2, 5=2+3:2:0:0:3, 2=1+1:0:0:0:1, 11=6+5:0:0:0:2, 1=1+0:0:0:0:0, 4=2+2:0:0:0:0, 4=3+1:0:0:0:1, 3=2+1:0:0:0:0, 8=7+1:0:0:0:0, 11=8+3:0:0:0:0, 7=4+3:0:0:0:1, 6=3+3:2:0:0:2, 2=1+1:0:0:0:0, 4=2+2:0:1:0:1, 7=4+3:0:0:0:1, 2=2+0:0:0:0:0, 1=1+0:0:0:0:0, 0=0+0:0:0:0:0, 3=1+2:0:0:0:0,  ,  ,  ,  ,  ,  ,  ,  ,  ,  ,  ,  ,  ,  ,  ,  ,  ,  ,  ,  ,  ,  ,  ,  ,  ,  ,  ,  ,  ,  ,  ,  ,  ,  ,  ,  ,  ,  ,  ,  ,  ,  ,  ,  ,  ,  ,  ,  ,  ,  ,  ,  ,  ,  ,  ,  ,  ,  ,  ,  ,  ,  ,  ,  , 2=1+1:0:0:0:0, 1=1+0:0:0:0:0, 1=1+0:0:0:0:0, 7=4+3:0:1:0:1, 0=0+0:0:0:0:0, 0=0+0:0:0:0:0,  , 0=0+0:0:0:0:0, 0=0+0:0:0:0:0, 3=2+1:0:0:0:0, 0=0+0:0:0:0:0, 3=2+1:0:0:0:0, 5=3+2:0:0:0:0, 4=3+1:0:0:0:1, 10=5+5:0:0:0:4, 2=1+1:0:0:0:1, 7=5+2:1:0:0:1, 5=4+1:0:0:0:0, 7=5+2:0:0:0:0, 2=2+0:0:0:0:0, 8=6+2:0:0:0:0, 10=8+2:0:0:0:0, 9=6+3:0:0:0:0, 3=2+1:0:1:0:0, 4=3+1:0:0:0:0, 3=2+1:0:0:0:0, 0=0+0:0:0:0:0, 5=3+2:0:0:0:0, 0=0+0:0:0:0:0, 2=1+1:0:0:0:1, 5=2+3:2:0:0:3, 4=2+2:0:2:0:0, 213=135+78:7:9:0:28
C# minor (4#), 3=3+0:0:0:0:0, 3=3+0:0:0:0:0, 5=5+0:0:0:0:0, 4=4+0:0:0:0:0, 4=3+1:0:0:0:1, 7=7+0:0:0:0:0, 3=3+0:0:0:0:0, 3=3+0:0:0:0:0, 2=2+0:0:0:0:0, 4=3+1:0:0:0:1, 4=2+2:0:0:0:0, 7=2+5:1:0:0:5, 5=5+0:0:0:0:0, 4=4+0:0:0:0:0, 9=7+2:0:0:0:2, 10=8+2:0:0:0:1, 7=6+1:0:0:0:1, 12=7+5:0:0:0:4, 5=1+4:2:0:0:4, 8=6+2:0:0:0:1, 4=3+1:0:0:0:1, 1=1+0:0:0:0:0, 1=1+0:0:0:0:0, 4=2+2:0:0:0:0, 10=8+2:0:0:0:1, 11=7+4:1:0:0:4, 5=5+0:0:0:0:0, 7=4+3:1:0:0:3, 9=6+3:0:0:0:2, 6=6+0:0:0:0:0, 3=2+1:0:0:0:1, 2=2+0:0:0:0:0, 4=2+2:0:0:0:1,  ,  ,  ,  ,  ,  ,  ,  ,  ,  ,  ,  ,  ,  ,  ,  ,  ,  ,  ,  ,  ,  ,  ,  ,  ,  ,  ,  ,  ,  ,  ,  ,  ,  ,  ,  ,  ,  ,  ,  ,  ,  ,  ,  ,  ,  ,  ,  ,  ,  ,  ,  ,  ,  ,  ,  ,  ,  ,  ,  ,  ,  ,  ,  , 6=6+0:0:0:0:0, 6=6+0:0:0:0:0, 6=6+0:0:0:0:0, 7=4+3:0:0:0:2, 6=6+0:0:0:0:0, 2=2+0:0:0:0:0,  , 2=2+0:0:0:0:0, 3=3+0:0:0:0:0, 7=6+1:0:0:0:1, 1=1+0:0:0:0:0, 4=2+2:0:0:0:2, 8=5+3:0:0:0:1, 7=6+1:0:0:0:0, 8=3+5:0:0:0:4, 3=2+1:0:0:0:1, 3=2+1:0:0:0:0, 2=1+1:0:0:0:0, 0=0+0:0:0:0:0, 0=0+0:0:0:0:0, 1=1+0:0:0:0:0, 2=1+1:0:0:0:0, 5=2+3:0:0:0:0, 9=8+1:0:0:0:1, 11=10+1:0:0:0:0, 6=5+1:0:0:0:1, 2=2+0:0:0:0:0, 7=5+2:1:0:0:2, 2=2+0:0:0:0:0, 6=5+1:0:0:0:1, 10=8+2:0:0:0:1, 8=6+2:0:0:0:2, 326=251+75:6:0:0:52
F minor mel (4b),  ,  ,  ,  ,  ,  ,  ,  ,  ,  ,  ,  ,  ,  ,  ,  ,  ,  ,  ,  ,  ,  ,  ,  ,  ,  ,  ,  ,  ,  ,  ,  ,  ,  ,  ,  ,  ,  ,  ,  ,  ,  ,  ,  ,  ,  ,  ,  ,  ,  ,  ,  ,  ,  ,  ,  ,  ,  ,  ,  ,  ,  ,  ,  ,  ,  ,  ,  ,  ,  ,  ,  ,  ,  ,  ,  ,  ,  ,  ,  ,  ,  ,  ,  ,  ,  ,  ,  ,  ,  ,  ,  ,  ,  ,  ,  ,  ,  ,  ,  ,  ,  ,  ,  ,  ,  ,  ,  ,  ,  ,  ,  ,  ,  ,  ,  ,  ,  ,  ,  ,  ,  ,  ,  ,  ,  ,  ,  ,  , 0=0+0:0:0:0:0
C# minor mel (4#),  ,  ,  ,  ,  ,  ,  ,  ,  ,  ,  ,  ,  ,  ,  ,  ,  ,  ,  ,  ,  ,  ,  ,  ,  ,  ,  ,  ,  ,  ,  ,  ,  ,  ,  ,  ,  ,  ,  ,  ,  ,  ,  ,  ,  ,  ,  ,  ,  ,  ,  ,  ,  ,  ,  ,  ,  ,  ,  ,  ,  ,  ,  ,  ,  ,  ,  ,  ,  ,  ,  ,  ,  ,  ,  ,  ,  ,  ,  ,  ,  ,  ,  ,  ,  ,  ,  ,  ,  ,  ,  ,  ,  ,  ,  ,  ,  ,  ,  ,  ,  ,  ,  ,  ,  ,  ,  ,  ,  ,  ,  ,  ,  ,  ,  ,  ,  ,  ,  ,  ,  ,  ,  ,  ,  ,  ,  ,  ,  , 0=0+0:0:0:0:0
Ab major blues (4b),  ,  ,  ,  ,  ,  ,  ,  ,  ,  ,  ,  ,  ,  ,  ,  ,  ,  ,  ,  ,  ,  ,  ,  ,  ,  ,  ,  ,  ,  ,  ,  ,  ,  ,  ,  ,  ,  ,  ,  ,  ,  ,  ,  ,  ,  ,  ,  ,  ,  ,  ,  ,  ,  ,  ,  ,  ,  ,  ,  ,  ,  ,  ,  ,  ,  ,  ,  ,  ,  ,  ,  ,  ,  ,  ,  ,  ,  ,  ,  ,  ,  ,  ,  ,  ,  ,  ,  ,  ,  ,  ,  ,  ,  ,  ,  ,  ,  ,  ,  ,  ,  ,  ,  ,  ,  ,  ,  ,  ,  ,  ,  ,  ,  ,  ,  ,  ,  ,  ,  ,  ,  ,  ,  ,  ,  ,  ,  ,  , 0=0+0:0:0:0:0
E major blues (4#),  ,  ,  ,  ,  ,  ,  ,  ,  ,  ,  ,  ,  ,  ,  ,  ,  ,  ,  ,  ,  ,  ,  ,  ,  ,  ,  ,  ,  ,  ,  ,  ,  ,  ,  ,  ,  ,  ,  ,  ,  ,  ,  ,  ,  ,  ,  ,  ,  ,  ,  ,  ,  ,  ,  ,  ,  ,  ,  ,  ,  ,  ,  ,  ,  ,  ,  ,  ,  ,  ,  ,  ,  ,  ,  ,  ,  ,  ,  ,  ,  ,  ,  ,  ,  ,  ,  ,  ,  ,  ,  ,  ,  ,  ,  ,  ,  ,  ,  ,  ,  ,  ,  ,  ,  ,  ,  ,  ,  ,  ,  ,  ,  ,  ,  ,  ,  ,  ,  ,  ,  ,  ,  ,  ,  ,  ,  ,  ,  , 0=0+0:0:0:0:0
F minor blues (4b),  ,  ,  ,  ,  ,  ,  ,  ,  ,  ,  ,  ,  ,  ,  ,  ,  ,  ,  ,  ,  ,  ,  ,  ,  ,  ,  ,  ,  ,  ,  ,  ,  ,  ,  ,  ,  ,  ,  ,  ,  ,  ,  ,  ,  ,  ,  ,  ,  ,  ,  ,  ,  ,  ,  ,  ,  ,  ,  ,  ,  ,  ,  ,  ,  ,  ,  ,  ,  ,  ,  ,  ,  ,  ,  ,  ,  ,  ,  ,  ,  ,  ,  ,  ,  ,  ,  ,  ,  ,  ,  ,  ,  ,  ,  ,  ,  ,  ,  ,  ,  ,  ,  ,  ,  ,  ,  ,  ,  ,  ,  ,  ,  ,  ,  ,  ,  ,  ,  ,  ,  ,  ,  ,  ,  ,  ,  ,  ,  , 0=0+0:0:0:0:0
C# minor blues (4#),  ,  ,  ,  ,  ,  ,  ,  ,  ,  ,  ,  ,  ,  ,  ,  ,  ,  ,  ,  ,  ,  ,  ,  ,  ,  ,  ,  ,  ,  ,  ,  ,  ,  ,  ,  ,  ,  ,  ,  ,  ,  ,  ,  ,  ,  ,  ,  ,  ,  ,  ,  ,  ,  ,  ,  ,  ,  ,  ,  ,  ,  ,  ,  ,  ,  ,  ,  ,  ,  ,  ,  ,  ,  ,  ,  ,  ,  ,  ,  ,  ,  ,  ,  ,  ,  ,  ,  ,  ,  ,  ,  ,  ,  ,  ,  ,  ,  ,  ,  ,  ,  ,  ,  ,  ,  ,  ,  ,  ,  ,  ,  ,  ,  ,  ,  ,  ,  ,  ,  ,  ,  ,  ,  ,  ,  ,  ,  ,  , 0=0+0:0:0:0:0
Ab dorian (4b),  ,  ,  ,  ,  ,  ,  ,  ,  ,  ,  ,  ,  ,  ,  ,  ,  ,  ,  ,  ,  ,  ,  ,  ,  ,  ,  ,  ,  ,  ,  ,  ,  ,  ,  ,  ,  ,  ,  ,  ,  ,  ,  ,  ,  ,  ,  ,  ,  ,  ,  ,  ,  ,  ,  ,  ,  ,  ,  ,  ,  ,  ,  ,  ,  ,  ,  ,  ,  ,  ,  ,  ,  ,  ,  ,  ,  ,  ,  ,  ,  ,  ,  ,  ,  ,  ,  ,  ,  ,  ,  ,  ,  ,  ,  ,  ,  ,  ,  ,  ,  ,  ,  ,  ,  ,  ,  ,  ,  ,  ,  ,  ,  ,  ,  ,  ,  ,  ,  ,  ,  ,  ,  ,  ,  ,  ,  ,  ,  , 0=0+0:0:0:0:0
E dorian (4#),  ,  ,  ,  ,  ,  ,  ,  ,  ,  ,  ,  ,  ,  ,  ,  ,  ,  ,  ,  ,  ,  ,  ,  ,  ,  ,  ,  ,  ,  ,  ,  ,  ,  ,  ,  ,  ,  ,  ,  ,  ,  ,  ,  ,  ,  ,  ,  ,  ,  ,  ,  ,  ,  ,  ,  ,  ,  ,  ,  ,  ,  ,  ,  ,  ,  ,  ,  ,  ,  ,  ,  ,  ,  ,  ,  ,  ,  ,  ,  ,  ,  ,  ,  ,  ,  ,  ,  ,  ,  ,  ,  ,  ,  ,  ,  ,  ,  ,  ,  ,  ,  ,  ,  ,  ,  ,  ,  ,  ,  ,  ,  ,  ,  ,  ,  ,  ,  ,  ,  ,  ,  ,  ,  ,  ,  ,  ,  ,  , 0=0+0:0:0:0:0
Ab phrygian (4b),  ,  ,  ,  ,  ,  ,  ,  ,  ,  ,  ,  ,  ,  ,  ,  ,  ,  ,  ,  ,  ,  ,  ,  ,  ,  ,  ,  ,  ,  ,  ,  ,  ,  ,  ,  ,  ,  ,  ,  ,  ,  ,  ,  ,  ,  ,  ,  ,  ,  ,  ,  ,  ,  ,  ,  ,  ,  ,  ,  ,  ,  ,  ,  ,  ,  ,  ,  ,  ,  ,  ,  ,  ,  ,  ,  ,  ,  ,  ,  ,  ,  ,  ,  ,  ,  ,  ,  ,  ,  ,  ,  ,  ,  ,  ,  ,  ,  ,  ,  ,  ,  ,  ,  ,  ,  ,  ,  ,  ,  ,  ,  ,  ,  ,  ,  ,  ,  ,  ,  ,  ,  ,  ,  ,  ,  ,  ,  ,  , 0=0+0:0:0:0:0
E phrygian (4#),  ,  ,  ,  ,  ,  ,  ,  ,  ,  ,  ,  ,  ,  ,  ,  ,  ,  ,  ,  ,  ,  ,  ,  ,  ,  ,  ,  ,  ,  ,  ,  ,  ,  ,  ,  ,  ,  ,  ,  ,  ,  ,  ,  ,  ,  ,  ,  ,  ,  ,  ,  ,  ,  ,  ,  ,  ,  ,  ,  ,  ,  ,  ,  ,  ,  ,  ,  ,  ,  ,  ,  ,  ,  ,  ,  ,  ,  ,  ,  ,  ,  ,  ,  ,  ,  ,  ,  ,  ,  ,  ,  ,  ,  ,  ,  ,  ,  ,  ,  ,  ,  ,  ,  ,  ,  ,  ,  ,  ,  ,  ,  ,  ,  ,  ,  ,  ,  ,  ,  ,  ,  ,  ,  ,  ,  ,  ,  ,  , 0=0+0:0:0:0:0
Ab lydian (4b),  ,  ,  ,  ,  ,  ,  ,  ,  ,  ,  ,  ,  ,  ,  ,  ,  ,  ,  ,  ,  ,  ,  ,  ,  ,  ,  ,  ,  ,  ,  ,  ,  ,  ,  ,  ,  ,  ,  ,  ,  ,  ,  ,  ,  ,  ,  ,  ,  ,  ,  ,  ,  ,  ,  ,  ,  ,  ,  ,  ,  ,  ,  ,  ,  ,  ,  ,  ,  ,  ,  ,  ,  ,  ,  ,  ,  ,  ,  ,  ,  ,  ,  ,  ,  ,  ,  ,  ,  ,  ,  ,  ,  ,  ,  ,  ,  ,  ,  ,  ,  ,  ,  ,  ,  ,  ,  ,  ,  ,  ,  ,  ,  ,  ,  ,  ,  ,  ,  ,  ,  ,  ,  ,  ,  ,  ,  ,  ,  , 0=0+0:0:0:0:0
E lydian (4#),  ,  ,  ,  ,  ,  ,  ,  ,  ,  ,  ,  ,  ,  ,  ,  ,  ,  ,  ,  ,  ,  ,  ,  ,  ,  ,  ,  ,  ,  ,  ,  ,  ,  ,  ,  ,  ,  ,  ,  ,  ,  ,  ,  ,  ,  ,  ,  ,  ,  ,  ,  ,  ,  ,  ,  ,  ,  ,  ,  ,  ,  ,  ,  ,  ,  ,  ,  ,  ,  ,  ,  ,  ,  ,  ,  ,  ,  ,  ,  ,  ,  ,  ,  ,  ,  ,  ,  ,  ,  ,  ,  ,  ,  ,  ,  ,  ,  ,  ,  ,  ,  ,  ,  ,  ,  ,  ,  ,  ,  ,  ,  ,  ,  ,  ,  ,  ,  ,  ,  ,  ,  ,  ,  ,  ,  ,  ,  ,  , 0=0+0:0:0:0:0
Ab mixolydian (4b),  ,  ,  ,  ,  ,  ,  ,  ,  ,  ,  ,  ,  ,  ,  ,  ,  ,  ,  ,  ,  ,  ,  ,  ,  ,  ,  ,  ,  ,  ,  ,  ,  ,  ,  ,  ,  ,  ,  ,  ,  ,  ,  ,  ,  ,  ,  ,  ,  ,  ,  ,  ,  ,  ,  ,  ,  ,  ,  ,  ,  ,  ,  ,  ,  ,  ,  ,  ,  ,  ,  ,  ,  ,  ,  ,  ,  ,  ,  ,  ,  ,  ,  ,  ,  ,  ,  ,  ,  ,  ,  ,  ,  ,  ,  ,  ,  ,  ,  ,  ,  ,  ,  ,  ,  ,  ,  ,  ,  ,  ,  ,  ,  ,  ,  ,  ,  ,  ,  ,  ,  ,  ,  ,  ,  ,  ,  ,  ,  , 0=0+0:0:0:0:0
E mixolydian (4#),  ,  ,  ,  ,  ,  ,  ,  ,  ,  ,  ,  ,  ,  ,  ,  ,  ,  ,  ,  ,  ,  ,  ,  ,  ,  ,  ,  ,  ,  ,  ,  ,  ,  ,  ,  ,  ,  ,  ,  ,  ,  ,  ,  ,  ,  ,  ,  ,  ,  ,  ,  ,  ,  ,  ,  ,  ,  ,  ,  ,  ,  ,  ,  ,  ,  ,  ,  ,  ,  ,  ,  ,  ,  ,  ,  ,  ,  ,  ,  ,  ,  ,  ,  ,  ,  ,  ,  ,  ,  ,  ,  ,  ,  ,  ,  ,  ,  ,  ,  ,  ,  ,  ,  ,  ,  ,  ,  ,  ,  ,  ,  ,  ,  ,  ,  ,  ,  ,  ,  ,  ,  ,  ,  ,  ,  ,  ,  ,  , 0=0+0:0:0:0:0
Ab aeolian (4b),  ,  ,  ,  ,  ,  ,  ,  ,  ,  ,  ,  ,  ,  ,  ,  ,  ,  ,  ,  ,  ,  ,  ,  ,  ,  ,  ,  ,  ,  ,  ,  ,  ,  ,  ,  ,  ,  ,  ,  ,  ,  ,  ,  ,  ,  ,  ,  ,  ,  ,  ,  ,  ,  ,  ,  ,  ,  ,  ,  ,  ,  ,  ,  ,  ,  ,  ,  ,  ,  ,  ,  ,  ,  ,  ,  ,  ,  ,  ,  ,  ,  ,  ,  ,  ,  ,  ,  ,  ,  ,  ,  ,  ,  ,  ,  ,  ,  ,  ,  ,  ,  ,  ,  ,  ,  ,  ,  ,  ,  ,  ,  ,  ,  ,  ,  ,  ,  ,  ,  ,  ,  ,  ,  ,  ,  ,  ,  ,  , 0=0+0:0:0:0:0
E aeolian (4#),  ,  ,  ,  ,  ,  ,  ,  ,  ,  ,  ,  ,  ,  ,  ,  ,  ,  ,  ,  ,  ,  ,  ,  ,  ,  ,  ,  ,  ,  ,  ,  ,  ,  ,  ,  ,  ,  ,  ,  ,  ,  ,  ,  ,  ,  ,  ,  ,  ,  ,  ,  ,  ,  ,  ,  ,  ,  ,  ,  ,  ,  ,  ,  ,  ,  ,  ,  ,  ,  ,  ,  ,  ,  ,  ,  ,  ,  ,  ,  ,  ,  ,  ,  ,  ,  ,  ,  ,  ,  ,  ,  ,  ,  ,  ,  ,  ,  ,  ,  ,  ,  ,  ,  ,  ,  ,  ,  ,  ,  ,  ,  ,  ,  ,  ,  ,  ,  ,  ,  ,  ,  ,  ,  ,  ,  ,  ,  ,  , 0=0+0:0:0:0:0
Ab locrian (4b),  ,  ,  ,  ,  ,  ,  ,  ,  ,  ,  ,  ,  ,  ,  ,  ,  ,  ,  ,  ,  ,  ,  ,  ,  ,  ,  ,  ,  ,  ,  ,  ,  ,  ,  ,  ,  ,  ,  ,  ,  ,  ,  ,  ,  ,  ,  ,  ,  ,  ,  ,  ,  ,  ,  ,  ,  ,  ,  ,  ,  ,  ,  ,  ,  ,  ,  ,  ,  ,  ,  ,  ,  ,  ,  ,  ,  ,  ,  ,  ,  ,  ,  ,  ,  ,  ,  ,  ,  ,  ,  ,  ,  ,  ,  ,  ,  ,  ,  ,  ,  ,  ,  ,  ,  ,  ,  ,  ,  ,  ,  ,  ,  ,  ,  ,  ,  ,  ,  ,  ,  ,  ,  ,  ,  ,  ,  ,  ,  , 0=0+0:0:0:0:0
E locrian (4#),  ,  ,  ,  ,  ,  ,  ,  ,  ,  ,  ,  ,  ,  ,  ,  ,  ,  ,  ,  ,  ,  ,  ,  ,  ,  ,  ,  ,  ,  ,  ,  ,  ,  ,  ,  ,  ,  ,  ,  ,  ,  ,  ,  ,  ,  ,  ,  ,  ,  ,  ,  ,  ,  ,  ,  ,  ,  ,  ,  ,  ,  ,  ,  ,  ,  ,  ,  ,  ,  ,  ,  ,  ,  ,  ,  ,  ,  ,  ,  ,  ,  ,  ,  ,  ,  ,  ,  ,  ,  ,  ,  ,  ,  ,  ,  ,  ,  ,  ,  ,  ,  ,  ,  ,  ,  ,  ,  ,  ,  ,  ,  ,  ,  ,  ,  ,  ,  ,  ,  ,  ,  ,  ,  ,  ,  ,  ,  ,  , 0=0+0:0:0:0:0
Db major (5b), 0=0+0:0:0:0:0, 0=0+0:0:0:0:0, 0=0+0:0:0:0:0, 0=0+0:0:0:0:0, 4=2+2:0:0:0:1, 0=0+0:0:0:0:0, 0=0+0:0:0:0:0, 0=0+0:0:0:0:0, 0=0+0:0:0:0:0, 4=3+1:0:0:0:1, 1=1+0:0:0:0:0, 5=1+4:0:4:0:0, 0=0+0:0:0:0:0, 0=0+0:0:0:0:0, 4=2+2:0:0:0:2, 6=3+3:0:0:0:1, 2=1+1:0:0:0:1, 9=5+4:0:0:0:3, 1=1+0:0:0:0:0, 2=1+1:0:0:0:0, 4=3+1:0:0:0:1, 2=2+0:0:0:0:0, 9=7+2:0:0:0:0, 10=8+2:1:0:0:1, 5=3+2:0:0:0:1, 6=3+3:0:3:0:0, 0=0+0:0:0:0:0, 4=2+2:0:1:0:1, 6=3+3:0:0:0:3, 0=0+0:0:0:0:0, 2=1+1:0:0:0:1, 0=0+0:0:0:0:0, 0=0+0:0:0:0:0,  ,  ,  ,  ,  ,  ,  ,  ,  ,  ,  ,  ,  ,  ,  ,  ,  ,  ,  ,  ,  ,  ,  ,  ,  ,  ,  ,  ,  ,  ,  ,  ,  ,  ,  ,  ,  ,  ,  ,  ,  ,  ,  ,  ,  ,  ,  ,  ,  ,  ,  ,  ,  ,  ,  ,  ,  ,  ,  ,  ,  ,  ,  ,  , 0=0+0:0:0:0:0, 0=0+0:0:0:0:0, 0=0+0:0:0:0:0, 6=3+3:0:1:0:2, 0=0+0:0:0:0:0, 0=0+0:0:0:0:0,  , 0=0+0:0:0:0:0, 0=0+0:0:0:0:0, 3=2+1:0:0:0:1, 0=0+0:0:0:0:0, 4=3+1:0:0:0:0, 4=2+2:0:0:0:0, 3=2+1:0:0:0:1, 7=4+3:0:0:0:3, 2=1+1:0:0:0:1, 7=6+1:1:0:0:1, 5=4+1:0:0:0:0, 5=5+0:0:0:0:0, 2=2+0:0:0:0:0, 8=6+2:0:0:0:0, 9=8+1:0:0:0:0, 10=7+3:0:0:0:0, 2=1+1:0:1:0:0, 3=2+1:0:0:0:0, 3=2+1:0:0:0:1, 0=0+0:0:0:0:0, 3=2+1:0:0:0:1, 0=0+0:0:0:0:0, 2=1+1:0:0:0:1, 6=3+3:0:0:0:1, 3=1+2:0:2:0:0, 183=119+64:2:12:0:30
B major (5#), 3=3+0:0:0:0:0, 3=3+0:0:0:0:0, 5=5+0:0:0:0:0, 4=4+0:0:0:0:0, 4=2+2:1:0:0:2, 7=6+1:1:0:0:1, 3=3+0:0:0:0:0, 3=3+0:0:0:0:0, 2=2+0:0:0:0:0, 7=3+4:0:0:0:4, 2=2+0:0:0:0:0, 7=2+5:1:0:0:5, 5=5+0:0:0:0:0, 4=4+0:0:0:0:0, 9=5+4:2:0:0:4, 9=6+3:2:0:0:3, 8=7+1:0:0:0:1, 13=8+5:1:0:0:3, 4=4+0:0:0:0:0, 7=5+2:1:0:0:1, 5=4+1:0:0:0:1, 1=1+0:0:0:0:0, 1=1+0:0:0:0:0, 3=2+1:0:0:0:1, 11=8+3:1:0:0:2, 12=7+5:1:0:0:4, 6=5+1:0:0:0:0, 8=6+2:0:0:0:2, 9=5+4:1:0:0:3, 6=6+0:0:0:0:0, 3=2+1:0:0:0:1, 2=2+0:0:0:0:0, 2=1+1:0:0:0:1,  ,  ,  ,  ,  ,  ,  ,  ,  ,  ,  ,  ,  ,  ,  ,  ,  ,  ,  ,  ,  ,  ,  ,  ,  ,  ,  ,  ,  ,  ,  ,  ,  ,  ,  ,  ,  ,  ,  ,  ,  ,  ,  ,  ,  ,  ,  ,  ,  ,  ,  ,  ,  ,  ,  ,  ,  ,  ,  ,  ,  ,  ,  ,  , 7=6+1:0:0:0:0, 6=6+0:0:0:0:0, 7=6+1:0:0:0:0, 8=5+3:0:0:0:3, 6=6+0:0:0:0:0, 2=2+0:0:0:0:0,  , 2=2+0:0:0:0:0, 3=3+0:0:0:0:0, 8=7+1:0:0:0:1, 1=1+0:0:0:0:0, 4=2+2:0:0:0:2, 9=6+3:0:0:0:3, 7=6+1:0:0:0:1, 9=4+5:0:0:0:4, 3=2+1:0:0:0:1, 3=2+1:0:0:0:0, 2=1+1:0:0:0:0, 1=1+0:0:0:0:0, 0=0+0:0:0:0:0, 2=2+0:0:0:0:0, 3=2+1:0:0:0:0, 5=2+3:0:0:0:0, 9=7+2:1:0:0:2, 13=10+3:0:0:0:0, 7=6+1:0:0:0:1, 2=2+0:0:0:0:0, 8=7+1:0:0:0:1, 2=2+0:0:0:0:0, 7=6+1:0:0:0:1, 9=6+3:2:0:0:3, 8=6+2:0:0:0:2, 341=258+83:15:0:0:64
Bb minor (5b), 0=0+0:0:0:0:0, 0=0+0:0:0:0:0, 0=0+0:0:0:0:0, 0=0+0:0:0:0:0, 4=2+2:0:0:0:1, 0=0+0:0:0:0:0, 0=0+0:0:0:0:0, 0=0+0:0:0:0:0, 0=0+0:0:0:0:0, 4=3+1:0:0:0:1, 3=1+2:0:0:0:0, 5=1+4:0:4:0:0, 0=0+0:0:0:0:0, 0=0+0:0:0:0:0, 4=2+2:0:0:0:2, 6=3+3:0:0:0:1, 2=1+1:0:0:0:1, 8=4+4:0:0:0:4, 3=1+2:0:0:0:2, 2=1+1:0:0:0:0, 4=3+1:0:0:0:1, 2=2+0:0:0:0:0, 9=7+2:0:0:0:0, 12=9+3:0:0:0:0, 5=3+2:0:0:0:1, 6=3+3:0:3:0:0, 0=0+0:0:0:0:0, 4=2+2:0:1:0:1, 4=3+1:0:0:0:0, 0=0+0:0:0:0:0, 2=1+1:0:0:0:1, 0=0+0:0:0:0:0, 2=0+2:0:0:0:0,  ,  ,  ,  ,  ,  ,  ,  ,  ,  ,  ,  ,  ,  ,  ,  ,  ,  ,  ,  ,  ,  ,  ,  ,  ,  ,  ,  ,  ,  ,  ,  ,  ,  ,  ,  ,  ,  ,  ,  ,  ,  ,  ,  ,  ,  ,  ,  ,  ,  ,  ,  ,  ,  ,  ,  ,  ,  ,  ,  ,  ,  ,  ,  , 0=0+0:0:0:0:0, 0=0+0:0:0:0:0, 0=0+0:0:0:0:0, 6=3+3:0:1:0:1, 0=0+0:0:0:0:0, 0=0+0:0:0:0:0,  , 0=0+0:0:0:0:0, 0=0+0:0:0:0:0, 3=2+1:0:0:0:1, 0=0+0:0:0:0:0, 4=3+1:0:0:0:0, 4=2+2:0:0:0:0, 5=2+3:0:0:0:0, 7=4+3:0:0:0:3, 2=1+1:0:0:0:1, 8=7+1:0:0:0:0, 5=4+1:0:0:0:0, 6=5+1:0:0:0:0, 3=2+1:0:0:0:0, 8=6+2:0:0:0:0, 9=8+1:0:0:0:0, 10=7+3:0:0:0:0, 2=1+1:0:1:0:0, 3=2+1:0:0:0:0, 3=2+1:0:0:0:1, 0=0+0:0:0:0:0, 3=2+1:0:0:0:1, 0=0+0:0:0:0:0, 2=1+1:0:0:0:1, 6=3+3:0:0:0:1, 3=1+2:0:2:0:0, 193=120+73:0:12:0:26
G# minor (5#), 3=3+0:0:0:0:0, 3=3+0:0:0:0:0, 5=5+0:0:0:0:0, 4=4+0:0:0:0:0, 4=2+2:1:0:0:2, 7=6+1:1:0:0:1, 3=3+0:0:0:0:0, 3=3+0:0:0:0:0, 2=2+0:0:0:0:0, 5=4+1:0:0:0:1, 2=2+0:0:0:0:0, 7=2+5:1:0:0:5, 5=5+0:0:0:0:0, 4=4+0:0:0:0:0, 9=6+3:1:0:0:3, 9=6+3:2:0:0:3, 8=7+1:0:0:0:1, 13=8+5:1:0:0:3, 4=4+0:0:0:0:0, 7=5+2:1:0:0:1, 5=4+1:0:0:0:1, 2=1+1:0:0:0:0, 2=1+1:0:0:0:0, 5=2+3:0:0:0:0, 11=8+3:1:0:0:2, 11=7+4:1:0:0:4, 5=5+0:0:0:0:0, 8=6+2:0:0:0:2, 8=5+3:1:0:0:2, 6=6+0:0:0:0:0, 3=2+1:0:0:0:1, 2=2+0:0:0:0:0, 5=4+1:1:0:0:1,  ,  ,  ,  ,  ,  ,  ,  ,  ,  ,  ,  ,  ,  ,  ,  ,  ,  ,  ,  ,  ,  ,  ,  ,  ,  ,  ,  ,  ,  ,  ,  ,  ,  ,  ,  ,  ,  ,  ,  ,  ,  ,  ,  ,  ,  ,  ,  ,  ,  ,  ,  ,  ,  ,  ,  ,  ,  ,  ,  ,  ,  ,  ,  , 6=6+0:0:0:0:0, 6=6+0:0:0:0:0, 6=6+0:0:0:0:0, 8=5+3:0:0:0:3, 6=6+0:0:0:0:0, 2=2+0:0:0:0:0,  , 2=2+0:0:0:0:0, 3=3+0:0:0:0:0, 8=7+1:0:0:0:1, 1=1+0:0:0:0:0, 4=1+3:2:0:0:2, 9=6+3:0:0:0:3, 7=6+1:0:0:0:1, 9=4+5:0:0:0:4, 3=2+1:0:0:0:1, 3=2+1:0:0:0:0, 2=1+1:0:0:0:0, 1=1+0:0:0:0:0, 0=0+0:0:0:0:0, 4=2+2:0:0:0:0, 3=2+1:0:0:0:0, 5=2+3:0:0:0:0, 9=8+1:0:0:0:1, 11=10+1:0:0:0:0, 7=6+1:0:0:0:1, 2=2+0:0:0:0:0, 8=7+1:0:0:0:1, 2=2+0:0:0:0:0, 7=6+1:0:0:0:1, 9=6+3:2:0:0:3, 8=6+2:0:0:0:2, 341=263+78:16:0:0:57
Bb minor mel (5b),  ,  ,  ,  ,  ,  ,  ,  ,  ,  ,  ,  ,  ,  ,  ,  ,  ,  ,  ,  ,  ,  ,  ,  ,  ,  ,  ,  ,  ,  ,  ,  ,  ,  ,  ,  ,  ,  ,  ,  ,  ,  ,  ,  ,  ,  ,  ,  ,  ,  ,  ,  ,  ,  ,  ,  ,  ,  ,  ,  ,  ,  ,  ,  ,  ,  ,  ,  ,  ,  ,  ,  ,  ,  ,  ,  ,  ,  ,  ,  ,  ,  ,  ,  ,  ,  ,  ,  ,  ,  ,  ,  ,  ,  ,  ,  ,  ,  ,  ,  ,  ,  ,  ,  ,  ,  ,  ,  ,  ,  ,  ,  ,  ,  ,  ,  ,  ,  ,  ,  ,  ,  ,  ,  ,  ,  ,  ,  ,  , 0=0+0:0:0:0:0
G# minor mel (5#),  ,  ,  ,  ,  ,  ,  ,  ,  ,  ,  ,  ,  ,  ,  ,  ,  ,  ,  ,  ,  ,  ,  ,  ,  ,  ,  ,  ,  ,  ,  ,  ,  ,  ,  ,  ,  ,  ,  ,  ,  ,  ,  ,  ,  ,  ,  ,  ,  ,  ,  ,  ,  ,  ,  ,  ,  ,  ,  ,  ,  ,  ,  ,  ,  ,  ,  ,  ,  ,  ,  ,  ,  ,  ,  ,  ,  ,  ,  ,  ,  ,  ,  ,  ,  ,  ,  ,  ,  ,  ,  ,  ,  ,  ,  ,  ,  ,  ,  ,  ,  ,  ,  ,  ,  ,  ,  ,  ,  ,  ,  ,  ,  ,  ,  ,  ,  ,  ,  ,  ,  ,  ,  ,  ,  ,  ,  ,  ,  , 0=0+0:0:0:0:0
Db major blues (5b),  ,  ,  ,  ,  ,  ,  ,  ,  ,  ,  ,  ,  ,  ,  ,  ,  ,  ,  ,  ,  ,  ,  ,  ,  ,  ,  ,  ,  ,  ,  ,  ,  ,  ,  ,  ,  ,  ,  ,  ,  ,  ,  ,  ,  ,  ,  ,  ,  ,  ,  ,  ,  ,  ,  ,  ,  ,  ,  ,  ,  ,  ,  ,  ,  ,  ,  ,  ,  ,  ,  ,  ,  ,  ,  ,  ,  ,  ,  ,  ,  ,  ,  ,  ,  ,  ,  ,  ,  ,  ,  ,  ,  ,  ,  ,  ,  ,  ,  ,  ,  ,  ,  ,  ,  ,  ,  ,  ,  ,  ,  ,  ,  ,  ,  ,  ,  ,  ,  ,  ,  ,  ,  ,  ,  ,  ,  ,  ,  , 0=0+0:0:0:0:0
B major blues (5#),  ,  ,  ,  ,  ,  ,  ,  ,  ,  ,  ,  ,  ,  ,  ,  ,  ,  ,  ,  ,  ,  ,  ,  ,  ,  ,  ,  ,  ,  ,  ,  ,  ,  ,  ,  ,  ,  ,  ,  ,  ,  ,  ,  ,  ,  ,  ,  ,  ,  ,  ,  ,  ,  ,  ,  ,  ,  ,  ,  ,  ,  ,  ,  ,  ,  ,  ,  ,  ,  ,  ,  ,  ,  ,  ,  ,  ,  ,  ,  ,  ,  ,  ,  ,  ,  ,  ,  ,  ,  ,  ,  ,  ,  ,  ,  ,  ,  ,  ,  ,  ,  ,  ,  ,  ,  ,  ,  ,  ,  ,  ,  ,  ,  ,  ,  ,  ,  ,  ,  ,  ,  ,  ,  ,  ,  ,  ,  ,  , 0=0+0:0:0:0:0
Bb minor blues (5b),  ,  ,  ,  ,  ,  ,  ,  ,  ,  ,  ,  ,  ,  ,  ,  ,  ,  ,  ,  ,  ,  ,  ,  ,  ,  ,  ,  ,  ,  ,  ,  ,  ,  ,  ,  ,  ,  ,  ,  ,  ,  ,  ,  ,  ,  ,  ,  ,  ,  ,  ,  ,  ,  ,  ,  ,  ,  ,  ,  ,  ,  ,  ,  ,  ,  ,  ,  ,  ,  ,  ,  ,  ,  ,  ,  ,  ,  ,  ,  ,  ,  ,  ,  ,  ,  ,  ,  ,  ,  ,  ,  ,  ,  ,  ,  ,  ,  ,  ,  ,  ,  ,  ,  ,  ,  ,  ,  ,  ,  ,  ,  ,  ,  ,  ,  ,  ,  ,  ,  ,  ,  ,  ,  ,  ,  ,  ,  ,  , 0=0+0:0:0:0:0
G# minor blues (5#),  ,  ,  ,  ,  ,  ,  ,  ,  ,  ,  ,  ,  ,  ,  ,  ,  ,  ,  ,  ,  ,  ,  ,  ,  ,  ,  ,  ,  ,  ,  ,  ,  ,  ,  ,  ,  ,  ,  ,  ,  ,  ,  ,  ,  ,  ,  ,  ,  ,  ,  ,  ,  ,  ,  ,  ,  ,  ,  ,  ,  ,  ,  ,  ,  ,  ,  ,  ,  ,  ,  ,  ,  ,  ,  ,  ,  ,  ,  ,  ,  ,  ,  ,  ,  ,  ,  ,  ,  ,  ,  ,  ,  ,  ,  ,  ,  ,  ,  ,  ,  ,  ,  ,  ,  ,  ,  ,  ,  ,  ,  ,  ,  ,  ,  ,  ,  ,  ,  ,  ,  ,  ,  ,  ,  ,  ,  ,  ,  , 0=0+0:0:0:0:0
Db dorian (5b),  ,  ,  ,  ,  ,  ,  ,  ,  ,  ,  ,  ,  ,  ,  ,  ,  ,  ,  ,  ,  ,  ,  ,  ,  ,  ,  ,  ,  ,  ,  ,  ,  ,  ,  ,  ,  ,  ,  ,  ,  ,  ,  ,  ,  ,  ,  ,  ,  ,  ,  ,  ,  ,  ,  ,  ,  ,  ,  ,  ,  ,  ,  ,  ,  ,  ,  ,  ,  ,  ,  ,  ,  ,  ,  ,  ,  ,  ,  ,  ,  ,  ,  ,  ,  ,  ,  ,  ,  ,  ,  ,  ,  ,  ,  ,  ,  ,  ,  ,  ,  ,  ,  ,  ,  ,  ,  ,  ,  ,  ,  ,  ,  ,  ,  ,  ,  ,  ,  ,  ,  ,  ,  ,  ,  ,  ,  ,  ,  , 0=0+0:0:0:0:0
B dorian (5#),  ,  ,  ,  ,  ,  ,  ,  ,  ,  ,  ,  ,  ,  ,  ,  ,  ,  ,  ,  ,  ,  ,  ,  ,  ,  ,  ,  ,  ,  ,  ,  ,  ,  ,  ,  ,  ,  ,  ,  ,  ,  ,  ,  ,  ,  ,  ,  ,  ,  ,  ,  ,  ,  ,  ,  ,  ,  ,  ,  ,  ,  ,  ,  ,  ,  ,  ,  ,  ,  ,  ,  ,  ,  ,  ,  ,  ,  ,  ,  ,  ,  ,  ,  ,  ,  ,  ,  ,  ,  ,  ,  ,  ,  ,  ,  ,  ,  ,  ,  ,  ,  ,  ,  ,  ,  ,  ,  ,  ,  ,  ,  ,  ,  ,  ,  ,  ,  ,  ,  ,  ,  ,  ,  ,  ,  ,  ,  ,  , 0=0+0:0:0:0:0
Db phrygian (5b),  ,  ,  ,  ,  ,  ,  ,  ,  ,  ,  ,  ,  ,  ,  ,  ,  ,  ,  ,  ,  ,  ,  ,  ,  ,  ,  ,  ,  ,  ,  ,  ,  ,  ,  ,  ,  ,  ,  ,  ,  ,  ,  ,  ,  ,  ,  ,  ,  ,  ,  ,  ,  ,  ,  ,  ,  ,  ,  ,  ,  ,  ,  ,  ,  ,  ,  ,  ,  ,  ,  ,  ,  ,  ,  ,  ,  ,  ,  ,  ,  ,  ,  ,  ,  ,  ,  ,  ,  ,  ,  ,  ,  ,  ,  ,  ,  ,  ,  ,  ,  ,  ,  ,  ,  ,  ,  ,  ,  ,  ,  ,  ,  ,  ,  ,  ,  ,  ,  ,  ,  ,  ,  ,  ,  ,  ,  ,  ,  , 0=0+0:0:0:0:0
B phrygian (5#),  ,  ,  ,  ,  ,  ,  ,  ,  ,  ,  ,  ,  ,  ,  ,  ,  ,  ,  ,  ,  ,  ,  ,  ,  ,  ,  ,  ,  ,  ,  ,  ,  ,  ,  ,  ,  ,  ,  ,  ,  ,  ,  ,  ,  ,  ,  ,  ,  ,  ,  ,  ,  ,  ,  ,  ,  ,  ,  ,  ,  ,  ,  ,  ,  ,  ,  ,  ,  ,  ,  ,  ,  ,  ,  ,  ,  ,  ,  ,  ,  ,  ,  ,  ,  ,  ,  ,  ,  ,  ,  ,  ,  ,  ,  ,  ,  ,  ,  ,  ,  ,  ,  ,  ,  ,  ,  ,  ,  ,  ,  ,  ,  ,  ,  ,  ,  ,  ,  ,  ,  ,  ,  ,  ,  ,  ,  ,  ,  , 0=0+0:0:0:0:0
Db lydian (5b),  ,  ,  ,  ,  ,  ,  ,  ,  ,  ,  ,  ,  ,  ,  ,  ,  ,  ,  ,  ,  ,  ,  ,  ,  ,  ,  ,  ,  ,  ,  ,  ,  ,  ,  ,  ,  ,  ,  ,  ,  ,  ,  ,  ,  ,  ,  ,  ,  ,  ,  ,  ,  ,  ,  ,  ,  ,  ,  ,  ,  ,  ,  ,  ,  ,  ,  ,  ,  ,  ,  ,  ,  ,  ,  ,  ,  ,  ,  ,  ,  ,  ,  ,  ,  ,  ,  ,  ,  ,  ,  ,  ,  ,  ,  ,  ,  ,  ,  ,  ,  ,  ,  ,  ,  ,  ,  ,  ,  ,  ,  ,  ,  ,  ,  ,  ,  ,  ,  ,  ,  ,  ,  ,  ,  ,  ,  ,  ,  , 0=0+0:0:0:0:0
B lydian (5#),  ,  ,  ,  ,  ,  ,  ,  ,  ,  ,  ,  ,  ,  ,  ,  ,  ,  ,  ,  ,  ,  ,  ,  ,  ,  ,  ,  ,  ,  ,  ,  ,  ,  ,  ,  ,  ,  ,  ,  ,  ,  ,  ,  ,  ,  ,  ,  ,  ,  ,  ,  ,  ,  ,  ,  ,  ,  ,  ,  ,  ,  ,  ,  ,  ,  ,  ,  ,  ,  ,  ,  ,  ,  ,  ,  ,  ,  ,  ,  ,  ,  ,  ,  ,  ,  ,  ,  ,  ,  ,  ,  ,  ,  ,  ,  ,  ,  ,  ,  ,  ,  ,  ,  ,  ,  ,  ,  ,  ,  ,  ,  ,  ,  ,  ,  ,  ,  ,  ,  ,  ,  ,  ,  ,  ,  ,  ,  ,  , 0=0+0:0:0:0:0
Db mixolydian (5b),  ,  ,  ,  ,  ,  ,  ,  ,  ,  ,  ,  ,  ,  ,  ,  ,  ,  ,  ,  ,  ,  ,  ,  ,  ,  ,  ,  ,  ,  ,  ,  ,  ,  ,  ,  ,  ,  ,  ,  ,  ,  ,  ,  ,  ,  ,  ,  ,  ,  ,  ,  ,  ,  ,  ,  ,  ,  ,  ,  ,  ,  ,  ,  ,  ,  ,  ,  ,  ,  ,  ,  ,  ,  ,  ,  ,  ,  ,  ,  ,  ,  ,  ,  ,  ,  ,  ,  ,  ,  ,  ,  ,  ,  ,  ,  ,  ,  ,  ,  ,  ,  ,  ,  ,  ,  ,  ,  ,  ,  ,  ,  ,  ,  ,  ,  ,  ,  ,  ,  ,  ,  ,  ,  ,  ,  ,  ,  ,  , 0=0+0:0:0:0:0
B mixolydian (5#),  ,  ,  ,  ,  ,  ,  ,  ,  ,  ,  ,  ,  ,  ,  ,  ,  ,  ,  ,  ,  ,  ,  ,  ,  ,  ,  ,  ,  ,  ,  ,  ,  ,  ,  ,  ,  ,  ,  ,  ,  ,  ,  ,  ,  ,  ,  ,  ,  ,  ,  ,  ,  ,  ,  ,  ,  ,  ,  ,  ,  ,  ,  ,  ,  ,  ,  ,  ,  ,  ,  ,  ,  ,  ,  ,  ,  ,  ,  ,  ,  ,  ,  ,  ,  ,  ,  ,  ,  ,  ,  ,  ,  ,  ,  ,  ,  ,  ,  ,  ,  ,  ,  ,  ,  ,  ,  ,  ,  ,  ,  ,  ,  ,  ,  ,  ,  ,  ,  ,  ,  ,  ,  ,  ,  ,  ,  ,  ,  , 0=0+0:0:0:0:0
Db aeolian (5b),  ,  ,  ,  ,  ,  ,  ,  ,  ,  ,  ,  ,  ,  ,  ,  ,  ,  ,  ,  ,  ,  ,  ,  ,  ,  ,  ,  ,  ,  ,  ,  ,  ,  ,  ,  ,  ,  ,  ,  ,  ,  ,  ,  ,  ,  ,  ,  ,  ,  ,  ,  ,  ,  ,  ,  ,  ,  ,  ,  ,  ,  ,  ,  ,  ,  ,  ,  ,  ,  ,  ,  ,  ,  ,  ,  ,  ,  ,  ,  ,  ,  ,  ,  ,  ,  ,  ,  ,  ,  ,  ,  ,  ,  ,  ,  ,  ,  ,  ,  ,  ,  ,  ,  ,  ,  ,  ,  ,  ,  ,  ,  ,  ,  ,  ,  ,  ,  ,  ,  ,  ,  ,  ,  ,  ,  ,  ,  ,  , 0=0+0:0:0:0:0
B aeolian (5#),  ,  ,  ,  ,  ,  ,  ,  ,  ,  ,  ,  ,  ,  ,  ,  ,  ,  ,  ,  ,  ,  ,  ,  ,  ,  ,  ,  ,  ,  ,  ,  ,  ,  ,  ,  ,  ,  ,  ,  ,  ,  ,  ,  ,  ,  ,  ,  ,  ,  ,  ,  ,  ,  ,  ,  ,  ,  ,  ,  ,  ,  ,  ,  ,  ,  ,  ,  ,  ,  ,  ,  ,  ,  ,  ,  ,  ,  ,  ,  ,  ,  ,  ,  ,  ,  ,  ,  ,  ,  ,  ,  ,  ,  ,  ,  ,  ,  ,  ,  ,  ,  ,  ,  ,  ,  ,  ,  ,  ,  ,  ,  ,  ,  ,  ,  ,  ,  ,  ,  ,  ,  ,  ,  ,  ,  ,  ,  ,  , 0=0+0:0:0:0:0
Db locrian (5b),  ,  ,  ,  ,  ,  ,  ,  ,  ,  ,  ,  ,  ,  ,  ,  ,  ,  ,  ,  ,  ,  ,  ,  ,  ,  ,  ,  ,  ,  ,  ,  ,  ,  ,  ,  ,  ,  ,  ,  ,  ,  ,  ,  ,  ,  ,  ,  ,  ,  ,  ,  ,  ,  ,  ,  ,  ,  ,  ,  ,  ,  ,  ,  ,  ,  ,  ,  ,  ,  ,  ,  ,  ,  ,  ,  ,  ,  ,  ,  ,  ,  ,  ,  ,  ,  ,  ,  ,  ,  ,  ,  ,  ,  ,  ,  ,  ,  ,  ,  ,  ,  ,  ,  ,  ,  ,  ,  ,  ,  ,  ,  ,  ,  ,  ,  ,  ,  ,  ,  ,  ,  ,  ,  ,  ,  ,  ,  ,  , 0=0+0:0:0:0:0
B locrian (5#),  ,  ,  ,  ,  ,  ,  ,  ,  ,  ,  ,  ,  ,  ,  ,  ,  ,  ,  ,  ,  ,  ,  ,  ,  ,  ,  ,  ,  ,  ,  ,  ,  ,  ,  ,  ,  ,  ,  ,  ,  ,  ,  ,  ,  ,  ,  ,  ,  ,  ,  ,  ,  ,  ,  ,  ,  ,  ,  ,  ,  ,  ,  ,  ,  ,  ,  ,  ,  ,  ,  ,  ,  ,  ,  ,  ,  ,  ,  ,  ,  ,  ,  ,  ,  ,  ,  ,  ,  ,  ,  ,  ,  ,  ,  ,  ,  ,  ,  ,  ,  ,  ,  ,  ,  ,  ,  ,  ,  ,  ,  ,  ,  ,  ,  ,  ,  ,  ,  ,  ,  ,  ,  ,  ,  ,  ,  ,  ,  , 0=0+0:0:0:0:0
Gb major (6b), 1=1+0:0:0:0:0, 0=0+0:0:0:0:0, 0=0+0:0:0:0:0, 1=1+0:0:0:0:0, 3=1+2:0:1:0:0, 1=1+0:0:0:0:0, 0=0+0:0:0:0:0, 1=1+0:0:0:0:0, 1=1+0:0:0:0:0, 3=2+1:0:0:0:1, 3=1+2:0:0:0:2, 5=1+4:0:4:0:0, 1=1+0:0:0:0:0, 0=0+0:0:0:0:0, 4=2+2:0:1:0:1, 7=4+3:0:0:0:1, 2=1+1:0:0:0:1, 8=4+4:0:0:0:3, 1=1+0:0:0:0:0, 3=2+1:0:0:0:0, 3=2+1:0:0:0:1, 2=2+0:0:0:0:0, 7=7+0:0:0:0:0, 10=8+2:1:0:0:1, 6=4+2:0:0:0:1, 7=4+3:0:3:0:0, 1=1+0:0:0:0:0, 5=3+2:0:1:0:1, 4=2+2:0:1:0:0, 0=0+0:0:0:0:0, 2=1+1:0:1:0:0, 0=0+0:0:0:0:0, 0=0+0:0:0:0:0,  ,  ,  ,  ,  ,  ,  ,  ,  ,  ,  ,  ,  ,  ,  ,  ,  ,  ,  ,  ,  ,  ,  ,  ,  ,  ,  ,  ,  ,  ,  ,  ,  ,  ,  ,  ,  ,  ,  ,  ,  ,  ,  ,  ,  ,  ,  ,  ,  ,  ,  ,  ,  ,  ,  ,  ,  ,  ,  ,  ,  ,  ,  ,  , 1=1+0:0:0:0:0, 0=0+0:0:0:0:0, 1=1+0:0:0:0:0, 5=2+3:0:1:0:2, 1=1+0:0:0:0:0, 0=0+0:0:0:0:0,  , 0=0+0:0:0:0:0, 1=1+0:0:0:0:0, 5=4+1:0:0:0:1, 0=0+0:0:0:0:0, 6=2+4:0:1:0:1, 3=2+1:0:0:0:0, 4=3+1:0:0:0:0, 6=3+3:0:0:0:3, 2=1+1:0:0:0:1, 8=7+1:0:0:0:0, 5=4+1:0:0:0:0, 5=5+0:0:0:0:0, 2=2+0:0:0:0:0, 6=6+0:0:0:0:0, 9=8+1:0:0:0:0, 10=7+3:0:0:0:0, 4=3+1:0:1:0:0, 4=3+1:0:0:0:0, 4=3+1:0:0:0:1, 0=0+0:0:0:0:0, 4=3+1:0:0:0:0, 0=0+0:0:0:0:0, 3=2+1:0:0:0:1, 7=4+3:0:0:0:1, 4=2+2:0:2:0:0, 202=139+63:1:17:0:24
F# major (6#), 3=3+0:0:0:0:0, 3=3+0:0:0:0:0, 5=5+0:0:0:0:0, 4=4+0:0:0:0:0, 4=2+2:1:0:0:2, 7=6+1:1:0:0:1, 3=3+0:0:0:0:0, 3=3+0:0:0:0:0, 2=2+0:0:0:0:0, 5=4+1:0:0:0:1, 4=2+2:0:0:0:0, 7=3+4:0:4:0:0, 5=5+0:0:0:0:0, 4=4+0:0:0:0:0, 9=6+3:1:0:0:3, 10=8+2:0:0:0:1, 8=7+1:0:0:0:1, 13=8+5:0:0:0:4, 6=4+2:0:0:0:2, 7=5+2:1:0:0:2, 5=5+0:0:0:0:0, 1=1+0:0:0:0:0, 3=3+0:0:0:0:0, 6=4+2:0:0:0:0, 11=9+2:0:0:0:1, 12=8+4:1:0:0:4, 5=5+0:0:0:0:0, 8=6+2:0:0:0:2, 9=6+3:0:0:0:2, 6=6+0:0:0:0:0, 3=2+1:0:0:0:1, 2=2+0:0:0:0:0, 0=0+0:0:0:0:0,  ,  ,  ,  ,  ,  ,  ,  ,  ,  ,  ,  ,  ,  ,  ,  ,  ,  ,  ,  ,  ,  ,  ,  ,  ,  ,  ,  ,  ,  ,  ,  ,  ,  ,  ,  ,  ,  ,  ,  ,  ,  ,  ,  ,  ,  ,  ,  ,  ,  ,  ,  ,  ,  ,  ,  ,  ,  ,  ,  ,  ,  ,  ,  , 6=6+0:0:0:0:0, 6=6+0:0:0:0:0, 6=6+0:0:0:0:0, 8=5+3:0:0:0:2, 6=6+0:0:0:0:0, 2=2+0:0:0:0:0,  , 2=2+0:0:0:0:0, 3=3+0:0:0:0:0, 8=7+1:0:0:0:1, 1=1+0:0:0:0:0, 5=3+2:0:0:0:2, 9=6+3:0:0:0:1, 7=6+1:0:0:0:0, 9=4+5:0:0:0:4, 4=3+1:0:0:0:1, 4=3+1:0:0:0:0, 3=2+1:0:0:0:0, 1=1+0:0:0:0:0, 0=0+0:0:0:0:0, 2=2+0:0:0:0:0, 5=4+1:0:0:0:0, 6=3+3:0:0:0:0, 9=8+1:0:0:0:1, 11=10+1:0:0:0:0, 7=6+1:0:0:0:1, 2=2+0:0:0:0:0, 8=7+1:0:0:0:1, 2=2+0:0:0:0:0, 7=6+1:0:0:0:1, 10=8+2:0:0:0:1, 9=7+2:0:0:0:2, 351=281+70:5:4:0:45
Eb minor (6b), 1=1+0:0:0:0:0, 0=0+0:0:0:0:0, 0=0+0:0:0:0:0, 1=1+0:0:0:0:0, 3=1+2:0:1:0:0, 1=1+0:0:0:0:0, 0=0+0:0:0:0:0, 1=1+0:0:0:0:0, 1=1+0:0:0:0:0, 3=2+1:0:0:0:1, 3=1+2:0:0:0:0, 5=1+4:0:4:0:0, 1=1+0:0:0:0:0, 0=0+0:0:0:0:0, 4=2+2:0:1:0:1, 7=4+3:0:0:0:1, 2=1+1:0:0:0:1, 9=4+5:0:0:0:2, 1=1+0:0:0:0:0, 3=2+1:0:0:0:0, 3=2+1:0:0:0:1, 2=2+0:0:0:0:0, 9=7+2:0:0:0:0, 10=8+2:1:0:0:1, 6=4+2:0:0:0:2, 7=4+3:0:3:0:0, 1=1+0:0:0:0:0, 5=3+2:0:1:0:1, 5=2+3:0:1:0:0, 0=0+0:0:0:0:0, 2=1+1:0:1:0:0, 0=0+0:0:0:0:0, 0=0+0:0:0:0:0,  ,  ,  ,  ,  ,  ,  ,  ,  ,  ,  ,  ,  ,  ,  ,  ,  ,  ,  ,  ,  ,  ,  ,  ,  ,  ,  ,  ,  ,  ,  ,  ,  ,  ,  ,  ,  ,  ,  ,  ,  ,  ,  ,  ,  ,  ,  ,  ,  ,  ,  ,  ,  ,  ,  ,  ,  ,  ,  ,  ,  ,  ,  ,  , 2=1+1:0:0:0:0, 0=0+0:0:0:0:0, 2=1+1:0:0:0:0, 4=2+2:0:1:0:0, 2=1+1:0:0:0:0, 0=0+0:0:0:0:0,  , 0=0+0:0:0:0:0, 1=1+0:0:0:0:0, 5=4+1:0:0:0:1, 0=0+0:0:0:0:0, 6=2+4:0:1:0:1, 3=2+1:0:0:0:0, 6=3+3:0:0:0:0, 6=3+3:0:0:0:3, 2=1+1:0:0:0:1, 8=7+1:0:0:0:0, 5=4+1:0:0:0:0, 7=5+2:0:0:0:0, 2=1+1:1:1:0:1, 6=6+0:0:0:0:0, 11=7+4:3:2:0:3, 10=7+3:0:0:0:0, 4=3+1:0:1:0:0, 4=3+1:0:0:0:0, 4=3+1:0:0:0:1, 0=0+0:0:0:0:0, 4=3+1:0:0:0:0, 0=0+0:0:0:0:0, 3=2+1:0:0:0:1, 7=4+3:0:0:0:1, 4=2+2:0:2:0:0, 214=137+77:5:20:0:24
D# minor (6#), 3=3+0:0:0:0:0, 3=3+0:0:0:0:0, 5=5+0:0:0:0:0, 4=4+0:0:0:0:0, 4=2+2:1:0:0:2, 7=7+0:0:0:0:0, 3=3+0:0:0:0:0, 3=3+0:0:0:0:0, 2=2+0:0:0:0:0, 5=4+1:0:0:0:1, 4=2+2:0:0:0:0, 7=3+4:0:4:0:0, 5=5+0:0:0:0:0, 4=4+0:0:0:0:0, 9=6+3:1:0:0:3, 10=8+2:0:0:0:1, 8=7+1:0:0:0:1, 13=9+4:0:0:0:3, 6=4+2:0:0:0:2, 7=6+1:0:0:0:0, 5=4+1:0:0:0:1, 2=1+1:0:0:0:0, 4=3+1:0:0:0:0, 7=4+3:0:0:0:0, 11=9+2:0:0:0:1, 12=8+4:1:0:0:4, 5=5+0:0:0:0:0, 8=6+2:0:0:0:2, 8=7+1:0:0:0:0, 6=6+0:0:0:0:0, 3=2+1:0:0:0:1, 2=2+0:0:0:0:0, 5=4+1:1:0:0:1,  ,  ,  ,  ,  ,  ,  ,  ,  ,  ,  ,  ,  ,  ,  ,  ,  ,  ,  ,  ,  ,  ,  ,  ,  ,  ,  ,  ,  ,  ,  ,  ,  ,  ,  ,  ,  ,  ,  ,  ,  ,  ,  ,  ,  ,  ,  ,  ,  ,  ,  ,  ,  ,  ,  ,  ,  ,  ,  ,  ,  ,  ,  ,  , 6=4+2:2:1:0:2, 6=6+0:0:0:0:0, 6=6+0:0:0:0:0, 8=5+3:0:0:0:2, 6=6+0:0:0:0:0, 2=2+0:0:0:0:0,  , 2=2+0:0:0:0:0, 3=3+0:0:0:0:0, 8=7+1:0:0:0:1, 1=1+0:0:0:0:0, 4=3+1:0:0:0:0, 7=6+1:0:0:0:0, 7=5+2:1:0:0:1, 8=5+3:0:0:0:0, 4=3+1:0:0:0:1, 4=3+1:0:0:0:0, 3=2+1:0:0:0:0, 3=1+2:0:0:0:0, 0=0+0:0:0:0:0, 2=2+0:0:0:0:0, 8=4+4:0:0:0:0, 6=3+3:0:0:0:0, 9=8+1:0:0:0:1, 11=10+1:0:0:0:0, 7=6+1:0:0:0:1, 2=2+0:0:0:0:0, 8=7+1:0:0:0:1, 2=2+0:0:0:0:0, 7=6+1:0:0:0:1, 10=8+2:0:0:0:1, 9=7+2:0:0:0:2, 359=286+73:7:5:0:37
Eb minor mel (6b),  ,  ,  ,  ,  ,  ,  ,  ,  ,  ,  ,  ,  ,  ,  ,  ,  ,  ,  ,  ,  ,  ,  ,  ,  ,  ,  ,  ,  ,  ,  ,  ,  ,  ,  ,  ,  ,  ,  ,  ,  ,  ,  ,  ,  ,  ,  ,  ,  ,  ,  ,  ,  ,  ,  ,  ,  ,  ,  ,  ,  ,  ,  ,  ,  ,  ,  ,  ,  ,  ,  ,  ,  ,  ,  ,  ,  ,  ,  ,  ,  ,  ,  ,  ,  ,  ,  ,  ,  ,  ,  ,  ,  ,  ,  ,  ,  ,  ,  ,  ,  ,  ,  ,  ,  ,  ,  ,  ,  ,  ,  ,  ,  ,  ,  ,  ,  ,  ,  ,  ,  ,  ,  ,  ,  ,  ,  ,  ,  , 0=0+0:0:0:0:0
D# minor mel (6#),  ,  ,  ,  ,  ,  ,  ,  ,  ,  ,  ,  ,  ,  ,  ,  ,  ,  ,  ,  ,  ,  ,  ,  ,  ,  ,  ,  ,  ,  ,  ,  ,  ,  ,  ,  ,  ,  ,  ,  ,  ,  ,  ,  ,  ,  ,  ,  ,  ,  ,  ,  ,  ,  ,  ,  ,  ,  ,  ,  ,  ,  ,  ,  ,  ,  ,  ,  ,  ,  ,  ,  ,  ,  ,  ,  ,  ,  ,  ,  ,  ,  ,  ,  ,  ,  ,  ,  ,  ,  ,  ,  ,  ,  ,  ,  ,  ,  ,  ,  ,  ,  ,  ,  ,  ,  ,  ,  ,  ,  ,  ,  ,  ,  ,  ,  ,  ,  ,  ,  ,  ,  ,  ,  ,  ,  ,  ,  ,  , 0=0+0:0:0:0:0
Gb major blues (6b),  ,  ,  ,  ,  ,  ,  ,  ,  ,  ,  ,  ,  ,  ,  ,  ,  ,  ,  ,  ,  ,  ,  ,  ,  ,  ,  ,  ,  ,  ,  ,  ,  ,  ,  ,  ,  ,  ,  ,  ,  ,  ,  ,  ,  ,  ,  ,  ,  ,  ,  ,  ,  ,  ,  ,  ,  ,  ,  ,  ,  ,  ,  ,  ,  ,  ,  ,  ,  ,  ,  ,  ,  ,  ,  ,  ,  ,  ,  ,  ,  ,  ,  ,  ,  ,  ,  ,  ,  ,  ,  ,  ,  ,  ,  ,  ,  ,  ,  ,  ,  ,  ,  ,  ,  ,  ,  ,  ,  ,  ,  ,  ,  ,  ,  ,  ,  ,  ,  ,  ,  ,  ,  ,  ,  ,  ,  ,  ,  , 0=0+0:0:0:0:0
F# major blues (6#),  ,  ,  ,  ,  ,  ,  ,  ,  ,  ,  ,  ,  ,  ,  ,  ,  ,  ,  ,  ,  ,  ,  ,  ,  ,  ,  ,  ,  ,  ,  ,  ,  ,  ,  ,  ,  ,  ,  ,  ,  ,  ,  ,  ,  ,  ,  ,  ,  ,  ,  ,  ,  ,  ,  ,  ,  ,  ,  ,  ,  ,  ,  ,  ,  ,  ,  ,  ,  ,  ,  ,  ,  ,  ,  ,  ,  ,  ,  ,  ,  ,  ,  ,  ,  ,  ,  ,  ,  ,  ,  ,  ,  ,  ,  ,  ,  ,  ,  ,  ,  ,  ,  ,  ,  ,  ,  ,  ,  ,  ,  ,  ,  ,  ,  ,  ,  ,  ,  ,  ,  ,  ,  ,  ,  ,  ,  ,  ,  , 0=0+0:0:0:0:0
Eb minor blues (6b),  ,  ,  ,  ,  ,  ,  ,  ,  ,  ,  ,  ,  ,  ,  ,  ,  ,  ,  ,  ,  ,  ,  ,  ,  ,  ,  ,  ,  ,  ,  ,  ,  ,  ,  ,  ,  ,  ,  ,  ,  ,  ,  ,  ,  ,  ,  ,  ,  ,  ,  ,  ,  ,  ,  ,  ,  ,  ,  ,  ,  ,  ,  ,  ,  ,  ,  ,  ,  ,  ,  ,  ,  ,  ,  ,  ,  ,  ,  ,  ,  ,  ,  ,  ,  ,  ,  ,  ,  ,  ,  ,  ,  ,  ,  ,  ,  ,  ,  ,  ,  ,  ,  ,  ,  ,  ,  ,  ,  ,  ,  ,  ,  ,  ,  ,  ,  ,  ,  ,  ,  ,  ,  ,  ,  ,  ,  ,  ,  , 0=0+0:0:0:0:0
D# minor blues (6#),  ,  ,  ,  ,  ,  ,  ,  ,  ,  ,  ,  ,  ,  ,  ,  ,  ,  ,  ,  ,  ,  ,  ,  ,  ,  ,  ,  ,  ,  ,  ,  ,  ,  ,  ,  ,  ,  ,  ,  ,  ,  ,  ,  ,  ,  ,  ,  ,  ,  ,  ,  ,  ,  ,  ,  ,  ,  ,  ,  ,  ,  ,  ,  ,  ,  ,  ,  ,  ,  ,  ,  ,  ,  ,  ,  ,  ,  ,  ,  ,  ,  ,  ,  ,  ,  ,  ,  ,  ,  ,  ,  ,  ,  ,  ,  ,  ,  ,  ,  ,  ,  ,  ,  ,  ,  ,  ,  ,  ,  ,  ,  ,  ,  ,  ,  ,  ,  ,  ,  ,  ,  ,  ,  ,  ,  ,  ,  ,  , 0=0+0:0:0:0:0
Gb dorian (6b),  ,  ,  ,  ,  ,  ,  ,  ,  ,  ,  ,  ,  ,  ,  ,  ,  ,  ,  ,  ,  ,  ,  ,  ,  ,  ,  ,  ,  ,  ,  ,  ,  ,  ,  ,  ,  ,  ,  ,  ,  ,  ,  ,  ,  ,  ,  ,  ,  ,  ,  ,  ,  ,  ,  ,  ,  ,  ,  ,  ,  ,  ,  ,  ,  ,  ,  ,  ,  ,  ,  ,  ,  ,  ,  ,  ,  ,  ,  ,  ,  ,  ,  ,  ,  ,  ,  ,  ,  ,  ,  ,  ,  ,  ,  ,  ,  ,  ,  ,  ,  ,  ,  ,  ,  ,  ,  ,  ,  ,  ,  ,  ,  ,  ,  ,  ,  ,  ,  ,  ,  ,  ,  ,  ,  ,  ,  ,  ,  , 0=0+0:0:0:0:0
F# dorian (6#),  ,  ,  ,  ,  ,  ,  ,  ,  ,  ,  ,  ,  ,  ,  ,  ,  ,  ,  ,  ,  ,  ,  ,  ,  ,  ,  ,  ,  ,  ,  ,  ,  ,  ,  ,  ,  ,  ,  ,  ,  ,  ,  ,  ,  ,  ,  ,  ,  ,  ,  ,  ,  ,  ,  ,  ,  ,  ,  ,  ,  ,  ,  ,  ,  ,  ,  ,  ,  ,  ,  ,  ,  ,  ,  ,  ,  ,  ,  ,  ,  ,  ,  ,  ,  ,  ,  ,  ,  ,  ,  ,  ,  ,  ,  ,  ,  ,  ,  ,  ,  ,  ,  ,  ,  ,  ,  ,  ,  ,  ,  ,  ,  ,  ,  ,  ,  ,  ,  ,  ,  ,  ,  ,  ,  ,  ,  ,  ,  , 0=0+0:0:0:0:0
Gb phrygian (6b),  ,  ,  ,  ,  ,  ,  ,  ,  ,  ,  ,  ,  ,  ,  ,  ,  ,  ,  ,  ,  ,  ,  ,  ,  ,  ,  ,  ,  ,  ,  ,  ,  ,  ,  ,  ,  ,  ,  ,  ,  ,  ,  ,  ,  ,  ,  ,  ,  ,  ,  ,  ,  ,  ,  ,  ,  ,  ,  ,  ,  ,  ,  ,  ,  ,  ,  ,  ,  ,  ,  ,  ,  ,  ,  ,  ,  ,  ,  ,  ,  ,  ,  ,  ,  ,  ,  ,  ,  ,  ,  ,  ,  ,  ,  ,  ,  ,  ,  ,  ,  ,  ,  ,  ,  ,  ,  ,  ,  ,  ,  ,  ,  ,  ,  ,  ,  ,  ,  ,  ,  ,  ,  ,  ,  ,  ,  ,  ,  , 0=0+0:0:0:0:0
F# phrygian (6#),  ,  ,  ,  ,  ,  ,  ,  ,  ,  ,  ,  ,  ,  ,  ,  ,  ,  ,  ,  ,  ,  ,  ,  ,  ,  ,  ,  ,  ,  ,  ,  ,  ,  ,  ,  ,  ,  ,  ,  ,  ,  ,  ,  ,  ,  ,  ,  ,  ,  ,  ,  ,  ,  ,  ,  ,  ,  ,  ,  ,  ,  ,  ,  ,  ,  ,  ,  ,  ,  ,  ,  ,  ,  ,  ,  ,  ,  ,  ,  ,  ,  ,  ,  ,  ,  ,  ,  ,  ,  ,  ,  ,  ,  ,  ,  ,  ,  ,  ,  ,  ,  ,  ,  ,  ,  ,  ,  ,  ,  ,  ,  ,  ,  ,  ,  ,  ,  ,  ,  ,  ,  ,  ,  ,  ,  ,  ,  ,  , 0=0+0:0:0:0:0
Gb lydian (6b),  ,  ,  ,  ,  ,  ,  ,  ,  ,  ,  ,  ,  ,  ,  ,  ,  ,  ,  ,  ,  ,  ,  ,  ,  ,  ,  ,  ,  ,  ,  ,  ,  ,  ,  ,  ,  ,  ,  ,  ,  ,  ,  ,  ,  ,  ,  ,  ,  ,  ,  ,  ,  ,  ,  ,  ,  ,  ,  ,  ,  ,  ,  ,  ,  ,  ,  ,  ,  ,  ,  ,  ,  ,  ,  ,  ,  ,  ,  ,  ,  ,  ,  ,  ,  ,  ,  ,  ,  ,  ,  ,  ,  ,  ,  ,  ,  ,  ,  ,  ,  ,  ,  ,  ,  ,  ,  ,  ,  ,  ,  ,  ,  ,  ,  ,  ,  ,  ,  ,  ,  ,  ,  ,  ,  ,  ,  ,  ,  , 0=0+0:0:0:0:0
F# lydian (6#),  ,  ,  ,  ,  ,  ,  ,  ,  ,  ,  ,  ,  ,  ,  ,  ,  ,  ,  ,  ,  ,  ,  ,  ,  ,  ,  ,  ,  ,  ,  ,  ,  ,  ,  ,  ,  ,  ,  ,  ,  ,  ,  ,  ,  ,  ,  ,  ,  ,  ,  ,  ,  ,  ,  ,  ,  ,  ,  ,  ,  ,  ,  ,  ,  ,  ,  ,  ,  ,  ,  ,  ,  ,  ,  ,  ,  ,  ,  ,  ,  ,  ,  ,  ,  ,  ,  ,  ,  ,  ,  ,  ,  ,  ,  ,  ,  ,  ,  ,  ,  ,  ,  ,  ,  ,  ,  ,  ,  ,  ,  ,  ,  ,  ,  ,  ,  ,  ,  ,  ,  ,  ,  ,  ,  ,  ,  ,  ,  , 0=0+0:0:0:0:0
Gb mixolydian (6b),  ,  ,  ,  ,  ,  ,  ,  ,  ,  ,  ,  ,  ,  ,  ,  ,  ,  ,  ,  ,  ,  ,  ,  ,  ,  ,  ,  ,  ,  ,  ,  ,  ,  ,  ,  ,  ,  ,  ,  ,  ,  ,  ,  ,  ,  ,  ,  ,  ,  ,  ,  ,  ,  ,  ,  ,  ,  ,  ,  ,  ,  ,  ,  ,  ,  ,  ,  ,  ,  ,  ,  ,  ,  ,  ,  ,  ,  ,  ,  ,  ,  ,  ,  ,  ,  ,  ,  ,  ,  ,  ,  ,  ,  ,  ,  ,  ,  ,  ,  ,  ,  ,  ,  ,  ,  ,  ,  ,  ,  ,  ,  ,  ,  ,  ,  ,  ,  ,  ,  ,  ,  ,  ,  ,  ,  ,  ,  ,  , 0=0+0:0:0:0:0
F# mixolydian (6#),  ,  ,  ,  ,  ,  ,  ,  ,  ,  ,  ,  ,  ,  ,  ,  ,  ,  ,  ,  ,  ,  ,  ,  ,  ,  ,  ,  ,  ,  ,  ,  ,  ,  ,  ,  ,  ,  ,  ,  ,  ,  ,  ,  ,  ,  ,  ,  ,  ,  ,  ,  ,  ,  ,  ,  ,  ,  ,  ,  ,  ,  ,  ,  ,  ,  ,  ,  ,  ,  ,  ,  ,  ,  ,  ,  ,  ,  ,  ,  ,  ,  ,  ,  ,  ,  ,  ,  ,  ,  ,  ,  ,  ,  ,  ,  ,  ,  ,  ,  ,  ,  ,  ,  ,  ,  ,  ,  ,  ,  ,  ,  ,  ,  ,  ,  ,  ,  ,  ,  ,  ,  ,  ,  ,  ,  ,  ,  ,  , 0=0+0:0:0:0:0
Gb aeolian (6b),  ,  ,  ,  ,  ,  ,  ,  ,  ,  ,  ,  ,  ,  ,  ,  ,  ,  ,  ,  ,  ,  ,  ,  ,  ,  ,  ,  ,  ,  ,  ,  ,  ,  ,  ,  ,  ,  ,  ,  ,  ,  ,  ,  ,  ,  ,  ,  ,  ,  ,  ,  ,  ,  ,  ,  ,  ,  ,  ,  ,  ,  ,  ,  ,  ,  ,  ,  ,  ,  ,  ,  ,  ,  ,  ,  ,  ,  ,  ,  ,  ,  ,  ,  ,  ,  ,  ,  ,  ,  ,  ,  ,  ,  ,  ,  ,  ,  ,  ,  ,  ,  ,  ,  ,  ,  ,  ,  ,  ,  ,  ,  ,  ,  ,  ,  ,  ,  ,  ,  ,  ,  ,  ,  ,  ,  ,  ,  ,  , 0=0+0:0:0:0:0
F# aeolian (6#),  ,  ,  ,  ,  ,  ,  ,  ,  ,  ,  ,  ,  ,  ,  ,  ,  ,  ,  ,  ,  ,  ,  ,  ,  ,  ,  ,  ,  ,  ,  ,  ,  ,  ,  ,  ,  ,  ,  ,  ,  ,  ,  ,  ,  ,  ,  ,  ,  ,  ,  ,  ,  ,  ,  ,  ,  ,  ,  ,  ,  ,  ,  ,  ,  ,  ,  ,  ,  ,  ,  ,  ,  ,  ,  ,  ,  ,  ,  ,  ,  ,  ,  ,  ,  ,  ,  ,  ,  ,  ,  ,  ,  ,  ,  ,  ,  ,  ,  ,  ,  ,  ,  ,  ,  ,  ,  ,  ,  ,  ,  ,  ,  ,  ,  ,  ,  ,  ,  ,  ,  ,  ,  ,  ,  ,  ,  ,  ,  , 0=0+0:0:0:0:0
Gb locrian (6b),  ,  ,  ,  ,  ,  ,  ,  ,  ,  ,  ,  ,  ,  ,  ,  ,  ,  ,  ,  ,  ,  ,  ,  ,  ,  ,  ,  ,  ,  ,  ,  ,  ,  ,  ,  ,  ,  ,  ,  ,  ,  ,  ,  ,  ,  ,  ,  ,  ,  ,  ,  ,  ,  ,  ,  ,  ,  ,  ,  ,  ,  ,  ,  ,  ,  ,  ,  ,  ,  ,  ,  ,  ,  ,  ,  ,  ,  ,  ,  ,  ,  ,  ,  ,  ,  ,  ,  ,  ,  ,  ,  ,  ,  ,  ,  ,  ,  ,  ,  ,  ,  ,  ,  ,  ,  ,  ,  ,  ,  ,  ,  ,  ,  ,  ,  ,  ,  ,  ,  ,  ,  ,  ,  ,  ,  ,  ,  ,  , 0=0+0:0:0:0:0
F# locrian (6#),  ,  ,  ,  ,  ,  ,  ,  ,  ,  ,  ,  ,  ,  ,  ,  ,  ,  ,  ,  ,  ,  ,  ,  ,  ,  ,  ,  ,  ,  ,  ,  ,  ,  ,  ,  ,  ,  ,  ,  ,  ,  ,  ,  ,  ,  ,  ,  ,  ,  ,  ,  ,  ,  ,  ,  ,  ,  ,  ,  ,  ,  ,  ,  ,  ,  ,  ,  ,  ,  ,  ,  ,  ,  ,  ,  ,  ,  ,  ,  ,  ,  ,  ,  ,  ,  ,  ,  ,  ,  ,  ,  ,  ,  ,  ,  ,  ,  ,  ,  ,  ,  ,  ,  ,  ,  ,  ,  ,  ,  ,  ,  ,  ,  ,  ,  ,  ,  ,  ,  ,  ,  ,  ,  ,  ,  ,  ,  ,  , 0=0+0:0:0:0:0
Cb major (7b), 2=1+1:0:0:0:1, 1=1+0:0:0:0:0, 1=1+0:0:0:0:0, 2=2+0:0:0:0:0, 2=1+1:0:1:0:0, 2=2+0:0:0:0:0, 1=1+0:0:0:0:0, 1=1+0:0:0:0:0, 1=1+0:0:0:0:0, 3=2+1:0:0:0:1, 3=1+2:0:0:0:2, 4=0+4:0:4:0:0, 1=1+0:0:0:0:0, 1=1+0:0:0:0:0, 4=2+2:0:1:0:1, 6=3+3:0:1:0:0, 3=2+1:0:0:0:1, 7=3+4:0:0:0:3, 0=0+0:0:0:0:0, 3=2+1:0:0:0:1, 3=2+1:0:0:0:1, 2=2+0:0:0:0:0, 7=7+0:0:0:0:0, 9=8+1:1:0:0:0, 7=4+3:0:0:0:1, 8=5+3:0:3:0:0, 2=2+0:0:0:0:0, 6=4+2:0:1:0:1, 5=3+2:0:1:0:0, 1=1+0:0:0:0:0, 2=1+1:0:1:0:0, 0=0+0:0:0:0:0, 2=1+1:0:0:0:0,  ,  ,  ,  ,  ,  ,  ,  ,  ,  ,  ,  ,  ,  ,  ,  ,  ,  ,  ,  ,  ,  ,  ,  ,  ,  ,  ,  ,  ,  ,  ,  ,  ,  ,  ,  ,  ,  ,  ,  ,  ,  ,  ,  ,  ,  ,  ,  ,  ,  ,  ,  ,  ,  ,  ,  ,  ,  ,  ,  ,  ,  ,  ,  , 3=2+1:0:0:0:0, 2=2+0:0:0:0:0, 2=2+0:0:0:0:0, 5=2+3:0:1:0:2, 2=2+0:0:0:0:0, 0=0+0:0:0:0:0,  , 0=0+0:0:0:0:0, 1=1+0:0:0:0:0, 6=5+1:0:0:0:1, 0=0+0:0:0:0:0, 5=2+3:0:1:0:1, 3=2+1:0:0:0:0, 4=3+1:0:0:0:0, 6=3+3:0:0:0:3, 1=0+1:0:1:0:0, 8=7+1:0:0:0:0, 5=4+1:0:0:0:0, 5=5+0:0:0:0:0, 2=2+0:0:0:0:0, 6=6+0:0:0:0:0, 9=8+1:0:0:0:0, 10=7+3:0:0:0:0, 5=4+1:0:1:0:0, 5=4+1:0:0:0:0, 5=4+1:0:0:0:1, 0=0+0:0:0:0:0, 5=4+1:0:0:0:0, 0=0+0:0:0:0:0, 4=3+1:0:0:0:1, 6=3+3:0:1:0:0, 5=3+2:0:2:0:0, 222=158+64:1:20:0:22
C# major (7#), 3=3+0:0:0:0:0, 3=3+0:0:0:0:0, 5=5+0:0:0:0:0, 4=4+0:0:0:0:0, 5=3+2:1:0:0:2, 7=7+0:0:0:0:0, 3=3+0:0:0:0:0, 3=3+0:0:0:0:0, 2=2+0:0:0:0:0, 5=4+1:0:0:0:1, 2=2+0:0:0:0:0, 7=3+4:0:4:0:0, 5=5+0:0:0:0:0, 4=4+0:0:0:0:0, 10=8+2:0:0:0:2, 9=6+3:2:0:0:3, 8=7+1:0:0:0:1, 13=7+6:5:1:0:6, 4=4+0:0:0:0:0, 6=4+2:2:1:0:2, 5=5+0:0:0:0:0, 2=1+1:0:0:0:0, 5=4+1:0:0:0:0, 8=5+3:0:0:0:0, 11=9+2:0:0:0:1, 12=8+4:1:0:0:4, 5=5+0:0:0:0:0, 9=7+2:0:0:0:2, 10=7+3:0:0:0:2, 6=6+0:0:0:0:0, 4=3+1:0:0:0:1, 2=2+0:0:0:0:0, 5=5+0:0:0:0:0,  ,  ,  ,  ,  ,  ,  ,  ,  ,  ,  ,  ,  ,  ,  ,  ,  ,  ,  ,  ,  ,  ,  ,  ,  ,  ,  ,  ,  ,  ,  ,  ,  ,  ,  ,  ,  ,  ,  ,  ,  ,  ,  ,  ,  ,  ,  ,  ,  ,  ,  ,  ,  ,  ,  ,  ,  ,  ,  ,  ,  ,  ,  ,  , 6=6+0:0:0:0:0, 6=6+0:0:0:0:0, 6=6+0:0:0:0:0, 9=6+3:0:0:0:2, 6=6+0:0:0:0:0, 2=2+0:0:0:0:0,  , 2=2+0:0:0:0:0, 3=3+0:0:0:0:0, 8=7+1:0:0:0:1, 1=1+0:0:0:0:0, 6=3+3:2:0:0:2, 9=6+3:0:0:0:1, 7=6+1:0:0:0:0, 7=6+1:0:0:0:1, 4=3+1:0:0:0:1, 7=4+3:0:0:0:1, 3=2+1:0:0:0:0, 2=2+0:0:0:0:0, 1=1+0:0:0:0:0, 5=3+2:0:0:0:0, 6=5+1:0:0:0:0, 7=4+3:0:0:0:0, 10=9+1:0:0:0:1, 11=10+1:0:0:0:0, 7=6+1:0:0:0:1, 2=2+0:0:0:0:0, 8=7+1:0:0:0:1, 2=2+0:0:0:0:0, 7=6+1:0:0:0:1, 9=6+3:2:0:0:3, 9=7+2:0:0:0:2, 370=299+71:15:6:0:45
Ab minor (7b), 1=1+0:0:0:0:0, 1=1+0:0:0:0:0, 1=1+0:0:0:0:0, 2=2+0:0:0:0:0, 3=1+2:0:1:0:0, 3=2+1:0:0:0:0, 1=1+0:0:0:0:0, 1=1+0:0:0:0:0, 1=1+0:0:0:0:0, 3=2+1:0:0:0:1, 1=1+0:0:0:0:0, 4=0+4:0:4:0:0, 1=1+0:0:0:0:0, 1=1+0:0:0:0:0, 4=2+2:0:1:0:1, 6=3+3:0:1:0:0, 3=2+1:0:0:0:1, 7=3+4:0:0:0:3, 0=0+0:0:0:0:0, 3=2+1:0:0:0:1, 3=2+1:0:0:0:1, 3=2+1:0:0:0:0, 8=7+1:0:0:0:0, 9=8+1:1:0:0:1, 7=4+3:0:0:0:1, 8=5+3:0:3:0:0, 2=2+0:0:0:0:0, 6=4+2:0:1:0:1, 4=3+1:0:0:0:0, 1=1+0:0:0:0:0, 2=1+1:0:1:0:0, 0=0+0:0:0:0:0, 2=1+1:0:0:0:0,  ,  ,  ,  ,  ,  ,  ,  ,  ,  ,  ,  ,  ,  ,  ,  ,  ,  ,  ,  ,  ,  ,  ,  ,  ,  ,  ,  ,  ,  ,  ,  ,  ,  ,  ,  ,  ,  ,  ,  ,  ,  ,  ,  ,  ,  ,  ,  ,  ,  ,  ,  ,  ,  ,  ,  ,  ,  ,  ,  ,  ,  ,  ,  , 2=2+0:0:0:0:0, 2=2+0:0:0:0:0, 2=2+0:0:0:0:0, 5=2+3:0:1:0:2, 2=2+0:0:0:0:0, 0=0+0:0:0:0:0,  , 0=0+0:0:0:0:0, 1=1+0:0:0:0:0, 6=5+1:0:0:0:1, 0=0+0:0:0:0:0, 3=2+1:0:1:0:1, 3=2+1:0:0:0:0, 6=3+3:0:0:0:0, 6=3+3:0:0:0:3, 1=0+1:0:1:0:0, 8=7+1:0:0:0:0, 5=4+1:0:0:0:0, 5=5+0:0:0:0:0, 2=2+0:0:0:0:0, 8=6+2:0:0:0:0, 9=8+1:0:0:0:0, 10=7+3:0:0:0:0, 5=4+1:0:1:0:0, 5=4+1:0:0:0:0, 5=4+1:0:0:0:1, 0=0+0:0:0:0:0, 5=4+1:0:0:0:1, 0=0+0:0:0:0:0, 4=3+1:0:0:0:1, 6=3+3:0:1:0:0, 5=3+2:0:2:0:0, 223=158+65:1:19:0:21
A# minor (7#), 3=3+0:0:0:0:0, 3=3+0:0:0:0:0, 5=5+0:0:0:0:0, 4=4+0:0:0:0:0, 5=3+2:1:0:0:1, 7=7+0:0:0:0:0, 3=3+0:0:0:0:0, 3=3+0:0:0:0:0, 2=2+0:0:0:0:0, 5=4+1:0:0:0:1, 2=2+0:0:0:0:0, 7=3+4:0:4:0:0, 5=5+0:0:0:0:0, 4=4+0:0:0:0:0, 10=8+2:0:0:0:2, 9=6+3:2:0:0:3, 8=7+1:0:0:0:1, 13=9+4:0:0:0:4, 6=4+2:0:0:0:2, 6=5+1:1:1:0:1, 5=4+1:0:0:0:1, 2=1+1:0:0:0:0, 5=4+1:0:0:0:0, 8=5+3:0:0:0:0, 11=9+2:0:0:0:1, 12=8+4:1:0:0:4, 5=5+0:0:0:0:0, 9=7+2:0:0:0:2, 10=7+3:0:0:0:2, 6=6+0:0:0:0:0, 4=3+1:0:0:0:1, 2=2+0:0:0:0:0, 5=5+0:0:0:0:0,  ,  ,  ,  ,  ,  ,  ,  ,  ,  ,  ,  ,  ,  ,  ,  ,  ,  ,  ,  ,  ,  ,  ,  ,  ,  ,  ,  ,  ,  ,  ,  ,  ,  ,  ,  ,  ,  ,  ,  ,  ,  ,  ,  ,  ,  ,  ,  ,  ,  ,  ,  ,  ,  ,  ,  ,  ,  ,  ,  ,  ,  ,  ,  , 6=6+0:0:0:0:0, 6=6+0:0:0:0:0, 6=6+0:0:0:0:0, 9=6+3:0:0:0:2, 6=6+0:0:0:0:0, 2=2+0:0:0:0:0,  , 2=2+0:0:0:0:0, 3=3+0:0:0:0:0, 8=7+1:0:0:0:1, 1=1+0:0:0:0:0, 5=4+1:0:0:0:0, 8=6+2:0:0:0:0, 7=6+1:0:0:0:0, 10=5+5:0:0:0:2, 4=3+1:0:0:0:1, 5=4+1:0:0:0:0, 4=2+2:0:0:0:0, 4=2+2:0:0:0:0, 1=1+0:0:0:0:0, 3=3+0:0:0:0:0, 7=5+2:0:0:0:0, 7=4+3:0:0:0:0, 10=9+1:0:0:0:1, 11=10+1:0:0:0:0, 7=6+1:0:0:0:1, 2=2+0:0:0:0:0, 8=7+1:0:0:0:1, 2=2+0:0:0:0:0, 7=6+1:0:0:0:1, 9=6+3:2:0:0:3, 9=7+2:0:0:0:2, 373=301+72:7:5:0:41
Ab minor mel (7b),  ,  ,  ,  ,  ,  ,  ,  ,  ,  ,  ,  ,  ,  ,  ,  ,  ,  ,  ,  ,  ,  ,  ,  ,  ,  ,  ,  ,  ,  ,  ,  ,  ,  ,  ,  ,  ,  ,  ,  ,  ,  ,  ,  ,  ,  ,  ,  ,  ,  ,  ,  ,  ,  ,  ,  ,  ,  ,  ,  ,  ,  ,  ,  ,  ,  ,  ,  ,  ,  ,  ,  ,  ,  ,  ,  ,  ,  ,  ,  ,  ,  ,  ,  ,  ,  ,  ,  ,  ,  ,  ,  ,  ,  ,  ,  ,  ,  ,  ,  ,  ,  ,  ,  ,  ,  ,  ,  ,  ,  ,  ,  ,  ,  ,  ,  ,  ,  ,  ,  ,  ,  ,  ,  ,  ,  ,  ,  ,  , 0=0+0:0:0:0:0
A# minor mel (7#),  ,  ,  ,  ,  ,  ,  ,  ,  ,  ,  ,  ,  ,  ,  ,  ,  ,  ,  ,  ,  ,  ,  ,  ,  ,  ,  ,  ,  ,  ,  ,  ,  ,  ,  ,  ,  ,  ,  ,  ,  ,  ,  ,  ,  ,  ,  ,  ,  ,  ,  ,  ,  ,  ,  ,  ,  ,  ,  ,  ,  ,  ,  ,  ,  ,  ,  ,  ,  ,  ,  ,  ,  ,  ,  ,  ,  ,  ,  ,  ,  ,  ,  ,  ,  ,  ,  ,  ,  ,  ,  ,  ,  ,  ,  ,  ,  ,  ,  ,  ,  ,  ,  ,  ,  ,  ,  ,  ,  ,  ,  ,  ,  ,  ,  ,  ,  ,  ,  ,  ,  ,  ,  ,  ,  ,  ,  ,  ,  , 0=0+0:0:0:0:0
Cb major blues (7b),  ,  ,  ,  ,  ,  ,  ,  ,  ,  ,  ,  ,  ,  ,  ,  ,  ,  ,  ,  ,  ,  ,  ,  ,  ,  ,  ,  ,  ,  ,  ,  ,  ,  ,  ,  ,  ,  ,  ,  ,  ,  ,  ,  ,  ,  ,  ,  ,  ,  ,  ,  ,  ,  ,  ,  ,  ,  ,  ,  ,  ,  ,  ,  ,  ,  ,  ,  ,  ,  ,  ,  ,  ,  ,  ,  ,  ,  ,  ,  ,  ,  ,  ,  ,  ,  ,  ,  ,  ,  ,  ,  ,  ,  ,  ,  ,  ,  ,  ,  ,  ,  ,  ,  ,  ,  ,  ,  ,  ,  ,  ,  ,  ,  ,  ,  ,  ,  ,  ,  ,  ,  ,  ,  ,  ,  ,  ,  ,  , 0=0+0:0:0:0:0
C# major blues (7#),  ,  ,  ,  ,  ,  ,  ,  ,  ,  ,  ,  ,  ,  ,  ,  ,  ,  ,  ,  ,  ,  ,  ,  ,  ,  ,  ,  ,  ,  ,  ,  ,  ,  ,  ,  ,  ,  ,  ,  ,  ,  ,  ,  ,  ,  ,  ,  ,  ,  ,  ,  ,  ,  ,  ,  ,  ,  ,  ,  ,  ,  ,  ,  ,  ,  ,  ,  ,  ,  ,  ,  ,  ,  ,  ,  ,  ,  ,  ,  ,  ,  ,  ,  ,  ,  ,  ,  ,  ,  ,  ,  ,  ,  ,  ,  ,  ,  ,  ,  ,  ,  ,  ,  ,  ,  ,  ,  ,  ,  ,  ,  ,  ,  ,  ,  ,  ,  ,  ,  ,  ,  ,  ,  ,  ,  ,  ,  ,  , 0=0+0:0:0:0:0
Ab minor blues (7b),  ,  ,  ,  ,  ,  ,  ,  ,  ,  ,  ,  ,  ,  ,  ,  ,  ,  ,  ,  ,  ,  ,  ,  ,  ,  ,  ,  ,  ,  ,  ,  ,  ,  ,  ,  ,  ,  ,  ,  ,  ,  ,  ,  ,  ,  ,  ,  ,  ,  ,  ,  ,  ,  ,  ,  ,  ,  ,  ,  ,  ,  ,  ,  ,  ,  ,  ,  ,  ,  ,  ,  ,  ,  ,  ,  ,  ,  ,  ,  ,  ,  ,  ,  ,  ,  ,  ,  ,  ,  ,  ,  ,  ,  ,  ,  ,  ,  ,  ,  ,  ,  ,  ,  ,  ,  ,  ,  ,  ,  ,  ,  ,  ,  ,  ,  ,  ,  ,  ,  ,  ,  ,  ,  ,  ,  ,  ,  ,  , 0=0+0:0:0:0:0
A# minor blues (7#),  ,  ,  ,  ,  ,  ,  ,  ,  ,  ,  ,  ,  ,  ,  ,  ,  ,  ,  ,  ,  ,  ,  ,  ,  ,  ,  ,  ,  ,  ,  ,  ,  ,  ,  ,  ,  ,  ,  ,  ,  ,  ,  ,  ,  ,  ,  ,  ,  ,  ,  ,  ,  ,  ,  ,  ,  ,  ,  ,  ,  ,  ,  ,  ,  ,  ,  ,  ,  ,  ,  ,  ,  ,  ,  ,  ,  ,  ,  ,  ,  ,  ,  ,  ,  ,  ,  ,  ,  ,  ,  ,  ,  ,  ,  ,  ,  ,  ,  ,  ,  ,  ,  ,  ,  ,  ,  ,  ,  ,  ,  ,  ,  ,  ,  ,  ,  ,  ,  ,  ,  ,  ,  ,  ,  ,  ,  ,  ,  , 0=0+0:0:0:0:0
Cb dorian (7b),  ,  ,  ,  ,  ,  ,  ,  ,  ,  ,  ,  ,  ,  ,  ,  ,  ,  ,  ,  ,  ,  ,  ,  ,  ,  ,  ,  ,  ,  ,  ,  ,  ,  ,  ,  ,  ,  ,  ,  ,  ,  ,  ,  ,  ,  ,  ,  ,  ,  ,  ,  ,  ,  ,  ,  ,  ,  ,  ,  ,  ,  ,  ,  ,  ,  ,  ,  ,  ,  ,  ,  ,  ,  ,  ,  ,  ,  ,  ,  ,  ,  ,  ,  ,  ,  ,  ,  ,  ,  ,  ,  ,  ,  ,  ,  ,  ,  ,  ,  ,  ,  ,  ,  ,  ,  ,  ,  ,  ,  ,  ,  ,  ,  ,  ,  ,  ,  ,  ,  ,  ,  ,  ,  ,  ,  ,  ,  ,  , 0=0+0:0:0:0:0
C# dorian (7#),  ,  ,  ,  ,  ,  ,  ,  ,  ,  ,  ,  ,  ,  ,  ,  ,  ,  ,  ,  ,  ,  ,  ,  ,  ,  ,  ,  ,  ,  ,  ,  ,  ,  ,  ,  ,  ,  ,  ,  ,  ,  ,  ,  ,  ,  ,  ,  ,  ,  ,  ,  ,  ,  ,  ,  ,  ,  ,  ,  ,  ,  ,  ,  ,  ,  ,  ,  ,  ,  ,  ,  ,  ,  ,  ,  ,  ,  ,  ,  ,  ,  ,  ,  ,  ,  ,  ,  ,  ,  ,  ,  ,  ,  ,  ,  ,  ,  ,  ,  ,  ,  ,  ,  ,  ,  ,  ,  ,  ,  ,  ,  ,  ,  ,  ,  ,  ,  ,  ,  ,  ,  ,  ,  ,  ,  ,  ,  ,  , 0=0+0:0:0:0:0
Cb phrygian (7b),  ,  ,  ,  ,  ,  ,  ,  ,  ,  ,  ,  ,  ,  ,  ,  ,  ,  ,  ,  ,  ,  ,  ,  ,  ,  ,  ,  ,  ,  ,  ,  ,  ,  ,  ,  ,  ,  ,  ,  ,  ,  ,  ,  ,  ,  ,  ,  ,  ,  ,  ,  ,  ,  ,  ,  ,  ,  ,  ,  ,  ,  ,  ,  ,  ,  ,  ,  ,  ,  ,  ,  ,  ,  ,  ,  ,  ,  ,  ,  ,  ,  ,  ,  ,  ,  ,  ,  ,  ,  ,  ,  ,  ,  ,  ,  ,  ,  ,  ,  ,  ,  ,  ,  ,  ,  ,  ,  ,  ,  ,  ,  ,  ,  ,  ,  ,  ,  ,  ,  ,  ,  ,  ,  ,  ,  ,  ,  ,  , 0=0+0:0:0:0:0
C# phrygian (7#),  ,  ,  ,  ,  ,  ,  ,  ,  ,  ,  ,  ,  ,  ,  ,  ,  ,  ,  ,  ,  ,  ,  ,  ,  ,  ,  ,  ,  ,  ,  ,  ,  ,  ,  ,  ,  ,  ,  ,  ,  ,  ,  ,  ,  ,  ,  ,  ,  ,  ,  ,  ,  ,  ,  ,  ,  ,  ,  ,  ,  ,  ,  ,  ,  ,  ,  ,  ,  ,  ,  ,  ,  ,  ,  ,  ,  ,  ,  ,  ,  ,  ,  ,  ,  ,  ,  ,  ,  ,  ,  ,  ,  ,  ,  ,  ,  ,  ,  ,  ,  ,  ,  ,  ,  ,  ,  ,  ,  ,  ,  ,  ,  ,  ,  ,  ,  ,  ,  ,  ,  ,  ,  ,  ,  ,  ,  ,  ,  , 0=0+0:0:0:0:0
Cb lydian (7b),  ,  ,  ,  ,  ,  ,  ,  ,  ,  ,  ,  ,  ,  ,  ,  ,  ,  ,  ,  ,  ,  ,  ,  ,  ,  ,  ,  ,  ,  ,  ,  ,  ,  ,  ,  ,  ,  ,  ,  ,  ,  ,  ,  ,  ,  ,  ,  ,  ,  ,  ,  ,  ,  ,  ,  ,  ,  ,  ,  ,  ,  ,  ,  ,  ,  ,  ,  ,  ,  ,  ,  ,  ,  ,  ,  ,  ,  ,  ,  ,  ,  ,  ,  ,  ,  ,  ,  ,  ,  ,  ,  ,  ,  ,  ,  ,  ,  ,  ,  ,  ,  ,  ,  ,  ,  ,  ,  ,  ,  ,  ,  ,  ,  ,  ,  ,  ,  ,  ,  ,  ,  ,  ,  ,  ,  ,  ,  ,  , 0=0+0:0:0:0:0
C# lydian (7#),  ,  ,  ,  ,  ,  ,  ,  ,  ,  ,  ,  ,  ,  ,  ,  ,  ,  ,  ,  ,  ,  ,  ,  ,  ,  ,  ,  ,  ,  ,  ,  ,  ,  ,  ,  ,  ,  ,  ,  ,  ,  ,  ,  ,  ,  ,  ,  ,  ,  ,  ,  ,  ,  ,  ,  ,  ,  ,  ,  ,  ,  ,  ,  ,  ,  ,  ,  ,  ,  ,  ,  ,  ,  ,  ,  ,  ,  ,  ,  ,  ,  ,  ,  ,  ,  ,  ,  ,  ,  ,  ,  ,  ,  ,  ,  ,  ,  ,  ,  ,  ,  ,  ,  ,  ,  ,  ,  ,  ,  ,  ,  ,  ,  ,  ,  ,  ,  ,  ,  ,  ,  ,  ,  ,  ,  ,  ,  ,  , 0=0+0:0:0:0:0
Cb mixolydian (7b),  ,  ,  ,  ,  ,  ,  ,  ,  ,  ,  ,  ,  ,  ,  ,  ,  ,  ,  ,  ,  ,  ,  ,  ,  ,  ,  ,  ,  ,  ,  ,  ,  ,  ,  ,  ,  ,  ,  ,  ,  ,  ,  ,  ,  ,  ,  ,  ,  ,  ,  ,  ,  ,  ,  ,  ,  ,  ,  ,  ,  ,  ,  ,  ,  ,  ,  ,  ,  ,  ,  ,  ,  ,  ,  ,  ,  ,  ,  ,  ,  ,  ,  ,  ,  ,  ,  ,  ,  ,  ,  ,  ,  ,  ,  ,  ,  ,  ,  ,  ,  ,  ,  ,  ,  ,  ,  ,  ,  ,  ,  ,  ,  ,  ,  ,  ,  ,  ,  ,  ,  ,  ,  ,  ,  ,  ,  ,  ,  , 0=0+0:0:0:0:0
C# mixolydian (7#),  ,  ,  ,  ,  ,  ,  ,  ,  ,  ,  ,  ,  ,  ,  ,  ,  ,  ,  ,  ,  ,  ,  ,  ,  ,  ,  ,  ,  ,  ,  ,  ,  ,  ,  ,  ,  ,  ,  ,  ,  ,  ,  ,  ,  ,  ,  ,  ,  ,  ,  ,  ,  ,  ,  ,  ,  ,  ,  ,  ,  ,  ,  ,  ,  ,  ,  ,  ,  ,  ,  ,  ,  ,  ,  ,  ,  ,  ,  ,  ,  ,  ,  ,  ,  ,  ,  ,  ,  ,  ,  ,  ,  ,  ,  ,  ,  ,  ,  ,  ,  ,  ,  ,  ,  ,  ,  ,  ,  ,  ,  ,  ,  ,  ,  ,  ,  ,  ,  ,  ,  ,  ,  ,  ,  ,  ,  ,  ,  , 0=0+0:0:0:0:0
Cb aeolian (7b),  ,  ,  ,  ,  ,  ,  ,  ,  ,  ,  ,  ,  ,  ,  ,  ,  ,  ,  ,  ,  ,  ,  ,  ,  ,  ,  ,  ,  ,  ,  ,  ,  ,  ,  ,  ,  ,  ,  ,  ,  ,  ,  ,  ,  ,  ,  ,  ,  ,  ,  ,  ,  ,  ,  ,  ,  ,  ,  ,  ,  ,  ,  ,  ,  ,  ,  ,  ,  ,  ,  ,  ,  ,  ,  ,  ,  ,  ,  ,  ,  ,  ,  ,  ,  ,  ,  ,  ,  ,  ,  ,  ,  ,  ,  ,  ,  ,  ,  ,  ,  ,  ,  ,  ,  ,  ,  ,  ,  ,  ,  ,  ,  ,  ,  ,  ,  ,  ,  ,  ,  ,  ,  ,  ,  ,  ,  ,  ,  , 0=0+0:0:0:0:0
C# aeolian (7#),  ,  ,  ,  ,  ,  ,  ,  ,  ,  ,  ,  ,  ,  ,  ,  ,  ,  ,  ,  ,  ,  ,  ,  ,  ,  ,  ,  ,  ,  ,  ,  ,  ,  ,  ,  ,  ,  ,  ,  ,  ,  ,  ,  ,  ,  ,  ,  ,  ,  ,  ,  ,  ,  ,  ,  ,  ,  ,  ,  ,  ,  ,  ,  ,  ,  ,  ,  ,  ,  ,  ,  ,  ,  ,  ,  ,  ,  ,  ,  ,  ,  ,  ,  ,  ,  ,  ,  ,  ,  ,  ,  ,  ,  ,  ,  ,  ,  ,  ,  ,  ,  ,  ,  ,  ,  ,  ,  ,  ,  ,  ,  ,  ,  ,  ,  ,  ,  ,  ,  ,  ,  ,  ,  ,  ,  ,  ,  ,  , 0=0+0:0:0:0:0
Cb locrian (7b),  ,  ,  ,  ,  ,  ,  ,  ,  ,  ,  ,  ,  ,  ,  ,  ,  ,  ,  ,  ,  ,  ,  ,  ,  ,  ,  ,  ,  ,  ,  ,  ,  ,  ,  ,  ,  ,  ,  ,  ,  ,  ,  ,  ,  ,  ,  ,  ,  ,  ,  ,  ,  ,  ,  ,  ,  ,  ,  ,  ,  ,  ,  ,  ,  ,  ,  ,  ,  ,  ,  ,  ,  ,  ,  ,  ,  ,  ,  ,  ,  ,  ,  ,  ,  ,  ,  ,  ,  ,  ,  ,  ,  ,  ,  ,  ,  ,  ,  ,  ,  ,  ,  ,  ,  ,  ,  ,  ,  ,  ,  ,  ,  ,  ,  ,  ,  ,  ,  ,  ,  ,  ,  ,  ,  ,  ,  ,  ,  , 0=0+0:0:0:0:0
C# locrian (7#),  ,  ,  ,  ,  ,  ,  ,  ,  ,  ,  ,  ,  ,  ,  ,  ,  ,  ,  ,  ,  ,  ,  ,  ,  ,  ,  ,  ,  ,  ,  ,  ,  ,  ,  ,  ,  ,  ,  ,  ,  ,  ,  ,  ,  ,  ,  ,  ,  ,  ,  ,  ,  ,  ,  ,  ,  ,  ,  ,  ,  ,  ,  ,  ,  ,  ,  ,  ,  ,  ,  ,  ,  ,  ,  ,  ,  ,  ,  ,  ,  ,  ,  ,  ,  ,  ,  ,  ,  ,  ,  ,  ,  ,  ,  ,  ,  ,  ,  ,  ,  ,  ,  ,  ,  ,  ,  ,  ,  ,  ,  ,  ,  ,  ,  ,  ,  ,  ,  ,  ,  ,  ,  ,  ,  ,  ,  ,  ,  , 0=0+0:0:0:0:0
