 , 0, 1, 2, 3, 4, 5, 6, 7, 8, 9, 10, 11, 12, 13, 14, 15, 16, 17, 18, 19, 20, 21, 22, 23, 24, 25, 26, 27, 28, 29, 30, 31, 32, 33, 34, 35, 36, 37, 38, 39, 40, 41, 42, 43, 44, 45, 46, 47, 48, 49, 50, 51, 52, 53, 54, 55, 56, 57, 58, 59, 60, 61, 62, 63, 64, 65, 66, 67, 68, 69, 70, 71, 72, 73, 74, 75, 76, 77, 78, 79, 80, 81, 82, 83, 84, 85, 86, 87, 88, 89, 90, 91, 92, 93, 94, 95, 96, 97, 98, 99, 100, 101, 102, 103, 104, 105, 106, 107, 108, 109, 110, 111, 112, 113, 114, 115, 116, 117, 118, 119, 120, 121, 122, 123, 124, 125, 126, 127, 128, 129, 130, 131, 132, 133, 134, 135, 136, 137, 138, 139, 140, 141, 142, 143, 144, 145, 146, 147, 148, 149, 150, 151, 152, 153, 154, 155, 156, 157, 158, 159, 160, 161, 162, 163, 164, 165, 166, 167, 168, 169, 170, rowcost
C major (0), 0+0:0:0:0:0, 0+0:0:0:0:0, 0+0:0:0:0:0, 1+0:0:0:0:0, 2+3:0:0:0:0, 0+0:0:0:0:0, 2+0:0:0:0:0, 0+0:0:0:0:0, 0+0:0:0:0:0, 0+0:0:0:0:0, 0+0:0:0:0:0, 1+6:0:0:0:0, 2+3:0:0:0:0, 1+0:0:0:0:0, 1+0:0:0:0:0, 0+0:0:0:0:0, 1+0:0:0:0:0, 1+0:0:0:0:0, 0+0:0:0:0:0, 0+0:0:0:0:0, 2+1:0:0:0:0, 0+0:0:0:0:0, 0+0:0:0:0:0, 1+3:0:0:0:0, 2+3:0:0:0:0, 1+1:0:0:0:0, 1+1:0:0:0:0, 0+0:0:0:0:0, 1+3:0:0:0:0, 2+2:0:0:0:0, 1+0:0:0:0:0, 0+0:0:0:0:0, 0+0:0:0:0:0, 2+1:0:0:0:0, 1+1:0:0:0:0, 2+1:0:0:0:0, 3+3:0:0:0:0, 1+1:0:0:0:0, 1+1:0:0:0:0, 0+0:0:0:0:0, 2+1:0:0:0:0, 1+1:0:0:0:1, 1+1:0:0:0:0, 3+2:0:0:0:0, 2+2:0:0:0:0, 1+2:0:0:0:0, 1+1:0:0:0:0, 2+1:0:0:0:0, 3+1:0:0:0:0, 2+1:0:0:0:0, 1+1:0:0:0:0, 1+1:0:0:0:0, 1+1:0:0:0:1, 1+0:0:0:0:0, 0+0:0:0:0:0, 2+2:0:0:0:0, 3+1:0:0:0:0, 2+1:0:0:0:1, 1+1:0:0:0:0, 0+0:0:0:0:0, 1+2:0:0:0:0, 3+2:0:0:0:0, 2+0:0:0:0:0, 1+1:0:0:0:0, 0+0:0:0:0:0, 0+0:0:0:0:0, 1+1:0:0:0:0, 2+1:0:0:0:0, 2+2:0:0:0:0, 2+2:0:0:0:2, 2+1:0:0:0:0, 1+1:0:0:0:0, 2+1:0:0:0:0, 0+0:0:0:0:0, 0+0:0:0:0:0, 2+2:0:0:0:0, 3+3:0:0:0:0, 1+1:0:0:0:0, 1+1:0:0:0:0, 0+0:0:0:0:0, 1+0:0:0:0:0, 1+2:0:0:0:0, 2+2:0:0:0:0, 2+1:0:0:0:0, 2+1:1:0:0:1, 2+1:0:0:0:0, 1+1:0:0:0:0, 2+1:0:0:0:0, 3+1:0:0:0:0, 2+1:0:0:0:0, 1+1:0:0:0:0, 0+0:0:0:0:0, 3+2:1:0:0:1, 3+3:0:0:0:0, 0+0:0:0:0:0, 1+0:0:0:0:0, 2+1:0:0:0:0, 0+0:0:0:0:0, 1+1:0:0:0:0, 2+1:0:0:0:0, 2+3:0:0:0:0, 2+1:1:0:0:1, 3+1:0:0:0:0, 1+1:0:0:0:0, 2+1:0:0:0:0, 0+0:0:0:0:0, 0+0:0:0:0:0, 2+2:0:0:0:0, 3+3:0:0:0:0, 1+1:0:0:0:0, 1+1:0:0:0:0, 0+0:0:0:0:0, 2+1:0:0:0:0, 1+2:0:0:0:0, 2+2:0:0:0:0, 2+1:0:0:0:0, 2+1:1:0:0:1, 2+1:0:0:0:0, 1+1:0:0:0:0, 2+1:0:0:0:0, 3+1:0:0:0:0, 2+1:0:0:0:0, 1+1:0:0:0:0, 0+0:0:0:0:0, 1+0:0:0:0:0, 3+3:0:0:0:0, 0+0:0:0:0:0, 1+0:0:0:0:0, 2+1:0:0:0:0, 1+1:0:0:0:1, 1+1:0:0:0:0, 3+1:0:0:0:0, 3+2:0:0:0:0, 1+1:0:0:0:0, 0+0:0:0:0:0, 1+1:0:0:0:0, 1+0:0:0:0:0, 1+0:0:0:0:0, 1+0:0:0:0:0, 2+1:1:0:0:1, 4+3:0:1:0:1, 1+1:0:0:0:0, 1+1:0:0:0:0, 1+0:0:0:0:0, 1+0:0:0:0:0, 0+0:0:0:0:0, 1+2:0:0:0:0, 0+0:0:0:0:0, 0+0:0:0:0:0, 1+1:0:0:0:0, 0+0:0:0:0:0, 3+2:0:0:0:0, 2+0:0:0:0:0, 2+1:0:0:0:0, 0+0:0:0:0:0, 0+0:0:0:0:0, 4+2:1:0:0:1, 2+0:0:0:0:0, 2+1:0:0:0:0, 0+0:0:0:0:0, 1+0:0:0:0:0, 2+1:0:0:0:0, 2+0:0:0:0:0, 2+1:0:0:0:0, 0+0:0:0:0:0, 2+1:0:0:0:0, 0+0:0:0:0:0, 0+0:0:0:0:0, 0+0:0:0:0:0, 0+0:0:0:0:0, 0+0:0:0:0:0, 213+152:6:1:0:13
A minor (0), 0+3:0:0:0:0, 0+0:0:0:0:0, 0+0:0:0:0:0, 1+0:0:0:0:0, 2+3:0:0:0:0, 0+0:0:0:0:0, 2+0:0:0:0:0, 0+0:0:0:0:0, 0+2:0:0:0:0, 0+0:0:0:0:0, 0+1:0:0:0:0, 1+0:0:0:0:0, 2+2:0:0:0:0, 1+1:0:0:0:0, 1+2:0:0:0:0, 0+2:0:0:0:0, 1+0:0:0:0:0, 1+0:0:0:0:0, 0+0:0:0:0:0, 0+0:0:0:0:0, 2+1:0:0:0:0, 0+0:0:0:0:0, 0+1:0:0:0:0, 1+1:0:0:0:0, 2+0:0:0:0:0, 1+1:0:0:0:0, 1+0:0:0:0:0, 0+2:0:0:0:0, 1+3:0:0:0:0, 2+2:0:0:0:0, 1+3:0:0:0:0, 0+3:0:0:0:0, 0+4:0:0:0:0, 2+2:0:0:0:0, 1+2:0:0:0:0, 2+2:0:0:0:0, 3+3:0:0:0:1, 1+1:0:0:0:0, 1+0:0:0:0:0, 0+2:0:0:0:0, 3+3:0:0:0:0, 1+2:0:0:0:0, 1+2:0:0:0:1, 2+4:0:1:0:1, 2+4:0:0:0:0, 1+2:0:0:0:2, 1+1:0:0:0:0, 2+1:0:0:0:0, 2+2:0:0:0:0, 2+1:0:0:0:0, 1+1:0:0:0:0, 1+3:0:0:0:0, 2+2:0:0:0:0, 1+0:0:0:0:0, 0+1:0:0:0:0, 2+2:0:0:0:0, 3+3:0:0:0:2, 2+1:0:0:0:0, 1+1:0:0:0:0, 0+2:0:0:0:0, 1+2:0:0:0:0, 3+2:0:0:0:0, 2+0:0:0:0:0, 1+3:0:0:0:0, 0+3:0:0:0:0, 0+1:0:0:0:0, 1+1:0:0:0:0, 2+1:0:0:0:0, 2+2:0:0:0:0, 2+2:0:0:0:1, 3+1:0:0:0:0, 2+2:0:0:0:0, 2+2:0:0:0:0, 0+1:0:0:0:0, 0+1:0:0:0:0, 2+2:0:0:0:0, 3+3:0:0:0:0, 1+1:0:0:0:0, 1+0:0:0:0:0, 0+4:0:0:0:0, 1+3:0:0:0:0, 1+3:0:0:0:0, 2+0:0:0:0:0, 1+3:0:0:0:1, 2+1:0:0:0:0, 2+3:0:0:0:1, 1+2:0:0:0:0, 2+2:0:0:0:0, 3+2:0:0:0:0, 2+1:0:0:0:1, 1+1:0:0:0:1, 0+2:0:0:0:0, 3+1:1:0:0:0, 3+3:0:0:0:1, 0+0:0:0:0:0, 1+0:0:0:0:0, 1+2:0:0:0:0, 0+1:0:0:0:0, 1+1:0:0:0:0, 2+1:0:0:0:0, 2+1:0:0:0:0, 2+1:0:0:0:0, 3+1:0:0:0:0, 2+2:0:0:0:0, 2+2:0:0:0:0, 0+1:0:0:0:0, 0+1:0:0:0:0, 2+2:0:0:0:0, 3+3:0:0:0:0, 1+1:0:0:0:0, 1+0:0:0:0:0, 0+4:0:0:0:0, 2+4:0:0:0:0, 1+3:0:0:0:0, 2+0:0:0:0:0, 1+3:0:0:0:1, 2+1:0:0:0:0, 2+3:0:0:0:1, 1+2:0:0:0:0, 2+2:0:0:0:0, 3+2:0:0:0:0, 2+1:0:0:0:1, 1+1:0:0:0:1, 0+2:0:0:0:0, 1+0:0:0:0:0, 3+3:0:0:0:1, 0+0:0:0:0:0, 1+0:0:0:0:0, 1+2:0:0:0:0, 1+2:0:0:0:0, 1+2:0:0:0:0, 3+2:0:0:0:0, 3+2:0:0:0:0, 1+1:0:0:0:0, 0+0:0:0:0:0, 1+3:0:0:0:0, 1+1:0:0:0:0, 1+1:0:0:0:0, 1+1:0:0:0:0, 2+1:1:0:0:0, 4+3:0:1:0:1, 1+1:0:0:0:0, 1+2:0:0:0:0, 1+0:0:0:0:0, 1+0:0:0:0:0, 0+2:0:0:0:0, 1+0:0:0:0:0, 0+3:0:0:0:0, 0+4:0:0:0:0, 1+2:0:0:0:1, 0+2:0:0:0:0, 3+2:0:0:0:0, 2+1:0:0:0:0, 2+0:0:0:0:0, 0+0:0:0:0:0, 0+1:0:0:0:0, 4+4:1:0:0:0, 2+4:0:0:0:0, 2+0:0:0:0:0, 0+4:0:0:0:0, 1+0:0:0:0:0, 2+1:0:0:0:0, 2+0:0:0:0:0, 1+1:0:0:0:1, 0+1:0:0:0:0, 2+1:0:0:0:0, 0+0:0:0:0:0, 0+2:0:0:0:0, 0+2:0:0:0:0, 0+2:0:0:0:0, 0+1:0:0:0:0, 211+263:3:2:0:21
F major (1b), 0+0:0:0:0:0, 0+0:0:0:0:0, 0+0:0:0:0:0, 0+0:0:0:0:0, 1+0:0:0:0:0, 0+0:0:0:0:0, 2+4:0:0:0:0, 0+0:0:0:0:0, 1+0:0:0:0:0, 0+0:0:0:0:0, 0+0:0:0:0:0, 0+0:0:0:0:0, 1+0:0:0:0:0, 1+0:0:0:0:0, 1+0:0:0:0:0, 0+0:0:0:0:0, 0+0:0:0:0:0, 1+0:0:0:0:0, 0+0:0:0:0:0, 0+0:0:0:0:0, 1+1:0:0:0:0, 0+0:0:0:0:0, 0+0:0:0:0:0, 0+0:0:0:0:0, 1+0:0:0:0:0, 1+0:0:0:0:0, 1+1:0:0:0:0, 0+0:0:0:0:0, 1+1:0:1:0:1, 1+0:0:0:0:0, 1+0:0:0:0:0, 0+0:0:0:0:0, 0+0:0:0:0:0, 2+1:0:0:0:0, 1+1:0:0:0:0, 1+1:0:0:0:0, 2+3:0:0:0:0, 2+1:0:0:0:0, 1+1:0:0:0:0, 0+0:0:0:0:0, 2+1:0:0:0:0, 1+1:0:0:0:1, 1+1:0:0:0:0, 1+1:0:1:0:0, 1+0:0:0:0:0, 1+0:0:0:0:0, 1+1:0:0:0:0, 1+1:0:0:0:0, 3+1:0:0:0:0, 2+1:0:0:0:0, 1+1:0:0:0:0, 1+1:0:0:0:0, 1+1:0:0:0:0, 1+0:0:0:0:0, 0+0:0:0:0:0, 1+1:0:0:0:0, 3+2:0:0:0:0, 2+1:0:0:0:0, 1+1:0:0:0:0, 1+0:0:0:0:0, 2+2:0:0:0:0, 2+2:0:0:0:0, 2+0:0:0:0:0, 1+1:0:0:0:0, 1+0:0:0:0:0, 0+0:0:0:0:0, 1+1:1:0:0:1, 1+0:0:0:0:0, 1+0:0:0:0:0, 2+2:1:0:0:1, 1+1:0:0:0:0, 1+1:0:0:0:0, 2+2:0:0:0:0, 0+0:0:0:0:0, 1+0:0:0:0:0, 1+1:0:0:0:0, 2+1:0:0:0:0, 2+1:0:0:0:0, 1+1:0:0:0:0, 0+0:0:0:0:0, 1+1:0:0:0:0, 1+0:0:0:0:0, 2+2:0:0:0:0, 1+1:0:0:0:0, 2+1:0:0:0:0, 1+1:0:0:0:0, 1+1:0:0:0:0, 1+1:0:0:0:0, 2+1:0:0:0:0, 2+1:0:0:0:0, 1+1:0:0:0:0, 1+0:0:0:0:0, 2+2:1:0:0:1, 2+1:0:0:0:0, 0+0:0:0:0:0, 0+0:0:0:0:0, 1+1:0:0:0:0, 0+4:0:0:0:0, 1+1:1:0:0:1, 1+0:0:0:0:0, 1+0:0:0:0:0, 1+1:1:0:0:1, 2+1:0:0:0:0, 1+1:0:0:0:0, 2+2:0:0:0:0, 0+0:0:0:0:0, 1+0:0:0:0:0, 1+1:0:0:0:0, 2+1:0:0:0:0, 2+1:0:0:0:0, 1+1:0:0:0:0, 0+0:0:0:0:0, 2+2:0:0:0:0, 1+0:0:0:0:0, 2+2:0:0:0:0, 1+1:0:0:0:0, 2+1:0:0:0:0, 1+1:0:0:0:0, 1+1:0:0:0:0, 1+1:0:0:0:0, 2+1:0:0:0:0, 2+1:0:0:0:0, 1+1:0:0:0:0, 1+0:0:0:0:0, 0+0:0:0:0:0, 2+1:0:0:0:0, 0+0:0:0:0:0, 0+0:0:0:0:0, 1+1:0:0:0:0, 1+1:0:0:0:0, 1+1:0:0:0:0, 2+1:0:0:0:0, 2+2:0:0:0:0, 2+1:0:0:0:0, 0+0:0:0:0:0, 1+1:0:0:0:0, 0+0:0:0:0:0, 1+0:0:0:0:0, 0+0:0:0:0:0, 1+1:1:0:0:1, 4+2:0:0:0:0, 2+1:0:0:0:0, 1+1:0:0:0:0, 0+0:0:0:0:0, 0+0:0:0:0:0, 0+0:0:0:0:0, 1+2:0:0:0:0, 0+0:0:0:0:0, 1+0:0:0:0:0, 1+1:0:0:0:0, 0+0:0:0:0:0, 2+2:0:0:0:0, 1+0:0:0:0:0, 1+1:0:0:0:0, 0+0:0:0:0:0, 0+0:0:0:0:0, 3+2:1:0:0:1, 1+0:0:0:0:0, 2+0:0:0:0:0, 0+0:0:0:0:0, 2+0:0:0:0:0, 1+1:0:0:0:0, 2+0:0:0:0:0, 1+1:0:0:0:1, 0+0:0:0:0:0, 1+0:0:0:0:0, 0+0:0:0:0:0, 0+0:0:0:0:0, 0+0:0:0:0:0, 0+0:0:0:0:0, 0+0:0:0:0:0, 169+112:7:2:0:10
G major (1#), 0+0:0:0:0:0, 0+0:0:0:0:0, 1+3:0:0:0:0, 2+2:0:0:0:0, 2+0:0:0:0:0, 0+0:0:0:0:0, 2+4:0:0:0:0, 1+1:0:0:0:0, 0+0:0:0:0:0, 0+0:0:0:0:0, 1+3:0:0:0:0, 2+1:0:0:0:0, 2+0:0:0:0:0, 1+0:0:0:0:0, 0+0:0:0:0:0, 0+0:0:0:0:0, 1+0:0:0:0:0, 1+0:0:0:0:0, 0+0:0:0:0:0, 0+0:0:0:0:0, 1+1:0:0:0:1, 0+0:0:0:0:0, 1+2:0:0:0:0, 2+1:0:0:0:0, 2+0:0:0:0:0, 1+0:0:0:0:0, 1+1:0:0:0:0, 0+0:0:0:0:0, 2+3:0:0:0:0, 2+0:0:0:0:0, 0+0:0:0:0:0, 0+0:0:0:0:0, 0+0:0:0:0:0, 1+1:0:0:0:0, 2+2:0:0:0:0, 3+2:0:0:0:0, 3+1:0:0:0:0, 1+1:0:0:0:0, 1+1:0:0:0:0, 1+0:0:0:0:0, 2+2:0:0:0:0, 1+1:0:0:0:0, 2+1:0:0:0:0, 3+4:0:1:0:1, 2+0:0:0:0:0, 1+0:0:0:0:0, 2+1:0:0:0:0, 1+1:0:0:0:1, 2+1:1:0:0:1, 2+1:0:0:0:1, 2+1:0:0:0:0, 2+1:0:0:0:0, 1+1:0:0:0:1, 1+0:0:0:0:0, 1+1:0:0:0:0, 2+2:0:0:0:0, 4+3:0:0:0:0, 2+1:0:0:0:1, 2+1:0:0:0:0, 0+0:0:0:0:0, 2+2:0:0:0:0, 4+2:0:0:0:0, 1+1:0:0:0:0, 2+1:0:0:0:0, 0+0:0:0:0:0, 0+0:0:0:0:0, 2+2:0:0:0:0, 3+1:0:0:0:0, 3+1:0:0:0:0, 2+2:0:0:0:1, 2+1:0:0:0:1, 2+2:0:0:0:0, 2+1:0:0:0:0, 0+0:0:0:0:0, 1+0:0:0:0:0, 3+2:0:0:0:0, 4+3:0:0:0:0, 1+1:0:0:0:0, 1+1:0:0:0:0, 0+0:0:0:0:0, 1+1:0:0:0:0, 1+0:0:0:0:0, 1+1:0:0:0:0, 1+1:0:0:0:1, 2+1:1:0:0:0, 1+0:0:0:0:0, 2+2:0:0:0:0, 2+1:0:0:0:0, 4+2:0:0:0:0, 2+1:0:0:0:1, 2+1:0:0:0:0, 0+0:0:0:0:0, 4+2:1:0:0:1, 3+1:0:0:0:0, 0+0:0:0:0:0, 1+0:0:0:0:0, 1+1:0:0:0:0, 0+0:0:0:0:0, 2+2:0:0:0:0, 3+1:0:0:0:0, 3+1:0:0:0:0, 2+1:1:0:0:0, 3+1:0:0:0:1, 2+2:0:0:0:0, 2+1:0:0:0:0, 0+0:0:0:0:0, 1+0:0:0:0:0, 3+2:0:0:0:0, 4+3:0:0:0:0, 1+1:0:0:0:0, 1+1:0:0:0:0, 0+0:0:0:0:0, 2+1:0:0:0:0, 1+0:0:0:0:0, 1+1:0:0:0:0, 1+1:0:0:0:1, 2+1:1:0:0:0, 1+0:0:0:0:0, 2+2:0:0:0:0, 2+1:0:0:0:0, 4+2:0:0:0:0, 2+1:0:0:0:1, 2+1:0:0:0:0, 0+0:0:0:0:0, 2+3:0:0:0:0, 3+1:0:0:0:0, 0+0:0:0:0:0, 1+0:0:0:0:0, 1+1:0:0:0:0, 1+1:0:0:0:0, 2+1:0:0:0:0, 3+1:0:0:0:0, 3+2:0:0:0:0, 1+1:0:0:0:0, 1+0:0:0:0:0, 2+1:0:0:0:0, 1+0:0:0:0:0, 2+1:0:0:0:0, 2+1:0:0:0:0, 2+1:1:1:0:1, 4+3:0:1:0:1, 1+1:0:0:0:0, 2+1:0:0:0:0, 1+0:0:0:0:0, 1+0:0:0:0:0, 0+0:0:0:0:0, 1+2:0:0:0:0, 0+0:0:0:0:0, 0+0:0:0:0:0, 1+0:0:0:0:0, 1+2:0:0:0:0, 3+2:0:0:0:1, 3+1:0:0:0:0, 2+1:0:0:0:1, 0+0:0:0:0:0, 0+0:0:0:0:0, 5+4:1:0:0:0, 2+0:0:0:0:0, 1+0:0:0:0:0, 1+0:0:0:0:0, 1+0:0:0:0:0, 2+0:0:0:0:0, 1+0:0:0:0:0, 1+1:0:0:0:0, 0+0:0:0:0:0, 2+0:0:0:0:0, 0+0:0:0:0:0, 0+0:0:0:0:0, 0+0:0:0:0:0, 0+0:0:0:0:0, 0+0:0:0:0:0, 248+151:7:3:0:19
D minor (1b), 0+0:0:0:0:0, 0+2:0:0:0:0, 0+2:0:0:0:0, 0+0:0:0:0:0, 1+0:0:0:0:0, 0+0:0:0:0:0, 2+4:0:0:0:0, 0+0:0:0:0:0, 1+2:0:0:0:0, 0+3:0:0:0:0, 0+0:0:0:0:0, 0+0:0:0:0:0, 1+0:0:0:0:0, 1+0:0:0:0:0, 1+0:0:0:0:0, 0+0:0:0:0:0, 0+0:0:0:0:0, 1+0:0:0:0:0, 0+0:0:0:0:0, 0+0:0:0:0:0, 1+1:0:0:0:0, 0+2:0:0:0:0, 0+1:0:0:0:0, 0+1:0:0:0:0, 1+0:0:0:0:0, 1+0:0:0:0:0, 1+1:0:0:0:1, 0+2:0:0:0:0, 2+3:0:0:0:0, 1+2:0:0:0:0, 1+0:0:0:0:0, 0+0:0:0:0:0, 0+4:0:0:0:0, 2+2:0:0:0:0, 1+2:0:0:0:0, 1+2:0:0:0:0, 2+3:0:0:0:1, 2+1:0:0:0:0, 1+2:0:0:0:1, 0+0:0:0:0:0, 2+1:0:0:0:1, 1+2:0:0:0:0, 1+2:0:0:0:1, 1+4:0:1:0:1, 1+0:0:0:0:0, 1+0:0:0:0:0, 1+1:0:0:0:1, 1+1:0:0:0:0, 3+1:0:0:0:0, 2+1:0:0:0:1, 1+1:0:0:0:1, 1+1:0:0:0:0, 1+2:0:0:0:0, 1+0:0:0:0:0, 0+1:0:0:0:0, 1+2:0:0:0:0, 3+3:0:0:0:0, 2+1:0:0:0:1, 1+1:0:0:0:1, 1+2:0:0:0:0, 2+2:0:0:0:0, 2+2:0:0:0:0, 2+0:0:0:0:0, 1+1:0:0:0:0, 1+3:0:0:0:0, 0+4:0:0:0:0, 1+1:1:0:0:0, 1+1:0:0:0:0, 1+1:0:0:0:0, 2+2:1:0:0:0, 1+1:0:0:0:1, 1+1:0:0:0:1, 2+1:0:0:0:0, 0+5:0:0:0:0, 1+1:0:0:0:0, 1+2:0:0:0:0, 2+2:0:0:0:0, 2+2:0:0:0:0, 1+1:0:0:0:1, 0+0:0:0:0:0, 1+1:0:0:0:1, 1+2:0:0:0:0, 2+1:0:0:0:0, 1+1:0:0:0:0, 1+1:0:0:0:0, 1+3:0:0:0:1, 1+2:0:0:0:0, 1+2:0:0:0:0, 2+2:0:0:0:0, 2+1:0:0:0:1, 1+1:0:0:0:1, 1+2:0:0:0:0, 2+1:1:0:0:0, 2+1:0:0:0:0, 0+0:0:0:0:0, 0+0:0:0:0:0, 1+1:0:0:0:0, 0+4:0:0:0:0, 1+1:1:0:0:0, 1+1:0:0:0:0, 1+1:0:0:0:0, 1+1:0:0:0:0, 2+1:0:0:0:0, 1+1:0:0:0:1, 2+1:0:0:0:0, 0+5:0:0:0:0, 1+1:0:0:0:0, 1+2:0:0:0:0, 2+2:0:0:0:0, 2+2:0:0:0:0, 1+1:0:0:0:1, 0+0:0:0:0:0, 2+1:0:0:0:0, 1+2:0:0:0:0, 2+1:0:0:0:0, 1+1:0:0:0:0, 1+1:0:0:0:0, 1+3:0:0:0:1, 1+2:0:0:0:0, 1+2:0:0:0:0, 2+2:0:0:0:0, 2+1:0:0:0:1, 1+1:0:0:0:1, 1+2:0:0:0:0, 0+0:0:0:0:0, 2+1:0:0:0:0, 0+0:0:0:0:0, 0+0:0:0:0:0, 1+1:0:0:0:0, 1+2:0:0:0:0, 1+1:1:0:0:1, 2+1:0:0:0:0, 2+2:0:0:0:0, 2+2:0:0:0:0, 0+0:0:0:0:0, 1+1:0:0:0:0, 0+1:0:0:0:0, 1+1:0:0:0:0, 0+1:0:0:0:0, 1+1:0:0:0:0, 3+3:0:1:0:1, 2+1:0:0:0:0, 1+1:0:0:0:1, 0+0:0:0:0:0, 0+0:0:0:0:0, 0+0:0:0:0:0, 1+2:0:0:0:2, 0+0:0:0:0:0, 1+4:0:0:0:0, 1+3:0:0:0:0, 0+1:0:0:0:0, 2+2:0:0:0:0, 1+1:0:0:0:0, 1+0:0:0:0:0, 0+0:0:0:0:0, 0+1:0:0:0:0, 3+4:1:0:0:0, 1+0:0:0:0:0, 2+0:0:0:0:0, 0+0:0:0:0:0, 2+0:0:0:0:0, 1+1:0:0:0:0, 2+0:0:0:0:0, 1+1:0:0:0:1, 0+1:0:0:0:0, 1+0:0:0:0:0, 0+0:0:0:0:0, 0+0:0:0:0:0, 0+0:0:0:0:0, 0+0:0:0:0:0, 0+0:0:0:0:0, 167+208:6:2:0:29
E minor (1#), 0+1:0:0:0:0, 0+0:0:0:0:0, 1+0:0:0:0:0, 2+0:0:0:0:0, 2+0:0:0:0:0, 0+0:0:0:0:0, 2+4:0:0:0:0, 1+2:0:0:0:0, 0+0:0:0:0:0, 0+1:0:0:0:0, 1+1:0:0:0:0, 2+0:0:0:0:0, 2+0:0:0:0:0, 1+0:0:0:0:0, 0+0:0:0:0:0, 0+0:0:0:0:0, 1+0:0:0:0:0, 1+0:0:0:0:0, 0+0:0:0:0:0, 0+2:0:0:0:0, 1+2:0:0:0:0, 0+0:0:0:0:0, 1+1:0:0:0:0, 2+1:0:0:0:0, 2+0:0:0:0:0, 1+0:0:0:0:0, 1+0:0:0:0:0, 0+2:0:0:0:0, 2+3:0:0:0:0, 2+0:0:0:0:0, 0+0:0:0:0:0, 0+0:0:0:0:0, 0+1:0:0:0:0, 1+2:0:0:0:0, 2+2:0:0:0:0, 3+2:0:0:0:0, 3+3:0:0:0:1, 1+1:0:0:0:0, 1+0:0:0:0:0, 1+2:0:0:0:0, 3+3:0:0:0:0, 1+4:0:0:0:0, 2+3:0:0:0:0, 3+4:0:1:0:1, 2+0:0:0:0:0, 1+0:0:0:0:0, 2+1:0:0:0:0, 1+3:0:0:0:1, 2+2:0:0:0:0, 2+0:0:0:0:0, 2+1:0:0:0:0, 2+3:0:0:0:0, 1+2:0:0:0:1, 1+2:0:0:0:1, 1+0:0:0:0:0, 2+2:0:0:0:0, 4+3:0:0:0:0, 2+1:0:0:0:1, 2+1:0:0:0:0, 0+2:0:0:0:0, 2+2:0:0:0:0, 4+3:0:0:0:2, 1+0:0:0:0:0, 2+3:0:0:0:0, 0+1:0:0:0:0, 0+1:0:0:0:0, 2+3:0:0:0:0, 3+1:0:0:0:0, 3+1:0:0:0:0, 2+2:0:0:0:1, 2+1:0:0:0:1, 3+2:0:0:0:0, 2+1:0:0:0:0, 0+1:0:0:0:0, 1+1:0:0:0:0, 3+2:0:0:0:0, 4+2:0:0:0:0, 1+2:0:0:0:0, 1+0:0:0:0:0, 0+4:0:0:0:0, 1+3:0:0:0:0, 1+3:0:0:0:0, 1+0:0:0:0:0, 1+3:0:0:0:1, 2+1:0:0:0:0, 1+3:1:0:0:0, 2+2:0:0:0:0, 2+2:0:0:0:0, 4+2:0:0:0:0, 2+1:0:0:0:1, 2+1:0:0:0:0, 0+2:0:0:0:0, 4+1:1:0:0:0, 3+3:0:0:0:1, 0+0:0:0:0:0, 1+0:0:0:0:0, 1+2:0:0:0:0, 0+1:0:0:0:0, 2+3:0:0:0:0, 3+1:0:0:0:0, 3+1:0:0:0:0, 2+1:1:0:0:0, 3+1:0:0:0:0, 3+2:0:0:0:0, 2+1:0:0:0:0, 0+1:0:0:0:0, 1+1:0:0:0:0, 3+2:0:0:0:0, 4+2:0:0:0:0, 1+2:0:0:0:0, 1+2:0:0:0:0, 0+0:0:0:0:0, 2+1:0:0:0:0, 1+3:0:0:0:0, 1+0:0:0:0:0, 1+3:0:0:0:1, 2+1:0:0:0:0, 1+3:1:0:0:0, 2+2:0:0:0:0, 2+2:0:0:0:0, 4+2:0:0:0:0, 2+1:0:0:0:1, 2+1:0:0:0:0, 0+2:0:0:0:0, 2+3:0:0:0:0, 3+3:0:0:0:1, 0+0:0:0:0:0, 1+0:0:0:0:0, 1+2:0:0:0:0, 1+2:0:0:0:0, 2+2:0:0:0:0, 3+2:0:0:0:0, 3+1:0:0:0:0, 1+2:0:0:0:0, 1+0:0:0:0:0, 2+3:0:0:0:0, 1+1:0:0:0:0, 2+1:0:0:0:0, 2+1:0:0:0:0, 2+1:1:1:0:1, 4+3:0:1:0:1, 1+1:0:0:0:0, 2+2:0:0:0:0, 1+0:0:0:0:0, 1+0:0:0:0:0, 0+2:0:0:0:0, 1+0:0:0:0:0, 0+3:0:0:0:0, 0+1:0:0:0:0, 1+2:0:0:0:1, 1+2:0:0:0:0, 3+2:0:0:0:0, 3+1:0:0:0:0, 2+1:0:0:0:1, 0+0:0:0:0:0, 0+0:0:0:0:0, 5+4:1:0:0:0, 2+0:0:0:0:0, 1+0:0:0:0:0, 1+0:0:0:0:0, 1+0:0:0:0:0, 2+1:0:0:0:0, 1+1:0:0:0:0, 1+1:0:0:0:0, 0+0:0:0:0:0, 2+0:0:0:0:0, 0+0:0:0:0:0, 0+0:0:0:0:0, 0+0:0:0:0:0, 0+0:0:0:0:0, 0+0:0:0:0:0, 251+225:6:3:0:20
Bb major (2b), 0+0:0:0:0:0, 1+0:0:0:0:0, 0+0:0:0:0:0, 1+0:0:0:0:0, 0+0:0:0:0:0, 0+0:0:0:0:0, 1+4:0:0:0:0, 0+0:0:0:0:0, 1+0:0:0:0:0, 1+0:0:0:0:0, 0+0:0:0:0:0, 0+0:0:0:0:0, 0+0:0:0:0:0, 0+0:0:0:0:0, 1+0:0:0:0:0, 0+0:0:0:0:0, 0+0:0:0:0:0, 0+0:0:0:0:0, 0+0:0:0:0:0, 0+0:0:0:0:0, 1+1:0:0:0:0, 1+0:0:0:0:0, 0+0:0:0:0:0, 0+0:0:0:0:0, 0+0:0:0:0:0, 0+0:0:0:0:0, 1+1:0:0:0:0, 0+0:0:0:0:0, 2+1:0:1:0:1, 0+0:0:0:0:0, 1+0:0:0:0:0, 0+0:0:0:0:0, 0+0:0:0:0:0, 2+1:0:0:0:0, 1+1:0:0:0:0, 1+1:0:0:0:0, 1+1:0:0:0:0, 2+1:0:0:0:0, 1+1:0:0:0:0, 1+0:0:0:0:0, 2+1:0:0:0:0, 1+1:1:0:0:1, 2+1:0:0:0:0, 1+1:0:1:0:0, 0+0:0:0:0:0, 0+0:0:0:0:0, 2+1:0:0:0:0, 1+1:0:0:0:0, 3+1:0:0:0:0, 1+1:0:0:0:0, 2+1:0:0:0:0, 2+1:0:0:0:0, 1+1:0:0:0:0, 0+0:0:0:0:0, 1+0:0:0:0:0, 1+1:0:0:0:0, 2+2:0:0:0:0, 1+1:0:0:0:0, 2+1:0:0:0:0, 2+0:0:0:0:0, 2+2:0:0:0:0, 1+2:0:0:0:0, 2+1:0:0:0:0, 2+1:0:0:0:0, 1+0:0:0:0:0, 1+0:0:0:0:0, 1+1:1:0:0:1, 0+0:0:0:0:0, 0+1:0:0:0:0, 2+2:1:0:0:0, 1+1:0:0:0:1, 1+1:0:0:0:0, 2+1:0:0:0:0, 0+0:0:0:0:0, 2+4:0:0:0:0, 2+1:0:0:0:0, 1+1:0:0:0:0, 2+1:0:0:0:0, 1+1:0:0:0:0, 0+0:0:0:0:0, 1+0:0:0:0:0, 0+0:0:0:0:0, 2+2:0:0:0:0, 1+1:0:0:0:0, 1+1:1:0:0:1, 1+1:0:0:0:0, 1+1:1:0:0:1, 1+1:0:0:0:0, 1+1:0:0:0:0, 1+1:0:0:0:0, 2+1:0:0:0:0, 2+0:0:0:0:0, 3+2:1:0:0:1, 1+1:0:0:0:0, 0+0:0:0:0:0, 0+0:0:0:0:0, 2+1:0:0:0:0, 1+0:0:0:0:0, 1+1:1:0:0:1, 0+0:0:0:0:0, 0+0:0:0:0:0, 1+1:1:0:0:1, 2+1:0:0:0:0, 1+1:0:0:0:0, 2+1:0:0:0:0, 0+0:0:0:0:0, 1+4:0:0:0:0, 2+1:0:0:0:0, 1+1:0:0:0:0, 2+1:0:0:0:0, 1+1:0:0:0:0, 0+0:0:0:0:0, 2+1:0:0:0:0, 0+0:0:0:0:0, 2+2:0:0:0:0, 1+1:0:0:0:0, 1+1:1:0:0:1, 1+1:0:0:0:0, 1+1:1:0:0:1, 1+1:0:0:0:0, 1+1:0:0:0:0, 1+1:0:0:0:0, 2+1:0:0:0:0, 2+0:0:0:0:0, 1+0:0:0:0:0, 1+1:0:0:0:0, 0+0:0:0:0:0, 0+0:0:0:0:0, 2+1:0:0:0:0, 2+1:1:0:0:1, 1+1:1:0:0:1, 2+1:0:0:0:1, 1+1:0:0:0:0, 2+1:0:0:0:0, 1+0:0:0:0:0, 2+1:0:0:0:0, 0+0:0:0:0:0, 0+0:0:0:0:0, 0+0:0:0:0:0, 1+1:1:0:0:1, 2+1:0:1:0:0, 2+1:0:0:0:0, 2+1:0:0:0:0, 0+0:0:0:0:0, 0+0:0:0:0:0, 1+0:0:0:0:0, 1+2:0:0:0:0, 0+0:0:0:0:0, 1+0:0:0:0:0, 0+0:0:0:0:0, 0+0:0:0:0:0, 2+2:0:0:0:0, 0+0:0:0:0:0, 1+1:0:0:0:0, 0+0:0:0:0:0, 0+0:0:0:0:0, 2+2:1:0:0:1, 0+0:0:0:0:0, 2+1:0:0:0:0, 0+1:0:0:0:0, 3+2:0:0:0:0, 0+0:0:0:0:0, 2+1:0:0:0:0, 1+1:0:0:0:0, 1+0:0:0:0:0, 0+0:0:0:0:0, 0+0:0:0:0:0, 0+0:0:0:0:0, 0+0:0:0:0:0, 0+0:0:0:0:0, 0+0:0:0:0:0, 161+113:14:3:0:16
D major (2#), 0+0:0:0:0:0, 1+2:0:0:0:0, 2+2:0:0:0:0, 2+0:0:0:0:0, 2+3:0:0:0:0, 0+0:0:0:0:0, 3+4:0:0:0:0, 1+0:0:0:0:0, 0+0:0:0:0:0, 1+3:0:0:0:0, 1+0:0:0:0:0, 2+0:0:0:0:0, 2+2:0:0:0:0, 1+0:0:0:0:0, 0+0:0:0:0:0, 0+0:0:0:0:0, 1+0:0:0:0:0, 1+0:0:0:0:0, 0+0:0:0:0:0, 0+0:0:0:0:0, 2+1:0:0:0:0, 1+2:0:0:0:0, 2+1:0:0:0:0, 3+1:0:0:0:0, 2+0:0:0:0:0, 1+0:0:0:0:0, 1+1:0:0:0:1, 1+2:0:0:0:0, 2+1:0:0:0:0, 2+2:0:0:0:0, 0+0:0:0:0:0, 0+0:0:0:0:0, 0+0:0:0:0:0, 2+2:0:0:0:0, 2+1:1:0:0:0, 4+2:0:0:0:0, 3+3:0:0:0:1, 2+1:0:0:0:0, 2+2:0:0:0:1, 1+0:0:0:0:0, 1+1:1:0:0:1, 2+1:0:0:0:0, 3+2:0:0:0:1, 3+4:0:1:0:1, 3+0:0:0:0:0, 1+0:0:0:0:0, 2+1:0:0:0:1, 2+1:0:0:0:0, 3+2:0:0:0:0, 1+1:0:0:0:0, 2+1:0:0:0:1, 2+1:0:0:0:0, 3+2:0:0:0:0, 2+0:0:0:0:0, 2+1:0:0:0:0, 3+2:0:0:0:0, 4+3:0:0:0:0, 1+1:1:0:0:0, 2+1:0:0:0:1, 1+2:0:0:0:0, 2+2:0:0:0:0, 4+2:0:0:0:0, 0+0:0:0:0:0, 2+1:0:0:0:0, 0+0:0:0:0:0, 1+4:0:0:0:0, 2+1:1:0:0:0, 4+1:0:0:0:0, 3+1:0:0:0:0, 3+2:0:0:0:1, 2+1:0:0:0:0, 2+1:0:0:0:1, 1+1:0:0:0:0, 1+5:0:0:0:0, 1+4:0:0:0:0, 4+2:0:0:0:0, 4+2:0:0:0:0, 2+1:0:0:0:0, 1+1:0:0:0:0, 0+0:0:0:0:0, 1+1:0:0:0:0, 1+2:0:0:0:0, 1+1:0:0:0:0, 2+1:0:0:0:0, 2+1:1:1:0:1, 2+3:1:0:0:0, 2+1:1:0:0:0, 3+2:0:0:0:0, 4+2:0:0:0:0, 1+1:1:0:0:0, 2+1:0:0:0:1, 1+2:0:0:0:0, 3+1:1:0:0:0, 3+3:0:0:0:1, 0+0:0:0:0:0, 1+0:0:0:0:0, 1+1:0:0:0:0, 1+4:0:0:0:0, 2+1:1:0:0:0, 4+1:0:0:0:0, 3+1:0:0:0:0, 2+1:1:1:0:1, 2+1:0:0:0:0, 2+1:0:0:0:1, 1+1:0:0:0:0, 1+5:0:0:0:0, 1+4:0:0:0:0, 4+2:0:0:0:0, 4+2:0:0:0:0, 2+1:0:0:0:0, 1+1:0:0:0:0, 0+0:0:0:0:0, 1+1:0:0:0:0, 1+2:0:0:0:0, 1+1:0:0:0:0, 2+1:0:0:0:0, 2+1:1:1:0:1, 2+3:1:0:0:0, 2+1:1:0:0:0, 3+2:0:0:0:0, 4+2:0:0:0:0, 1+1:1:0:0:0, 2+1:0:0:0:1, 1+2:0:0:0:0, 2+0:0:0:0:0, 3+3:0:0:0:1, 0+0:0:0:0:0, 1+0:0:0:0:0, 1+1:0:0:0:0, 2+1:0:0:0:0, 2+1:1:0:0:0, 3+2:1:1:0:1, 3+1:0:0:0:0, 2+1:0:0:0:0, 1+0:0:0:0:0, 2+1:0:0:0:0, 2+1:0:0:0:0, 3+1:0:0:0:0, 3+1:0:0:0:0, 3+1:1:0:0:0, 4+2:0:1:0:1, 2+1:0:0:0:0, 2+1:0:0:0:1, 1+0:0:0:0:0, 1+0:0:0:0:0, 0+0:0:0:0:0, 1+0:0:0:0:0, 0+0:0:0:0:0, 1+0:0:0:0:0, 2+0:0:0:0:0, 2+1:0:0:0:0, 3+2:1:1:0:1, 3+1:0:0:0:0, 1+0:0:0:0:0, 0+0:0:0:0:0, 1+1:0:0:0:0, 4+4:1:0:0:0, 2+0:0:0:0:0, 0+0:0:0:0:0, 1+0:0:0:0:0, 0+0:0:0:0:0, 2+1:0:0:0:0, 0+0:0:0:0:0, 1+1:0:0:0:0, 1+1:0:0:0:0, 2+1:0:0:0:0, 0+0:0:0:0:0, 0+0:0:0:0:0, 0+0:0:0:0:0, 0+0:0:0:0:0, 0+0:0:0:0:0, 287+196:20:7:0:23
G minor (2b), 0+0:0:0:0:0, 1+2:0:0:0:0, 0+2:0:0:0:0, 1+0:0:0:0:0, 0+0:0:0:0:0, 0+0:0:0:0:0, 1+0:0:0:0:0, 0+1:0:0:0:0, 1+0:0:0:0:0, 1+0:0:0:0:0, 0+3:0:0:0:0, 0+1:0:0:0:0, 0+0:0:0:0:0, 0+0:0:0:0:0, 1+0:0:0:0:0, 0+0:0:0:0:0, 0+0:0:0:0:0, 0+0:0:0:0:0, 0+0:0:0:0:0, 0+0:0:0:0:0, 1+1:0:0:0:0, 1+2:0:0:0:0, 0+2:0:0:0:0, 0+1:0:0:0:0, 0+0:0:0:0:0, 0+0:0:0:0:0, 1+1:0:0:0:0, 0+0:0:0:0:0, 2+1:0:1:0:1, 0+0:0:0:0:0, 1+0:0:0:0:0, 0+0:0:0:0:0, 0+0:0:0:0:0, 2+1:0:0:0:0, 1+2:0:0:0:0, 1+2:0:0:0:0, 1+1:0:0:0:0, 2+1:0:0:0:0, 1+1:0:0:0:0, 1+0:0:0:0:0, 2+2:0:0:0:1, 1+1:0:0:0:0, 2+2:0:0:0:1, 1+4:0:1:0:1, 0+0:0:0:0:0, 0+0:0:0:0:0, 2+1:0:0:0:1, 1+1:0:0:0:0, 2+1:1:0:0:1, 1+1:0:0:0:1, 2+1:0:0:0:1, 2+1:0:0:0:0, 1+2:0:0:0:0, 0+0:0:0:0:0, 1+1:0:0:0:0, 1+2:0:0:0:0, 2+3:0:0:0:0, 1+1:0:0:0:1, 2+1:0:0:0:1, 2+2:0:0:0:0, 2+2:0:0:0:0, 1+2:0:0:0:0, 2+0:0:0:0:0, 2+1:0:0:0:0, 1+0:0:0:0:0, 1+0:0:0:0:0, 1+2:0:0:0:0, 0+1:0:0:0:0, 0+1:0:0:0:0, 2+2:1:0:0:0, 1+1:0:0:0:1, 1+2:0:0:0:0, 2+1:0:0:0:0, 0+0:0:0:0:0, 2+4:0:0:0:0, 2+2:0:0:0:0, 1+2:0:0:0:0, 2+1:0:0:0:0, 1+1:0:0:0:0, 0+0:0:0:0:0, 1+0:0:0:0:0, 0+0:0:0:0:0, 2+1:0:0:0:0, 1+1:0:0:0:0, 1+1:1:0:0:0, 1+0:0:0:0:0, 1+2:0:0:0:0, 1+2:0:0:0:0, 1+2:0:0:0:0, 1+1:0:0:0:1, 2+1:0:0:0:1, 2+2:0:0:0:0, 3+1:1:0:0:0, 1+1:0:0:0:0, 0+0:0:0:0:0, 0+0:0:0:0:0, 2+1:0:0:0:0, 1+0:0:0:0:0, 1+2:0:0:0:0, 0+1:0:0:0:0, 0+1:0:0:0:0, 1+1:1:0:0:0, 2+1:0:0:0:1, 1+2:0:0:0:0, 2+1:0:0:0:0, 0+0:0:0:0:0, 1+4:0:0:0:0, 2+2:0:0:0:0, 1+2:0:0:0:0, 2+1:0:0:0:0, 1+1:0:0:0:0, 0+0:0:0:0:0, 2+1:0:0:0:0, 0+0:0:0:0:0, 2+1:0:0:0:0, 1+1:0:0:0:0, 1+1:1:0:0:0, 1+0:0:0:0:0, 1+2:0:0:0:0, 1+2:0:0:0:0, 1+2:0:0:0:0, 1+1:0:0:0:1, 2+1:0:0:0:1, 2+2:0:0:0:0, 1+0:0:0:0:0, 1+1:0:0:0:0, 0+0:0:0:0:0, 0+0:0:0:0:0, 2+1:0:0:0:0, 2+1:0:0:0:0, 1+2:0:0:0:0, 2+1:0:0:0:0, 1+2:0:0:0:0, 2+1:0:0:0:0, 1+0:0:0:0:0, 2+1:0:0:0:0, 0+0:0:0:0:0, 0+1:0:0:0:0, 0+1:0:0:0:0, 1+1:0:0:0:0, 2+3:0:1:0:1, 2+1:0:0:0:0, 2+1:0:0:0:1, 0+0:0:0:0:0, 0+0:0:0:0:0, 1+0:0:0:0:0, 1+2:0:0:0:0, 0+0:0:0:0:0, 1+0:0:0:0:0, 0+0:0:0:0:0, 0+2:0:0:0:0, 2+2:0:0:0:0, 0+1:0:0:0:0, 1+1:0:0:0:1, 0+0:0:0:0:0, 0+0:0:0:0:0, 2+4:1:0:0:0, 0+0:0:0:0:0, 2+0:0:0:0:0, 0+0:0:0:0:0, 3+0:0:0:0:0, 0+1:0:0:0:0, 2+0:0:0:0:0, 2+1:0:0:0:0, 1+0:0:0:0:0, 0+0:0:0:0:0, 0+0:0:0:0:0, 0+0:0:0:0:0, 0+0:0:0:0:0, 0+0:0:0:0:0, 0+0:0:0:0:0, 161+158:7:3:0:19
B minor (2#), 0+0:0:0:0:0, 1+0:0:0:0:0, 2+0:0:0:0:0, 2+0:0:0:0:0, 2+3:0:0:0:0, 0+0:0:0:0:0, 3+6:0:0:0:4, 1+2:0:0:0:0, 0+0:0:0:0:0, 1+1:0:0:0:0, 1+1:0:0:0:0, 2+0:0:0:0:0, 2+2:0:0:0:0, 1+1:0:0:0:0, 0+0:0:0:0:0, 0+0:0:0:0:0, 1+0:0:0:0:0, 1+1:0:0:0:0, 0+0:0:0:0:0, 0+0:0:0:0:0, 1+0:0:0:0:0, 1+0:0:0:0:0, 2+1:0:0:0:0, 3+1:0:0:0:0, 2+0:0:0:0:0, 1+1:0:0:0:0, 1+2:0:0:0:0, 1+1:0:0:0:0, 2+3:0:0:0:0, 2+2:0:0:0:0, 0+0:0:0:0:0, 0+0:0:0:0:0, 0+0:0:0:0:0, 2+2:0:0:0:0, 2+2:0:0:0:0, 4+2:0:0:0:0, 3+3:0:0:0:1, 2+1:0:0:0:0, 2+0:0:0:0:0, 1+2:0:0:0:0, 1+1:1:0:0:1, 2+4:0:0:0:0, 3+3:0:0:0:0, 3+1:0:1:0:1, 3+4:0:0:0:0, 1+2:0:0:0:0, 2+1:0:0:0:1, 2+1:0:0:0:0, 3+2:0:0:0:0, 1+1:0:0:0:0, 2+1:0:0:0:0, 2+3:0:0:0:0, 3+2:0:0:0:0, 2+3:0:0:0:0, 2+1:0:0:0:0, 3+2:0:0:0:0, 4+3:0:0:0:2, 1+1:0:0:0:0, 2+1:0:0:0:0, 1+0:0:0:0:0, 2+2:0:0:0:0, 4+2:0:0:0:0, 0+0:0:0:0:0, 2+1:0:0:0:0, 0+1:0:0:0:0, 1+1:0:0:0:0, 2+3:0:0:0:0, 4+2:0:0:0:0, 3+2:0:0:0:0, 3+3:0:0:0:0, 2+1:0:0:0:0, 2+1:0:0:0:1, 1+1:0:0:0:0, 1+1:0:0:0:0, 1+1:0:0:0:0, 4+2:0:0:0:0, 4+2:0:0:0:0, 2+2:0:0:0:0, 1+2:0:0:0:0, 0+0:0:0:0:0, 1+1:0:0:0:0, 1+2:0:0:0:0, 1+1:0:0:0:0, 1+1:0:0:0:1, 2+1:1:1:0:1, 2+3:1:0:0:0, 2+2:0:0:0:0, 3+2:0:0:0:0, 4+2:0:0:0:0, 1+1:1:0:0:0, 2+1:0:0:0:1, 1+2:0:0:0:0, 3+1:1:0:0:0, 3+3:0:0:0:1, 0+0:0:0:0:0, 1+0:0:0:0:0, 1+2:0:0:0:0, 1+1:0:0:0:0, 2+3:0:0:0:0, 4+2:0:0:0:0, 3+2:0:0:0:0, 2+1:1:1:0:1, 2+1:0:0:0:0, 2+1:0:0:0:1, 1+1:0:0:0:0, 1+1:0:0:0:0, 1+1:0:0:0:0, 4+2:0:0:0:0, 4+2:0:0:0:0, 2+2:0:0:0:0, 1+2:0:0:0:0, 0+0:0:0:0:0, 1+1:0:0:0:0, 1+2:0:0:0:0, 1+1:0:0:0:0, 1+1:0:0:0:1, 2+1:1:1:0:1, 2+3:1:0:0:0, 2+2:0:0:0:0, 3+2:0:0:0:0, 4+2:0:0:0:0, 1+1:1:0:0:0, 2+1:0:0:0:1, 1+2:0:0:0:0, 2+0:0:0:0:0, 3+3:0:0:0:1, 0+0:0:0:0:0, 1+0:0:0:0:0, 1+2:0:0:0:0, 2+2:0:0:0:0, 2+2:0:0:0:0, 3+2:1:1:0:1, 3+3:0:0:0:1, 2+2:0:0:0:0, 1+0:0:0:0:0, 2+3:0:0:0:0, 2+1:0:0:0:0, 3+2:0:0:0:0, 3+1:0:0:0:0, 3+1:1:0:0:0, 5+3:0:0:0:1, 2+1:0:0:0:0, 2+2:0:0:0:0, 1+0:0:0:0:0, 1+0:0:0:0:0, 0+0:0:0:0:0, 1+4:0:0:0:0, 0+0:0:0:0:0, 1+1:0:0:0:0, 2+2:0:0:0:1, 2+2:0:0:0:0, 3+2:1:1:0:1, 3+2:0:0:0:0, 1+0:0:0:0:0, 0+0:0:0:0:0, 1+0:0:0:0:0, 4+4:1:0:0:0, 2+4:0:0:0:0, 0+0:0:0:0:0, 1+0:0:0:0:0, 0+0:0:0:0:0, 2+1:0:0:0:0, 0+0:0:0:0:0, 1+1:0:0:0:0, 1+1:0:0:0:0, 2+1:0:0:0:0, 0+0:0:0:0:0, 0+0:0:0:0:0, 0+0:0:0:0:0, 0+0:0:0:0:0, 0+0:0:0:0:0, 285+228:13:6:0:26
Eb major (3b), 0+0:0:0:0:0, 1+0:0:0:0:0, 0+0:0:0:0:0, 1+1:0:0:0:0, 1+0:0:0:0:0, 1+0:0:0:0:0, 0+0:0:0:0:0, 1+0:0:0:0:0, 2+0:0:0:0:0, 1+0:0:0:0:0, 1+0:0:0:0:0, 0+0:0:0:0:0, 1+0:0:0:0:0, 1+0:0:0:0:0, 1+1:0:0:0:0, 1+0:0:0:0:0, 0+0:0:0:0:0, 1+0:0:0:0:0, 1+0:0:0:0:0, 0+0:0:0:0:0, 1+1:0:0:0:1, 1+0:0:0:0:0, 1+0:0:0:0:0, 0+0:0:0:0:0, 0+0:0:0:0:0, 1+0:0:0:0:0, 2+1:0:0:0:0, 1+0:0:0:0:0, 3+1:0:1:0:1, 1+0:0:0:0:0, 2+1:0:0:0:0, 0+0:0:0:0:0, 0+0:0:0:0:0, 3+1:0:0:0:0, 2+1:0:0:0:0, 2+1:0:0:0:0, 2+1:0:0:0:0, 3+1:0:0:0:0, 2+1:0:0:0:0, 2+0:0:0:0:0, 1+1:0:0:0:0, 1+1:0:0:0:1, 2+1:0:0:0:0, 1+1:0:1:0:0, 1+0:0:0:0:0, 1+0:0:0:0:0, 2+1:0:0:0:0, 2+1:0:0:0:1, 1+1:1:0:0:1, 2+1:0:0:0:0, 3+1:0:0:0:0, 2+1:0:0:0:0, 1+1:0:0:0:0, 0+0:0:0:0:0, 2+0:0:0:0:0, 1+1:0:0:0:1, 1+1:0:0:0:1, 2+1:0:0:0:0, 2+1:0:0:0:0, 2+0:0:0:0:0, 2+2:0:0:0:0, 2+1:0:0:0:0, 3+1:0:0:0:0, 3+1:0:0:0:0, 2+0:0:0:0:0, 1+0:0:0:0:0, 1+1:1:0:0:0, 0+0:0:0:0:0, 0+0:0:0:0:0, 3+2:1:0:0:2, 1+1:0:0:0:0, 2+1:0:0:0:0, 1+1:0:0:0:0, 0+0:0:0:0:0, 2+0:0:0:0:0, 3+2:0:0:0:0, 0+3:0:0:0:0, 3+1:0:0:0:0, 2+1:0:0:0:0, 0+0:0:0:0:0, 0+0:0:0:0:0, 1+0:0:0:0:0, 3+2:0:0:0:0, 2+1:0:0:0:1, 1+1:1:0:0:1, 1+1:0:0:0:0, 2+1:1:0:0:1, 1+1:0:0:0:1, 1+1:0:0:0:0, 2+1:0:0:0:0, 2+1:0:0:0:0, 2+0:0:0:0:0, 3+2:0:0:0:0, 2+1:0:0:0:0, 1+0:0:0:0:0, 1+0:0:0:0:0, 1+1:0:0:0:0, 2+0:0:0:0:0, 2+1:1:0:0:1, 0+0:0:0:0:0, 1+0:0:0:0:0, 2+1:1:0:0:1, 2+1:0:0:0:0, 2+1:0:0:0:0, 1+1:0:0:0:0, 0+0:0:0:0:0, 2+0:0:0:0:0, 3+2:0:0:0:0, 0+3:0:0:0:0, 3+1:0:0:0:0, 2+1:0:0:0:0, 0+0:0:0:0:0, 1+1:0:0:0:0, 1+0:0:0:0:0, 3+2:0:0:0:0, 2+1:0:0:0:1, 1+1:1:0:0:1, 1+1:0:0:0:0, 2+1:1:0:0:1, 1+1:0:0:0:1, 1+1:0:0:0:0, 2+1:0:0:0:0, 2+1:0:0:0:0, 2+0:0:0:0:0, 2+0:0:0:0:0, 2+1:0:0:0:0, 1+0:0:0:0:0, 1+0:0:0:0:0, 1+1:0:0:0:0, 2+1:0:0:0:1, 2+1:1:0:0:1, 3+2:0:0:0:0, 0+0:0:0:0:0, 3+1:0:0:0:0, 2+0:0:0:0:0, 2+1:0:0:0:0, 1+0:0:0:0:0, 0+0:0:0:0:0, 1+0:0:0:0:0, 2+1:1:0:0:1, 1+1:0:1:0:0, 3+1:0:0:0:0, 3+1:0:0:0:0, 1+0:0:0:0:0, 1+0:0:0:0:0, 2+0:0:0:0:0, 2+2:0:0:0:0, 0+0:0:0:0:0, 2+0:0:0:0:0, 1+0:0:0:0:0, 1+0:0:0:0:0, 2+2:0:0:0:1, 0+0:0:0:0:0, 2+1:0:0:0:0, 1+0:0:0:0:0, 1+0:0:0:0:0, 3+2:1:0:0:1, 0+0:0:0:0:0, 3+1:0:0:0:0, 0+0:0:0:0:0, 4+2:0:0:0:0, 1+0:0:0:0:0, 3+1:0:0:0:0, 1+1:0:0:0:0, 1+0:0:0:0:0, 1+0:0:0:0:0, 1+0:0:0:0:0, 0+0:0:0:0:0, 0+0:0:0:0:0, 0+0:0:0:0:0, 0+0:0:0:0:0, 238+106:12:3:0:24
A major (3#), 1+3:0:0:0:0, 1+0:0:0:0:0, 2+0:0:0:0:0, 2+3:0:0:0:0, 2+3:0:0:0:0, 0+0:0:0:0:0, 2+1:0:0:0:1, 2+2:0:0:0:0, 1+2:0:0:0:0, 1+0:0:0:0:0, 2+1:0:0:0:0, 3+0:0:0:0:0, 2+2:0:0:0:0, 1+1:0:0:0:0, 0+0:0:0:0:0, 1+2:0:0:0:0, 2+0:0:0:0:0, 1+1:0:0:0:0, 0+0:0:0:0:0, 1+3:0:0:0:0, 2+3:0:0:0:1, 1+0:0:0:0:0, 3+1:0:0:0:0, 3+1:0:0:0:0, 3+3:0:0:0:0, 1+1:0:0:0:0, 0+0:0:0:0:0, 2+2:0:0:0:0, 2+3:0:0:0:0, 2+2:0:0:0:0, 0+0:0:0:0:0, 1+0:0:0:0:0, 1+0:0:0:0:0, 2+2:0:0:0:0, 3+2:0:0:0:0, 4+2:0:0:0:0, 2+3:1:0:0:0, 2+1:0:0:0:0, 1+0:0:0:0:0, 2+2:0:0:0:0, 3+3:0:0:0:0, 3+2:0:0:0:0, 4+3:0:0:0:0, 3+1:0:1:0:1, 3+4:0:0:0:0, 1+2:0:0:0:2, 2+1:0:0:0:0, 2+3:0:0:0:1, 4+2:0:0:0:0, 1+1:0:0:0:0, 2+1:0:0:0:0, 3+3:0:0:0:0, 3+2:0:0:0:1, 3+2:0:0:0:1, 2+0:0:0:0:0, 3+2:0:0:0:0, 5+3:0:0:0:2, 1+1:0:0:0:0, 2+1:0:0:0:0, 2+2:0:0:0:0, 2+2:0:0:0:0, 4+3:0:0:0:2, 0+0:0:0:0:0, 3+3:0:0:0:0, 1+3:0:0:0:0, 2+1:0:0:0:0, 3+3:0:0:0:0, 4+2:0:0:0:0, 3+2:0:0:0:0, 3+2:0:0:0:1, 2+1:0:0:0:0, 4+2:0:0:0:0, 2+2:0:0:0:0, 2+1:0:0:0:0, 2+1:0:0:0:0, 4+2:0:0:0:0, 4+3:0:0:0:0, 3+2:0:0:0:0, 0+0:0:0:0:0, 1+4:0:0:0:0, 2+3:0:0:0:0, 2+3:0:0:0:0, 0+0:0:0:0:0, 2+3:0:0:0:1, 3+1:1:1:0:1, 3+3:1:0:0:0, 3+2:0:0:0:0, 3+2:0:0:0:0, 4+2:0:0:0:0, 1+1:0:0:0:0, 2+1:0:0:0:0, 2+2:0:0:0:0, 2+1:1:0:0:0, 4+3:0:0:0:1, 0+0:0:0:0:0, 2+0:0:0:0:0, 2+1:0:0:0:0, 2+1:0:0:0:0, 3+3:0:0:0:0, 4+2:0:0:0:0, 3+2:0:0:0:0, 3+1:1:1:0:1, 2+1:0:0:0:0, 4+2:0:0:0:0, 2+2:0:0:0:0, 2+1:0:0:0:0, 2+1:0:0:0:0, 4+2:0:0:0:0, 4+3:0:0:0:0, 3+2:0:0:0:0, 0+0:0:0:0:0, 1+0:0:0:0:0, 2+1:0:0:0:0, 2+3:0:0:0:0, 0+0:0:0:0:0, 2+3:0:0:0:1, 3+1:1:1:0:1, 3+3:1:0:0:0, 3+2:0:0:0:0, 3+2:0:0:0:0, 4+2:0:0:0:0, 1+1:0:0:0:0, 2+1:0:0:0:0, 2+2:0:0:0:0, 3+3:0:0:0:0, 4+3:0:0:0:1, 0+0:0:0:0:0, 2+0:0:0:0:0, 2+1:0:0:0:0, 2+1:0:0:0:0, 3+2:0:0:0:0, 3+2:1:1:0:1, 4+3:0:0:0:1, 3+2:0:0:0:0, 1+0:0:0:0:0, 3+3:0:0:0:0, 3+1:0:0:0:0, 4+2:0:0:0:1, 4+1:0:0:0:0, 4+1:0:0:0:1, 5+3:0:1:0:1, 2+1:0:0:0:0, 3+2:0:0:0:0, 2+0:0:0:0:0, 2+0:0:0:0:0, 1+2:0:0:0:0, 0+0:0:0:0:0, 1+3:0:0:0:0, 2+4:0:0:0:0, 3+2:0:0:0:1, 3+2:0:0:0:0, 4+2:1:1:0:1, 4+2:0:0:0:0, 2+0:0:0:0:0, 0+0:0:0:0:0, 2+5:0:0:0:0, 4+4:1:0:0:0, 3+4:0:0:0:0, 0+0:0:0:0:0, 2+0:0:0:0:0, 0+0:0:0:0:0, 3+1:0:0:0:0, 0+0:0:0:0:0, 2+1:0:0:0:0, 1+1:0:0:0:0, 3+1:0:0:0:0, 0+0:0:0:0:0, 1+2:0:0:0:0, 1+2:0:0:0:0, 1+2:0:0:0:0, 1+1:0:0:0:0, 371+274:10:7:0:27
C minor (3b), 0+0:0:0:0:0, 1+0:0:0:0:0, 0+0:0:0:0:0, 1+2:0:0:0:0, 1+0:0:0:0:0, 1+0:0:0:0:0, 0+0:0:0:0:0, 1+0:0:0:0:0, 2+0:0:0:0:0, 1+0:0:0:0:0, 1+0:0:0:0:0, 0+6:0:0:0:0, 1+0:0:0:0:0, 1+0:0:0:0:0, 1+0:0:0:0:0, 1+0:0:0:0:0, 0+0:0:0:0:0, 1+0:0:0:0:0, 1+0:0:0:0:0, 0+0:0:0:0:0, 1+1:0:0:0:0, 1+0:0:0:0:0, 1+0:0:0:0:0, 0+3:0:0:0:0, 0+3:0:0:0:0, 1+3:0:0:0:0, 2+1:0:0:0:0, 1+0:0:0:0:0, 4+3:0:0:0:0, 1+0:0:0:0:0, 2+0:0:0:0:0, 0+0:0:0:0:0, 0+0:0:0:0:0, 3+1:0:0:0:0, 2+2:0:0:0:0, 2+2:0:0:0:0, 2+1:0:0:0:0, 3+1:0:0:0:0, 2+1:0:0:0:0, 2+0:0:0:0:0, 1+1:0:0:0:0, 1+1:0:0:0:1, 2+1:0:0:0:0, 2+2:0:0:0:0, 1+0:0:0:0:0, 1+0:0:0:0:0, 2+1:0:0:0:0, 2+1:0:0:0:0, 1+1:1:0:0:1, 2+1:0:0:0:1, 3+1:0:0:0:0, 2+1:0:0:0:0, 1+1:0:0:0:0, 0+0:0:0:0:0, 2+0:0:0:0:0, 1+2:0:0:0:0, 1+1:0:0:0:0, 2+1:0:0:0:1, 2+1:0:0:0:0, 2+0:0:0:0:0, 2+2:0:0:0:0, 2+2:0:0:0:0, 3+1:0:0:0:0, 3+1:0:0:0:0, 2+0:0:0:0:0, 1+0:0:0:0:0, 1+1:0:0:0:0, 0+1:0:0:0:0, 0+2:0:0:0:0, 3+2:0:0:0:1, 1+2:0:0:0:0, 2+1:0:0:0:0, 1+1:0:0:0:0, 0+0:0:0:0:0, 2+0:0:0:0:0, 3+2:0:0:0:0, 0+3:0:0:0:0, 3+1:0:0:0:0, 2+1:0:0:0:0, 0+0:0:0:0:0, 0+0:0:0:0:0, 1+0:0:0:0:0, 3+1:0:0:0:0, 2+1:0:0:0:0, 1+2:1:0:0:1, 1+2:0:0:0:1, 2+1:0:0:0:0, 1+2:0:0:0:0, 1+2:0:0:0:0, 2+1:0:0:0:1, 2+1:0:0:0:0, 2+0:0:0:0:0, 3+6:0:0:0:0, 2+1:0:0:0:0, 1+0:0:0:0:0, 1+0:0:0:0:0, 1+1:0:0:0:0, 2+0:0:0:0:0, 2+1:0:0:0:0, 0+1:0:0:0:0, 1+1:0:0:0:0, 2+1:1:0:0:0, 2+1:0:0:0:1, 2+2:0:0:0:0, 1+1:0:0:0:0, 0+0:0:0:0:0, 2+0:0:0:0:0, 3+2:0:0:0:0, 0+3:0:0:0:0, 3+1:0:0:0:0, 2+1:0:0:0:0, 0+0:0:0:0:0, 1+1:0:0:0:0, 1+0:0:0:0:0, 3+1:0:0:0:0, 2+1:0:0:0:0, 1+2:1:0:0:1, 1+2:0:0:0:1, 2+1:0:0:0:0, 1+2:0:0:0:0, 1+2:0:0:0:0, 2+1:0:0:0:1, 2+1:0:0:0:0, 2+0:0:0:0:0, 2+2:0:0:0:0, 2+2:0:0:0:0, 1+0:0:0:0:0, 1+0:0:0:0:0, 1+1:0:0:0:0, 2+1:0:0:0:1, 2+1:0:0:0:0, 2+1:0:0:0:0, 0+2:0:0:0:0, 3+1:0:0:0:0, 2+0:0:0:0:0, 2+1:0:0:0:0, 1+0:0:0:0:0, 0+1:0:0:0:0, 1+1:0:0:0:0, 2+1:0:0:0:0, 1+3:0:1:0:1, 3+1:0:0:0:0, 3+1:0:0:0:0, 1+0:0:0:0:0, 1+0:0:0:0:0, 2+0:0:0:0:0, 2+2:0:0:0:0, 0+0:0:0:0:0, 2+0:0:0:0:0, 1+1:0:0:0:0, 1+0:0:0:0:0, 2+4:0:0:0:0, 0+2:0:0:0:0, 2+1:0:0:0:1, 1+0:0:0:0:0, 1+0:0:0:0:0, 3+4:1:0:0:0, 0+0:0:0:0:0, 3+1:0:0:0:0, 0+0:0:0:0:0, 4+2:0:0:0:0, 1+0:0:0:0:0, 3+1:0:0:0:0, 2+1:0:0:0:0, 1+0:0:0:0:0, 1+0:0:0:0:0, 1+0:0:0:0:0, 0+0:0:0:0:0, 0+0:0:0:0:0, 0+0:0:0:0:0, 0+0:0:0:0:0, 240+159:5:1:0:15
F# minor (3#), 1+0:0:0:0:0, 1+0:0:0:0:0, 2+0:0:0:0:0, 2+3:0:0:0:0, 2+3:0:0:0:0, 0+0:0:0:0:0, 2+1:0:0:0:1, 2+2:0:0:0:0, 1+2:0:0:0:0, 1+0:0:0:0:0, 2+1:0:0:0:0, 3+0:0:0:0:0, 2+4:0:0:0:2, 1+1:0:0:0:0, 0+0:0:0:0:0, 1+1:0:0:0:0, 2+0:0:0:0:0, 1+0:0:0:0:0, 0+0:0:0:0:0, 1+0:0:0:0:0, 2+0:0:0:0:0, 1+0:0:0:0:0, 3+1:0:0:0:0, 3+1:0:0:0:0, 3+0:0:0:0:0, 1+1:0:0:0:0, 0+0:0:0:0:0, 2+2:0:0:0:0, 2+3:0:0:0:0, 2+3:0:0:0:2, 0+0:0:0:0:0, 1+0:0:0:0:0, 1+0:0:0:0:0, 2+2:0:0:0:0, 3+2:0:0:0:0, 4+2:0:0:0:0, 2+3:2:0:0:3, 2+1:0:0:0:0, 1+1:0:0:0:0, 2+2:0:0:0:0, 2+1:1:0:0:1, 3+4:0:0:0:0, 4+3:0:0:0:0, 3+1:0:1:0:1, 3+4:0:0:0:0, 1+2:0:0:0:2, 2+1:0:0:0:0, 2+3:0:0:0:1, 4+2:0:0:0:0, 1+1:0:0:0:0, 2+1:0:0:0:0, 3+3:0:0:0:0, 3+2:0:0:0:1, 3+2:0:0:0:1, 2+0:0:0:0:0, 3+2:0:0:0:0, 5+3:0:0:0:2, 1+1:0:0:0:0, 2+1:0:0:0:0, 2+2:0:0:0:0, 2+2:0:0:0:0, 4+3:0:0:0:2, 0+0:0:0:0:0, 3+3:0:0:0:0, 1+3:0:0:0:0, 2+1:0:0:0:0, 3+3:0:0:0:0, 4+1:0:0:0:0, 3+1:0:0:0:0, 3+3:0:0:0:0, 2+1:0:0:0:0, 4+2:0:0:0:0, 2+1:0:0:0:0, 2+1:0:0:0:0, 2+1:0:0:0:0, 4+2:0:0:0:0, 4+3:0:0:0:0, 3+2:0:0:0:0, 0+0:0:0:0:0, 1+0:0:0:0:0, 2+1:0:0:0:0, 2+1:0:0:0:1, 0+0:0:0:0:0, 2+1:0:0:0:0, 3+1:1:1:0:1, 3+3:1:0:0:0, 3+2:0:0:0:0, 3+2:0:0:0:0, 4+2:0:0:0:0, 1+1:0:0:0:0, 2+1:0:0:0:0, 2+2:0:0:0:0, 2+4:2:0:0:0, 4+4:0:0:0:2, 0+0:0:0:0:0, 2+4:0:0:0:0, 2+2:0:0:0:0, 2+1:0:0:0:0, 3+3:0:0:0:0, 4+2:0:0:0:0, 3+2:0:0:0:0, 3+1:1:1:0:1, 2+1:0:0:0:0, 4+2:0:0:0:0, 2+1:0:0:0:0, 2+1:0:0:0:0, 2+1:0:0:0:0, 4+2:0:0:0:0, 4+3:0:0:0:0, 3+2:0:0:0:0, 0+0:0:0:0:0, 1+0:0:0:0:0, 2+1:0:0:0:0, 2+1:0:0:0:1, 0+0:0:0:0:0, 2+1:0:0:0:0, 3+1:1:1:0:1, 3+3:1:0:0:0, 3+2:0:0:0:0, 3+2:0:0:0:0, 4+2:0:0:0:0, 1+1:0:0:0:0, 2+1:0:0:0:0, 2+2:0:0:0:0, 3+3:0:0:0:0, 4+4:0:0:0:2, 0+0:0:0:0:0, 2+4:0:0:0:0, 2+2:0:0:0:0, 2+2:0:0:0:0, 3+2:0:0:0:0, 3+2:1:1:0:1, 4+3:0:0:0:1, 3+2:0:0:0:0, 1+0:0:0:0:0, 3+3:0:0:0:0, 3+2:0:0:0:0, 4+2:0:0:0:1, 4+2:0:0:0:0, 4+3:0:0:0:0, 5+3:0:1:0:1, 2+1:0:0:0:0, 3+2:0:0:0:0, 2+3:0:0:0:0, 2+6:0:0:0:0, 1+4:0:0:0:0, 0+0:0:0:0:0, 1+0:0:0:0:0, 2+1:0:0:0:0, 3+2:0:0:0:1, 3+2:0:0:0:0, 4+2:1:1:0:1, 4+2:0:0:0:0, 3+3:0:0:0:0, 0+1:0:0:0:0, 2+2:0:0:0:0, 4+4:1:0:0:0, 3+4:0:0:0:0, 0+0:0:0:0:0, 2+4:0:0:0:0, 0+0:0:0:0:0, 3+4:0:0:0:1, 0+0:0:0:0:0, 2+1:0:0:0:1, 1+2:0:0:0:0, 3+4:1:0:0:1, 0+2:0:0:0:0, 1+0:0:0:0:0, 1+0:0:0:0:0, 1+0:0:0:0:0, 1+0:0:0:0:0, 371+279:14:7:0:37
Ab major (4b), 1+0:0:0:0:0, 1+0:0:0:0:0, 1+0:0:0:0:0, 2+0:0:0:0:0, 1+0:0:0:0:0, 2+0:0:0:0:0, 1+0:0:0:0:0, 2+0:0:0:0:0, 2+0:0:0:0:0, 2+0:0:0:0:0, 2+0:0:0:0:0, 0+0:0:0:0:0, 2+1:0:0:0:0, 1+0:0:0:0:0, 2+1:0:0:0:0, 2+0:0:0:0:0, 1+0:0:0:0:0, 1+0:0:0:0:0, 2+0:0:0:0:0, 1+0:0:0:0:0, 2+1:0:0:0:0, 1+0:0:0:0:0, 2+0:0:0:0:0, 1+0:0:0:0:0, 0+0:0:0:0:0, 2+3:0:0:0:0, 3+1:0:0:0:0, 2+0:0:0:0:0, 3+1:0:1:0:1, 2+0:0:0:0:0, 3+1:0:0:0:0, 0+0:0:0:0:0, 1+0:0:0:0:0, 3+2:0:0:0:2, 2+1:1:0:0:1, 2+1:0:0:0:0, 3+3:0:0:0:0, 4+1:0:0:0:0, 3+1:0:0:0:0, 2+0:0:0:0:0, 2+1:0:0:0:0, 2+1:1:0:0:1, 3+1:0:0:0:0, 2+1:0:1:0:0, 2+0:0:0:0:0, 2+0:0:0:0:0, 3+1:0:0:0:0, 2+1:0:0:0:0, 1+1:0:0:0:0, 1+1:0:0:0:0, 4+1:0:0:0:0, 2+1:0:0:0:0, 2+1:0:0:0:0, 1+0:0:0:0:0, 2+0:0:0:0:0, 2+1:0:0:0:0, 2+1:0:0:0:1, 1+1:0:0:0:0, 3+1:0:0:0:0, 2+0:0:0:0:0, 3+2:0:0:0:0, 3+2:0:0:0:0, 4+0:0:0:0:0, 4+1:0:0:0:0, 3+0:0:0:0:0, 2+0:0:0:0:0, 2+1:1:0:0:1, 1+0:0:0:0:0, 1+0:0:0:0:0, 3+2:0:0:0:1, 2+1:0:0:0:0, 3+1:0:0:0:0, 2+1:0:0:0:0, 1+0:0:0:0:0, 3+4:0:0:0:0, 3+1:0:0:0:0, 1+3:0:0:0:0, 4+2:0:0:0:0, 3+1:0:0:0:0, 1+0:0:0:0:0, 1+0:0:0:0:0, 1+3:0:0:0:0, 4+2:0:0:0:0, 2+1:0:0:0:0, 1+1:0:0:0:0, 1+1:0:0:0:0, 2+1:1:0:0:1, 2+1:0:0:0:0, 1+1:0:0:0:0, 1+1:0:0:0:0, 3+1:0:0:0:0, 2+1:0:0:0:0, 4+2:0:0:0:0, 3+1:0:0:0:0, 2+0:0:0:0:0, 2+0:0:0:0:0, 2+1:0:0:0:0, 3+0:0:0:0:0, 3+1:1:0:0:1, 1+0:0:0:0:0, 2+1:0:0:0:0, 2+1:0:0:0:0, 3+1:0:0:0:0, 3+1:0:0:0:0, 2+1:0:0:0:0, 1+0:0:0:0:0, 3+4:0:0:0:0, 3+1:0:0:0:0, 1+3:0:0:0:0, 4+2:0:0:0:0, 3+1:0:0:0:0, 1+0:0:0:0:0, 2+1:0:0:0:0, 1+3:0:0:0:0, 4+2:0:0:0:0, 2+1:0:0:0:0, 1+1:0:0:0:0, 1+1:0:0:0:0, 2+1:1:0:0:1, 2+1:0:0:0:0, 1+1:0:0:0:0, 1+1:0:0:0:0, 3+1:0:0:0:0, 2+1:0:0:0:0, 3+0:0:0:0:0, 3+1:0:0:0:0, 2+0:0:0:0:0, 2+0:0:0:0:0, 2+1:0:0:0:0, 2+1:0:0:0:0, 2+1:1:0:0:1, 1+1:0:0:0:0, 1+2:0:0:0:0, 4+1:0:0:0:0, 3+0:0:0:0:0, 2+1:0:0:0:0, 2+0:0:0:0:0, 1+0:0:0:0:0, 1+0:0:0:0:0, 2+1:1:0:0:1, 1+1:0:1:0:0, 4+1:0:0:0:0, 4+1:0:0:0:0, 2+0:0:0:0:0, 2+0:0:0:0:0, 3+0:0:0:0:0, 3+2:0:0:0:0, 1+0:0:0:0:0, 3+1:0:0:0:0, 2+0:0:0:0:0, 2+0:0:0:0:0, 3+2:0:0:0:1, 1+0:0:0:0:0, 3+1:0:0:0:0, 2+0:0:0:0:0, 2+0:0:0:0:0, 3+2:0:0:0:0, 1+0:0:0:0:0, 4+0:0:0:0:0, 0+0:0:0:0:0, 4+0:0:0:0:0, 2+1:0:0:0:0, 4+0:0:0:0:0, 1+1:0:0:0:0, 2+0:0:0:0:0, 2+0:0:0:0:0, 2+0:0:0:0:0, 0+0:0:0:0:0, 0+0:0:0:0:0, 0+0:0:0:0:0, 0+0:0:0:0:0, 347+128:8:3:0:14
E major (4#), 2+1:0:0:0:0, 1+0:0:0:0:0, 3+0:0:0:0:0, 3+3:0:0:0:0, 2+3:0:0:0:0, 1+0:0:0:0:0, 3+1:0:0:0:1, 3+2:0:0:0:0, 1+0:0:0:0:0, 2+1:0:0:0:0, 3+1:0:0:0:0, 3+0:0:0:0:0, 3+4:0:0:0:1, 0+0:0:0:0:0, 1+2:0:0:0:0, 2+2:0:0:0:0, 3+3:0:0:0:0, 0+0:0:0:0:0, 1+3:0:0:0:0, 2+2:0:0:0:0, 3+2:0:0:0:0, 1+0:0:0:0:0, 4+1:0:0:0:0, 4+1:0:0:0:0, 3+0:0:0:0:0, 2+1:0:0:0:0, 1+0:0:0:0:0, 3+2:0:0:0:0, 2+3:0:0:0:0, 3+3:0:0:0:1, 1+3:0:0:0:0, 1+0:0:0:0:0, 2+1:0:0:0:0, 3+2:0:0:0:0, 3+2:0:0:0:0, 4+2:0:0:0:0, 3+3:1:0:0:2, 3+1:0:0:0:0, 2+1:0:0:0:0, 2+2:0:0:0:0, 4+3:0:0:0:0, 4+4:0:0:0:0, 5+3:0:0:0:0, 4+4:0:1:0:1, 4+0:0:0:0:0, 2+2:0:0:0:0, 3+1:0:0:0:0, 2+1:0:0:0:0, 5+2:0:0:0:0, 0+1:0:0:0:0, 3+1:0:0:0:0, 2+3:0:0:0:0, 4+2:0:0:0:0, 3+2:0:0:0:0, 2+0:0:0:0:0, 4+2:0:0:0:0, 6+3:0:0:0:1, 0+1:0:0:0:0, 3+1:0:0:0:0, 2+0:0:0:0:0, 3+2:0:0:0:0, 5+3:0:0:0:1, 1+0:0:0:0:0, 4+3:0:0:0:0, 2+1:0:0:0:0, 3+1:0:0:0:0, 4+3:0:0:0:0, 5+1:0:0:0:0, 4+1:0:0:0:0, 4+2:0:0:0:1, 3+1:1:0:0:0, 5+2:0:0:0:0, 3+1:0:0:0:0, 3+1:0:0:0:0, 3+2:0:0:0:0, 4+2:0:0:0:0, 4+2:1:0:0:1, 4+2:0:0:0:0, 1+4:0:0:0:0, 2+2:0:0:0:0, 3+3:0:0:0:0, 1+3:0:0:0:0, 1+0:0:0:0:0, 2+3:0:0:0:1, 4+1:1:1:0:1, 3+3:1:0:0:0, 3+2:0:0:0:0, 4+2:0:0:0:0, 4+2:0:0:0:0, 0+0:0:0:0:0, 2+3:0:1:0:1, 2+0:0:0:0:0, 3+4:2:0:0:0, 5+4:0:0:0:1, 1+3:0:0:0:0, 3+2:1:0:0:1, 3+2:0:0:0:0, 3+1:0:0:0:0, 4+3:0:0:0:0, 5+1:0:0:0:0, 4+1:0:0:0:0, 5+1:0:0:0:1, 3+1:0:0:0:0, 5+2:0:0:0:0, 3+1:0:0:0:0, 3+1:0:0:0:0, 3+2:0:0:0:0, 4+2:0:0:0:0, 4+2:1:0:0:1, 4+2:0:0:0:0, 1+4:0:0:0:0, 2+2:0:0:0:0, 3+1:0:0:0:0, 1+1:0:0:0:0, 1+0:0:0:0:0, 2+3:0:0:0:1, 4+1:1:1:0:1, 3+3:1:0:0:0, 3+2:0:0:0:0, 4+2:0:0:0:0, 4+2:0:0:0:0, 0+0:0:0:0:0, 2+3:0:1:0:1, 2+0:0:0:0:0, 4+3:0:0:0:0, 5+4:0:0:0:1, 1+3:0:0:0:0, 3+2:1:0:0:1, 3+2:0:0:0:0, 3+2:0:0:0:0, 3+2:0:0:0:0, 3+2:1:1:0:1, 5+1:0:0:0:0, 4+2:0:0:0:0, 2+0:0:0:0:0, 2+3:0:0:0:0, 4+2:0:0:0:0, 4+2:0:0:0:0, 4+1:0:0:0:0, 3+1:1:1:0:1, 5+3:0:1:0:1, 3+1:0:0:0:0, 4+2:0:0:0:0, 3+3:0:0:0:0, 3+6:0:0:0:0, 2+2:0:0:0:0, 1+5:0:0:0:0, 2+3:0:0:0:0, 3+1:0:0:0:0, 4+2:0:0:0:1, 4+2:0:0:0:0, 5+2:1:1:0:1, 5+1:0:0:0:0, 3+1:1:0:0:0, 1+4:0:0:0:0, 3+2:0:0:0:0, 3+5:2:0:0:1, 4+0:0:0:0:0, 1+0:0:0:0:0, 2+4:0:0:0:0, 0+0:0:0:0:0, 3+4:0:0:0:0, 1+0:0:0:0:0, 2+1:0:0:0:0, 2+2:0:0:0:0, 3+3:0:0:0:0, 1+3:0:0:0:0, 1+0:0:0:0:0, 1+0:0:0:0:0, 1+0:0:0:0:0, 1+0:0:0:0:0, 474+305:18:9:0:28
F minor (4b), 1+0:0:0:0:0, 1+0:0:0:0:0, 1+0:0:0:0:0, 2+0:0:0:0:0, 1+3:0:0:0:0, 2+0:0:0:0:0, 1+3:0:0:0:0, 2+0:0:0:0:0, 2+0:0:0:0:0, 2+0:0:0:0:0, 2+0:0:0:0:0, 0+0:0:0:0:0, 2+2:0:0:0:0, 1+0:0:0:0:0, 2+1:0:0:0:0, 2+0:0:0:0:0, 1+0:0:0:0:0, 1+0:0:0:0:0, 2+0:0:0:0:0, 1+0:0:0:0:0, 2+1:0:0:0:0, 1+0:0:0:0:0, 2+0:0:0:0:0, 1+0:0:0:0:0, 0+3:0:0:0:0, 2+1:0:0:0:0, 3+1:0:0:0:0, 2+0:0:0:0:0, 3+1:0:1:0:1, 2+2:0:0:0:0, 3+1:0:0:0:0, 0+0:0:0:0:0, 1+0:0:0:0:0, 3+2:0:0:0:0, 2+1:0:0:0:0, 2+1:0:0:0:0, 3+3:0:0:0:0, 4+1:0:0:0:0, 3+1:0:0:0:0, 2+0:0:0:0:0, 2+1:0:0:0:0, 2+1:0:0:0:1, 3+1:0:0:0:0, 2+1:0:1:0:0, 2+0:0:0:0:0, 2+0:0:0:0:0, 3+1:0:0:0:0, 2+1:0:0:0:0, 1+1:0:0:0:0, 1+1:0:0:0:0, 4+1:0:0:0:0, 2+1:0:0:0:0, 2+1:0:0:0:0, 1+0:0:0:0:0, 2+0:0:0:0:0, 2+1:0:0:0:0, 2+2:0:0:0:0, 1+1:0:0:0:0, 3+1:0:0:0:0, 2+0:0:0:0:0, 3+2:0:0:0:0, 3+2:0:0:0:0, 4+0:0:0:0:0, 4+1:0:0:0:0, 3+0:0:0:0:0, 2+0:0:0:0:0, 2+1:0:0:0:0, 1+1:0:0:0:0, 1+2:0:0:0:0, 3+2:0:0:0:0, 2+1:0:0:0:0, 3+1:0:0:0:0, 2+1:0:0:0:0, 1+0:0:0:0:0, 3+0:0:0:0:0, 3+1:0:0:0:0, 1+3:0:0:0:0, 4+1:0:0:0:0, 3+1:0:0:0:0, 1+0:0:0:0:0, 1+1:0:0:0:0, 1+2:0:0:0:0, 4+2:0:0:0:0, 2+1:0:0:0:0, 1+1:0:0:0:0, 1+1:0:0:0:0, 2+1:1:0:0:1, 2+1:0:0:0:0, 1+1:0:0:0:0, 1+1:0:0:0:0, 3+1:0:0:0:0, 2+0:0:0:0:0, 4+2:0:0:0:0, 3+3:0:0:0:0, 2+0:0:0:0:0, 2+0:0:0:0:0, 2+1:0:0:0:0, 3+0:0:0:0:0, 3+1:0:0:0:0, 1+1:0:0:0:0, 2+3:0:0:0:0, 2+1:0:0:0:0, 3+1:0:0:0:0, 3+1:0:0:0:0, 2+1:0:0:0:0, 1+0:0:0:0:0, 3+0:0:0:0:0, 3+1:0:0:0:0, 1+3:0:0:0:0, 4+1:0:0:0:0, 3+1:0:0:0:0, 1+0:0:0:0:0, 2+2:0:0:0:0, 1+2:0:0:0:0, 4+2:0:0:0:0, 2+1:0:0:0:0, 1+1:0:0:0:0, 1+1:0:0:0:0, 2+1:1:0:0:1, 2+1:0:0:0:0, 1+1:0:0:0:0, 1+1:0:0:0:0, 3+1:0:0:0:0, 2+0:0:0:0:0, 3+0:0:0:0:0, 3+3:0:0:0:0, 2+0:0:0:0:0, 2+0:0:0:0:0, 2+1:0:0:0:0, 2+1:0:0:0:0, 2+1:1:0:0:1, 1+1:0:0:0:0, 1+2:0:0:0:0, 4+1:0:0:0:0, 3+0:0:0:0:0, 2+1:0:0:0:0, 2+0:0:0:0:0, 1+0:0:0:0:0, 1+0:0:0:0:0, 2+1:1:0:0:1, 2+2:0:0:0:0, 4+1:0:0:0:0, 4+1:0:0:0:0, 2+0:0:0:0:0, 2+0:0:0:0:0, 3+0:0:0:0:0, 3+2:0:0:0:0, 1+0:0:0:0:0, 3+0:0:0:0:0, 2+1:0:0:0:0, 2+0:0:0:0:0, 3+2:0:0:0:0, 1+0:0:0:0:0, 3+1:0:0:0:0, 2+0:0:0:0:0, 2+0:0:0:0:0, 3+2:0:0:0:0, 1+0:0:0:0:0, 4+0:0:0:0:0, 0+0:0:0:0:0, 4+0:0:0:0:0, 2+1:0:0:0:0, 4+0:0:0:0:0, 1+1:0:0:0:0, 2+0:0:0:0:0, 2+1:0:0:0:0, 2+0:0:0:0:0, 0+0:0:0:0:0, 0+0:0:0:0:0, 0+0:0:0:0:0, 0+0:0:0:0:0, 348+139:4:2:0:6
C# minor (4#), 2+1:0:0:0:0, 1+0:0:0:0:0, 3+0:0:0:0:0, 3+0:0:0:0:0, 2+0:0:0:0:0, 1+0:0:0:0:0, 3+4:4:0:0:4, 3+2:0:0:0:0, 1+0:0:0:0:0, 2+1:0:0:0:0, 3+1:0:0:0:0, 3+0:0:0:0:0, 3+0:0:0:0:0, 0+0:0:0:0:0, 1+2:0:0:0:0, 2+2:0:0:0:0, 3+3:0:0:0:0, 0+0:0:0:0:0, 1+3:0:0:0:0, 2+2:0:0:0:0, 3+2:0:0:0:0, 1+0:0:0:0:0, 4+1:0:0:0:0, 4+1:0:0:0:0, 3+0:0:0:0:0, 2+1:0:0:0:0, 1+0:0:0:0:0, 3+1:0:0:0:0, 2+3:0:0:0:0, 3+2:0:0:0:0, 1+3:0:0:0:0, 1+0:0:0:0:0, 2+1:0:0:0:0, 3+2:0:0:0:0, 3+2:0:0:0:0, 4+2:0:0:0:0, 3+1:1:0:0:1, 3+2:0:0:0:0, 2+1:0:0:0:1, 2+2:0:0:0:1, 3+1:1:0:0:1, 4+4:0:0:0:0, 5+3:0:0:0:0, 4+4:0:1:0:1, 4+0:0:0:0:0, 2+0:0:0:0:0, 3+1:0:0:0:0, 2+1:0:0:0:0, 5+4:0:0:0:0, 0+0:0:0:0:0, 2+3:0:1:0:1, 2+3:0:0:0:0, 4+2:0:0:0:0, 3+2:0:0:0:0, 2+0:0:0:0:0, 4+2:0:0:0:0, 6+3:0:0:0:1, 0+0:0:0:0:0, 2+3:0:1:0:1, 2+0:0:0:0:0, 3+2:0:0:0:0, 5+2:0:0:0:0, 1+0:0:0:0:0, 4+3:0:0:0:0, 2+1:0:0:0:0, 3+1:0:0:0:0, 4+3:0:0:0:0, 5+1:0:0:0:0, 4+1:0:0:0:0, 4+3:0:0:0:0, 3+1:0:0:0:0, 5+2:0:0:0:0, 3+1:0:0:0:0, 3+1:0:0:0:0, 3+2:0:0:0:0, 4+2:0:0:0:0, 4+2:1:0:0:1, 4+2:0:0:0:0, 1+0:0:0:0:0, 2+0:0:0:0:0, 3+1:0:0:0:0, 1+1:0:0:0:1, 1+0:0:0:0:0, 2+1:0:0:0:0, 4+1:1:1:0:1, 3+3:1:0:0:0, 3+2:0:0:0:0, 4+2:0:0:0:0, 4+2:0:0:0:0, 0+0:0:0:0:0, 2+3:0:1:0:1, 2+0:0:0:0:0, 3+5:2:0:0:4, 5+4:1:0:0:1, 1+0:0:0:0:0, 4+1:0:0:0:0, 3+2:0:0:0:0, 3+1:0:0:0:0, 4+3:0:0:0:0, 5+1:0:0:0:0, 4+1:0:0:0:0, 5+1:0:0:0:1, 3+1:0:0:0:0, 5+2:0:0:0:0, 3+1:0:0:0:0, 3+1:0:0:0:0, 3+2:0:0:0:0, 4+2:0:0:0:0, 4+2:1:0:0:1, 4+2:0:0:0:0, 1+0:0:0:0:0, 2+0:0:0:0:0, 3+1:0:0:0:0, 1+1:0:0:0:1, 1+0:0:0:0:0, 2+1:0:0:0:0, 4+1:1:1:0:1, 3+3:1:0:0:0, 3+2:0:0:0:0, 4+2:0:0:0:0, 4+2:0:0:0:0, 0+0:0:0:0:0, 2+3:0:1:0:1, 2+0:0:0:0:0, 4+0:0:0:0:0, 5+1:0:0:0:0, 1+3:0:0:0:0, 3+2:1:0:0:1, 3+2:0:0:0:0, 3+2:0:0:0:0, 3+2:0:0:0:0, 3+2:1:1:0:1, 5+1:0:0:0:0, 4+2:0:0:0:0, 2+0:0:0:0:0, 2+3:0:0:0:0, 4+1:0:0:0:0, 5+1:0:0:0:0, 4+1:0:0:0:0, 3+1:1:1:0:1, 5+3:0:1:0:1, 3+1:0:0:0:0, 4+2:0:0:0:0, 3+0:0:0:0:0, 3+0:0:0:0:0, 2+4:0:0:0:0, 1+0:0:0:0:0, 2+0:0:0:0:0, 3+1:0:0:0:0, 4+2:0:0:0:1, 4+2:0:0:0:0, 5+2:1:1:0:1, 5+1:0:0:0:0, 3+1:1:0:0:0, 1+4:0:0:0:0, 3+2:0:0:0:0, 3+5:2:0:0:1, 4+0:0:0:0:0, 1+4:0:0:0:0, 2+4:0:0:0:0, 0+4:0:0:0:0, 3+3:0:0:0:0, 1+0:0:0:0:0, 2+1:0:0:0:1, 2+2:0:0:0:0, 3+4:0:0:0:0, 1+0:0:0:0:0, 1+0:0:0:0:0, 1+0:0:0:0:0, 1+0:0:0:0:0, 1+0:0:0:0:0, 473+254:22:11:0:34
Db major (5b), 2+0:0:0:0:0, 1+0:0:0:0:0, 1+0:0:0:0:0, 2+1:0:0:0:0, 1+0:0:0:0:0, 2+0:0:0:0:0, 1+0:0:0:0:0, 3+0:0:0:0:0, 3+0:0:0:0:0, 2+0:0:0:0:0, 3+0:0:0:0:0, 1+0:0:0:0:0, 2+0:0:0:0:0, 1+0:0:0:0:0, 1+1:0:0:0:0, 3+0:0:0:0:0, 2+0:0:0:0:0, 1+0:0:0:0:0, 2+0:0:0:0:0, 2+0:0:0:0:0, 3+1:0:0:0:1, 1+0:0:0:0:0, 3+0:0:0:0:0, 1+0:0:0:0:0, 1+0:0:0:0:0, 2+0:0:0:0:0, 3+1:0:0:0:0, 3+0:0:0:0:0, 3+1:0:1:0:1, 2+0:0:0:0:0, 2+1:0:0:0:0, 1+0:0:0:0:0, 2+0:0:0:0:0, 2+1:0:0:0:0, 2+1:0:0:0:0, 2+1:0:0:0:1, 3+1:0:0:0:0, 4+1:0:0:0:0, 3+1:0:0:0:0, 3+1:0:0:0:0, 3+1:0:0:0:0, 3+1:1:0:0:1, 4+1:0:0:0:0, 2+1:0:1:0:0, 2+0:0:0:0:0, 2+0:0:0:0:0, 2+1:0:0:0:0, 3+1:0:0:0:1, 2+1:0:0:0:0, 1+1:0:0:0:0, 3+1:0:0:0:0, 3+1:0:0:0:0, 3+1:0:0:0:1, 2+0:0:0:0:0, 2+0:0:0:0:0, 2+1:0:0:0:1, 3+1:0:0:0:1, 1+1:0:0:0:0, 2+1:0:0:0:0, 3+0:0:0:0:0, 2+1:0:1:0:0, 3+1:0:0:0:0, 3+1:1:0:0:1, 5+1:0:0:0:0, 4+0:0:0:0:0, 3+0:0:0:0:0, 2+1:0:0:0:0, 1+0:0:0:0:0, 1+0:0:0:0:0, 3+2:0:0:0:1, 2+1:0:0:0:0, 4+1:0:0:0:0, 3+1:0:0:0:0, 2+0:0:0:0:0, 4+4:0:0:0:0, 3+2:0:0:0:1, 1+0:0:0:0:0, 5+2:0:0:0:1, 3+1:0:0:0:0, 2+0:0:0:0:0, 2+0:0:0:0:0, 2+0:0:0:0:0, 3+2:0:0:0:0, 3+1:0:0:0:1, 2+1:0:0:0:0, 2+1:0:0:0:0, 2+1:0:0:0:0, 2+1:0:0:0:1, 1+1:0:0:0:0, 1+1:0:0:0:0, 2+1:0:0:0:0, 3+0:0:0:0:0, 4+2:0:0:0:0, 4+1:0:0:0:0, 2+0:0:0:0:0, 3+0:0:0:0:0, 3+1:0:0:0:0, 4+0:0:0:0:0, 3+1:0:0:0:0, 1+0:0:0:0:0, 2+0:0:0:0:0, 3+1:0:0:0:0, 3+1:0:0:0:0, 4+1:0:0:0:0, 3+1:0:0:0:0, 2+0:0:0:0:0, 4+4:0:0:0:0, 3+2:0:0:0:1, 1+0:0:0:0:0, 5+2:0:0:0:1, 3+1:0:0:0:0, 2+0:0:0:0:0, 3+1:0:0:0:0, 2+0:0:0:0:0, 3+2:0:0:0:0, 3+1:0:0:0:1, 2+1:0:0:0:0, 2+1:0:0:0:0, 2+1:0:0:0:0, 2+1:0:0:0:1, 1+1:0:0:0:0, 1+1:0:0:0:0, 2+1:0:0:0:0, 3+0:0:0:0:0, 4+0:0:0:0:0, 4+1:0:0:0:0, 2+0:0:0:0:0, 3+0:0:0:0:0, 3+1:0:0:0:0, 2+1:0:0:0:0, 2+1:0:0:0:0, 2+2:0:0:0:0, 2+0:0:0:0:0, 5+1:0:0:0:0, 3+0:0:0:0:0, 3+1:0:0:0:0, 3+0:0:0:0:0, 2+0:0:0:0:0, 2+0:0:0:0:0, 2+1:0:0:0:0, 2+1:0:1:0:0, 4+1:0:0:0:0, 5+1:0:0:0:0, 3+0:0:0:0:0, 3+0:0:0:0:0, 4+0:0:0:0:0, 3+2:0:0:0:0, 2+0:0:0:0:0, 4+1:0:0:0:0, 3+0:0:0:0:0, 3+0:0:0:0:0, 4+2:0:0:0:1, 2+0:0:0:0:0, 4+1:0:0:0:0, 2+0:0:0:0:0, 3+0:0:0:0:0, 3+2:0:0:0:0, 2+0:0:0:0:0, 3+1:1:0:0:1, 1+1:0:0:0:0, 4+0:0:0:0:0, 3+0:0:0:0:0, 4+1:0:0:0:0, 2+1:0:0:0:0, 2+0:0:0:0:0, 3+0:0:0:0:0, 2+0:0:0:0:0, 1+0:0:0:0:0, 1+0:0:0:0:0, 1+0:0:0:0:0, 1+0:0:0:0:0, 424+110:3:4:0:20
B major (5#), 2+0:0:0:0:0, 1+0:0:0:0:0, 3+0:0:0:0:0, 3+0:0:0:0:0, 3+3:0:0:0:0, 2+0:0:0:0:0, 3+4:4:0:0:4, 4+0:0:0:0:0, 2+1:0:0:0:0, 2+1:0:0:0:0, 4+1:0:0:0:0, 3+0:0:0:0:0, 4+2:0:0:0:0, 1+0:0:0:0:0, 1+0:0:0:0:0, 3+1:0:0:0:0, 2+0:0:0:0:0, 1+3:0:0:0:0, 2+1:0:0:0:0, 2+0:0:0:0:0, 2+0:0:0:0:0, 1+0:0:0:0:0, 5+1:0:0:0:0, 4+1:0:0:0:0, 3+0:0:0:0:0, 3+1:0:0:0:0, 2+2:0:0:0:0, 4+1:0:0:0:0, 3+3:0:0:0:0, 4+2:0:0:0:0, 2+4:0:0:0:0, 1+0:0:0:0:0, 2+0:0:0:0:0, 4+2:0:0:0:0, 4+2:0:0:0:0, 5+2:0:0:0:0, 4+3:1:0:0:0, 4+2:0:0:0:0, 3+1:0:0:0:1, 3+2:0:0:0:1, 3+1:1:0:0:1, 4+4:0:0:0:0, 5+3:0:0:0:0, 4+1:0:1:0:1, 5+4:0:0:0:0, 3+2:0:0:0:0, 2+1:0:1:0:0, 3+1:0:0:0:0, 5+4:0:0:0:0, 1+0:0:0:0:0, 3+3:0:1:0:1, 2+3:0:0:0:0, 3+3:1:0:0:1, 4+0:0:0:0:0, 3+1:0:0:0:0, 4+2:0:0:0:0, 6+3:0:0:0:1, 1+0:0:0:0:0, 2+3:0:1:0:1, 2+0:0:0:0:0, 3+2:0:0:0:0, 6+2:0:0:0:0, 2+2:0:0:0:0, 5+5:0:0:0:1, 3+1:0:0:0:0, 3+1:0:0:0:0, 4+3:0:0:0:0, 5+1:0:0:0:0, 4+1:0:0:0:0, 5+3:0:0:0:0, 3+1:0:0:0:0, 5+1:0:0:0:1, 3+1:0:0:0:0, 3+1:0:0:0:0, 3+1:0:0:0:1, 5+2:0:0:0:0, 4+2:1:0:0:1, 5+2:0:0:0:0, 2+2:0:0:0:0, 2+0:0:0:0:0, 3+1:0:0:0:0, 2+1:0:0:0:0, 2+0:0:0:0:0, 3+1:0:0:0:1, 4+1:1:1:0:1, 3+3:1:0:0:0, 4+2:0:0:0:0, 4+2:0:0:0:0, 4+2:0:0:0:0, 1+0:0:0:0:0, 2+3:0:1:0:1, 2+0:0:0:0:0, 4+5:2:0:0:4, 6+4:1:0:0:1, 2+3:0:0:0:0, 3+1:0:0:0:0, 4+2:0:0:0:0, 4+1:0:0:0:0, 5+3:0:0:0:0, 5+2:0:0:0:0, 5+2:0:0:0:0, 5+1:1:1:0:1, 3+1:0:0:0:0, 5+1:0:0:0:1, 3+1:0:0:0:0, 3+1:0:0:0:0, 4+2:0:0:0:1, 5+2:0:0:0:0, 4+2:1:0:0:1, 5+2:0:0:0:0, 2+2:0:0:0:0, 2+0:0:0:0:0, 3+1:0:0:0:0, 2+1:0:0:0:0, 2+0:0:0:0:0, 3+1:0:0:0:1, 4+1:1:1:0:1, 3+3:1:0:0:0, 4+2:0:0:0:0, 4+2:0:0:0:0, 4+2:0:0:0:0, 1+0:0:0:0:0, 2+3:0:1:0:1, 2+0:0:0:0:0, 5+0:0:0:0:0, 6+3:0:0:0:1, 2+3:0:0:0:0, 3+1:0:0:0:0, 4+2:0:0:0:0, 3+2:0:0:0:0, 4+2:0:0:0:0, 3+2:1:1:0:1, 5+1:0:0:0:0, 5+2:0:0:0:0, 3+0:0:0:0:0, 2+3:0:0:0:0, 5+1:0:0:0:0, 5+1:0:0:0:0, 5+1:0:0:0:0, 5+1:0:0:0:1, 5+2:0:1:0:1, 4+2:0:0:0:0, 5+2:0:0:0:0, 4+0:0:0:0:0, 4+0:0:0:0:0, 3+4:0:0:0:0, 2+4:0:0:0:0, 2+0:0:0:0:0, 4+1:0:0:0:0, 5+2:0:0:0:1, 5+2:0:0:0:0, 5+2:1:1:0:1, 5+2:0:0:0:0, 5+3:0:0:0:0, 2+1:0:0:0:0, 4+2:0:0:0:0, 4+5:2:0:0:1, 4+0:0:0:0:0, 2+0:0:0:0:0, 2+0:0:0:0:0, 1+1:0:0:0:0, 4+3:0:0:0:0, 2+1:0:0:0:0, 2+1:0:0:0:1, 2+2:0:0:0:0, 4+4:0:0:0:0, 2+2:0:0:0:0, 1+0:0:0:0:0, 1+0:0:0:0:0, 1+0:0:0:0:0, 1+0:0:0:0:0, 560+262:21:12:0:39
Bb minor (5b), 2+0:0:0:0:0, 1+0:0:0:0:0, 1+0:0:0:0:0, 2+1:0:0:0:0, 1+0:0:0:0:0, 2+0:0:0:0:0, 1+4:0:0:0:0, 3+0:0:0:0:0, 3+0:0:0:0:0, 2+0:0:0:0:0, 3+0:0:0:0:0, 1+0:0:0:0:0, 2+0:0:0:0:0, 1+0:0:0:0:0, 1+1:0:0:0:0, 3+0:0:0:0:0, 2+0:0:0:0:0, 1+0:0:0:0:0, 2+0:0:0:0:0, 2+0:0:0:0:0, 3+1:0:0:0:1, 1+0:0:0:0:0, 3+0:0:0:0:0, 1+0:0:0:0:0, 1+0:0:0:0:0, 2+0:0:0:0:0, 3+1:0:0:0:0, 3+0:0:0:0:0, 3+1:0:1:0:1, 2+0:0:0:0:0, 2+1:0:0:0:0, 1+0:0:0:0:0, 2+0:0:0:0:0, 2+1:0:0:0:0, 2+1:0:0:0:0, 2+1:0:0:0:1, 3+1:0:0:0:0, 4+2:0:0:0:1, 3+1:0:0:0:0, 3+1:0:0:0:0, 3+1:0:0:0:0, 3+1:1:0:0:1, 4+1:0:0:0:0, 2+1:0:1:0:0, 2+0:0:0:0:0, 2+0:0:0:0:0, 2+1:0:0:0:0, 3+1:0:0:0:0, 2+1:0:0:0:0, 1+1:0:0:0:0, 3+1:0:0:0:0, 3+1:0:0:0:0, 3+1:0:0:0:0, 2+0:0:0:0:0, 2+0:0:0:0:0, 2+1:0:0:0:0, 3+2:0:0:0:0, 1+1:0:0:0:0, 2+1:0:0:0:0, 3+1:0:0:0:0, 2+1:0:1:0:0, 3+1:0:0:0:0, 3+1:1:0:0:1, 5+1:0:0:0:0, 4+0:0:0:0:0, 3+0:0:0:0:0, 2+1:0:0:0:0, 1+0:0:0:0:0, 1+0:0:0:0:0, 3+2:0:0:0:1, 2+1:0:0:0:0, 4+1:0:0:0:0, 3+1:0:0:0:0, 2+0:0:0:0:0, 4+4:0:0:0:0, 3+1:0:0:0:0, 1+1:0:0:0:0, 5+2:0:0:0:1, 3+1:0:0:0:0, 2+0:0:0:0:0, 2+1:0:0:0:0, 2+0:0:0:0:0, 3+2:0:0:0:0, 3+1:0:0:0:1, 2+1:0:0:0:0, 2+1:0:0:0:0, 2+1:0:0:0:0, 2+1:0:0:0:1, 1+1:0:0:0:0, 1+1:0:0:0:0, 2+1:0:0:0:0, 3+1:0:0:0:0, 4+2:0:0:0:0, 4+1:0:0:0:0, 2+0:0:0:0:0, 3+0:0:0:0:0, 3+1:0:0:0:0, 4+0:0:0:0:0, 3+1:0:0:0:0, 1+0:0:0:0:0, 2+0:0:0:0:0, 3+1:0:0:0:0, 3+1:0:0:0:0, 4+1:0:0:0:0, 3+1:0:0:0:0, 2+0:0:0:0:0, 4+4:0:0:0:0, 3+1:0:0:0:0, 1+1:0:0:0:0, 5+2:0:0:0:1, 3+1:0:0:0:0, 2+0:0:0:0:0, 3+1:0:0:0:0, 2+0:0:0:0:0, 3+2:0:0:0:0, 3+1:0:0:0:1, 2+1:0:0:0:0, 2+1:0:0:0:0, 2+1:0:0:0:0, 2+1:0:0:0:1, 1+1:0:0:0:0, 1+1:0:0:0:0, 2+1:0:0:0:0, 3+1:0:0:0:0, 4+0:0:0:0:0, 4+1:0:0:0:0, 2+0:0:0:0:0, 3+0:0:0:0:0, 3+1:0:0:0:0, 2+1:0:0:0:0, 2+1:0:0:0:0, 1+1:0:0:0:1, 2+1:0:0:0:0, 5+1:0:0:0:0, 3+0:0:0:0:0, 3+1:0:0:0:0, 3+0:0:0:0:0, 2+0:0:0:0:0, 2+0:0:0:0:0, 2+1:0:0:0:0, 2+1:0:1:0:0, 4+1:0:0:0:0, 5+1:0:0:0:0, 3+0:0:0:0:0, 3+0:0:0:0:0, 4+0:0:0:0:0, 3+2:0:0:0:0, 2+0:0:0:0:0, 4+1:0:0:0:0, 3+0:0:0:0:0, 3+0:0:0:0:0, 4+2:0:0:0:1, 2+0:0:0:0:0, 4+1:0:0:0:0, 2+0:0:0:0:0, 3+0:0:0:0:0, 3+2:0:0:0:0, 2+0:0:0:0:0, 3+1:1:0:0:1, 1+1:0:0:0:0, 4+0:0:0:0:0, 3+0:0:0:0:0, 4+1:0:0:0:0, 2+1:0:0:0:0, 2+0:0:0:0:0, 3+0:0:0:0:0, 2+0:0:0:0:0, 1+0:0:0:0:0, 1+0:0:0:0:0, 1+0:0:0:0:0, 1+0:0:0:0:0, 423+120:3:4:0:16
G# minor (5#), 2+0:0:0:0:0, 1+0:0:0:0:0, 3+0:0:0:0:0, 3+0:0:0:0:0, 3+3:0:0:0:0, 2+0:0:0:0:0, 3+4:4:0:0:4, 4+0:0:0:0:0, 2+1:0:0:0:0, 2+1:0:0:0:0, 4+1:0:0:0:0, 3+0:0:0:0:0, 4+2:0:0:0:0, 1+0:0:0:0:0, 1+0:0:0:0:0, 3+1:0:0:0:0, 2+0:0:0:0:0, 1+0:0:0:0:0, 2+0:0:0:0:0, 2+0:0:0:0:0, 2+0:0:0:0:0, 1+0:0:0:0:0, 5+1:0:0:0:0, 4+1:0:0:0:0, 3+0:0:0:0:0, 3+1:0:0:0:0, 2+2:0:0:0:0, 4+1:0:0:0:0, 3+3:0:0:0:0, 4+2:0:0:0:0, 2+4:0:0:0:0, 1+0:0:0:0:0, 2+0:0:0:0:0, 4+2:0:0:0:0, 4+2:0:0:0:0, 5+2:0:0:0:0, 4+3:1:0:0:0, 3+3:0:1:0:1, 3+1:0:0:0:1, 3+2:0:0:0:1, 3+1:1:0:0:1, 4+4:0:0:0:0, 5+3:0:0:0:0, 4+4:0:1:0:1, 5+0:0:0:0:0, 3+0:0:0:0:0, 3+1:0:0:0:1, 3+1:0:0:0:0, 4+3:0:1:0:1, 1+3:0:0:0:0, 3+3:0:1:0:0, 2+1:1:0:0:1, 3+3:1:0:0:1, 4+0:0:0:0:0, 3+1:0:0:0:0, 4+2:0:0:0:0, 6+3:0:0:0:1, 1+0:0:0:0:0, 2+1:0:1:0:0, 2+0:0:0:0:0, 3+2:0:0:0:0, 6+2:0:0:0:0, 2+2:0:0:0:0, 5+5:0:0:0:1, 3+1:0:0:0:0, 3+1:0:0:0:0, 4+3:0:0:0:0, 5+1:0:0:0:0, 4+1:0:0:0:0, 5+2:0:0:0:1, 3+1:1:0:0:0, 5+1:0:0:0:1, 3+1:0:0:0:0, 3+1:0:0:0:0, 3+1:0:0:0:1, 5+2:0:0:0:0, 4+2:1:0:0:1, 5+2:0:0:0:0, 2+2:0:0:0:0, 2+0:0:0:0:0, 3+1:0:0:0:0, 2+1:0:0:0:1, 2+0:0:0:0:0, 3+1:0:0:0:0, 4+1:1:1:0:1, 3+3:1:0:0:0, 4+2:0:0:0:0, 4+2:0:0:0:0, 4+2:0:0:0:0, 1+0:0:0:0:0, 2+1:0:0:0:0, 2+2:0:0:0:0, 4+5:2:0:0:4, 6+4:1:0:0:1, 2+3:0:0:0:0, 3+1:0:0:0:0, 4+2:0:0:0:0, 4+1:0:0:0:0, 5+3:0:0:0:0, 5+1:0:0:0:0, 5+1:0:0:0:0, 5+1:1:1:0:1, 3+1:0:0:0:0, 5+1:0:0:0:1, 3+1:0:0:0:0, 3+1:0:0:0:0, 4+2:0:0:0:1, 5+2:0:0:0:0, 4+2:1:0:0:1, 5+2:0:0:0:0, 2+2:0:0:0:0, 2+0:0:0:0:0, 3+1:0:0:0:0, 2+1:0:0:0:1, 2+0:0:0:0:0, 3+1:0:0:0:0, 4+1:1:1:0:1, 3+3:1:0:0:0, 4+2:0:0:0:0, 4+2:0:0:0:0, 4+2:0:0:0:0, 2+1:1:0:0:0, 3+1:0:0:0:1, 2+2:0:0:0:0, 5+0:0:0:0:0, 6+3:0:0:0:1, 2+3:0:0:0:0, 3+1:0:0:0:0, 4+2:0:0:0:0, 3+2:0:0:0:0, 4+2:0:0:0:0, 3+2:1:1:0:1, 5+1:0:0:0:0, 5+2:0:0:0:0, 3+0:0:0:0:0, 2+3:0:0:0:0, 5+1:0:0:0:0, 5+1:0:0:0:0, 5+1:0:0:0:0, 5+1:0:0:0:1, 4+3:2:1:0:3, 4+1:0:0:0:0, 5+2:0:0:0:0, 4+0:0:0:0:0, 4+0:0:0:0:0, 3+4:0:0:0:0, 2+0:0:0:0:0, 2+0:0:0:0:0, 4+1:0:0:0:0, 5+2:0:0:0:1, 5+2:0:0:0:0, 5+2:1:1:0:1, 5+1:0:0:0:0, 4+0:0:0:0:0, 2+1:0:0:0:0, 4+2:0:0:0:0, 4+5:2:0:0:1, 4+0:0:0:0:0, 2+0:0:0:0:0, 2+0:0:0:0:0, 1+1:0:0:0:0, 4+3:0:0:0:0, 2+1:0:0:0:0, 2+1:0:0:0:1, 2+2:0:0:0:0, 4+4:0:0:0:0, 2+2:0:0:0:0, 1+0:0:0:0:0, 1+0:0:0:0:0, 1+0:0:0:0:0, 1+0:0:0:0:0, 559+244:26:11:0:43
Gb major (6b), 2+0:0:0:0:0, 2+0:0:0:0:0, 2+0:0:0:0:0, 2+1:0:0:0:0, 1+0:0:0:0:0, 2+0:0:0:0:0, 2+0:0:0:0:0, 3+0:0:0:0:0, 3+0:0:0:0:0, 3+0:0:0:0:0, 3+0:0:0:0:0, 1+0:0:0:0:0, 2+1:0:0:0:0, 1+0:0:0:0:0, 1+1:0:0:0:0, 3+0:0:0:0:0, 2+0:0:0:0:0, 1+0:0:0:0:0, 2+0:0:0:0:0, 2+0:0:0:0:0, 2+1:0:1:0:0, 2+0:0:0:0:0, 4+0:0:0:0:0, 2+0:0:0:0:0, 1+0:0:0:0:0, 2+3:0:0:0:0, 3+1:0:0:0:0, 4+0:0:0:0:0, 2+2:0:0:0:1, 2+1:0:0:0:0, 2+1:0:0:0:0, 1+0:0:0:0:0, 2+0:0:0:0:0, 4+1:1:0:0:1, 2+1:0:0:0:1, 2+1:0:1:0:1, 3+1:0:0:0:0, 5+1:0:0:0:0, 4+1:0:0:0:0, 3+0:0:0:0:0, 3+1:0:0:0:0, 4+1:1:0:0:1, 5+2:0:0:0:1, 1+0:0:0:0:0, 3+1:0:0:0:0, 2+0:0:0:0:0, 2+1:0:0:0:0, 2+1:0:1:0:0, 3+1:0:0:0:0, 1+1:0:0:0:0, 3+1:0:0:0:0, 3+1:0:0:0:0, 4+1:0:0:0:1, 3+0:0:0:0:0, 3+1:0:0:0:0, 2+1:0:1:0:0, 3+1:0:0:0:1, 1+1:0:0:0:0, 2+1:0:0:0:0, 4+0:0:0:0:0, 1+3:0:1:0:1, 3+2:0:0:0:0, 3+1:1:0:0:1, 5+1:0:0:0:0, 4+0:0:0:0:0, 4+0:0:0:0:0, 2+1:0:0:0:0, 2+0:0:0:0:0, 1+0:0:0:0:0, 4+2:0:0:0:1, 3+1:0:0:0:0, 4+1:0:0:0:0, 3+1:0:0:0:0, 3+0:0:0:0:0, 4+0:0:0:0:0, 4+2:0:0:0:0, 1+3:0:0:0:0, 6+1:0:0:0:0, 3+1:0:0:0:0, 2+0:0:0:0:0, 2+0:0:0:0:0, 2+3:0:0:0:0, 3+2:0:0:0:0, 2+1:0:1:0:0, 3+1:0:0:0:0, 3+1:0:0:0:0, 2+1:0:0:0:0, 2+1:0:1:0:0, 1+1:0:0:0:0, 1+1:0:0:0:0, 2+1:0:0:0:0, 4+0:0:0:0:0, 4+2:0:0:0:0, 4+1:0:0:0:0, 2+0:0:0:0:0, 3+0:0:0:0:0, 3+1:0:0:0:0, 5+0:0:0:0:0, 3+1:0:0:0:0, 2+0:0:0:0:0, 2+1:0:0:0:0, 4+1:0:0:0:0, 3+1:1:0:0:1, 4+1:0:0:0:0, 3+1:0:0:0:0, 3+0:0:0:0:0, 4+0:0:0:0:0, 4+2:0:0:0:0, 1+3:0:0:0:0, 6+1:0:0:0:0, 3+1:0:0:0:0, 2+0:0:0:0:0, 3+1:0:0:0:0, 2+3:0:0:0:0, 3+2:0:0:0:0, 2+1:0:1:0:0, 3+1:0:0:0:0, 3+1:0:0:0:0, 2+1:0:0:0:0, 2+1:0:1:0:0, 1+1:0:0:0:0, 1+1:0:0:0:0, 2+1:0:0:0:0, 4+0:0:0:0:0, 4+0:0:0:0:0, 4+1:0:0:0:0, 2+0:0:0:0:0, 3+0:0:0:0:0, 3+1:0:0:0:0, 3+1:0:0:0:0, 2+1:0:0:0:0, 1+2:0:0:0:0, 2+0:0:0:0:0, 6+1:0:0:0:0, 3+0:0:0:0:0, 3+1:0:0:0:0, 4+0:0:0:0:0, 3+0:0:0:0:0, 3+0:0:0:0:0, 2+1:0:0:0:0, 2+1:0:1:0:0, 5+1:0:0:0:0, 5+1:0:0:0:0, 3+0:0:0:0:0, 3+0:0:0:0:0, 4+0:0:0:0:0, 3+2:0:0:0:0, 2+0:0:0:0:0, 5+0:0:0:0:0, 4+0:0:0:0:0, 4+0:0:0:0:0, 4+2:0:1:0:0, 2+0:0:0:0:0, 4+1:0:0:0:0, 2+0:0:0:0:0, 4+0:0:0:0:0, 3+2:0:0:0:0, 2+0:0:0:0:0, 4+0:0:0:0:0, 1+0:0:0:0:0, 4+0:0:0:0:0, 3+1:0:0:0:0, 4+0:0:0:0:0, 2+1:0:0:0:1, 3+0:0:0:0:0, 3+0:0:0:0:0, 2+0:0:0:0:0, 1+0:0:0:0:0, 1+0:0:0:0:0, 1+0:0:0:0:0, 1+0:0:0:0:0, 467+120:4:11:0:13
F# major (6#), 2+0:0:0:0:0, 2+0:0:0:0:0, 3+0:0:0:0:0, 4+0:0:0:0:0, 3+3:0:0:0:0, 2+0:0:0:0:0, 3+1:0:0:0:1, 4+2:0:0:0:0, 2+2:0:0:0:0, 3+0:0:0:0:0, 4+1:0:0:0:0, 3+0:0:0:0:0, 4+2:0:0:0:0, 1+1:0:0:0:0, 1+0:0:0:0:0, 3+1:0:0:0:0, 2+0:0:0:0:0, 1+1:0:0:0:0, 2+0:0:0:0:0, 2+0:0:0:0:0, 2+0:0:0:0:0, 2+0:0:0:0:0, 5+1:0:0:0:0, 4+1:0:0:0:0, 3+0:0:0:0:0, 3+1:0:0:0:0, 2+0:0:0:0:0, 4+2:0:0:0:0, 4+3:0:0:0:0, 4+2:0:0:0:0, 2+4:0:0:0:0, 1+0:0:0:0:0, 2+0:0:0:0:0, 4+2:0:0:0:2, 4+2:0:0:0:0, 5+2:0:0:0:0, 4+3:1:0:0:1, 3+1:0:1:0:0, 3+1:0:0:0:1, 3+2:0:1:0:0, 3+1:1:0:0:1, 4+4:0:0:0:0, 6+3:0:0:0:0, 3+4:3:4:0:4, 5+4:0:0:0:0, 3+2:0:0:0:0, 4+1:0:0:0:0, 3+3:0:0:0:1, 5+2:0:0:0:0, 1+1:0:0:0:0, 5+1:0:0:0:0, 3+3:0:0:0:0, 3+2:0:0:0:1, 3+2:0:0:0:0, 4+0:0:0:0:0, 4+2:0:0:0:0, 6+3:0:0:0:1, 1+1:0:0:0:0, 4+1:0:0:0:0, 3+2:0:0:0:0, 3+2:0:0:0:0, 6+2:0:0:0:0, 2+0:0:0:0:0, 6+3:0:0:0:0, 3+3:0:0:0:0, 4+1:0:0:0:0, 4+3:0:0:0:0, 4+1:1:1:0:1, 4+1:0:0:0:0, 5+2:0:0:0:1, 3+1:0:0:0:0, 6+2:0:0:0:0, 3+1:0:0:0:0, 3+1:0:0:0:0, 4+1:0:0:0:0, 6+2:0:0:0:0, 4+2:1:0:0:1, 5+2:0:0:0:0, 2+0:0:0:0:0, 2+0:0:0:0:0, 3+1:0:0:0:0, 2+1:0:0:0:1, 2+0:0:0:0:0, 3+1:0:0:0:0, 4+1:1:1:0:1, 3+3:1:0:0:0, 4+2:0:0:0:0, 4+2:0:0:0:0, 4+2:0:0:0:0, 1+0:0:0:0:0, 3+1:0:0:0:0, 3+2:0:0:0:0, 5+4:2:0:0:3, 6+4:1:0:0:1, 2+0:0:0:0:0, 3+1:0:0:0:0, 4+2:0:0:0:0, 5+1:0:0:0:0, 5+3:0:0:0:0, 4+1:1:1:0:1, 5+1:0:0:0:0, 5+1:1:1:0:1, 3+1:0:0:0:0, 6+2:0:0:0:0, 3+1:0:0:0:0, 3+1:0:0:0:0, 4+1:0:0:0:0, 6+2:0:0:0:0, 4+2:1:0:0:1, 5+2:0:0:0:0, 2+0:0:0:0:0, 2+0:0:0:0:0, 3+1:0:0:0:0, 2+1:0:0:0:1, 2+0:0:0:0:0, 3+1:0:0:0:0, 4+1:1:1:0:1, 3+3:1:0:0:0, 4+2:0:0:0:0, 4+2:0:0:0:0, 4+2:0:0:0:0, 1+0:0:0:0:0, 3+1:0:1:0:1, 3+2:0:0:0:0, 6+0:0:0:0:0, 6+3:0:0:0:1, 2+3:0:0:0:0, 3+1:0:0:0:0, 4+2:0:0:0:0, 4+2:0:0:0:0, 4+2:0:0:0:0, 3+2:1:1:0:1, 4+2:2:0:0:2, 5+1:0:0:0:0, 4+0:0:0:0:0, 3+3:0:0:0:0, 5+1:0:0:0:0, 4+1:1:1:0:1, 5+1:0:0:0:0, 3+2:2:1:0:1, 4+3:2:1:0:3, 4+1:0:0:0:0, 6+2:0:0:0:0, 4+0:0:0:0:0, 4+0:0:0:0:0, 4+4:0:0:0:0, 2+0:0:0:0:0, 2+0:0:0:0:0, 4+1:0:0:0:0, 5+2:0:0:0:1, 5+2:0:0:0:0, 5+2:1:1:0:1, 5+1:0:0:0:0, 4+0:0:0:0:0, 2+0:0:0:0:0, 4+5:0:0:0:0, 6+4:1:0:0:0, 4+4:0:0:0:0, 2+0:0:0:0:0, 2+4:0:0:0:0, 2+4:0:0:0:0, 4+3:0:0:0:0, 2+0:0:0:0:0, 1+3:0:0:0:0, 3+6:0:0:0:1, 4+4:0:0:0:0, 2+0:0:0:0:0, 1+0:0:0:0:0, 1+0:0:0:0:0, 1+0:0:0:0:0, 1+0:0:0:0:0, 586+256:27:17:0:40
Eb minor (6b), 2+0:0:0:0:0, 2+1:0:0:0:0, 2+0:0:0:0:0, 2+1:0:0:0:0, 1+0:0:0:0:0, 2+0:0:0:0:0, 2+0:0:0:0:0, 3+0:0:0:0:0, 3+0:0:0:0:0, 3+0:0:0:0:0, 3+0:0:0:0:0, 1+0:0:0:0:0, 2+1:0:0:0:0, 1+0:0:0:0:0, 1+1:0:0:0:0, 3+0:0:0:0:0, 2+0:0:0:0:0, 1+0:0:0:0:0, 2+0:0:0:0:0, 2+0:0:0:0:0, 2+1:0:1:0:0, 2+0:0:0:0:0, 4+0:0:0:0:0, 2+0:0:0:0:0, 1+0:0:0:0:0, 2+3:0:0:0:0, 3+1:0:0:0:0, 4+0:0:0:0:0, 2+2:0:0:0:1, 2+1:0:0:0:0, 2+1:0:0:0:0, 1+0:0:0:0:0, 2+0:0:0:0:0, 3+1:0:0:0:0, 2+1:0:0:0:0, 2+1:0:1:0:0, 3+1:0:0:0:0, 5+1:0:0:0:0, 4+1:0:0:0:0, 3+1:0:0:0:0, 3+1:0:0:0:0, 4+1:1:0:0:1, 5+2:0:0:0:1, 1+0:0:0:0:0, 3+1:0:0:0:0, 2+0:0:0:0:0, 2+1:0:0:0:0, 2+1:0:1:0:0, 3+1:0:0:0:0, 1+1:0:0:0:0, 3+1:0:0:0:0, 2+1:0:1:0:0, 4+1:0:0:0:1, 3+0:0:0:0:0, 3+1:0:0:0:0, 2+1:0:1:0:0, 3+1:0:0:0:1, 1+1:0:0:0:0, 2+1:0:0:0:0, 4+0:0:0:0:0, 1+1:0:1:0:0, 3+1:0:0:0:0, 3+1:1:0:0:1, 5+1:0:0:0:0, 4+0:0:0:0:0, 4+0:0:0:0:0, 2+1:0:0:0:0, 2+0:0:0:0:0, 1+0:0:0:0:0, 4+2:0:0:0:1, 3+1:0:0:0:0, 4+1:0:0:0:0, 3+1:0:0:0:0, 3+0:0:0:0:0, 4+0:0:0:0:0, 4+2:0:0:0:0, 1+3:0:0:0:0, 6+1:0:0:0:0, 3+1:0:0:0:0, 2+0:0:0:0:0, 2+0:0:0:0:0, 2+3:0:0:0:0, 3+2:0:0:0:0, 2+1:0:1:0:0, 3+1:0:0:0:0, 3+1:0:0:0:0, 2+1:0:0:0:0, 2+1:0:1:0:0, 1+1:0:0:0:0, 1+1:0:0:0:0, 2+1:0:0:0:0, 4+0:0:0:0:0, 4+2:0:0:0:0, 4+1:0:0:0:0, 2+0:0:0:0:0, 3+0:0:0:0:0, 3+1:0:0:0:0, 5+0:0:0:0:0, 3+1:0:0:0:0, 2+0:0:0:0:0, 2+1:0:0:0:0, 4+1:0:0:0:0, 3+1:1:0:0:1, 4+1:0:0:0:0, 3+1:0:0:0:0, 3+0:0:0:0:0, 4+0:0:0:0:0, 4+2:0:0:0:0, 1+3:0:0:0:0, 6+1:0:0:0:0, 3+1:0:0:0:0, 2+0:0:0:0:0, 3+1:0:0:0:0, 2+3:0:0:0:0, 3+2:0:0:0:0, 2+1:0:1:0:0, 3+1:0:0:0:0, 3+1:0:0:0:0, 2+1:0:0:0:0, 2+1:0:1:0:0, 1+1:0:0:0:0, 1+1:0:0:0:0, 2+1:0:0:0:0, 4+0:0:0:0:0, 4+0:0:0:0:0, 4+1:0:0:0:0, 2+0:0:0:0:0, 3+0:0:0:0:0, 3+1:0:0:0:0, 3+1:0:0:0:0, 2+1:0:0:0:0, 1+2:0:0:0:0, 2+0:0:0:0:0, 6+1:0:0:0:0, 3+0:0:0:0:0, 3+1:0:0:0:0, 4+0:0:0:0:0, 3+0:0:0:0:0, 3+0:0:0:0:0, 2+1:0:0:0:0, 2+1:0:1:0:0, 5+1:0:0:0:0, 5+1:0:0:0:0, 3+0:0:0:0:0, 3+0:0:0:0:0, 4+0:0:0:0:0, 3+2:0:0:0:0, 2+0:0:0:0:0, 5+0:0:0:0:0, 4+0:0:0:0:0, 4+0:0:0:0:0, 4+2:0:1:0:0, 2+0:0:0:0:0, 4+1:0:0:0:0, 2+0:0:0:0:0, 4+0:0:0:0:0, 3+2:0:0:0:0, 2+0:0:0:0:0, 2+3:0:0:0:0, 1+0:0:0:0:0, 3+2:0:0:0:0, 3+0:0:0:0:0, 4+1:0:0:0:0, 2+1:0:0:0:0, 3+0:0:0:0:0, 3+0:0:0:0:0, 2+0:0:0:0:0, 1+0:0:0:0:0, 1+0:0:0:0:0, 1+0:0:0:0:0, 1+0:0:0:0:0, 462+124:3:12:0:8
D# minor (6#), 2+0:0:0:0:0, 2+0:0:0:0:0, 3+0:0:0:0:0, 4+0:0:0:0:0, 3+3:0:0:0:0, 2+0:0:0:0:0, 4+0:0:0:0:0, 4+0:0:0:0:0, 2+2:0:0:0:0, 3+0:0:0:0:0, 4+1:0:0:0:0, 3+0:0:0:0:0, 4+2:0:0:0:0, 1+1:0:0:0:0, 1+0:0:0:0:0, 3+1:0:0:0:0, 2+0:0:0:0:0, 1+0:0:0:0:0, 2+0:0:0:0:0, 2+0:0:0:0:0, 2+0:0:0:0:0, 2+0:0:0:0:0, 5+1:0:0:0:0, 4+1:0:0:0:0, 3+0:0:0:0:0, 3+1:0:0:0:0, 2+0:0:0:0:0, 4+2:0:0:0:0, 4+3:0:0:0:0, 4+2:0:0:0:0, 2+0:0:0:0:0, 1+0:0:0:0:0, 2+0:0:0:0:0, 4+2:0:0:0:0, 4+2:0:0:0:0, 5+2:0:0:0:0, 4+3:1:0:0:0, 4+1:0:0:0:0, 3+1:0:0:0:0, 4+2:0:0:0:0, 3+1:1:0:0:1, 4+4:0:0:0:0, 6+3:0:0:0:0, 3+4:3:4:0:4, 5+4:0:0:0:0, 3+2:0:0:0:0, 4+1:0:0:0:0, 3+3:0:0:0:1, 5+2:0:0:0:0, 1+1:0:0:0:0, 5+1:0:0:0:0, 3+3:0:0:0:0, 3+2:0:0:0:1, 3+2:0:0:0:0, 4+0:0:0:0:0, 4+2:0:0:0:0, 6+3:0:0:0:1, 1+1:0:0:0:0, 4+1:0:0:0:0, 3+2:0:0:0:0, 3+2:0:0:0:0, 6+2:0:0:0:0, 2+0:0:0:0:0, 6+3:0:0:0:0, 3+3:0:0:0:0, 4+1:0:0:0:0, 4+3:0:0:0:0, 4+1:1:1:0:1, 4+1:0:0:0:0, 5+2:0:0:0:1, 3+1:0:0:0:0, 6+2:0:0:0:0, 3+1:0:0:0:0, 3+1:0:0:0:0, 4+1:0:0:0:0, 6+2:0:0:0:0, 4+2:1:0:0:1, 5+2:0:0:0:0, 2+0:0:0:0:0, 2+0:0:0:0:0, 3+1:0:0:0:0, 2+1:0:0:0:1, 2+0:0:0:0:0, 3+1:0:0:0:0, 4+1:1:1:0:1, 3+3:1:0:0:0, 4+2:0:0:0:0, 4+2:0:0:0:0, 4+2:0:0:0:0, 2+1:1:0:0:0, 4+1:0:0:0:1, 3+2:0:0:0:0, 5+1:1:0:0:0, 6+3:0:0:0:1, 2+0:0:0:0:0, 4+0:0:0:0:0, 4+2:0:0:0:0, 5+1:0:0:0:0, 5+3:0:0:0:0, 4+1:1:1:0:1, 5+1:0:0:0:0, 5+1:1:1:0:1, 3+1:0:0:0:0, 6+2:0:0:0:0, 3+1:0:0:0:0, 3+1:0:0:0:0, 4+1:0:0:0:0, 6+2:0:0:0:0, 4+2:1:0:0:1, 5+2:0:0:0:0, 2+0:0:0:0:0, 2+0:0:0:0:0, 3+1:0:0:0:0, 2+1:0:0:0:1, 2+0:0:0:0:0, 3+1:0:0:0:0, 4+1:1:1:0:1, 3+3:1:0:0:0, 4+2:0:0:0:0, 4+2:0:0:0:0, 4+2:0:0:0:0, 2+1:1:0:0:0, 4+1:0:0:0:1, 3+2:0:0:0:0, 6+0:0:0:0:0, 6+3:0:0:0:1, 2+0:0:0:0:0, 4+0:0:0:0:0, 4+1:0:0:0:0, 4+1:0:0:0:0, 4+1:0:0:0:0, 4+1:0:0:0:0, 4+2:2:0:0:2, 5+1:0:0:0:0, 4+0:0:0:0:0, 3+3:0:0:0:0, 5+1:0:0:0:0, 4+1:1:1:0:1, 5+1:0:0:0:0, 3+2:2:1:0:1, 4+3:2:1:0:3, 4+1:0:0:0:0, 6+2:0:0:0:0, 4+0:0:0:0:0, 4+0:0:0:0:0, 4+4:0:0:0:0, 2+0:0:0:0:0, 2+0:0:0:0:0, 4+1:0:0:0:0, 5+2:0:0:0:1, 5+2:0:0:0:0, 5+2:1:1:0:1, 5+1:0:0:0:0, 4+0:0:0:0:0, 2+0:0:0:0:0, 4+5:0:0:0:0, 6+4:1:0:0:0, 4+4:0:0:0:0, 2+0:0:0:0:0, 2+4:0:0:0:0, 2+0:0:0:0:0, 4+4:0:0:0:0, 2+0:0:0:0:0, 1+3:0:0:0:0, 3+6:0:0:0:1, 4+4:0:0:0:0, 2+0:0:0:0:0, 1+0:0:0:0:0, 1+0:0:0:0:0, 1+0:0:0:0:0, 1+0:0:0:0:0, 596+234:26:13:0:32
Cb major (7b), 2+0:0:0:0:0, 2+0:0:0:0:0, 3+0:0:0:0:0, 3+0:0:0:0:0, 1+0:0:0:0:0, 2+0:0:0:0:0, 2+0:0:0:0:0, 4+0:0:0:0:0, 3+0:0:0:0:0, 3+0:0:0:0:0, 4+0:0:0:0:0, 2+0:0:0:0:0, 2+0:0:0:0:0, 1+0:0:0:0:0, 1+1:0:0:0:0, 3+0:0:0:0:0, 2+0:0:0:0:0, 1+0:0:0:0:0, 2+0:0:0:0:0, 2+0:0:0:0:0, 2+1:0:1:0:1, 2+0:0:0:0:0, 5+0:0:0:0:0, 3+0:0:0:0:0, 1+0:0:0:0:0, 2+3:0:0:0:0, 3+1:0:0:0:0, 4+0:0:0:0:0, 3+1:0:1:0:1, 2+0:0:0:0:0, 2+1:0:0:0:0, 1+0:0:0:0:0, 2+0:0:0:0:0, 4+1:1:0:0:1, 3+1:0:0:0:1, 3+1:0:1:0:1, 3+3:0:0:0:0, 5+1:0:0:0:0, 4+1:0:0:0:0, 4+0:0:0:0:0, 3+1:0:0:0:0, 4+1:1:0:0:1, 6+1:0:0:0:0, 2+1:0:1:0:0, 3+0:0:0:0:0, 2+0:0:0:0:0, 3+1:0:0:0:0, 2+1:0:1:0:1, 3+1:0:0:0:0, 1+1:0:0:0:0, 4+1:0:0:0:0, 4+1:0:0:0:0, 4+1:0:0:0:0, 3+0:0:0:0:0, 4+0:0:0:0:0, 2+1:0:1:0:1, 3+1:0:1:0:0, 1+1:0:0:0:0, 3+1:0:0:0:0, 4+0:0:0:0:0, 2+3:0:1:0:1, 4+2:0:0:0:0, 4+0:0:0:0:0, 6+1:0:0:0:0, 4+0:0:0:0:0, 4+0:0:0:0:0, 3+1:0:0:0:0, 3+0:0:0:0:0, 2+0:0:0:0:0, 4+2:0:0:0:1, 3+1:0:0:0:0, 5+1:0:0:0:0, 3+1:0:0:0:0, 3+0:0:0:0:0, 5+0:0:0:0:0, 4+1:0:1:0:1, 2+3:0:0:0:0, 6+1:0:0:0:0, 3+1:0:0:0:0, 2+0:0:0:0:0, 2+0:0:0:0:0, 2+0:0:0:0:0, 3+2:0:0:0:0, 2+1:0:1:0:1, 3+1:0:0:0:0, 3+1:0:0:0:0, 3+1:0:0:0:0, 2+1:0:1:0:1, 1+1:0:1:0:1, 1+1:0:0:0:0, 3+1:0:0:0:0, 4+0:0:0:0:0, 5+2:0:0:0:0, 4+1:0:0:0:0, 2+0:0:0:0:0, 3+0:0:0:0:0, 3+1:0:0:0:0, 5+0:0:0:0:0, 4+1:0:0:0:0, 3+0:0:0:0:0, 3+0:0:0:0:0, 4+1:0:0:0:0, 3+1:1:0:0:1, 5+1:0:0:0:0, 3+1:0:0:0:0, 3+0:0:0:0:0, 5+0:0:0:0:0, 4+1:0:1:0:1, 2+3:0:0:0:0, 6+1:0:0:0:0, 3+1:0:0:0:0, 2+0:0:0:0:0, 3+1:0:0:0:0, 2+0:0:0:0:0, 3+2:0:0:0:0, 2+1:0:1:0:1, 3+1:0:0:0:0, 3+1:0:0:0:0, 3+1:0:0:0:0, 2+1:0:1:0:1, 1+1:0:1:0:1, 1+1:0:0:0:0, 3+1:0:0:0:0, 4+0:0:0:0:0, 5+0:0:0:0:0, 4+1:0:0:0:0, 2+0:0:0:0:0, 3+0:0:0:0:0, 3+1:0:0:0:0, 3+1:0:0:0:0, 3+1:0:0:0:0, 1+2:0:0:0:0, 2+0:0:0:0:0, 6+1:0:0:0:0, 4+0:0:0:0:0, 4+1:0:0:0:0, 4+0:0:0:0:0, 4+0:0:0:0:0, 4+0:0:0:0:0, 3+1:0:0:0:0, 1+1:0:1:0:0, 5+1:0:0:0:0, 6+1:0:0:0:0, 3+0:0:0:0:0, 3+0:0:0:0:0, 4+0:0:0:0:0, 3+2:0:0:0:0, 2+0:0:0:0:0, 5+0:0:0:0:0, 4+0:0:0:0:0, 5+0:0:0:0:0, 4+2:0:1:0:0, 3+0:0:0:0:0, 4+1:0:0:0:0, 2+0:0:0:0:0, 4+0:0:0:0:0, 4+2:0:0:0:0, 2+0:0:0:0:0, 4+0:0:0:0:0, 2+0:0:0:0:0, 4+0:0:0:0:0, 3+1:0:0:0:0, 4+0:0:0:0:0, 3+1:0:0:0:1, 3+0:0:0:0:0, 3+0:0:0:0:0, 2+0:0:0:0:0, 1+0:0:0:0:0, 1+0:0:0:0:0, 1+0:0:0:0:0, 1+0:0:0:0:0, 518+106:3:18:0:20
C# major (7#), 2+1:0:0:0:0, 2+0:0:0:0:0, 3+0:0:0:0:0, 4+0:0:0:0:0, 3+0:0:0:0:0, 2+0:0:0:0:0, 3+4:4:0:0:4, 4+2:0:0:0:0, 3+0:0:0:0:0, 3+1:0:0:0:0, 4+1:0:0:0:0, 3+0:0:0:0:0, 4+0:0:0:0:0, 1+0:0:0:0:0, 1+0:0:0:0:0, 3+1:0:0:0:0, 2+0:0:0:0:0, 1+0:0:0:0:0, 2+0:0:0:0:0, 2+0:0:0:0:0, 3+0:0:0:0:0, 2+0:0:0:0:0, 5+1:0:0:0:0, 4+1:0:0:0:0, 3+0:0:0:0:0, 3+1:0:0:0:0, 2+0:0:0:0:0, 4+2:0:0:0:0, 5+3:0:0:0:0, 4+0:0:0:0:0, 2+0:0:0:0:0, 1+0:0:0:0:0, 2+1:0:0:0:0, 4+2:0:0:0:0, 4+2:0:0:0:0, 5+2:0:0:0:0, 4+1:1:0:0:1, 5+2:0:0:0:0, 2+1:0:1:0:0, 3+2:0:1:0:0, 3+1:1:0:0:1, 4+4:0:0:0:0, 6+3:0:0:0:0, 3+4:3:4:0:4, 5+0:0:0:0:0, 3+0:0:0:0:0, 4+1:0:0:0:1, 4+1:0:0:0:0, 3+3:0:1:0:1, 1+0:0:0:0:0, 5+1:0:0:0:0, 3+3:0:0:0:0, 4+2:0:0:0:0, 3+2:0:0:0:0, 4+0:0:0:0:0, 4+2:0:0:0:0, 6+3:0:0:0:1, 1+0:0:0:0:0, 4+1:0:0:0:0, 4+0:0:0:0:0, 4+2:0:0:0:0, 6+2:0:0:0:0, 2+0:0:0:0:0, 6+3:0:0:0:0, 4+1:0:0:0:0, 4+1:0:0:0:0, 4+3:0:0:0:0, 4+1:1:1:0:1, 4+1:0:0:0:0, 4+3:0:1:0:2, 3+1:1:0:0:0, 5+1:0:0:0:1, 3+1:0:0:0:0, 3+1:0:0:0:0, 5+1:0:0:0:0, 6+2:0:0:0:0, 4+2:1:0:0:1, 6+2:0:0:0:0, 2+0:0:0:0:0, 2+0:0:0:0:0, 3+1:0:0:0:0, 2+1:0:0:0:1, 2+0:0:0:0:0, 4+1:0:0:0:0, 3+1:1:1:0:1, 3+3:1:0:0:0, 4+2:0:0:0:0, 4+2:0:0:0:0, 4+2:0:0:0:0, 1+0:0:0:0:0, 4+1:0:0:0:0, 4+2:0:0:0:0, 5+1:1:0:0:0, 6+1:0:0:0:0, 2+0:0:0:0:0, 4+0:0:0:0:0, 4+2:0:0:0:0, 5+1:0:0:0:0, 5+3:0:0:0:0, 4+1:1:1:0:1, 5+1:0:0:0:0, 6+1:0:0:0:1, 2+1:1:1:0:1, 6+2:0:0:0:0, 3+1:0:0:0:0, 3+1:0:0:0:0, 5+1:0:0:0:0, 6+2:0:0:0:0, 4+2:1:0:0:1, 6+2:0:0:0:0, 2+0:0:0:0:0, 2+0:0:0:0:0, 3+1:0:0:0:0, 2+1:0:0:0:1, 2+0:0:0:0:0, 4+1:0:0:0:0, 3+1:1:1:0:1, 3+3:1:0:0:0, 4+2:0:0:0:0, 4+2:0:0:0:0, 4+2:0:0:0:0, 1+0:0:0:0:0, 4+1:0:0:0:0, 4+2:0:0:0:0, 6+0:0:0:0:0, 6+1:0:0:0:0, 2+0:0:0:0:0, 4+0:0:0:0:0, 4+2:0:0:0:0, 4+2:0:0:0:0, 4+2:0:0:0:0, 3+2:1:1:0:1, 5+1:0:0:0:0, 6+2:0:0:0:0, 4+0:0:0:0:0, 3+3:0:0:0:0, 4+1:1:1:0:1, 4+1:1:1:0:1, 5+1:0:0:0:0, 3+1:1:1:0:1, 4+3:2:1:0:3, 5+1:0:0:0:0, 6+2:0:0:0:0, 4+0:0:0:0:0, 4+0:0:0:0:0, 4+4:0:0:0:0, 2+0:0:0:0:0, 2+0:0:0:0:0, 5+1:0:0:0:0, 5+2:0:0:0:1, 5+2:0:0:0:0, 5+2:1:1:0:1, 5+1:0:0:0:0, 4+1:1:0:0:0, 2+0:0:0:0:0, 4+0:0:0:0:0, 6+4:1:0:0:0, 4+0:0:0:0:0, 2+0:0:0:0:0, 2+4:0:0:0:0, 3+0:0:0:0:0, 4+4:0:0:0:0, 2+0:0:0:0:0, 1+1:0:1:0:0, 3+2:0:0:0:0, 5+0:0:0:0:0, 2+0:0:0:0:0, 1+0:0:0:0:0, 1+0:0:0:0:0, 1+0:0:0:0:0, 1+0:0:0:0:0, 606+198:29:20:0:35
Ab minor (7b), 2+0:0:0:0:0, 2+0:0:0:0:0, 3+0:0:0:0:0, 3+0:0:0:0:0, 1+0:0:0:0:0, 2+0:0:0:0:0, 2+0:0:0:0:0, 4+0:0:0:0:0, 3+0:0:0:0:0, 3+0:0:0:0:0, 4+0:0:0:0:0, 2+0:0:0:0:0, 2+1:0:0:0:0, 1+0:0:0:0:0, 1+1:0:0:0:0, 3+0:0:0:0:0, 2+0:0:0:0:0, 1+0:0:0:0:0, 2+0:0:0:0:0, 2+0:0:0:0:0, 2+1:0:1:0:0, 2+0:0:0:0:0, 5+0:0:0:0:0, 3+0:0:0:0:0, 1+0:0:0:0:0, 2+3:0:0:0:0, 3+1:0:0:0:0, 4+0:0:0:0:0, 3+2:0:0:0:1, 2+1:0:0:0:0, 2+1:0:0:0:0, 1+0:0:0:0:0, 2+0:0:0:0:0, 4+1:1:0:0:1, 3+1:0:0:0:1, 3+1:0:1:0:1, 3+3:0:0:0:0, 5+1:0:0:0:0, 4+1:0:0:0:0, 4+0:0:0:0:0, 3+1:0:0:0:0, 4+1:1:0:0:1, 6+2:0:0:0:1, 2+0:0:0:0:0, 3+1:0:0:0:0, 2+0:0:0:0:0, 3+1:0:0:0:0, 2+1:0:1:0:1, 3+1:0:0:0:0, 1+1:0:0:0:0, 4+1:0:0:0:0, 4+1:0:0:0:0, 4+1:0:0:0:0, 3+0:0:0:0:0, 4+0:0:0:0:0, 2+1:0:1:0:0, 3+1:0:1:0:0, 1+1:0:0:0:0, 3+1:0:0:0:0, 4+0:0:0:0:0, 2+3:0:1:0:1, 4+2:0:0:0:0, 4+0:0:0:0:0, 6+1:0:0:0:0, 4+0:0:0:0:0, 4+0:0:0:0:0, 3+1:0:0:0:0, 3+0:0:0:0:0, 2+0:0:0:0:0, 4+2:0:0:0:1, 3+1:0:0:0:0, 5+1:0:0:0:0, 3+1:0:0:0:0, 3+0:0:0:0:0, 5+0:0:0:0:0, 4+1:0:1:0:1, 2+0:0:0:0:0, 6+1:0:0:0:0, 3+1:0:0:0:0, 2+0:0:0:0:0, 2+0:0:0:0:0, 2+3:0:0:0:0, 3+2:0:0:0:0, 2+1:0:1:0:1, 3+1:0:0:0:0, 3+1:0:0:0:0, 3+1:0:0:0:0, 2+1:0:1:0:1, 1+1:0:1:0:1, 1+1:0:0:0:0, 3+1:0:0:0:0, 4+0:0:0:0:0, 5+2:0:0:0:0, 4+1:0:0:0:0, 2+0:0:0:0:0, 3+0:0:0:0:0, 3+1:0:0:0:0, 5+0:0:0:0:0, 4+1:0:0:0:0, 3+0:0:0:0:0, 3+1:0:0:0:0, 4+1:0:0:0:0, 3+1:1:0:0:1, 5+1:0:0:0:0, 3+1:0:0:0:0, 3+0:0:0:0:0, 5+0:0:0:0:0, 4+1:0:1:0:1, 2+0:0:0:0:0, 6+1:0:0:0:0, 3+1:0:0:0:0, 2+0:0:0:0:0, 3+1:0:0:0:0, 2+3:0:0:0:0, 3+2:0:0:0:0, 2+1:0:1:0:1, 3+1:0:0:0:0, 3+1:0:0:0:0, 3+1:0:0:0:0, 2+1:0:1:0:1, 1+1:0:1:0:1, 1+1:0:0:0:0, 3+1:0:0:0:0, 4+0:0:0:0:0, 5+0:0:0:0:0, 4+1:0:0:0:0, 2+0:0:0:0:0, 3+0:0:0:0:0, 3+1:0:0:0:0, 3+1:0:0:0:0, 3+1:0:0:0:0, 1+2:0:0:0:0, 2+0:0:0:0:0, 6+1:0:0:0:0, 4+0:0:0:0:0, 4+1:0:0:0:0, 4+0:0:0:0:0, 4+0:0:0:0:0, 4+0:0:0:0:0, 3+1:0:0:0:0, 1+1:0:1:0:0, 5+1:0:0:0:0, 6+1:0:0:0:0, 3+0:0:0:0:0, 3+0:0:0:0:0, 4+0:0:0:0:0, 3+2:0:0:0:0, 2+0:0:0:0:0, 5+0:0:0:0:0, 4+2:0:0:0:0, 5+0:0:0:0:0, 4+2:0:1:0:0, 3+0:0:0:0:0, 4+1:0:0:0:0, 2+0:0:0:0:0, 4+0:0:0:0:0, 4+2:0:0:0:0, 2+0:0:0:0:0, 4+0:0:0:0:0, 2+0:0:0:0:0, 4+0:0:0:0:0, 3+1:0:0:0:0, 4+0:0:0:0:0, 3+1:0:0:0:1, 3+0:0:0:0:0, 3+0:0:0:0:0, 2+0:0:0:0:0, 1+0:0:0:0:0, 1+0:0:0:0:0, 1+0:0:0:0:0, 1+0:0:0:0:0, 518+113:3:16:0:19
A# minor (7#), 2+1:0:0:0:0, 2+0:0:0:0:0, 3+0:0:0:0:0, 4+0:0:0:0:0, 3+0:0:0:0:0, 2+0:0:0:0:0, 3+4:4:0:0:4, 4+2:0:0:0:0, 3+0:0:0:0:0, 3+1:0:0:0:0, 4+1:0:0:0:0, 3+0:0:0:0:0, 4+0:0:0:0:0, 2+0:0:0:0:0, 1+0:0:0:0:0, 3+2:0:0:0:0, 2+3:0:0:0:0, 1+0:0:0:0:0, 2+0:0:0:0:0, 2+0:0:0:0:0, 3+0:0:0:0:0, 2+0:0:0:0:0, 5+1:0:0:0:0, 4+1:0:0:0:0, 3+0:0:0:0:0, 3+1:0:0:0:0, 2+0:0:0:0:0, 4+2:0:0:0:0, 5+3:0:0:0:0, 4+0:0:0:0:0, 2+0:0:0:0:0, 1+0:0:0:0:0, 2+1:0:0:0:0, 4+2:0:0:0:0, 4+2:0:0:0:0, 5+2:0:0:0:0, 4+1:1:0:0:1, 5+2:0:0:0:0, 2+1:0:1:0:0, 3+2:0:1:0:0, 3+1:1:0:0:1, 4+4:0:0:0:0, 6+3:0:0:0:0, 3+4:3:4:0:4, 5+0:0:0:0:0, 3+0:0:0:0:0, 4+1:0:0:0:1, 4+1:0:0:0:0, 3+3:0:1:0:1, 1+1:0:0:0:0, 5+1:0:0:0:0, 3+3:0:0:0:0, 4+2:0:0:0:0, 3+2:0:0:0:0, 4+0:0:0:0:0, 4+2:0:0:0:0, 6+3:0:0:0:1, 1+1:0:0:0:0, 4+1:0:0:0:0, 4+0:0:0:0:0, 4+2:0:0:0:0, 6+2:0:0:0:0, 2+0:0:0:0:0, 6+3:0:0:0:0, 4+1:0:0:0:0, 4+1:0:0:0:0, 4+3:0:0:0:0, 4+1:1:1:0:1, 4+1:0:0:0:0, 4+3:0:1:0:2, 3+1:1:0:0:0, 5+1:0:0:0:1, 3+1:0:0:0:0, 3+1:0:0:0:0, 5+1:0:0:0:0, 6+2:0:0:0:0, 4+2:1:0:0:1, 6+2:0:0:0:0, 2+0:0:0:0:0, 2+0:0:0:0:0, 3+1:0:0:0:0, 2+1:0:0:0:1, 2+0:0:0:0:0, 4+1:0:0:0:0, 3+1:1:1:0:1, 3+3:1:0:0:0, 4+2:0:0:0:0, 4+2:0:0:0:0, 4+2:0:0:0:0, 2+1:1:0:0:0, 4+1:0:0:0:1, 4+2:0:0:0:0, 5+1:1:0:0:0, 6+1:0:0:0:0, 2+0:0:0:0:0, 4+0:0:0:0:0, 4+2:0:0:0:0, 5+1:0:0:0:0, 5+3:0:0:0:0, 4+1:1:1:0:1, 5+1:0:0:0:0, 6+1:0:0:0:1, 2+1:1:1:0:1, 6+2:0:0:0:0, 3+1:0:0:0:0, 3+1:0:0:0:0, 5+1:0:0:0:0, 6+2:0:0:0:0, 4+2:1:0:0:1, 6+2:0:0:0:0, 2+0:0:0:0:0, 2+0:0:0:0:0, 3+1:0:0:0:0, 2+1:0:0:0:1, 2+0:0:0:0:0, 4+1:0:0:0:0, 3+1:1:1:0:1, 3+3:1:0:0:0, 4+2:0:0:0:0, 4+2:0:0:0:0, 4+2:0:0:0:0, 2+1:1:0:0:0, 4+1:0:0:0:1, 4+2:0:0:0:0, 6+0:0:0:0:0, 6+1:0:0:0:0, 2+0:0:0:0:0, 4+0:0:0:0:0, 4+2:0:0:0:0, 4+2:0:0:0:0, 4+2:0:0:0:0, 3+2:1:1:0:1, 5+1:0:0:0:0, 6+2:0:0:0:0, 4+0:0:0:0:0, 3+3:0:0:0:0, 4+1:1:1:0:1, 4+1:1:1:0:1, 5+1:0:0:0:0, 3+1:1:1:0:1, 4+3:2:1:0:3, 5+1:0:0:0:0, 6+2:0:0:0:0, 4+0:0:0:0:0, 4+0:0:0:0:0, 4+4:0:0:0:0, 2+0:0:0:0:0, 2+0:0:0:0:0, 5+1:0:0:0:0, 5+2:0:0:0:1, 5+2:0:0:0:0, 5+2:1:1:0:1, 5+1:0:0:0:0, 4+1:1:0:0:0, 2+0:0:0:0:0, 4+0:0:0:0:0, 6+4:1:0:0:0, 4+0:0:0:0:0, 2+0:0:0:0:0, 2+0:0:0:0:0, 3+0:0:0:0:0, 4+1:1:0:0:1, 2+0:0:0:0:0, 1+1:0:1:0:0, 3+2:0:0:0:0, 5+0:0:0:0:0, 2+0:0:0:0:0, 1+0:0:0:0:0, 1+0:0:0:0:0, 1+0:0:0:0:0, 1+0:0:0:0:0, 609+199:32:20:0:38
