 , 0, 1, 2, 3, 4, 5, 6, 7, 8, 9, 10, 11, 12, 13, 14, 15, 16, 17, 18, 19, 20, 21, 22, 23, 24, rowcost
C major (0), 2, 0, 2, 2, 2, 0, 4, 1, 1, 1, 0, 1, 0, 1, 0, 0, 0, 2, 0, 2, 2, 2, 0, 4, 0, 29
A minor (0), 3, 0, 3, 4, 3, 1, 4, 2, 2, 2, 1, 2, 1, 1, 1, 1, 0, 3, 0, 3, 4, 3, 1, 4, 1, 50
A minor mel (0), 2, 0, 2, 4, 2, 1, 4, 2, 2, 2, 1, 3, 2, 1, 1, 2, 0, 2, 0, 2, 4, 2, 1, 4, 1, 47
C major blues (0), 2, 0, 2, 2, 2, 0, 4, 1, 1, 1, 0, 2, 1, 1, 0, 1, 0, 2, 0, 2, 2, 2, 0, 4, 0, 32
A minor blues (0), 2, 0, 2, 3, 2, 0, 3, 1, 1, 1, 0, 2, 1, 1, 0, 1, 0, 2, 0, 2, 3, 2, 0, 3, 0, 32
C dorian (0), 1, 0, 1, 2, 1, 0, 4, 1, 1, 1, 0, 2, 1, 1, 0, 1, 0, 1, 0, 1, 2, 1, 0, 4, 0, 26
C phrygian (0), 1, 0, 1, 1, 1, 0, 3, 0, 0, 0, 0, 0, 0, 0, 0, 0, 0, 1, 0, 1, 1, 1, 0, 3, 0, 14
C lydian (0), 1, 0, 1, 2, 1, 0, 4, 1, 1, 1, 0, 2, 1, 1, 0, 1, 0, 1, 0, 1, 2, 1, 0, 4, 0, 26
C mixolydian (0), 1, 0, 1, 1, 1, 0, 3, 0, 0, 0, 0, 0, 0, 0, 0, 0, 0, 1, 0, 1, 1, 1, 0, 3, 0, 14
C aeolian (0), 2, 0, 2, 2, 2, 0, 4, 1, 1, 1, 0, 1, 0, 1, 0, 0, 0, 2, 0, 2, 2, 2, 0, 4, 0, 29
C locrian (0), 1, 0, 1, 1, 1, 0, 3, 0, 0, 0, 0, 0, 0, 0, 0, 0, 0, 1, 0, 1, 1, 1, 0, 3, 0, 14
F major (1b), 2, 0, 2, 1, 2, 0, 3, 0, 0, 0, 0, 0, 0, 0, 0, 0, 0, 2, 0, 2, 1, 2, 0, 3, 0, 20
G major (1#), 1, 0, 1, 3, 1, 0, 3, 1, 1, 1, 0, 2, 1, 1, 0, 1, 0, 1, 0, 1, 3, 1, 0, 3, 0, 26
D minor (1b), 1, 1, 1, 1, 1, 1, 1, 1, 0, 1, 0, 1, 1, 1, 1, 1, 0, 1, 1, 1, 1, 1, 1, 1, 0, 21
E minor (1#), 2, 1, 2, 3, 2, 1, 4, 1, 1, 1, 1, 3, 1, 2, 1, 1, 0, 2, 1, 2, 3, 2, 1, 4, 0, 42
D minor mel (1b), 2, 1, 2, 2, 2, 1, 2, 2, 1, 2, 0, 2, 1, 2, 1, 1, 0, 2, 1, 2, 2, 2, 1, 2, 0, 36
E minor mel (1#), 2, 2, 2, 2, 2, 2, 3, 2, 1, 2, 1, 4, 2, 3, 2, 2, 0, 2, 2, 2, 2, 2, 2, 3, 0, 49
F major blues (1b), 4, 0, 4, 2, 4, 0, 4, 1, 1, 1, 0, 1, 0, 1, 0, 1, 1, 4, 0, 4, 2, 4, 0, 4, 0, 43
G major blues (1#), 2, 1, 2, 3, 2, 1, 3, 2, 1, 2, 0, 3, 2, 2, 1, 2, 0, 2, 1, 2, 3, 2, 1, 3, 0, 43
D minor blues (1b), 3, 0, 3, 3, 3, 0, 3, 1, 1, 1, 0, 1, 0, 1, 0, 1, 1, 3, 0, 3, 3, 3, 0, 3, 0, 37
E minor blues (1#), 2, 1, 2, 3, 2, 1, 3, 2, 1, 2, 0, 3, 2, 2, 1, 2, 0, 2, 1, 2, 3, 2, 1, 3, 0, 43
F dorian (1b), 3, 0, 3, 2, 3, 0, 4, 1, 1, 1, 0, 1, 0, 1, 0, 0, 0, 3, 0, 3, 2, 3, 0, 4, 0, 35
G dorian (1#), 1, 1, 1, 2, 1, 1, 2, 2, 1, 2, 0, 3, 2, 2, 1, 2, 0, 1, 1, 1, 2, 1, 1, 2, 0, 33
F phrygian (1b), 2, 0, 2, 1, 2, 0, 3, 0, 0, 0, 0, 0, 0, 0, 0, 0, 0, 2, 0, 2, 1, 2, 0, 3, 0, 20
G phrygian (1#), 2, 0, 2, 3, 2, 0, 3, 1, 1, 1, 0, 1, 0, 1, 0, 0, 0, 2, 0, 2, 3, 2, 0, 3, 0, 29
F lydian (1b), 3, 0, 3, 2, 3, 0, 4, 1, 1, 1, 0, 1, 0, 1, 0, 0, 0, 3, 0, 3, 2, 3, 0, 4, 0, 35
G lydian (1#), 1, 1, 1, 2, 1, 1, 2, 2, 1, 2, 0, 3, 2, 2, 1, 2, 0, 1, 1, 1, 2, 1, 1, 2, 0, 33
F mixolydian (1b), 2, 0, 2, 1, 2, 0, 3, 0, 0, 0, 0, 0, 0, 0, 0, 0, 0, 2, 0, 2, 1, 2, 0, 3, 0, 20
G mixolydian (1#), 2, 0, 2, 3, 2, 0, 3, 1, 1, 1, 0, 1, 0, 1, 0, 0, 0, 2, 0, 2, 3, 2, 0, 3, 0, 29
F aeolian (1b), 2, 0, 2, 1, 2, 0, 3, 0, 0, 0, 0, 0, 0, 0, 0, 0, 0, 2, 0, 2, 1, 2, 0, 3, 0, 20
G aeolian (1#), 1, 0, 1, 3, 1, 0, 3, 1, 1, 1, 0, 2, 1, 1, 0, 1, 0, 1, 0, 1, 3, 1, 0, 3, 0, 26
F locrian (1b), 3, 0, 3, 1, 3, 0, 3, 0, 0, 0, 0, 0, 0, 0, 0, 1, 1, 3, 0, 3, 1, 3, 0, 3, 0, 28
G locrian (1#), 1, 0, 1, 2, 1, 0, 2, 0, 0, 0, 0, 0, 0, 0, 0, 0, 0, 1, 0, 1, 2, 1, 0, 2, 0, 14
Bb major (2b), 2, 0, 2, 1, 2, 0, 3, 0, 0, 0, 0, 0, 0, 0, 0, 0, 0, 2, 0, 2, 1, 2, 0, 3, 0, 20
D major (2#), 1, 1, 1, 2, 1, 1, 2, 2, 1, 2, 0, 3, 2, 2, 1, 2, 0, 1, 1, 1, 2, 1, 1, 2, 0, 33
G minor (2b), 0, 0, 0, 2, 0, 0, 2, 0, 0, 0, 0, 1, 1, 0, 0, 1, 0, 0, 0, 0, 2, 0, 0, 2, 0, 11
B minor (2#), 2, 1, 2, 1, 2, 1, 1, 1, 0, 1, 0, 2, 2, 1, 1, 3, 1, 2, 1, 2, 1, 2, 1, 1, 0, 32
G minor mel (2b), 0, 0, 0, 2, 0, 0, 2, 0, 0, 0, 0, 1, 1, 0, 0, 1, 0, 0, 0, 0, 2, 0, 0, 2, 0, 11
B minor mel (2#), 3, 1, 3, 2, 3, 2, 2, 2, 1, 2, 1, 3, 3, 1, 2, 4, 1, 3, 1, 3, 2, 3, 2, 2, 1, 53
Bb major blues (2b), 4, 1, 4, 1, 4, 1, 3, 0, 0, 0, 1, 1, 0, 1, 1, 1, 1, 4, 1, 4, 1, 4, 1, 3, 0, 42
D major blues (2#), 3, 1, 3, 4, 3, 2, 4, 3, 2, 3, 1, 4, 3, 2, 2, 3, 0, 3, 1, 3, 4, 3, 2, 4, 1, 64
G minor blues (2b), 3, 1, 3, 2, 3, 1, 3, 0, 0, 0, 1, 1, 0, 1, 1, 1, 1, 3, 1, 3, 2, 3, 1, 3, 0, 38
B minor blues (2#), 3, 1, 3, 4, 3, 2, 4, 3, 2, 3, 1, 4, 3, 2, 2, 3, 0, 3, 1, 3, 4, 3, 2, 4, 1, 64
Bb dorian (2b), 2, 0, 2, 1, 2, 0, 3, 0, 0, 0, 0, 0, 0, 0, 0, 0, 0, 2, 0, 2, 1, 2, 0, 3, 0, 20
D dorian (2#), 2, 1, 2, 3, 2, 2, 3, 3, 2, 3, 1, 4, 3, 2, 2, 3, 0, 2, 1, 2, 3, 2, 2, 3, 1, 54
Bb phrygian (2b), 3, 0, 3, 4, 3, 1, 4, 2, 2, 2, 1, 2, 1, 1, 1, 1, 0, 3, 0, 3, 4, 3, 1, 4, 1, 50
D phrygian (2#), 2, 0, 2, 4, 2, 1, 4, 2, 2, 2, 1, 3, 2, 1, 1, 2, 0, 2, 0, 2, 4, 2, 1, 4, 1, 47
Bb lydian (2b), 2, 0, 2, 2, 2, 0, 4, 1, 1, 1, 0, 2, 1, 1, 0, 1, 0, 2, 0, 2, 2, 2, 0, 4, 0, 32
D lydian (2#), 2, 0, 2, 3, 2, 0, 3, 1, 1, 1, 0, 2, 1, 1, 0, 1, 0, 2, 0, 2, 3, 2, 0, 3, 0, 32
Bb mixolydian (2b), 1, 0, 1, 2, 1, 0, 4, 1, 1, 1, 0, 2, 1, 1, 0, 1, 0, 1, 0, 1, 2, 1, 0, 4, 0, 26
D mixolydian (2#), 1, 0, 1, 1, 1, 0, 3, 0, 0, 0, 0, 0, 0, 0, 0, 0, 0, 1, 0, 1, 1, 1, 0, 3, 0, 14
Bb aeolian (2b), 1, 0, 1, 2, 1, 0, 4, 1, 1, 1, 0, 2, 1, 1, 0, 1, 0, 1, 0, 1, 2, 1, 0, 4, 0, 26
D aeolian (2#), 1, 0, 1, 1, 1, 0, 3, 0, 0, 0, 0, 0, 0, 0, 0, 0, 0, 1, 0, 1, 1, 1, 0, 3, 0, 14
Bb locrian (2b), 2, 0, 2, 2, 2, 0, 4, 1, 1, 1, 0, 1, 0, 1, 0, 0, 0, 2, 0, 2, 2, 2, 0, 4, 0, 29
D locrian (2#), 1, 0, 1, 1, 1, 0, 3, 0, 0, 0, 0, 0, 0, 0, 0, 0, 0, 1, 0, 1, 1, 1, 0, 3, 0, 14
Eb major (3b), 2, 0, 2, 1, 2, 0, 3, 0, 0, 0, 0, 0, 0, 0, 0, 0, 0, 2, 0, 2, 1, 2, 0, 3, 0, 20
A major (3#), 1, 0, 1, 3, 1, 0, 3, 1, 1, 1, 0, 2, 1, 1, 0, 1, 0, 1, 0, 1, 3, 1, 0, 3, 0, 26
C minor (3b), 1, 1, 1, 1, 1, 1, 1, 1, 0, 1, 0, 1, 1, 1, 1, 1, 0, 1, 1, 1, 1, 1, 1, 1, 0, 21
F# minor (3#), 2, 1, 2, 3, 2, 1, 4, 1, 1, 1, 1, 3, 1, 2, 1, 1, 0, 2, 1, 2, 3, 2, 1, 4, 0, 42
C minor mel (3b), 2, 0, 2, 2, 2, 0, 4, 1, 1, 1, 0, 1, 0, 1, 0, 0, 0, 2, 0, 2, 2, 2, 0, 4, 0, 29
F# minor mel (3#), 3, 2, 3, 3, 3, 3, 4, 3, 2, 3, 2, 4, 2, 3, 3, 2, 0, 3, 2, 3, 3, 3, 3, 4, 1, 67
Eb major blues (3b), 2, 0, 2, 2, 2, 0, 4, 1, 1, 1, 0, 1, 0, 1, 0, 0, 0, 2, 0, 2, 2, 2, 0, 4, 0, 29
A major blues (3#), 3, 0, 3, 4, 3, 1, 4, 2, 2, 2, 1, 2, 1, 1, 1, 1, 0, 3, 0, 3, 4, 3, 1, 4, 1, 50
C minor blues (3b), 2, 0, 2, 4, 2, 1, 4, 2, 2, 2, 1, 3, 2, 1, 1, 2, 0, 2, 0, 2, 4, 2, 1, 4, 1, 47
F# minor blues (3#), 2, 0, 2, 2, 2, 0, 4, 1, 1, 1, 0, 2, 1, 1, 0, 1, 0, 2, 0, 2, 2, 2, 0, 4, 0, 32
Eb dorian (3b), 2, 0, 2, 3, 2, 0, 3, 1, 1, 1, 0, 2, 1, 1, 0, 1, 0, 2, 0, 2, 3, 2, 0, 3, 0, 32
A dorian (3#), 1, 0, 1, 2, 1, 0, 4, 1, 1, 1, 0, 2, 1, 1, 0, 1, 0, 1, 0, 1, 2, 1, 0, 4, 0, 26
Eb phrygian (3b), 1, 0, 1, 1, 1, 0, 3, 0, 0, 0, 0, 0, 0, 0, 0, 0, 0, 1, 0, 1, 1, 1, 0, 3, 0, 14
A phrygian (3#), 1, 0, 1, 2, 1, 0, 4, 1, 1, 1, 0, 2, 1, 1, 0, 1, 0, 1, 0, 1, 2, 1, 0, 4, 0, 26
Eb lydian (3b), 1, 0, 1, 1, 1, 0, 3, 0, 0, 0, 0, 0, 0, 0, 0, 0, 0, 1, 0, 1, 1, 1, 0, 3, 0, 14
A lydian (3#), 2, 0, 2, 2, 2, 0, 4, 1, 1, 1, 0, 1, 0, 1, 0, 0, 0, 2, 0, 2, 2, 2, 0, 4, 0, 29
Eb mixolydian (3b), 1, 0, 1, 1, 1, 0, 3, 0, 0, 0, 0, 0, 0, 0, 0, 0, 0, 1, 0, 1, 1, 1, 0, 3, 0, 14
A mixolydian (3#), 2, 0, 2, 1, 2, 0, 3, 0, 0, 0, 0, 0, 0, 0, 0, 0, 0, 2, 0, 2, 1, 2, 0, 3, 0, 20
Eb aeolian (3b), 1, 0, 1, 3, 1, 0, 3, 1, 1, 1, 0, 2, 1, 1, 0, 1, 0, 1, 0, 1, 3, 1, 0, 3, 0, 26
A aeolian (3#), 1, 1, 1, 1, 1, 1, 1, 1, 0, 1, 0, 1, 1, 1, 1, 1, 0, 1, 1, 1, 1, 1, 1, 1, 0, 21
Eb locrian (3b), 3, 0, 3, 4, 3, 1, 4, 2, 2, 2, 1, 2, 1, 1, 1, 1, 0, 3, 0, 3, 4, 3, 1, 4, 1, 50
A locrian (3#), 2, 0, 2, 4, 2, 1, 4, 2, 2, 2, 1, 3, 2, 1, 1, 2, 0, 2, 0, 2, 4, 2, 1, 4, 1, 47
Ab major (4b), 2, 0, 2, 2, 2, 0, 4, 1, 1, 1, 0, 2, 1, 1, 0, 1, 0, 2, 0, 2, 2, 2, 0, 4, 0, 32
E major (4#), 2, 0, 2, 3, 2, 0, 3, 1, 1, 1, 0, 2, 1, 1, 0, 1, 0, 2, 0, 2, 3, 2, 0, 3, 0, 32
F minor (4b), 1, 0, 1, 2, 1, 0, 4, 1, 1, 1, 0, 2, 1, 1, 0, 1, 0, 1, 0, 1, 2, 1, 0, 4, 0, 26
C# minor (4#), 1, 0, 1, 1, 1, 0, 3, 0, 0, 0, 0, 0, 0, 0, 0, 0, 0, 1, 0, 1, 1, 1, 0, 3, 0, 14
F minor mel (4b), 1, 0, 1, 2, 1, 0, 4, 1, 1, 1, 0, 2, 1, 1, 0, 1, 0, 1, 0, 1, 2, 1, 0, 4, 0, 26
C# minor mel (4#), 1, 0, 1, 1, 1, 0, 3, 0, 0, 0, 0, 0, 0, 0, 0, 0, 0, 1, 0, 1, 1, 1, 0, 3, 0, 14
Ab major blues (4b), 2, 0, 2, 2, 2, 0, 4, 1, 1, 1, 0, 1, 0, 1, 0, 0, 0, 2, 0, 2, 2, 2, 0, 4, 0, 29
E major blues (4#), 1, 0, 1, 1, 1, 0, 3, 0, 0, 0, 0, 0, 0, 0, 0, 0, 0, 1, 0, 1, 1, 1, 0, 3, 0, 14
F minor blues (4b), 2, 0, 2, 1, 2, 0, 3, 0, 0, 0, 0, 0, 0, 0, 0, 0, 0, 2, 0, 2, 1, 2, 0, 3, 0, 20
C# minor blues (4#), 1, 0, 1, 3, 1, 0, 3, 1, 1, 1, 0, 2, 1, 1, 0, 1, 0, 1, 0, 1, 3, 1, 0, 3, 0, 26
Ab dorian (4b), 1, 1, 1, 1, 1, 1, 1, 1, 0, 1, 0, 1, 1, 1, 1, 1, 0, 1, 1, 1, 1, 1, 1, 1, 0, 21
E dorian (4#), 2, 1, 2, 3, 2, 1, 4, 1, 1, 1, 1, 3, 1, 2, 1, 1, 0, 2, 1, 2, 3, 2, 1, 4, 0, 42
Ab phrygian (4b), 2, 0, 2, 2, 2, 0, 4, 1, 1, 1, 0, 1, 0, 1, 0, 0, 0, 2, 0, 2, 2, 2, 0, 4, 0, 29
E phrygian (4#), 3, 2, 3, 3, 3, 3, 4, 3, 2, 3, 2, 4, 2, 3, 3, 2, 0, 3, 2, 3, 3, 3, 3, 4, 1, 67
Ab lydian (4b), 2, 0, 2, 2, 2, 0, 4, 1, 1, 1, 0, 1, 0, 1, 0, 0, 0, 2, 0, 2, 2, 2, 0, 4, 0, 29
E lydian (4#), 3, 0, 3, 4, 3, 1, 4, 2, 2, 2, 1, 2, 1, 1, 1, 1, 0, 3, 0, 3, 4, 3, 1, 4, 1, 50
Ab mixolydian (4b), 2, 0, 2, 4, 2, 1, 4, 2, 2, 2, 1, 3, 2, 1, 1, 2, 0, 2, 0, 2, 4, 2, 1, 4, 1, 47
E mixolydian (4#), 2, 0, 2, 2, 2, 0, 4, 1, 1, 1, 0, 2, 1, 1, 0, 1, 0, 2, 0, 2, 2, 2, 0, 4, 0, 32
Ab aeolian (4b), 2, 0, 2, 3, 2, 0, 3, 1, 1, 1, 0, 2, 1, 1, 0, 1, 0, 2, 0, 2, 3, 2, 0, 3, 0, 32
E aeolian (4#), 1, 0, 1, 2, 1, 0, 4, 1, 1, 1, 0, 2, 1, 1, 0, 1, 0, 1, 0, 1, 2, 1, 0, 4, 0, 26
Ab locrian (4b), 1, 0, 1, 1, 1, 0, 3, 0, 0, 0, 0, 0, 0, 0, 0, 0, 0, 1, 0, 1, 1, 1, 0, 3, 0, 14
E locrian (4#), 1, 0, 1, 2, 1, 0, 4, 1, 1, 1, 0, 2, 1, 1, 0, 1, 0, 1, 0, 1, 2, 1, 0, 4, 0, 26
Db major (5b), 1, 0, 1, 1, 1, 0, 3, 0, 0, 0, 0, 0, 0, 0, 0, 0, 0, 1, 0, 1, 1, 1, 0, 3, 0, 14
B major (5#), 2, 0, 2, 2, 2, 0, 4, 1, 1, 1, 0, 1, 0, 1, 0, 0, 0, 2, 0, 2, 2, 2, 0, 4, 0, 29
Bb minor (5b), 1, 0, 1, 1, 1, 0, 3, 0, 0, 0, 0, 0, 0, 0, 0, 0, 0, 1, 0, 1, 1, 1, 0, 3, 0, 14
G# minor (5#), 2, 0, 2, 1, 2, 0, 3, 0, 0, 0, 0, 0, 0, 0, 0, 0, 0, 2, 0, 2, 1, 2, 0, 3, 0, 20
Bb minor mel (5b), 1, 0, 1, 3, 1, 0, 3, 1, 1, 1, 0, 2, 1, 1, 0, 1, 0, 1, 0, 1, 3, 1, 0, 3, 0, 26
G# minor mel (5#), 1, 1, 1, 1, 1, 1, 1, 1, 0, 1, 0, 1, 1, 1, 1, 1, 0, 1, 1, 1, 1, 1, 1, 1, 0, 21
Db major blues (5b), 2, 0, 2, 2, 2, 0, 4, 1, 1, 1, 0, 1, 0, 1, 0, 0, 0, 2, 0, 2, 2, 2, 0, 4, 0, 29
B major blues (5#), 3, 0, 3, 4, 3, 1, 4, 2, 2, 2, 1, 2, 1, 1, 1, 1, 0, 3, 0, 3, 4, 3, 1, 4, 1, 50
Bb minor blues (5b), 2, 0, 2, 4, 2, 1, 4, 2, 2, 2, 1, 3, 2, 1, 1, 2, 0, 2, 0, 2, 4, 2, 1, 4, 1, 47
G# minor blues (5#), 2, 0, 2, 2, 2, 0, 4, 1, 1, 1, 0, 2, 1, 1, 0, 1, 0, 2, 0, 2, 2, 2, 0, 4, 0, 32
Db dorian (5b), 2, 0, 2, 3, 2, 0, 3, 1, 1, 1, 0, 2, 1, 1, 0, 1, 0, 2, 0, 2, 3, 2, 0, 3, 0, 32
B dorian (5#), 1, 0, 1, 2, 1, 0, 4, 1, 1, 1, 0, 2, 1, 1, 0, 1, 0, 1, 0, 1, 2, 1, 0, 4, 0, 26
Db phrygian (5b), 1, 0, 1, 1, 1, 0, 3, 0, 0, 0, 0, 0, 0, 0, 0, 0, 0, 1, 0, 1, 1, 1, 0, 3, 0, 14
B phrygian (5#), 1, 0, 1, 2, 1, 0, 4, 1, 1, 1, 0, 2, 1, 1, 0, 1, 0, 1, 0, 1, 2, 1, 0, 4, 0, 26
Db lydian (5b), 1, 0, 1, 1, 1, 0, 3, 0, 0, 0, 0, 0, 0, 0, 0, 0, 0, 1, 0, 1, 1, 1, 0, 3, 0, 14
B lydian (5#), 2, 0, 2, 2, 2, 0, 4, 1, 1, 1, 0, 1, 0, 1, 0, 0, 0, 2, 0, 2, 2, 2, 0, 4, 0, 29
Db mixolydian (5b), 1, 0, 1, 1, 1, 0, 3, 0, 0, 0, 0, 0, 0, 0, 0, 0, 0, 1, 0, 1, 1, 1, 0, 3, 0, 14
B mixolydian (5#), 2, 0, 2, 1, 2, 0, 3, 0, 0, 0, 0, 0, 0, 0, 0, 0, 0, 2, 0, 2, 1, 2, 0, 3, 0, 20
Db aeolian (5b), 1, 0, 1, 3, 1, 0, 3, 1, 1, 1, 0, 2, 1, 1, 0, 1, 0, 1, 0, 1, 3, 1, 0, 3, 0, 26
B aeolian (5#), 1, 1, 1, 1, 1, 1, 1, 1, 0, 1, 0, 1, 1, 1, 1, 1, 0, 1, 1, 1, 1, 1, 1, 1, 0, 21
Db locrian (5b), 2, 1, 2, 3, 2, 1, 4, 1, 1, 1, 1, 3, 1, 2, 1, 1, 0, 2, 1, 2, 3, 2, 1, 4, 0, 42
B locrian (5#), 2, 1, 2, 3, 2, 2, 3, 3, 2, 3, 1, 4, 3, 2, 2, 3, 0, 2, 1, 2, 3, 2, 2, 3, 1, 54
Gb major (6b), 3, 2, 3, 3, 3, 3, 4, 3, 2, 3, 2, 4, 2, 3, 3, 2, 0, 3, 2, 3, 3, 3, 3, 4, 1, 67
F# major (6#), 2, 0, 2, 2, 2, 0, 4, 1, 1, 1, 0, 1, 0, 1, 0, 0, 0, 2, 0, 2, 2, 2, 0, 4, 0, 29
Eb minor (6b), 3, 0, 3, 4, 3, 1, 4, 2, 2, 2, 1, 2, 1, 1, 1, 1, 0, 3, 0, 3, 4, 3, 1, 4, 1, 50
D# minor (6#), 2, 0, 2, 4, 2, 1, 4, 2, 2, 2, 1, 3, 2, 1, 1, 2, 0, 2, 0, 2, 4, 2, 1, 4, 1, 47
Eb minor mel (6b), 2, 0, 2, 2, 2, 0, 4, 1, 1, 1, 0, 2, 1, 1, 0, 1, 0, 2, 0, 2, 2, 2, 0, 4, 0, 32
D# minor mel (6#), 2, 0, 2, 3, 2, 0, 3, 1, 1, 1, 0, 2, 1, 1, 0, 1, 0, 2, 0, 2, 3, 2, 0, 3, 0, 32
Gb major blues (6b), 1, 0, 1, 2, 1, 0, 4, 1, 1, 1, 0, 2, 1, 1, 0, 1, 0, 1, 0, 1, 2, 1, 0, 4, 0, 26
F# major blues (6#), 1, 0, 1, 1, 1, 0, 3, 0, 0, 0, 0, 0, 0, 0, 0, 0, 0, 1, 0, 1, 1, 1, 0, 3, 0, 14
Eb minor blues (6b), 1, 0, 1, 2, 1, 0, 4, 1, 1, 1, 0, 2, 1, 1, 0, 1, 0, 1, 0, 1, 2, 1, 0, 4, 0, 26
D# minor blues (6#), 1, 0, 1, 1, 1, 0, 3, 0, 0, 0, 0, 0, 0, 0, 0, 0, 0, 1, 0, 1, 1, 1, 0, 3, 0, 14
Gb dorian (6b), 2, 0, 2, 2, 2, 0, 4, 1, 1, 1, 0, 1, 0, 1, 0, 0, 0, 2, 0, 2, 2, 2, 0, 4, 0, 29
F# dorian (6#), 1, 0, 1, 1, 1, 0, 3, 0, 0, 0, 0, 0, 0, 0, 0, 0, 0, 1, 0, 1, 1, 1, 0, 3, 0, 14
Gb phrygian (6b), 2, 0, 2, 1, 2, 0, 3, 0, 0, 0, 0, 0, 0, 0, 0, 0, 0, 2, 0, 2, 1, 2, 0, 3, 0, 20
F# phrygian (6#), 1, 0, 1, 3, 1, 0, 3, 1, 1, 1, 0, 2, 1, 1, 0, 1, 0, 1, 0, 1, 3, 1, 0, 3, 0, 26
Gb lydian (6b), 7, 2, 7, 2, 7, 4, 4, 2, 2, 2, 4, 4, 2, 2, 4, 4, 2, 7, 2, 7, 2, 7, 4, 4, 2, 96
F# lydian (6#), 4, 1, 4, 1, 4, 2, 2, 1, 1, 1, 2, 2, 1, 1, 2, 2, 1, 4, 1, 4, 1, 4, 2, 2, 1, 51
Gb mixolydian (6b), 7, 3, 7, 3, 7, 5, 5, 3, 2, 3, 4, 6, 4, 3, 5, 6, 2, 7, 3, 7, 3, 7, 5, 5, 2, 114
F# mixolydian (6#), 4, 2, 4, 2, 4, 3, 3, 2, 1, 2, 2, 4, 3, 2, 3, 4, 1, 4, 2, 4, 2, 4, 3, 3, 1, 69
Gb aeolian (6b), 7, 3, 7, 3, 7, 5, 5, 3, 2, 3, 4, 5, 3, 3, 5, 5, 2, 7, 3, 7, 3, 7, 5, 5, 2, 111
F# aeolian (6#), 4, 2, 4, 2, 4, 3, 3, 2, 1, 2, 2, 3, 2, 2, 3, 3, 1, 4, 2, 4, 2, 4, 3, 3, 1, 66
Gb locrian (6b), 5, 3, 5, 4, 5, 5, 6, 4, 3, 4, 4, 7, 4, 4, 5, 4, 0, 5, 3, 5, 4, 5, 5, 6, 2, 107
F# locrian (6#), 3, 2, 3, 3, 3, 3, 4, 3, 2, 3, 2, 5, 3, 3, 3, 3, 0, 3, 2, 3, 3, 3, 3, 4, 1, 70
Cb major (7b), 7, 4, 7, 4, 7, 6, 6, 4, 2, 4, 4, 7, 5, 4, 6, 7, 2, 7, 4, 7, 4, 7, 6, 6, 2, 129
C# major (7#), 5, 1, 5, 2, 5, 3, 3, 2, 2, 2, 3, 3, 2, 1, 3, 3, 1, 5, 1, 5, 2, 5, 3, 3, 2, 72
Ab minor (7b), 6, 2, 6, 1, 6, 2, 3, 1, 0, 1, 1, 3, 2, 2, 2, 4, 2, 6, 2, 6, 1, 6, 2, 3, 0, 70
A# minor (7#), 4, 2, 4, 2, 4, 4, 5, 2, 2, 2, 4, 4, 2, 2, 4, 2, 0, 4, 2, 4, 2, 4, 4, 5, 2, 76
Ab minor mel (7b), 6, 2, 6, 1, 6, 2, 3, 1, 0, 1, 1, 2, 1, 2, 2, 3, 2, 6, 2, 6, 1, 6, 2, 3, 0, 67
A# minor mel (7#), 5, 2, 5, 0, 5, 2, 3, 0, 0, 0, 2, 2, 0, 2, 2, 0, 0, 5, 2, 5, 0, 5, 2, 3, 0, 52
Cb major blues (7b), 7, 4, 7, 5, 7, 6, 7, 5, 3, 5, 4, 8, 5, 5, 6, 7, 2, 7, 4, 7, 5, 7, 6, 7, 2, 138
C# major blues (7#), 7, 2, 7, 2, 7, 4, 4, 2, 2, 2, 4, 4, 2, 2, 4, 4, 2, 7, 2, 7, 2, 7, 4, 4, 2, 96
Ab minor blues (7b), 4, 1, 4, 1, 4, 2, 2, 1, 1, 1, 2, 2, 1, 1, 2, 2, 1, 4, 1, 4, 1, 4, 2, 2, 1, 51
A# minor blues (7#), 7, 3, 7, 3, 7, 5, 5, 3, 2, 3, 4, 6, 4, 3, 5, 6, 2, 7, 3, 7, 3, 7, 5, 5, 2, 114
Cb dorian (7b), 4, 2, 4, 2, 4, 3, 3, 2, 1, 2, 2, 4, 3, 2, 3, 4, 1, 4, 2, 4, 2, 4, 3, 3, 1, 69
C# dorian (7#), 7, 3, 7, 3, 7, 5, 5, 3, 2, 3, 4, 5, 3, 3, 5, 5, 2, 7, 3, 7, 3, 7, 5, 5, 2, 111
Cb phrygian (7b), 4, 2, 4, 2, 4, 3, 3, 2, 1, 2, 2, 3, 2, 2, 3, 3, 1, 4, 2, 4, 2, 4, 3, 3, 1, 66
C# phrygian (7#), 5, 3, 5, 4, 5, 5, 6, 4, 3, 4, 4, 7, 4, 4, 5, 4, 0, 5, 3, 5, 4, 5, 5, 6, 2, 107
Cb lydian (7b), 3, 2, 3, 3, 3, 3, 4, 3, 2, 3, 2, 5, 3, 3, 3, 3, 0, 3, 2, 3, 3, 3, 3, 4, 1, 70
C# lydian (7#), 7, 4, 7, 4, 7, 6, 6, 4, 2, 4, 4, 7, 5, 4, 6, 7, 2, 7, 4, 7, 4, 7, 6, 6, 2, 129
Cb mixolydian (7b), 5, 1, 5, 2, 5, 3, 3, 2, 2, 2, 3, 3, 2, 1, 3, 3, 1, 5, 1, 5, 2, 5, 3, 3, 2, 72
C# mixolydian (7#), 6, 2, 6, 1, 6, 2, 3, 1, 0, 1, 1, 3, 2, 2, 2, 4, 2, 6, 2, 6, 1, 6, 2, 3, 0, 70
Cb aeolian (7b), 4, 2, 4, 2, 4, 4, 5, 2, 2, 2, 4, 4, 2, 2, 4, 2, 0, 4, 2, 4, 2, 4, 4, 5, 2, 76
C# aeolian (7#), 6, 2, 6, 1, 6, 2, 3, 1, 0, 1, 1, 2, 1, 2, 2, 3, 2, 6, 2, 6, 1, 6, 2, 3, 0, 67
Cb locrian (7b), 3, 2, 3, 5, 3, 4, 5, 5, 3, 5, 2, 6, 5, 3, 4, 5, 0, 3, 2, 3, 5, 3, 4, 5, 2, 90
C# locrian (7#), 7, 4, 7, 5, 7, 6, 7, 5, 3, 5, 4, 8, 5, 5, 6, 7, 2, 7, 4, 7, 5, 7, 6, 7, 2, 138
