 , 0, 1, 2, 3, 4, 5, 6, 7, 8, 9, 10, 11, 12, 13, 14, 15, 16, 17, 18, 19, 20, 21, 22, 23, 24, 25, 26, rowcost
C major (0), 0, 0, 0, 0, 0, 0, 3, 0, 0, 0, 0, 0, 0, 0, 0, 0, 0, 0, 0, 0, 0, 0, 0, 0, 3, 0, 0, 6
A minor (0), 1, 0, 1, 0, 1, 0, 3, 0, 1, 0, 0, 0, 0, 1, 0, 0, 0, 1, 1, 0, 1, 0, 1, 0, 3, 0, 0, 15
A minor mel (0), 2, 1, 2, 1, 2, 0, 4, 0, 2, 0, 0, 0, 0, 1, 0, 0, 0, 1, 2, 1, 2, 1, 2, 0, 4, 0, 0, 28
C major blues (0), 2, 2, 2, 2, 2, 0, 5, 0, 2, 0, 0, 0, 0, 1, 1, 0, 0, 1, 2, 2, 2, 2, 2, 0, 5, 0, 0, 35
A minor blues (0), 2, 2, 2, 2, 2, 0, 4, 0, 2, 0, 0, 0, 0, 1, 1, 0, 0, 1, 2, 2, 2, 2, 2, 0, 4, 0, 0, 33
C dorian (0), 1, 1, 1, 1, 1, 0, 4, 0, 1, 0, 0, 0, 0, 0, 0, 0, 0, 0, 1, 1, 1, 1, 1, 0, 4, 0, 0, 19
C phrygian (0), 0, 0, 0, 0, 0, 0, 3, 0, 0, 0, 0, 0, 0, 0, 0, 0, 0, 1, 0, 0, 0, 0, 0, 0, 3, 0, 0, 7
C lydian (0), 1, 1, 1, 1, 1, 0, 4, 0, 1, 0, 0, 0, 0, 0, 0, 0, 0, 0, 1, 1, 1, 1, 1, 0, 4, 0, 0, 19
C mixolydian (0), 0, 0, 0, 0, 0, 0, 3, 0, 0, 0, 0, 0, 0, 0, 0, 0, 0, 1, 0, 0, 0, 0, 0, 0, 3, 0, 0, 7
C aeolian (0), 0, 0, 0, 0, 0, 0, 3, 0, 0, 0, 0, 0, 0, 0, 0, 0, 0, 0, 0, 0, 0, 0, 0, 0, 3, 0, 0, 6
C locrian (0), 1, 1, 1, 1, 1, 0, 4, 0, 1, 0, 0, 0, 0, 1, 1, 0, 0, 1, 1, 1, 1, 1, 1, 0, 4, 0, 0, 22
F major (1b), 0, 0, 0, 0, 0, 0, 4, 0, 0, 0, 0, 0, 0, 0, 0, 0, 0, 1, 0, 0, 0, 0, 0, 0, 4, 0, 0, 9
G major (1#), 1, 1, 1, 1, 1, 0, 4, 0, 1, 0, 0, 0, 0, 0, 0, 0, 0, 0, 1, 1, 1, 1, 1, 0, 4, 0, 0, 19
D minor (1b), 1, 0, 1, 0, 1, 1, 4, 1, 1, 1, 1, 1, 1, 1, 1, 1, 1, 1, 1, 0, 1, 0, 1, 1, 4, 1, 1, 29
E minor (1#), 2, 1, 2, 1, 2, 0, 2, 0, 2, 0, 0, 1, 0, 1, 0, 1, 0, 0, 2, 1, 2, 1, 2, 0, 2, 0, 0, 25
D minor mel (1b), 1, 0, 1, 0, 1, 1, 4, 1, 1, 1, 1, 1, 1, 1, 1, 1, 1, 0, 1, 0, 1, 0, 1, 1, 4, 1, 1, 28
E minor mel (1#), 3, 1, 3, 1, 3, 1, 3, 1, 3, 1, 1, 2, 1, 2, 1, 2, 1, 0, 3, 1, 3, 1, 3, 1, 3, 1, 1, 47
F major blues (1b), 1, 1, 1, 1, 1, 1, 5, 0, 1, 0, 0, 1, 0, 1, 1, 1, 0, 2, 1, 1, 1, 1, 1, 1, 5, 0, 0, 29
G major blues (1#), 2, 1, 2, 1, 2, 1, 5, 1, 2, 1, 1, 1, 1, 1, 1, 1, 1, 1, 2, 1, 2, 1, 2, 1, 5, 1, 1, 42
D minor blues (1b), 1, 1, 1, 1, 1, 1, 4, 0, 1, 0, 0, 1, 0, 1, 1, 1, 0, 2, 1, 1, 1, 1, 1, 1, 4, 0, 0, 27
E minor blues (1#), 2, 1, 2, 1, 2, 1, 4, 1, 2, 1, 1, 1, 1, 1, 1, 1, 1, 1, 2, 1, 2, 1, 2, 1, 4, 1, 1, 40
F dorian (1b), 0, 0, 0, 0, 0, 0, 4, 0, 0, 0, 0, 0, 0, 0, 0, 0, 0, 0, 0, 0, 0, 0, 0, 0, 4, 0, 0, 8
G dorian (1#), 2, 1, 2, 1, 2, 1, 5, 1, 2, 1, 1, 1, 1, 1, 1, 1, 1, 0, 2, 1, 2, 1, 2, 1, 5, 1, 1, 41
F phrygian (1b), 1, 1, 1, 1, 1, 0, 5, 0, 1, 0, 0, 0, 0, 1, 1, 0, 0, 1, 1, 1, 1, 1, 1, 0, 5, 0, 0, 24
G phrygian (1#), 0, 0, 0, 0, 0, 0, 3, 0, 0, 0, 0, 0, 0, 0, 0, 0, 0, 0, 0, 0, 0, 0, 0, 0, 3, 0, 0, 6
F lydian (1b), 0, 0, 0, 0, 0, 0, 4, 0, 0, 0, 0, 0, 0, 0, 0, 0, 0, 0, 0, 0, 0, 0, 0, 0, 4, 0, 0, 8
G lydian (1#), 2, 1, 2, 1, 2, 1, 5, 1, 2, 1, 1, 1, 1, 1, 1, 1, 1, 0, 2, 1, 2, 1, 2, 1, 5, 1, 1, 41
F mixolydian (1b), 1, 1, 1, 1, 1, 0, 5, 0, 1, 0, 0, 0, 0, 1, 1, 0, 0, 1, 1, 1, 1, 1, 1, 0, 5, 0, 0, 24
G mixolydian (1#), 0, 0, 0, 0, 0, 0, 3, 0, 0, 0, 0, 0, 0, 0, 0, 0, 0, 0, 0, 0, 0, 0, 0, 0, 3, 0, 0, 6
F aeolian (1b), 0, 0, 0, 0, 0, 0, 4, 0, 0, 0, 0, 0, 0, 0, 0, 0, 0, 1, 0, 0, 0, 0, 0, 0, 4, 0, 0, 9
G aeolian (1#), 1, 1, 1, 1, 1, 0, 4, 0, 1, 0, 0, 0, 0, 0, 0, 0, 0, 0, 1, 1, 1, 1, 1, 0, 4, 0, 0, 19
F locrian (1b), 1, 1, 1, 1, 1, 1, 5, 0, 1, 0, 0, 1, 0, 1, 1, 1, 0, 2, 1, 1, 1, 1, 1, 1, 5, 0, 0, 29
G locrian (1#), 0, 0, 0, 0, 0, 0, 3, 0, 0, 0, 0, 0, 0, 0, 0, 0, 0, 1, 0, 0, 0, 0, 0, 0, 3, 0, 0, 7
Bb major (2b), 1, 1, 1, 1, 1, 0, 5, 0, 1, 0, 0, 0, 0, 1, 1, 0, 0, 1, 1, 1, 1, 1, 1, 0, 5, 0, 0, 24
D major (2#), 2, 1, 2, 1, 2, 1, 5, 1, 2, 1, 1, 1, 1, 1, 1, 1, 1, 0, 2, 1, 2, 1, 2, 1, 5, 1, 1, 41
G minor (2b), 2, 2, 2, 2, 2, 0, 5, 0, 2, 0, 0, 0, 0, 1, 1, 0, 0, 1, 2, 2, 2, 2, 2, 0, 5, 0, 0, 35
B minor (2#), 3, 1, 3, 1, 3, 2, 4, 1, 3, 1, 1, 2, 1, 1, 1, 2, 1, 1, 3, 1, 3, 1, 3, 2, 4, 1, 1, 51
G minor mel (2b), 1, 1, 1, 1, 1, 0, 4, 0, 1, 0, 0, 0, 0, 0, 0, 0, 0, 1, 1, 1, 1, 1, 1, 0, 4, 0, 0, 20
B minor mel (2#), 4, 1, 4, 1, 4, 2, 5, 1, 4, 1, 1, 2, 1, 2, 1, 2, 1, 2, 4, 1, 4, 1, 4, 2, 5, 1, 1, 62
Bb major blues (2b), 2, 1, 2, 1, 2, 1, 5, 0, 2, 0, 0, 2, 0, 2, 1, 2, 0, 2, 2, 1, 2, 1, 2, 1, 5, 0, 0, 39
D major blues (2#), 3, 1, 3, 1, 3, 1, 6, 1, 3, 1, 1, 1, 1, 2, 1, 1, 1, 1, 3, 1, 3, 1, 3, 1, 6, 1, 1, 52
G minor blues (2b), 2, 1, 2, 1, 2, 1, 4, 0, 2, 0, 0, 2, 0, 2, 1, 2, 0, 2, 2, 1, 2, 1, 2, 1, 4, 0, 0, 37
B minor blues (2#), 4, 1, 4, 1, 4, 1, 6, 1, 4, 1, 1, 1, 1, 2, 1, 1, 1, 1, 4, 1, 4, 1, 4, 1, 6, 1, 1, 59
Bb dorian (2b), 0, 0, 0, 0, 0, 0, 4, 0, 0, 0, 0, 0, 0, 0, 0, 0, 0, 1, 0, 0, 0, 0, 0, 0, 4, 0, 0, 9
D dorian (2#), 3, 1, 3, 1, 3, 1, 6, 1, 3, 1, 1, 1, 1, 2, 1, 1, 1, 1, 3, 1, 3, 1, 3, 1, 6, 1, 1, 52
Bb phrygian (2b), 1, 0, 1, 0, 1, 0, 3, 0, 1, 0, 0, 0, 0, 1, 0, 0, 0, 1, 1, 0, 1, 0, 1, 0, 3, 0, 0, 15
D phrygian (2#), 2, 1, 2, 1, 2, 0, 4, 0, 2, 0, 0, 0, 0, 1, 0, 0, 0, 1, 2, 1, 2, 1, 2, 0, 4, 0, 0, 28
Bb lydian (2b), 2, 2, 2, 2, 2, 0, 5, 0, 2, 0, 0, 0, 0, 1, 1, 0, 0, 1, 2, 2, 2, 2, 2, 0, 5, 0, 0, 35
D lydian (2#), 2, 2, 2, 2, 2, 0, 4, 0, 2, 0, 0, 0, 0, 1, 1, 0, 0, 1, 2, 2, 2, 2, 2, 0, 4, 0, 0, 33
Bb mixolydian (2b), 1, 1, 1, 1, 1, 0, 4, 0, 1, 0, 0, 0, 0, 0, 0, 0, 0, 0, 1, 1, 1, 1, 1, 0, 4, 0, 0, 19
D mixolydian (2#), 0, 0, 0, 0, 0, 0, 3, 0, 0, 0, 0, 0, 0, 0, 0, 0, 0, 1, 0, 0, 0, 0, 0, 0, 3, 0, 0, 7
Bb aeolian (2b), 1, 1, 1, 1, 1, 0, 4, 0, 1, 0, 0, 0, 0, 0, 0, 0, 0, 0, 1, 1, 1, 1, 1, 0, 4, 0, 0, 19
D aeolian (2#), 0, 0, 0, 0, 0, 0, 3, 0, 0, 0, 0, 0, 0, 0, 0, 0, 0, 1, 0, 0, 0, 0, 0, 0, 3, 0, 0, 7
Bb locrian (2b), 0, 0, 0, 0, 0, 0, 3, 0, 0, 0, 0, 0, 0, 0, 0, 0, 0, 0, 0, 0, 0, 0, 0, 0, 3, 0, 0, 6
D locrian (2#), 1, 1, 1, 1, 1, 0, 4, 0, 1, 0, 0, 0, 0, 1, 1, 0, 0, 1, 1, 1, 1, 1, 1, 0, 4, 0, 0, 22
Eb major (3b), 0, 0, 0, 0, 0, 0, 4, 0, 0, 0, 0, 0, 0, 0, 0, 0, 0, 1, 0, 0, 0, 0, 0, 0, 4, 0, 0, 9
A major (3#), 1, 1, 1, 1, 1, 0, 4, 0, 1, 0, 0, 0, 0, 0, 0, 0, 0, 0, 1, 1, 1, 1, 1, 0, 4, 0, 0, 19
C minor (3b), 1, 0, 1, 0, 1, 1, 4, 1, 1, 1, 1, 1, 1, 1, 1, 1, 1, 1, 1, 0, 1, 0, 1, 1, 4, 1, 1, 29
F# minor (3#), 2, 1, 2, 1, 2, 0, 2, 0, 2, 0, 0, 1, 0, 1, 0, 1, 0, 0, 2, 1, 2, 1, 2, 0, 2, 0, 0, 25
C minor mel (3b), 1, 1, 1, 1, 1, 0, 4, 0, 1, 0, 0, 0, 0, 1, 1, 0, 0, 0, 1, 1, 1, 1, 1, 0, 4, 0, 0, 21
F# minor mel (3#), 6, 2, 6, 2, 4, 1, 5, 1, 6, 1, 1, 2, 1, 4, 2, 2, 1, 1, 6, 2, 6, 2, 4, 1, 5, 1, 1, 76
Eb major blues (3b), 0, 0, 0, 0, 0, 0, 3, 0, 0, 0, 0, 0, 0, 0, 0, 0, 0, 0, 0, 0, 0, 0, 0, 0, 3, 0, 0, 6
A major blues (3#), 1, 0, 1, 0, 1, 0, 3, 0, 1, 0, 0, 0, 0, 1, 0, 0, 0, 1, 1, 0, 1, 0, 1, 0, 3, 0, 0, 15
C minor blues (3b), 2, 1, 2, 1, 2, 0, 4, 0, 2, 0, 0, 0, 0, 1, 0, 0, 0, 1, 2, 1, 2, 1, 2, 0, 4, 0, 0, 28
F# minor blues (3#), 2, 2, 2, 2, 2, 0, 5, 0, 2, 0, 0, 0, 0, 1, 1, 0, 0, 1, 2, 2, 2, 2, 2, 0, 5, 0, 0, 35
Eb dorian (3b), 2, 2, 2, 2, 2, 0, 4, 0, 2, 0, 0, 0, 0, 1, 1, 0, 0, 1, 2, 2, 2, 2, 2, 0, 4, 0, 0, 33
A dorian (3#), 1, 1, 1, 1, 1, 0, 4, 0, 1, 0, 0, 0, 0, 0, 0, 0, 0, 0, 1, 1, 1, 1, 1, 0, 4, 0, 0, 19
Eb phrygian (3b), 0, 0, 0, 0, 0, 0, 3, 0, 0, 0, 0, 0, 0, 0, 0, 0, 0, 1, 0, 0, 0, 0, 0, 0, 3, 0, 0, 7
A phrygian (3#), 1, 1, 1, 1, 1, 0, 4, 0, 1, 0, 0, 0, 0, 0, 0, 0, 0, 0, 1, 1, 1, 1, 1, 0, 4, 0, 0, 19
Eb lydian (3b), 0, 0, 0, 0, 0, 0, 3, 0, 0, 0, 0, 0, 0, 0, 0, 0, 0, 1, 0, 0, 0, 0, 0, 0, 3, 0, 0, 7
A lydian (3#), 0, 0, 0, 0, 0, 0, 3, 0, 0, 0, 0, 0, 0, 0, 0, 0, 0, 0, 0, 0, 0, 0, 0, 0, 3, 0, 0, 6
Eb mixolydian (3b), 1, 1, 1, 1, 1, 0, 4, 0, 1, 0, 0, 0, 0, 1, 1, 0, 0, 1, 1, 1, 1, 1, 1, 0, 4, 0, 0, 22
A mixolydian (3#), 0, 0, 0, 0, 0, 0, 4, 0, 0, 0, 0, 0, 0, 0, 0, 0, 0, 1, 0, 0, 0, 0, 0, 0, 4, 0, 0, 9
Eb aeolian (3b), 1, 1, 1, 1, 1, 0, 4, 0, 1, 0, 0, 0, 0, 0, 0, 0, 0, 0, 1, 1, 1, 1, 1, 0, 4, 0, 0, 19
A aeolian (3#), 1, 0, 1, 0, 1, 1, 4, 1, 1, 1, 1, 1, 1, 1, 1, 1, 1, 1, 1, 0, 1, 0, 1, 1, 4, 1, 1, 29
Eb locrian (3b), 1, 0, 1, 0, 1, 0, 3, 0, 1, 0, 0, 0, 0, 1, 0, 0, 0, 1, 1, 0, 1, 0, 1, 0, 3, 0, 0, 15
A locrian (3#), 2, 1, 2, 1, 2, 0, 4, 0, 2, 0, 0, 0, 0, 1, 0, 0, 0, 1, 2, 1, 2, 1, 2, 0, 4, 0, 0, 28
Ab major (4b), 2, 2, 2, 2, 2, 0, 5, 0, 2, 0, 0, 0, 0, 1, 1, 0, 0, 1, 2, 2, 2, 2, 2, 0, 5, 0, 0, 35
E major (4#), 2, 2, 2, 2, 2, 0, 4, 0, 2, 0, 0, 0, 0, 1, 1, 0, 0, 1, 2, 2, 2, 2, 2, 0, 4, 0, 0, 33
F minor (4b), 1, 1, 1, 1, 1, 0, 4, 0, 1, 0, 0, 0, 0, 0, 0, 0, 0, 0, 1, 1, 1, 1, 1, 0, 4, 0, 0, 19
C# minor (4#), 0, 0, 0, 0, 0, 0, 3, 0, 0, 0, 0, 0, 0, 0, 0, 0, 0, 1, 0, 0, 0, 0, 0, 0, 3, 0, 0, 7
F minor mel (4b), 1, 1, 1, 1, 1, 0, 4, 0, 1, 0, 0, 0, 0, 0, 0, 0, 0, 0, 1, 1, 1, 1, 1, 0, 4, 0, 0, 19
C# minor mel (4#), 0, 0, 0, 0, 0, 0, 3, 0, 0, 0, 0, 0, 0, 0, 0, 0, 0, 1, 0, 0, 0, 0, 0, 0, 3, 0, 0, 7
Ab major blues (4b), 0, 0, 0, 0, 0, 0, 3, 0, 0, 0, 0, 0, 0, 0, 0, 0, 0, 0, 0, 0, 0, 0, 0, 0, 3, 0, 0, 6
E major blues (4#), 1, 1, 1, 1, 1, 0, 4, 0, 1, 0, 0, 0, 0, 1, 1, 0, 0, 1, 1, 1, 1, 1, 1, 0, 4, 0, 0, 22
F minor blues (4b), 0, 0, 0, 0, 0, 0, 4, 0, 0, 0, 0, 0, 0, 0, 0, 0, 0, 1, 0, 0, 0, 0, 0, 0, 4, 0, 0, 9
C# minor blues (4#), 1, 1, 1, 1, 1, 0, 4, 0, 1, 0, 0, 0, 0, 0, 0, 0, 0, 0, 1, 1, 1, 1, 1, 0, 4, 0, 0, 19
Ab dorian (4b), 1, 0, 1, 0, 1, 1, 4, 1, 1, 1, 1, 1, 1, 1, 1, 1, 1, 1, 1, 0, 1, 0, 1, 1, 4, 1, 1, 29
E dorian (4#), 2, 1, 2, 1, 2, 0, 2, 0, 2, 0, 0, 1, 0, 1, 0, 1, 0, 0, 2, 1, 2, 1, 2, 0, 2, 0, 0, 25
Ab phrygian (4b), 1, 1, 1, 1, 1, 0, 4, 0, 1, 0, 0, 0, 0, 1, 1, 0, 0, 0, 1, 1, 1, 1, 1, 0, 4, 0, 0, 21
E phrygian (4#), 6, 2, 6, 2, 4, 1, 5, 1, 6, 1, 1, 2, 1, 4, 2, 2, 1, 1, 6, 2, 6, 2, 4, 1, 5, 1, 1, 76
Ab lydian (4b), 0, 0, 0, 0, 0, 0, 3, 0, 0, 0, 0, 0, 0, 0, 0, 0, 0, 0, 0, 0, 0, 0, 0, 0, 3, 0, 0, 6
E lydian (4#), 1, 0, 1, 0, 1, 0, 3, 0, 1, 0, 0, 0, 0, 1, 0, 0, 0, 1, 1, 0, 1, 0, 1, 0, 3, 0, 0, 15
Ab mixolydian (4b), 2, 1, 2, 1, 2, 0, 4, 0, 2, 0, 0, 0, 0, 1, 0, 0, 0, 1, 2, 1, 2, 1, 2, 0, 4, 0, 0, 28
E mixolydian (4#), 2, 2, 2, 2, 2, 0, 5, 0, 2, 0, 0, 0, 0, 1, 1, 0, 0, 1, 2, 2, 2, 2, 2, 0, 5, 0, 0, 35
Ab aeolian (4b), 2, 2, 2, 2, 2, 0, 4, 0, 2, 0, 0, 0, 0, 1, 1, 0, 0, 1, 2, 2, 2, 2, 2, 0, 4, 0, 0, 33
E aeolian (4#), 1, 1, 1, 1, 1, 0, 4, 0, 1, 0, 0, 0, 0, 0, 0, 0, 0, 0, 1, 1, 1, 1, 1, 0, 4, 0, 0, 19
Ab locrian (4b), 0, 0, 0, 0, 0, 0, 3, 0, 0, 0, 0, 0, 0, 0, 0, 0, 0, 1, 0, 0, 0, 0, 0, 0, 3, 0, 0, 7
E locrian (4#), 1, 1, 1, 1, 1, 0, 4, 0, 1, 0, 0, 0, 0, 0, 0, 0, 0, 0, 1, 1, 1, 1, 1, 0, 4, 0, 0, 19
Db major (5b), 0, 0, 0, 0, 0, 0, 3, 0, 0, 0, 0, 0, 0, 0, 0, 0, 0, 1, 0, 0, 0, 0, 0, 0, 3, 0, 0, 7
B major (5#), 0, 0, 0, 0, 0, 0, 3, 0, 0, 0, 0, 0, 0, 0, 0, 0, 0, 0, 0, 0, 0, 0, 0, 0, 3, 0, 0, 6
Bb minor (5b), 1, 1, 1, 1, 1, 0, 4, 0, 1, 0, 0, 0, 0, 1, 1, 0, 0, 1, 1, 1, 1, 1, 1, 0, 4, 0, 0, 22
G# minor (5#), 0, 0, 0, 0, 0, 0, 4, 0, 0, 0, 0, 0, 0, 0, 0, 0, 0, 1, 0, 0, 0, 0, 0, 0, 4, 0, 0, 9
Bb minor mel (5b), 1, 1, 1, 1, 1, 0, 4, 0, 1, 0, 0, 0, 0, 0, 0, 0, 0, 0, 1, 1, 1, 1, 1, 0, 4, 0, 0, 19
G# minor mel (5#), 1, 0, 1, 0, 1, 1, 4, 1, 1, 1, 1, 1, 1, 1, 1, 1, 1, 1, 1, 0, 1, 0, 1, 1, 4, 1, 1, 29
Db major blues (5b), 0, 0, 0, 0, 0, 0, 3, 0, 0, 0, 0, 0, 0, 0, 0, 0, 0, 0, 0, 0, 0, 0, 0, 0, 3, 0, 0, 6
B major blues (5#), 1, 0, 1, 0, 1, 0, 3, 0, 1, 0, 0, 0, 0, 1, 0, 0, 0, 1, 1, 0, 1, 0, 1, 0, 3, 0, 0, 15
Bb minor blues (5b), 2, 1, 2, 1, 2, 0, 4, 0, 2, 0, 0, 0, 0, 1, 0, 0, 0, 1, 2, 1, 2, 1, 2, 0, 4, 0, 0, 28
G# minor blues (5#), 2, 2, 2, 2, 2, 0, 5, 0, 2, 0, 0, 0, 0, 1, 1, 0, 0, 1, 2, 2, 2, 2, 2, 0, 5, 0, 0, 35
Db dorian (5b), 2, 2, 2, 2, 2, 0, 4, 0, 2, 0, 0, 0, 0, 1, 1, 0, 0, 1, 2, 2, 2, 2, 2, 0, 4, 0, 0, 33
B dorian (5#), 1, 1, 1, 1, 1, 0, 4, 0, 1, 0, 0, 0, 0, 0, 0, 0, 0, 0, 1, 1, 1, 1, 1, 0, 4, 0, 0, 19
Db phrygian (5b), 0, 0, 0, 0, 0, 0, 3, 0, 0, 0, 0, 0, 0, 0, 0, 0, 0, 1, 0, 0, 0, 0, 0, 0, 3, 0, 0, 7
B phrygian (5#), 1, 1, 1, 1, 1, 0, 4, 0, 1, 0, 0, 0, 0, 0, 0, 0, 0, 0, 1, 1, 1, 1, 1, 0, 4, 0, 0, 19
Db lydian (5b), 0, 0, 0, 0, 0, 0, 3, 0, 0, 0, 0, 0, 0, 0, 0, 0, 0, 1, 0, 0, 0, 0, 0, 0, 3, 0, 0, 7
B lydian (5#), 0, 0, 0, 0, 0, 0, 3, 0, 0, 0, 0, 0, 0, 0, 0, 0, 0, 0, 0, 0, 0, 0, 0, 0, 3, 0, 0, 6
Db mixolydian (5b), 1, 1, 1, 1, 1, 0, 4, 0, 1, 0, 0, 0, 0, 1, 1, 0, 0, 1, 1, 1, 1, 1, 1, 0, 4, 0, 0, 22
B mixolydian (5#), 0, 0, 0, 0, 0, 0, 4, 0, 0, 0, 0, 0, 0, 0, 0, 0, 0, 1, 0, 0, 0, 0, 0, 0, 4, 0, 0, 9
Db aeolian (5b), 1, 1, 1, 1, 1, 0, 4, 0, 1, 0, 0, 0, 0, 0, 0, 0, 0, 0, 1, 1, 1, 1, 1, 0, 4, 0, 0, 19
B aeolian (5#), 1, 0, 1, 0, 1, 1, 4, 1, 1, 1, 1, 1, 1, 1, 1, 1, 1, 1, 1, 0, 1, 0, 1, 1, 4, 1, 1, 29
Db locrian (5b), 2, 1, 2, 1, 2, 0, 2, 0, 2, 0, 0, 1, 0, 1, 0, 1, 0, 0, 2, 1, 2, 1, 2, 0, 2, 0, 0, 25
B locrian (5#), 4, 1, 4, 1, 4, 1, 5, 1, 4, 1, 1, 1, 1, 2, 1, 1, 1, 1, 4, 1, 4, 1, 4, 1, 5, 1, 1, 57
Gb major (6b), 6, 2, 6, 2, 4, 1, 5, 1, 6, 1, 1, 2, 1, 4, 2, 2, 1, 1, 6, 2, 6, 2, 4, 1, 5, 1, 1, 76
F# major (6#), 0, 0, 0, 0, 0, 0, 3, 0, 0, 0, 0, 0, 0, 0, 0, 0, 0, 0, 0, 0, 0, 0, 0, 0, 3, 0, 0, 6
Eb minor (6b), 1, 0, 1, 0, 1, 0, 3, 0, 1, 0, 0, 0, 0, 1, 0, 0, 0, 1, 1, 0, 1, 0, 1, 0, 3, 0, 0, 15
D# minor (6#), 2, 1, 2, 1, 2, 0, 4, 0, 2, 0, 0, 0, 0, 1, 0, 0, 0, 1, 2, 1, 2, 1, 2, 0, 4, 0, 0, 28
Eb minor mel (6b), 2, 2, 2, 2, 2, 0, 5, 0, 2, 0, 0, 0, 0, 1, 1, 0, 0, 1, 2, 2, 2, 2, 2, 0, 5, 0, 0, 35
D# minor mel (6#), 2, 2, 2, 2, 2, 0, 4, 0, 2, 0, 0, 0, 0, 1, 1, 0, 0, 1, 2, 2, 2, 2, 2, 0, 4, 0, 0, 33
Gb major blues (6b), 1, 1, 1, 1, 1, 0, 4, 0, 1, 0, 0, 0, 0, 0, 0, 0, 0, 0, 1, 1, 1, 1, 1, 0, 4, 0, 0, 19
F# major blues (6#), 0, 0, 0, 0, 0, 0, 3, 0, 0, 0, 0, 0, 0, 0, 0, 0, 0, 1, 0, 0, 0, 0, 0, 0, 3, 0, 0, 7
Eb minor blues (6b), 1, 1, 1, 1, 1, 0, 4, 0, 1, 0, 0, 0, 0, 0, 0, 0, 0, 0, 1, 1, 1, 1, 1, 0, 4, 0, 0, 19
D# minor blues (6#), 0, 0, 0, 0, 0, 0, 3, 0, 0, 0, 0, 0, 0, 0, 0, 0, 0, 1, 0, 0, 0, 0, 0, 0, 3, 0, 0, 7
Gb dorian (6b), 0, 0, 0, 0, 0, 0, 3, 0, 0, 0, 0, 0, 0, 0, 0, 0, 0, 0, 0, 0, 0, 0, 0, 0, 3, 0, 0, 6
F# dorian (6#), 1, 1, 1, 1, 1, 0, 4, 0, 1, 0, 0, 0, 0, 1, 1, 0, 0, 1, 1, 1, 1, 1, 1, 0, 4, 0, 0, 22
Gb phrygian (6b), 0, 0, 0, 0, 0, 0, 4, 0, 0, 0, 0, 0, 0, 0, 0, 0, 0, 1, 0, 0, 0, 0, 0, 0, 4, 0, 0, 9
F# phrygian (6#), 1, 1, 1, 1, 1, 0, 4, 0, 1, 0, 0, 0, 0, 0, 0, 0, 0, 0, 1, 1, 1, 1, 1, 0, 4, 0, 0, 19
Gb lydian (6b), 7, 2, 7, 2, 5, 2, 5, 0, 7, 0, 0, 4, 0, 5, 1, 4, 0, 5, 7, 2, 7, 2, 5, 2, 5, 0, 0, 86
F# lydian (6#), 5, 2, 5, 2, 3, 1, 4, 0, 5, 0, 0, 2, 0, 3, 1, 2, 0, 3, 5, 2, 5, 2, 3, 1, 4, 0, 0, 60
Gb mixolydian (6b), 7, 1, 7, 1, 7, 3, 5, 1, 7, 1, 1, 5, 1, 5, 1, 5, 1, 4, 7, 1, 7, 1, 7, 3, 5, 1, 1, 96
F# mixolydian (6#), 5, 1, 5, 1, 5, 2, 4, 1, 5, 1, 1, 3, 1, 3, 1, 3, 1, 2, 5, 1, 5, 1, 5, 2, 4, 1, 1, 70
Gb aeolian (6b), 8, 2, 8, 2, 6, 3, 6, 1, 8, 1, 1, 5, 1, 6, 2, 5, 1, 4, 8, 2, 8, 2, 6, 3, 6, 1, 1, 107
F# aeolian (6#), 6, 2, 6, 2, 4, 2, 5, 1, 6, 1, 1, 3, 1, 4, 2, 3, 1, 2, 6, 2, 6, 2, 4, 2, 5, 1, 1, 81
Gb locrian (6b), 7, 1, 7, 1, 7, 1, 5, 1, 7, 1, 1, 3, 1, 5, 1, 3, 1, 2, 7, 1, 7, 1, 7, 1, 5, 1, 1, 86
F# locrian (6#), 5, 1, 5, 1, 5, 1, 4, 1, 5, 1, 1, 2, 1, 3, 1, 2, 1, 1, 5, 1, 5, 1, 5, 1, 4, 1, 1, 65
Cb major (7b), 8, 1, 8, 1, 8, 4, 6, 2, 8, 2, 2, 6, 2, 6, 2, 6, 2, 4, 8, 1, 8, 1, 8, 4, 6, 2, 2, 118
C# major (7#), 6, 2, 6, 2, 4, 1, 5, 0, 6, 0, 0, 2, 0, 4, 1, 2, 0, 4, 6, 2, 6, 2, 4, 1, 5, 0, 0, 71
Ab minor (7b), 4, 1, 4, 1, 4, 3, 5, 1, 4, 1, 1, 4, 1, 2, 1, 4, 1, 2, 4, 1, 4, 1, 4, 3, 5, 1, 1, 68
A# minor (7#), 6, 2, 6, 2, 6, 0, 7, 0, 6, 0, 0, 2, 0, 6, 2, 2, 0, 3, 6, 2, 6, 2, 6, 0, 7, 0, 0, 79
Ab minor mel (7b), 5, 2, 5, 2, 3, 3, 6, 1, 5, 1, 1, 4, 1, 3, 2, 4, 1, 2, 5, 2, 5, 2, 3, 3, 6, 1, 1, 79
A# minor mel (7#), 4, 2, 4, 2, 4, 0, 8, 0, 4, 0, 0, 2, 0, 4, 2, 2, 0, 1, 4, 2, 4, 2, 4, 0, 8, 0, 0, 63
Cb major blues (7b), 9, 2, 9, 2, 8, 4, 8, 2, 9, 2, 2, 6, 2, 7, 3, 6, 2, 4, 9, 2, 9, 2, 8, 4, 8, 2, 2, 133
C# major blues (7#), 7, 2, 7, 2, 5, 2, 5, 0, 7, 0, 0, 4, 0, 5, 1, 4, 0, 5, 7, 2, 7, 2, 5, 2, 5, 0, 0, 86
Ab minor blues (7b), 5, 2, 5, 2, 3, 1, 4, 0, 5, 0, 0, 2, 0, 3, 1, 2, 0, 3, 5, 2, 5, 2, 3, 1, 4, 0, 0, 60
A# minor blues (7#), 7, 1, 7, 1, 7, 3, 5, 1, 7, 1, 1, 5, 1, 5, 1, 5, 1, 4, 7, 1, 7, 1, 7, 3, 5, 1, 1, 96
Cb dorian (7b), 5, 1, 5, 1, 5, 2, 4, 1, 5, 1, 1, 3, 1, 3, 1, 3, 1, 2, 5, 1, 5, 1, 5, 2, 4, 1, 1, 70
C# dorian (7#), 8, 2, 8, 2, 6, 3, 6, 1, 8, 1, 1, 5, 1, 6, 2, 5, 1, 4, 8, 2, 8, 2, 6, 3, 6, 1, 1, 107
Cb phrygian (7b), 6, 2, 6, 2, 4, 2, 5, 1, 6, 1, 1, 3, 1, 4, 2, 3, 1, 2, 6, 2, 6, 2, 4, 2, 5, 1, 1, 81
C# phrygian (7#), 7, 1, 7, 1, 7, 1, 5, 1, 7, 1, 1, 3, 1, 5, 1, 3, 1, 2, 7, 1, 7, 1, 7, 1, 5, 1, 1, 86
Cb lydian (7b), 5, 1, 5, 1, 5, 1, 4, 1, 5, 1, 1, 2, 1, 3, 1, 2, 1, 1, 5, 1, 5, 1, 5, 1, 4, 1, 1, 65
C# lydian (7#), 8, 1, 8, 1, 8, 4, 6, 2, 8, 2, 2, 6, 2, 6, 2, 6, 2, 4, 8, 1, 8, 1, 8, 4, 6, 2, 2, 118
Cb mixolydian (7b), 6, 2, 6, 2, 4, 1, 5, 0, 6, 0, 0, 2, 0, 4, 1, 2, 0, 4, 6, 2, 6, 2, 4, 1, 5, 0, 0, 71
C# mixolydian (7#), 4, 1, 4, 1, 4, 3, 5, 1, 4, 1, 1, 4, 1, 2, 1, 4, 1, 2, 4, 1, 4, 1, 4, 3, 5, 1, 1, 68
Cb aeolian (7b), 6, 2, 6, 2, 6, 0, 7, 0, 6, 0, 0, 2, 0, 6, 2, 2, 0, 3, 6, 2, 6, 2, 6, 0, 7, 0, 0, 79
C# aeolian (7#), 5, 2, 5, 2, 3, 3, 6, 1, 5, 1, 1, 4, 1, 3, 2, 4, 1, 2, 5, 2, 5, 2, 3, 3, 6, 1, 1, 79
Cb locrian (7b), 6, 1, 6, 1, 6, 2, 7, 2, 6, 2, 2, 2, 2, 4, 2, 2, 2, 2, 6, 1, 6, 1, 6, 2, 7, 2, 2, 90
C# locrian (7#), 9, 2, 9, 2, 8, 4, 8, 2, 9, 2, 2, 6, 2, 7, 3, 6, 2, 4, 9, 2, 9, 2, 8, 4, 8, 2, 2, 133
