 , 0, 1, 2, 3, 4, 5, 6, 7, 8, 9, 10, 11, 12, 13, 14, 15, 16, 17, 18, 19, 20, 21, 22, 23, 24, 25, 26, 27, 28, 29, 30, 31, 32, 33, 34, 35, 36, 37, 38, 39, 40, 41, 42, 43, 44, 45, 46, 47, 48, 49, rowcost
C major (0), 5:5:0:0:1, 0:0:0:0:0, 0:0:0:0:0, 2:2:0:0:0, 1:1:0:0:0, 3:3:0:0:0, 5:4:0:0:2, 0:0:0:0:0, 1:1:0:0:0, 1:1:0:0:1, 0:0:0:0:0, 0:0:0:0:0, 0:0:0:0:0, 0:0:0:0:0, 0:0:0:0:0, 2:1:0:0:0, 2:2:0:0:0, 1:1:0:0:0,  , 3:2:0:0:0, 1:1:0:0:0, 2:2:0:0:0, 4:3:0:0:1, 0:0:0:0:0, 1:1:0:0:0, 1:1:0:0:0, 0:0:0:0:0, 0:0:0:0:0, 1:1:0:0:0, 0:0:0:0:0, 1:1:0:0:0, 1:1:0:0:1,  , 0:0:0:0:0, 2:2:0:0:0, 2:1:0:0:0,  , 0:0:0:0:0, 0:0:0:0:0, 0:0:0:0:0, 1:1:0:0:0, 1:1:0:0:0, 1:1:0:0:0, 1:1:0:0:1, 2:2:0:0:0, 0:0:0:0:0, 2:2:0:0:0, 0:0:0:0:0, 0:0:0:0:0, 0:0:0:0:0, 50:45:0:0:7
A minor (0), 5:5:0:0:1, 0:0:0:0:0, 0:0:0:0:0, 2:2:0:0:0, 1:1:0:0:0, 3:3:0:0:0, 5:4:0:0:2, 0:0:0:0:0, 1:1:0:0:0, 1:1:0:0:1, 0:0:0:0:0, 0:0:0:0:0, 0:0:0:0:0, 0:0:0:0:0, 0:0:0:0:0, 2:1:0:0:0, 2:2:0:0:0, 1:1:0:0:0,  , 3:2:0:0:0, 1:1:0:0:0, 2:2:0:0:0, 4:3:0:0:1, 0:0:0:0:0, 1:1:0:0:0, 1:1:0:0:0, 0:0:0:0:0, 0:0:0:0:0, 1:1:0:0:0, 0:0:0:0:0, 1:1:0:0:0, 1:1:0:0:1,  , 0:0:0:0:0, 2:2:0:0:0, 2:1:0:0:0,  , 0:0:0:0:0, 0:0:0:0:0, 0:0:0:0:0, 1:1:0:0:0, 1:1:0:0:0, 1:1:0:0:0, 1:1:0:0:1, 2:2:0:0:0, 0:0:0:0:0, 2:2:0:0:0, 0:0:0:0:0, 0:0:0:0:0, 0:0:0:0:0, 50:45:0:0:7
A minor mel (0), 5:5:0:0:1, 0:0:0:0:0, 0:0:0:0:0, 2:2:0:0:0, 1:1:0:0:0, 3:3:0:0:0, 5:4:0:0:2, 0:0:0:0:0, 1:1:0:0:0, 1:1:0:0:1, 0:0:0:0:0, 0:0:0:0:0, 0:0:0:0:0, 0:0:0:0:0, 0:0:0:0:0, 2:1:0:0:0, 2:2:0:0:0, 1:1:0:0:0,  , 3:2:0:0:0, 1:1:0:0:0, 2:2:0:0:0, 4:3:0:0:1, 0:0:0:0:0, 1:1:0:0:0, 1:1:0:0:0, 0:0:0:0:0, 0:0:0:0:0, 1:1:0:0:0, 0:0:0:0:0, 1:1:0:0:0, 1:1:0:0:1,  , 0:0:0:0:0, 2:2:0:0:0, 2:1:0:0:0,  , 0:0:0:0:0, 0:0:0:0:0, 0:0:0:0:0, 1:1:0:0:0, 1:1:0:0:0, 1:1:0:0:0, 1:1:0:0:1, 2:2:0:0:0, 0:0:0:0:0, 2:2:0:0:0, 0:0:0:0:0, 0:0:0:0:0, 0:0:0:0:0, 50:45:0:0:7
C major blues (0), 5:5:0:0:1, 0:0:0:0:0, 0:0:0:0:0, 2:2:0:0:0, 1:1:0:0:0, 3:3:0:0:0, 5:4:0:0:2, 0:0:0:0:0, 1:1:0:0:0, 1:1:0:0:1, 0:0:0:0:0, 0:0:0:0:0, 0:0:0:0:0, 0:0:0:0:0, 0:0:0:0:0, 2:1:0:0:0, 2:2:0:0:0, 1:1:0:0:0,  , 3:2:0:0:0, 1:1:0:0:0, 2:2:0:0:0, 4:3:0:0:1, 0:0:0:0:0, 1:1:0:0:0, 1:1:0:0:0, 0:0:0:0:0, 0:0:0:0:0, 1:1:0:0:0, 0:0:0:0:0, 1:1:0:0:0, 1:1:0:0:1,  , 0:0:0:0:0, 2:2:0:0:0, 2:1:0:0:0,  , 0:0:0:0:0, 0:0:0:0:0, 0:0:0:0:0, 1:1:0:0:0, 1:1:0:0:0, 1:1:0:0:0, 1:1:0:0:1, 2:2:0:0:0, 0:0:0:0:0, 2:2:0:0:0, 0:0:0:0:0, 0:0:0:0:0, 0:0:0:0:0, 50:45:0:0:7
A minor blues (0), 5:5:0:0:1, 0:0:0:0:0, 0:0:0:0:0, 2:2:0:0:0, 1:1:0:0:0, 3:3:0:0:0, 5:4:0:0:2, 0:0:0:0:0, 1:1:0:0:0, 1:1:0:0:1, 0:0:0:0:0, 0:0:0:0:0, 0:0:0:0:0, 0:0:0:0:0, 0:0:0:0:0, 2:1:0:0:0, 2:2:0:0:0, 1:1:0:0:0,  , 3:2:0:0:0, 1:1:0:0:0, 2:2:0:0:0, 4:3:0:0:1, 0:0:0:0:0, 1:1:0:0:0, 1:1:0:0:0, 0:0:0:0:0, 0:0:0:0:0, 1:1:0:0:0, 0:0:0:0:0, 1:1:0:0:0, 1:1:0:0:1,  , 0:0:0:0:0, 2:2:0:0:0, 2:1:0:0:0,  , 0:0:0:0:0, 0:0:0:0:0, 0:0:0:0:0, 1:1:0:0:0, 1:1:0:0:0, 1:1:0:0:0, 1:1:0:0:1, 2:2:0:0:0, 0:0:0:0:0, 2:2:0:0:0, 0:0:0:0:0, 0:0:0:0:0, 0:0:0:0:0, 50:45:0:0:7
C dorian (0), 5:5:0:0:1, 0:0:0:0:0, 0:0:0:0:0, 2:2:0:0:0, 1:1:0:0:0, 3:3:0:0:0, 5:4:0:0:2, 0:0:0:0:0, 1:1:0:0:0, 1:1:0:0:1, 0:0:0:0:0, 0:0:0:0:0, 0:0:0:0:0, 0:0:0:0:0, 0:0:0:0:0, 2:1:0:0:0, 2:2:0:0:0, 1:1:0:0:0,  , 3:2:0:0:0, 1:1:0:0:0, 2:2:0:0:0, 4:3:0:0:1, 0:0:0:0:0, 1:1:0:0:0, 1:1:0:0:0, 0:0:0:0:0, 0:0:0:0:0, 1:1:0:0:0, 0:0:0:0:0, 1:1:0:0:0, 1:1:0:0:1,  , 0:0:0:0:0, 2:2:0:0:0, 2:1:0:0:0,  , 0:0:0:0:0, 0:0:0:0:0, 0:0:0:0:0, 1:1:0:0:0, 1:1:0:0:0, 1:1:0:0:0, 1:1:0:0:1, 2:2:0:0:0, 0:0:0:0:0, 2:2:0:0:0, 0:0:0:0:0, 0:0:0:0:0, 0:0:0:0:0, 50:45:0:0:7
C phrygian (0), 5:5:0:0:1, 0:0:0:0:0, 0:0:0:0:0, 2:2:0:0:0, 1:1:0:0:0, 3:3:0:0:0, 5:4:0:0:2, 0:0:0:0:0, 1:1:0:0:0, 1:1:0:0:1, 0:0:0:0:0, 0:0:0:0:0, 0:0:0:0:0, 0:0:0:0:0, 0:0:0:0:0, 2:1:0:0:0, 2:2:0:0:0, 1:1:0:0:0,  , 3:2:0:0:0, 1:1:0:0:0, 2:2:0:0:0, 4:3:0:0:1, 0:0:0:0:0, 1:1:0:0:0, 1:1:0:0:0, 0:0:0:0:0, 0:0:0:0:0, 1:1:0:0:0, 0:0:0:0:0, 1:1:0:0:0, 1:1:0:0:1,  , 0:0:0:0:0, 2:2:0:0:0, 2:1:0:0:0,  , 0:0:0:0:0, 0:0:0:0:0, 0:0:0:0:0, 1:1:0:0:0, 1:1:0:0:0, 1:1:0:0:0, 1:1:0:0:1, 2:2:0:0:0, 0:0:0:0:0, 2:2:0:0:0, 0:0:0:0:0, 0:0:0:0:0, 0:0:0:0:0, 50:45:0:0:7
C lydian (0), 5:5:0:0:1, 0:0:0:0:0, 0:0:0:0:0, 2:2:0:0:0, 1:1:0:0:0, 3:3:0:0:0, 5:4:0:0:2, 0:0:0:0:0, 1:1:0:0:0, 1:1:0:0:1, 0:0:0:0:0, 0:0:0:0:0, 0:0:0:0:0, 0:0:0:0:0, 0:0:0:0:0, 2:1:0:0:0, 2:2:0:0:0, 1:1:0:0:0,  , 3:2:0:0:0, 1:1:0:0:0, 2:2:0:0:0, 4:3:0:0:1, 0:0:0:0:0, 1:1:0:0:0, 1:1:0:0:0, 0:0:0:0:0, 0:0:0:0:0, 1:1:0:0:0, 0:0:0:0:0, 1:1:0:0:0, 1:1:0:0:1,  , 0:0:0:0:0, 2:2:0:0:0, 2:1:0:0:0,  , 0:0:0:0:0, 0:0:0:0:0, 0:0:0:0:0, 1:1:0:0:0, 1:1:0:0:0, 1:1:0:0:0, 1:1:0:0:1, 2:2:0:0:0, 0:0:0:0:0, 2:2:0:0:0, 0:0:0:0:0, 0:0:0:0:0, 0:0:0:0:0, 50:45:0:0:7
C mixolydian (0), 5:5:0:0:1, 0:0:0:0:0, 0:0:0:0:0, 2:2:0:0:0, 1:1:0:0:0, 3:3:0:0:0, 5:4:0:0:2, 0:0:0:0:0, 1:1:0:0:0, 1:1:0:0:1, 0:0:0:0:0, 0:0:0:0:0, 0:0:0:0:0, 0:0:0:0:0, 0:0:0:0:0, 2:1:0:0:0, 2:2:0:0:0, 1:1:0:0:0,  , 3:2:0:0:0, 1:1:0:0:0, 2:2:0:0:0, 4:3:0:0:1, 0:0:0:0:0, 1:1:0:0:0, 1:1:0:0:0, 0:0:0:0:0, 0:0:0:0:0, 1:1:0:0:0, 0:0:0:0:0, 1:1:0:0:0, 1:1:0:0:1,  , 0:0:0:0:0, 2:2:0:0:0, 2:1:0:0:0,  , 0:0:0:0:0, 0:0:0:0:0, 0:0:0:0:0, 1:1:0:0:0, 1:1:0:0:0, 1:1:0:0:0, 1:1:0:0:1, 2:2:0:0:0, 0:0:0:0:0, 2:2:0:0:0, 0:0:0:0:0, 0:0:0:0:0, 0:0:0:0:0, 50:45:0:0:7
C aeolian (0), 5:5:0:0:1, 0:0:0:0:0, 0:0:0:0:0, 2:2:0:0:0, 1:1:0:0:0, 3:3:0:0:0, 5:4:0:0:2, 0:0:0:0:0, 1:1:0:0:0, 1:1:0:0:1, 0:0:0:0:0, 0:0:0:0:0, 0:0:0:0:0, 0:0:0:0:0, 0:0:0:0:0, 2:1:0:0:0, 2:2:0:0:0, 1:1:0:0:0,  , 3:2:0:0:0, 1:1:0:0:0, 2:2:0:0:0, 4:3:0:0:1, 0:0:0:0:0, 1:1:0:0:0, 1:1:0:0:0, 0:0:0:0:0, 0:0:0:0:0, 1:1:0:0:0, 0:0:0:0:0, 1:1:0:0:0, 1:1:0:0:1,  , 0:0:0:0:0, 2:2:0:0:0, 2:1:0:0:0,  , 0:0:0:0:0, 0:0:0:0:0, 0:0:0:0:0, 1:1:0:0:0, 1:1:0:0:0, 1:1:0:0:0, 1:1:0:0:1, 2:2:0:0:0, 0:0:0:0:0, 2:2:0:0:0, 0:0:0:0:0, 0:0:0:0:0, 0:0:0:0:0, 50:45:0:0:7
C locrian (0), 5:5:0:0:1, 0:0:0:0:0, 0:0:0:0:0, 2:2:0:0:0, 1:1:0:0:0, 3:3:0:0:0, 5:4:0:0:2, 0:0:0:0:0, 1:1:0:0:0, 1:1:0:0:1, 0:0:0:0:0, 0:0:0:0:0, 0:0:0:0:0, 0:0:0:0:0, 0:0:0:0:0, 2:1:0:0:0, 2:2:0:0:0, 1:1:0:0:0,  , 3:2:0:0:0, 1:1:0:0:0, 2:2:0:0:0, 4:3:0:0:1, 0:0:0:0:0, 1:1:0:0:0, 1:1:0:0:0, 0:0:0:0:0, 0:0:0:0:0, 1:1:0:0:0, 0:0:0:0:0, 1:1:0:0:0, 1:1:0:0:1,  , 0:0:0:0:0, 2:2:0:0:0, 2:1:0:0:0,  , 0:0:0:0:0, 0:0:0:0:0, 0:0:0:0:0, 1:1:0:0:0, 1:1:0:0:0, 1:1:0:0:0, 1:1:0:0:1, 2:2:0:0:0, 0:0:0:0:0, 2:2:0:0:0, 0:0:0:0:0, 0:0:0:0:0, 0:0:0:0:0, 50:45:0:0:7
F major (1b), 5:1:0:0:1, 0:0:0:0:0, 0:0:0:0:0, 1:0:0:0:0, 0:0:0:0:0, 2:0:0:0:0, 4:1:0:0:1, 0:0:0:0:0, 0:0:0:0:0, 1:1:0:0:1, 0:0:0:0:0, 0:0:0:0:0, 0:0:0:0:0, 0:0:0:0:0, 0:0:0:0:0, 2:0:0:0:0, 1:0:0:0:0, 1:0:0:0:0,  , 4:0:0:0:0, 1:0:0:0:0, 3:0:0:0:0, 4:0:0:0:0, 0:0:0:0:0, 1:0:0:0:0, 0:0:0:0:0, 0:0:0:0:0, 0:0:0:0:0, 0:0:0:0:0, 0:0:0:0:0, 2:0:0:0:0, 2:1:0:0:1,  , 0:0:0:0:0, 3:0:0:0:0, 3:0:0:0:0,  , 1:0:0:0:0, 0:0:0:0:0, 0:0:0:0:0, 0:0:0:0:0, 0:0:0:0:0, 1:0:0:0:0, 1:0:0:0:0, 1:0:0:0:0, 0:0:0:0:0, 3:0:0:0:0, 0:0:0:0:0, 1:0:0:0:0, 0:0:0:0:0, 48:4:0:0:4
G major (1#), 4:1:0:0:2, 1:0:0:0:0, 0:0:0:0:0, 2:1:0:0:0, 1:1:0:0:0, 2:0:0:0:2, 5:0:1:0:4, 1:0:0:0:0, 1:1:0:0:0, 1:0:0:0:1, 0:0:0:0:0, 1:0:0:0:0, 1:0:0:0:0, 1:0:0:0:0, 0:0:0:0:0, 2:0:1:0:1, 2:1:0:0:1, 2:0:0:0:1,  , 3:0:0:0:1, 1:0:0:0:0, 3:2:0:0:1, 5:1:0:0:2, 0:0:0:0:0, 1:0:1:0:1, 2:1:0:0:0, 1:0:0:0:0, 0:0:0:0:0, 1:0:0:0:1, 1:0:0:0:0, 1:1:0:0:0, 1:0:0:0:0,  , 1:0:0:0:0, 2:0:1:0:2, 2:0:0:0:1,  , 1:0:0:0:0, 1:0:0:0:0, 1:0:0:0:0, 2:0:0:0:1, 2:1:0:0:0, 1:0:0:0:1, 1:0:0:0:0, 2:2:0:0:1, 1:0:0:0:0, 2:0:1:0:2, 0:0:0:0:0, 0:0:0:0:0, 0:0:0:0:0, 66:13:5:0:26
D minor (1b), 5:1:0:0:1, 0:0:0:0:0, 0:0:0:0:0, 1:0:0:0:0, 0:0:0:0:0, 2:0:0:0:0, 4:1:0:0:1, 0:0:0:0:0, 0:0:0:0:0, 1:1:0:0:1, 0:0:0:0:0, 0:0:0:0:0, 0:0:0:0:0, 0:0:0:0:0, 0:0:0:0:0, 2:0:0:0:0, 1:0:0:0:0, 1:0:0:0:0,  , 4:0:0:0:0, 1:0:0:0:0, 3:0:0:0:0, 4:0:0:0:0, 0:0:0:0:0, 1:0:0:0:0, 0:0:0:0:0, 0:0:0:0:0, 0:0:0:0:0, 0:0:0:0:0, 0:0:0:0:0, 2:0:0:0:0, 2:1:0:0:1,  , 0:0:0:0:0, 3:0:0:0:0, 3:0:0:0:0,  , 1:0:0:0:0, 0:0:0:0:0, 0:0:0:0:0, 0:0:0:0:0, 0:0:0:0:0, 1:0:0:0:0, 1:0:0:0:0, 1:0:0:0:0, 0:0:0:0:0, 3:0:0:0:0, 0:0:0:0:0, 1:0:0:0:0, 0:0:0:0:0, 48:4:0:0:4
E minor (1#), 4:1:0:0:2, 1:0:0:0:0, 0:0:0:0:0, 2:1:0:0:0, 1:1:0:0:0, 2:0:0:0:2, 5:0:1:0:4, 1:0:0:0:0, 1:1:0:0:0, 1:0:0:0:1, 0:0:0:0:0, 1:0:0:0:0, 1:0:0:0:0, 1:0:0:0:0, 0:0:0:0:0, 2:0:1:0:1, 2:1:0:0:1, 2:0:0:0:1,  , 3:0:0:0:1, 1:0:0:0:0, 3:2:0:0:1, 5:1:0:0:2, 0:0:0:0:0, 1:0:1:0:1, 2:1:0:0:0, 1:0:0:0:0, 0:0:0:0:0, 1:0:0:0:1, 1:0:0:0:0, 1:1:0:0:0, 1:0:0:0:0,  , 1:0:0:0:0, 2:0:1:0:2, 2:0:0:0:1,  , 1:0:0:0:0, 1:0:0:0:0, 1:0:0:0:0, 2:0:0:0:1, 2:1:0:0:0, 1:0:0:0:1, 1:0:0:0:0, 2:2:0:0:1, 1:0:0:0:0, 2:0:1:0:2, 0:0:0:0:0, 0:0:0:0:0, 0:0:0:0:0, 66:13:5:0:26
D minor mel (1b), 5:1:0:0:1, 0:0:0:0:0, 0:0:0:0:0, 1:0:0:0:0, 0:0:0:0:0, 2:0:0:0:0, 4:1:0:0:1, 0:0:0:0:0, 0:0:0:0:0, 1:1:0:0:1, 0:0:0:0:0, 0:0:0:0:0, 0:0:0:0:0, 0:0:0:0:0, 0:0:0:0:0, 2:0:0:0:0, 1:0:0:0:0, 1:0:0:0:0,  , 4:0:0:0:0, 1:0:0:0:0, 3:0:0:0:0, 4:0:0:0:0, 0:0:0:0:0, 1:0:0:0:0, 0:0:0:0:0, 0:0:0:0:0, 0:0:0:0:0, 0:0:0:0:0, 0:0:0:0:0, 2:0:0:0:0, 2:1:0:0:1,  , 0:0:0:0:0, 3:0:0:0:0, 3:0:0:0:0,  , 1:0:0:0:0, 0:0:0:0:0, 0:0:0:0:0, 0:0:0:0:0, 0:0:0:0:0, 1:0:0:0:0, 1:0:0:0:0, 1:0:0:0:0, 0:0:0:0:0, 3:0:0:0:0, 0:0:0:0:0, 1:0:0:0:0, 0:0:0:0:0, 48:4:0:0:4
E minor mel (1#), 4:1:0:0:2, 1:0:0:0:0, 0:0:0:0:0, 2:1:0:0:0, 1:1:0:0:0, 2:0:0:0:2, 5:0:1:0:4, 1:0:0:0:0, 1:1:0:0:0, 1:0:0:0:1, 0:0:0:0:0, 1:0:0:0:0, 1:0:0:0:0, 1:0:0:0:0, 0:0:0:0:0, 2:0:1:0:1, 2:1:0:0:1, 2:0:0:0:1,  , 3:0:0:0:1, 1:0:0:0:0, 3:2:0:0:1, 5:1:0:0:2, 0:0:0:0:0, 1:0:1:0:1, 2:1:0:0:0, 1:0:0:0:0, 0:0:0:0:0, 1:0:0:0:1, 1:0:0:0:0, 1:1:0:0:0, 1:0:0:0:0,  , 1:0:0:0:0, 2:0:1:0:2, 2:0:0:0:1,  , 1:0:0:0:0, 1:0:0:0:0, 1:0:0:0:0, 2:0:0:0:1, 2:1:0:0:0, 1:0:0:0:1, 1:0:0:0:0, 2:2:0:0:1, 1:0:0:0:0, 2:0:1:0:2, 0:0:0:0:0, 0:0:0:0:0, 0:0:0:0:0, 66:13:5:0:26
F major blues (1b), 5:1:0:0:1, 0:0:0:0:0, 0:0:0:0:0, 1:0:0:0:0, 0:0:0:0:0, 2:0:0:0:0, 4:1:0:0:1, 0:0:0:0:0, 0:0:0:0:0, 1:1:0:0:1, 0:0:0:0:0, 0:0:0:0:0, 0:0:0:0:0, 0:0:0:0:0, 0:0:0:0:0, 2:0:0:0:0, 1:0:0:0:0, 1:0:0:0:0,  , 4:0:0:0:0, 1:0:0:0:0, 3:0:0:0:0, 4:0:0:0:0, 0:0:0:0:0, 1:0:0:0:0, 0:0:0:0:0, 0:0:0:0:0, 0:0:0:0:0, 0:0:0:0:0, 0:0:0:0:0, 2:0:0:0:0, 2:1:0:0:1,  , 0:0:0:0:0, 3:0:0:0:0, 3:0:0:0:0,  , 1:0:0:0:0, 0:0:0:0:0, 0:0:0:0:0, 0:0:0:0:0, 0:0:0:0:0, 1:0:0:0:0, 1:0:0:0:0, 1:0:0:0:0, 0:0:0:0:0, 3:0:0:0:0, 0:0:0:0:0, 1:0:0:0:0, 0:0:0:0:0, 48:4:0:0:4
G major blues (1#), 4:1:0:0:2, 1:0:0:0:0, 0:0:0:0:0, 2:1:0:0:0, 1:1:0:0:0, 2:0:0:0:2, 5:0:1:0:4, 1:0:0:0:0, 1:1:0:0:0, 1:0:0:0:1, 0:0:0:0:0, 1:0:0:0:0, 1:0:0:0:0, 1:0:0:0:0, 0:0:0:0:0, 2:0:1:0:1, 2:1:0:0:1, 2:0:0:0:1,  , 3:0:0:0:1, 1:0:0:0:0, 3:2:0:0:1, 5:1:0:0:2, 0:0:0:0:0, 1:0:1:0:1, 2:1:0:0:0, 1:0:0:0:0, 0:0:0:0:0, 1:0:0:0:1, 1:0:0:0:0, 1:1:0:0:0, 1:0:0:0:0,  , 1:0:0:0:0, 2:0:1:0:2, 2:0:0:0:1,  , 1:0:0:0:0, 1:0:0:0:0, 1:0:0:0:0, 2:0:0:0:1, 2:1:0:0:0, 1:0:0:0:1, 1:0:0:0:0, 2:2:0:0:1, 1:0:0:0:0, 2:0:1:0:2, 0:0:0:0:0, 0:0:0:0:0, 0:0:0:0:0, 66:13:5:0:26
D minor blues (1b), 5:1:0:0:1, 0:0:0:0:0, 0:0:0:0:0, 1:0:0:0:0, 0:0:0:0:0, 2:0:0:0:0, 4:1:0:0:1, 0:0:0:0:0, 0:0:0:0:0, 1:1:0:0:1, 0:0:0:0:0, 0:0:0:0:0, 0:0:0:0:0, 0:0:0:0:0, 0:0:0:0:0, 2:0:0:0:0, 1:0:0:0:0, 1:0:0:0:0,  , 4:0:0:0:0, 1:0:0:0:0, 3:0:0:0:0, 4:0:0:0:0, 0:0:0:0:0, 1:0:0:0:0, 0:0:0:0:0, 0:0:0:0:0, 0:0:0:0:0, 0:0:0:0:0, 0:0:0:0:0, 2:0:0:0:0, 2:1:0:0:1,  , 0:0:0:0:0, 3:0:0:0:0, 3:0:0:0:0,  , 1:0:0:0:0, 0:0:0:0:0, 0:0:0:0:0, 0:0:0:0:0, 0:0:0:0:0, 1:0:0:0:0, 1:0:0:0:0, 1:0:0:0:0, 0:0:0:0:0, 3:0:0:0:0, 0:0:0:0:0, 1:0:0:0:0, 0:0:0:0:0, 48:4:0:0:4
E minor blues (1#), 4:1:0:0:2, 1:0:0:0:0, 0:0:0:0:0, 2:1:0:0:0, 1:1:0:0:0, 2:0:0:0:2, 5:0:1:0:4, 1:0:0:0:0, 1:1:0:0:0, 1:0:0:0:1, 0:0:0:0:0, 1:0:0:0:0, 1:0:0:0:0, 1:0:0:0:0, 0:0:0:0:0, 2:0:1:0:1, 2:1:0:0:1, 2:0:0:0:1,  , 3:0:0:0:1, 1:0:0:0:0, 3:2:0:0:1, 5:1:0:0:2, 0:0:0:0:0, 1:0:1:0:1, 2:1:0:0:0, 1:0:0:0:0, 0:0:0:0:0, 1:0:0:0:1, 1:0:0:0:0, 1:1:0:0:0, 1:0:0:0:0,  , 1:0:0:0:0, 2:0:1:0:2, 2:0:0:0:1,  , 1:0:0:0:0, 1:0:0:0:0, 1:0:0:0:0, 2:0:0:0:1, 2:1:0:0:0, 1:0:0:0:1, 1:0:0:0:0, 2:2:0:0:1, 1:0:0:0:0, 2:0:1:0:2, 0:0:0:0:0, 0:0:0:0:0, 0:0:0:0:0, 66:13:5:0:26
F dorian (1b), 5:1:0:0:1, 0:0:0:0:0, 0:0:0:0:0, 1:0:0:0:0, 0:0:0:0:0, 2:0:0:0:0, 4:1:0:0:1, 0:0:0:0:0, 0:0:0:0:0, 1:1:0:0:1, 0:0:0:0:0, 0:0:0:0:0, 0:0:0:0:0, 0:0:0:0:0, 0:0:0:0:0, 2:0:0:0:0, 1:0:0:0:0, 1:0:0:0:0,  , 4:0:0:0:0, 1:0:0:0:0, 3:0:0:0:0, 4:0:0:0:0, 0:0:0:0:0, 1:0:0:0:0, 0:0:0:0:0, 0:0:0:0:0, 0:0:0:0:0, 0:0:0:0:0, 0:0:0:0:0, 2:0:0:0:0, 2:1:0:0:1,  , 0:0:0:0:0, 3:0:0:0:0, 3:0:0:0:0,  , 1:0:0:0:0, 0:0:0:0:0, 0:0:0:0:0, 0:0:0:0:0, 0:0:0:0:0, 1:0:0:0:0, 1:0:0:0:0, 1:0:0:0:0, 0:0:0:0:0, 3:0:0:0:0, 0:0:0:0:0, 1:0:0:0:0, 0:0:0:0:0, 48:4:0:0:4
G dorian (1#), 4:1:0:0:2, 1:0:0:0:0, 0:0:0:0:0, 2:1:0:0:0, 1:1:0:0:0, 2:0:0:0:2, 5:0:1:0:4, 1:0:0:0:0, 1:1:0:0:0, 1:0:0:0:1, 0:0:0:0:0, 1:0:0:0:0, 1:0:0:0:0, 1:0:0:0:0, 0:0:0:0:0, 2:0:1:0:1, 2:1:0:0:1, 2:0:0:0:1,  , 3:0:0:0:1, 1:0:0:0:0, 3:2:0:0:1, 5:1:0:0:2, 0:0:0:0:0, 1:0:1:0:1, 2:1:0:0:0, 1:0:0:0:0, 0:0:0:0:0, 1:0:0:0:1, 1:0:0:0:0, 1:1:0:0:0, 1:0:0:0:0,  , 1:0:0:0:0, 2:0:1:0:2, 2:0:0:0:1,  , 1:0:0:0:0, 1:0:0:0:0, 1:0:0:0:0, 2:0:0:0:1, 2:1:0:0:0, 1:0:0:0:1, 1:0:0:0:0, 2:2:0:0:1, 1:0:0:0:0, 2:0:1:0:2, 0:0:0:0:0, 0:0:0:0:0, 0:0:0:0:0, 66:13:5:0:26
F phrygian (1b), 5:1:0:0:1, 0:0:0:0:0, 0:0:0:0:0, 1:0:0:0:0, 0:0:0:0:0, 2:0:0:0:0, 4:1:0:0:1, 0:0:0:0:0, 0:0:0:0:0, 1:1:0:0:1, 0:0:0:0:0, 0:0:0:0:0, 0:0:0:0:0, 0:0:0:0:0, 0:0:0:0:0, 2:0:0:0:0, 1:0:0:0:0, 1:0:0:0:0,  , 4:0:0:0:0, 1:0:0:0:0, 3:0:0:0:0, 4:0:0:0:0, 0:0:0:0:0, 1:0:0:0:0, 0:0:0:0:0, 0:0:0:0:0, 0:0:0:0:0, 0:0:0:0:0, 0:0:0:0:0, 2:0:0:0:0, 2:1:0:0:1,  , 0:0:0:0:0, 3:0:0:0:0, 3:0:0:0:0,  , 1:0:0:0:0, 0:0:0:0:0, 0:0:0:0:0, 0:0:0:0:0, 0:0:0:0:0, 1:0:0:0:0, 1:0:0:0:0, 1:0:0:0:0, 0:0:0:0:0, 3:0:0:0:0, 0:0:0:0:0, 1:0:0:0:0, 0:0:0:0:0, 48:4:0:0:4
G phrygian (1#), 4:1:0:0:2, 1:0:0:0:0, 0:0:0:0:0, 2:1:0:0:0, 1:1:0:0:0, 2:0:0:0:2, 5:0:1:0:4, 1:0:0:0:0, 1:1:0:0:0, 1:0:0:0:1, 0:0:0:0:0, 1:0:0:0:0, 1:0:0:0:0, 1:0:0:0:0, 0:0:0:0:0, 2:0:1:0:1, 2:1:0:0:1, 2:0:0:0:1,  , 3:0:0:0:1, 1:0:0:0:0, 3:2:0:0:1, 5:1:0:0:2, 0:0:0:0:0, 1:0:1:0:1, 2:1:0:0:0, 1:0:0:0:0, 0:0:0:0:0, 1:0:0:0:1, 1:0:0:0:0, 1:1:0:0:0, 1:0:0:0:0,  , 1:0:0:0:0, 2:0:1:0:2, 2:0:0:0:1,  , 1:0:0:0:0, 1:0:0:0:0, 1:0:0:0:0, 2:0:0:0:1, 2:1:0:0:0, 1:0:0:0:1, 1:0:0:0:0, 2:2:0:0:1, 1:0:0:0:0, 2:0:1:0:2, 0:0:0:0:0, 0:0:0:0:0, 0:0:0:0:0, 66:13:5:0:26
F lydian (1b), 5:1:0:0:1, 0:0:0:0:0, 0:0:0:0:0, 1:0:0:0:0, 0:0:0:0:0, 2:0:0:0:0, 4:1:0:0:1, 0:0:0:0:0, 0:0:0:0:0, 1:1:0:0:1, 0:0:0:0:0, 0:0:0:0:0, 0:0:0:0:0, 0:0:0:0:0, 0:0:0:0:0, 2:0:0:0:0, 1:0:0:0:0, 1:0:0:0:0,  , 4:0:0:0:0, 1:0:0:0:0, 3:0:0:0:0, 4:0:0:0:0, 0:0:0:0:0, 1:0:0:0:0, 0:0:0:0:0, 0:0:0:0:0, 0:0:0:0:0, 0:0:0:0:0, 0:0:0:0:0, 2:0:0:0:0, 2:1:0:0:1,  , 0:0:0:0:0, 3:0:0:0:0, 3:0:0:0:0,  , 1:0:0:0:0, 0:0:0:0:0, 0:0:0:0:0, 0:0:0:0:0, 0:0:0:0:0, 1:0:0:0:0, 1:0:0:0:0, 1:0:0:0:0, 0:0:0:0:0, 3:0:0:0:0, 0:0:0:0:0, 1:0:0:0:0, 0:0:0:0:0, 48:4:0:0:4
G lydian (1#), 4:1:0:0:2, 1:0:0:0:0, 0:0:0:0:0, 2:1:0:0:0, 1:1:0:0:0, 2:0:0:0:2, 5:0:1:0:4, 1:0:0:0:0, 1:1:0:0:0, 1:0:0:0:1, 0:0:0:0:0, 1:0:0:0:0, 1:0:0:0:0, 1:0:0:0:0, 0:0:0:0:0, 2:0:1:0:1, 2:1:0:0:1, 2:0:0:0:1,  , 3:0:0:0:1, 1:0:0:0:0, 3:2:0:0:1, 5:1:0:0:2, 0:0:0:0:0, 1:0:1:0:1, 2:1:0:0:0, 1:0:0:0:0, 0:0:0:0:0, 1:0:0:0:1, 1:0:0:0:0, 1:1:0:0:0, 1:0:0:0:0,  , 1:0:0:0:0, 2:0:1:0:2, 2:0:0:0:1,  , 1:0:0:0:0, 1:0:0:0:0, 1:0:0:0:0, 2:0:0:0:1, 2:1:0:0:0, 1:0:0:0:1, 1:0:0:0:0, 2:2:0:0:1, 1:0:0:0:0, 2:0:1:0:2, 0:0:0:0:0, 0:0:0:0:0, 0:0:0:0:0, 66:13:5:0:26
F mixolydian (1b), 5:1:0:0:1, 0:0:0:0:0, 0:0:0:0:0, 1:0:0:0:0, 0:0:0:0:0, 2:0:0:0:0, 4:1:0:0:1, 0:0:0:0:0, 0:0:0:0:0, 1:1:0:0:1, 0:0:0:0:0, 0:0:0:0:0, 0:0:0:0:0, 0:0:0:0:0, 0:0:0:0:0, 2:0:0:0:0, 1:0:0:0:0, 1:0:0:0:0,  , 4:0:0:0:0, 1:0:0:0:0, 3:0:0:0:0, 4:0:0:0:0, 0:0:0:0:0, 1:0:0:0:0, 0:0:0:0:0, 0:0:0:0:0, 0:0:0:0:0, 0:0:0:0:0, 0:0:0:0:0, 2:0:0:0:0, 2:1:0:0:1,  , 0:0:0:0:0, 3:0:0:0:0, 3:0:0:0:0,  , 1:0:0:0:0, 0:0:0:0:0, 0:0:0:0:0, 0:0:0:0:0, 0:0:0:0:0, 1:0:0:0:0, 1:0:0:0:0, 1:0:0:0:0, 0:0:0:0:0, 3:0:0:0:0, 0:0:0:0:0, 1:0:0:0:0, 0:0:0:0:0, 48:4:0:0:4
G mixolydian (1#), 4:1:0:0:2, 1:0:0:0:0, 0:0:0:0:0, 2:1:0:0:0, 1:1:0:0:0, 2:0:0:0:2, 5:0:1:0:4, 1:0:0:0:0, 1:1:0:0:0, 1:0:0:0:1, 0:0:0:0:0, 1:0:0:0:0, 1:0:0:0:0, 1:0:0:0:0, 0:0:0:0:0, 2:0:1:0:1, 2:1:0:0:1, 2:0:0:0:1,  , 3:0:0:0:1, 1:0:0:0:0, 3:2:0:0:1, 5:1:0:0:2, 0:0:0:0:0, 1:0:1:0:1, 2:1:0:0:0, 1:0:0:0:0, 0:0:0:0:0, 1:0:0:0:1, 1:0:0:0:0, 1:1:0:0:0, 1:0:0:0:0,  , 1:0:0:0:0, 2:0:1:0:2, 2:0:0:0:1,  , 1:0:0:0:0, 1:0:0:0:0, 1:0:0:0:0, 2:0:0:0:1, 2:1:0:0:0, 1:0:0:0:1, 1:0:0:0:0, 2:2:0:0:1, 1:0:0:0:0, 2:0:1:0:2, 0:0:0:0:0, 0:0:0:0:0, 0:0:0:0:0, 66:13:5:0:26
F aeolian (1b), 5:1:0:0:1, 0:0:0:0:0, 0:0:0:0:0, 1:0:0:0:0, 0:0:0:0:0, 2:0:0:0:0, 4:1:0:0:1, 0:0:0:0:0, 0:0:0:0:0, 1:1:0:0:1, 0:0:0:0:0, 0:0:0:0:0, 0:0:0:0:0, 0:0:0:0:0, 0:0:0:0:0, 2:0:0:0:0, 1:0:0:0:0, 1:0:0:0:0,  , 4:0:0:0:0, 1:0:0:0:0, 3:0:0:0:0, 4:0:0:0:0, 0:0:0:0:0, 1:0:0:0:0, 0:0:0:0:0, 0:0:0:0:0, 0:0:0:0:0, 0:0:0:0:0, 0:0:0:0:0, 2:0:0:0:0, 2:1:0:0:1,  , 0:0:0:0:0, 3:0:0:0:0, 3:0:0:0:0,  , 1:0:0:0:0, 0:0:0:0:0, 0:0:0:0:0, 0:0:0:0:0, 0:0:0:0:0, 1:0:0:0:0, 1:0:0:0:0, 1:0:0:0:0, 0:0:0:0:0, 3:0:0:0:0, 0:0:0:0:0, 1:0:0:0:0, 0:0:0:0:0, 48:4:0:0:4
G aeolian (1#), 4:1:0:0:2, 1:0:0:0:0, 0:0:0:0:0, 2:1:0:0:0, 1:1:0:0:0, 2:0:0:0:2, 5:0:1:0:4, 1:0:0:0:0, 1:1:0:0:0, 1:0:0:0:1, 0:0:0:0:0, 1:0:0:0:0, 1:0:0:0:0, 1:0:0:0:0, 0:0:0:0:0, 2:0:1:0:1, 2:1:0:0:1, 2:0:0:0:1,  , 3:0:0:0:1, 1:0:0:0:0, 3:2:0:0:1, 5:1:0:0:2, 0:0:0:0:0, 1:0:1:0:1, 2:1:0:0:0, 1:0:0:0:0, 0:0:0:0:0, 1:0:0:0:1, 1:0:0:0:0, 1:1:0:0:0, 1:0:0:0:0,  , 1:0:0:0:0, 2:0:1:0:2, 2:0:0:0:1,  , 1:0:0:0:0, 1:0:0:0:0, 1:0:0:0:0, 2:0:0:0:1, 2:1:0:0:0, 1:0:0:0:1, 1:0:0:0:0, 2:2:0:0:1, 1:0:0:0:0, 2:0:1:0:2, 0:0:0:0:0, 0:0:0:0:0, 0:0:0:0:0, 66:13:5:0:26
F locrian (1b), 5:1:0:0:1, 0:0:0:0:0, 0:0:0:0:0, 1:0:0:0:0, 0:0:0:0:0, 2:0:0:0:0, 4:1:0:0:1, 0:0:0:0:0, 0:0:0:0:0, 1:1:0:0:1, 0:0:0:0:0, 0:0:0:0:0, 0:0:0:0:0, 0:0:0:0:0, 0:0:0:0:0, 2:0:0:0:0, 1:0:0:0:0, 1:0:0:0:0,  , 4:0:0:0:0, 1:0:0:0:0, 3:0:0:0:0, 4:0:0:0:0, 0:0:0:0:0, 1:0:0:0:0, 0:0:0:0:0, 0:0:0:0:0, 0:0:0:0:0, 0:0:0:0:0, 0:0:0:0:0, 2:0:0:0:0, 2:1:0:0:1,  , 0:0:0:0:0, 3:0:0:0:0, 3:0:0:0:0,  , 1:0:0:0:0, 0:0:0:0:0, 0:0:0:0:0, 0:0:0:0:0, 0:0:0:0:0, 1:0:0:0:0, 1:0:0:0:0, 1:0:0:0:0, 0:0:0:0:0, 3:0:0:0:0, 0:0:0:0:0, 1:0:0:0:0, 0:0:0:0:0, 48:4:0:0:4
G locrian (1#), 4:1:0:0:2, 1:0:0:0:0, 0:0:0:0:0, 2:1:0:0:0, 1:1:0:0:0, 2:0:0:0:2, 5:0:1:0:4, 1:0:0:0:0, 1:1:0:0:0, 1:0:0:0:1, 0:0:0:0:0, 1:0:0:0:0, 1:0:0:0:0, 1:0:0:0:0, 0:0:0:0:0, 2:0:1:0:1, 2:1:0:0:1, 2:0:0:0:1,  , 3:0:0:0:1, 1:0:0:0:0, 3:2:0:0:1, 5:1:0:0:2, 0:0:0:0:0, 1:0:1:0:1, 2:1:0:0:0, 1:0:0:0:0, 0:0:0:0:0, 1:0:0:0:1, 1:0:0:0:0, 1:1:0:0:0, 1:0:0:0:0,  , 1:0:0:0:0, 2:0:1:0:2, 2:0:0:0:1,  , 1:0:0:0:0, 1:0:0:0:0, 1:0:0:0:0, 2:0:0:0:1, 2:1:0:0:0, 1:0:0:0:1, 1:0:0:0:0, 2:2:0:0:1, 1:0:0:0:0, 2:0:1:0:2, 0:0:0:0:0, 0:0:0:0:0, 0:0:0:0:0, 66:13:5:0:26
Bb major (2b), 4:1:0:0:2, 1:0:0:0:0, 1:0:0:0:0, 1:0:0:0:0, 0:0:0:0:0, 1:0:0:0:0, 3:1:0:0:1, 1:0:0:0:0, 1:0:0:0:0, 2:1:0:0:1, 0:0:0:0:0, 0:0:0:0:0, 1:0:0:0:0, 1:0:0:0:0, 0:0:0:0:0, 3:0:0:0:0, 2:0:0:0:0, 0:0:0:0:0,  , 3:0:0:0:1, 1:0:0:0:0, 3:0:1:0:2, 3:0:0:0:1, 1:0:0:0:0, 2:0:0:0:0, 0:0:0:0:0, 1:0:0:0:0, 0:0:0:0:0, 0:0:0:0:0, 0:0:0:0:0, 1:0:0:0:1, 2:1:0:0:2,  , 1:0:0:0:0, 3:0:0:0:1, 2:0:0:0:1,  , 2:0:0:0:1, 1:0:0:0:0, 1:0:0:0:0, 1:0:0:0:0, 0:0:0:0:0, 0:0:0:0:0, 2:0:0:0:0, 2:0:0:0:0, 1:0:0:0:0, 3:0:0:0:1, 0:0:0:0:0, 1:0:0:0:1, 1:0:0:0:0, 60:4:1:0:16
D major (2#), 3:1:0:0:3, 2:0:0:0:0, 1:0:0:0:0, 1:1:0:0:0, 2:1:0:0:0, 3:0:0:0:2, 5:0:1:0:3, 1:0:0:0:0, 1:1:0:0:0, 2:0:0:0:0, 1:0:0:0:0, 2:0:0:0:0, 2:0:0:0:0, 2:0:0:0:0, 1:0:0:0:0, 2:0:1:0:1, 3:1:0:0:0, 3:0:0:0:1,  , 2:0:0:0:1, 0:0:0:0:0, 3:1:0:0:0, 6:1:0:0:3, 1:0:0:0:0, 1:0:1:0:1, 3:1:0:0:0, 2:0:0:0:0, 1:0:0:0:0, 2:0:0:0:1, 2:0:0:0:0, 2:1:0:0:0, 1:0:1:0:1,  , 2:0:0:0:0, 3:0:1:0:1, 3:0:0:0:1,  , 2:0:0:0:0, 1:0:0:0:0, 2:0:0:0:0, 3:0:0:0:1, 3:1:0:0:0, 1:0:0:0:1, 1:0:0:0:0, 2:1:0:0:0, 2:0:0:0:0, 3:0:1:0:1, 0:0:0:0:0, 1:0:0:0:0, 0:0:0:0:0, 92:11:6:0:22
G minor (2b), 4:1:0:0:2, 1:0:0:0:0, 1:0:0:0:0, 1:0:0:0:0, 0:0:0:0:0, 1:0:0:0:0, 3:1:0:0:1, 1:0:0:0:0, 1:0:0:0:0, 2:1:0:0:1, 0:0:0:0:0, 0:0:0:0:0, 1:0:0:0:0, 1:0:0:0:0, 0:0:0:0:0, 3:0:0:0:0, 2:0:0:0:0, 0:0:0:0:0,  , 3:0:0:0:1, 1:0:0:0:0, 3:0:1:0:2, 3:0:0:0:1, 1:0:0:0:0, 2:0:0:0:0, 0:0:0:0:0, 1:0:0:0:0, 0:0:0:0:0, 0:0:0:0:0, 0:0:0:0:0, 1:0:0:0:1, 2:1:0:0:2,  , 1:0:0:0:0, 3:0:0:0:1, 2:0:0:0:1,  , 2:0:0:0:1, 1:0:0:0:0, 1:0:0:0:0, 1:0:0:0:0, 0:0:0:0:0, 0:0:0:0:0, 2:0:0:0:0, 2:0:0:0:0, 1:0:0:0:0, 3:0:0:0:1, 0:0:0:0:0, 1:0:0:0:1, 1:0:0:0:0, 60:4:1:0:16
B minor (2#), 3:1:0:0:3, 2:0:0:0:0, 1:0:0:0:0, 1:1:0:0:0, 2:1:0:0:0, 3:0:0:0:2, 5:0:1:0:3, 1:0:0:0:0, 1:1:0:0:0, 2:0:0:0:0, 1:0:0:0:0, 2:0:0:0:0, 2:0:0:0:0, 2:0:0:0:0, 1:0:0:0:0, 2:0:1:0:1, 3:1:0:0:0, 3:0:0:0:1,  , 2:0:0:0:1, 0:0:0:0:0, 3:1:0:0:0, 6:1:0:0:3, 1:0:0:0:0, 1:0:1:0:1, 3:1:0:0:0, 2:0:0:0:0, 1:0:0:0:0, 2:0:0:0:1, 2:0:0:0:0, 2:1:0:0:0, 1:0:1:0:1,  , 2:0:0:0:0, 3:0:1:0:1, 3:0:0:0:1,  , 2:0:0:0:0, 1:0:0:0:0, 2:0:0:0:0, 3:0:0:0:1, 3:1:0:0:0, 1:0:0:0:1, 1:0:0:0:0, 2:1:0:0:0, 2:0:0:0:0, 3:0:1:0:1, 0:0:0:0:0, 1:0:0:0:0, 0:0:0:0:0, 92:11:6:0:22
G minor mel (2b), 4:1:0:0:2, 1:0:0:0:0, 1:0:0:0:0, 1:0:0:0:0, 0:0:0:0:0, 1:0:0:0:0, 3:1:0:0:1, 1:0:0:0:0, 1:0:0:0:0, 2:1:0:0:1, 0:0:0:0:0, 0:0:0:0:0, 1:0:0:0:0, 1:0:0:0:0, 0:0:0:0:0, 3:0:0:0:0, 2:0:0:0:0, 0:0:0:0:0,  , 3:0:0:0:1, 1:0:0:0:0, 3:0:1:0:2, 3:0:0:0:1, 1:0:0:0:0, 2:0:0:0:0, 0:0:0:0:0, 1:0:0:0:0, 0:0:0:0:0, 0:0:0:0:0, 0:0:0:0:0, 1:0:0:0:1, 2:1:0:0:2,  , 1:0:0:0:0, 3:0:0:0:1, 2:0:0:0:1,  , 2:0:0:0:1, 1:0:0:0:0, 1:0:0:0:0, 1:0:0:0:0, 0:0:0:0:0, 0:0:0:0:0, 2:0:0:0:0, 2:0:0:0:0, 1:0:0:0:0, 3:0:0:0:1, 0:0:0:0:0, 1:0:0:0:1, 1:0:0:0:0, 60:4:1:0:16
B minor mel (2#), 3:1:0:0:3, 2:0:0:0:0, 1:0:0:0:0, 1:1:0:0:0, 2:1:0:0:0, 3:0:0:0:2, 5:0:1:0:3, 1:0:0:0:0, 1:1:0:0:0, 2:0:0:0:0, 1:0:0:0:0, 2:0:0:0:0, 2:0:0:0:0, 2:0:0:0:0, 1:0:0:0:0, 2:0:1:0:1, 3:1:0:0:0, 3:0:0:0:1,  , 2:0:0:0:1, 0:0:0:0:0, 3:1:0:0:0, 6:1:0:0:3, 1:0:0:0:0, 1:0:1:0:1, 3:1:0:0:0, 2:0:0:0:0, 1:0:0:0:0, 2:0:0:0:1, 2:0:0:0:0, 2:1:0:0:0, 1:0:1:0:1,  , 2:0:0:0:0, 3:0:1:0:1, 3:0:0:0:1,  , 2:0:0:0:0, 1:0:0:0:0, 2:0:0:0:0, 3:0:0:0:1, 3:1:0:0:0, 1:0:0:0:1, 1:0:0:0:0, 2:1:0:0:0, 2:0:0:0:0, 3:0:1:0:1, 0:0:0:0:0, 1:0:0:0:0, 0:0:0:0:0, 92:11:6:0:22
Bb major blues (2b), 4:1:0:0:2, 1:0:0:0:0, 1:0:0:0:0, 1:0:0:0:0, 0:0:0:0:0, 1:0:0:0:0, 3:1:0:0:1, 1:0:0:0:0, 1:0:0:0:0, 2:1:0:0:1, 0:0:0:0:0, 0:0:0:0:0, 1:0:0:0:0, 1:0:0:0:0, 0:0:0:0:0, 3:0:0:0:0, 2:0:0:0:0, 0:0:0:0:0,  , 3:0:0:0:1, 1:0:0:0:0, 3:0:1:0:2, 3:0:0:0:1, 1:0:0:0:0, 2:0:0:0:0, 0:0:0:0:0, 1:0:0:0:0, 0:0:0:0:0, 0:0:0:0:0, 0:0:0:0:0, 1:0:0:0:1, 2:1:0:0:2,  , 1:0:0:0:0, 3:0:0:0:1, 2:0:0:0:1,  , 2:0:0:0:1, 1:0:0:0:0, 1:0:0:0:0, 1:0:0:0:0, 0:0:0:0:0, 0:0:0:0:0, 2:0:0:0:0, 2:0:0:0:0, 1:0:0:0:0, 3:0:0:0:1, 0:0:0:0:0, 1:0:0:0:1, 1:0:0:0:0, 60:4:1:0:16
D major blues (2#), 3:1:0:0:3, 2:0:0:0:0, 1:0:0:0:0, 1:1:0:0:0, 2:1:0:0:0, 3:0:0:0:2, 5:0:1:0:3, 1:0:0:0:0, 1:1:0:0:0, 2:0:0:0:0, 1:0:0:0:0, 2:0:0:0:0, 2:0:0:0:0, 2:0:0:0:0, 1:0:0:0:0, 2:0:1:0:1, 3:1:0:0:0, 3:0:0:0:1,  , 2:0:0:0:1, 0:0:0:0:0, 3:1:0:0:0, 6:1:0:0:3, 1:0:0:0:0, 1:0:1:0:1, 3:1:0:0:0, 2:0:0:0:0, 1:0:0:0:0, 2:0:0:0:1, 2:0:0:0:0, 2:1:0:0:0, 1:0:1:0:1,  , 2:0:0:0:0, 3:0:1:0:1, 3:0:0:0:1,  , 2:0:0:0:0, 1:0:0:0:0, 2:0:0:0:0, 3:0:0:0:1, 3:1:0:0:0, 1:0:0:0:1, 1:0:0:0:0, 2:1:0:0:0, 2:0:0:0:0, 3:0:1:0:1, 0:0:0:0:0, 1:0:0:0:0, 0:0:0:0:0, 92:11:6:0:22
G minor blues (2b), 4:1:0:0:2, 1:0:0:0:0, 1:0:0:0:0, 1:0:0:0:0, 0:0:0:0:0, 1:0:0:0:0, 3:1:0:0:1, 1:0:0:0:0, 1:0:0:0:0, 2:1:0:0:1, 0:0:0:0:0, 0:0:0:0:0, 1:0:0:0:0, 1:0:0:0:0, 0:0:0:0:0, 3:0:0:0:0, 2:0:0:0:0, 0:0:0:0:0,  , 3:0:0:0:1, 1:0:0:0:0, 3:0:1:0:2, 3:0:0:0:1, 1:0:0:0:0, 2:0:0:0:0, 0:0:0:0:0, 1:0:0:0:0, 0:0:0:0:0, 0:0:0:0:0, 0:0:0:0:0, 1:0:0:0:1, 2:1:0:0:2,  , 1:0:0:0:0, 3:0:0:0:1, 2:0:0:0:1,  , 2:0:0:0:1, 1:0:0:0:0, 1:0:0:0:0, 1:0:0:0:0, 0:0:0:0:0, 0:0:0:0:0, 2:0:0:0:0, 2:0:0:0:0, 1:0:0:0:0, 3:0:0:0:1, 0:0:0:0:0, 1:0:0:0:1, 1:0:0:0:0, 60:4:1:0:16
B minor blues (2#), 3:1:0:0:3, 2:0:0:0:0, 1:0:0:0:0, 1:1:0:0:0, 2:1:0:0:0, 3:0:0:0:2, 5:0:1:0:3, 1:0:0:0:0, 1:1:0:0:0, 2:0:0:0:0, 1:0:0:0:0, 2:0:0:0:0, 2:0:0:0:0, 2:0:0:0:0, 1:0:0:0:0, 2:0:1:0:1, 3:1:0:0:0, 3:0:0:0:1,  , 2:0:0:0:1, 0:0:0:0:0, 3:1:0:0:0, 6:1:0:0:3, 1:0:0:0:0, 1:0:1:0:1, 3:1:0:0:0, 2:0:0:0:0, 1:0:0:0:0, 2:0:0:0:1, 2:0:0:0:0, 2:1:0:0:0, 1:0:1:0:1,  , 2:0:0:0:0, 3:0:1:0:1, 3:0:0:0:1,  , 2:0:0:0:0, 1:0:0:0:0, 2:0:0:0:0, 3:0:0:0:1, 3:1:0:0:0, 1:0:0:0:1, 1:0:0:0:0, 2:1:0:0:0, 2:0:0:0:0, 3:0:1:0:1, 0:0:0:0:0, 1:0:0:0:0, 0:0:0:0:0, 92:11:6:0:22
Bb dorian (2b), 4:1:0:0:2, 1:0:0:0:0, 1:0:0:0:0, 1:0:0:0:0, 0:0:0:0:0, 1:0:0:0:0, 3:1:0:0:1, 1:0:0:0:0, 1:0:0:0:0, 2:1:0:0:1, 0:0:0:0:0, 0:0:0:0:0, 1:0:0:0:0, 1:0:0:0:0, 0:0:0:0:0, 3:0:0:0:0, 2:0:0:0:0, 0:0:0:0:0,  , 3:0:0:0:1, 1:0:0:0:0, 3:0:1:0:2, 3:0:0:0:1, 1:0:0:0:0, 2:0:0:0:0, 0:0:0:0:0, 1:0:0:0:0, 0:0:0:0:0, 0:0:0:0:0, 0:0:0:0:0, 1:0:0:0:1, 2:1:0:0:2,  , 1:0:0:0:0, 3:0:0:0:1, 2:0:0:0:1,  , 2:0:0:0:1, 1:0:0:0:0, 1:0:0:0:0, 1:0:0:0:0, 0:0:0:0:0, 0:0:0:0:0, 2:0:0:0:0, 2:0:0:0:0, 1:0:0:0:0, 3:0:0:0:1, 0:0:0:0:0, 1:0:0:0:1, 1:0:0:0:0, 60:4:1:0:16
D dorian (2#), 3:1:0:0:3, 2:0:0:0:0, 1:0:0:0:0, 1:1:0:0:0, 2:1:0:0:0, 3:0:0:0:2, 5:0:1:0:3, 1:0:0:0:0, 1:1:0:0:0, 2:0:0:0:0, 1:0:0:0:0, 2:0:0:0:0, 2:0:0:0:0, 2:0:0:0:0, 1:0:0:0:0, 2:0:1:0:1, 3:1:0:0:0, 3:0:0:0:1,  , 2:0:0:0:1, 0:0:0:0:0, 3:1:0:0:0, 6:1:0:0:3, 1:0:0:0:0, 1:0:1:0:1, 3:1:0:0:0, 2:0:0:0:0, 1:0:0:0:0, 2:0:0:0:1, 2:0:0:0:0, 2:1:0:0:0, 1:0:1:0:1,  , 2:0:0:0:0, 3:0:1:0:1, 3:0:0:0:1,  , 2:0:0:0:0, 1:0:0:0:0, 2:0:0:0:0, 3:0:0:0:1, 3:1:0:0:0, 1:0:0:0:1, 1:0:0:0:0, 2:1:0:0:0, 2:0:0:0:0, 3:0:1:0:1, 0:0:0:0:0, 1:0:0:0:0, 0:0:0:0:0, 92:11:6:0:22
Bb phrygian (2b), 4:1:0:0:2, 1:0:0:0:0, 1:0:0:0:0, 1:0:0:0:0, 0:0:0:0:0, 1:0:0:0:0, 3:1:0:0:1, 1:0:0:0:0, 1:0:0:0:0, 2:1:0:0:1, 0:0:0:0:0, 0:0:0:0:0, 1:0:0:0:0, 1:0:0:0:0, 0:0:0:0:0, 3:0:0:0:0, 2:0:0:0:0, 0:0:0:0:0,  , 3:0:0:0:1, 1:0:0:0:0, 3:0:1:0:2, 3:0:0:0:1, 1:0:0:0:0, 2:0:0:0:0, 0:0:0:0:0, 1:0:0:0:0, 0:0:0:0:0, 0:0:0:0:0, 0:0:0:0:0, 1:0:0:0:1, 2:1:0:0:2,  , 1:0:0:0:0, 3:0:0:0:1, 2:0:0:0:1,  , 2:0:0:0:1, 1:0:0:0:0, 1:0:0:0:0, 1:0:0:0:0, 0:0:0:0:0, 0:0:0:0:0, 2:0:0:0:0, 2:0:0:0:0, 1:0:0:0:0, 3:0:0:0:1, 0:0:0:0:0, 1:0:0:0:1, 1:0:0:0:0, 60:4:1:0:16
D phrygian (2#), 3:1:0:0:3, 2:0:0:0:0, 1:0:0:0:0, 1:1:0:0:0, 2:1:0:0:0, 3:0:0:0:2, 5:0:1:0:3, 1:0:0:0:0, 1:1:0:0:0, 2:0:0:0:0, 1:0:0:0:0, 2:0:0:0:0, 2:0:0:0:0, 2:0:0:0:0, 1:0:0:0:0, 2:0:1:0:1, 3:1:0:0:0, 3:0:0:0:1,  , 2:0:0:0:1, 0:0:0:0:0, 3:1:0:0:0, 6:1:0:0:3, 1:0:0:0:0, 1:0:1:0:1, 3:1:0:0:0, 2:0:0:0:0, 1:0:0:0:0, 2:0:0:0:1, 2:0:0:0:0, 2:1:0:0:0, 1:0:1:0:1,  , 2:0:0:0:0, 3:0:1:0:1, 3:0:0:0:1,  , 2:0:0:0:0, 1:0:0:0:0, 2:0:0:0:0, 3:0:0:0:1, 3:1:0:0:0, 1:0:0:0:1, 1:0:0:0:0, 2:1:0:0:0, 2:0:0:0:0, 3:0:1:0:1, 0:0:0:0:0, 1:0:0:0:0, 0:0:0:0:0, 92:11:6:0:22
Bb lydian (2b), 4:1:0:0:2, 1:0:0:0:0, 1:0:0:0:0, 1:0:0:0:0, 0:0:0:0:0, 1:0:0:0:0, 3:1:0:0:1, 1:0:0:0:0, 1:0:0:0:0, 2:1:0:0:1, 0:0:0:0:0, 0:0:0:0:0, 1:0:0:0:0, 1:0:0:0:0, 0:0:0:0:0, 3:0:0:0:0, 2:0:0:0:0, 0:0:0:0:0,  , 3:0:0:0:1, 1:0:0:0:0, 3:0:1:0:2, 3:0:0:0:1, 1:0:0:0:0, 2:0:0:0:0, 0:0:0:0:0, 1:0:0:0:0, 0:0:0:0:0, 0:0:0:0:0, 0:0:0:0:0, 1:0:0:0:1, 2:1:0:0:2,  , 1:0:0:0:0, 3:0:0:0:1, 2:0:0:0:1,  , 2:0:0:0:1, 1:0:0:0:0, 1:0:0:0:0, 1:0:0:0:0, 0:0:0:0:0, 0:0:0:0:0, 2:0:0:0:0, 2:0:0:0:0, 1:0:0:0:0, 3:0:0:0:1, 0:0:0:0:0, 1:0:0:0:1, 1:0:0:0:0, 60:4:1:0:16
D lydian (2#), 3:1:0:0:3, 2:0:0:0:0, 1:0:0:0:0, 1:1:0:0:0, 2:1:0:0:0, 3:0:0:0:2, 5:0:1:0:3, 1:0:0:0:0, 1:1:0:0:0, 2:0:0:0:0, 1:0:0:0:0, 2:0:0:0:0, 2:0:0:0:0, 2:0:0:0:0, 1:0:0:0:0, 2:0:1:0:1, 3:1:0:0:0, 3:0:0:0:1,  , 2:0:0:0:1, 0:0:0:0:0, 3:1:0:0:0, 6:1:0:0:3, 1:0:0:0:0, 1:0:1:0:1, 3:1:0:0:0, 2:0:0:0:0, 1:0:0:0:0, 2:0:0:0:1, 2:0:0:0:0, 2:1:0:0:0, 1:0:1:0:1,  , 2:0:0:0:0, 3:0:1:0:1, 3:0:0:0:1,  , 2:0:0:0:0, 1:0:0:0:0, 2:0:0:0:0, 3:0:0:0:1, 3:1:0:0:0, 1:0:0:0:1, 1:0:0:0:0, 2:1:0:0:0, 2:0:0:0:0, 3:0:1:0:1, 0:0:0:0:0, 1:0:0:0:0, 0:0:0:0:0, 92:11:6:0:22
Bb mixolydian (2b), 4:1:0:0:2, 1:0:0:0:0, 1:0:0:0:0, 1:0:0:0:0, 0:0:0:0:0, 1:0:0:0:0, 3:1:0:0:1, 1:0:0:0:0, 1:0:0:0:0, 2:1:0:0:1, 0:0:0:0:0, 0:0:0:0:0, 1:0:0:0:0, 1:0:0:0:0, 0:0:0:0:0, 3:0:0:0:0, 2:0:0:0:0, 0:0:0:0:0,  , 3:0:0:0:1, 1:0:0:0:0, 3:0:1:0:2, 3:0:0:0:1, 1:0:0:0:0, 2:0:0:0:0, 0:0:0:0:0, 1:0:0:0:0, 0:0:0:0:0, 0:0:0:0:0, 0:0:0:0:0, 1:0:0:0:1, 2:1:0:0:2,  , 1:0:0:0:0, 3:0:0:0:1, 2:0:0:0:1,  , 2:0:0:0:1, 1:0:0:0:0, 1:0:0:0:0, 1:0:0:0:0, 0:0:0:0:0, 0:0:0:0:0, 2:0:0:0:0, 2:0:0:0:0, 1:0:0:0:0, 3:0:0:0:1, 0:0:0:0:0, 1:0:0:0:1, 1:0:0:0:0, 60:4:1:0:16
D mixolydian (2#), 3:1:0:0:3, 2:0:0:0:0, 1:0:0:0:0, 1:1:0:0:0, 2:1:0:0:0, 3:0:0:0:2, 5:0:1:0:3, 1:0:0:0:0, 1:1:0:0:0, 2:0:0:0:0, 1:0:0:0:0, 2:0:0:0:0, 2:0:0:0:0, 2:0:0:0:0, 1:0:0:0:0, 2:0:1:0:1, 3:1:0:0:0, 3:0:0:0:1,  , 2:0:0:0:1, 0:0:0:0:0, 3:1:0:0:0, 6:1:0:0:3, 1:0:0:0:0, 1:0:1:0:1, 3:1:0:0:0, 2:0:0:0:0, 1:0:0:0:0, 2:0:0:0:1, 2:0:0:0:0, 2:1:0:0:0, 1:0:1:0:1,  , 2:0:0:0:0, 3:0:1:0:1, 3:0:0:0:1,  , 2:0:0:0:0, 1:0:0:0:0, 2:0:0:0:0, 3:0:0:0:1, 3:1:0:0:0, 1:0:0:0:1, 1:0:0:0:0, 2:1:0:0:0, 2:0:0:0:0, 3:0:1:0:1, 0:0:0:0:0, 1:0:0:0:0, 0:0:0:0:0, 92:11:6:0:22
Bb aeolian (2b), 4:1:0:0:2, 1:0:0:0:0, 1:0:0:0:0, 1:0:0:0:0, 0:0:0:0:0, 1:0:0:0:0, 3:1:0:0:1, 1:0:0:0:0, 1:0:0:0:0, 2:1:0:0:1, 0:0:0:0:0, 0:0:0:0:0, 1:0:0:0:0, 1:0:0:0:0, 0:0:0:0:0, 3:0:0:0:0, 2:0:0:0:0, 0:0:0:0:0,  , 3:0:0:0:1, 1:0:0:0:0, 3:0:1:0:2, 3:0:0:0:1, 1:0:0:0:0, 2:0:0:0:0, 0:0:0:0:0, 1:0:0:0:0, 0:0:0:0:0, 0:0:0:0:0, 0:0:0:0:0, 1:0:0:0:1, 2:1:0:0:2,  , 1:0:0:0:0, 3:0:0:0:1, 2:0:0:0:1,  , 2:0:0:0:1, 1:0:0:0:0, 1:0:0:0:0, 1:0:0:0:0, 0:0:0:0:0, 0:0:0:0:0, 2:0:0:0:0, 2:0:0:0:0, 1:0:0:0:0, 3:0:0:0:1, 0:0:0:0:0, 1:0:0:0:1, 1:0:0:0:0, 60:4:1:0:16
D aeolian (2#), 3:1:0:0:3, 2:0:0:0:0, 1:0:0:0:0, 1:1:0:0:0, 2:1:0:0:0, 3:0:0:0:2, 5:0:1:0:3, 1:0:0:0:0, 1:1:0:0:0, 2:0:0:0:0, 1:0:0:0:0, 2:0:0:0:0, 2:0:0:0:0, 2:0:0:0:0, 1:0:0:0:0, 2:0:1:0:1, 3:1:0:0:0, 3:0:0:0:1,  , 2:0:0:0:1, 0:0:0:0:0, 3:1:0:0:0, 6:1:0:0:3, 1:0:0:0:0, 1:0:1:0:1, 3:1:0:0:0, 2:0:0:0:0, 1:0:0:0:0, 2:0:0:0:1, 2:0:0:0:0, 2:1:0:0:0, 1:0:1:0:1,  , 2:0:0:0:0, 3:0:1:0:1, 3:0:0:0:1,  , 2:0:0:0:0, 1:0:0:0:0, 2:0:0:0:0, 3:0:0:0:1, 3:1:0:0:0, 1:0:0:0:1, 1:0:0:0:0, 2:1:0:0:0, 2:0:0:0:0, 3:0:1:0:1, 0:0:0:0:0, 1:0:0:0:0, 0:0:0:0:0, 92:11:6:0:22
Bb locrian (2b), 4:1:0:0:2, 1:0:0:0:0, 1:0:0:0:0, 1:0:0:0:0, 0:0:0:0:0, 1:0:0:0:0, 3:1:0:0:1, 1:0:0:0:0, 1:0:0:0:0, 2:1:0:0:1, 0:0:0:0:0, 0:0:0:0:0, 1:0:0:0:0, 1:0:0:0:0, 0:0:0:0:0, 3:0:0:0:0, 2:0:0:0:0, 0:0:0:0:0,  , 3:0:0:0:1, 1:0:0:0:0, 3:0:1:0:2, 3:0:0:0:1, 1:0:0:0:0, 2:0:0:0:0, 0:0:0:0:0, 1:0:0:0:0, 0:0:0:0:0, 0:0:0:0:0, 0:0:0:0:0, 1:0:0:0:1, 2:1:0:0:2,  , 1:0:0:0:0, 3:0:0:0:1, 2:0:0:0:1,  , 2:0:0:0:1, 1:0:0:0:0, 1:0:0:0:0, 1:0:0:0:0, 0:0:0:0:0, 0:0:0:0:0, 2:0:0:0:0, 2:0:0:0:0, 1:0:0:0:0, 3:0:0:0:1, 0:0:0:0:0, 1:0:0:0:1, 1:0:0:0:0, 60:4:1:0:16
D locrian (2#), 3:1:0:0:3, 2:0:0:0:0, 1:0:0:0:0, 1:1:0:0:0, 2:1:0:0:0, 3:0:0:0:2, 5:0:1:0:3, 1:0:0:0:0, 1:1:0:0:0, 2:0:0:0:0, 1:0:0:0:0, 2:0:0:0:0, 2:0:0:0:0, 2:0:0:0:0, 1:0:0:0:0, 2:0:1:0:1, 3:1:0:0:0, 3:0:0:0:1,  , 2:0:0:0:1, 0:0:0:0:0, 3:1:0:0:0, 6:1:0:0:3, 1:0:0:0:0, 1:0:1:0:1, 3:1:0:0:0, 2:0:0:0:0, 1:0:0:0:0, 2:0:0:0:1, 2:0:0:0:0, 2:1:0:0:0, 1:0:1:0:1,  , 2:0:0:0:0, 3:0:1:0:1, 3:0:0:0:1,  , 2:0:0:0:0, 1:0:0:0:0, 2:0:0:0:0, 3:0:0:0:1, 3:1:0:0:0, 1:0:0:0:1, 1:0:0:0:0, 2:1:0:0:0, 2:0:0:0:0, 3:0:1:0:1, 0:0:0:0:0, 1:0:0:0:0, 0:0:0:0:0, 92:11:6:0:22
Eb major (3b), 3:1:0:0:2, 2:0:0:0:1, 2:0:0:0:1, 2:0:0:0:0, 1:0:0:0:0, 2:0:0:0:0, 3:0:0:0:0, 1:0:0:0:1, 2:0:0:0:1, 2:0:0:0:1, 0:0:0:0:0, 1:0:0:0:0, 1:0:0:0:1, 1:0:0:0:1, 0:0:0:0:0, 3:0:0:0:1, 3:0:0:0:1, 1:0:0:0:0,  , 3:0:0:0:2, 1:0:0:0:0, 3:0:1:0:1, 4:0:0:0:1, 2:0:0:0:1, 2:0:0:0:1, 1:0:0:0:0, 1:0:0:0:1, 0:0:0:0:0, 0:0:0:0:0, 1:0:0:0:0, 2:0:0:0:1, 2:1:0:0:2,  , 2:0:0:0:1, 4:0:0:0:1, 2:0:0:0:2,  , 3:0:0:0:2, 2:0:0:0:1, 1:0:0:0:1, 1:0:0:0:1, 1:0:0:0:0, 0:0:0:0:0, 2:0:0:0:1, 3:0:0:0:1, 2:0:0:0:1, 4:0:0:0:1, 0:0:0:0:0, 2:0:0:0:1, 1:0:0:0:1, 82:2:1:0:36
A major (3#), 3:0:0:0:1, 3:0:0:0:0, 2:0:0:0:0, 2:1:0:0:0, 3:1:0:0:0, 3:0:0:0:1, 4:0:1:0:2, 2:0:0:0:0, 2:1:0:0:0, 1:0:0:0:0, 2:0:0:0:0, 2:0:0:0:0, 3:0:0:0:0, 2:0:0:0:0, 1:0:0:0:0, 3:0:1:0:1, 2:1:0:0:0, 4:0:0:0:0,  , 3:0:0:0:0, 1:0:0:0:0, 3:1:0:0:1, 7:0:1:1:3, 2:0:0:0:0, 1:0:1:0:1, 4:1:0:0:0, 3:0:0:0:0, 1:0:0:0:0, 2:0:0:0:1, 3:0:0:0:0, 3:1:0:0:1, 2:0:1:0:1,  , 2:0:0:0:0, 2:0:1:0:1, 4:0:0:0:0,  , 3:0:0:0:0, 2:0:0:0:0, 2:0:0:0:0, 3:0:0:0:1, 4:1:0:0:0, 1:0:0:0:0, 2:0:0:0:0, 3:1:0:0:0, 3:0:0:0:0, 2:0:1:0:1, 1:0:0:0:0, 1:0:0:0:0, 1:0:0:0:0, 115:9:7:1:16
C minor (3b), 3:1:0:0:2, 2:0:0:0:1, 2:0:0:0:1, 2:0:0:0:0, 1:0:0:0:0, 2:0:0:0:0, 3:0:0:0:0, 1:0:0:0:1, 2:0:0:0:1, 2:0:0:0:1, 0:0:0:0:0, 1:0:0:0:0, 1:0:0:0:1, 1:0:0:0:1, 0:0:0:0:0, 3:0:0:0:1, 3:0:0:0:1, 1:0:0:0:0,  , 3:0:0:0:2, 1:0:0:0:0, 3:0:1:0:1, 4:0:0:0:1, 2:0:0:0:1, 2:0:0:0:1, 1:0:0:0:0, 1:0:0:0:1, 0:0:0:0:0, 0:0:0:0:0, 1:0:0:0:0, 2:0:0:0:1, 2:1:0:0:2,  , 2:0:0:0:1, 4:0:0:0:1, 2:0:0:0:2,  , 3:0:0:0:2, 2:0:0:0:1, 1:0:0:0:1, 1:0:0:0:1, 1:0:0:0:0, 0:0:0:0:0, 2:0:0:0:1, 3:0:0:0:1, 2:0:0:0:1, 4:0:0:0:1, 0:0:0:0:0, 2:0:0:0:1, 1:0:0:0:1, 82:2:1:0:36
F# minor (3#), 3:0:0:0:1, 3:0:0:0:0, 2:0:0:0:0, 2:1:0:0:0, 3:1:0:0:0, 3:0:0:0:1, 4:0:1:0:2, 2:0:0:0:0, 2:1:0:0:0, 1:0:0:0:0, 2:0:0:0:0, 2:0:0:0:0, 3:0:0:0:0, 2:0:0:0:0, 1:0:0:0:0, 3:0:1:0:1, 2:1:0:0:0, 4:0:0:0:0,  , 3:0:0:0:0, 1:0:0:0:0, 3:1:0:0:1, 7:0:1:1:3, 2:0:0:0:0, 1:0:1:0:1, 4:1:0:0:0, 3:0:0:0:0, 1:0:0:0:0, 2:0:0:0:1, 3:0:0:0:0, 3:1:0:0:1, 2:0:1:0:1,  , 2:0:0:0:0, 2:0:1:0:1, 4:0:0:0:0,  , 3:0:0:0:0, 2:0:0:0:0, 2:0:0:0:0, 3:0:0:0:1, 4:1:0:0:0, 1:0:0:0:0, 2:0:0:0:0, 3:1:0:0:0, 3:0:0:0:0, 2:0:1:0:1, 1:0:0:0:0, 1:0:0:0:0, 1:0:0:0:0, 115:9:7:1:16
C minor mel (3b), 3:1:0:0:2, 2:0:0:0:1, 2:0:0:0:1, 2:0:0:0:0, 1:0:0:0:0, 2:0:0:0:0, 3:0:0:0:0, 1:0:0:0:1, 2:0:0:0:1, 2:0:0:0:1, 0:0:0:0:0, 1:0:0:0:0, 1:0:0:0:1, 1:0:0:0:1, 0:0:0:0:0, 3:0:0:0:1, 3:0:0:0:1, 1:0:0:0:0,  , 3:0:0:0:2, 1:0:0:0:0, 3:0:1:0:1, 4:0:0:0:1, 2:0:0:0:1, 2:0:0:0:1, 1:0:0:0:0, 1:0:0:0:1, 0:0:0:0:0, 0:0:0:0:0, 1:0:0:0:0, 2:0:0:0:1, 2:1:0:0:2,  , 2:0:0:0:1, 4:0:0:0:1, 2:0:0:0:2,  , 3:0:0:0:2, 2:0:0:0:1, 1:0:0:0:1, 1:0:0:0:1, 1:0:0:0:0, 0:0:0:0:0, 2:0:0:0:1, 3:0:0:0:1, 2:0:0:0:1, 4:0:0:0:1, 0:0:0:0:0, 2:0:0:0:1, 1:0:0:0:1, 82:2:1:0:36
F# minor mel (3#), 3:0:0:0:1, 3:0:0:0:0, 2:0:0:0:0, 2:1:0:0:0, 3:1:0:0:0, 3:0:0:0:1, 4:0:1:0:2, 2:0:0:0:0, 2:1:0:0:0, 1:0:0:0:0, 2:0:0:0:0, 2:0:0:0:0, 3:0:0:0:0, 2:0:0:0:0, 1:0:0:0:0, 3:0:1:0:1, 2:1:0:0:0, 4:0:0:0:0,  , 3:0:0:0:0, 1:0:0:0:0, 3:1:0:0:1, 7:0:1:1:3, 2:0:0:0:0, 1:0:1:0:1, 4:1:0:0:0, 3:0:0:0:0, 1:0:0:0:0, 2:0:0:0:1, 3:0:0:0:0, 3:1:0:0:1, 2:0:1:0:1,  , 2:0:0:0:0, 2:0:1:0:1, 4:0:0:0:0,  , 3:0:0:0:0, 2:0:0:0:0, 2:0:0:0:0, 3:0:0:0:1, 4:1:0:0:0, 1:0:0:0:0, 2:0:0:0:0, 3:1:0:0:0, 3:0:0:0:0, 2:0:1:0:1, 1:0:0:0:0, 1:0:0:0:0, 1:0:0:0:0, 115:9:7:1:16
Eb major blues (3b), 3:1:0:0:2, 2:0:0:0:1, 2:0:0:0:1, 2:0:0:0:0, 1:0:0:0:0, 2:0:0:0:0, 3:0:0:0:0, 1:0:0:0:1, 2:0:0:0:1, 2:0:0:0:1, 0:0:0:0:0, 1:0:0:0:0, 1:0:0:0:1, 1:0:0:0:1, 0:0:0:0:0, 3:0:0:0:1, 3:0:0:0:1, 1:0:0:0:0,  , 3:0:0:0:2, 1:0:0:0:0, 3:0:1:0:1, 4:0:0:0:1, 2:0:0:0:1, 2:0:0:0:1, 1:0:0:0:0, 1:0:0:0:1, 0:0:0:0:0, 0:0:0:0:0, 1:0:0:0:0, 2:0:0:0:1, 2:1:0:0:2,  , 2:0:0:0:1, 4:0:0:0:1, 2:0:0:0:2,  , 3:0:0:0:2, 2:0:0:0:1, 1:0:0:0:1, 1:0:0:0:1, 1:0:0:0:0, 0:0:0:0:0, 2:0:0:0:1, 3:0:0:0:1, 2:0:0:0:1, 4:0:0:0:1, 0:0:0:0:0, 2:0:0:0:1, 1:0:0:0:1, 82:2:1:0:36
A major blues (3#), 3:0:0:0:1, 3:0:0:0:0, 2:0:0:0:0, 2:1:0:0:0, 3:1:0:0:0, 3:0:0:0:1, 4:0:1:0:2, 2:0:0:0:0, 2:1:0:0:0, 1:0:0:0:0, 2:0:0:0:0, 2:0:0:0:0, 3:0:0:0:0, 2:0:0:0:0, 1:0:0:0:0, 3:0:1:0:1, 2:1:0:0:0, 4:0:0:0:0,  , 3:0:0:0:0, 1:0:0:0:0, 3:1:0:0:1, 7:0:1:1:3, 2:0:0:0:0, 1:0:1:0:1, 4:1:0:0:0, 3:0:0:0:0, 1:0:0:0:0, 2:0:0:0:1, 3:0:0:0:0, 3:1:0:0:1, 2:0:1:0:1,  , 2:0:0:0:0, 2:0:1:0:1, 4:0:0:0:0,  , 3:0:0:0:0, 2:0:0:0:0, 2:0:0:0:0, 3:0:0:0:1, 4:1:0:0:0, 1:0:0:0:0, 2:0:0:0:0, 3:1:0:0:0, 3:0:0:0:0, 2:0:1:0:1, 1:0:0:0:0, 1:0:0:0:0, 1:0:0:0:0, 115:9:7:1:16
C minor blues (3b), 3:1:0:0:2, 2:0:0:0:1, 2:0:0:0:1, 2:0:0:0:0, 1:0:0:0:0, 2:0:0:0:0, 3:0:0:0:0, 1:0:0:0:1, 2:0:0:0:1, 2:0:0:0:1, 0:0:0:0:0, 1:0:0:0:0, 1:0:0:0:1, 1:0:0:0:1, 0:0:0:0:0, 3:0:0:0:1, 3:0:0:0:1, 1:0:0:0:0,  , 3:0:0:0:2, 1:0:0:0:0, 3:0:1:0:1, 4:0:0:0:1, 2:0:0:0:1, 2:0:0:0:1, 1:0:0:0:0, 1:0:0:0:1, 0:0:0:0:0, 0:0:0:0:0, 1:0:0:0:0, 2:0:0:0:1, 2:1:0:0:2,  , 2:0:0:0:1, 4:0:0:0:1, 2:0:0:0:2,  , 3:0:0:0:2, 2:0:0:0:1, 1:0:0:0:1, 1:0:0:0:1, 1:0:0:0:0, 0:0:0:0:0, 2:0:0:0:1, 3:0:0:0:1, 2:0:0:0:1, 4:0:0:0:1, 0:0:0:0:0, 2:0:0:0:1, 1:0:0:0:1, 82:2:1:0:36
F# minor blues (3#), 3:0:0:0:1, 3:0:0:0:0, 2:0:0:0:0, 2:1:0:0:0, 3:1:0:0:0, 3:0:0:0:1, 4:0:1:0:2, 2:0:0:0:0, 2:1:0:0:0, 1:0:0:0:0, 2:0:0:0:0, 2:0:0:0:0, 3:0:0:0:0, 2:0:0:0:0, 1:0:0:0:0, 3:0:1:0:1, 2:1:0:0:0, 4:0:0:0:0,  , 3:0:0:0:0, 1:0:0:0:0, 3:1:0:0:1, 7:0:1:1:3, 2:0:0:0:0, 1:0:1:0:1, 4:1:0:0:0, 3:0:0:0:0, 1:0:0:0:0, 2:0:0:0:1, 3:0:0:0:0, 3:1:0:0:1, 2:0:1:0:1,  , 2:0:0:0:0, 2:0:1:0:1, 4:0:0:0:0,  , 3:0:0:0:0, 2:0:0:0:0, 2:0:0:0:0, 3:0:0:0:1, 4:1:0:0:0, 1:0:0:0:0, 2:0:0:0:0, 3:1:0:0:0, 3:0:0:0:0, 2:0:1:0:1, 1:0:0:0:0, 1:0:0:0:0, 1:0:0:0:0, 115:9:7:1:16
Eb dorian (3b), 3:1:0:0:2, 2:0:0:0:1, 2:0:0:0:1, 2:0:0:0:0, 1:0:0:0:0, 2:0:0:0:0, 3:0:0:0:0, 1:0:0:0:1, 2:0:0:0:1, 2:0:0:0:1, 0:0:0:0:0, 1:0:0:0:0, 1:0:0:0:1, 1:0:0:0:1, 0:0:0:0:0, 3:0:0:0:1, 3:0:0:0:1, 1:0:0:0:0,  , 3:0:0:0:2, 1:0:0:0:0, 3:0:1:0:1, 4:0:0:0:1, 2:0:0:0:1, 2:0:0:0:1, 1:0:0:0:0, 1:0:0:0:1, 0:0:0:0:0, 0:0:0:0:0, 1:0:0:0:0, 2:0:0:0:1, 2:1:0:0:2,  , 2:0:0:0:1, 4:0:0:0:1, 2:0:0:0:2,  , 3:0:0:0:2, 2:0:0:0:1, 1:0:0:0:1, 1:0:0:0:1, 1:0:0:0:0, 0:0:0:0:0, 2:0:0:0:1, 3:0:0:0:1, 2:0:0:0:1, 4:0:0:0:1, 0:0:0:0:0, 2:0:0:0:1, 1:0:0:0:1, 82:2:1:0:36
A dorian (3#), 3:0:0:0:1, 3:0:0:0:0, 2:0:0:0:0, 2:1:0:0:0, 3:1:0:0:0, 3:0:0:0:1, 4:0:1:0:2, 2:0:0:0:0, 2:1:0:0:0, 1:0:0:0:0, 2:0:0:0:0, 2:0:0:0:0, 3:0:0:0:0, 2:0:0:0:0, 1:0:0:0:0, 3:0:1:0:1, 2:1:0:0:0, 4:0:0:0:0,  , 3:0:0:0:0, 1:0:0:0:0, 3:1:0:0:1, 7:0:1:1:3, 2:0:0:0:0, 1:0:1:0:1, 4:1:0:0:0, 3:0:0:0:0, 1:0:0:0:0, 2:0:0:0:1, 3:0:0:0:0, 3:1:0:0:1, 2:0:1:0:1,  , 2:0:0:0:0, 2:0:1:0:1, 4:0:0:0:0,  , 3:0:0:0:0, 2:0:0:0:0, 2:0:0:0:0, 3:0:0:0:1, 4:1:0:0:0, 1:0:0:0:0, 2:0:0:0:0, 3:1:0:0:0, 3:0:0:0:0, 2:0:1:0:1, 1:0:0:0:0, 1:0:0:0:0, 1:0:0:0:0, 115:9:7:1:16
Eb phrygian (3b), 3:1:0:0:2, 2:0:0:0:1, 2:0:0:0:1, 2:0:0:0:0, 1:0:0:0:0, 2:0:0:0:0, 3:0:0:0:0, 1:0:0:0:1, 2:0:0:0:1, 2:0:0:0:1, 0:0:0:0:0, 1:0:0:0:0, 1:0:0:0:1, 1:0:0:0:1, 0:0:0:0:0, 3:0:0:0:1, 3:0:0:0:1, 1:0:0:0:0,  , 3:0:0:0:2, 1:0:0:0:0, 3:0:1:0:1, 4:0:0:0:1, 2:0:0:0:1, 2:0:0:0:1, 1:0:0:0:0, 1:0:0:0:1, 0:0:0:0:0, 0:0:0:0:0, 1:0:0:0:0, 2:0:0:0:1, 2:1:0:0:2,  , 2:0:0:0:1, 4:0:0:0:1, 2:0:0:0:2,  , 3:0:0:0:2, 2:0:0:0:1, 1:0:0:0:1, 1:0:0:0:1, 1:0:0:0:0, 0:0:0:0:0, 2:0:0:0:1, 3:0:0:0:1, 2:0:0:0:1, 4:0:0:0:1, 0:0:0:0:0, 2:0:0:0:1, 1:0:0:0:1, 82:2:1:0:36
A phrygian (3#), 3:0:0:0:1, 3:0:0:0:0, 2:0:0:0:0, 2:1:0:0:0, 3:1:0:0:0, 3:0:0:0:1, 4:0:1:0:2, 2:0:0:0:0, 2:1:0:0:0, 1:0:0:0:0, 2:0:0:0:0, 2:0:0:0:0, 3:0:0:0:0, 2:0:0:0:0, 1:0:0:0:0, 3:0:1:0:1, 2:1:0:0:0, 4:0:0:0:0,  , 3:0:0:0:0, 1:0:0:0:0, 3:1:0:0:1, 7:0:1:1:3, 2:0:0:0:0, 1:0:1:0:1, 4:1:0:0:0, 3:0:0:0:0, 1:0:0:0:0, 2:0:0:0:1, 3:0:0:0:0, 3:1:0:0:1, 2:0:1:0:1,  , 2:0:0:0:0, 2:0:1:0:1, 4:0:0:0:0,  , 3:0:0:0:0, 2:0:0:0:0, 2:0:0:0:0, 3:0:0:0:1, 4:1:0:0:0, 1:0:0:0:0, 2:0:0:0:0, 3:1:0:0:0, 3:0:0:0:0, 2:0:1:0:1, 1:0:0:0:0, 1:0:0:0:0, 1:0:0:0:0, 115:9:7:1:16
Eb lydian (3b), 3:1:0:0:2, 2:0:0:0:1, 2:0:0:0:1, 2:0:0:0:0, 1:0:0:0:0, 2:0:0:0:0, 3:0:0:0:0, 1:0:0:0:1, 2:0:0:0:1, 2:0:0:0:1, 0:0:0:0:0, 1:0:0:0:0, 1:0:0:0:1, 1:0:0:0:1, 0:0:0:0:0, 3:0:0:0:1, 3:0:0:0:1, 1:0:0:0:0,  , 3:0:0:0:2, 1:0:0:0:0, 3:0:1:0:1, 4:0:0:0:1, 2:0:0:0:1, 2:0:0:0:1, 1:0:0:0:0, 1:0:0:0:1, 0:0:0:0:0, 0:0:0:0:0, 1:0:0:0:0, 2:0:0:0:1, 2:1:0:0:2,  , 2:0:0:0:1, 4:0:0:0:1, 2:0:0:0:2,  , 3:0:0:0:2, 2:0:0:0:1, 1:0:0:0:1, 1:0:0:0:1, 1:0:0:0:0, 0:0:0:0:0, 2:0:0:0:1, 3:0:0:0:1, 2:0:0:0:1, 4:0:0:0:1, 0:0:0:0:0, 2:0:0:0:1, 1:0:0:0:1, 82:2:1:0:36
A lydian (3#), 3:0:0:0:1, 3:0:0:0:0, 2:0:0:0:0, 2:1:0:0:0, 3:1:0:0:0, 3:0:0:0:1, 4:0:1:0:2, 2:0:0:0:0, 2:1:0:0:0, 1:0:0:0:0, 2:0:0:0:0, 2:0:0:0:0, 3:0:0:0:0, 2:0:0:0:0, 1:0:0:0:0, 3:0:1:0:1, 2:1:0:0:0, 4:0:0:0:0,  , 3:0:0:0:0, 1:0:0:0:0, 3:1:0:0:1, 7:0:1:1:3, 2:0:0:0:0, 1:0:1:0:1, 4:1:0:0:0, 3:0:0:0:0, 1:0:0:0:0, 2:0:0:0:1, 3:0:0:0:0, 3:1:0:0:1, 2:0:1:0:1,  , 2:0:0:0:0, 2:0:1:0:1, 4:0:0:0:0,  , 3:0:0:0:0, 2:0:0:0:0, 2:0:0:0:0, 3:0:0:0:1, 4:1:0:0:0, 1:0:0:0:0, 2:0:0:0:0, 3:1:0:0:0, 3:0:0:0:0, 2:0:1:0:1, 1:0:0:0:0, 1:0:0:0:0, 1:0:0:0:0, 115:9:7:1:16
Eb mixolydian (3b), 3:1:0:0:2, 2:0:0:0:1, 2:0:0:0:1, 2:0:0:0:0, 1:0:0:0:0, 2:0:0:0:0, 3:0:0:0:0, 1:0:0:0:1, 2:0:0:0:1, 2:0:0:0:1, 0:0:0:0:0, 1:0:0:0:0, 1:0:0:0:1, 1:0:0:0:1, 0:0:0:0:0, 3:0:0:0:1, 3:0:0:0:1, 1:0:0:0:0,  , 3:0:0:0:2, 1:0:0:0:0, 3:0:1:0:1, 4:0:0:0:1, 2:0:0:0:1, 2:0:0:0:1, 1:0:0:0:0, 1:0:0:0:1, 0:0:0:0:0, 0:0:0:0:0, 1:0:0:0:0, 2:0:0:0:1, 2:1:0:0:2,  , 2:0:0:0:1, 4:0:0:0:1, 2:0:0:0:2,  , 3:0:0:0:2, 2:0:0:0:1, 1:0:0:0:1, 1:0:0:0:1, 1:0:0:0:0, 0:0:0:0:0, 2:0:0:0:1, 3:0:0:0:1, 2:0:0:0:1, 4:0:0:0:1, 0:0:0:0:0, 2:0:0:0:1, 1:0:0:0:1, 82:2:1:0:36
A mixolydian (3#), 3:0:0:0:1, 3:0:0:0:0, 2:0:0:0:0, 2:1:0:0:0, 3:1:0:0:0, 3:0:0:0:1, 4:0:1:0:2, 2:0:0:0:0, 2:1:0:0:0, 1:0:0:0:0, 2:0:0:0:0, 2:0:0:0:0, 3:0:0:0:0, 2:0:0:0:0, 1:0:0:0:0, 3:0:1:0:1, 2:1:0:0:0, 4:0:0:0:0,  , 3:0:0:0:0, 1:0:0:0:0, 3:1:0:0:1, 7:0:1:1:3, 2:0:0:0:0, 1:0:1:0:1, 4:1:0:0:0, 3:0:0:0:0, 1:0:0:0:0, 2:0:0:0:1, 3:0:0:0:0, 3:1:0:0:1, 2:0:1:0:1,  , 2:0:0:0:0, 2:0:1:0:1, 4:0:0:0:0,  , 3:0:0:0:0, 2:0:0:0:0, 2:0:0:0:0, 3:0:0:0:1, 4:1:0:0:0, 1:0:0:0:0, 2:0:0:0:0, 3:1:0:0:0, 3:0:0:0:0, 2:0:1:0:1, 1:0:0:0:0, 1:0:0:0:0, 1:0:0:0:0, 115:9:7:1:16
Eb aeolian (3b), 3:1:0:0:2, 2:0:0:0:1, 2:0:0:0:1, 2:0:0:0:0, 1:0:0:0:0, 2:0:0:0:0, 3:0:0:0:0, 1:0:0:0:1, 2:0:0:0:1, 2:0:0:0:1, 0:0:0:0:0, 1:0:0:0:0, 1:0:0:0:1, 1:0:0:0:1, 0:0:0:0:0, 3:0:0:0:1, 3:0:0:0:1, 1:0:0:0:0,  , 3:0:0:0:2, 1:0:0:0:0, 3:0:1:0:1, 4:0:0:0:1, 2:0:0:0:1, 2:0:0:0:1, 1:0:0:0:0, 1:0:0:0:1, 0:0:0:0:0, 0:0:0:0:0, 1:0:0:0:0, 2:0:0:0:1, 2:1:0:0:2,  , 2:0:0:0:1, 4:0:0:0:1, 2:0:0:0:2,  , 3:0:0:0:2, 2:0:0:0:1, 1:0:0:0:1, 1:0:0:0:1, 1:0:0:0:0, 0:0:0:0:0, 2:0:0:0:1, 3:0:0:0:1, 2:0:0:0:1, 4:0:0:0:1, 0:0:0:0:0, 2:0:0:0:1, 1:0:0:0:1, 82:2:1:0:36
A aeolian (3#), 3:0:0:0:1, 3:0:0:0:0, 2:0:0:0:0, 2:1:0:0:0, 3:1:0:0:0, 3:0:0:0:1, 4:0:1:0:2, 2:0:0:0:0, 2:1:0:0:0, 1:0:0:0:0, 2:0:0:0:0, 2:0:0:0:0, 3:0:0:0:0, 2:0:0:0:0, 1:0:0:0:0, 3:0:1:0:1, 2:1:0:0:0, 4:0:0:0:0,  , 3:0:0:0:0, 1:0:0:0:0, 3:1:0:0:1, 7:0:1:1:3, 2:0:0:0:0, 1:0:1:0:1, 4:1:0:0:0, 3:0:0:0:0, 1:0:0:0:0, 2:0:0:0:1, 3:0:0:0:0, 3:1:0:0:1, 2:0:1:0:1,  , 2:0:0:0:0, 2:0:1:0:1, 4:0:0:0:0,  , 3:0:0:0:0, 2:0:0:0:0, 2:0:0:0:0, 3:0:0:0:1, 4:1:0:0:0, 1:0:0:0:0, 2:0:0:0:0, 3:1:0:0:0, 3:0:0:0:0, 2:0:1:0:1, 1:0:0:0:0, 1:0:0:0:0, 1:0:0:0:0, 115:9:7:1:16
Eb locrian (3b), 3:1:0:0:2, 2:0:0:0:1, 2:0:0:0:1, 2:0:0:0:0, 1:0:0:0:0, 2:0:0:0:0, 3:0:0:0:0, 1:0:0:0:1, 2:0:0:0:1, 2:0:0:0:1, 0:0:0:0:0, 1:0:0:0:0, 1:0:0:0:1, 1:0:0:0:1, 0:0:0:0:0, 3:0:0:0:1, 3:0:0:0:1, 1:0:0:0:0,  , 3:0:0:0:2, 1:0:0:0:0, 3:0:1:0:1, 4:0:0:0:1, 2:0:0:0:1, 2:0:0:0:1, 1:0:0:0:0, 1:0:0:0:1, 0:0:0:0:0, 0:0:0:0:0, 1:0:0:0:0, 2:0:0:0:1, 2:1:0:0:2,  , 2:0:0:0:1, 4:0:0:0:1, 2:0:0:0:2,  , 3:0:0:0:2, 2:0:0:0:1, 1:0:0:0:1, 1:0:0:0:1, 1:0:0:0:0, 0:0:0:0:0, 2:0:0:0:1, 3:0:0:0:1, 2:0:0:0:1, 4:0:0:0:1, 0:0:0:0:0, 2:0:0:0:1, 1:0:0:0:1, 82:2:1:0:36
A locrian (3#), 3:0:0:0:1, 3:0:0:0:0, 2:0:0:0:0, 2:1:0:0:0, 3:1:0:0:0, 3:0:0:0:1, 4:0:1:0:2, 2:0:0:0:0, 2:1:0:0:0, 1:0:0:0:0, 2:0:0:0:0, 2:0:0:0:0, 3:0:0:0:0, 2:0:0:0:0, 1:0:0:0:0, 3:0:1:0:1, 2:1:0:0:0, 4:0:0:0:0,  , 3:0:0:0:0, 1:0:0:0:0, 3:1:0:0:1, 7:0:1:1:3, 2:0:0:0:0, 1:0:1:0:1, 4:1:0:0:0, 3:0:0:0:0, 1:0:0:0:0, 2:0:0:0:1, 3:0:0:0:0, 3:1:0:0:1, 2:0:1:0:1,  , 2:0:0:0:0, 2:0:1:0:1, 4:0:0:0:0,  , 3:0:0:0:0, 2:0:0:0:0, 2:0:0:0:0, 3:0:0:0:1, 4:1:0:0:0, 1:0:0:0:0, 2:0:0:0:0, 3:1:0:0:0, 3:0:0:0:0, 2:0:1:0:1, 1:0:0:0:0, 1:0:0:0:0, 1:0:0:0:0, 115:9:7:1:16
Ab major (4b), 2:1:0:0:2, 2:0:0:0:2, 3:0:0:0:2, 1:0:0:0:1, 1:0:0:0:1, 2:0:0:0:1, 3:0:0:0:1, 2:0:0:0:1, 2:0:0:0:2, 3:0:0:0:2, 0:0:0:0:0, 2:0:0:0:1, 1:0:0:0:1, 1:0:0:0:1, 0:0:0:0:0, 4:0:0:0:1, 4:0:0:0:2, 2:0:0:0:1,  , 4:0:0:0:2, 0:0:0:0:0, 4:0:1:0:1, 4:0:0:0:2, 2:0:0:0:2, 2:0:0:0:1, 1:0:0:0:1, 1:0:0:0:1, 0:0:0:0:0, 1:0:0:0:0, 2:0:0:0:1, 3:0:0:0:2, 2:0:0:0:1,  , 3:0:0:0:2, 5:0:0:0:2, 3:0:0:0:2,  , 3:0:0:0:3, 3:0:0:0:2, 2:0:0:0:1, 2:0:0:0:1, 1:0:0:0:1, 1:0:0:0:0, 3:0:0:0:1, 2:0:0:0:2, 3:0:0:0:2, 5:0:0:0:2, 0:0:0:0:0, 3:0:0:0:2, 1:0:0:0:1, 101:1:1:0:60
E major (4#), 2:0:0:0:0, 3:0:0:0:0, 3:0:0:0:0, 2:1:0:0:1, 3:1:0:0:1, 2:0:0:0:0, 3:0:1:0:1, 3:0:0:0:0, 2:1:0:0:1, 2:0:0:0:0, 2:0:0:0:0, 3:0:0:0:0, 3:0:0:0:0, 2:0:0:0:0, 1:0:0:0:0, 4:0:1:0:1, 3:1:0:0:1, 5:0:0:0:0,  , 2:0:0:0:0, 1:0:0:0:0, 3:0:0:0:0, 6:0:1:1:2, 2:0:0:0:0, 1:0:1:0:1, 4:1:0:0:1, 3:0:0:0:0, 1:0:0:0:0, 3:0:0:0:0, 4:0:0:0:0, 4:1:0:0:1, 3:0:1:0:1,  , 3:0:0:0:0, 3:0:1:0:1, 3:0:0:0:0,  , 3:0:0:0:0, 3:0:0:0:0, 3:0:0:0:0, 4:0:0:0:0, 4:1:0:0:1, 2:0:0:0:0, 3:0:0:0:0, 3:1:0:0:1, 4:0:0:0:0, 3:0:1:0:1, 1:0:0:0:0, 2:0:0:0:0, 1:0:0:0:0, 130:8:7:1:16
F minor (4b), 2:1:0:0:2, 2:0:0:0:2, 3:0:0:0:2, 1:0:0:0:1, 1:0:0:0:1, 2:0:0:0:1, 3:0:0:0:1, 2:0:0:0:1, 2:0:0:0:2, 3:0:0:0:2, 0:0:0:0:0, 2:0:0:0:1, 1:0:0:0:1, 1:0:0:0:1, 0:0:0:0:0, 4:0:0:0:1, 4:0:0:0:2, 2:0:0:0:1,  , 4:0:0:0:2, 0:0:0:0:0, 4:0:1:0:1, 4:0:0:0:2, 2:0:0:0:2, 2:0:0:0:1, 1:0:0:0:1, 1:0:0:0:1, 0:0:0:0:0, 1:0:0:0:0, 2:0:0:0:1, 3:0:0:0:2, 2:0:0:0:1,  , 3:0:0:0:2, 5:0:0:0:2, 3:0:0:0:2,  , 3:0:0:0:3, 3:0:0:0:2, 2:0:0:0:1, 2:0:0:0:1, 1:0:0:0:1, 1:0:0:0:0, 3:0:0:0:1, 2:0:0:0:2, 3:0:0:0:2, 5:0:0:0:2, 0:0:0:0:0, 3:0:0:0:2, 1:0:0:0:1, 101:1:1:0:60
C# minor (4#), 2:0:0:0:0, 3:0:0:0:0, 3:0:0:0:0, 2:1:0:0:1, 3:1:0:0:1, 2:0:0:0:0, 3:0:1:0:1, 3:0:0:0:0, 2:1:0:0:1, 2:0:0:0:0, 2:0:0:0:0, 3:0:0:0:0, 3:0:0:0:0, 2:0:0:0:0, 1:0:0:0:0, 4:0:1:0:1, 3:1:0:0:1, 5:0:0:0:0,  , 2:0:0:0:0, 1:0:0:0:0, 3:0:0:0:0, 6:0:1:1:2, 2:0:0:0:0, 1:0:1:0:1, 4:1:0:0:1, 3:0:0:0:0, 1:0:0:0:0, 3:0:0:0:0, 4:0:0:0:0, 4:1:0:0:1, 3:0:1:0:1,  , 3:0:0:0:0, 3:0:1:0:1, 3:0:0:0:0,  , 3:0:0:0:0, 3:0:0:0:0, 3:0:0:0:0, 4:0:0:0:0, 4:1:0:0:1, 2:0:0:0:0, 3:0:0:0:0, 3:1:0:0:1, 4:0:0:0:0, 3:0:1:0:1, 1:0:0:0:0, 2:0:0:0:0, 1:0:0:0:0, 130:8:7:1:16
F minor mel (4b), 2:1:0:0:2, 2:0:0:0:2, 3:0:0:0:2, 1:0:0:0:1, 1:0:0:0:1, 2:0:0:0:1, 3:0:0:0:1, 2:0:0:0:1, 2:0:0:0:2, 3:0:0:0:2, 0:0:0:0:0, 2:0:0:0:1, 1:0:0:0:1, 1:0:0:0:1, 0:0:0:0:0, 4:0:0:0:1, 4:0:0:0:2, 2:0:0:0:1,  , 4:0:0:0:2, 0:0:0:0:0, 4:0:1:0:1, 4:0:0:0:2, 2:0:0:0:2, 2:0:0:0:1, 1:0:0:0:1, 1:0:0:0:1, 0:0:0:0:0, 1:0:0:0:0, 2:0:0:0:1, 3:0:0:0:2, 2:0:0:0:1,  , 3:0:0:0:2, 5:0:0:0:2, 3:0:0:0:2,  , 3:0:0:0:3, 3:0:0:0:2, 2:0:0:0:1, 2:0:0:0:1, 1:0:0:0:1, 1:0:0:0:0, 3:0:0:0:1, 2:0:0:0:2, 3:0:0:0:2, 5:0:0:0:2, 0:0:0:0:0, 3:0:0:0:2, 1:0:0:0:1, 101:1:1:0:60
C# minor mel (4#), 2:0:0:0:0, 3:0:0:0:0, 3:0:0:0:0, 2:1:0:0:1, 3:1:0:0:1, 2:0:0:0:0, 3:0:1:0:1, 3:0:0:0:0, 2:1:0:0:1, 2:0:0:0:0, 2:0:0:0:0, 3:0:0:0:0, 3:0:0:0:0, 2:0:0:0:0, 1:0:0:0:0, 4:0:1:0:1, 3:1:0:0:1, 5:0:0:0:0,  , 2:0:0:0:0, 1:0:0:0:0, 3:0:0:0:0, 6:0:1:1:2, 2:0:0:0:0, 1:0:1:0:1, 4:1:0:0:1, 3:0:0:0:0, 1:0:0:0:0, 3:0:0:0:0, 4:0:0:0:0, 4:1:0:0:1, 3:0:1:0:1,  , 3:0:0:0:0, 3:0:1:0:1, 3:0:0:0:0,  , 3:0:0:0:0, 3:0:0:0:0, 3:0:0:0:0, 4:0:0:0:0, 4:1:0:0:1, 2:0:0:0:0, 3:0:0:0:0, 3:1:0:0:1, 4:0:0:0:0, 3:0:1:0:1, 1:0:0:0:0, 2:0:0:0:0, 1:0:0:0:0, 130:8:7:1:16
Ab major blues (4b), 2:1:0:0:2, 2:0:0:0:2, 3:0:0:0:2, 1:0:0:0:1, 1:0:0:0:1, 2:0:0:0:1, 3:0:0:0:1, 2:0:0:0:1, 2:0:0:0:2, 3:0:0:0:2, 0:0:0:0:0, 2:0:0:0:1, 1:0:0:0:1, 1:0:0:0:1, 0:0:0:0:0, 4:0:0:0:1, 4:0:0:0:2, 2:0:0:0:1,  , 4:0:0:0:2, 0:0:0:0:0, 4:0:1:0:1, 4:0:0:0:2, 2:0:0:0:2, 2:0:0:0:1, 1:0:0:0:1, 1:0:0:0:1, 0:0:0:0:0, 1:0:0:0:0, 2:0:0:0:1, 3:0:0:0:2, 2:0:0:0:1,  , 3:0:0:0:2, 5:0:0:0:2, 3:0:0:0:2,  , 3:0:0:0:3, 3:0:0:0:2, 2:0:0:0:1, 2:0:0:0:1, 1:0:0:0:1, 1:0:0:0:0, 3:0:0:0:1, 2:0:0:0:2, 3:0:0:0:2, 5:0:0:0:2, 0:0:0:0:0, 3:0:0:0:2, 1:0:0:0:1, 101:1:1:0:60
E major blues (4#), 2:0:0:0:0, 3:0:0:0:0, 3:0:0:0:0, 2:1:0:0:1, 3:1:0:0:1, 2:0:0:0:0, 3:0:1:0:1, 3:0:0:0:0, 2:1:0:0:1, 2:0:0:0:0, 2:0:0:0:0, 3:0:0:0:0, 3:0:0:0:0, 2:0:0:0:0, 1:0:0:0:0, 4:0:1:0:1, 3:1:0:0:1, 5:0:0:0:0,  , 2:0:0:0:0, 1:0:0:0:0, 3:0:0:0:0, 6:0:1:1:2, 2:0:0:0:0, 1:0:1:0:1, 4:1:0:0:1, 3:0:0:0:0, 1:0:0:0:0, 3:0:0:0:0, 4:0:0:0:0, 4:1:0:0:1, 3:0:1:0:1,  , 3:0:0:0:0, 3:0:1:0:1, 3:0:0:0:0,  , 3:0:0:0:0, 3:0:0:0:0, 3:0:0:0:0, 4:0:0:0:0, 4:1:0:0:1, 2:0:0:0:0, 3:0:0:0:0, 3:1:0:0:1, 4:0:0:0:0, 3:0:1:0:1, 1:0:0:0:0, 2:0:0:0:0, 1:0:0:0:0, 130:8:7:1:16
F minor blues (4b), 2:1:0:0:2, 2:0:0:0:2, 3:0:0:0:2, 1:0:0:0:1, 1:0:0:0:1, 2:0:0:0:1, 3:0:0:0:1, 2:0:0:0:1, 2:0:0:0:2, 3:0:0:0:2, 0:0:0:0:0, 2:0:0:0:1, 1:0:0:0:1, 1:0:0:0:1, 0:0:0:0:0, 4:0:0:0:1, 4:0:0:0:2, 2:0:0:0:1,  , 4:0:0:0:2, 0:0:0:0:0, 4:0:1:0:1, 4:0:0:0:2, 2:0:0:0:2, 2:0:0:0:1, 1:0:0:0:1, 1:0:0:0:1, 0:0:0:0:0, 1:0:0:0:0, 2:0:0:0:1, 3:0:0:0:2, 2:0:0:0:1,  , 3:0:0:0:2, 5:0:0:0:2, 3:0:0:0:2,  , 3:0:0:0:3, 3:0:0:0:2, 2:0:0:0:1, 2:0:0:0:1, 1:0:0:0:1, 1:0:0:0:0, 3:0:0:0:1, 2:0:0:0:2, 3:0:0:0:2, 5:0:0:0:2, 0:0:0:0:0, 3:0:0:0:2, 1:0:0:0:1, 101:1:1:0:60
C# minor blues (4#), 2:0:0:0:0, 3:0:0:0:0, 3:0:0:0:0, 2:1:0:0:1, 3:1:0:0:1, 2:0:0:0:0, 3:0:1:0:1, 3:0:0:0:0, 2:1:0:0:1, 2:0:0:0:0, 2:0:0:0:0, 3:0:0:0:0, 3:0:0:0:0, 2:0:0:0:0, 1:0:0:0:0, 4:0:1:0:1, 3:1:0:0:1, 5:0:0:0:0,  , 2:0:0:0:0, 1:0:0:0:0, 3:0:0:0:0, 6:0:1:1:2, 2:0:0:0:0, 1:0:1:0:1, 4:1:0:0:1, 3:0:0:0:0, 1:0:0:0:0, 3:0:0:0:0, 4:0:0:0:0, 4:1:0:0:1, 3:0:1:0:1,  , 3:0:0:0:0, 3:0:1:0:1, 3:0:0:0:0,  , 3:0:0:0:0, 3:0:0:0:0, 3:0:0:0:0, 4:0:0:0:0, 4:1:0:0:1, 2:0:0:0:0, 3:0:0:0:0, 3:1:0:0:1, 4:0:0:0:0, 3:0:1:0:1, 1:0:0:0:0, 2:0:0:0:0, 1:0:0:0:0, 130:8:7:1:16
Ab dorian (4b), 2:1:0:0:2, 2:0:0:0:2, 3:0:0:0:2, 1:0:0:0:1, 1:0:0:0:1, 2:0:0:0:1, 3:0:0:0:1, 2:0:0:0:1, 2:0:0:0:2, 3:0:0:0:2, 0:0:0:0:0, 2:0:0:0:1, 1:0:0:0:1, 1:0:0:0:1, 0:0:0:0:0, 4:0:0:0:1, 4:0:0:0:2, 2:0:0:0:1,  , 4:0:0:0:2, 0:0:0:0:0, 4:0:1:0:1, 4:0:0:0:2, 2:0:0:0:2, 2:0:0:0:1, 1:0:0:0:1, 1:0:0:0:1, 0:0:0:0:0, 1:0:0:0:0, 2:0:0:0:1, 3:0:0:0:2, 2:0:0:0:1,  , 3:0:0:0:2, 5:0:0:0:2, 3:0:0:0:2,  , 3:0:0:0:3, 3:0:0:0:2, 2:0:0:0:1, 2:0:0:0:1, 1:0:0:0:1, 1:0:0:0:0, 3:0:0:0:1, 2:0:0:0:2, 3:0:0:0:2, 5:0:0:0:2, 0:0:0:0:0, 3:0:0:0:2, 1:0:0:0:1, 101:1:1:0:60
E dorian (4#), 2:0:0:0:0, 3:0:0:0:0, 3:0:0:0:0, 2:1:0:0:1, 3:1:0:0:1, 2:0:0:0:0, 3:0:1:0:1, 3:0:0:0:0, 2:1:0:0:1, 2:0:0:0:0, 2:0:0:0:0, 3:0:0:0:0, 3:0:0:0:0, 2:0:0:0:0, 1:0:0:0:0, 4:0:1:0:1, 3:1:0:0:1, 5:0:0:0:0,  , 2:0:0:0:0, 1:0:0:0:0, 3:0:0:0:0, 6:0:1:1:2, 2:0:0:0:0, 1:0:1:0:1, 4:1:0:0:1, 3:0:0:0:0, 1:0:0:0:0, 3:0:0:0:0, 4:0:0:0:0, 4:1:0:0:1, 3:0:1:0:1,  , 3:0:0:0:0, 3:0:1:0:1, 3:0:0:0:0,  , 3:0:0:0:0, 3:0:0:0:0, 3:0:0:0:0, 4:0:0:0:0, 4:1:0:0:1, 2:0:0:0:0, 3:0:0:0:0, 3:1:0:0:1, 4:0:0:0:0, 3:0:1:0:1, 1:0:0:0:0, 2:0:0:0:0, 1:0:0:0:0, 130:8:7:1:16
Ab phrygian (4b), 2:1:0:0:2, 2:0:0:0:2, 3:0:0:0:2, 1:0:0:0:1, 1:0:0:0:1, 2:0:0:0:1, 3:0:0:0:1, 2:0:0:0:1, 2:0:0:0:2, 3:0:0:0:2, 0:0:0:0:0, 2:0:0:0:1, 1:0:0:0:1, 1:0:0:0:1, 0:0:0:0:0, 4:0:0:0:1, 4:0:0:0:2, 2:0:0:0:1,  , 4:0:0:0:2, 0:0:0:0:0, 4:0:1:0:1, 4:0:0:0:2, 2:0:0:0:2, 2:0:0:0:1, 1:0:0:0:1, 1:0:0:0:1, 0:0:0:0:0, 1:0:0:0:0, 2:0:0:0:1, 3:0:0:0:2, 2:0:0:0:1,  , 3:0:0:0:2, 5:0:0:0:2, 3:0:0:0:2,  , 3:0:0:0:3, 3:0:0:0:2, 2:0:0:0:1, 2:0:0:0:1, 1:0:0:0:1, 1:0:0:0:0, 3:0:0:0:1, 2:0:0:0:2, 3:0:0:0:2, 5:0:0:0:2, 0:0:0:0:0, 3:0:0:0:2, 1:0:0:0:1, 101:1:1:0:60
E phrygian (4#), 2:0:0:0:0, 3:0:0:0:0, 3:0:0:0:0, 2:1:0:0:1, 3:1:0:0:1, 2:0:0:0:0, 3:0:1:0:1, 3:0:0:0:0, 2:1:0:0:1, 2:0:0:0:0, 2:0:0:0:0, 3:0:0:0:0, 3:0:0:0:0, 2:0:0:0:0, 1:0:0:0:0, 4:0:1:0:1, 3:1:0:0:1, 5:0:0:0:0,  , 2:0:0:0:0, 1:0:0:0:0, 3:0:0:0:0, 6:0:1:1:2, 2:0:0:0:0, 1:0:1:0:1, 4:1:0:0:1, 3:0:0:0:0, 1:0:0:0:0, 3:0:0:0:0, 4:0:0:0:0, 4:1:0:0:1, 3:0:1:0:1,  , 3:0:0:0:0, 3:0:1:0:1, 3:0:0:0:0,  , 3:0:0:0:0, 3:0:0:0:0, 3:0:0:0:0, 4:0:0:0:0, 4:1:0:0:1, 2:0:0:0:0, 3:0:0:0:0, 3:1:0:0:1, 4:0:0:0:0, 3:0:1:0:1, 1:0:0:0:0, 2:0:0:0:0, 1:0:0:0:0, 130:8:7:1:16
Ab lydian (4b), 2:1:0:0:2, 2:0:0:0:2, 3:0:0:0:2, 1:0:0:0:1, 1:0:0:0:1, 2:0:0:0:1, 3:0:0:0:1, 2:0:0:0:1, 2:0:0:0:2, 3:0:0:0:2, 0:0:0:0:0, 2:0:0:0:1, 1:0:0:0:1, 1:0:0:0:1, 0:0:0:0:0, 4:0:0:0:1, 4:0:0:0:2, 2:0:0:0:1,  , 4:0:0:0:2, 0:0:0:0:0, 4:0:1:0:1, 4:0:0:0:2, 2:0:0:0:2, 2:0:0:0:1, 1:0:0:0:1, 1:0:0:0:1, 0:0:0:0:0, 1:0:0:0:0, 2:0:0:0:1, 3:0:0:0:2, 2:0:0:0:1,  , 3:0:0:0:2, 5:0:0:0:2, 3:0:0:0:2,  , 3:0:0:0:3, 3:0:0:0:2, 2:0:0:0:1, 2:0:0:0:1, 1:0:0:0:1, 1:0:0:0:0, 3:0:0:0:1, 2:0:0:0:2, 3:0:0:0:2, 5:0:0:0:2, 0:0:0:0:0, 3:0:0:0:2, 1:0:0:0:1, 101:1:1:0:60
E lydian (4#), 2:0:0:0:0, 3:0:0:0:0, 3:0:0:0:0, 2:1:0:0:1, 3:1:0:0:1, 2:0:0:0:0, 3:0:1:0:1, 3:0:0:0:0, 2:1:0:0:1, 2:0:0:0:0, 2:0:0:0:0, 3:0:0:0:0, 3:0:0:0:0, 2:0:0:0:0, 1:0:0:0:0, 4:0:1:0:1, 3:1:0:0:1, 5:0:0:0:0,  , 2:0:0:0:0, 1:0:0:0:0, 3:0:0:0:0, 6:0:1:1:2, 2:0:0:0:0, 1:0:1:0:1, 4:1:0:0:1, 3:0:0:0:0, 1:0:0:0:0, 3:0:0:0:0, 4:0:0:0:0, 4:1:0:0:1, 3:0:1:0:1,  , 3:0:0:0:0, 3:0:1:0:1, 3:0:0:0:0,  , 3:0:0:0:0, 3:0:0:0:0, 3:0:0:0:0, 4:0:0:0:0, 4:1:0:0:1, 2:0:0:0:0, 3:0:0:0:0, 3:1:0:0:1, 4:0:0:0:0, 3:0:1:0:1, 1:0:0:0:0, 2:0:0:0:0, 1:0:0:0:0, 130:8:7:1:16
Ab mixolydian (4b), 2:1:0:0:2, 2:0:0:0:2, 3:0:0:0:2, 1:0:0:0:1, 1:0:0:0:1, 2:0:0:0:1, 3:0:0:0:1, 2:0:0:0:1, 2:0:0:0:2, 3:0:0:0:2, 0:0:0:0:0, 2:0:0:0:1, 1:0:0:0:1, 1:0:0:0:1, 0:0:0:0:0, 4:0:0:0:1, 4:0:0:0:2, 2:0:0:0:1,  , 4:0:0:0:2, 0:0:0:0:0, 4:0:1:0:1, 4:0:0:0:2, 2:0:0:0:2, 2:0:0:0:1, 1:0:0:0:1, 1:0:0:0:1, 0:0:0:0:0, 1:0:0:0:0, 2:0:0:0:1, 3:0:0:0:2, 2:0:0:0:1,  , 3:0:0:0:2, 5:0:0:0:2, 3:0:0:0:2,  , 3:0:0:0:3, 3:0:0:0:2, 2:0:0:0:1, 2:0:0:0:1, 1:0:0:0:1, 1:0:0:0:0, 3:0:0:0:1, 2:0:0:0:2, 3:0:0:0:2, 5:0:0:0:2, 0:0:0:0:0, 3:0:0:0:2, 1:0:0:0:1, 101:1:1:0:60
E mixolydian (4#), 2:0:0:0:0, 3:0:0:0:0, 3:0:0:0:0, 2:1:0:0:1, 3:1:0:0:1, 2:0:0:0:0, 3:0:1:0:1, 3:0:0:0:0, 2:1:0:0:1, 2:0:0:0:0, 2:0:0:0:0, 3:0:0:0:0, 3:0:0:0:0, 2:0:0:0:0, 1:0:0:0:0, 4:0:1:0:1, 3:1:0:0:1, 5:0:0:0:0,  , 2:0:0:0:0, 1:0:0:0:0, 3:0:0:0:0, 6:0:1:1:2, 2:0:0:0:0, 1:0:1:0:1, 4:1:0:0:1, 3:0:0:0:0, 1:0:0:0:0, 3:0:0:0:0, 4:0:0:0:0, 4:1:0:0:1, 3:0:1:0:1,  , 3:0:0:0:0, 3:0:1:0:1, 3:0:0:0:0,  , 3:0:0:0:0, 3:0:0:0:0, 3:0:0:0:0, 4:0:0:0:0, 4:1:0:0:1, 2:0:0:0:0, 3:0:0:0:0, 3:1:0:0:1, 4:0:0:0:0, 3:0:1:0:1, 1:0:0:0:0, 2:0:0:0:0, 1:0:0:0:0, 130:8:7:1:16
Ab aeolian (4b), 2:1:0:0:2, 2:0:0:0:2, 3:0:0:0:2, 1:0:0:0:1, 1:0:0:0:1, 2:0:0:0:1, 3:0:0:0:1, 2:0:0:0:1, 2:0:0:0:2, 3:0:0:0:2, 0:0:0:0:0, 2:0:0:0:1, 1:0:0:0:1, 1:0:0:0:1, 0:0:0:0:0, 4:0:0:0:1, 4:0:0:0:2, 2:0:0:0:1,  , 4:0:0:0:2, 0:0:0:0:0, 4:0:1:0:1, 4:0:0:0:2, 2:0:0:0:2, 2:0:0:0:1, 1:0:0:0:1, 1:0:0:0:1, 0:0:0:0:0, 1:0:0:0:0, 2:0:0:0:1, 3:0:0:0:2, 2:0:0:0:1,  , 3:0:0:0:2, 5:0:0:0:2, 3:0:0:0:2,  , 3:0:0:0:3, 3:0:0:0:2, 2:0:0:0:1, 2:0:0:0:1, 1:0:0:0:1, 1:0:0:0:0, 3:0:0:0:1, 2:0:0:0:2, 3:0:0:0:2, 5:0:0:0:2, 0:0:0:0:0, 3:0:0:0:2, 1:0:0:0:1, 101:1:1:0:60
E aeolian (4#), 2:0:0:0:0, 3:0:0:0:0, 3:0:0:0:0, 2:1:0:0:1, 3:1:0:0:1, 2:0:0:0:0, 3:0:1:0:1, 3:0:0:0:0, 2:1:0:0:1, 2:0:0:0:0, 2:0:0:0:0, 3:0:0:0:0, 3:0:0:0:0, 2:0:0:0:0, 1:0:0:0:0, 4:0:1:0:1, 3:1:0:0:1, 5:0:0:0:0,  , 2:0:0:0:0, 1:0:0:0:0, 3:0:0:0:0, 6:0:1:1:2, 2:0:0:0:0, 1:0:1:0:1, 4:1:0:0:1, 3:0:0:0:0, 1:0:0:0:0, 3:0:0:0:0, 4:0:0:0:0, 4:1:0:0:1, 3:0:1:0:1,  , 3:0:0:0:0, 3:0:1:0:1, 3:0:0:0:0,  , 3:0:0:0:0, 3:0:0:0:0, 3:0:0:0:0, 4:0:0:0:0, 4:1:0:0:1, 2:0:0:0:0, 3:0:0:0:0, 3:1:0:0:1, 4:0:0:0:0, 3:0:1:0:1, 1:0:0:0:0, 2:0:0:0:0, 1:0:0:0:0, 130:8:7:1:16
Ab locrian (4b), 2:1:0:0:2, 2:0:0:0:2, 3:0:0:0:2, 1:0:0:0:1, 1:0:0:0:1, 2:0:0:0:1, 3:0:0:0:1, 2:0:0:0:1, 2:0:0:0:2, 3:0:0:0:2, 0:0:0:0:0, 2:0:0:0:1, 1:0:0:0:1, 1:0:0:0:1, 0:0:0:0:0, 4:0:0:0:1, 4:0:0:0:2, 2:0:0:0:1,  , 4:0:0:0:2, 0:0:0:0:0, 4:0:1:0:1, 4:0:0:0:2, 2:0:0:0:2, 2:0:0:0:1, 1:0:0:0:1, 1:0:0:0:1, 0:0:0:0:0, 1:0:0:0:0, 2:0:0:0:1, 3:0:0:0:2, 2:0:0:0:1,  , 3:0:0:0:2, 5:0:0:0:2, 3:0:0:0:2,  , 3:0:0:0:3, 3:0:0:0:2, 2:0:0:0:1, 2:0:0:0:1, 1:0:0:0:1, 1:0:0:0:0, 3:0:0:0:1, 2:0:0:0:2, 3:0:0:0:2, 5:0:0:0:2, 0:0:0:0:0, 3:0:0:0:2, 1:0:0:0:1, 101:1:1:0:60
E locrian (4#), 2:0:0:0:0, 3:0:0:0:0, 3:0:0:0:0, 2:1:0:0:1, 3:1:0:0:1, 2:0:0:0:0, 3:0:1:0:1, 3:0:0:0:0, 2:1:0:0:1, 2:0:0:0:0, 2:0:0:0:0, 3:0:0:0:0, 3:0:0:0:0, 2:0:0:0:0, 1:0:0:0:0, 4:0:1:0:1, 3:1:0:0:1, 5:0:0:0:0,  , 2:0:0:0:0, 1:0:0:0:0, 3:0:0:0:0, 6:0:1:1:2, 2:0:0:0:0, 1:0:1:0:1, 4:1:0:0:1, 3:0:0:0:0, 1:0:0:0:0, 3:0:0:0:0, 4:0:0:0:0, 4:1:0:0:1, 3:0:1:0:1,  , 3:0:0:0:0, 3:0:1:0:1, 3:0:0:0:0,  , 3:0:0:0:0, 3:0:0:0:0, 3:0:0:0:0, 4:0:0:0:0, 4:1:0:0:1, 2:0:0:0:0, 3:0:0:0:0, 3:1:0:0:1, 4:0:0:0:0, 3:0:1:0:1, 1:0:0:0:0, 2:0:0:0:0, 1:0:0:0:0, 130:8:7:1:16
Db major (5b), 2:0:0:0:1, 3:0:0:0:2, 4:0:0:0:3, 2:0:0:0:1, 2:0:0:0:1, 1:0:0:0:1, 2:0:0:0:1, 3:0:0:0:2, 3:0:0:0:2, 3:0:0:0:3, 1:0:0:0:0, 2:0:0:0:2, 2:0:0:0:1, 1:0:0:0:1, 0:0:0:0:0, 3:0:0:0:2, 4:0:0:0:3, 3:0:0:0:2,  , 5:0:0:0:3, 1:0:0:0:0, 4:0:1:0:2, 5:0:0:0:2, 3:0:0:0:2, 1:0:0:0:1, 2:0:0:0:1, 2:0:0:0:1, 0:0:0:0:0, 1:0:0:0:1, 3:0:0:0:2, 4:0:0:0:3, 3:0:0:0:2,  , 3:0:0:0:3, 4:0:0:0:3, 4:0:0:0:3,  , 4:0:0:0:3, 4:0:0:0:3, 2:0:0:0:2, 2:0:0:0:2, 2:0:0:0:1, 1:0:0:0:1, 4:0:0:0:2, 3:0:0:0:2, 4:0:0:0:3, 4:0:0:0:3, 1:0:0:0:0, 3:0:0:0:3, 2:0:0:0:1, 122:0:1:0:83
B major (5#), 1:0:0:0:0, 4:0:0:0:1, 4:0:0:0:0, 3:1:0:0:1, 4:0:0:1:1, 3:0:0:0:0, 4:0:1:0:0, 3:0:0:0:1, 3:0:0:1:1, 3:0:0:0:0, 2:0:0:0:0, 4:0:0:0:1, 3:0:0:0:1, 2:0:0:0:1, 1:0:0:0:0, 4:0:1:0:0, 4:1:0:0:1, 6:0:0:0:1,  , 2:0:0:0:0, 1:0:0:0:0, 3:0:0:0:1, 5:0:1:1:1, 3:0:0:0:0, 1:0:1:0:0, 4:0:0:0:1, 3:0:0:0:1, 1:0:0:0:0, 2:0:0:0:0, 5:0:0:0:1, 5:1:0:0:1, 3:0:1:0:1,  , 4:0:0:0:1, 4:0:1:0:0, 3:0:0:0:0,  , 4:0:0:0:1, 4:0:0:0:1, 3:0:0:0:1, 3:0:0:0:1, 4:0:0:0:1, 2:0:0:0:0, 3:0:0:0:1, 4:0:0:1:1, 5:0:0:0:1, 4:0:1:0:0, 1:0:0:0:0, 3:0:0:0:0, 1:0:0:0:0, 148:3:7:4:26
Bb minor (5b), 2:0:0:0:1, 3:0:0:0:2, 4:0:0:0:3, 2:0:0:0:1, 2:0:0:0:1, 1:0:0:0:1, 2:0:0:0:1, 3:0:0:0:2, 3:0:0:0:2, 3:0:0:0:3, 1:0:0:0:0, 2:0:0:0:2, 2:0:0:0:1, 1:0:0:0:1, 0:0:0:0:0, 3:0:0:0:2, 4:0:0:0:3, 3:0:0:0:2,  , 5:0:0:0:3, 1:0:0:0:0, 4:0:1:0:2, 5:0:0:0:2, 3:0:0:0:2, 1:0:0:0:1, 2:0:0:0:1, 2:0:0:0:1, 0:0:0:0:0, 1:0:0:0:1, 3:0:0:0:2, 4:0:0:0:3, 3:0:0:0:2,  , 3:0:0:0:3, 4:0:0:0:3, 4:0:0:0:3,  , 4:0:0:0:3, 4:0:0:0:3, 2:0:0:0:2, 2:0:0:0:2, 2:0:0:0:1, 1:0:0:0:1, 4:0:0:0:2, 3:0:0:0:2, 4:0:0:0:3, 4:0:0:0:3, 1:0:0:0:0, 3:0:0:0:3, 2:0:0:0:1, 122:0:1:0:83
G# minor (5#), 1:0:0:0:0, 4:0:0:0:1, 4:0:0:0:0, 3:1:0:0:1, 4:0:0:1:1, 3:0:0:0:0, 4:0:1:0:0, 3:0:0:0:1, 3:0:0:1:1, 3:0:0:0:0, 2:0:0:0:0, 4:0:0:0:1, 3:0:0:0:1, 2:0:0:0:1, 1:0:0:0:0, 4:0:1:0:0, 4:1:0:0:1, 6:0:0:0:1,  , 2:0:0:0:0, 1:0:0:0:0, 3:0:0:0:1, 5:0:1:1:1, 3:0:0:0:0, 1:0:1:0:0, 4:0:0:0:1, 3:0:0:0:1, 1:0:0:0:0, 2:0:0:0:0, 5:0:0:0:1, 5:1:0:0:1, 3:0:1:0:1,  , 4:0:0:0:1, 4:0:1:0:0, 3:0:0:0:0,  , 4:0:0:0:1, 4:0:0:0:1, 3:0:0:0:1, 3:0:0:0:1, 4:0:0:0:1, 2:0:0:0:0, 3:0:0:0:1, 4:0:0:1:1, 5:0:0:0:1, 4:0:1:0:0, 1:0:0:0:0, 3:0:0:0:0, 1:0:0:0:0, 148:3:7:4:26
Bb minor mel (5b), 2:0:0:0:1, 3:0:0:0:2, 4:0:0:0:3, 2:0:0:0:1, 2:0:0:0:1, 1:0:0:0:1, 2:0:0:0:1, 3:0:0:0:2, 3:0:0:0:2, 3:0:0:0:3, 1:0:0:0:0, 2:0:0:0:2, 2:0:0:0:1, 1:0:0:0:1, 0:0:0:0:0, 3:0:0:0:2, 4:0:0:0:3, 3:0:0:0:2,  , 5:0:0:0:3, 1:0:0:0:0, 4:0:1:0:2, 5:0:0:0:2, 3:0:0:0:2, 1:0:0:0:1, 2:0:0:0:1, 2:0:0:0:1, 0:0:0:0:0, 1:0:0:0:1, 3:0:0:0:2, 4:0:0:0:3, 3:0:0:0:2,  , 3:0:0:0:3, 4:0:0:0:3, 4:0:0:0:3,  , 4:0:0:0:3, 4:0:0:0:3, 2:0:0:0:2, 2:0:0:0:2, 2:0:0:0:1, 1:0:0:0:1, 4:0:0:0:2, 3:0:0:0:2, 4:0:0:0:3, 4:0:0:0:3, 1:0:0:0:0, 3:0:0:0:3, 2:0:0:0:1, 122:0:1:0:83
G# minor mel (5#), 1:0:0:0:0, 4:0:0:0:1, 4:0:0:0:0, 3:1:0:0:1, 4:0:0:1:1, 3:0:0:0:0, 4:0:1:0:0, 3:0:0:0:1, 3:0:0:1:1, 3:0:0:0:0, 2:0:0:0:0, 4:0:0:0:1, 3:0:0:0:1, 2:0:0:0:1, 1:0:0:0:0, 4:0:1:0:0, 4:1:0:0:1, 6:0:0:0:1,  , 2:0:0:0:0, 1:0:0:0:0, 3:0:0:0:1, 5:0:1:1:1, 3:0:0:0:0, 1:0:1:0:0, 4:0:0:0:1, 3:0:0:0:1, 1:0:0:0:0, 2:0:0:0:0, 5:0:0:0:1, 5:1:0:0:1, 3:0:1:0:1,  , 4:0:0:0:1, 4:0:1:0:0, 3:0:0:0:0,  , 4:0:0:0:1, 4:0:0:0:1, 3:0:0:0:1, 3:0:0:0:1, 4:0:0:0:1, 2:0:0:0:0, 3:0:0:0:1, 4:0:0:1:1, 5:0:0:0:1, 4:0:1:0:0, 1:0:0:0:0, 3:0:0:0:0, 1:0:0:0:0, 148:3:7:4:26
Db major blues (5b), 2:0:0:0:1, 3:0:0:0:2, 4:0:0:0:3, 2:0:0:0:1, 2:0:0:0:1, 1:0:0:0:1, 2:0:0:0:1, 3:0:0:0:2, 3:0:0:0:2, 3:0:0:0:3, 1:0:0:0:0, 2:0:0:0:2, 2:0:0:0:1, 1:0:0:0:1, 0:0:0:0:0, 3:0:0:0:2, 4:0:0:0:3, 3:0:0:0:2,  , 5:0:0:0:3, 1:0:0:0:0, 4:0:1:0:2, 5:0:0:0:2, 3:0:0:0:2, 1:0:0:0:1, 2:0:0:0:1, 2:0:0:0:1, 0:0:0:0:0, 1:0:0:0:1, 3:0:0:0:2, 4:0:0:0:3, 3:0:0:0:2,  , 3:0:0:0:3, 4:0:0:0:3, 4:0:0:0:3,  , 4:0:0:0:3, 4:0:0:0:3, 2:0:0:0:2, 2:0:0:0:2, 2:0:0:0:1, 1:0:0:0:1, 4:0:0:0:2, 3:0:0:0:2, 4:0:0:0:3, 4:0:0:0:3, 1:0:0:0:0, 3:0:0:0:3, 2:0:0:0:1, 122:0:1:0:83
B major blues (5#), 1:0:0:0:0, 4:0:0:0:1, 4:0:0:0:0, 3:1:0:0:1, 4:0:0:1:1, 3:0:0:0:0, 4:0:1:0:0, 3:0:0:0:1, 3:0:0:1:1, 3:0:0:0:0, 2:0:0:0:0, 4:0:0:0:1, 3:0:0:0:1, 2:0:0:0:1, 1:0:0:0:0, 4:0:1:0:0, 4:1:0:0:1, 6:0:0:0:1,  , 2:0:0:0:0, 1:0:0:0:0, 3:0:0:0:1, 5:0:1:1:1, 3:0:0:0:0, 1:0:1:0:0, 4:0:0:0:1, 3:0:0:0:1, 1:0:0:0:0, 2:0:0:0:0, 5:0:0:0:1, 5:1:0:0:1, 3:0:1:0:1,  , 4:0:0:0:1, 4:0:1:0:0, 3:0:0:0:0,  , 4:0:0:0:1, 4:0:0:0:1, 3:0:0:0:1, 3:0:0:0:1, 4:0:0:0:1, 2:0:0:0:0, 3:0:0:0:1, 4:0:0:1:1, 5:0:0:0:1, 4:0:1:0:0, 1:0:0:0:0, 3:0:0:0:0, 1:0:0:0:0, 148:3:7:4:26
Bb minor blues (5b), 2:0:0:0:1, 3:0:0:0:2, 4:0:0:0:3, 2:0:0:0:1, 2:0:0:0:1, 1:0:0:0:1, 2:0:0:0:1, 3:0:0:0:2, 3:0:0:0:2, 3:0:0:0:3, 1:0:0:0:0, 2:0:0:0:2, 2:0:0:0:1, 1:0:0:0:1, 0:0:0:0:0, 3:0:0:0:2, 4:0:0:0:3, 3:0:0:0:2,  , 5:0:0:0:3, 1:0:0:0:0, 4:0:1:0:2, 5:0:0:0:2, 3:0:0:0:2, 1:0:0:0:1, 2:0:0:0:1, 2:0:0:0:1, 0:0:0:0:0, 1:0:0:0:1, 3:0:0:0:2, 4:0:0:0:3, 3:0:0:0:2,  , 3:0:0:0:3, 4:0:0:0:3, 4:0:0:0:3,  , 4:0:0:0:3, 4:0:0:0:3, 2:0:0:0:2, 2:0:0:0:2, 2:0:0:0:1, 1:0:0:0:1, 4:0:0:0:2, 3:0:0:0:2, 4:0:0:0:3, 4:0:0:0:3, 1:0:0:0:0, 3:0:0:0:3, 2:0:0:0:1, 122:0:1:0:83
G# minor blues (5#), 1:0:0:0:0, 4:0:0:0:1, 4:0:0:0:0, 3:1:0:0:1, 4:0:0:1:1, 3:0:0:0:0, 4:0:1:0:0, 3:0:0:0:1, 3:0:0:1:1, 3:0:0:0:0, 2:0:0:0:0, 4:0:0:0:1, 3:0:0:0:1, 2:0:0:0:1, 1:0:0:0:0, 4:0:1:0:0, 4:1:0:0:1, 6:0:0:0:1,  , 2:0:0:0:0, 1:0:0:0:0, 3:0:0:0:1, 5:0:1:1:1, 3:0:0:0:0, 1:0:1:0:0, 4:0:0:0:1, 3:0:0:0:1, 1:0:0:0:0, 2:0:0:0:0, 5:0:0:0:1, 5:1:0:0:1, 3:0:1:0:1,  , 4:0:0:0:1, 4:0:1:0:0, 3:0:0:0:0,  , 4:0:0:0:1, 4:0:0:0:1, 3:0:0:0:1, 3:0:0:0:1, 4:0:0:0:1, 2:0:0:0:0, 3:0:0:0:1, 4:0:0:1:1, 5:0:0:0:1, 4:0:1:0:0, 1:0:0:0:0, 3:0:0:0:0, 1:0:0:0:0, 148:3:7:4:26
Db dorian (5b), 2:0:0:0:1, 3:0:0:0:2, 4:0:0:0:3, 2:0:0:0:1, 2:0:0:0:1, 1:0:0:0:1, 2:0:0:0:1, 3:0:0:0:2, 3:0:0:0:2, 3:0:0:0:3, 1:0:0:0:0, 2:0:0:0:2, 2:0:0:0:1, 1:0:0:0:1, 0:0:0:0:0, 3:0:0:0:2, 4:0:0:0:3, 3:0:0:0:2,  , 5:0:0:0:3, 1:0:0:0:0, 4:0:1:0:2, 5:0:0:0:2, 3:0:0:0:2, 1:0:0:0:1, 2:0:0:0:1, 2:0:0:0:1, 0:0:0:0:0, 1:0:0:0:1, 3:0:0:0:2, 4:0:0:0:3, 3:0:0:0:2,  , 3:0:0:0:3, 4:0:0:0:3, 4:0:0:0:3,  , 4:0:0:0:3, 4:0:0:0:3, 2:0:0:0:2, 2:0:0:0:2, 2:0:0:0:1, 1:0:0:0:1, 4:0:0:0:2, 3:0:0:0:2, 4:0:0:0:3, 4:0:0:0:3, 1:0:0:0:0, 3:0:0:0:3, 2:0:0:0:1, 122:0:1:0:83
B dorian (5#), 1:0:0:0:0, 4:0:0:0:1, 4:0:0:0:0, 3:1:0:0:1, 4:0:0:1:1, 3:0:0:0:0, 4:0:1:0:0, 3:0:0:0:1, 3:0:0:1:1, 3:0:0:0:0, 2:0:0:0:0, 4:0:0:0:1, 3:0:0:0:1, 2:0:0:0:1, 1:0:0:0:0, 4:0:1:0:0, 4:1:0:0:1, 6:0:0:0:1,  , 2:0:0:0:0, 1:0:0:0:0, 3:0:0:0:1, 5:0:1:1:1, 3:0:0:0:0, 1:0:1:0:0, 4:0:0:0:1, 3:0:0:0:1, 1:0:0:0:0, 2:0:0:0:0, 5:0:0:0:1, 5:1:0:0:1, 3:0:1:0:1,  , 4:0:0:0:1, 4:0:1:0:0, 3:0:0:0:0,  , 4:0:0:0:1, 4:0:0:0:1, 3:0:0:0:1, 3:0:0:0:1, 4:0:0:0:1, 2:0:0:0:0, 3:0:0:0:1, 4:0:0:1:1, 5:0:0:0:1, 4:0:1:0:0, 1:0:0:0:0, 3:0:0:0:0, 1:0:0:0:0, 148:3:7:4:26
Db phrygian (5b), 2:0:0:0:1, 3:0:0:0:2, 4:0:0:0:3, 2:0:0:0:1, 2:0:0:0:1, 1:0:0:0:1, 2:0:0:0:1, 3:0:0:0:2, 3:0:0:0:2, 3:0:0:0:3, 1:0:0:0:0, 2:0:0:0:2, 2:0:0:0:1, 1:0:0:0:1, 0:0:0:0:0, 3:0:0:0:2, 4:0:0:0:3, 3:0:0:0:2,  , 5:0:0:0:3, 1:0:0:0:0, 4:0:1:0:2, 5:0:0:0:2, 3:0:0:0:2, 1:0:0:0:1, 2:0:0:0:1, 2:0:0:0:1, 0:0:0:0:0, 1:0:0:0:1, 3:0:0:0:2, 4:0:0:0:3, 3:0:0:0:2,  , 3:0:0:0:3, 4:0:0:0:3, 4:0:0:0:3,  , 4:0:0:0:3, 4:0:0:0:3, 2:0:0:0:2, 2:0:0:0:2, 2:0:0:0:1, 1:0:0:0:1, 4:0:0:0:2, 3:0:0:0:2, 4:0:0:0:3, 4:0:0:0:3, 1:0:0:0:0, 3:0:0:0:3, 2:0:0:0:1, 122:0:1:0:83
B phrygian (5#), 1:0:0:0:0, 4:0:0:0:1, 4:0:0:0:0, 3:1:0:0:1, 4:0:0:1:1, 3:0:0:0:0, 4:0:1:0:0, 3:0:0:0:1, 3:0:0:1:1, 3:0:0:0:0, 2:0:0:0:0, 4:0:0:0:1, 3:0:0:0:1, 2:0:0:0:1, 1:0:0:0:0, 4:0:1:0:0, 4:1:0:0:1, 6:0:0:0:1,  , 2:0:0:0:0, 1:0:0:0:0, 3:0:0:0:1, 5:0:1:1:1, 3:0:0:0:0, 1:0:1:0:0, 4:0:0:0:1, 3:0:0:0:1, 1:0:0:0:0, 2:0:0:0:0, 5:0:0:0:1, 5:1:0:0:1, 3:0:1:0:1,  , 4:0:0:0:1, 4:0:1:0:0, 3:0:0:0:0,  , 4:0:0:0:1, 4:0:0:0:1, 3:0:0:0:1, 3:0:0:0:1, 4:0:0:0:1, 2:0:0:0:0, 3:0:0:0:1, 4:0:0:1:1, 5:0:0:0:1, 4:0:1:0:0, 1:0:0:0:0, 3:0:0:0:0, 1:0:0:0:0, 148:3:7:4:26
Db lydian (5b), 2:0:0:0:1, 3:0:0:0:2, 4:0:0:0:3, 2:0:0:0:1, 2:0:0:0:1, 1:0:0:0:1, 2:0:0:0:1, 3:0:0:0:2, 3:0:0:0:2, 3:0:0:0:3, 1:0:0:0:0, 2:0:0:0:2, 2:0:0:0:1, 1:0:0:0:1, 0:0:0:0:0, 3:0:0:0:2, 4:0:0:0:3, 3:0:0:0:2,  , 5:0:0:0:3, 1:0:0:0:0, 4:0:1:0:2, 5:0:0:0:2, 3:0:0:0:2, 1:0:0:0:1, 2:0:0:0:1, 2:0:0:0:1, 0:0:0:0:0, 1:0:0:0:1, 3:0:0:0:2, 4:0:0:0:3, 3:0:0:0:2,  , 3:0:0:0:3, 4:0:0:0:3, 4:0:0:0:3,  , 4:0:0:0:3, 4:0:0:0:3, 2:0:0:0:2, 2:0:0:0:2, 2:0:0:0:1, 1:0:0:0:1, 4:0:0:0:2, 3:0:0:0:2, 4:0:0:0:3, 4:0:0:0:3, 1:0:0:0:0, 3:0:0:0:3, 2:0:0:0:1, 122:0:1:0:83
B lydian (5#), 1:0:0:0:0, 4:0:0:0:1, 4:0:0:0:0, 3:1:0:0:1, 4:0:0:1:1, 3:0:0:0:0, 4:0:1:0:0, 3:0:0:0:1, 3:0:0:1:1, 3:0:0:0:0, 2:0:0:0:0, 4:0:0:0:1, 3:0:0:0:1, 2:0:0:0:1, 1:0:0:0:0, 4:0:1:0:0, 4:1:0:0:1, 6:0:0:0:1,  , 2:0:0:0:0, 1:0:0:0:0, 3:0:0:0:1, 5:0:1:1:1, 3:0:0:0:0, 1:0:1:0:0, 4:0:0:0:1, 3:0:0:0:1, 1:0:0:0:0, 2:0:0:0:0, 5:0:0:0:1, 5:1:0:0:1, 3:0:1:0:1,  , 4:0:0:0:1, 4:0:1:0:0, 3:0:0:0:0,  , 4:0:0:0:1, 4:0:0:0:1, 3:0:0:0:1, 3:0:0:0:1, 4:0:0:0:1, 2:0:0:0:0, 3:0:0:0:1, 4:0:0:1:1, 5:0:0:0:1, 4:0:1:0:0, 1:0:0:0:0, 3:0:0:0:0, 1:0:0:0:0, 148:3:7:4:26
Db mixolydian (5b), 2:0:0:0:1, 3:0:0:0:2, 4:0:0:0:3, 2:0:0:0:1, 2:0:0:0:1, 1:0:0:0:1, 2:0:0:0:1, 3:0:0:0:2, 3:0:0:0:2, 3:0:0:0:3, 1:0:0:0:0, 2:0:0:0:2, 2:0:0:0:1, 1:0:0:0:1, 0:0:0:0:0, 3:0:0:0:2, 4:0:0:0:3, 3:0:0:0:2,  , 5:0:0:0:3, 1:0:0:0:0, 4:0:1:0:2, 5:0:0:0:2, 3:0:0:0:2, 1:0:0:0:1, 2:0:0:0:1, 2:0:0:0:1, 0:0:0:0:0, 1:0:0:0:1, 3:0:0:0:2, 4:0:0:0:3, 3:0:0:0:2,  , 3:0:0:0:3, 4:0:0:0:3, 4:0:0:0:3,  , 4:0:0:0:3, 4:0:0:0:3, 2:0:0:0:2, 2:0:0:0:2, 2:0:0:0:1, 1:0:0:0:1, 4:0:0:0:2, 3:0:0:0:2, 4:0:0:0:3, 4:0:0:0:3, 1:0:0:0:0, 3:0:0:0:3, 2:0:0:0:1, 122:0:1:0:83
B mixolydian (5#), 1:0:0:0:0, 4:0:0:0:1, 4:0:0:0:0, 3:1:0:0:1, 4:0:0:1:1, 3:0:0:0:0, 4:0:1:0:0, 3:0:0:0:1, 3:0:0:1:1, 3:0:0:0:0, 2:0:0:0:0, 4:0:0:0:1, 3:0:0:0:1, 2:0:0:0:1, 1:0:0:0:0, 4:0:1:0:0, 4:1:0:0:1, 6:0:0:0:1,  , 2:0:0:0:0, 1:0:0:0:0, 3:0:0:0:1, 5:0:1:1:1, 3:0:0:0:0, 1:0:1:0:0, 4:0:0:0:1, 3:0:0:0:1, 1:0:0:0:0, 2:0:0:0:0, 5:0:0:0:1, 5:1:0:0:1, 3:0:1:0:1,  , 4:0:0:0:1, 4:0:1:0:0, 3:0:0:0:0,  , 4:0:0:0:1, 4:0:0:0:1, 3:0:0:0:1, 3:0:0:0:1, 4:0:0:0:1, 2:0:0:0:0, 3:0:0:0:1, 4:0:0:1:1, 5:0:0:0:1, 4:0:1:0:0, 1:0:0:0:0, 3:0:0:0:0, 1:0:0:0:0, 148:3:7:4:26
Db aeolian (5b), 2:0:0:0:1, 3:0:0:0:2, 4:0:0:0:3, 2:0:0:0:1, 2:0:0:0:1, 1:0:0:0:1, 2:0:0:0:1, 3:0:0:0:2, 3:0:0:0:2, 3:0:0:0:3, 1:0:0:0:0, 2:0:0:0:2, 2:0:0:0:1, 1:0:0:0:1, 0:0:0:0:0, 3:0:0:0:2, 4:0:0:0:3, 3:0:0:0:2,  , 5:0:0:0:3, 1:0:0:0:0, 4:0:1:0:2, 5:0:0:0:2, 3:0:0:0:2, 1:0:0:0:1, 2:0:0:0:1, 2:0:0:0:1, 0:0:0:0:0, 1:0:0:0:1, 3:0:0:0:2, 4:0:0:0:3, 3:0:0:0:2,  , 3:0:0:0:3, 4:0:0:0:3, 4:0:0:0:3,  , 4:0:0:0:3, 4:0:0:0:3, 2:0:0:0:2, 2:0:0:0:2, 2:0:0:0:1, 1:0:0:0:1, 4:0:0:0:2, 3:0:0:0:2, 4:0:0:0:3, 4:0:0:0:3, 1:0:0:0:0, 3:0:0:0:3, 2:0:0:0:1, 122:0:1:0:83
B aeolian (5#), 1:0:0:0:0, 4:0:0:0:1, 4:0:0:0:0, 3:1:0:0:1, 4:0:0:1:1, 3:0:0:0:0, 4:0:1:0:0, 3:0:0:0:1, 3:0:0:1:1, 3:0:0:0:0, 2:0:0:0:0, 4:0:0:0:1, 3:0:0:0:1, 2:0:0:0:1, 1:0:0:0:0, 4:0:1:0:0, 4:1:0:0:1, 6:0:0:0:1,  , 2:0:0:0:0, 1:0:0:0:0, 3:0:0:0:1, 5:0:1:1:1, 3:0:0:0:0, 1:0:1:0:0, 4:0:0:0:1, 3:0:0:0:1, 1:0:0:0:0, 2:0:0:0:0, 5:0:0:0:1, 5:1:0:0:1, 3:0:1:0:1,  , 4:0:0:0:1, 4:0:1:0:0, 3:0:0:0:0,  , 4:0:0:0:1, 4:0:0:0:1, 3:0:0:0:1, 3:0:0:0:1, 4:0:0:0:1, 2:0:0:0:0, 3:0:0:0:1, 4:0:0:1:1, 5:0:0:0:1, 4:0:1:0:0, 1:0:0:0:0, 3:0:0:0:0, 1:0:0:0:0, 148:3:7:4:26
Db locrian (5b), 2:0:0:0:1, 3:0:0:0:2, 4:0:0:0:3, 2:0:0:0:1, 2:0:0:0:1, 1:0:0:0:1, 2:0:0:0:1, 3:0:0:0:2, 3:0:0:0:2, 3:0:0:0:3, 1:0:0:0:0, 2:0:0:0:2, 2:0:0:0:1, 1:0:0:0:1, 0:0:0:0:0, 3:0:0:0:2, 4:0:0:0:3, 3:0:0:0:2,  , 5:0:0:0:3, 1:0:0:0:0, 4:0:1:0:2, 5:0:0:0:2, 3:0:0:0:2, 1:0:0:0:1, 2:0:0:0:1, 2:0:0:0:1, 0:0:0:0:0, 1:0:0:0:1, 3:0:0:0:2, 4:0:0:0:3, 3:0:0:0:2,  , 3:0:0:0:3, 4:0:0:0:3, 4:0:0:0:3,  , 4:0:0:0:3, 4:0:0:0:3, 2:0:0:0:2, 2:0:0:0:2, 2:0:0:0:1, 1:0:0:0:1, 4:0:0:0:2, 3:0:0:0:2, 4:0:0:0:3, 4:0:0:0:3, 1:0:0:0:0, 3:0:0:0:3, 2:0:0:0:1, 122:0:1:0:83
B locrian (5#), 1:0:0:0:0, 4:0:0:0:1, 4:0:0:0:0, 3:1:0:0:1, 4:0:0:1:1, 3:0:0:0:0, 4:0:1:0:0, 3:0:0:0:1, 3:0:0:1:1, 3:0:0:0:0, 2:0:0:0:0, 4:0:0:0:1, 3:0:0:0:1, 2:0:0:0:1, 1:0:0:0:0, 4:0:1:0:0, 4:1:0:0:1, 6:0:0:0:1,  , 2:0:0:0:0, 1:0:0:0:0, 3:0:0:0:1, 5:0:1:1:1, 3:0:0:0:0, 1:0:1:0:0, 4:0:0:0:1, 3:0:0:0:1, 1:0:0:0:0, 2:0:0:0:0, 5:0:0:0:1, 5:1:0:0:1, 3:0:1:0:1,  , 4:0:0:0:1, 4:0:1:0:0, 3:0:0:0:0,  , 4:0:0:0:1, 4:0:0:0:1, 3:0:0:0:1, 3:0:0:0:1, 4:0:0:0:1, 2:0:0:0:0, 3:0:0:0:1, 4:0:0:1:1, 5:0:0:0:1, 4:0:1:0:0, 1:0:0:0:0, 3:0:0:0:0, 1:0:0:0:0, 148:3:7:4:26
Gb major (6b), 1:0:0:0:1, 4:0:0:0:3, 5:0:0:0:4, 2:0:0:0:2, 3:0:0:0:2, 2:0:0:0:1, 2:0:0:0:2, 3:0:0:0:3, 3:0:0:0:3, 4:0:0:0:3, 2:0:0:0:1, 3:0:0:0:2, 3:0:0:0:2, 2:0:0:0:1, 1:0:0:0:0, 3:0:0:0:3, 5:0:0:0:3, 4:0:0:0:3,  , 4:0:0:0:3, 1:0:0:0:1, 4:1:2:0:2, 4:0:0:0:2, 4:0:0:0:3, 1:0:0:0:1, 3:0:0:0:2, 3:0:0:0:2, 1:0:0:0:0, 2:0:0:0:1, 4:0:0:0:3, 4:1:1:0:4, 3:0:0:0:2,  , 4:0:0:0:3, 4:1:1:0:3, 4:0:0:0:3,  , 4:1:1:0:4, 4:0:0:0:4, 3:0:0:0:2, 3:0:0:0:2, 3:0:0:0:2, 1:0:0:0:1, 4:0:0:0:3, 4:0:0:0:3, 5:0:0:0:4, 4:1:1:0:3, 1:0:0:0:1, 3:1:1:0:3, 2:0:0:0:2, 143:6:7:0:108
F# major (6#), 1:0:0:0:0, 4:1:1:0:2, 5:0:0:0:1, 3:1:0:0:1, 4:0:0:1:2, 3:0:0:0:1, 3:0:0:0:0, 3:1:1:0:1, 4:0:0:1:1, 4:0:0:0:1, 2:0:0:0:1, 3:0:0:0:1, 3:1:1:0:2, 2:0:0:0:1, 1:0:0:0:1, 4:0:0:1:1, 5:1:0:0:2, 5:0:0:0:1,  , 3:0:0:0:0, 1:0:0:0:0, 3:0:0:0:1, 4:0:0:1:2, 4:0:0:0:1, 2:0:0:0:0, 3:0:0:0:1, 3:0:0:0:1, 1:0:0:0:1, 2:0:0:0:1, 4:0:0:0:1, 5:1:0:0:2, 3:0:1:0:0,  , 4:0:0:0:1, 3:0:0:0:1, 4:0:0:0:1,  , 4:1:1:0:2, 4:0:0:0:0, 3:1:1:0:2, 3:0:0:0:1, 3:0:0:0:1, 2:0:0:0:0, 3:0:0:0:0, 5:0:0:1:2, 5:0:0:0:1, 3:0:0:0:1, 1:0:0:0:0, 3:0:0:0:1, 2:0:0:0:0, 149:8:6:5:45
Eb minor (6b), 1:0:0:0:1, 4:0:0:0:3, 5:0:0:0:4, 2:0:0:0:2, 3:0:0:0:2, 2:0:0:0:1, 2:0:0:0:2, 3:0:0:0:3, 3:0:0:0:3, 4:0:0:0:3, 2:0:0:0:1, 3:0:0:0:2, 3:0:0:0:2, 2:0:0:0:1, 1:0:0:0:0, 3:0:0:0:3, 5:0:0:0:3, 4:0:0:0:3,  , 4:0:0:0:3, 1:0:0:0:1, 4:1:2:0:2, 4:0:0:0:2, 4:0:0:0:3, 1:0:0:0:1, 3:0:0:0:2, 3:0:0:0:2, 1:0:0:0:0, 2:0:0:0:1, 4:0:0:0:3, 4:1:1:0:4, 3:0:0:0:2,  , 4:0:0:0:3, 4:1:1:0:3, 4:0:0:0:3,  , 4:1:1:0:4, 4:0:0:0:4, 3:0:0:0:2, 3:0:0:0:2, 3:0:0:0:2, 1:0:0:0:1, 4:0:0:0:3, 4:0:0:0:3, 5:0:0:0:4, 4:1:1:0:3, 1:0:0:0:1, 3:1:1:0:3, 2:0:0:0:2, 143:6:7:0:108
D# minor (6#), 1:0:0:0:0, 4:1:1:0:2, 5:0:0:0:1, 3:1:0:0:1, 4:0:0:1:2, 3:0:0:0:1, 3:0:0:0:0, 3:1:1:0:1, 4:0:0:1:1, 4:0:0:0:1, 2:0:0:0:1, 3:0:0:0:1, 3:1:1:0:2, 2:0:0:0:1, 1:0:0:0:1, 4:0:0:1:1, 5:1:0:0:2, 5:0:0:0:1,  , 3:0:0:0:0, 1:0:0:0:0, 3:0:0:0:1, 4:0:0:1:2, 4:0:0:0:1, 2:0:0:0:0, 3:0:0:0:1, 3:0:0:0:1, 1:0:0:0:1, 2:0:0:0:1, 4:0:0:0:1, 5:1:0:0:2, 3:0:1:0:0,  , 4:0:0:0:1, 3:0:0:0:1, 4:0:0:0:1,  , 4:1:1:0:2, 4:0:0:0:0, 3:1:1:0:2, 3:0:0:0:1, 3:0:0:0:1, 2:0:0:0:0, 3:0:0:0:0, 5:0:0:1:2, 5:0:0:0:1, 3:0:0:0:1, 1:0:0:0:0, 3:0:0:0:1, 2:0:0:0:0, 149:8:6:5:45
Eb minor mel (6b), 1:0:0:0:1, 4:0:0:0:3, 5:0:0:0:4, 2:0:0:0:2, 3:0:0:0:2, 2:0:0:0:1, 2:0:0:0:2, 3:0:0:0:3, 3:0:0:0:3, 4:0:0:0:3, 2:0:0:0:1, 3:0:0:0:2, 3:0:0:0:2, 2:0:0:0:1, 1:0:0:0:0, 3:0:0:0:3, 5:0:0:0:3, 4:0:0:0:3,  , 4:0:0:0:3, 1:0:0:0:1, 4:1:2:0:2, 4:0:0:0:2, 4:0:0:0:3, 1:0:0:0:1, 3:0:0:0:2, 3:0:0:0:2, 1:0:0:0:0, 2:0:0:0:1, 4:0:0:0:3, 4:1:1:0:4, 3:0:0:0:2,  , 4:0:0:0:3, 4:1:1:0:3, 4:0:0:0:3,  , 4:1:1:0:4, 4:0:0:0:4, 3:0:0:0:2, 3:0:0:0:2, 3:0:0:0:2, 1:0:0:0:1, 4:0:0:0:3, 4:0:0:0:3, 5:0:0:0:4, 4:1:1:0:3, 1:0:0:0:1, 3:1:1:0:3, 2:0:0:0:2, 143:6:7:0:108
D# minor mel (6#), 1:0:0:0:0, 4:1:1:0:2, 5:0:0:0:1, 3:1:0:0:1, 4:0:0:1:2, 3:0:0:0:1, 3:0:0:0:0, 3:1:1:0:1, 4:0:0:1:1, 4:0:0:0:1, 2:0:0:0:1, 3:0:0:0:1, 3:1:1:0:2, 2:0:0:0:1, 1:0:0:0:1, 4:0:0:1:1, 5:1:0:0:2, 5:0:0:0:1,  , 3:0:0:0:0, 1:0:0:0:0, 3:0:0:0:1, 4:0:0:1:2, 4:0:0:0:1, 2:0:0:0:0, 3:0:0:0:1, 3:0:0:0:1, 1:0:0:0:1, 2:0:0:0:1, 4:0:0:0:1, 5:1:0:0:2, 3:0:1:0:0,  , 4:0:0:0:1, 3:0:0:0:1, 4:0:0:0:1,  , 4:1:1:0:2, 4:0:0:0:0, 3:1:1:0:2, 3:0:0:0:1, 3:0:0:0:1, 2:0:0:0:0, 3:0:0:0:0, 5:0:0:1:2, 5:0:0:0:1, 3:0:0:0:1, 1:0:0:0:0, 3:0:0:0:1, 2:0:0:0:0, 149:8:6:5:45
Gb major blues (6b), 1:0:0:0:1, 4:0:0:0:3, 5:0:0:0:4, 2:0:0:0:2, 3:0:0:0:2, 2:0:0:0:1, 2:0:0:0:2, 3:0:0:0:3, 3:0:0:0:3, 4:0:0:0:3, 2:0:0:0:1, 3:0:0:0:2, 3:0:0:0:2, 2:0:0:0:1, 1:0:0:0:0, 3:0:0:0:3, 5:0:0:0:3, 4:0:0:0:3,  , 4:0:0:0:3, 1:0:0:0:1, 4:1:2:0:2, 4:0:0:0:2, 4:0:0:0:3, 1:0:0:0:1, 3:0:0:0:2, 3:0:0:0:2, 1:0:0:0:0, 2:0:0:0:1, 4:0:0:0:3, 4:1:1:0:4, 3:0:0:0:2,  , 4:0:0:0:3, 4:1:1:0:3, 4:0:0:0:3,  , 4:1:1:0:4, 4:0:0:0:4, 3:0:0:0:2, 3:0:0:0:2, 3:0:0:0:2, 1:0:0:0:1, 4:0:0:0:3, 4:0:0:0:3, 5:0:0:0:4, 4:1:1:0:3, 1:0:0:0:1, 3:1:1:0:3, 2:0:0:0:2, 143:6:7:0:108
F# major blues (6#), 1:0:0:0:0, 4:1:1:0:2, 5:0:0:0:1, 3:1:0:0:1, 4:0:0:1:2, 3:0:0:0:1, 3:0:0:0:0, 3:1:1:0:1, 4:0:0:1:1, 4:0:0:0:1, 2:0:0:0:1, 3:0:0:0:1, 3:1:1:0:2, 2:0:0:0:1, 1:0:0:0:1, 4:0:0:1:1, 5:1:0:0:2, 5:0:0:0:1,  , 3:0:0:0:0, 1:0:0:0:0, 3:0:0:0:1, 4:0:0:1:2, 4:0:0:0:1, 2:0:0:0:0, 3:0:0:0:1, 3:0:0:0:1, 1:0:0:0:1, 2:0:0:0:1, 4:0:0:0:1, 5:1:0:0:2, 3:0:1:0:0,  , 4:0:0:0:1, 3:0:0:0:1, 4:0:0:0:1,  , 4:1:1:0:2, 4:0:0:0:0, 3:1:1:0:2, 3:0:0:0:1, 3:0:0:0:1, 2:0:0:0:0, 3:0:0:0:0, 5:0:0:1:2, 5:0:0:0:1, 3:0:0:0:1, 1:0:0:0:0, 3:0:0:0:1, 2:0:0:0:0, 149:8:6:5:45
Eb minor blues (6b), 1:0:0:0:1, 4:0:0:0:3, 5:0:0:0:4, 2:0:0:0:2, 3:0:0:0:2, 2:0:0:0:1, 2:0:0:0:2, 3:0:0:0:3, 3:0:0:0:3, 4:0:0:0:3, 2:0:0:0:1, 3:0:0:0:2, 3:0:0:0:2, 2:0:0:0:1, 1:0:0:0:0, 3:0:0:0:3, 5:0:0:0:3, 4:0:0:0:3,  , 4:0:0:0:3, 1:0:0:0:1, 4:1:2:0:2, 4:0:0:0:2, 4:0:0:0:3, 1:0:0:0:1, 3:0:0:0:2, 3:0:0:0:2, 1:0:0:0:0, 2:0:0:0:1, 4:0:0:0:3, 4:1:1:0:4, 3:0:0:0:2,  , 4:0:0:0:3, 4:1:1:0:3, 4:0:0:0:3,  , 4:1:1:0:4, 4:0:0:0:4, 3:0:0:0:2, 3:0:0:0:2, 3:0:0:0:2, 1:0:0:0:1, 4:0:0:0:3, 4:0:0:0:3, 5:0:0:0:4, 4:1:1:0:3, 1:0:0:0:1, 3:1:1:0:3, 2:0:0:0:2, 143:6:7:0:108
D# minor blues (6#), 1:0:0:0:0, 4:1:1:0:2, 5:0:0:0:1, 3:1:0:0:1, 4:0:0:1:2, 3:0:0:0:1, 3:0:0:0:0, 3:1:1:0:1, 4:0:0:1:1, 4:0:0:0:1, 2:0:0:0:1, 3:0:0:0:1, 3:1:1:0:2, 2:0:0:0:1, 1:0:0:0:1, 4:0:0:1:1, 5:1:0:0:2, 5:0:0:0:1,  , 3:0:0:0:0, 1:0:0:0:0, 3:0:0:0:1, 4:0:0:1:2, 4:0:0:0:1, 2:0:0:0:0, 3:0:0:0:1, 3:0:0:0:1, 1:0:0:0:1, 2:0:0:0:1, 4:0:0:0:1, 5:1:0:0:2, 3:0:1:0:0,  , 4:0:0:0:1, 3:0:0:0:1, 4:0:0:0:1,  , 4:1:1:0:2, 4:0:0:0:0, 3:1:1:0:2, 3:0:0:0:1, 3:0:0:0:1, 2:0:0:0:0, 3:0:0:0:0, 5:0:0:1:2, 5:0:0:0:1, 3:0:0:0:1, 1:0:0:0:0, 3:0:0:0:1, 2:0:0:0:0, 149:8:6:5:45
Gb dorian (6b), 1:0:0:0:1, 4:0:0:0:3, 5:0:0:0:4, 2:0:0:0:2, 3:0:0:0:2, 2:0:0:0:1, 2:0:0:0:2, 3:0:0:0:3, 3:0:0:0:3, 4:0:0:0:3, 2:0:0:0:1, 3:0:0:0:2, 3:0:0:0:2, 2:0:0:0:1, 1:0:0:0:0, 3:0:0:0:3, 5:0:0:0:3, 4:0:0:0:3,  , 4:0:0:0:3, 1:0:0:0:1, 4:1:2:0:2, 4:0:0:0:2, 4:0:0:0:3, 1:0:0:0:1, 3:0:0:0:2, 3:0:0:0:2, 1:0:0:0:0, 2:0:0:0:1, 4:0:0:0:3, 4:1:1:0:4, 3:0:0:0:2,  , 4:0:0:0:3, 4:1:1:0:3, 4:0:0:0:3,  , 4:1:1:0:4, 4:0:0:0:4, 3:0:0:0:2, 3:0:0:0:2, 3:0:0:0:2, 1:0:0:0:1, 4:0:0:0:3, 4:0:0:0:3, 5:0:0:0:4, 4:1:1:0:3, 1:0:0:0:1, 3:1:1:0:3, 2:0:0:0:2, 143:6:7:0:108
F# dorian (6#), 1:0:0:0:0, 4:1:1:0:2, 5:0:0:0:1, 3:1:0:0:1, 4:0:0:1:2, 3:0:0:0:1, 3:0:0:0:0, 3:1:1:0:1, 4:0:0:1:1, 4:0:0:0:1, 2:0:0:0:1, 3:0:0:0:1, 3:1:1:0:2, 2:0:0:0:1, 1:0:0:0:1, 4:0:0:1:1, 5:1:0:0:2, 5:0:0:0:1,  , 3:0:0:0:0, 1:0:0:0:0, 3:0:0:0:1, 4:0:0:1:2, 4:0:0:0:1, 2:0:0:0:0, 3:0:0:0:1, 3:0:0:0:1, 1:0:0:0:1, 2:0:0:0:1, 4:0:0:0:1, 5:1:0:0:2, 3:0:1:0:0,  , 4:0:0:0:1, 3:0:0:0:1, 4:0:0:0:1,  , 4:1:1:0:2, 4:0:0:0:0, 3:1:1:0:2, 3:0:0:0:1, 3:0:0:0:1, 2:0:0:0:0, 3:0:0:0:0, 5:0:0:1:2, 5:0:0:0:1, 3:0:0:0:1, 1:0:0:0:0, 3:0:0:0:1, 2:0:0:0:0, 149:8:6:5:45
Gb phrygian (6b), 1:0:0:0:1, 4:0:0:0:3, 5:0:0:0:4, 2:0:0:0:2, 3:0:0:0:2, 2:0:0:0:1, 2:0:0:0:2, 3:0:0:0:3, 3:0:0:0:3, 4:0:0:0:3, 2:0:0:0:1, 3:0:0:0:2, 3:0:0:0:2, 2:0:0:0:1, 1:0:0:0:0, 3:0:0:0:3, 5:0:0:0:3, 4:0:0:0:3,  , 4:0:0:0:3, 1:0:0:0:1, 4:1:2:0:2, 4:0:0:0:2, 4:0:0:0:3, 1:0:0:0:1, 3:0:0:0:2, 3:0:0:0:2, 1:0:0:0:0, 2:0:0:0:1, 4:0:0:0:3, 4:1:1:0:4, 3:0:0:0:2,  , 4:0:0:0:3, 4:1:1:0:3, 4:0:0:0:3,  , 4:1:1:0:4, 4:0:0:0:4, 3:0:0:0:2, 3:0:0:0:2, 3:0:0:0:2, 1:0:0:0:1, 4:0:0:0:3, 4:0:0:0:3, 5:0:0:0:4, 4:1:1:0:3, 1:0:0:0:1, 3:1:1:0:3, 2:0:0:0:2, 143:6:7:0:108
F# phrygian (6#), 1:0:0:0:0, 4:1:1:0:2, 5:0:0:0:1, 3:1:0:0:1, 4:0:0:1:2, 3:0:0:0:1, 3:0:0:0:0, 3:1:1:0:1, 4:0:0:1:1, 4:0:0:0:1, 2:0:0:0:1, 3:0:0:0:1, 3:1:1:0:2, 2:0:0:0:1, 1:0:0:0:1, 4:0:0:1:1, 5:1:0:0:2, 5:0:0:0:1,  , 3:0:0:0:0, 1:0:0:0:0, 3:0:0:0:1, 4:0:0:1:2, 4:0:0:0:1, 2:0:0:0:0, 3:0:0:0:1, 3:0:0:0:1, 1:0:0:0:1, 2:0:0:0:1, 4:0:0:0:1, 5:1:0:0:2, 3:0:1:0:0,  , 4:0:0:0:1, 3:0:0:0:1, 4:0:0:0:1,  , 4:1:1:0:2, 4:0:0:0:0, 3:1:1:0:2, 3:0:0:0:1, 3:0:0:0:1, 2:0:0:0:0, 3:0:0:0:0, 5:0:0:1:2, 5:0:0:0:1, 3:0:0:0:1, 1:0:0:0:0, 3:0:0:0:1, 2:0:0:0:0, 149:8:6:5:45
Gb lydian (6b), 1:0:0:0:1, 4:0:0:0:3, 5:0:0:0:4, 2:0:0:0:2, 3:0:0:0:2, 2:0:0:0:1, 2:0:0:0:2, 3:0:0:0:3, 3:0:0:0:3, 4:0:0:0:3, 2:0:0:0:1, 3:0:0:0:2, 3:0:0:0:2, 2:0:0:0:1, 1:0:0:0:0, 3:0:0:0:3, 5:0:0:0:3, 4:0:0:0:3,  , 4:0:0:0:3, 1:0:0:0:1, 4:1:2:0:2, 4:0:0:0:2, 4:0:0:0:3, 1:0:0:0:1, 3:0:0:0:2, 3:0:0:0:2, 1:0:0:0:0, 2:0:0:0:1, 4:0:0:0:3, 4:1:1:0:4, 3:0:0:0:2,  , 4:0:0:0:3, 4:1:1:0:3, 4:0:0:0:3,  , 4:1:1:0:4, 4:0:0:0:4, 3:0:0:0:2, 3:0:0:0:2, 3:0:0:0:2, 1:0:0:0:1, 4:0:0:0:3, 4:0:0:0:3, 5:0:0:0:4, 4:1:1:0:3, 1:0:0:0:1, 3:1:1:0:3, 2:0:0:0:2, 143:6:7:0:108
F# lydian (6#), 1:0:0:0:0, 4:1:1:0:2, 5:0:0:0:1, 3:1:0:0:1, 4:0:0:1:2, 3:0:0:0:1, 3:0:0:0:0, 3:1:1:0:1, 4:0:0:1:1, 4:0:0:0:1, 2:0:0:0:1, 3:0:0:0:1, 3:1:1:0:2, 2:0:0:0:1, 1:0:0:0:1, 4:0:0:1:1, 5:1:0:0:2, 5:0:0:0:1,  , 3:0:0:0:0, 1:0:0:0:0, 3:0:0:0:1, 4:0:0:1:2, 4:0:0:0:1, 2:0:0:0:0, 3:0:0:0:1, 3:0:0:0:1, 1:0:0:0:1, 2:0:0:0:1, 4:0:0:0:1, 5:1:0:0:2, 3:0:1:0:0,  , 4:0:0:0:1, 3:0:0:0:1, 4:0:0:0:1,  , 4:1:1:0:2, 4:0:0:0:0, 3:1:1:0:2, 3:0:0:0:1, 3:0:0:0:1, 2:0:0:0:0, 3:0:0:0:0, 5:0:0:1:2, 5:0:0:0:1, 3:0:0:0:1, 1:0:0:0:0, 3:0:0:0:1, 2:0:0:0:0, 149:8:6:5:45
Gb mixolydian (6b), 1:0:0:0:1, 4:0:0:0:3, 5:0:0:0:4, 2:0:0:0:2, 3:0:0:0:2, 2:0:0:0:1, 2:0:0:0:2, 3:0:0:0:3, 3:0:0:0:3, 4:0:0:0:3, 2:0:0:0:1, 3:0:0:0:2, 3:0:0:0:2, 2:0:0:0:1, 1:0:0:0:0, 3:0:0:0:3, 5:0:0:0:3, 4:0:0:0:3,  , 4:0:0:0:3, 1:0:0:0:1, 4:1:2:0:2, 4:0:0:0:2, 4:0:0:0:3, 1:0:0:0:1, 3:0:0:0:2, 3:0:0:0:2, 1:0:0:0:0, 2:0:0:0:1, 4:0:0:0:3, 4:1:1:0:4, 3:0:0:0:2,  , 4:0:0:0:3, 4:1:1:0:3, 4:0:0:0:3,  , 4:1:1:0:4, 4:0:0:0:4, 3:0:0:0:2, 3:0:0:0:2, 3:0:0:0:2, 1:0:0:0:1, 4:0:0:0:3, 4:0:0:0:3, 5:0:0:0:4, 4:1:1:0:3, 1:0:0:0:1, 3:1:1:0:3, 2:0:0:0:2, 143:6:7:0:108
F# mixolydian (6#), 1:0:0:0:0, 4:1:1:0:2, 5:0:0:0:1, 3:1:0:0:1, 4:0:0:1:2, 3:0:0:0:1, 3:0:0:0:0, 3:1:1:0:1, 4:0:0:1:1, 4:0:0:0:1, 2:0:0:0:1, 3:0:0:0:1, 3:1:1:0:2, 2:0:0:0:1, 1:0:0:0:1, 4:0:0:1:1, 5:1:0:0:2, 5:0:0:0:1,  , 3:0:0:0:0, 1:0:0:0:0, 3:0:0:0:1, 4:0:0:1:2, 4:0:0:0:1, 2:0:0:0:0, 3:0:0:0:1, 3:0:0:0:1, 1:0:0:0:1, 2:0:0:0:1, 4:0:0:0:1, 5:1:0:0:2, 3:0:1:0:0,  , 4:0:0:0:1, 3:0:0:0:1, 4:0:0:0:1,  , 4:1:1:0:2, 4:0:0:0:0, 3:1:1:0:2, 3:0:0:0:1, 3:0:0:0:1, 2:0:0:0:0, 3:0:0:0:0, 5:0:0:1:2, 5:0:0:0:1, 3:0:0:0:1, 1:0:0:0:0, 3:0:0:0:1, 2:0:0:0:0, 149:8:6:5:45
Gb aeolian (6b), 1:0:0:0:1, 4:0:0:0:3, 5:0:0:0:4, 2:0:0:0:2, 3:0:0:0:2, 2:0:0:0:1, 2:0:0:0:2, 3:0:0:0:3, 3:0:0:0:3, 4:0:0:0:3, 2:0:0:0:1, 3:0:0:0:2, 3:0:0:0:2, 2:0:0:0:1, 1:0:0:0:0, 3:0:0:0:3, 5:0:0:0:3, 4:0:0:0:3,  , 4:0:0:0:3, 1:0:0:0:1, 4:1:2:0:2, 4:0:0:0:2, 4:0:0:0:3, 1:0:0:0:1, 3:0:0:0:2, 3:0:0:0:2, 1:0:0:0:0, 2:0:0:0:1, 4:0:0:0:3, 4:1:1:0:4, 3:0:0:0:2,  , 4:0:0:0:3, 4:1:1:0:3, 4:0:0:0:3,  , 4:1:1:0:4, 4:0:0:0:4, 3:0:0:0:2, 3:0:0:0:2, 3:0:0:0:2, 1:0:0:0:1, 4:0:0:0:3, 4:0:0:0:3, 5:0:0:0:4, 4:1:1:0:3, 1:0:0:0:1, 3:1:1:0:3, 2:0:0:0:2, 143:6:7:0:108
F# aeolian (6#), 1:0:0:0:0, 4:1:1:0:2, 5:0:0:0:1, 3:1:0:0:1, 4:0:0:1:2, 3:0:0:0:1, 3:0:0:0:0, 3:1:1:0:1, 4:0:0:1:1, 4:0:0:0:1, 2:0:0:0:1, 3:0:0:0:1, 3:1:1:0:2, 2:0:0:0:1, 1:0:0:0:1, 4:0:0:1:1, 5:1:0:0:2, 5:0:0:0:1,  , 3:0:0:0:0, 1:0:0:0:0, 3:0:0:0:1, 4:0:0:1:2, 4:0:0:0:1, 2:0:0:0:0, 3:0:0:0:1, 3:0:0:0:1, 1:0:0:0:1, 2:0:0:0:1, 4:0:0:0:1, 5:1:0:0:2, 3:0:1:0:0,  , 4:0:0:0:1, 3:0:0:0:1, 4:0:0:0:1,  , 4:1:1:0:2, 4:0:0:0:0, 3:1:1:0:2, 3:0:0:0:1, 3:0:0:0:1, 2:0:0:0:0, 3:0:0:0:0, 5:0:0:1:2, 5:0:0:0:1, 3:0:0:0:1, 1:0:0:0:0, 3:0:0:0:1, 2:0:0:0:0, 149:8:6:5:45
Gb locrian (6b), 1:0:0:0:1, 4:0:0:0:3, 5:0:0:0:4, 2:0:0:0:2, 3:0:0:0:2, 2:0:0:0:1, 2:0:0:0:2, 3:0:0:0:3, 3:0:0:0:3, 4:0:0:0:3, 2:0:0:0:1, 3:0:0:0:2, 3:0:0:0:2, 2:0:0:0:1, 1:0:0:0:0, 3:0:0:0:3, 5:0:0:0:3, 4:0:0:0:3,  , 4:0:0:0:3, 1:0:0:0:1, 4:1:2:0:2, 4:0:0:0:2, 4:0:0:0:3, 1:0:0:0:1, 3:0:0:0:2, 3:0:0:0:2, 1:0:0:0:0, 2:0:0:0:1, 4:0:0:0:3, 4:1:1:0:4, 3:0:0:0:2,  , 4:0:0:0:3, 4:1:1:0:3, 4:0:0:0:3,  , 4:1:1:0:4, 4:0:0:0:4, 3:0:0:0:2, 3:0:0:0:2, 3:0:0:0:2, 1:0:0:0:1, 4:0:0:0:3, 4:0:0:0:3, 5:0:0:0:4, 4:1:1:0:3, 1:0:0:0:1, 3:1:1:0:3, 2:0:0:0:2, 143:6:7:0:108
F# locrian (6#), 1:0:0:0:0, 4:1:1:0:2, 5:0:0:0:1, 3:1:0:0:1, 4:0:0:1:2, 3:0:0:0:1, 3:0:0:0:0, 3:1:1:0:1, 4:0:0:1:1, 4:0:0:0:1, 2:0:0:0:1, 3:0:0:0:1, 3:1:1:0:2, 2:0:0:0:1, 1:0:0:0:1, 4:0:0:1:1, 5:1:0:0:2, 5:0:0:0:1,  , 3:0:0:0:0, 1:0:0:0:0, 3:0:0:0:1, 4:0:0:1:2, 4:0:0:0:1, 2:0:0:0:0, 3:0:0:0:1, 3:0:0:0:1, 1:0:0:0:1, 2:0:0:0:1, 4:0:0:0:1, 5:1:0:0:2, 3:0:1:0:0,  , 4:0:0:0:1, 3:0:0:0:1, 4:0:0:0:1,  , 4:1:1:0:2, 4:0:0:0:0, 3:1:1:0:2, 3:0:0:0:1, 3:0:0:0:1, 2:0:0:0:0, 3:0:0:0:0, 5:0:0:1:2, 5:0:0:0:1, 3:0:0:0:1, 1:0:0:0:0, 3:0:0:0:1, 2:0:0:0:0, 149:8:6:5:45
Cb major (7b), 1:0:0:0:1, 4:0:0:0:3, 4:0:0:0:4, 2:0:0:0:2, 3:0:0:0:3, 2:0:0:0:2, 3:0:0:0:2, 3:1:1:0:3, 2:0:0:0:2, 3:0:0:0:3, 2:0:0:0:2, 4:0:0:0:3, 3:1:1:0:3, 2:1:1:0:2, 1:0:0:0:1, 3:1:1:0:3, 4:0:0:0:3, 5:0:0:0:4,  , 3:0:0:0:2, 1:0:0:0:1, 5:1:1:0:2, 5:0:0:0:3, 3:0:0:0:3, 1:0:0:0:0, 4:0:0:0:3, 3:1:1:0:3, 1:0:0:0:1, 2:0:0:0:2, 5:0:0:0:4, 4:1:1:0:4, 3:0:0:0:3,  , 4:1:1:0:4, 5:1:1:0:3, 3:0:0:0:3,  , 4:1:1:0:3, 4:1:1:0:4, 3:0:0:0:2, 3:1:1:0:3, 4:0:0:0:3, 1:0:0:0:1, 4:1:1:0:3, 3:0:0:0:3, 5:1:1:0:5, 5:1:1:0:3, 1:0:0:0:1, 3:1:1:0:3, 1:0:0:0:1, 144:16:16:0:122
C# major (7#), 2:0:0:0:1, 3:1:1:0:2, 4:0:0:0:1, 3:1:0:0:2, 3:0:0:1:2, 2:0:0:0:0, 3:0:0:0:1, 3:1:1:0:2, 4:0:0:1:2, 3:0:0:0:0, 1:0:0:0:1, 2:0:0:0:0, 2:1:1:0:2, 1:0:0:0:0, 0:0:0:0:0, 4:0:0:1:2, 5:0:0:0:0, 4:0:0:0:1,  , 4:0:0:0:1, 1:0:0:0:1, 3:0:0:0:0, 4:1:1:1:1, 3:0:0:0:1, 2:0:0:0:0, 2:0:0:0:1, 2:0:0:0:1, 0:0:0:0:0, 1:0:0:0:0, 3:0:0:0:1, 5:1:1:1:3, 4:0:0:0:1,  , 3:0:0:0:0, 3:0:0:0:0, 4:1:1:0:2,  , 4:1:1:0:2, 4:0:0:0:1, 2:1:1:0:1, 2:0:0:0:0, 2:0:0:0:1, 2:0:0:0:0, 3:0:0:0:1, 4:0:0:1:2, 4:0:0:0:1, 3:0:0:0:0, 1:0:0:0:1, 3:1:1:0:1, 2:0:0:0:1, 129:10:9:6:44
Ab minor (7b), 1:0:0:0:1, 4:0:0:0:3, 4:0:0:0:4, 2:0:0:0:2, 3:0:0:0:3, 2:0:0:0:2, 3:0:0:0:2, 3:1:1:0:3, 2:0:0:0:2, 3:0:0:0:3, 2:0:0:0:2, 4:0:0:0:3, 3:1:1:0:3, 2:1:1:0:2, 1:0:0:0:1, 3:1:1:0:3, 4:0:0:0:3, 5:0:0:0:4,  , 3:0:0:0:2, 1:0:0:0:1, 5:1:1:0:2, 5:0:0:0:3, 3:0:0:0:3, 1:0:0:0:0, 4:0:0:0:3, 3:1:1:0:3, 1:0:0:0:1, 2:0:0:0:2, 5:0:0:0:4, 4:1:1:0:4, 3:0:0:0:3,  , 4:1:1:0:4, 5:1:1:0:3, 3:0:0:0:3,  , 4:1:1:0:3, 4:1:1:0:4, 3:0:0:0:2, 3:1:1:0:3, 4:0:0:0:3, 1:0:0:0:1, 4:1:1:0:3, 3:0:0:0:3, 5:1:1:0:5, 5:1:1:0:3, 1:0:0:0:1, 3:1:1:0:3, 1:0:0:0:1, 144:16:16:0:122
A# minor (7#), 2:0:0:0:1, 3:1:1:0:2, 4:0:0:0:1, 3:1:0:0:2, 3:0:0:1:2, 2:0:0:0:0, 3:0:0:0:1, 3:1:1:0:2, 4:0:0:1:2, 3:0:0:0:0, 1:0:0:0:1, 2:0:0:0:0, 2:1:1:0:2, 1:0:0:0:0, 0:0:0:0:0, 4:0:0:1:2, 5:0:0:0:0, 4:0:0:0:1,  , 4:0:0:0:1, 1:0:0:0:1, 3:0:0:0:0, 4:1:1:1:1, 3:0:0:0:1, 2:0:0:0:0, 2:0:0:0:1, 2:0:0:0:1, 0:0:0:0:0, 1:0:0:0:0, 3:0:0:0:1, 5:1:1:1:3, 4:0:0:0:1,  , 3:0:0:0:0, 3:0:0:0:0, 4:1:1:0:2,  , 4:1:1:0:2, 4:0:0:0:1, 2:1:1:0:1, 2:0:0:0:0, 2:0:0:0:1, 2:0:0:0:0, 3:0:0:0:1, 4:0:0:1:2, 4:0:0:0:1, 3:0:0:0:0, 1:0:0:0:1, 3:1:1:0:1, 2:0:0:0:1, 129:10:9:6:44
Ab minor mel (7b), 1:0:0:0:1, 4:0:0:0:3, 4:0:0:0:4, 2:0:0:0:2, 3:0:0:0:3, 2:0:0:0:2, 3:0:0:0:2, 3:1:1:0:3, 2:0:0:0:2, 3:0:0:0:3, 2:0:0:0:2, 4:0:0:0:3, 3:1:1:0:3, 2:1:1:0:2, 1:0:0:0:1, 3:1:1:0:3, 4:0:0:0:3, 5:0:0:0:4,  , 3:0:0:0:2, 1:0:0:0:1, 5:1:1:0:2, 5:0:0:0:3, 3:0:0:0:3, 1:0:0:0:0, 4:0:0:0:3, 3:1:1:0:3, 1:0:0:0:1, 2:0:0:0:2, 5:0:0:0:4, 4:1:1:0:4, 3:0:0:0:3,  , 4:1:1:0:4, 5:1:1:0:3, 3:0:0:0:3,  , 4:1:1:0:3, 4:1:1:0:4, 3:0:0:0:2, 3:1:1:0:3, 4:0:0:0:3, 1:0:0:0:1, 4:1:1:0:3, 3:0:0:0:3, 5:1:1:0:5, 5:1:1:0:3, 1:0:0:0:1, 3:1:1:0:3, 1:0:0:0:1, 144:16:16:0:122
A# minor mel (7#), 2:0:0:0:1, 3:1:1:0:2, 4:0:0:0:1, 3:1:0:0:2, 3:0:0:1:2, 2:0:0:0:0, 3:0:0:0:1, 3:1:1:0:2, 4:0:0:1:2, 3:0:0:0:0, 1:0:0:0:1, 2:0:0:0:0, 2:1:1:0:2, 1:0:0:0:0, 0:0:0:0:0, 4:0:0:1:2, 5:0:0:0:0, 4:0:0:0:1,  , 4:0:0:0:1, 1:0:0:0:1, 3:0:0:0:0, 4:1:1:1:1, 3:0:0:0:1, 2:0:0:0:0, 2:0:0:0:1, 2:0:0:0:1, 0:0:0:0:0, 1:0:0:0:0, 3:0:0:0:1, 5:1:1:1:3, 4:0:0:0:1,  , 3:0:0:0:0, 3:0:0:0:0, 4:1:1:0:2,  , 4:1:1:0:2, 4:0:0:0:1, 2:1:1:0:1, 2:0:0:0:0, 2:0:0:0:1, 2:0:0:0:0, 3:0:0:0:1, 4:0:0:1:2, 4:0:0:0:1, 3:0:0:0:0, 1:0:0:0:1, 3:1:1:0:1, 2:0:0:0:1, 129:10:9:6:44
Cb major blues (7b), 1:0:0:0:1, 4:0:0:0:3, 4:0:0:0:4, 2:0:0:0:2, 3:0:0:0:3, 2:0:0:0:2, 3:0:0:0:2, 3:1:1:0:3, 2:0:0:0:2, 3:0:0:0:3, 2:0:0:0:2, 4:0:0:0:3, 3:1:1:0:3, 2:1:1:0:2, 1:0:0:0:1, 3:1:1:0:3, 4:0:0:0:3, 5:0:0:0:4,  , 3:0:0:0:2, 1:0:0:0:1, 5:1:1:0:2, 5:0:0:0:3, 3:0:0:0:3, 1:0:0:0:0, 4:0:0:0:3, 3:1:1:0:3, 1:0:0:0:1, 2:0:0:0:2, 5:0:0:0:4, 4:1:1:0:4, 3:0:0:0:3,  , 4:1:1:0:4, 5:1:1:0:3, 3:0:0:0:3,  , 4:1:1:0:3, 4:1:1:0:4, 3:0:0:0:2, 3:1:1:0:3, 4:0:0:0:3, 1:0:0:0:1, 4:1:1:0:3, 3:0:0:0:3, 5:1:1:0:5, 5:1:1:0:3, 1:0:0:0:1, 3:1:1:0:3, 1:0:0:0:1, 144:16:16:0:122
C# major blues (7#), 2:0:0:0:1, 3:1:1:0:2, 4:0:0:0:1, 3:1:0:0:2, 3:0:0:1:2, 2:0:0:0:0, 3:0:0:0:1, 3:1:1:0:2, 4:0:0:1:2, 3:0:0:0:0, 1:0:0:0:1, 2:0:0:0:0, 2:1:1:0:2, 1:0:0:0:0, 0:0:0:0:0, 4:0:0:1:2, 5:0:0:0:0, 4:0:0:0:1,  , 4:0:0:0:1, 1:0:0:0:1, 3:0:0:0:0, 4:1:1:1:1, 3:0:0:0:1, 2:0:0:0:0, 2:0:0:0:1, 2:0:0:0:1, 0:0:0:0:0, 1:0:0:0:0, 3:0:0:0:1, 5:1:1:1:3, 4:0:0:0:1,  , 3:0:0:0:0, 3:0:0:0:0, 4:1:1:0:2,  , 4:1:1:0:2, 4:0:0:0:1, 2:1:1:0:1, 2:0:0:0:0, 2:0:0:0:1, 2:0:0:0:0, 3:0:0:0:1, 4:0:0:1:2, 4:0:0:0:1, 3:0:0:0:0, 1:0:0:0:1, 3:1:1:0:1, 2:0:0:0:1, 129:10:9:6:44
Ab minor blues (7b), 1:0:0:0:1, 4:0:0:0:3, 4:0:0:0:4, 2:0:0:0:2, 3:0:0:0:3, 2:0:0:0:2, 3:0:0:0:2, 3:1:1:0:3, 2:0:0:0:2, 3:0:0:0:3, 2:0:0:0:2, 4:0:0:0:3, 3:1:1:0:3, 2:1:1:0:2, 1:0:0:0:1, 3:1:1:0:3, 4:0:0:0:3, 5:0:0:0:4,  , 3:0:0:0:2, 1:0:0:0:1, 5:1:1:0:2, 5:0:0:0:3, 3:0:0:0:3, 1:0:0:0:0, 4:0:0:0:3, 3:1:1:0:3, 1:0:0:0:1, 2:0:0:0:2, 5:0:0:0:4, 4:1:1:0:4, 3:0:0:0:3,  , 4:1:1:0:4, 5:1:1:0:3, 3:0:0:0:3,  , 4:1:1:0:3, 4:1:1:0:4, 3:0:0:0:2, 3:1:1:0:3, 4:0:0:0:3, 1:0:0:0:1, 4:1:1:0:3, 3:0:0:0:3, 5:1:1:0:5, 5:1:1:0:3, 1:0:0:0:1, 3:1:1:0:3, 1:0:0:0:1, 144:16:16:0:122
A# minor blues (7#), 2:0:0:0:1, 3:1:1:0:2, 4:0:0:0:1, 3:1:0:0:2, 3:0:0:1:2, 2:0:0:0:0, 3:0:0:0:1, 3:1:1:0:2, 4:0:0:1:2, 3:0:0:0:0, 1:0:0:0:1, 2:0:0:0:0, 2:1:1:0:2, 1:0:0:0:0, 0:0:0:0:0, 4:0:0:1:2, 5:0:0:0:0, 4:0:0:0:1,  , 4:0:0:0:1, 1:0:0:0:1, 3:0:0:0:0, 4:1:1:1:1, 3:0:0:0:1, 2:0:0:0:0, 2:0:0:0:1, 2:0:0:0:1, 0:0:0:0:0, 1:0:0:0:0, 3:0:0:0:1, 5:1:1:1:3, 4:0:0:0:1,  , 3:0:0:0:0, 3:0:0:0:0, 4:1:1:0:2,  , 4:1:1:0:2, 4:0:0:0:1, 2:1:1:0:1, 2:0:0:0:0, 2:0:0:0:1, 2:0:0:0:0, 3:0:0:0:1, 4:0:0:1:2, 4:0:0:0:1, 3:0:0:0:0, 1:0:0:0:1, 3:1:1:0:1, 2:0:0:0:1, 129:10:9:6:44
Cb dorian (7b), 1:0:0:0:1, 4:0:0:0:3, 4:0:0:0:4, 2:0:0:0:2, 3:0:0:0:3, 2:0:0:0:2, 3:0:0:0:2, 3:1:1:0:3, 2:0:0:0:2, 3:0:0:0:3, 2:0:0:0:2, 4:0:0:0:3, 3:1:1:0:3, 2:1:1:0:2, 1:0:0:0:1, 3:1:1:0:3, 4:0:0:0:3, 5:0:0:0:4,  , 3:0:0:0:2, 1:0:0:0:1, 5:1:1:0:2, 5:0:0:0:3, 3:0:0:0:3, 1:0:0:0:0, 4:0:0:0:3, 3:1:1:0:3, 1:0:0:0:1, 2:0:0:0:2, 5:0:0:0:4, 4:1:1:0:4, 3:0:0:0:3,  , 4:1:1:0:4, 5:1:1:0:3, 3:0:0:0:3,  , 4:1:1:0:3, 4:1:1:0:4, 3:0:0:0:2, 3:1:1:0:3, 4:0:0:0:3, 1:0:0:0:1, 4:1:1:0:3, 3:0:0:0:3, 5:1:1:0:5, 5:1:1:0:3, 1:0:0:0:1, 3:1:1:0:3, 1:0:0:0:1, 144:16:16:0:122
C# dorian (7#), 2:0:0:0:1, 3:1:1:0:2, 4:0:0:0:1, 3:1:0:0:2, 3:0:0:1:2, 2:0:0:0:0, 3:0:0:0:1, 3:1:1:0:2, 4:0:0:1:2, 3:0:0:0:0, 1:0:0:0:1, 2:0:0:0:0, 2:1:1:0:2, 1:0:0:0:0, 0:0:0:0:0, 4:0:0:1:2, 5:0:0:0:0, 4:0:0:0:1,  , 4:0:0:0:1, 1:0:0:0:1, 3:0:0:0:0, 4:1:1:1:1, 3:0:0:0:1, 2:0:0:0:0, 2:0:0:0:1, 2:0:0:0:1, 0:0:0:0:0, 1:0:0:0:0, 3:0:0:0:1, 5:1:1:1:3, 4:0:0:0:1,  , 3:0:0:0:0, 3:0:0:0:0, 4:1:1:0:2,  , 4:1:1:0:2, 4:0:0:0:1, 2:1:1:0:1, 2:0:0:0:0, 2:0:0:0:1, 2:0:0:0:0, 3:0:0:0:1, 4:0:0:1:2, 4:0:0:0:1, 3:0:0:0:0, 1:0:0:0:1, 3:1:1:0:1, 2:0:0:0:1, 129:10:9:6:44
Cb phrygian (7b), 1:0:0:0:1, 4:0:0:0:3, 4:0:0:0:4, 2:0:0:0:2, 3:0:0:0:3, 2:0:0:0:2, 3:0:0:0:2, 3:1:1:0:3, 2:0:0:0:2, 3:0:0:0:3, 2:0:0:0:2, 4:0:0:0:3, 3:1:1:0:3, 2:1:1:0:2, 1:0:0:0:1, 3:1:1:0:3, 4:0:0:0:3, 5:0:0:0:4,  , 3:0:0:0:2, 1:0:0:0:1, 5:1:1:0:2, 5:0:0:0:3, 3:0:0:0:3, 1:0:0:0:0, 4:0:0:0:3, 3:1:1:0:3, 1:0:0:0:1, 2:0:0:0:2, 5:0:0:0:4, 4:1:1:0:4, 3:0:0:0:3,  , 4:1:1:0:4, 5:1:1:0:3, 3:0:0:0:3,  , 4:1:1:0:3, 4:1:1:0:4, 3:0:0:0:2, 3:1:1:0:3, 4:0:0:0:3, 1:0:0:0:1, 4:1:1:0:3, 3:0:0:0:3, 5:1:1:0:5, 5:1:1:0:3, 1:0:0:0:1, 3:1:1:0:3, 1:0:0:0:1, 144:16:16:0:122
C# phrygian (7#), 2:0:0:0:1, 3:1:1:0:2, 4:0:0:0:1, 3:1:0:0:2, 3:0:0:1:2, 2:0:0:0:0, 3:0:0:0:1, 3:1:1:0:2, 4:0:0:1:2, 3:0:0:0:0, 1:0:0:0:1, 2:0:0:0:0, 2:1:1:0:2, 1:0:0:0:0, 0:0:0:0:0, 4:0:0:1:2, 5:0:0:0:0, 4:0:0:0:1,  , 4:0:0:0:1, 1:0:0:0:1, 3:0:0:0:0, 4:1:1:1:1, 3:0:0:0:1, 2:0:0:0:0, 2:0:0:0:1, 2:0:0:0:1, 0:0:0:0:0, 1:0:0:0:0, 3:0:0:0:1, 5:1:1:1:3, 4:0:0:0:1,  , 3:0:0:0:0, 3:0:0:0:0, 4:1:1:0:2,  , 4:1:1:0:2, 4:0:0:0:1, 2:1:1:0:1, 2:0:0:0:0, 2:0:0:0:1, 2:0:0:0:0, 3:0:0:0:1, 4:0:0:1:2, 4:0:0:0:1, 3:0:0:0:0, 1:0:0:0:1, 3:1:1:0:1, 2:0:0:0:1, 129:10:9:6:44
Cb lydian (7b), 1:0:0:0:1, 4:0:0:0:3, 4:0:0:0:4, 2:0:0:0:2, 3:0:0:0:3, 2:0:0:0:2, 3:0:0:0:2, 3:1:1:0:3, 2:0:0:0:2, 3:0:0:0:3, 2:0:0:0:2, 4:0:0:0:3, 3:1:1:0:3, 2:1:1:0:2, 1:0:0:0:1, 3:1:1:0:3, 4:0:0:0:3, 5:0:0:0:4,  , 3:0:0:0:2, 1:0:0:0:1, 5:1:1:0:2, 5:0:0:0:3, 3:0:0:0:3, 1:0:0:0:0, 4:0:0:0:3, 3:1:1:0:3, 1:0:0:0:1, 2:0:0:0:2, 5:0:0:0:4, 4:1:1:0:4, 3:0:0:0:3,  , 4:1:1:0:4, 5:1:1:0:3, 3:0:0:0:3,  , 4:1:1:0:3, 4:1:1:0:4, 3:0:0:0:2, 3:1:1:0:3, 4:0:0:0:3, 1:0:0:0:1, 4:1:1:0:3, 3:0:0:0:3, 5:1:1:0:5, 5:1:1:0:3, 1:0:0:0:1, 3:1:1:0:3, 1:0:0:0:1, 144:16:16:0:122
C# lydian (7#), 2:0:0:0:1, 3:1:1:0:2, 4:0:0:0:1, 3:1:0:0:2, 3:0:0:1:2, 2:0:0:0:0, 3:0:0:0:1, 3:1:1:0:2, 4:0:0:1:2, 3:0:0:0:0, 1:0:0:0:1, 2:0:0:0:0, 2:1:1:0:2, 1:0:0:0:0, 0:0:0:0:0, 4:0:0:1:2, 5:0:0:0:0, 4:0:0:0:1,  , 4:0:0:0:1, 1:0:0:0:1, 3:0:0:0:0, 4:1:1:1:1, 3:0:0:0:1, 2:0:0:0:0, 2:0:0:0:1, 2:0:0:0:1, 0:0:0:0:0, 1:0:0:0:0, 3:0:0:0:1, 5:1:1:1:3, 4:0:0:0:1,  , 3:0:0:0:0, 3:0:0:0:0, 4:1:1:0:2,  , 4:1:1:0:2, 4:0:0:0:1, 2:1:1:0:1, 2:0:0:0:0, 2:0:0:0:1, 2:0:0:0:0, 3:0:0:0:1, 4:0:0:1:2, 4:0:0:0:1, 3:0:0:0:0, 1:0:0:0:1, 3:1:1:0:1, 2:0:0:0:1, 129:10:9:6:44
Cb mixolydian (7b), 1:0:0:0:1, 4:0:0:0:3, 4:0:0:0:4, 2:0:0:0:2, 3:0:0:0:3, 2:0:0:0:2, 3:0:0:0:2, 3:1:1:0:3, 2:0:0:0:2, 3:0:0:0:3, 2:0:0:0:2, 4:0:0:0:3, 3:1:1:0:3, 2:1:1:0:2, 1:0:0:0:1, 3:1:1:0:3, 4:0:0:0:3, 5:0:0:0:4,  , 3:0:0:0:2, 1:0:0:0:1, 5:1:1:0:2, 5:0:0:0:3, 3:0:0:0:3, 1:0:0:0:0, 4:0:0:0:3, 3:1:1:0:3, 1:0:0:0:1, 2:0:0:0:2, 5:0:0:0:4, 4:1:1:0:4, 3:0:0:0:3,  , 4:1:1:0:4, 5:1:1:0:3, 3:0:0:0:3,  , 4:1:1:0:3, 4:1:1:0:4, 3:0:0:0:2, 3:1:1:0:3, 4:0:0:0:3, 1:0:0:0:1, 4:1:1:0:3, 3:0:0:0:3, 5:1:1:0:5, 5:1:1:0:3, 1:0:0:0:1, 3:1:1:0:3, 1:0:0:0:1, 144:16:16:0:122
C# mixolydian (7#), 2:0:0:0:1, 3:1:1:0:2, 4:0:0:0:1, 3:1:0:0:2, 3:0:0:1:2, 2:0:0:0:0, 3:0:0:0:1, 3:1:1:0:2, 4:0:0:1:2, 3:0:0:0:0, 1:0:0:0:1, 2:0:0:0:0, 2:1:1:0:2, 1:0:0:0:0, 0:0:0:0:0, 4:0:0:1:2, 5:0:0:0:0, 4:0:0:0:1,  , 4:0:0:0:1, 1:0:0:0:1, 3:0:0:0:0, 4:1:1:1:1, 3:0:0:0:1, 2:0:0:0:0, 2:0:0:0:1, 2:0:0:0:1, 0:0:0:0:0, 1:0:0:0:0, 3:0:0:0:1, 5:1:1:1:3, 4:0:0:0:1,  , 3:0:0:0:0, 3:0:0:0:0, 4:1:1:0:2,  , 4:1:1:0:2, 4:0:0:0:1, 2:1:1:0:1, 2:0:0:0:0, 2:0:0:0:1, 2:0:0:0:0, 3:0:0:0:1, 4:0:0:1:2, 4:0:0:0:1, 3:0:0:0:0, 1:0:0:0:1, 3:1:1:0:1, 2:0:0:0:1, 129:10:9:6:44
Cb aeolian (7b), 1:0:0:0:1, 4:0:0:0:3, 4:0:0:0:4, 2:0:0:0:2, 3:0:0:0:3, 2:0:0:0:2, 3:0:0:0:2, 3:1:1:0:3, 2:0:0:0:2, 3:0:0:0:3, 2:0:0:0:2, 4:0:0:0:3, 3:1:1:0:3, 2:1:1:0:2, 1:0:0:0:1, 3:1:1:0:3, 4:0:0:0:3, 5:0:0:0:4,  , 3:0:0:0:2, 1:0:0:0:1, 5:1:1:0:2, 5:0:0:0:3, 3:0:0:0:3, 1:0:0:0:0, 4:0:0:0:3, 3:1:1:0:3, 1:0:0:0:1, 2:0:0:0:2, 5:0:0:0:4, 4:1:1:0:4, 3:0:0:0:3,  , 4:1:1:0:4, 5:1:1:0:3, 3:0:0:0:3,  , 4:1:1:0:3, 4:1:1:0:4, 3:0:0:0:2, 3:1:1:0:3, 4:0:0:0:3, 1:0:0:0:1, 4:1:1:0:3, 3:0:0:0:3, 5:1:1:0:5, 5:1:1:0:3, 1:0:0:0:1, 3:1:1:0:3, 1:0:0:0:1, 144:16:16:0:122
C# aeolian (7#), 2:0:0:0:1, 3:1:1:0:2, 4:0:0:0:1, 3:1:0:0:2, 3:0:0:1:2, 2:0:0:0:0, 3:0:0:0:1, 3:1:1:0:2, 4:0:0:1:2, 3:0:0:0:0, 1:0:0:0:1, 2:0:0:0:0, 2:1:1:0:2, 1:0:0:0:0, 0:0:0:0:0, 4:0:0:1:2, 5:0:0:0:0, 4:0:0:0:1,  , 4:0:0:0:1, 1:0:0:0:1, 3:0:0:0:0, 4:1:1:1:1, 3:0:0:0:1, 2:0:0:0:0, 2:0:0:0:1, 2:0:0:0:1, 0:0:0:0:0, 1:0:0:0:0, 3:0:0:0:1, 5:1:1:1:3, 4:0:0:0:1,  , 3:0:0:0:0, 3:0:0:0:0, 4:1:1:0:2,  , 4:1:1:0:2, 4:0:0:0:1, 2:1:1:0:1, 2:0:0:0:0, 2:0:0:0:1, 2:0:0:0:0, 3:0:0:0:1, 4:0:0:1:2, 4:0:0:0:1, 3:0:0:0:0, 1:0:0:0:1, 3:1:1:0:1, 2:0:0:0:1, 129:10:9:6:44
Cb locrian (7b), 1:0:0:0:1, 4:0:0:0:3, 4:0:0:0:4, 2:0:0:0:2, 3:0:0:0:3, 2:0:0:0:2, 3:0:0:0:2, 3:1:1:0:3, 2:0:0:0:2, 3:0:0:0:3, 2:0:0:0:2, 4:0:0:0:3, 3:1:1:0:3, 2:1:1:0:2, 1:0:0:0:1, 3:1:1:0:3, 4:0:0:0:3, 5:0:0:0:4,  , 3:0:0:0:2, 1:0:0:0:1, 5:1:1:0:2, 5:0:0:0:3, 3:0:0:0:3, 1:0:0:0:0, 4:0:0:0:3, 3:1:1:0:3, 1:0:0:0:1, 2:0:0:0:2, 5:0:0:0:4, 4:1:1:0:4, 3:0:0:0:3,  , 4:1:1:0:4, 5:1:1:0:3, 3:0:0:0:3,  , 4:1:1:0:3, 4:1:1:0:4, 3:0:0:0:2, 3:1:1:0:3, 4:0:0:0:3, 1:0:0:0:1, 4:1:1:0:3, 3:0:0:0:3, 5:1:1:0:5, 5:1:1:0:3, 1:0:0:0:1, 3:1:1:0:3, 1:0:0:0:1, 144:16:16:0:122
C# locrian (7#), 2:0:0:0:1, 3:1:1:0:2, 4:0:0:0:1, 3:1:0:0:2, 3:0:0:1:2, 2:0:0:0:0, 3:0:0:0:1, 3:1:1:0:2, 4:0:0:1:2, 3:0:0:0:0, 1:0:0:0:1, 2:0:0:0:0, 2:1:1:0:2, 1:0:0:0:0, 0:0:0:0:0, 4:0:0:1:2, 5:0:0:0:0, 4:0:0:0:1,  , 4:0:0:0:1, 1:0:0:0:1, 3:0:0:0:0, 4:1:1:1:1, 3:0:0:0:1, 2:0:0:0:0, 2:0:0:0:1, 2:0:0:0:1, 0:0:0:0:0, 1:0:0:0:0, 3:0:0:0:1, 5:1:1:1:3, 4:0:0:0:1,  , 3:0:0:0:0, 3:0:0:0:0, 4:1:1:0:2,  , 4:1:1:0:2, 4:0:0:0:1, 2:1:1:0:1, 2:0:0:0:0, 2:0:0:0:1, 2:0:0:0:0, 3:0:0:0:1, 4:0:0:1:2, 4:0:0:0:1, 3:0:0:0:0, 1:0:0:0:1, 3:1:1:0:1, 2:0:0:0:1, 129:10:9:6:44
