 , 0, 1, 2, 3, 4, 5, 6, 7, 8, 9, 10, 11, 12, 13, 14, 15, 16, 17, 18, 19, 20, 21, 22, 23, 24, 25, 26, 27, 28, 29, 30, 31, 32, 33, 34, 35, 36, 37, 38, 39, 40, 41, 42, 43, 44, 45, 46, 47, 48, 49, 50, 51, 52, 53, 54, 55, 56, 57, 58, 59, 60, 61, 62, 63, 64, 65, 66, 67, 68, 69, 70, 71, 72, 73, 74, 75, 76, 77, 78, 79, 80, 81, 82, 83, 84, 85, 86, 87, 88, 89, 90, 91, 92, 93, 94, 95, 96, 97, 98, 99, 100, 101, 102, 103, 104, 105, 106, 107, 108, 109, 110, 111, 112, 113, 114, 115, 116, 117, 118, 119, 120, 121, 122, 123, 124, 125, 126, 127, 128, 129, 130, rowcost
C major (0), 0, 4, 1, 2, 1, 1, 3, 2, 2, 4, 1, 2, 1, 1, 3, 1, 2, 3, 1, 0, 0, 0, 2, 1, 1, 4, 1, 2, 1, 1, 3, 1, 1, 3, 1, 3, 2, 2, 3, 4, 0, 1, 2, 2, 2, 3, 2, 3, 1, 1, 3, 2, 4, 3, 2, 1, 7, 4, 6, 1, 0, 3, 0,  , 0, 2, 1, 1, 1, 3, 2, 1, 2, 3, 3, 2, 3, 4, 3, 4, 0, 1, 1, 2, 2, 3, 5, 1,  , 2, 0, 1, 4, 2, 3, 1, 0, 1, 1, 1, 1, 1, 2, 4, 4, 3, 5, 2, 1, 2, 2, 2, 1, 5, 3, 2, 1, 3, 5, 4, 6, 1, 4, 2, 4, 1, 3, 0, 2, 2, 0, 268
A minor (0), 0, 4, 1, 3, 1, 1, 4, 2, 3, 4, 1, 3, 1, 1, 4, 3, 2, 3, 1, 0, 0, 0, 2, 2, 1, 4, 1, 3, 1, 1, 4, 3, 1, 2, 1, 2, 4, 4, 4, 4, 0, 1, 2, 4, 2, 1, 3, 4, 1, 1, 3, 3, 3, 2, 2, 3, 5, 4, 6, 1, 0, 2, 0,  , 0, 2, 2, 1, 1, 4, 2, 1, 1, 3, 2, 4, 5, 4, 3, 4, 0, 1, 1, 2, 3, 3, 5, 1,  , 2, 0, 1, 4, 3, 3, 1, 0, 1, 1, 1, 1, 2, 3, 5, 4, 6, 4, 1, 3, 2, 2, 2, 1, 5, 3, 2, 2, 3, 5, 6, 5, 1, 4, 2, 4, 1, 3, 0, 3, 2, 0, 298
A minor mel (0), 0, 4, 1, 3, 1, 1, 4, 2, 3, 4, 1, 3, 1, 1, 4, 3, 2, 3, 1, 0, 0, 0, 2, 2, 1, 4, 1, 3, 1, 1, 4, 3, 1, 2, 1, 2, 4, 4, 4, 4, 0, 1, 2, 4, 2, 1, 3, 4, 1, 1, 3, 3, 3, 2, 2, 3, 5, 4, 6, 1, 0, 2, 0,  , 0, 2, 2, 1, 1, 4, 2, 1, 1, 3, 2, 4, 5, 4, 3, 4, 0, 1, 1, 2, 3, 3, 5, 1,  , 2, 0, 1, 4, 3, 3, 1, 0, 1, 1, 1, 1, 2, 3, 5, 4, 6, 4, 1, 3, 2, 2, 2, 1, 5, 3, 2, 2, 3, 5, 6, 5, 1, 4, 2, 4, 1, 3, 0, 3, 2, 0, 298
C major blues (0), 0, 4, 1, 2, 1, 1, 3, 2, 2, 4, 1, 2, 1, 1, 3, 1, 2, 3, 1, 0, 0, 0, 2, 1, 1, 4, 1, 2, 1, 1, 3, 1, 1, 3, 1, 3, 2, 2, 3, 4, 0, 1, 2, 2, 2, 3, 2, 3, 1, 1, 3, 2, 4, 3, 2, 1, 7, 4, 6, 1, 0, 3, 0,  , 0, 2, 1, 1, 1, 3, 2, 1, 2, 3, 3, 2, 3, 4, 3, 4, 0, 1, 1, 2, 2, 3, 5, 1,  , 2, 0, 1, 4, 2, 3, 1, 0, 1, 1, 1, 1, 1, 2, 4, 4, 3, 5, 2, 1, 2, 2, 2, 1, 5, 3, 2, 1, 3, 5, 4, 6, 1, 4, 2, 4, 1, 3, 0, 2, 2, 0, 268
A minor blues (0), 0, 4, 1, 3, 1, 1, 4, 2, 3, 4, 1, 3, 1, 1, 4, 3, 2, 3, 1, 0, 0, 0, 2, 2, 1, 4, 1, 3, 1, 1, 4, 3, 1, 2, 1, 2, 4, 4, 4, 4, 0, 1, 2, 4, 2, 1, 3, 4, 1, 1, 3, 3, 3, 2, 2, 3, 5, 4, 6, 1, 0, 2, 0,  , 0, 2, 2, 1, 1, 4, 2, 1, 1, 3, 2, 4, 5, 4, 3, 4, 0, 1, 1, 2, 3, 3, 5, 1,  , 2, 0, 1, 4, 3, 3, 1, 0, 1, 1, 1, 1, 2, 3, 5, 4, 6, 4, 1, 3, 2, 2, 2, 1, 5, 3, 2, 2, 3, 5, 6, 5, 1, 4, 2, 4, 1, 3, 0, 3, 2, 0, 298
C dorian (0), 0, 4, 1, 2, 1, 1, 3, 2, 2, 4, 1, 2, 1, 1, 3, 1, 2, 3, 1, 0, 0, 0, 2, 1, 1, 4, 1, 2, 1, 1, 3, 1, 1, 3, 1, 3, 2, 2, 3, 4, 0, 1, 2, 2, 2, 3, 2, 3, 1, 1, 3, 2, 4, 3, 2, 1, 7, 4, 6, 1, 0, 3, 0,  , 0, 2, 1, 1, 1, 3, 2, 1, 2, 3, 3, 2, 3, 4, 3, 4, 0, 1, 1, 2, 2, 3, 5, 1,  , 2, 0, 1, 4, 2, 3, 1, 0, 1, 1, 1, 1, 1, 2, 4, 4, 3, 5, 2, 1, 2, 2, 2, 1, 5, 3, 2, 1, 3, 5, 4, 6, 1, 4, 2, 4, 1, 3, 0, 2, 2, 0, 268
C phrygian (0), 0, 4, 1, 2, 1, 1, 3, 2, 2, 4, 1, 2, 1, 1, 3, 1, 2, 3, 1, 0, 0, 0, 2, 1, 1, 4, 1, 2, 1, 1, 3, 1, 1, 3, 1, 3, 2, 2, 3, 4, 0, 1, 2, 2, 2, 3, 2, 3, 1, 1, 3, 2, 4, 3, 2, 1, 7, 4, 6, 1, 0, 3, 0,  , 0, 2, 1, 1, 1, 3, 2, 1, 2, 3, 3, 2, 3, 4, 3, 4, 0, 1, 1, 2, 2, 3, 5, 1,  , 2, 0, 1, 4, 2, 3, 1, 0, 1, 1, 1, 1, 1, 2, 4, 4, 3, 5, 2, 1, 2, 2, 2, 1, 5, 3, 2, 1, 3, 5, 4, 6, 1, 4, 2, 4, 1, 3, 0, 2, 2, 0, 268
C lydian (0), 0, 4, 1, 2, 1, 1, 3, 2, 2, 4, 1, 2, 1, 1, 3, 1, 2, 3, 1, 0, 0, 0, 2, 1, 1, 4, 1, 2, 1, 1, 3, 1, 1, 3, 1, 3, 2, 2, 3, 4, 0, 1, 2, 2, 2, 3, 2, 3, 1, 1, 3, 2, 4, 3, 2, 1, 7, 4, 6, 1, 0, 3, 0,  , 0, 2, 1, 1, 1, 3, 2, 1, 2, 3, 3, 2, 3, 4, 3, 4, 0, 1, 1, 2, 2, 3, 5, 1,  , 2, 0, 1, 4, 2, 3, 1, 0, 1, 1, 1, 1, 1, 2, 4, 4, 3, 5, 2, 1, 2, 2, 2, 1, 5, 3, 2, 1, 3, 5, 4, 6, 1, 4, 2, 4, 1, 3, 0, 2, 2, 0, 268
C mixolydian (0), 0, 4, 1, 2, 1, 1, 3, 2, 2, 4, 1, 2, 1, 1, 3, 1, 2, 3, 1, 0, 0, 0, 2, 1, 1, 4, 1, 2, 1, 1, 3, 1, 1, 3, 1, 3, 2, 2, 3, 4, 0, 1, 2, 2, 2, 3, 2, 3, 1, 1, 3, 2, 4, 3, 2, 1, 7, 4, 6, 1, 0, 3, 0,  , 0, 2, 1, 1, 1, 3, 2, 1, 2, 3, 3, 2, 3, 4, 3, 4, 0, 1, 1, 2, 2, 3, 5, 1,  , 2, 0, 1, 4, 2, 3, 1, 0, 1, 1, 1, 1, 1, 2, 4, 4, 3, 5, 2, 1, 2, 2, 2, 1, 5, 3, 2, 1, 3, 5, 4, 6, 1, 4, 2, 4, 1, 3, 0, 2, 2, 0, 268
C aeolian (0), 0, 4, 1, 2, 1, 1, 3, 2, 2, 4, 1, 2, 1, 1, 3, 1, 2, 3, 1, 0, 0, 0, 2, 1, 1, 4, 1, 2, 1, 1, 3, 1, 1, 3, 1, 3, 2, 2, 3, 4, 0, 1, 2, 2, 2, 3, 2, 3, 1, 1, 3, 2, 4, 3, 2, 1, 7, 4, 6, 1, 0, 3, 0,  , 0, 2, 1, 1, 1, 3, 2, 1, 2, 3, 3, 2, 3, 4, 3, 4, 0, 1, 1, 2, 2, 3, 5, 1,  , 2, 0, 1, 4, 2, 3, 1, 0, 1, 1, 1, 1, 1, 2, 4, 4, 3, 5, 2, 1, 2, 2, 2, 1, 5, 3, 2, 1, 3, 5, 4, 6, 1, 4, 2, 4, 1, 3, 0, 2, 2, 0, 268
C locrian (0), 0, 4, 1, 2, 1, 1, 3, 2, 2, 4, 1, 2, 1, 1, 3, 1, 2, 3, 1, 0, 0, 0, 2, 1, 1, 4, 1, 2, 1, 1, 3, 1, 1, 3, 1, 3, 2, 2, 3, 4, 0, 1, 2, 2, 2, 3, 2, 3, 1, 1, 3, 2, 4, 3, 2, 1, 7, 4, 6, 1, 0, 3, 0,  , 0, 2, 1, 1, 1, 3, 2, 1, 2, 3, 3, 2, 3, 4, 3, 4, 0, 1, 1, 2, 2, 3, 5, 1,  , 2, 0, 1, 4, 2, 3, 1, 0, 1, 1, 1, 1, 1, 2, 4, 4, 3, 5, 2, 1, 2, 2, 2, 1, 5, 3, 2, 1, 3, 5, 4, 6, 1, 4, 2, 4, 1, 3, 0, 2, 2, 0, 268
F major (1b), 0, 3, 1, 1, 0, 0, 2, 3, 1, 3, 1, 1, 0, 0, 2, 1, 1, 6, 1, 1, 0, 0, 1, 2, 0, 3, 1, 1, 0, 0, 2, 1, 0, 2, 0, 2, 1, 2, 2, 3, 0, 0, 1, 1, 1, 3, 1, 2, 0, 2, 3, 3, 5, 2, 3, 2, 5, 3, 4, 0, 0, 2, 0,  , 0, 1, 1, 0, 1, 2, 1, 1, 2, 2, 2, 3, 2, 5, 2, 3, 0, 2, 2, 1, 3, 2, 4, 1,  , 1, 0, 1, 5, 1, 2, 0, 0, 0, 0, 0, 0, 1, 3, 3, 3, 3, 4, 2, 1, 3, 1, 1, 0, 6, 2, 3, 2, 2, 4, 3, 5, 0, 3, 1, 3, 1, 2, 0, 1, 4, 0, 214
G major (1#), 1, 4, 2, 2, 1, 1, 2, 3, 3, 4, 2, 2, 1, 1, 2, 2, 1, 2, 0, 1, 0, 0, 2, 1, 2, 4, 2, 2, 1, 1, 2, 2, 1, 3, 2, 3, 2, 3, 3, 3, 1, 2, 1, 3, 3, 4, 2, 4, 2, 0, 2, 4, 5, 3, 3, 1, 6, 3, 4, 2, 1, 3, 0,  , 0, 3, 1, 1, 0, 4, 3, 1, 1, 4, 3, 3, 2, 5, 4, 3, 0, 0, 0, 3, 2, 2, 5, 2,  , 3, 1, 2, 3, 3, 3, 2, 0, 2, 1, 2, 1, 2, 2, 5, 3, 5, 4, 1, 2, 2, 3, 2, 2, 4, 2, 3, 2, 2, 5, 6, 5, 1, 3, 1, 3, 2, 3, 1, 3, 1, 0, 290
D minor (1b), 0, 2, 1, 1, 0, 0, 2, 3, 1, 2, 1, 1, 0, 0, 2, 1, 1, 3, 1, 1, 0, 0, 1, 2, 0, 2, 1, 1, 0, 0, 2, 1, 0, 1, 0, 1, 1, 3, 3, 3, 0, 0, 1, 1, 1, 3, 2, 2, 0, 2, 2, 4, 5, 1, 3, 2, 5, 2, 4, 0, 0, 1, 0,  , 0, 1, 1, 0, 1, 2, 1, 1, 1, 2, 1, 4, 2, 5, 2, 2, 0, 1, 2, 1, 3, 2, 4, 1,  , 1, 0, 1, 4, 2, 2, 0, 0, 0, 0, 0, 0, 1, 4, 3, 3, 4, 5, 1, 1, 3, 1, 1, 0, 5, 2, 2, 2, 2, 4, 4, 4, 0, 3, 2, 3, 1, 2, 0, 1, 2, 0, 202
E minor (1#), 1, 5, 2, 3, 3, 1, 3, 3, 4, 5, 2, 3, 3, 1, 3, 4, 1, 2, 0, 1, 0, 0, 2, 2, 3, 5, 2, 3, 3, 1, 3, 4, 3, 3, 4, 3, 5, 5, 6, 5, 1, 2, 1, 5, 3, 2, 3, 5, 2, 0, 3, 4, 4, 5, 3, 3, 5, 5, 6, 2, 1, 3, 0,  , 0, 3, 2, 2, 0, 6, 3, 1, 1, 4, 5, 5, 5, 5, 5, 4, 0, 0, 0, 3, 3, 2, 6, 2,  , 3, 1, 2, 4, 6, 4, 4, 0, 2, 4, 2, 4, 3, 3, 4, 4, 7, 3, 1, 4, 3, 3, 2, 2, 6, 2, 3, 3, 2, 6, 6, 4, 1, 2, 1, 2, 2, 3, 1, 4, 1, 0, 371
D minor mel (1b), 0, 4, 1, 2, 1, 1, 3, 2, 2, 4, 1, 2, 1, 1, 3, 1, 2, 3, 1, 0, 0, 0, 2, 1, 1, 4, 1, 2, 1, 1, 3, 1, 1, 3, 1, 3, 2, 2, 3, 4, 0, 1, 2, 2, 2, 3, 2, 3, 1, 1, 3, 2, 4, 3, 2, 1, 7, 4, 6, 1, 0, 3, 0,  , 0, 2, 1, 1, 1, 3, 2, 1, 2, 3, 3, 2, 3, 4, 3, 4, 0, 1, 1, 2, 2, 3, 5, 1,  , 2, 0, 1, 4, 2, 3, 1, 0, 1, 1, 1, 1, 1, 2, 4, 4, 3, 5, 2, 1, 2, 2, 2, 1, 5, 3, 2, 1, 3, 5, 4, 6, 1, 4, 2, 4, 1, 3, 0, 2, 2, 0, 268
E minor mel (1#), 0, 4, 1, 3, 1, 1, 4, 2, 3, 4, 1, 3, 1, 1, 4, 3, 2, 3, 1, 0, 0, 0, 2, 2, 1, 4, 1, 3, 1, 1, 4, 3, 1, 2, 1, 2, 4, 4, 4, 4, 0, 1, 2, 4, 2, 1, 3, 4, 1, 1, 3, 3, 3, 2, 2, 3, 5, 4, 6, 1, 0, 2, 0,  , 0, 2, 2, 1, 1, 4, 2, 1, 1, 3, 2, 4, 5, 4, 3, 4, 0, 1, 1, 2, 3, 3, 5, 1,  , 2, 0, 1, 4, 3, 3, 1, 0, 1, 1, 1, 1, 2, 3, 5, 4, 6, 4, 1, 3, 2, 2, 2, 1, 5, 3, 2, 2, 3, 5, 6, 5, 1, 4, 2, 4, 1, 3, 0, 3, 2, 0, 298
F major blues (1b), 0, 4, 1, 3, 1, 1, 4, 2, 3, 4, 1, 3, 1, 1, 4, 3, 2, 3, 1, 0, 0, 0, 2, 2, 1, 4, 1, 3, 1, 1, 4, 3, 1, 2, 1, 2, 4, 4, 4, 4, 0, 1, 2, 4, 2, 1, 3, 4, 1, 1, 3, 3, 3, 2, 2, 3, 5, 4, 6, 1, 0, 2, 0,  , 0, 2, 2, 1, 1, 4, 2, 1, 1, 3, 2, 4, 5, 4, 3, 4, 0, 1, 1, 2, 3, 3, 5, 1,  , 2, 0, 1, 4, 3, 3, 1, 0, 1, 1, 1, 1, 2, 3, 5, 4, 6, 4, 1, 3, 2, 2, 2, 1, 5, 3, 2, 2, 3, 5, 6, 5, 1, 4, 2, 4, 1, 3, 0, 3, 2, 0, 298
G major blues (1#), 0, 4, 1, 2, 1, 1, 3, 2, 2, 4, 1, 2, 1, 1, 3, 1, 2, 3, 1, 0, 0, 0, 2, 1, 1, 4, 1, 2, 1, 1, 3, 1, 1, 3, 1, 3, 2, 2, 3, 4, 0, 1, 2, 2, 2, 3, 2, 3, 1, 1, 3, 2, 4, 3, 2, 1, 7, 4, 6, 1, 0, 3, 0,  , 0, 2, 1, 1, 1, 3, 2, 1, 2, 3, 3, 2, 3, 4, 3, 4, 0, 1, 1, 2, 2, 3, 5, 1,  , 2, 0, 1, 4, 2, 3, 1, 0, 1, 1, 1, 1, 1, 2, 4, 4, 3, 5, 2, 1, 2, 2, 2, 1, 5, 3, 2, 1, 3, 5, 4, 6, 1, 4, 2, 4, 1, 3, 0, 2, 2, 0, 268
D minor blues (1b), 0, 4, 1, 3, 1, 1, 4, 2, 3, 4, 1, 3, 1, 1, 4, 3, 2, 3, 1, 0, 0, 0, 2, 2, 1, 4, 1, 3, 1, 1, 4, 3, 1, 2, 1, 2, 4, 4, 4, 4, 0, 1, 2, 4, 2, 1, 3, 4, 1, 1, 3, 3, 3, 2, 2, 3, 5, 4, 6, 1, 0, 2, 0,  , 0, 2, 2, 1, 1, 4, 2, 1, 1, 3, 2, 4, 5, 4, 3, 4, 0, 1, 1, 2, 3, 3, 5, 1,  , 2, 0, 1, 4, 3, 3, 1, 0, 1, 1, 1, 1, 2, 3, 5, 4, 6, 4, 1, 3, 2, 2, 2, 1, 5, 3, 2, 2, 3, 5, 6, 5, 1, 4, 2, 4, 1, 3, 0, 3, 2, 0, 298
E minor blues (1#), 0, 4, 1, 2, 1, 1, 3, 2, 2, 4, 1, 2, 1, 1, 3, 1, 2, 3, 1, 0, 0, 0, 2, 1, 1, 4, 1, 2, 1, 1, 3, 1, 1, 3, 1, 3, 2, 2, 3, 4, 0, 1, 2, 2, 2, 3, 2, 3, 1, 1, 3, 2, 4, 3, 2, 1, 7, 4, 6, 1, 0, 3, 0,  , 0, 2, 1, 1, 1, 3, 2, 1, 2, 3, 3, 2, 3, 4, 3, 4, 0, 1, 1, 2, 2, 3, 5, 1,  , 2, 0, 1, 4, 2, 3, 1, 0, 1, 1, 1, 1, 1, 2, 4, 4, 3, 5, 2, 1, 2, 2, 2, 1, 5, 3, 2, 1, 3, 5, 4, 6, 1, 4, 2, 4, 1, 3, 0, 2, 2, 0, 268
F dorian (1b), 0, 4, 1, 2, 1, 1, 3, 2, 2, 4, 1, 2, 1, 1, 3, 1, 2, 3, 1, 0, 0, 0, 2, 1, 1, 4, 1, 2, 1, 1, 3, 1, 1, 3, 1, 3, 2, 2, 3, 4, 0, 1, 2, 2, 2, 3, 2, 3, 1, 1, 3, 2, 4, 3, 2, 1, 7, 4, 6, 1, 0, 3, 0,  , 0, 2, 1, 1, 1, 3, 2, 1, 2, 3, 3, 2, 3, 4, 3, 4, 0, 1, 1, 2, 2, 3, 5, 1,  , 2, 0, 1, 4, 2, 3, 1, 0, 1, 1, 1, 1, 1, 2, 4, 4, 3, 5, 2, 1, 2, 2, 2, 1, 5, 3, 2, 1, 3, 5, 4, 6, 1, 4, 2, 4, 1, 3, 0, 2, 2, 0, 268
G dorian (1#), 0, 4, 1, 2, 1, 1, 3, 2, 2, 4, 1, 2, 1, 1, 3, 1, 2, 3, 1, 0, 0, 0, 2, 1, 1, 4, 1, 2, 1, 1, 3, 1, 1, 3, 1, 3, 2, 2, 3, 4, 0, 1, 2, 2, 2, 3, 2, 3, 1, 1, 3, 2, 4, 3, 2, 1, 7, 4, 6, 1, 0, 3, 0,  , 0, 2, 1, 1, 1, 3, 2, 1, 2, 3, 3, 2, 3, 4, 3, 4, 0, 1, 1, 2, 2, 3, 5, 1,  , 2, 0, 1, 4, 2, 3, 1, 0, 1, 1, 1, 1, 1, 2, 4, 4, 3, 5, 2, 1, 2, 2, 2, 1, 5, 3, 2, 1, 3, 5, 4, 6, 1, 4, 2, 4, 1, 3, 0, 2, 2, 0, 268
F phrygian (1b), 0, 4, 1, 2, 1, 1, 3, 2, 2, 4, 1, 2, 1, 1, 3, 1, 2, 3, 1, 0, 0, 0, 2, 1, 1, 4, 1, 2, 1, 1, 3, 1, 1, 3, 1, 3, 2, 2, 3, 4, 0, 1, 2, 2, 2, 3, 2, 3, 1, 1, 3, 2, 4, 3, 2, 1, 7, 4, 6, 1, 0, 3, 0,  , 0, 2, 1, 1, 1, 3, 2, 1, 2, 3, 3, 2, 3, 4, 3, 4, 0, 1, 1, 2, 2, 3, 5, 1,  , 2, 0, 1, 4, 2, 3, 1, 0, 1, 1, 1, 1, 1, 2, 4, 4, 3, 5, 2, 1, 2, 2, 2, 1, 5, 3, 2, 1, 3, 5, 4, 6, 1, 4, 2, 4, 1, 3, 0, 2, 2, 0, 268
G phrygian (1#), 0, 4, 1, 2, 1, 1, 3, 2, 2, 4, 1, 2, 1, 1, 3, 1, 2, 3, 1, 0, 0, 0, 2, 1, 1, 4, 1, 2, 1, 1, 3, 1, 1, 3, 1, 3, 2, 2, 3, 4, 0, 1, 2, 2, 2, 3, 2, 3, 1, 1, 3, 2, 4, 3, 2, 1, 7, 4, 6, 1, 0, 3, 0,  , 0, 2, 1, 1, 1, 3, 2, 1, 2, 3, 3, 2, 3, 4, 3, 4, 0, 1, 1, 2, 2, 3, 5, 1,  , 2, 0, 1, 4, 2, 3, 1, 0, 1, 1, 1, 1, 1, 2, 4, 4, 3, 5, 2, 1, 2, 2, 2, 1, 5, 3, 2, 1, 3, 5, 4, 6, 1, 4, 2, 4, 1, 3, 0, 2, 2, 0, 268
F lydian (1b), 0, 4, 1, 2, 1, 1, 3, 2, 2, 4, 1, 2, 1, 1, 3, 1, 2, 3, 1, 0, 0, 0, 2, 1, 1, 4, 1, 2, 1, 1, 3, 1, 1, 3, 1, 3, 2, 2, 3, 4, 0, 1, 2, 2, 2, 3, 2, 3, 1, 1, 3, 2, 4, 3, 2, 1, 7, 4, 6, 1, 0, 3, 0,  , 0, 2, 1, 1, 1, 3, 2, 1, 2, 3, 3, 2, 3, 4, 3, 4, 0, 1, 1, 2, 2, 3, 5, 1,  , 2, 0, 1, 4, 2, 3, 1, 0, 1, 1, 1, 1, 1, 2, 4, 4, 3, 5, 2, 1, 2, 2, 2, 1, 5, 3, 2, 1, 3, 5, 4, 6, 1, 4, 2, 4, 1, 3, 0, 2, 2, 0, 268
G lydian (1#), 0, 3, 1, 1, 0, 0, 2, 3, 1, 3, 1, 1, 0, 0, 2, 1, 1, 6, 1, 1, 0, 0, 1, 2, 0, 3, 1, 1, 0, 0, 2, 1, 0, 2, 0, 2, 1, 2, 2, 3, 0, 0, 1, 1, 1, 3, 1, 2, 0, 2, 3, 3, 5, 2, 3, 2, 5, 3, 4, 0, 0, 2, 0,  , 0, 1, 1, 0, 1, 2, 1, 1, 2, 2, 2, 3, 2, 5, 2, 3, 0, 2, 2, 1, 3, 2, 4, 1,  , 1, 0, 1, 5, 1, 2, 0, 0, 0, 0, 0, 0, 1, 3, 3, 3, 3, 4, 2, 1, 3, 1, 1, 0, 6, 2, 3, 2, 2, 4, 3, 5, 0, 3, 1, 3, 1, 2, 0, 1, 4, 0, 214
F mixolydian (1b), 1, 4, 2, 2, 1, 1, 2, 3, 3, 4, 2, 2, 1, 1, 2, 2, 1, 2, 0, 1, 0, 0, 2, 1, 2, 4, 2, 2, 1, 1, 2, 2, 1, 3, 2, 3, 2, 3, 3, 3, 1, 2, 1, 3, 3, 4, 2, 4, 2, 0, 2, 4, 5, 3, 3, 1, 6, 3, 4, 2, 1, 3, 0,  , 0, 3, 1, 1, 0, 4, 3, 1, 1, 4, 3, 3, 2, 5, 4, 3, 0, 0, 0, 3, 2, 2, 5, 2,  , 3, 1, 2, 3, 3, 3, 2, 0, 2, 1, 2, 1, 2, 2, 5, 3, 5, 4, 1, 2, 2, 3, 2, 2, 4, 2, 3, 2, 2, 5, 6, 5, 1, 3, 1, 3, 2, 3, 1, 3, 1, 0, 290
G mixolydian (1#), 0, 2, 1, 1, 0, 0, 2, 3, 1, 2, 1, 1, 0, 0, 2, 1, 1, 3, 1, 1, 0, 0, 1, 2, 0, 2, 1, 1, 0, 0, 2, 1, 0, 1, 0, 1, 1, 3, 3, 3, 0, 0, 1, 1, 1, 3, 2, 2, 0, 2, 2, 4, 5, 1, 3, 2, 5, 2, 4, 0, 0, 1, 0,  , 0, 1, 1, 0, 1, 2, 1, 1, 1, 2, 1, 4, 2, 5, 2, 2, 0, 1, 2, 1, 3, 2, 4, 1,  , 1, 0, 1, 4, 2, 2, 0, 0, 0, 0, 0, 0, 1, 4, 3, 3, 4, 5, 1, 1, 3, 1, 1, 0, 5, 2, 2, 2, 2, 4, 4, 4, 0, 3, 2, 3, 1, 2, 0, 1, 2, 0, 202
F aeolian (1b), 1, 5, 2, 3, 3, 1, 3, 3, 4, 5, 2, 3, 3, 1, 3, 4, 1, 2, 0, 1, 0, 0, 2, 2, 3, 5, 2, 3, 3, 1, 3, 4, 3, 3, 4, 3, 5, 5, 6, 5, 1, 2, 1, 5, 3, 2, 3, 5, 2, 0, 3, 4, 4, 5, 3, 3, 5, 5, 6, 2, 1, 3, 0,  , 0, 3, 2, 2, 0, 6, 3, 1, 1, 4, 5, 5, 5, 5, 5, 4, 0, 0, 0, 3, 3, 2, 6, 2,  , 3, 1, 2, 4, 6, 4, 4, 0, 2, 4, 2, 4, 3, 3, 4, 4, 7, 3, 1, 4, 3, 3, 2, 2, 6, 2, 3, 3, 2, 6, 6, 4, 1, 2, 1, 2, 2, 3, 1, 4, 1, 0, 371
G aeolian (1#), 0, 4, 1, 2, 1, 1, 3, 2, 2, 4, 1, 2, 1, 1, 3, 1, 2, 3, 1, 0, 0, 0, 2, 1, 1, 4, 1, 2, 1, 1, 3, 1, 1, 3, 1, 3, 2, 2, 3, 4, 0, 1, 2, 2, 2, 3, 2, 3, 1, 1, 3, 2, 4, 3, 2, 1, 7, 4, 6, 1, 0, 3, 0,  , 0, 2, 1, 1, 1, 3, 2, 1, 2, 3, 3, 2, 3, 4, 3, 4, 0, 1, 1, 2, 2, 3, 5, 1,  , 2, 0, 1, 4, 2, 3, 1, 0, 1, 1, 1, 1, 1, 2, 4, 4, 3, 5, 2, 1, 2, 2, 2, 1, 5, 3, 2, 1, 3, 5, 4, 6, 1, 4, 2, 4, 1, 3, 0, 2, 2, 0, 268
F locrian (1b), 0, 4, 1, 3, 1, 1, 4, 2, 3, 4, 1, 3, 1, 1, 4, 3, 2, 3, 1, 0, 0, 0, 2, 2, 1, 4, 1, 3, 1, 1, 4, 3, 1, 2, 1, 2, 4, 4, 4, 4, 0, 1, 2, 4, 2, 1, 3, 4, 1, 1, 3, 3, 3, 2, 2, 3, 5, 4, 6, 1, 0, 2, 0,  , 0, 2, 2, 1, 1, 4, 2, 1, 1, 3, 2, 4, 5, 4, 3, 4, 0, 1, 1, 2, 3, 3, 5, 1,  , 2, 0, 1, 4, 3, 3, 1, 0, 1, 1, 1, 1, 2, 3, 5, 4, 6, 4, 1, 3, 2, 2, 2, 1, 5, 3, 2, 2, 3, 5, 6, 5, 1, 4, 2, 4, 1, 3, 0, 3, 2, 0, 298
G locrian (1#), 0, 4, 1, 3, 1, 1, 4, 2, 3, 4, 1, 3, 1, 1, 4, 3, 2, 3, 1, 0, 0, 0, 2, 2, 1, 4, 1, 3, 1, 1, 4, 3, 1, 2, 1, 2, 4, 4, 4, 4, 0, 1, 2, 4, 2, 1, 3, 4, 1, 1, 3, 3, 3, 2, 2, 3, 5, 4, 6, 1, 0, 2, 0,  , 0, 2, 2, 1, 1, 4, 2, 1, 1, 3, 2, 4, 5, 4, 3, 4, 0, 1, 1, 2, 3, 3, 5, 1,  , 2, 0, 1, 4, 3, 3, 1, 0, 1, 1, 1, 1, 2, 3, 5, 4, 6, 4, 1, 3, 2, 2, 2, 1, 5, 3, 2, 2, 3, 5, 6, 5, 1, 4, 2, 4, 1, 3, 0, 3, 2, 0, 298
Bb major (2b), 0, 4, 1, 2, 1, 1, 3, 2, 2, 4, 1, 2, 1, 1, 3, 1, 2, 3, 1, 0, 0, 0, 2, 1, 1, 4, 1, 2, 1, 1, 3, 1, 1, 3, 1, 3, 2, 2, 3, 4, 0, 1, 2, 2, 2, 3, 2, 3, 1, 1, 3, 2, 4, 3, 2, 1, 7, 4, 6, 1, 0, 3, 0,  , 0, 2, 1, 1, 1, 3, 2, 1, 2, 3, 3, 2, 3, 4, 3, 4, 0, 1, 1, 2, 2, 3, 5, 1,  , 2, 0, 1, 4, 2, 3, 1, 0, 1, 1, 1, 1, 1, 2, 4, 4, 3, 5, 2, 1, 2, 2, 2, 1, 5, 3, 2, 1, 3, 5, 4, 6, 1, 4, 2, 4, 1, 3, 0, 2, 2, 0, 268
D major (2#), 0, 4, 1, 3, 1, 1, 4, 2, 3, 4, 1, 3, 1, 1, 4, 3, 2, 3, 1, 0, 0, 0, 2, 2, 1, 4, 1, 3, 1, 1, 4, 3, 1, 2, 1, 2, 4, 4, 4, 4, 0, 1, 2, 4, 2, 1, 3, 4, 1, 1, 3, 3, 3, 2, 2, 3, 5, 4, 6, 1, 0, 2, 0,  , 0, 2, 2, 1, 1, 4, 2, 1, 1, 3, 2, 4, 5, 4, 3, 4, 0, 1, 1, 2, 3, 3, 5, 1,  , 2, 0, 1, 4, 3, 3, 1, 0, 1, 1, 1, 1, 2, 3, 5, 4, 6, 4, 1, 3, 2, 2, 2, 1, 5, 3, 2, 2, 3, 5, 6, 5, 1, 4, 2, 4, 1, 3, 0, 3, 2, 0, 298
G minor (2b), 0, 4, 1, 2, 1, 1, 3, 2, 2, 4, 1, 2, 1, 1, 3, 1, 2, 3, 1, 0, 0, 0, 2, 1, 1, 4, 1, 2, 1, 1, 3, 1, 1, 3, 1, 3, 2, 2, 3, 4, 0, 1, 2, 2, 2, 3, 2, 3, 1, 1, 3, 2, 4, 3, 2, 1, 7, 4, 6, 1, 0, 3, 0,  , 0, 2, 1, 1, 1, 3, 2, 1, 2, 3, 3, 2, 3, 4, 3, 4, 0, 1, 1, 2, 2, 3, 5, 1,  , 2, 0, 1, 4, 2, 3, 1, 0, 1, 1, 1, 1, 1, 2, 4, 4, 3, 5, 2, 1, 2, 2, 2, 1, 5, 3, 2, 1, 3, 5, 4, 6, 1, 4, 2, 4, 1, 3, 0, 2, 2, 0, 268
B minor (2#), 0, 4, 1, 2, 1, 1, 3, 2, 2, 4, 1, 2, 1, 1, 3, 1, 2, 3, 1, 0, 0, 0, 2, 1, 1, 4, 1, 2, 1, 1, 3, 1, 1, 3, 1, 3, 2, 2, 3, 4, 0, 1, 2, 2, 2, 3, 2, 3, 1, 1, 3, 2, 4, 3, 2, 1, 7, 4, 6, 1, 0, 3, 0,  , 0, 2, 1, 1, 1, 3, 2, 1, 2, 3, 3, 2, 3, 4, 3, 4, 0, 1, 1, 2, 2, 3, 5, 1,  , 2, 0, 1, 4, 2, 3, 1, 0, 1, 1, 1, 1, 1, 2, 4, 4, 3, 5, 2, 1, 2, 2, 2, 1, 5, 3, 2, 1, 3, 5, 4, 6, 1, 4, 2, 4, 1, 3, 0, 2, 2, 0, 268
G minor mel (2b), 0, 4, 1, 2, 1, 1, 3, 2, 2, 4, 1, 2, 1, 1, 3, 1, 2, 3, 1, 0, 0, 0, 2, 1, 1, 4, 1, 2, 1, 1, 3, 1, 1, 3, 1, 3, 2, 2, 3, 4, 0, 1, 2, 2, 2, 3, 2, 3, 1, 1, 3, 2, 4, 3, 2, 1, 7, 4, 6, 1, 0, 3, 0,  , 0, 2, 1, 1, 1, 3, 2, 1, 2, 3, 3, 2, 3, 4, 3, 4, 0, 1, 1, 2, 2, 3, 5, 1,  , 2, 0, 1, 4, 2, 3, 1, 0, 1, 1, 1, 1, 1, 2, 4, 4, 3, 5, 2, 1, 2, 2, 2, 1, 5, 3, 2, 1, 3, 5, 4, 6, 1, 4, 2, 4, 1, 3, 0, 2, 2, 0, 268
B minor mel (2#), 0, 4, 1, 2, 1, 1, 3, 2, 2, 4, 1, 2, 1, 1, 3, 1, 2, 3, 1, 0, 0, 0, 2, 1, 1, 4, 1, 2, 1, 1, 3, 1, 1, 3, 1, 3, 2, 2, 3, 4, 0, 1, 2, 2, 2, 3, 2, 3, 1, 1, 3, 2, 4, 3, 2, 1, 7, 4, 6, 1, 0, 3, 0,  , 0, 2, 1, 1, 1, 3, 2, 1, 2, 3, 3, 2, 3, 4, 3, 4, 0, 1, 1, 2, 2, 3, 5, 1,  , 2, 0, 1, 4, 2, 3, 1, 0, 1, 1, 1, 1, 1, 2, 4, 4, 3, 5, 2, 1, 2, 2, 2, 1, 5, 3, 2, 1, 3, 5, 4, 6, 1, 4, 2, 4, 1, 3, 0, 2, 2, 0, 268
Bb major blues (2b), 0, 4, 1, 2, 1, 1, 3, 2, 2, 4, 1, 2, 1, 1, 3, 1, 2, 3, 1, 0, 0, 0, 2, 1, 1, 4, 1, 2, 1, 1, 3, 1, 1, 3, 1, 3, 2, 2, 3, 4, 0, 1, 2, 2, 2, 3, 2, 3, 1, 1, 3, 2, 4, 3, 2, 1, 7, 4, 6, 1, 0, 3, 0,  , 0, 2, 1, 1, 1, 3, 2, 1, 2, 3, 3, 2, 3, 4, 3, 4, 0, 1, 1, 2, 2, 3, 5, 1,  , 2, 0, 1, 4, 2, 3, 1, 0, 1, 1, 1, 1, 1, 2, 4, 4, 3, 5, 2, 1, 2, 2, 2, 1, 5, 3, 2, 1, 3, 5, 4, 6, 1, 4, 2, 4, 1, 3, 0, 2, 2, 0, 268
D major blues (2#), 0, 4, 1, 2, 1, 1, 3, 2, 2, 4, 1, 2, 1, 1, 3, 1, 2, 3, 1, 0, 0, 0, 2, 1, 1, 4, 1, 2, 1, 1, 3, 1, 1, 3, 1, 3, 2, 2, 3, 4, 0, 1, 2, 2, 2, 3, 2, 3, 1, 1, 3, 2, 4, 3, 2, 1, 7, 4, 6, 1, 0, 3, 0,  , 0, 2, 1, 1, 1, 3, 2, 1, 2, 3, 3, 2, 3, 4, 3, 4, 0, 1, 1, 2, 2, 3, 5, 1,  , 2, 0, 1, 4, 2, 3, 1, 0, 1, 1, 1, 1, 1, 2, 4, 4, 3, 5, 2, 1, 2, 2, 2, 1, 5, 3, 2, 1, 3, 5, 4, 6, 1, 4, 2, 4, 1, 3, 0, 2, 2, 0, 268
G minor blues (2b), 0, 3, 1, 1, 0, 0, 2, 3, 1, 3, 1, 1, 0, 0, 2, 1, 1, 6, 1, 1, 0, 0, 1, 2, 0, 3, 1, 1, 0, 0, 2, 1, 0, 2, 0, 2, 1, 2, 2, 3, 0, 0, 1, 1, 1, 3, 1, 2, 0, 2, 3, 3, 5, 2, 3, 2, 5, 3, 4, 0, 0, 2, 0,  , 0, 1, 1, 0, 1, 2, 1, 1, 2, 2, 2, 3, 2, 5, 2, 3, 0, 2, 2, 1, 3, 2, 4, 1,  , 1, 0, 1, 5, 1, 2, 0, 0, 0, 0, 0, 0, 1, 3, 3, 3, 3, 4, 2, 1, 3, 1, 1, 0, 6, 2, 3, 2, 2, 4, 3, 5, 0, 3, 1, 3, 1, 2, 0, 1, 4, 0, 214
B minor blues (2#), 1, 4, 2, 2, 1, 1, 2, 3, 3, 4, 2, 2, 1, 1, 2, 2, 1, 2, 0, 1, 0, 0, 2, 1, 2, 4, 2, 2, 1, 1, 2, 2, 1, 3, 2, 3, 2, 3, 3, 3, 1, 2, 1, 3, 3, 4, 2, 4, 2, 0, 2, 4, 5, 3, 3, 1, 6, 3, 4, 2, 1, 3, 0,  , 0, 3, 1, 1, 0, 4, 3, 1, 1, 4, 3, 3, 2, 5, 4, 3, 0, 0, 0, 3, 2, 2, 5, 2,  , 3, 1, 2, 3, 3, 3, 2, 0, 2, 1, 2, 1, 2, 2, 5, 3, 5, 4, 1, 2, 2, 3, 2, 2, 4, 2, 3, 2, 2, 5, 6, 5, 1, 3, 1, 3, 2, 3, 1, 3, 1, 0, 290
Bb dorian (2b), 0, 2, 1, 1, 0, 0, 2, 3, 1, 2, 1, 1, 0, 0, 2, 1, 1, 3, 1, 1, 0, 0, 1, 2, 0, 2, 1, 1, 0, 0, 2, 1, 0, 1, 0, 1, 1, 3, 3, 3, 0, 0, 1, 1, 1, 3, 2, 2, 0, 2, 2, 4, 5, 1, 3, 2, 5, 2, 4, 0, 0, 1, 0,  , 0, 1, 1, 0, 1, 2, 1, 1, 1, 2, 1, 4, 2, 5, 2, 2, 0, 1, 2, 1, 3, 2, 4, 1,  , 1, 0, 1, 4, 2, 2, 0, 0, 0, 0, 0, 0, 1, 4, 3, 3, 4, 5, 1, 1, 3, 1, 1, 0, 5, 2, 2, 2, 2, 4, 4, 4, 0, 3, 2, 3, 1, 2, 0, 1, 2, 0, 202
D dorian (2#), 1, 5, 2, 3, 3, 1, 3, 3, 4, 5, 2, 3, 3, 1, 3, 4, 1, 2, 0, 1, 0, 0, 2, 2, 3, 5, 2, 3, 3, 1, 3, 4, 3, 3, 4, 3, 5, 5, 6, 5, 1, 2, 1, 5, 3, 2, 3, 5, 2, 0, 3, 4, 4, 5, 3, 3, 5, 5, 6, 2, 1, 3, 0,  , 0, 3, 2, 2, 0, 6, 3, 1, 1, 4, 5, 5, 5, 5, 5, 4, 0, 0, 0, 3, 3, 2, 6, 2,  , 3, 1, 2, 4, 6, 4, 4, 0, 2, 4, 2, 4, 3, 3, 4, 4, 7, 3, 1, 4, 3, 3, 2, 2, 6, 2, 3, 3, 2, 6, 6, 4, 1, 2, 1, 2, 2, 3, 1, 4, 1, 0, 371
Bb phrygian (2b), 0, 4, 1, 2, 1, 1, 3, 2, 2, 4, 1, 2, 1, 1, 3, 1, 2, 3, 1, 0, 0, 0, 2, 1, 1, 4, 1, 2, 1, 1, 3, 1, 1, 3, 1, 3, 2, 2, 3, 4, 0, 1, 2, 2, 2, 3, 2, 3, 1, 1, 3, 2, 4, 3, 2, 1, 7, 4, 6, 1, 0, 3, 0,  , 0, 2, 1, 1, 1, 3, 2, 1, 2, 3, 3, 2, 3, 4, 3, 4, 0, 1, 1, 2, 2, 3, 5, 1,  , 2, 0, 1, 4, 2, 3, 1, 0, 1, 1, 1, 1, 1, 2, 4, 4, 3, 5, 2, 1, 2, 2, 2, 1, 5, 3, 2, 1, 3, 5, 4, 6, 1, 4, 2, 4, 1, 3, 0, 2, 2, 0, 268
D phrygian (2#), 0, 4, 1, 3, 1, 1, 4, 2, 3, 4, 1, 3, 1, 1, 4, 3, 2, 3, 1, 0, 0, 0, 2, 2, 1, 4, 1, 3, 1, 1, 4, 3, 1, 2, 1, 2, 4, 4, 4, 4, 0, 1, 2, 4, 2, 1, 3, 4, 1, 1, 3, 3, 3, 2, 2, 3, 5, 4, 6, 1, 0, 2, 0,  , 0, 2, 2, 1, 1, 4, 2, 1, 1, 3, 2, 4, 5, 4, 3, 4, 0, 1, 1, 2, 3, 3, 5, 1,  , 2, 0, 1, 4, 3, 3, 1, 0, 1, 1, 1, 1, 2, 3, 5, 4, 6, 4, 1, 3, 2, 2, 2, 1, 5, 3, 2, 2, 3, 5, 6, 5, 1, 4, 2, 4, 1, 3, 0, 3, 2, 0, 298
Bb lydian (2b), 0, 4, 1, 3, 1, 1, 4, 2, 3, 4, 1, 3, 1, 1, 4, 3, 2, 3, 1, 0, 0, 0, 2, 2, 1, 4, 1, 3, 1, 1, 4, 3, 1, 2, 1, 2, 4, 4, 4, 4, 0, 1, 2, 4, 2, 1, 3, 4, 1, 1, 3, 3, 3, 2, 2, 3, 5, 4, 6, 1, 0, 2, 0,  , 0, 2, 2, 1, 1, 4, 2, 1, 1, 3, 2, 4, 5, 4, 3, 4, 0, 1, 1, 2, 3, 3, 5, 1,  , 2, 0, 1, 4, 3, 3, 1, 0, 1, 1, 1, 1, 2, 3, 5, 4, 6, 4, 1, 3, 2, 2, 2, 1, 5, 3, 2, 2, 3, 5, 6, 5, 1, 4, 2, 4, 1, 3, 0, 3, 2, 0, 298
D lydian (2#), 0, 4, 1, 2, 1, 1, 3, 2, 2, 4, 1, 2, 1, 1, 3, 1, 2, 3, 1, 0, 0, 0, 2, 1, 1, 4, 1, 2, 1, 1, 3, 1, 1, 3, 1, 3, 2, 2, 3, 4, 0, 1, 2, 2, 2, 3, 2, 3, 1, 1, 3, 2, 4, 3, 2, 1, 7, 4, 6, 1, 0, 3, 0,  , 0, 2, 1, 1, 1, 3, 2, 1, 2, 3, 3, 2, 3, 4, 3, 4, 0, 1, 1, 2, 2, 3, 5, 1,  , 2, 0, 1, 4, 2, 3, 1, 0, 1, 1, 1, 1, 1, 2, 4, 4, 3, 5, 2, 1, 2, 2, 2, 1, 5, 3, 2, 1, 3, 5, 4, 6, 1, 4, 2, 4, 1, 3, 0, 2, 2, 0, 268
Bb mixolydian (2b), 0, 4, 1, 3, 1, 1, 4, 2, 3, 4, 1, 3, 1, 1, 4, 3, 2, 3, 1, 0, 0, 0, 2, 2, 1, 4, 1, 3, 1, 1, 4, 3, 1, 2, 1, 2, 4, 4, 4, 4, 0, 1, 2, 4, 2, 1, 3, 4, 1, 1, 3, 3, 3, 2, 2, 3, 5, 4, 6, 1, 0, 2, 0,  , 0, 2, 2, 1, 1, 4, 2, 1, 1, 3, 2, 4, 5, 4, 3, 4, 0, 1, 1, 2, 3, 3, 5, 1,  , 2, 0, 1, 4, 3, 3, 1, 0, 1, 1, 1, 1, 2, 3, 5, 4, 6, 4, 1, 3, 2, 2, 2, 1, 5, 3, 2, 2, 3, 5, 6, 5, 1, 4, 2, 4, 1, 3, 0, 3, 2, 0, 298
D mixolydian (2#), 0, 4, 1, 2, 1, 1, 3, 2, 2, 4, 1, 2, 1, 1, 3, 1, 2, 3, 1, 0, 0, 0, 2, 1, 1, 4, 1, 2, 1, 1, 3, 1, 1, 3, 1, 3, 2, 2, 3, 4, 0, 1, 2, 2, 2, 3, 2, 3, 1, 1, 3, 2, 4, 3, 2, 1, 7, 4, 6, 1, 0, 3, 0,  , 0, 2, 1, 1, 1, 3, 2, 1, 2, 3, 3, 2, 3, 4, 3, 4, 0, 1, 1, 2, 2, 3, 5, 1,  , 2, 0, 1, 4, 2, 3, 1, 0, 1, 1, 1, 1, 1, 2, 4, 4, 3, 5, 2, 1, 2, 2, 2, 1, 5, 3, 2, 1, 3, 5, 4, 6, 1, 4, 2, 4, 1, 3, 0, 2, 2, 0, 268
Bb aeolian (2b), 0, 4, 1, 2, 1, 1, 3, 2, 2, 4, 1, 2, 1, 1, 3, 1, 2, 3, 1, 0, 0, 0, 2, 1, 1, 4, 1, 2, 1, 1, 3, 1, 1, 3, 1, 3, 2, 2, 3, 4, 0, 1, 2, 2, 2, 3, 2, 3, 1, 1, 3, 2, 4, 3, 2, 1, 7, 4, 6, 1, 0, 3, 0,  , 0, 2, 1, 1, 1, 3, 2, 1, 2, 3, 3, 2, 3, 4, 3, 4, 0, 1, 1, 2, 2, 3, 5, 1,  , 2, 0, 1, 4, 2, 3, 1, 0, 1, 1, 1, 1, 1, 2, 4, 4, 3, 5, 2, 1, 2, 2, 2, 1, 5, 3, 2, 1, 3, 5, 4, 6, 1, 4, 2, 4, 1, 3, 0, 2, 2, 0, 268
D aeolian (2#), 0, 4, 1, 2, 1, 1, 3, 2, 2, 4, 1, 2, 1, 1, 3, 1, 2, 3, 1, 0, 0, 0, 2, 1, 1, 4, 1, 2, 1, 1, 3, 1, 1, 3, 1, 3, 2, 2, 3, 4, 0, 1, 2, 2, 2, 3, 2, 3, 1, 1, 3, 2, 4, 3, 2, 1, 7, 4, 6, 1, 0, 3, 0,  , 0, 2, 1, 1, 1, 3, 2, 1, 2, 3, 3, 2, 3, 4, 3, 4, 0, 1, 1, 2, 2, 3, 5, 1,  , 2, 0, 1, 4, 2, 3, 1, 0, 1, 1, 1, 1, 1, 2, 4, 4, 3, 5, 2, 1, 2, 2, 2, 1, 5, 3, 2, 1, 3, 5, 4, 6, 1, 4, 2, 4, 1, 3, 0, 2, 2, 0, 268
Bb locrian (2b), 0, 4, 1, 2, 1, 1, 3, 2, 2, 4, 1, 2, 1, 1, 3, 1, 2, 3, 1, 0, 0, 0, 2, 1, 1, 4, 1, 2, 1, 1, 3, 1, 1, 3, 1, 3, 2, 2, 3, 4, 0, 1, 2, 2, 2, 3, 2, 3, 1, 1, 3, 2, 4, 3, 2, 1, 7, 4, 6, 1, 0, 3, 0,  , 0, 2, 1, 1, 1, 3, 2, 1, 2, 3, 3, 2, 3, 4, 3, 4, 0, 1, 1, 2, 2, 3, 5, 1,  , 2, 0, 1, 4, 2, 3, 1, 0, 1, 1, 1, 1, 1, 2, 4, 4, 3, 5, 2, 1, 2, 2, 2, 1, 5, 3, 2, 1, 3, 5, 4, 6, 1, 4, 2, 4, 1, 3, 0, 2, 2, 0, 268
D locrian (2#), 0, 4, 1, 2, 1, 1, 3, 2, 2, 4, 1, 2, 1, 1, 3, 1, 2, 3, 1, 0, 0, 0, 2, 1, 1, 4, 1, 2, 1, 1, 3, 1, 1, 3, 1, 3, 2, 2, 3, 4, 0, 1, 2, 2, 2, 3, 2, 3, 1, 1, 3, 2, 4, 3, 2, 1, 7, 4, 6, 1, 0, 3, 0,  , 0, 2, 1, 1, 1, 3, 2, 1, 2, 3, 3, 2, 3, 4, 3, 4, 0, 1, 1, 2, 2, 3, 5, 1,  , 2, 0, 1, 4, 2, 3, 1, 0, 1, 1, 1, 1, 1, 2, 4, 4, 3, 5, 2, 1, 2, 2, 2, 1, 5, 3, 2, 1, 3, 5, 4, 6, 1, 4, 2, 4, 1, 3, 0, 2, 2, 0, 268
Eb major (3b), 0, 4, 1, 2, 1, 1, 3, 2, 2, 4, 1, 2, 1, 1, 3, 1, 2, 3, 1, 0, 0, 0, 2, 1, 1, 4, 1, 2, 1, 1, 3, 1, 1, 3, 1, 3, 2, 2, 3, 4, 0, 1, 2, 2, 2, 3, 2, 3, 1, 1, 3, 2, 4, 3, 2, 1, 7, 4, 6, 1, 0, 3, 0,  , 0, 2, 1, 1, 1, 3, 2, 1, 2, 3, 3, 2, 3, 4, 3, 4, 0, 1, 1, 2, 2, 3, 5, 1,  , 2, 0, 1, 4, 2, 3, 1, 0, 1, 1, 1, 1, 1, 2, 4, 4, 3, 5, 2, 1, 2, 2, 2, 1, 5, 3, 2, 1, 3, 5, 4, 6, 1, 4, 2, 4, 1, 3, 0, 2, 2, 0, 268
A major (3#), 0, 3, 1, 1, 0, 0, 2, 3, 1, 3, 1, 1, 0, 0, 2, 1, 1, 6, 1, 1, 0, 0, 1, 2, 0, 3, 1, 1, 0, 0, 2, 1, 0, 2, 0, 2, 1, 2, 2, 3, 0, 0, 1, 1, 1, 3, 1, 2, 0, 2, 3, 3, 5, 2, 3, 2, 5, 3, 4, 0, 0, 2, 0,  , 0, 1, 1, 0, 1, 2, 1, 1, 2, 2, 2, 3, 2, 5, 2, 3, 0, 2, 2, 1, 3, 2, 4, 1,  , 1, 0, 1, 5, 1, 2, 0, 0, 0, 0, 0, 0, 1, 3, 3, 3, 3, 4, 2, 1, 3, 1, 1, 0, 6, 2, 3, 2, 2, 4, 3, 5, 0, 3, 1, 3, 1, 2, 0, 1, 4, 0, 214
C minor (3b), 1, 4, 2, 2, 1, 1, 2, 3, 3, 4, 2, 2, 1, 1, 2, 2, 1, 2, 0, 1, 0, 0, 2, 1, 2, 4, 2, 2, 1, 1, 2, 2, 1, 3, 2, 3, 2, 3, 3, 3, 1, 2, 1, 3, 3, 4, 2, 4, 2, 0, 2, 4, 5, 3, 3, 1, 6, 3, 4, 2, 1, 3, 0,  , 0, 3, 1, 1, 0, 4, 3, 1, 1, 4, 3, 3, 2, 5, 4, 3, 0, 0, 0, 3, 2, 2, 5, 2,  , 3, 1, 2, 3, 3, 3, 2, 0, 2, 1, 2, 1, 2, 2, 5, 3, 5, 4, 1, 2, 2, 3, 2, 2, 4, 2, 3, 2, 2, 5, 6, 5, 1, 3, 1, 3, 2, 3, 1, 3, 1, 0, 290
F# minor (3#), 0, 2, 1, 1, 0, 0, 2, 3, 1, 2, 1, 1, 0, 0, 2, 1, 1, 3, 1, 1, 0, 0, 1, 2, 0, 2, 1, 1, 0, 0, 2, 1, 0, 1, 0, 1, 1, 3, 3, 3, 0, 0, 1, 1, 1, 3, 2, 2, 0, 2, 2, 4, 5, 1, 3, 2, 5, 2, 4, 0, 0, 1, 0,  , 0, 1, 1, 0, 1, 2, 1, 1, 1, 2, 1, 4, 2, 5, 2, 2, 0, 1, 2, 1, 3, 2, 4, 1,  , 1, 0, 1, 4, 2, 2, 0, 0, 0, 0, 0, 0, 1, 4, 3, 3, 4, 5, 1, 1, 3, 1, 1, 0, 5, 2, 2, 2, 2, 4, 4, 4, 0, 3, 2, 3, 1, 2, 0, 1, 2, 0, 202
C minor mel (3b), 1, 5, 2, 3, 3, 1, 3, 3, 4, 5, 2, 3, 3, 1, 3, 4, 1, 2, 0, 1, 0, 0, 2, 2, 3, 5, 2, 3, 3, 1, 3, 4, 3, 3, 4, 3, 5, 5, 6, 5, 1, 2, 1, 5, 3, 2, 3, 5, 2, 0, 3, 4, 4, 5, 3, 3, 5, 5, 6, 2, 1, 3, 0,  , 0, 3, 2, 2, 0, 6, 3, 1, 1, 4, 5, 5, 5, 5, 5, 4, 0, 0, 0, 3, 3, 2, 6, 2,  , 3, 1, 2, 4, 6, 4, 4, 0, 2, 4, 2, 4, 3, 3, 4, 4, 7, 3, 1, 4, 3, 3, 2, 2, 6, 2, 3, 3, 2, 6, 6, 4, 1, 2, 1, 2, 2, 3, 1, 4, 1, 0, 371
F# minor mel (3#), 0, 4, 1, 2, 1, 1, 3, 2, 2, 4, 1, 2, 1, 1, 3, 1, 2, 3, 1, 0, 0, 0, 2, 1, 1, 4, 1, 2, 1, 1, 3, 1, 1, 3, 1, 3, 2, 2, 3, 4, 0, 1, 2, 2, 2, 3, 2, 3, 1, 1, 3, 2, 4, 3, 2, 1, 7, 4, 6, 1, 0, 3, 0,  , 0, 2, 1, 1, 1, 3, 2, 1, 2, 3, 3, 2, 3, 4, 3, 4, 0, 1, 1, 2, 2, 3, 5, 1,  , 2, 0, 1, 4, 2, 3, 1, 0, 1, 1, 1, 1, 1, 2, 4, 4, 3, 5, 2, 1, 2, 2, 2, 1, 5, 3, 2, 1, 3, 5, 4, 6, 1, 4, 2, 4, 1, 3, 0, 2, 2, 0, 268
Eb major blues (3b), 0, 4, 1, 3, 1, 1, 4, 2, 3, 4, 1, 3, 1, 1, 4, 3, 2, 3, 1, 0, 0, 0, 2, 2, 1, 4, 1, 3, 1, 1, 4, 3, 1, 2, 1, 2, 4, 4, 4, 4, 0, 1, 2, 4, 2, 1, 3, 4, 1, 1, 3, 3, 3, 2, 2, 3, 5, 4, 6, 1, 0, 2, 0,  , 0, 2, 2, 1, 1, 4, 2, 1, 1, 3, 2, 4, 5, 4, 3, 4, 0, 1, 1, 2, 3, 3, 5, 1,  , 2, 0, 1, 4, 3, 3, 1, 0, 1, 1, 1, 1, 2, 3, 5, 4, 6, 4, 1, 3, 2, 2, 2, 1, 5, 3, 2, 2, 3, 5, 6, 5, 1, 4, 2, 4, 1, 3, 0, 3, 2, 0, 298
A major blues (3#), 0, 4, 1, 3, 1, 1, 4, 2, 3, 4, 1, 3, 1, 1, 4, 3, 2, 3, 1, 0, 0, 0, 2, 2, 1, 4, 1, 3, 1, 1, 4, 3, 1, 2, 1, 2, 4, 4, 4, 4, 0, 1, 2, 4, 2, 1, 3, 4, 1, 1, 3, 3, 3, 2, 2, 3, 5, 4, 6, 1, 0, 2, 0,  , 0, 2, 2, 1, 1, 4, 2, 1, 1, 3, 2, 4, 5, 4, 3, 4, 0, 1, 1, 2, 3, 3, 5, 1,  , 2, 0, 1, 4, 3, 3, 1, 0, 1, 1, 1, 1, 2, 3, 5, 4, 6, 4, 1, 3, 2, 2, 2, 1, 5, 3, 2, 2, 3, 5, 6, 5, 1, 4, 2, 4, 1, 3, 0, 3, 2, 0, 298
C minor blues (3b), 0, 4, 1, 2, 1, 1, 3, 2, 2, 4, 1, 2, 1, 1, 3, 1, 2, 3, 1, 0, 0, 0, 2, 1, 1, 4, 1, 2, 1, 1, 3, 1, 1, 3, 1, 3, 2, 2, 3, 4, 0, 1, 2, 2, 2, 3, 2, 3, 1, 1, 3, 2, 4, 3, 2, 1, 7, 4, 6, 1, 0, 3, 0,  , 0, 2, 1, 1, 1, 3, 2, 1, 2, 3, 3, 2, 3, 4, 3, 4, 0, 1, 1, 2, 2, 3, 5, 1,  , 2, 0, 1, 4, 2, 3, 1, 0, 1, 1, 1, 1, 1, 2, 4, 4, 3, 5, 2, 1, 2, 2, 2, 1, 5, 3, 2, 1, 3, 5, 4, 6, 1, 4, 2, 4, 1, 3, 0, 2, 2, 0, 268
F# minor blues (3#), 0, 4, 1, 3, 1, 1, 4, 2, 3, 4, 1, 3, 1, 1, 4, 3, 2, 3, 1, 0, 0, 0, 2, 2, 1, 4, 1, 3, 1, 1, 4, 3, 1, 2, 1, 2, 4, 4, 4, 4, 0, 1, 2, 4, 2, 1, 3, 4, 1, 1, 3, 3, 3, 2, 2, 3, 5, 4, 6, 1, 0, 2, 0,  , 0, 2, 2, 1, 1, 4, 2, 1, 1, 3, 2, 4, 5, 4, 3, 4, 0, 1, 1, 2, 3, 3, 5, 1,  , 2, 0, 1, 4, 3, 3, 1, 0, 1, 1, 1, 1, 2, 3, 5, 4, 6, 4, 1, 3, 2, 2, 2, 1, 5, 3, 2, 2, 3, 5, 6, 5, 1, 4, 2, 4, 1, 3, 0, 3, 2, 0, 298
Eb dorian (3b), 0, 4, 1, 2, 1, 1, 3, 2, 2, 4, 1, 2, 1, 1, 3, 1, 2, 3, 1, 0, 0, 0, 2, 1, 1, 4, 1, 2, 1, 1, 3, 1, 1, 3, 1, 3, 2, 2, 3, 4, 0, 1, 2, 2, 2, 3, 2, 3, 1, 1, 3, 2, 4, 3, 2, 1, 7, 4, 6, 1, 0, 3, 0,  , 0, 2, 1, 1, 1, 3, 2, 1, 2, 3, 3, 2, 3, 4, 3, 4, 0, 1, 1, 2, 2, 3, 5, 1,  , 2, 0, 1, 4, 2, 3, 1, 0, 1, 1, 1, 1, 1, 2, 4, 4, 3, 5, 2, 1, 2, 2, 2, 1, 5, 3, 2, 1, 3, 5, 4, 6, 1, 4, 2, 4, 1, 3, 0, 2, 2, 0, 268
A dorian (3#), 0, 4, 1, 2, 1, 1, 3, 2, 2, 4, 1, 2, 1, 1, 3, 1, 2, 3, 1, 0, 0, 0, 2, 1, 1, 4, 1, 2, 1, 1, 3, 1, 1, 3, 1, 3, 2, 2, 3, 4, 0, 1, 2, 2, 2, 3, 2, 3, 1, 1, 3, 2, 4, 3, 2, 1, 7, 4, 6, 1, 0, 3, 0,  , 0, 2, 1, 1, 1, 3, 2, 1, 2, 3, 3, 2, 3, 4, 3, 4, 0, 1, 1, 2, 2, 3, 5, 1,  , 2, 0, 1, 4, 2, 3, 1, 0, 1, 1, 1, 1, 1, 2, 4, 4, 3, 5, 2, 1, 2, 2, 2, 1, 5, 3, 2, 1, 3, 5, 4, 6, 1, 4, 2, 4, 1, 3, 0, 2, 2, 0, 268
Eb phrygian (3b), 0, 4, 1, 2, 1, 1, 3, 2, 2, 4, 1, 2, 1, 1, 3, 1, 2, 3, 1, 0, 0, 0, 2, 1, 1, 4, 1, 2, 1, 1, 3, 1, 1, 3, 1, 3, 2, 2, 3, 4, 0, 1, 2, 2, 2, 3, 2, 3, 1, 1, 3, 2, 4, 3, 2, 1, 7, 4, 6, 1, 0, 3, 0,  , 0, 2, 1, 1, 1, 3, 2, 1, 2, 3, 3, 2, 3, 4, 3, 4, 0, 1, 1, 2, 2, 3, 5, 1,  , 2, 0, 1, 4, 2, 3, 1, 0, 1, 1, 1, 1, 1, 2, 4, 4, 3, 5, 2, 1, 2, 2, 2, 1, 5, 3, 2, 1, 3, 5, 4, 6, 1, 4, 2, 4, 1, 3, 0, 2, 2, 0, 268
A phrygian (3#), 0, 4, 1, 2, 1, 1, 3, 2, 2, 4, 1, 2, 1, 1, 3, 1, 2, 3, 1, 0, 0, 0, 2, 1, 1, 4, 1, 2, 1, 1, 3, 1, 1, 3, 1, 3, 2, 2, 3, 4, 0, 1, 2, 2, 2, 3, 2, 3, 1, 1, 3, 2, 4, 3, 2, 1, 7, 4, 6, 1, 0, 3, 0,  , 0, 2, 1, 1, 1, 3, 2, 1, 2, 3, 3, 2, 3, 4, 3, 4, 0, 1, 1, 2, 2, 3, 5, 1,  , 2, 0, 1, 4, 2, 3, 1, 0, 1, 1, 1, 1, 1, 2, 4, 4, 3, 5, 2, 1, 2, 2, 2, 1, 5, 3, 2, 1, 3, 5, 4, 6, 1, 4, 2, 4, 1, 3, 0, 2, 2, 0, 268
Eb lydian (3b), 0, 4, 1, 2, 1, 1, 3, 2, 2, 4, 1, 2, 1, 1, 3, 1, 2, 3, 1, 0, 0, 0, 2, 1, 1, 4, 1, 2, 1, 1, 3, 1, 1, 3, 1, 3, 2, 2, 3, 4, 0, 1, 2, 2, 2, 3, 2, 3, 1, 1, 3, 2, 4, 3, 2, 1, 7, 4, 6, 1, 0, 3, 0,  , 0, 2, 1, 1, 1, 3, 2, 1, 2, 3, 3, 2, 3, 4, 3, 4, 0, 1, 1, 2, 2, 3, 5, 1,  , 2, 0, 1, 4, 2, 3, 1, 0, 1, 1, 1, 1, 1, 2, 4, 4, 3, 5, 2, 1, 2, 2, 2, 1, 5, 3, 2, 1, 3, 5, 4, 6, 1, 4, 2, 4, 1, 3, 0, 2, 2, 0, 268
A lydian (3#), 0, 4, 1, 2, 1, 1, 3, 2, 2, 4, 1, 2, 1, 1, 3, 1, 2, 3, 1, 0, 0, 0, 2, 1, 1, 4, 1, 2, 1, 1, 3, 1, 1, 3, 1, 3, 2, 2, 3, 4, 0, 1, 2, 2, 2, 3, 2, 3, 1, 1, 3, 2, 4, 3, 2, 1, 7, 4, 6, 1, 0, 3, 0,  , 0, 2, 1, 1, 1, 3, 2, 1, 2, 3, 3, 2, 3, 4, 3, 4, 0, 1, 1, 2, 2, 3, 5, 1,  , 2, 0, 1, 4, 2, 3, 1, 0, 1, 1, 1, 1, 1, 2, 4, 4, 3, 5, 2, 1, 2, 2, 2, 1, 5, 3, 2, 1, 3, 5, 4, 6, 1, 4, 2, 4, 1, 3, 0, 2, 2, 0, 268
Eb mixolydian (3b), 0, 3, 1, 1, 0, 0, 2, 3, 1, 3, 1, 1, 0, 0, 2, 1, 1, 6, 1, 1, 0, 0, 1, 2, 0, 3, 1, 1, 0, 0, 2, 1, 0, 2, 0, 2, 1, 2, 2, 3, 0, 0, 1, 1, 1, 3, 1, 2, 0, 2, 3, 3, 5, 2, 3, 2, 5, 3, 4, 0, 0, 2, 0,  , 0, 1, 1, 0, 1, 2, 1, 1, 2, 2, 2, 3, 2, 5, 2, 3, 0, 2, 2, 1, 3, 2, 4, 1,  , 1, 0, 1, 5, 1, 2, 0, 0, 0, 0, 0, 0, 1, 3, 3, 3, 3, 4, 2, 1, 3, 1, 1, 0, 6, 2, 3, 2, 2, 4, 3, 5, 0, 3, 1, 3, 1, 2, 0, 1, 4, 0, 214
A mixolydian (3#), 1, 4, 2, 2, 1, 1, 2, 3, 3, 4, 2, 2, 1, 1, 2, 2, 1, 2, 0, 1, 0, 0, 2, 1, 2, 4, 2, 2, 1, 1, 2, 2, 1, 3, 2, 3, 2, 3, 3, 3, 1, 2, 1, 3, 3, 4, 2, 4, 2, 0, 2, 4, 5, 3, 3, 1, 6, 3, 4, 2, 1, 3, 0,  , 0, 3, 1, 1, 0, 4, 3, 1, 1, 4, 3, 3, 2, 5, 4, 3, 0, 0, 0, 3, 2, 2, 5, 2,  , 3, 1, 2, 3, 3, 3, 2, 0, 2, 1, 2, 1, 2, 2, 5, 3, 5, 4, 1, 2, 2, 3, 2, 2, 4, 2, 3, 2, 2, 5, 6, 5, 1, 3, 1, 3, 2, 3, 1, 3, 1, 0, 290
Eb aeolian (3b), 0, 2, 1, 1, 0, 0, 2, 3, 1, 2, 1, 1, 0, 0, 2, 1, 1, 3, 1, 1, 0, 0, 1, 2, 0, 2, 1, 1, 0, 0, 2, 1, 0, 1, 0, 1, 1, 3, 3, 3, 0, 0, 1, 1, 1, 3, 2, 2, 0, 2, 2, 4, 5, 1, 3, 2, 5, 2, 4, 0, 0, 1, 0,  , 0, 1, 1, 0, 1, 2, 1, 1, 1, 2, 1, 4, 2, 5, 2, 2, 0, 1, 2, 1, 3, 2, 4, 1,  , 1, 0, 1, 4, 2, 2, 0, 0, 0, 0, 0, 0, 1, 4, 3, 3, 4, 5, 1, 1, 3, 1, 1, 0, 5, 2, 2, 2, 2, 4, 4, 4, 0, 3, 2, 3, 1, 2, 0, 1, 2, 0, 202
A aeolian (3#), 1, 5, 2, 3, 3, 1, 3, 3, 4, 5, 2, 3, 3, 1, 3, 4, 1, 2, 0, 1, 0, 0, 2, 2, 3, 5, 2, 3, 3, 1, 3, 4, 3, 3, 4, 3, 5, 5, 6, 5, 1, 2, 1, 5, 3, 2, 3, 5, 2, 0, 3, 4, 4, 5, 3, 3, 5, 5, 6, 2, 1, 3, 0,  , 0, 3, 2, 2, 0, 6, 3, 1, 1, 4, 5, 5, 5, 5, 5, 4, 0, 0, 0, 3, 3, 2, 6, 2,  , 3, 1, 2, 4, 6, 4, 4, 0, 2, 4, 2, 4, 3, 3, 4, 4, 7, 3, 1, 4, 3, 3, 2, 2, 6, 2, 3, 3, 2, 6, 6, 4, 1, 2, 1, 2, 2, 3, 1, 4, 1, 0, 371
Eb locrian (3b), 0, 4, 1, 2, 1, 1, 3, 2, 2, 4, 1, 2, 1, 1, 3, 1, 2, 3, 1, 0, 0, 0, 2, 1, 1, 4, 1, 2, 1, 1, 3, 1, 1, 3, 1, 3, 2, 2, 3, 4, 0, 1, 2, 2, 2, 3, 2, 3, 1, 1, 3, 2, 4, 3, 2, 1, 7, 4, 6, 1, 0, 3, 0,  , 0, 2, 1, 1, 1, 3, 2, 1, 2, 3, 3, 2, 3, 4, 3, 4, 0, 1, 1, 2, 2, 3, 5, 1,  , 2, 0, 1, 4, 2, 3, 1, 0, 1, 1, 1, 1, 1, 2, 4, 4, 3, 5, 2, 1, 2, 2, 2, 1, 5, 3, 2, 1, 3, 5, 4, 6, 1, 4, 2, 4, 1, 3, 0, 2, 2, 0, 268
A locrian (3#), 0, 4, 1, 3, 1, 1, 4, 2, 3, 4, 1, 3, 1, 1, 4, 3, 2, 3, 1, 0, 0, 0, 2, 2, 1, 4, 1, 3, 1, 1, 4, 3, 1, 2, 1, 2, 4, 4, 4, 4, 0, 1, 2, 4, 2, 1, 3, 4, 1, 1, 3, 3, 3, 2, 2, 3, 5, 4, 6, 1, 0, 2, 0,  , 0, 2, 2, 1, 1, 4, 2, 1, 1, 3, 2, 4, 5, 4, 3, 4, 0, 1, 1, 2, 3, 3, 5, 1,  , 2, 0, 1, 4, 3, 3, 1, 0, 1, 1, 1, 1, 2, 3, 5, 4, 6, 4, 1, 3, 2, 2, 2, 1, 5, 3, 2, 2, 3, 5, 6, 5, 1, 4, 2, 4, 1, 3, 0, 3, 2, 0, 298
Ab major (4b), 0, 4, 1, 3, 1, 1, 4, 2, 3, 4, 1, 3, 1, 1, 4, 3, 2, 3, 1, 0, 0, 0, 2, 2, 1, 4, 1, 3, 1, 1, 4, 3, 1, 2, 1, 2, 4, 4, 4, 4, 0, 1, 2, 4, 2, 1, 3, 4, 1, 1, 3, 3, 3, 2, 2, 3, 5, 4, 6, 1, 0, 2, 0,  , 0, 2, 2, 1, 1, 4, 2, 1, 1, 3, 2, 4, 5, 4, 3, 4, 0, 1, 1, 2, 3, 3, 5, 1,  , 2, 0, 1, 4, 3, 3, 1, 0, 1, 1, 1, 1, 2, 3, 5, 4, 6, 4, 1, 3, 2, 2, 2, 1, 5, 3, 2, 2, 3, 5, 6, 5, 1, 4, 2, 4, 1, 3, 0, 3, 2, 0, 298
E major (4#), 0, 4, 1, 2, 1, 1, 3, 2, 2, 4, 1, 2, 1, 1, 3, 1, 2, 3, 1, 0, 0, 0, 2, 1, 1, 4, 1, 2, 1, 1, 3, 1, 1, 3, 1, 3, 2, 2, 3, 4, 0, 1, 2, 2, 2, 3, 2, 3, 1, 1, 3, 2, 4, 3, 2, 1, 7, 4, 6, 1, 0, 3, 0,  , 0, 2, 1, 1, 1, 3, 2, 1, 2, 3, 3, 2, 3, 4, 3, 4, 0, 1, 1, 2, 2, 3, 5, 1,  , 2, 0, 1, 4, 2, 3, 1, 0, 1, 1, 1, 1, 1, 2, 4, 4, 3, 5, 2, 1, 2, 2, 2, 1, 5, 3, 2, 1, 3, 5, 4, 6, 1, 4, 2, 4, 1, 3, 0, 2, 2, 0, 268
F minor (4b), 0, 4, 1, 3, 1, 1, 4, 2, 3, 4, 1, 3, 1, 1, 4, 3, 2, 3, 1, 0, 0, 0, 2, 2, 1, 4, 1, 3, 1, 1, 4, 3, 1, 2, 1, 2, 4, 4, 4, 4, 0, 1, 2, 4, 2, 1, 3, 4, 1, 1, 3, 3, 3, 2, 2, 3, 5, 4, 6, 1, 0, 2, 0,  , 0, 2, 2, 1, 1, 4, 2, 1, 1, 3, 2, 4, 5, 4, 3, 4, 0, 1, 1, 2, 3, 3, 5, 1,  , 2, 0, 1, 4, 3, 3, 1, 0, 1, 1, 1, 1, 2, 3, 5, 4, 6, 4, 1, 3, 2, 2, 2, 1, 5, 3, 2, 2, 3, 5, 6, 5, 1, 4, 2, 4, 1, 3, 0, 3, 2, 0, 298
C# minor (4#), 0, 4, 1, 2, 1, 1, 3, 2, 2, 4, 1, 2, 1, 1, 3, 1, 2, 3, 1, 0, 0, 0, 2, 1, 1, 4, 1, 2, 1, 1, 3, 1, 1, 3, 1, 3, 2, 2, 3, 4, 0, 1, 2, 2, 2, 3, 2, 3, 1, 1, 3, 2, 4, 3, 2, 1, 7, 4, 6, 1, 0, 3, 0,  , 0, 2, 1, 1, 1, 3, 2, 1, 2, 3, 3, 2, 3, 4, 3, 4, 0, 1, 1, 2, 2, 3, 5, 1,  , 2, 0, 1, 4, 2, 3, 1, 0, 1, 1, 1, 1, 1, 2, 4, 4, 3, 5, 2, 1, 2, 2, 2, 1, 5, 3, 2, 1, 3, 5, 4, 6, 1, 4, 2, 4, 1, 3, 0, 2, 2, 0, 268
F minor mel (4b), 0, 4, 1, 2, 1, 1, 3, 2, 2, 4, 1, 2, 1, 1, 3, 1, 2, 3, 1, 0, 0, 0, 2, 1, 1, 4, 1, 2, 1, 1, 3, 1, 1, 3, 1, 3, 2, 2, 3, 4, 0, 1, 2, 2, 2, 3, 2, 3, 1, 1, 3, 2, 4, 3, 2, 1, 7, 4, 6, 1, 0, 3, 0,  , 0, 2, 1, 1, 1, 3, 2, 1, 2, 3, 3, 2, 3, 4, 3, 4, 0, 1, 1, 2, 2, 3, 5, 1,  , 2, 0, 1, 4, 2, 3, 1, 0, 1, 1, 1, 1, 1, 2, 4, 4, 3, 5, 2, 1, 2, 2, 2, 1, 5, 3, 2, 1, 3, 5, 4, 6, 1, 4, 2, 4, 1, 3, 0, 2, 2, 0, 268
C# minor mel (4#), 0, 4, 1, 2, 1, 1, 3, 2, 2, 4, 1, 2, 1, 1, 3, 1, 2, 3, 1, 0, 0, 0, 2, 1, 1, 4, 1, 2, 1, 1, 3, 1, 1, 3, 1, 3, 2, 2, 3, 4, 0, 1, 2, 2, 2, 3, 2, 3, 1, 1, 3, 2, 4, 3, 2, 1, 7, 4, 6, 1, 0, 3, 0,  , 0, 2, 1, 1, 1, 3, 2, 1, 2, 3, 3, 2, 3, 4, 3, 4, 0, 1, 1, 2, 2, 3, 5, 1,  , 2, 0, 1, 4, 2, 3, 1, 0, 1, 1, 1, 1, 1, 2, 4, 4, 3, 5, 2, 1, 2, 2, 2, 1, 5, 3, 2, 1, 3, 5, 4, 6, 1, 4, 2, 4, 1, 3, 0, 2, 2, 0, 268
Ab major blues (4b), 0, 4, 1, 2, 1, 1, 3, 2, 2, 4, 1, 2, 1, 1, 3, 1, 2, 3, 1, 0, 0, 0, 2, 1, 1, 4, 1, 2, 1, 1, 3, 1, 1, 3, 1, 3, 2, 2, 3, 4, 0, 1, 2, 2, 2, 3, 2, 3, 1, 1, 3, 2, 4, 3, 2, 1, 7, 4, 6, 1, 0, 3, 0,  , 0, 2, 1, 1, 1, 3, 2, 1, 2, 3, 3, 2, 3, 4, 3, 4, 0, 1, 1, 2, 2, 3, 5, 1,  , 2, 0, 1, 4, 2, 3, 1, 0, 1, 1, 1, 1, 1, 2, 4, 4, 3, 5, 2, 1, 2, 2, 2, 1, 5, 3, 2, 1, 3, 5, 4, 6, 1, 4, 2, 4, 1, 3, 0, 2, 2, 0, 268
E major blues (4#), 0, 4, 1, 2, 1, 1, 3, 2, 2, 4, 1, 2, 1, 1, 3, 1, 2, 3, 1, 0, 0, 0, 2, 1, 1, 4, 1, 2, 1, 1, 3, 1, 1, 3, 1, 3, 2, 2, 3, 4, 0, 1, 2, 2, 2, 3, 2, 3, 1, 1, 3, 2, 4, 3, 2, 1, 7, 4, 6, 1, 0, 3, 0,  , 0, 2, 1, 1, 1, 3, 2, 1, 2, 3, 3, 2, 3, 4, 3, 4, 0, 1, 1, 2, 2, 3, 5, 1,  , 2, 0, 1, 4, 2, 3, 1, 0, 1, 1, 1, 1, 1, 2, 4, 4, 3, 5, 2, 1, 2, 2, 2, 1, 5, 3, 2, 1, 3, 5, 4, 6, 1, 4, 2, 4, 1, 3, 0, 2, 2, 0, 268
F minor blues (4b), 0, 4, 1, 2, 1, 1, 3, 2, 2, 4, 1, 2, 1, 1, 3, 1, 2, 3, 1, 0, 0, 0, 2, 1, 1, 4, 1, 2, 1, 1, 3, 1, 1, 3, 1, 3, 2, 2, 3, 4, 0, 1, 2, 2, 2, 3, 2, 3, 1, 1, 3, 2, 4, 3, 2, 1, 7, 4, 6, 1, 0, 3, 0,  , 0, 2, 1, 1, 1, 3, 2, 1, 2, 3, 3, 2, 3, 4, 3, 4, 0, 1, 1, 2, 2, 3, 5, 1,  , 2, 0, 1, 4, 2, 3, 1, 0, 1, 1, 1, 1, 1, 2, 4, 4, 3, 5, 2, 1, 2, 2, 2, 1, 5, 3, 2, 1, 3, 5, 4, 6, 1, 4, 2, 4, 1, 3, 0, 2, 2, 0, 268
C# minor blues (4#), 0, 3, 1, 1, 0, 0, 2, 3, 1, 3, 1, 1, 0, 0, 2, 1, 1, 6, 1, 1, 0, 0, 1, 2, 0, 3, 1, 1, 0, 0, 2, 1, 0, 2, 0, 2, 1, 2, 2, 3, 0, 0, 1, 1, 1, 3, 1, 2, 0, 2, 3, 3, 5, 2, 3, 2, 5, 3, 4, 0, 0, 2, 0,  , 0, 1, 1, 0, 1, 2, 1, 1, 2, 2, 2, 3, 2, 5, 2, 3, 0, 2, 2, 1, 3, 2, 4, 1,  , 1, 0, 1, 5, 1, 2, 0, 0, 0, 0, 0, 0, 1, 3, 3, 3, 3, 4, 2, 1, 3, 1, 1, 0, 6, 2, 3, 2, 2, 4, 3, 5, 0, 3, 1, 3, 1, 2, 0, 1, 4, 0, 214
Ab dorian (4b), 1, 4, 2, 2, 1, 1, 2, 3, 3, 4, 2, 2, 1, 1, 2, 2, 1, 2, 0, 1, 0, 0, 2, 1, 2, 4, 2, 2, 1, 1, 2, 2, 1, 3, 2, 3, 2, 3, 3, 3, 1, 2, 1, 3, 3, 4, 2, 4, 2, 0, 2, 4, 5, 3, 3, 1, 6, 3, 4, 2, 1, 3, 0,  , 0, 3, 1, 1, 0, 4, 3, 1, 1, 4, 3, 3, 2, 5, 4, 3, 0, 0, 0, 3, 2, 2, 5, 2,  , 3, 1, 2, 3, 3, 3, 2, 0, 2, 1, 2, 1, 2, 2, 5, 3, 5, 4, 1, 2, 2, 3, 2, 2, 4, 2, 3, 2, 2, 5, 6, 5, 1, 3, 1, 3, 2, 3, 1, 3, 1, 0, 290
E dorian (4#), 0, 2, 1, 1, 0, 0, 2, 3, 1, 2, 1, 1, 0, 0, 2, 1, 1, 3, 1, 1, 0, 0, 1, 2, 0, 2, 1, 1, 0, 0, 2, 1, 0, 1, 0, 1, 1, 3, 3, 3, 0, 0, 1, 1, 1, 3, 2, 2, 0, 2, 2, 4, 5, 1, 3, 2, 5, 2, 4, 0, 0, 1, 0,  , 0, 1, 1, 0, 1, 2, 1, 1, 1, 2, 1, 4, 2, 5, 2, 2, 0, 1, 2, 1, 3, 2, 4, 1,  , 1, 0, 1, 4, 2, 2, 0, 0, 0, 0, 0, 0, 1, 4, 3, 3, 4, 5, 1, 1, 3, 1, 1, 0, 5, 2, 2, 2, 2, 4, 4, 4, 0, 3, 2, 3, 1, 2, 0, 1, 2, 0, 202
Ab phrygian (4b), 1, 5, 2, 3, 3, 1, 3, 3, 4, 5, 2, 3, 3, 1, 3, 4, 1, 2, 0, 1, 0, 0, 2, 2, 3, 5, 2, 3, 3, 1, 3, 4, 3, 3, 4, 3, 5, 5, 6, 5, 1, 2, 1, 5, 3, 2, 3, 5, 2, 0, 3, 4, 4, 5, 3, 3, 5, 5, 6, 2, 1, 3, 0,  , 0, 3, 2, 2, 0, 6, 3, 1, 1, 4, 5, 5, 5, 5, 5, 4, 0, 0, 0, 3, 3, 2, 6, 2,  , 3, 1, 2, 4, 6, 4, 4, 0, 2, 4, 2, 4, 3, 3, 4, 4, 7, 3, 1, 4, 3, 3, 2, 2, 6, 2, 3, 3, 2, 6, 6, 4, 1, 2, 1, 2, 2, 3, 1, 4, 1, 0, 371
E phrygian (4#), 0, 4, 1, 2, 1, 1, 3, 2, 2, 4, 1, 2, 1, 1, 3, 1, 2, 3, 1, 0, 0, 0, 2, 1, 1, 4, 1, 2, 1, 1, 3, 1, 1, 3, 1, 3, 2, 2, 3, 4, 0, 1, 2, 2, 2, 3, 2, 3, 1, 1, 3, 2, 4, 3, 2, 1, 7, 4, 6, 1, 0, 3, 0,  , 0, 2, 1, 1, 1, 3, 2, 1, 2, 3, 3, 2, 3, 4, 3, 4, 0, 1, 1, 2, 2, 3, 5, 1,  , 2, 0, 1, 4, 2, 3, 1, 0, 1, 1, 1, 1, 1, 2, 4, 4, 3, 5, 2, 1, 2, 2, 2, 1, 5, 3, 2, 1, 3, 5, 4, 6, 1, 4, 2, 4, 1, 3, 0, 2, 2, 0, 268
Ab lydian (4b), 0, 4, 1, 3, 1, 1, 4, 2, 3, 4, 1, 3, 1, 1, 4, 3, 2, 3, 1, 0, 0, 0, 2, 2, 1, 4, 1, 3, 1, 1, 4, 3, 1, 2, 1, 2, 4, 4, 4, 4, 0, 1, 2, 4, 2, 1, 3, 4, 1, 1, 3, 3, 3, 2, 2, 3, 5, 4, 6, 1, 0, 2, 0,  , 0, 2, 2, 1, 1, 4, 2, 1, 1, 3, 2, 4, 5, 4, 3, 4, 0, 1, 1, 2, 3, 3, 5, 1,  , 2, 0, 1, 4, 3, 3, 1, 0, 1, 1, 1, 1, 2, 3, 5, 4, 6, 4, 1, 3, 2, 2, 2, 1, 5, 3, 2, 2, 3, 5, 6, 5, 1, 4, 2, 4, 1, 3, 0, 3, 2, 0, 298
E lydian (4#), 0, 4, 1, 3, 1, 1, 4, 2, 3, 4, 1, 3, 1, 1, 4, 3, 2, 3, 1, 0, 0, 0, 2, 2, 1, 4, 1, 3, 1, 1, 4, 3, 1, 2, 1, 2, 4, 4, 4, 4, 0, 1, 2, 4, 2, 1, 3, 4, 1, 1, 3, 3, 3, 2, 2, 3, 5, 4, 6, 1, 0, 2, 0,  , 0, 2, 2, 1, 1, 4, 2, 1, 1, 3, 2, 4, 5, 4, 3, 4, 0, 1, 1, 2, 3, 3, 5, 1,  , 2, 0, 1, 4, 3, 3, 1, 0, 1, 1, 1, 1, 2, 3, 5, 4, 6, 4, 1, 3, 2, 2, 2, 1, 5, 3, 2, 2, 3, 5, 6, 5, 1, 4, 2, 4, 1, 3, 0, 3, 2, 0, 298
Ab mixolydian (4b), 0, 4, 1, 2, 1, 1, 3, 2, 2, 4, 1, 2, 1, 1, 3, 1, 2, 3, 1, 0, 0, 0, 2, 1, 1, 4, 1, 2, 1, 1, 3, 1, 1, 3, 1, 3, 2, 2, 3, 4, 0, 1, 2, 2, 2, 3, 2, 3, 1, 1, 3, 2, 4, 3, 2, 1, 7, 4, 6, 1, 0, 3, 0,  , 0, 2, 1, 1, 1, 3, 2, 1, 2, 3, 3, 2, 3, 4, 3, 4, 0, 1, 1, 2, 2, 3, 5, 1,  , 2, 0, 1, 4, 2, 3, 1, 0, 1, 1, 1, 1, 1, 2, 4, 4, 3, 5, 2, 1, 2, 2, 2, 1, 5, 3, 2, 1, 3, 5, 4, 6, 1, 4, 2, 4, 1, 3, 0, 2, 2, 0, 268
E mixolydian (4#), 0, 4, 1, 3, 1, 1, 4, 2, 3, 4, 1, 3, 1, 1, 4, 3, 2, 3, 1, 0, 0, 0, 2, 2, 1, 4, 1, 3, 1, 1, 4, 3, 1, 2, 1, 2, 4, 4, 4, 4, 0, 1, 2, 4, 2, 1, 3, 4, 1, 1, 3, 3, 3, 2, 2, 3, 5, 4, 6, 1, 0, 2, 0,  , 0, 2, 2, 1, 1, 4, 2, 1, 1, 3, 2, 4, 5, 4, 3, 4, 0, 1, 1, 2, 3, 3, 5, 1,  , 2, 0, 1, 4, 3, 3, 1, 0, 1, 1, 1, 1, 2, 3, 5, 4, 6, 4, 1, 3, 2, 2, 2, 1, 5, 3, 2, 2, 3, 5, 6, 5, 1, 4, 2, 4, 1, 3, 0, 3, 2, 0, 298
Ab aeolian (4b), 0, 4, 1, 2, 1, 1, 3, 2, 2, 4, 1, 2, 1, 1, 3, 1, 2, 3, 1, 0, 0, 0, 2, 1, 1, 4, 1, 2, 1, 1, 3, 1, 1, 3, 1, 3, 2, 2, 3, 4, 0, 1, 2, 2, 2, 3, 2, 3, 1, 1, 3, 2, 4, 3, 2, 1, 7, 4, 6, 1, 0, 3, 0,  , 0, 2, 1, 1, 1, 3, 2, 1, 2, 3, 3, 2, 3, 4, 3, 4, 0, 1, 1, 2, 2, 3, 5, 1,  , 2, 0, 1, 4, 2, 3, 1, 0, 1, 1, 1, 1, 1, 2, 4, 4, 3, 5, 2, 1, 2, 2, 2, 1, 5, 3, 2, 1, 3, 5, 4, 6, 1, 4, 2, 4, 1, 3, 0, 2, 2, 0, 268
E aeolian (4#), 0, 4, 1, 2, 1, 1, 3, 2, 2, 4, 1, 2, 1, 1, 3, 1, 2, 3, 1, 0, 0, 0, 2, 1, 1, 4, 1, 2, 1, 1, 3, 1, 1, 3, 1, 3, 2, 2, 3, 4, 0, 1, 2, 2, 2, 3, 2, 3, 1, 1, 3, 2, 4, 3, 2, 1, 7, 4, 6, 1, 0, 3, 0,  , 0, 2, 1, 1, 1, 3, 2, 1, 2, 3, 3, 2, 3, 4, 3, 4, 0, 1, 1, 2, 2, 3, 5, 1,  , 2, 0, 1, 4, 2, 3, 1, 0, 1, 1, 1, 1, 1, 2, 4, 4, 3, 5, 2, 1, 2, 2, 2, 1, 5, 3, 2, 1, 3, 5, 4, 6, 1, 4, 2, 4, 1, 3, 0, 2, 2, 0, 268
Ab locrian (4b), 0, 4, 1, 2, 1, 1, 3, 2, 2, 4, 1, 2, 1, 1, 3, 1, 2, 3, 1, 0, 0, 0, 2, 1, 1, 4, 1, 2, 1, 1, 3, 1, 1, 3, 1, 3, 2, 2, 3, 4, 0, 1, 2, 2, 2, 3, 2, 3, 1, 1, 3, 2, 4, 3, 2, 1, 7, 4, 6, 1, 0, 3, 0,  , 0, 2, 1, 1, 1, 3, 2, 1, 2, 3, 3, 2, 3, 4, 3, 4, 0, 1, 1, 2, 2, 3, 5, 1,  , 2, 0, 1, 4, 2, 3, 1, 0, 1, 1, 1, 1, 1, 2, 4, 4, 3, 5, 2, 1, 2, 2, 2, 1, 5, 3, 2, 1, 3, 5, 4, 6, 1, 4, 2, 4, 1, 3, 0, 2, 2, 0, 268
E locrian (4#), 0, 4, 1, 2, 1, 1, 3, 2, 2, 4, 1, 2, 1, 1, 3, 1, 2, 3, 1, 0, 0, 0, 2, 1, 1, 4, 1, 2, 1, 1, 3, 1, 1, 3, 1, 3, 2, 2, 3, 4, 0, 1, 2, 2, 2, 3, 2, 3, 1, 1, 3, 2, 4, 3, 2, 1, 7, 4, 6, 1, 0, 3, 0,  , 0, 2, 1, 1, 1, 3, 2, 1, 2, 3, 3, 2, 3, 4, 3, 4, 0, 1, 1, 2, 2, 3, 5, 1,  , 2, 0, 1, 4, 2, 3, 1, 0, 1, 1, 1, 1, 1, 2, 4, 4, 3, 5, 2, 1, 2, 2, 2, 1, 5, 3, 2, 1, 3, 5, 4, 6, 1, 4, 2, 4, 1, 3, 0, 2, 2, 0, 268
Db major (5b), 0, 4, 1, 2, 1, 1, 3, 2, 2, 4, 1, 2, 1, 1, 3, 1, 2, 3, 1, 0, 0, 0, 2, 1, 1, 4, 1, 2, 1, 1, 3, 1, 1, 3, 1, 3, 2, 2, 3, 4, 0, 1, 2, 2, 2, 3, 2, 3, 1, 1, 3, 2, 4, 3, 2, 1, 7, 4, 6, 1, 0, 3, 0,  , 0, 2, 1, 1, 1, 3, 2, 1, 2, 3, 3, 2, 3, 4, 3, 4, 0, 1, 1, 2, 2, 3, 5, 1,  , 2, 0, 1, 4, 2, 3, 1, 0, 1, 1, 1, 1, 1, 2, 4, 4, 3, 5, 2, 1, 2, 2, 2, 1, 5, 3, 2, 1, 3, 5, 4, 6, 1, 4, 2, 4, 1, 3, 0, 2, 2, 0, 268
B major (5#), 0, 4, 1, 2, 1, 1, 3, 2, 2, 4, 1, 2, 1, 1, 3, 1, 2, 3, 1, 0, 0, 0, 2, 1, 1, 4, 1, 2, 1, 1, 3, 1, 1, 3, 1, 3, 2, 2, 3, 4, 0, 1, 2, 2, 2, 3, 2, 3, 1, 1, 3, 2, 4, 3, 2, 1, 7, 4, 6, 1, 0, 3, 0,  , 0, 2, 1, 1, 1, 3, 2, 1, 2, 3, 3, 2, 3, 4, 3, 4, 0, 1, 1, 2, 2, 3, 5, 1,  , 2, 0, 1, 4, 2, 3, 1, 0, 1, 1, 1, 1, 1, 2, 4, 4, 3, 5, 2, 1, 2, 2, 2, 1, 5, 3, 2, 1, 3, 5, 4, 6, 1, 4, 2, 4, 1, 3, 0, 2, 2, 0, 268
Bb minor (5b), 0, 3, 1, 1, 0, 0, 2, 3, 1, 3, 1, 1, 0, 0, 2, 1, 1, 6, 1, 1, 0, 0, 1, 2, 0, 3, 1, 1, 0, 0, 2, 1, 0, 2, 0, 2, 1, 2, 2, 3, 0, 0, 1, 1, 1, 3, 1, 2, 0, 2, 3, 3, 5, 2, 3, 2, 5, 3, 4, 0, 0, 2, 0,  , 0, 1, 1, 0, 1, 2, 1, 1, 2, 2, 2, 3, 2, 5, 2, 3, 0, 2, 2, 1, 3, 2, 4, 1,  , 1, 0, 1, 5, 1, 2, 0, 0, 0, 0, 0, 0, 1, 3, 3, 3, 3, 4, 2, 1, 3, 1, 1, 0, 6, 2, 3, 2, 2, 4, 3, 5, 0, 3, 1, 3, 1, 2, 0, 1, 4, 0, 214
G# minor (5#), 1, 4, 2, 2, 1, 1, 2, 3, 3, 4, 2, 2, 1, 1, 2, 2, 1, 2, 0, 1, 0, 0, 2, 1, 2, 4, 2, 2, 1, 1, 2, 2, 1, 3, 2, 3, 2, 3, 3, 3, 1, 2, 1, 3, 3, 4, 2, 4, 2, 0, 2, 4, 5, 3, 3, 1, 6, 3, 4, 2, 1, 3, 0,  , 0, 3, 1, 1, 0, 4, 3, 1, 1, 4, 3, 3, 2, 5, 4, 3, 0, 0, 0, 3, 2, 2, 5, 2,  , 3, 1, 2, 3, 3, 3, 2, 0, 2, 1, 2, 1, 2, 2, 5, 3, 5, 4, 1, 2, 2, 3, 2, 2, 4, 2, 3, 2, 2, 5, 6, 5, 1, 3, 1, 3, 2, 3, 1, 3, 1, 0, 290
Bb minor mel (5b), 0, 2, 1, 1, 0, 0, 2, 3, 1, 2, 1, 1, 0, 0, 2, 1, 1, 3, 1, 1, 0, 0, 1, 2, 0, 2, 1, 1, 0, 0, 2, 1, 0, 1, 0, 1, 1, 3, 3, 3, 0, 0, 1, 1, 1, 3, 2, 2, 0, 2, 2, 4, 5, 1, 3, 2, 5, 2, 4, 0, 0, 1, 0,  , 0, 1, 1, 0, 1, 2, 1, 1, 1, 2, 1, 4, 2, 5, 2, 2, 0, 1, 2, 1, 3, 2, 4, 1,  , 1, 0, 1, 4, 2, 2, 0, 0, 0, 0, 0, 0, 1, 4, 3, 3, 4, 5, 1, 1, 3, 1, 1, 0, 5, 2, 2, 2, 2, 4, 4, 4, 0, 3, 2, 3, 1, 2, 0, 1, 2, 0, 202
G# minor mel (5#), 1, 5, 2, 3, 3, 1, 3, 3, 4, 5, 2, 3, 3, 1, 3, 4, 1, 2, 0, 1, 0, 0, 2, 2, 3, 5, 2, 3, 3, 1, 3, 4, 3, 3, 4, 3, 5, 5, 6, 5, 1, 2, 1, 5, 3, 2, 3, 5, 2, 0, 3, 4, 4, 5, 3, 3, 5, 5, 6, 2, 1, 3, 0,  , 0, 3, 2, 2, 0, 6, 3, 1, 1, 4, 5, 5, 5, 5, 5, 4, 0, 0, 0, 3, 3, 2, 6, 2,  , 3, 1, 2, 4, 6, 4, 4, 0, 2, 4, 2, 4, 3, 3, 4, 4, 7, 3, 1, 4, 3, 3, 2, 2, 6, 2, 3, 3, 2, 6, 6, 4, 1, 2, 1, 2, 2, 3, 1, 4, 1, 0, 371
Db major blues (5b), 0, 4, 1, 2, 1, 1, 3, 2, 2, 4, 1, 2, 1, 1, 3, 1, 2, 3, 1, 0, 0, 0, 2, 1, 1, 4, 1, 2, 1, 1, 3, 1, 1, 3, 1, 3, 2, 2, 3, 4, 0, 1, 2, 2, 2, 3, 2, 3, 1, 1, 3, 2, 4, 3, 2, 1, 7, 4, 6, 1, 0, 3, 0,  , 0, 2, 1, 1, 1, 3, 2, 1, 2, 3, 3, 2, 3, 4, 3, 4, 0, 1, 1, 2, 2, 3, 5, 1,  , 2, 0, 1, 4, 2, 3, 1, 0, 1, 1, 1, 1, 1, 2, 4, 4, 3, 5, 2, 1, 2, 2, 2, 1, 5, 3, 2, 1, 3, 5, 4, 6, 1, 4, 2, 4, 1, 3, 0, 2, 2, 0, 268
B major blues (5#), 0, 4, 1, 3, 1, 1, 4, 2, 3, 4, 1, 3, 1, 1, 4, 3, 2, 3, 1, 0, 0, 0, 2, 2, 1, 4, 1, 3, 1, 1, 4, 3, 1, 2, 1, 2, 4, 4, 4, 4, 0, 1, 2, 4, 2, 1, 3, 4, 1, 1, 3, 3, 3, 2, 2, 3, 5, 4, 6, 1, 0, 2, 0,  , 0, 2, 2, 1, 1, 4, 2, 1, 1, 3, 2, 4, 5, 4, 3, 4, 0, 1, 1, 2, 3, 3, 5, 1,  , 2, 0, 1, 4, 3, 3, 1, 0, 1, 1, 1, 1, 2, 3, 5, 4, 6, 4, 1, 3, 2, 2, 2, 1, 5, 3, 2, 2, 3, 5, 6, 5, 1, 4, 2, 4, 1, 3, 0, 3, 2, 0, 298
Bb minor blues (5b), 0, 4, 1, 3, 1, 1, 4, 2, 3, 4, 1, 3, 1, 1, 4, 3, 2, 3, 1, 0, 0, 0, 2, 2, 1, 4, 1, 3, 1, 1, 4, 3, 1, 2, 1, 2, 4, 4, 4, 4, 0, 1, 2, 4, 2, 1, 3, 4, 1, 1, 3, 3, 3, 2, 2, 3, 5, 4, 6, 1, 0, 2, 0,  , 0, 2, 2, 1, 1, 4, 2, 1, 1, 3, 2, 4, 5, 4, 3, 4, 0, 1, 1, 2, 3, 3, 5, 1,  , 2, 0, 1, 4, 3, 3, 1, 0, 1, 1, 1, 1, 2, 3, 5, 4, 6, 4, 1, 3, 2, 2, 2, 1, 5, 3, 2, 2, 3, 5, 6, 5, 1, 4, 2, 4, 1, 3, 0, 3, 2, 0, 298
G# minor blues (5#), 0, 4, 1, 2, 1, 1, 3, 2, 2, 4, 1, 2, 1, 1, 3, 1, 2, 3, 1, 0, 0, 0, 2, 1, 1, 4, 1, 2, 1, 1, 3, 1, 1, 3, 1, 3, 2, 2, 3, 4, 0, 1, 2, 2, 2, 3, 2, 3, 1, 1, 3, 2, 4, 3, 2, 1, 7, 4, 6, 1, 0, 3, 0,  , 0, 2, 1, 1, 1, 3, 2, 1, 2, 3, 3, 2, 3, 4, 3, 4, 0, 1, 1, 2, 2, 3, 5, 1,  , 2, 0, 1, 4, 2, 3, 1, 0, 1, 1, 1, 1, 1, 2, 4, 4, 3, 5, 2, 1, 2, 2, 2, 1, 5, 3, 2, 1, 3, 5, 4, 6, 1, 4, 2, 4, 1, 3, 0, 2, 2, 0, 268
Db dorian (5b), 0, 4, 1, 3, 1, 1, 4, 2, 3, 4, 1, 3, 1, 1, 4, 3, 2, 3, 1, 0, 0, 0, 2, 2, 1, 4, 1, 3, 1, 1, 4, 3, 1, 2, 1, 2, 4, 4, 4, 4, 0, 1, 2, 4, 2, 1, 3, 4, 1, 1, 3, 3, 3, 2, 2, 3, 5, 4, 6, 1, 0, 2, 0,  , 0, 2, 2, 1, 1, 4, 2, 1, 1, 3, 2, 4, 5, 4, 3, 4, 0, 1, 1, 2, 3, 3, 5, 1,  , 2, 0, 1, 4, 3, 3, 1, 0, 1, 1, 1, 1, 2, 3, 5, 4, 6, 4, 1, 3, 2, 2, 2, 1, 5, 3, 2, 2, 3, 5, 6, 5, 1, 4, 2, 4, 1, 3, 0, 3, 2, 0, 298
B dorian (5#), 0, 4, 1, 2, 1, 1, 3, 2, 2, 4, 1, 2, 1, 1, 3, 1, 2, 3, 1, 0, 0, 0, 2, 1, 1, 4, 1, 2, 1, 1, 3, 1, 1, 3, 1, 3, 2, 2, 3, 4, 0, 1, 2, 2, 2, 3, 2, 3, 1, 1, 3, 2, 4, 3, 2, 1, 7, 4, 6, 1, 0, 3, 0,  , 0, 2, 1, 1, 1, 3, 2, 1, 2, 3, 3, 2, 3, 4, 3, 4, 0, 1, 1, 2, 2, 3, 5, 1,  , 2, 0, 1, 4, 2, 3, 1, 0, 1, 1, 1, 1, 1, 2, 4, 4, 3, 5, 2, 1, 2, 2, 2, 1, 5, 3, 2, 1, 3, 5, 4, 6, 1, 4, 2, 4, 1, 3, 0, 2, 2, 0, 268
Db phrygian (5b), 0, 4, 1, 2, 1, 1, 3, 2, 2, 4, 1, 2, 1, 1, 3, 1, 2, 3, 1, 0, 0, 0, 2, 1, 1, 4, 1, 2, 1, 1, 3, 1, 1, 3, 1, 3, 2, 2, 3, 4, 0, 1, 2, 2, 2, 3, 2, 3, 1, 1, 3, 2, 4, 3, 2, 1, 7, 4, 6, 1, 0, 3, 0,  , 0, 2, 1, 1, 1, 3, 2, 1, 2, 3, 3, 2, 3, 4, 3, 4, 0, 1, 1, 2, 2, 3, 5, 1,  , 2, 0, 1, 4, 2, 3, 1, 0, 1, 1, 1, 1, 1, 2, 4, 4, 3, 5, 2, 1, 2, 2, 2, 1, 5, 3, 2, 1, 3, 5, 4, 6, 1, 4, 2, 4, 1, 3, 0, 2, 2, 0, 268
B phrygian (5#), 0, 4, 1, 2, 1, 1, 3, 2, 2, 4, 1, 2, 1, 1, 3, 1, 2, 3, 1, 0, 0, 0, 2, 1, 1, 4, 1, 2, 1, 1, 3, 1, 1, 3, 1, 3, 2, 2, 3, 4, 0, 1, 2, 2, 2, 3, 2, 3, 1, 1, 3, 2, 4, 3, 2, 1, 7, 4, 6, 1, 0, 3, 0,  , 0, 2, 1, 1, 1, 3, 2, 1, 2, 3, 3, 2, 3, 4, 3, 4, 0, 1, 1, 2, 2, 3, 5, 1,  , 2, 0, 1, 4, 2, 3, 1, 0, 1, 1, 1, 1, 1, 2, 4, 4, 3, 5, 2, 1, 2, 2, 2, 1, 5, 3, 2, 1, 3, 5, 4, 6, 1, 4, 2, 4, 1, 3, 0, 2, 2, 0, 268
Db lydian (5b), 0, 4, 1, 2, 1, 1, 3, 2, 2, 4, 1, 2, 1, 1, 3, 1, 2, 3, 1, 0, 0, 0, 2, 1, 1, 4, 1, 2, 1, 1, 3, 1, 1, 3, 1, 3, 2, 2, 3, 4, 0, 1, 2, 2, 2, 3, 2, 3, 1, 1, 3, 2, 4, 3, 2, 1, 7, 4, 6, 1, 0, 3, 0,  , 0, 2, 1, 1, 1, 3, 2, 1, 2, 3, 3, 2, 3, 4, 3, 4, 0, 1, 1, 2, 2, 3, 5, 1,  , 2, 0, 1, 4, 2, 3, 1, 0, 1, 1, 1, 1, 1, 2, 4, 4, 3, 5, 2, 1, 2, 2, 2, 1, 5, 3, 2, 1, 3, 5, 4, 6, 1, 4, 2, 4, 1, 3, 0, 2, 2, 0, 268
B lydian (5#), 0, 4, 1, 2, 1, 1, 3, 2, 2, 4, 1, 2, 1, 1, 3, 1, 2, 3, 1, 0, 0, 0, 2, 1, 1, 4, 1, 2, 1, 1, 3, 1, 1, 3, 1, 3, 2, 2, 3, 4, 0, 1, 2, 2, 2, 3, 2, 3, 1, 1, 3, 2, 4, 3, 2, 1, 7, 4, 6, 1, 0, 3, 0,  , 0, 2, 1, 1, 1, 3, 2, 1, 2, 3, 3, 2, 3, 4, 3, 4, 0, 1, 1, 2, 2, 3, 5, 1,  , 2, 0, 1, 4, 2, 3, 1, 0, 1, 1, 1, 1, 1, 2, 4, 4, 3, 5, 2, 1, 2, 2, 2, 1, 5, 3, 2, 1, 3, 5, 4, 6, 1, 4, 2, 4, 1, 3, 0, 2, 2, 0, 268
Db mixolydian (5b), 0, 4, 1, 2, 1, 1, 3, 2, 2, 4, 1, 2, 1, 1, 3, 1, 2, 3, 1, 0, 0, 0, 2, 1, 1, 4, 1, 2, 1, 1, 3, 1, 1, 3, 1, 3, 2, 2, 3, 4, 0, 1, 2, 2, 2, 3, 2, 3, 1, 1, 3, 2, 4, 3, 2, 1, 7, 4, 6, 1, 0, 3, 0,  , 0, 2, 1, 1, 1, 3, 2, 1, 2, 3, 3, 2, 3, 4, 3, 4, 0, 1, 1, 2, 2, 3, 5, 1,  , 2, 0, 1, 4, 2, 3, 1, 0, 1, 1, 1, 1, 1, 2, 4, 4, 3, 5, 2, 1, 2, 2, 2, 1, 5, 3, 2, 1, 3, 5, 4, 6, 1, 4, 2, 4, 1, 3, 0, 2, 2, 0, 268
B mixolydian (5#), 0, 3, 1, 1, 0, 0, 2, 3, 1, 3, 1, 1, 0, 0, 2, 1, 1, 6, 1, 1, 0, 0, 1, 2, 0, 3, 1, 1, 0, 0, 2, 1, 0, 2, 0, 2, 1, 2, 2, 3, 0, 0, 1, 1, 1, 3, 1, 2, 0, 2, 3, 3, 5, 2, 3, 2, 5, 3, 4, 0, 0, 2, 0,  , 0, 1, 1, 0, 1, 2, 1, 1, 2, 2, 2, 3, 2, 5, 2, 3, 0, 2, 2, 1, 3, 2, 4, 1,  , 1, 0, 1, 5, 1, 2, 0, 0, 0, 0, 0, 0, 1, 3, 3, 3, 3, 4, 2, 1, 3, 1, 1, 0, 6, 2, 3, 2, 2, 4, 3, 5, 0, 3, 1, 3, 1, 2, 0, 1, 4, 0, 214
Db aeolian (5b), 1, 4, 2, 2, 1, 1, 2, 3, 3, 4, 2, 2, 1, 1, 2, 2, 1, 2, 0, 1, 0, 0, 2, 1, 2, 4, 2, 2, 1, 1, 2, 2, 1, 3, 2, 3, 2, 3, 3, 3, 1, 2, 1, 3, 3, 4, 2, 4, 2, 0, 2, 4, 5, 3, 3, 1, 6, 3, 4, 2, 1, 3, 0,  , 0, 3, 1, 1, 0, 4, 3, 1, 1, 4, 3, 3, 2, 5, 4, 3, 0, 0, 0, 3, 2, 2, 5, 2,  , 3, 1, 2, 3, 3, 3, 2, 0, 2, 1, 2, 1, 2, 2, 5, 3, 5, 4, 1, 2, 2, 3, 2, 2, 4, 2, 3, 2, 2, 5, 6, 5, 1, 3, 1, 3, 2, 3, 1, 3, 1, 0, 290
B aeolian (5#), 0, 2, 1, 1, 0, 0, 2, 3, 1, 2, 1, 1, 0, 0, 2, 1, 1, 3, 1, 1, 0, 0, 1, 2, 0, 2, 1, 1, 0, 0, 2, 1, 0, 1, 0, 1, 1, 3, 3, 3, 0, 0, 1, 1, 1, 3, 2, 2, 0, 2, 2, 4, 5, 1, 3, 2, 5, 2, 4, 0, 0, 1, 0,  , 0, 1, 1, 0, 1, 2, 1, 1, 1, 2, 1, 4, 2, 5, 2, 2, 0, 1, 2, 1, 3, 2, 4, 1,  , 1, 0, 1, 4, 2, 2, 0, 0, 0, 0, 0, 0, 1, 4, 3, 3, 4, 5, 1, 1, 3, 1, 1, 0, 5, 2, 2, 2, 2, 4, 4, 4, 0, 3, 2, 3, 1, 2, 0, 1, 2, 0, 202
Db locrian (5b), 1, 5, 2, 3, 3, 1, 3, 3, 4, 5, 2, 3, 3, 1, 3, 4, 1, 2, 0, 1, 0, 0, 2, 2, 3, 5, 2, 3, 3, 1, 3, 4, 3, 3, 4, 3, 5, 5, 6, 5, 1, 2, 1, 5, 3, 2, 3, 5, 2, 0, 3, 4, 4, 5, 3, 3, 5, 5, 6, 2, 1, 3, 0,  , 0, 3, 2, 2, 0, 6, 3, 1, 1, 4, 5, 5, 5, 5, 5, 4, 0, 0, 0, 3, 3, 2, 6, 2,  , 3, 1, 2, 4, 6, 4, 4, 0, 2, 4, 2, 4, 3, 3, 4, 4, 7, 3, 1, 4, 3, 3, 2, 2, 6, 2, 3, 3, 2, 6, 6, 4, 1, 2, 1, 2, 2, 3, 1, 4, 1, 0, 371
B locrian (5#), 0, 4, 1, 2, 1, 1, 3, 2, 2, 4, 1, 2, 1, 1, 3, 1, 2, 3, 1, 0, 0, 0, 2, 1, 1, 4, 1, 2, 1, 1, 3, 1, 1, 3, 1, 3, 2, 2, 3, 4, 0, 1, 2, 2, 2, 3, 2, 3, 1, 1, 3, 2, 4, 3, 2, 1, 7, 4, 6, 1, 0, 3, 0,  , 0, 2, 1, 1, 1, 3, 2, 1, 2, 3, 3, 2, 3, 4, 3, 4, 0, 1, 1, 2, 2, 3, 5, 1,  , 2, 0, 1, 4, 2, 3, 1, 0, 1, 1, 1, 1, 1, 2, 4, 4, 3, 5, 2, 1, 2, 2, 2, 1, 5, 3, 2, 1, 3, 5, 4, 6, 1, 4, 2, 4, 1, 3, 0, 2, 2, 0, 268
Gb major (6b), 0, 4, 1, 3, 1, 1, 4, 2, 3, 4, 1, 3, 1, 1, 4, 3, 2, 3, 1, 0, 0, 0, 2, 2, 1, 4, 1, 3, 1, 1, 4, 3, 1, 2, 1, 2, 4, 4, 4, 4, 0, 1, 2, 4, 2, 1, 3, 4, 1, 1, 3, 3, 3, 2, 2, 3, 5, 4, 6, 1, 0, 2, 0,  , 0, 2, 2, 1, 1, 4, 2, 1, 1, 3, 2, 4, 5, 4, 3, 4, 0, 1, 1, 2, 3, 3, 5, 1,  , 2, 0, 1, 4, 3, 3, 1, 0, 1, 1, 1, 1, 2, 3, 5, 4, 6, 4, 1, 3, 2, 2, 2, 1, 5, 3, 2, 2, 3, 5, 6, 5, 1, 4, 2, 4, 1, 3, 0, 3, 2, 0, 298
F# major (6#), 0, 4, 1, 3, 1, 1, 4, 2, 3, 4, 1, 3, 1, 1, 4, 3, 2, 3, 1, 0, 0, 0, 2, 2, 1, 4, 1, 3, 1, 1, 4, 3, 1, 2, 1, 2, 4, 4, 4, 4, 0, 1, 2, 4, 2, 1, 3, 4, 1, 1, 3, 3, 3, 2, 2, 3, 5, 4, 6, 1, 0, 2, 0,  , 0, 2, 2, 1, 1, 4, 2, 1, 1, 3, 2, 4, 5, 4, 3, 4, 0, 1, 1, 2, 3, 3, 5, 1,  , 2, 0, 1, 4, 3, 3, 1, 0, 1, 1, 1, 1, 2, 3, 5, 4, 6, 4, 1, 3, 2, 2, 2, 1, 5, 3, 2, 2, 3, 5, 6, 5, 1, 4, 2, 4, 1, 3, 0, 3, 2, 0, 298
Eb minor (6b), 0, 4, 1, 2, 1, 1, 3, 2, 2, 4, 1, 2, 1, 1, 3, 1, 2, 3, 1, 0, 0, 0, 2, 1, 1, 4, 1, 2, 1, 1, 3, 1, 1, 3, 1, 3, 2, 2, 3, 4, 0, 1, 2, 2, 2, 3, 2, 3, 1, 1, 3, 2, 4, 3, 2, 1, 7, 4, 6, 1, 0, 3, 0,  , 0, 2, 1, 1, 1, 3, 2, 1, 2, 3, 3, 2, 3, 4, 3, 4, 0, 1, 1, 2, 2, 3, 5, 1,  , 2, 0, 1, 4, 2, 3, 1, 0, 1, 1, 1, 1, 1, 2, 4, 4, 3, 5, 2, 1, 2, 2, 2, 1, 5, 3, 2, 1, 3, 5, 4, 6, 1, 4, 2, 4, 1, 3, 0, 2, 2, 0, 268
D# minor (6#), 0, 4, 1, 3, 1, 1, 4, 2, 3, 4, 1, 3, 1, 1, 4, 3, 2, 3, 1, 0, 0, 0, 2, 2, 1, 4, 1, 3, 1, 1, 4, 3, 1, 2, 1, 2, 4, 4, 4, 4, 0, 1, 2, 4, 2, 1, 3, 4, 1, 1, 3, 3, 3, 2, 2, 3, 5, 4, 6, 1, 0, 2, 0,  , 0, 2, 2, 1, 1, 4, 2, 1, 1, 3, 2, 4, 5, 4, 3, 4, 0, 1, 1, 2, 3, 3, 5, 1,  , 2, 0, 1, 4, 3, 3, 1, 0, 1, 1, 1, 1, 2, 3, 5, 4, 6, 4, 1, 3, 2, 2, 2, 1, 5, 3, 2, 2, 3, 5, 6, 5, 1, 4, 2, 4, 1, 3, 0, 3, 2, 0, 298
Eb minor mel (6b), 0, 4, 1, 2, 1, 1, 3, 2, 2, 4, 1, 2, 1, 1, 3, 1, 2, 3, 1, 0, 0, 0, 2, 1, 1, 4, 1, 2, 1, 1, 3, 1, 1, 3, 1, 3, 2, 2, 3, 4, 0, 1, 2, 2, 2, 3, 2, 3, 1, 1, 3, 2, 4, 3, 2, 1, 7, 4, 6, 1, 0, 3, 0,  , 0, 2, 1, 1, 1, 3, 2, 1, 2, 3, 3, 2, 3, 4, 3, 4, 0, 1, 1, 2, 2, 3, 5, 1,  , 2, 0, 1, 4, 2, 3, 1, 0, 1, 1, 1, 1, 1, 2, 4, 4, 3, 5, 2, 1, 2, 2, 2, 1, 5, 3, 2, 1, 3, 5, 4, 6, 1, 4, 2, 4, 1, 3, 0, 2, 2, 0, 268
D# minor mel (6#), 0, 4, 1, 2, 1, 1, 3, 2, 2, 4, 1, 2, 1, 1, 3, 1, 2, 3, 1, 0, 0, 0, 2, 1, 1, 4, 1, 2, 1, 1, 3, 1, 1, 3, 1, 3, 2, 2, 3, 4, 0, 1, 2, 2, 2, 3, 2, 3, 1, 1, 3, 2, 4, 3, 2, 1, 7, 4, 6, 1, 0, 3, 0,  , 0, 2, 1, 1, 1, 3, 2, 1, 2, 3, 3, 2, 3, 4, 3, 4, 0, 1, 1, 2, 2, 3, 5, 1,  , 2, 0, 1, 4, 2, 3, 1, 0, 1, 1, 1, 1, 1, 2, 4, 4, 3, 5, 2, 1, 2, 2, 2, 1, 5, 3, 2, 1, 3, 5, 4, 6, 1, 4, 2, 4, 1, 3, 0, 2, 2, 0, 268
Gb major blues (6b), 0, 4, 1, 2, 1, 1, 3, 2, 2, 4, 1, 2, 1, 1, 3, 1, 2, 3, 1, 0, 0, 0, 2, 1, 1, 4, 1, 2, 1, 1, 3, 1, 1, 3, 1, 3, 2, 2, 3, 4, 0, 1, 2, 2, 2, 3, 2, 3, 1, 1, 3, 2, 4, 3, 2, 1, 7, 4, 6, 1, 0, 3, 0,  , 0, 2, 1, 1, 1, 3, 2, 1, 2, 3, 3, 2, 3, 4, 3, 4, 0, 1, 1, 2, 2, 3, 5, 1,  , 2, 0, 1, 4, 2, 3, 1, 0, 1, 1, 1, 1, 1, 2, 4, 4, 3, 5, 2, 1, 2, 2, 2, 1, 5, 3, 2, 1, 3, 5, 4, 6, 1, 4, 2, 4, 1, 3, 0, 2, 2, 0, 268
F# major blues (6#), 0, 4, 1, 2, 1, 1, 3, 2, 2, 4, 1, 2, 1, 1, 3, 1, 2, 3, 1, 0, 0, 0, 2, 1, 1, 4, 1, 2, 1, 1, 3, 1, 1, 3, 1, 3, 2, 2, 3, 4, 0, 1, 2, 2, 2, 3, 2, 3, 1, 1, 3, 2, 4, 3, 2, 1, 7, 4, 6, 1, 0, 3, 0,  , 0, 2, 1, 1, 1, 3, 2, 1, 2, 3, 3, 2, 3, 4, 3, 4, 0, 1, 1, 2, 2, 3, 5, 1,  , 2, 0, 1, 4, 2, 3, 1, 0, 1, 1, 1, 1, 1, 2, 4, 4, 3, 5, 2, 1, 2, 2, 2, 1, 5, 3, 2, 1, 3, 5, 4, 6, 1, 4, 2, 4, 1, 3, 0, 2, 2, 0, 268
Eb minor blues (6b), 0, 4, 1, 2, 1, 1, 3, 2, 2, 4, 1, 2, 1, 1, 3, 1, 2, 3, 1, 0, 0, 0, 2, 1, 1, 4, 1, 2, 1, 1, 3, 1, 1, 3, 1, 3, 2, 2, 3, 4, 0, 1, 2, 2, 2, 3, 2, 3, 1, 1, 3, 2, 4, 3, 2, 1, 7, 4, 6, 1, 0, 3, 0,  , 0, 2, 1, 1, 1, 3, 2, 1, 2, 3, 3, 2, 3, 4, 3, 4, 0, 1, 1, 2, 2, 3, 5, 1,  , 2, 0, 1, 4, 2, 3, 1, 0, 1, 1, 1, 1, 1, 2, 4, 4, 3, 5, 2, 1, 2, 2, 2, 1, 5, 3, 2, 1, 3, 5, 4, 6, 1, 4, 2, 4, 1, 3, 0, 2, 2, 0, 268
D# minor blues (6#), 0, 4, 1, 2, 1, 1, 3, 2, 2, 4, 1, 2, 1, 1, 3, 1, 2, 3, 1, 0, 0, 0, 2, 1, 1, 4, 1, 2, 1, 1, 3, 1, 1, 3, 1, 3, 2, 2, 3, 4, 0, 1, 2, 2, 2, 3, 2, 3, 1, 1, 3, 2, 4, 3, 2, 1, 7, 4, 6, 1, 0, 3, 0,  , 0, 2, 1, 1, 1, 3, 2, 1, 2, 3, 3, 2, 3, 4, 3, 4, 0, 1, 1, 2, 2, 3, 5, 1,  , 2, 0, 1, 4, 2, 3, 1, 0, 1, 1, 1, 1, 1, 2, 4, 4, 3, 5, 2, 1, 2, 2, 2, 1, 5, 3, 2, 1, 3, 5, 4, 6, 1, 4, 2, 4, 1, 3, 0, 2, 2, 0, 268
Gb dorian (6b), 0, 3, 1, 1, 0, 0, 2, 3, 1, 3, 1, 1, 0, 0, 2, 1, 1, 6, 1, 1, 0, 0, 1, 2, 0, 3, 1, 1, 0, 0, 2, 1, 0, 2, 0, 2, 1, 2, 2, 3, 0, 0, 1, 1, 1, 3, 1, 2, 0, 2, 3, 3, 5, 2, 3, 2, 5, 3, 4, 0, 0, 2, 0,  , 0, 1, 1, 0, 1, 2, 1, 1, 2, 2, 2, 3, 2, 5, 2, 3, 0, 2, 2, 1, 3, 2, 4, 1,  , 1, 0, 1, 5, 1, 2, 0, 0, 0, 0, 0, 0, 1, 3, 3, 3, 3, 4, 2, 1, 3, 1, 1, 0, 6, 2, 3, 2, 2, 4, 3, 5, 0, 3, 1, 3, 1, 2, 0, 1, 4, 0, 214
F# dorian (6#), 1, 4, 2, 2, 1, 1, 2, 3, 3, 4, 2, 2, 1, 1, 2, 2, 1, 2, 0, 1, 0, 0, 2, 1, 2, 4, 2, 2, 1, 1, 2, 2, 1, 3, 2, 3, 2, 3, 3, 3, 1, 2, 1, 3, 3, 4, 2, 4, 2, 0, 2, 4, 5, 3, 3, 1, 6, 3, 4, 2, 1, 3, 0,  , 0, 3, 1, 1, 0, 4, 3, 1, 1, 4, 3, 3, 2, 5, 4, 3, 0, 0, 0, 3, 2, 2, 5, 2,  , 3, 1, 2, 3, 3, 3, 2, 0, 2, 1, 2, 1, 2, 2, 5, 3, 5, 4, 1, 2, 2, 3, 2, 2, 4, 2, 3, 2, 2, 5, 6, 5, 1, 3, 1, 3, 2, 3, 1, 3, 1, 0, 290
Gb phrygian (6b), 0, 2, 1, 1, 0, 0, 2, 3, 1, 2, 1, 1, 0, 0, 2, 1, 1, 3, 1, 1, 0, 0, 1, 2, 0, 2, 1, 1, 0, 0, 2, 1, 0, 1, 0, 1, 1, 3, 3, 3, 0, 0, 1, 1, 1, 3, 2, 2, 0, 2, 2, 4, 5, 1, 3, 2, 5, 2, 4, 0, 0, 1, 0,  , 0, 1, 1, 0, 1, 2, 1, 1, 1, 2, 1, 4, 2, 5, 2, 2, 0, 1, 2, 1, 3, 2, 4, 1,  , 1, 0, 1, 4, 2, 2, 0, 0, 0, 0, 0, 0, 1, 4, 3, 3, 4, 5, 1, 1, 3, 1, 1, 0, 5, 2, 2, 2, 2, 4, 4, 4, 0, 3, 2, 3, 1, 2, 0, 1, 2, 0, 202
F# phrygian (6#), 1, 5, 2, 3, 3, 1, 3, 3, 4, 5, 2, 3, 3, 1, 3, 4, 1, 2, 0, 1, 0, 0, 2, 2, 3, 5, 2, 3, 3, 1, 3, 4, 3, 3, 4, 3, 5, 5, 6, 5, 1, 2, 1, 5, 3, 2, 3, 5, 2, 0, 3, 4, 4, 5, 3, 3, 5, 5, 6, 2, 1, 3, 0,  , 0, 3, 2, 2, 0, 6, 3, 1, 1, 4, 5, 5, 5, 5, 5, 4, 0, 0, 0, 3, 3, 2, 6, 2,  , 3, 1, 2, 4, 6, 4, 4, 0, 2, 4, 2, 4, 3, 3, 4, 4, 7, 3, 1, 4, 3, 3, 2, 2, 6, 2, 3, 3, 2, 6, 6, 4, 1, 2, 1, 2, 2, 3, 1, 4, 1, 0, 371
Gb lydian (6b), 0, 4, 1, 2, 1, 1, 3, 2, 2, 4, 1, 2, 1, 1, 3, 1, 2, 3, 1, 0, 0, 0, 2, 1, 1, 4, 1, 2, 1, 1, 3, 1, 1, 3, 1, 3, 2, 2, 3, 4, 0, 1, 2, 2, 2, 3, 2, 3, 1, 1, 3, 2, 4, 3, 2, 1, 7, 4, 6, 1, 0, 3, 0,  , 0, 2, 1, 1, 1, 3, 2, 1, 2, 3, 3, 2, 3, 4, 3, 4, 0, 1, 1, 2, 2, 3, 5, 1,  , 2, 0, 1, 4, 2, 3, 1, 0, 1, 1, 1, 1, 1, 2, 4, 4, 3, 5, 2, 1, 2, 2, 2, 1, 5, 3, 2, 1, 3, 5, 4, 6, 1, 4, 2, 4, 1, 3, 0, 2, 2, 0, 268
F# lydian (6#), 0, 4, 1, 3, 1, 1, 4, 2, 3, 4, 1, 3, 1, 1, 4, 3, 2, 3, 1, 0, 0, 0, 2, 2, 1, 4, 1, 3, 1, 1, 4, 3, 1, 2, 1, 2, 4, 4, 4, 4, 0, 1, 2, 4, 2, 1, 3, 4, 1, 1, 3, 3, 3, 2, 2, 3, 5, 4, 6, 1, 0, 2, 0,  , 0, 2, 2, 1, 1, 4, 2, 1, 1, 3, 2, 4, 5, 4, 3, 4, 0, 1, 1, 2, 3, 3, 5, 1,  , 2, 0, 1, 4, 3, 3, 1, 0, 1, 1, 1, 1, 2, 3, 5, 4, 6, 4, 1, 3, 2, 2, 2, 1, 5, 3, 2, 2, 3, 5, 6, 5, 1, 4, 2, 4, 1, 3, 0, 3, 2, 0, 298
Gb mixolydian (6b), 0, 4, 1, 3, 1, 1, 4, 2, 3, 4, 1, 3, 1, 1, 4, 3, 2, 3, 1, 0, 0, 0, 2, 2, 1, 4, 1, 3, 1, 1, 4, 3, 1, 2, 1, 2, 4, 4, 4, 4, 0, 1, 2, 4, 2, 1, 3, 4, 1, 1, 3, 3, 3, 2, 2, 3, 5, 4, 6, 1, 0, 2, 0,  , 0, 2, 2, 1, 1, 4, 2, 1, 1, 3, 2, 4, 5, 4, 3, 4, 0, 1, 1, 2, 3, 3, 5, 1,  , 2, 0, 1, 4, 3, 3, 1, 0, 1, 1, 1, 1, 2, 3, 5, 4, 6, 4, 1, 3, 2, 2, 2, 1, 5, 3, 2, 2, 3, 5, 6, 5, 1, 4, 2, 4, 1, 3, 0, 3, 2, 0, 298
F# mixolydian (6#), 0, 4, 1, 2, 1, 1, 3, 2, 2, 4, 1, 2, 1, 1, 3, 1, 2, 3, 1, 0, 0, 0, 2, 1, 1, 4, 1, 2, 1, 1, 3, 1, 1, 3, 1, 3, 2, 2, 3, 4, 0, 1, 2, 2, 2, 3, 2, 3, 1, 1, 3, 2, 4, 3, 2, 1, 7, 4, 6, 1, 0, 3, 0,  , 0, 2, 1, 1, 1, 3, 2, 1, 2, 3, 3, 2, 3, 4, 3, 4, 0, 1, 1, 2, 2, 3, 5, 1,  , 2, 0, 1, 4, 2, 3, 1, 0, 1, 1, 1, 1, 1, 2, 4, 4, 3, 5, 2, 1, 2, 2, 2, 1, 5, 3, 2, 1, 3, 5, 4, 6, 1, 4, 2, 4, 1, 3, 0, 2, 2, 0, 268
Gb aeolian (6b), 0, 4, 1, 3, 1, 1, 4, 2, 3, 4, 1, 3, 1, 1, 4, 3, 2, 3, 1, 0, 0, 0, 2, 2, 1, 4, 1, 3, 1, 1, 4, 3, 1, 2, 1, 2, 4, 4, 4, 4, 0, 1, 2, 4, 2, 1, 3, 4, 1, 1, 3, 3, 3, 2, 2, 3, 5, 4, 6, 1, 0, 2, 0,  , 0, 2, 2, 1, 1, 4, 2, 1, 1, 3, 2, 4, 5, 4, 3, 4, 0, 1, 1, 2, 3, 3, 5, 1,  , 2, 0, 1, 4, 3, 3, 1, 0, 1, 1, 1, 1, 2, 3, 5, 4, 6, 4, 1, 3, 2, 2, 2, 1, 5, 3, 2, 2, 3, 5, 6, 5, 1, 4, 2, 4, 1, 3, 0, 3, 2, 0, 298
F# aeolian (6#), 0, 4, 1, 2, 1, 1, 3, 2, 2, 4, 1, 2, 1, 1, 3, 1, 2, 3, 1, 0, 0, 0, 2, 1, 1, 4, 1, 2, 1, 1, 3, 1, 1, 3, 1, 3, 2, 2, 3, 4, 0, 1, 2, 2, 2, 3, 2, 3, 1, 1, 3, 2, 4, 3, 2, 1, 7, 4, 6, 1, 0, 3, 0,  , 0, 2, 1, 1, 1, 3, 2, 1, 2, 3, 3, 2, 3, 4, 3, 4, 0, 1, 1, 2, 2, 3, 5, 1,  , 2, 0, 1, 4, 2, 3, 1, 0, 1, 1, 1, 1, 1, 2, 4, 4, 3, 5, 2, 1, 2, 2, 2, 1, 5, 3, 2, 1, 3, 5, 4, 6, 1, 4, 2, 4, 1, 3, 0, 2, 2, 0, 268
Gb locrian (6b), 0, 4, 1, 2, 1, 1, 3, 2, 2, 4, 1, 2, 1, 1, 3, 1, 2, 3, 1, 0, 0, 0, 2, 1, 1, 4, 1, 2, 1, 1, 3, 1, 1, 3, 1, 3, 2, 2, 3, 4, 0, 1, 2, 2, 2, 3, 2, 3, 1, 1, 3, 2, 4, 3, 2, 1, 7, 4, 6, 1, 0, 3, 0,  , 0, 2, 1, 1, 1, 3, 2, 1, 2, 3, 3, 2, 3, 4, 3, 4, 0, 1, 1, 2, 2, 3, 5, 1,  , 2, 0, 1, 4, 2, 3, 1, 0, 1, 1, 1, 1, 1, 2, 4, 4, 3, 5, 2, 1, 2, 2, 2, 1, 5, 3, 2, 1, 3, 5, 4, 6, 1, 4, 2, 4, 1, 3, 0, 2, 2, 0, 268
F# locrian (6#), 0, 4, 1, 2, 1, 1, 3, 2, 2, 4, 1, 2, 1, 1, 3, 1, 2, 3, 1, 0, 0, 0, 2, 1, 1, 4, 1, 2, 1, 1, 3, 1, 1, 3, 1, 3, 2, 2, 3, 4, 0, 1, 2, 2, 2, 3, 2, 3, 1, 1, 3, 2, 4, 3, 2, 1, 7, 4, 6, 1, 0, 3, 0,  , 0, 2, 1, 1, 1, 3, 2, 1, 2, 3, 3, 2, 3, 4, 3, 4, 0, 1, 1, 2, 2, 3, 5, 1,  , 2, 0, 1, 4, 2, 3, 1, 0, 1, 1, 1, 1, 1, 2, 4, 4, 3, 5, 2, 1, 2, 2, 2, 1, 5, 3, 2, 1, 3, 5, 4, 6, 1, 4, 2, 4, 1, 3, 0, 2, 2, 0, 268
Cb major (7b), 0, 4, 1, 2, 1, 1, 3, 2, 2, 4, 1, 2, 1, 1, 3, 1, 2, 3, 1, 0, 0, 0, 2, 1, 1, 4, 1, 2, 1, 1, 3, 1, 1, 3, 1, 3, 2, 2, 3, 4, 0, 1, 2, 2, 2, 3, 2, 3, 1, 1, 3, 2, 4, 3, 2, 1, 7, 4, 6, 1, 0, 3, 0,  , 0, 2, 1, 1, 1, 3, 2, 1, 2, 3, 3, 2, 3, 4, 3, 4, 0, 1, 1, 2, 2, 3, 5, 1,  , 2, 0, 1, 4, 2, 3, 1, 0, 1, 1, 1, 1, 1, 2, 4, 4, 3, 5, 2, 1, 2, 2, 2, 1, 5, 3, 2, 1, 3, 5, 4, 6, 1, 4, 2, 4, 1, 3, 0, 2, 2, 0, 268
C# major (7#), 0, 4, 1, 2, 1, 1, 3, 2, 2, 4, 1, 2, 1, 1, 3, 1, 2, 3, 1, 0, 0, 0, 2, 1, 1, 4, 1, 2, 1, 1, 3, 1, 1, 3, 1, 3, 2, 2, 3, 4, 0, 1, 2, 2, 2, 3, 2, 3, 1, 1, 3, 2, 4, 3, 2, 1, 7, 4, 6, 1, 0, 3, 0,  , 0, 2, 1, 1, 1, 3, 2, 1, 2, 3, 3, 2, 3, 4, 3, 4, 0, 1, 1, 2, 2, 3, 5, 1,  , 2, 0, 1, 4, 2, 3, 1, 0, 1, 1, 1, 1, 1, 2, 4, 4, 3, 5, 2, 1, 2, 2, 2, 1, 5, 3, 2, 1, 3, 5, 4, 6, 1, 4, 2, 4, 1, 3, 0, 2, 2, 0, 268
Ab minor (7b), 0, 4, 1, 2, 1, 1, 3, 2, 2, 4, 1, 2, 1, 1, 3, 1, 2, 3, 1, 0, 0, 0, 2, 1, 1, 4, 1, 2, 1, 1, 3, 1, 1, 3, 1, 3, 2, 2, 3, 4, 0, 1, 2, 2, 2, 3, 2, 3, 1, 1, 3, 2, 4, 3, 2, 1, 7, 4, 6, 1, 0, 3, 0,  , 0, 2, 1, 1, 1, 3, 2, 1, 2, 3, 3, 2, 3, 4, 3, 4, 0, 1, 1, 2, 2, 3, 5, 1,  , 2, 0, 1, 4, 2, 3, 1, 0, 1, 1, 1, 1, 1, 2, 4, 4, 3, 5, 2, 1, 2, 2, 2, 1, 5, 3, 2, 1, 3, 5, 4, 6, 1, 4, 2, 4, 1, 3, 0, 2, 2, 0, 268
A# minor (7#), 0, 3, 1, 1, 0, 0, 2, 3, 1, 3, 1, 1, 0, 0, 2, 1, 1, 6, 1, 1, 0, 0, 1, 2, 0, 3, 1, 1, 0, 0, 2, 1, 0, 2, 0, 2, 1, 2, 2, 3, 0, 0, 1, 1, 1, 3, 1, 2, 0, 2, 3, 3, 5, 2, 3, 2, 5, 3, 4, 0, 0, 2, 0,  , 0, 1, 1, 0, 1, 2, 1, 1, 2, 2, 2, 3, 2, 5, 2, 3, 0, 2, 2, 1, 3, 2, 4, 1,  , 1, 0, 1, 5, 1, 2, 0, 0, 0, 0, 0, 0, 1, 3, 3, 3, 3, 4, 2, 1, 3, 1, 1, 0, 6, 2, 3, 2, 2, 4, 3, 5, 0, 3, 1, 3, 1, 2, 0, 1, 4, 0, 214
Ab minor mel (7b), 1, 4, 2, 2, 1, 1, 2, 3, 3, 4, 2, 2, 1, 1, 2, 2, 1, 2, 0, 1, 0, 0, 2, 1, 2, 4, 2, 2, 1, 1, 2, 2, 1, 3, 2, 3, 2, 3, 3, 3, 1, 2, 1, 3, 3, 4, 2, 4, 2, 0, 2, 4, 5, 3, 3, 1, 6, 3, 4, 2, 1, 3, 0,  , 0, 3, 1, 1, 0, 4, 3, 1, 1, 4, 3, 3, 2, 5, 4, 3, 0, 0, 0, 3, 2, 2, 5, 2,  , 3, 1, 2, 3, 3, 3, 2, 0, 2, 1, 2, 1, 2, 2, 5, 3, 5, 4, 1, 2, 2, 3, 2, 2, 4, 2, 3, 2, 2, 5, 6, 5, 1, 3, 1, 3, 2, 3, 1, 3, 1, 0, 290
A# minor mel (7#), 0, 2, 1, 1, 0, 0, 2, 3, 1, 2, 1, 1, 0, 0, 2, 1, 1, 3, 1, 1, 0, 0, 1, 2, 0, 2, 1, 1, 0, 0, 2, 1, 0, 1, 0, 1, 1, 3, 3, 3, 0, 0, 1, 1, 1, 3, 2, 2, 0, 2, 2, 4, 5, 1, 3, 2, 5, 2, 4, 0, 0, 1, 0,  , 0, 1, 1, 0, 1, 2, 1, 1, 1, 2, 1, 4, 2, 5, 2, 2, 0, 1, 2, 1, 3, 2, 4, 1,  , 1, 0, 1, 4, 2, 2, 0, 0, 0, 0, 0, 0, 1, 4, 3, 3, 4, 5, 1, 1, 3, 1, 1, 0, 5, 2, 2, 2, 2, 4, 4, 4, 0, 3, 2, 3, 1, 2, 0, 1, 2, 0, 202
Cb major blues (7b), 1, 5, 2, 3, 3, 1, 3, 3, 4, 5, 2, 3, 3, 1, 3, 4, 1, 2, 0, 1, 0, 0, 2, 2, 3, 5, 2, 3, 3, 1, 3, 4, 3, 3, 4, 3, 5, 5, 6, 5, 1, 2, 1, 5, 3, 2, 3, 5, 2, 0, 3, 4, 4, 5, 3, 3, 5, 5, 6, 2, 1, 3, 0,  , 0, 3, 2, 2, 0, 6, 3, 1, 1, 4, 5, 5, 5, 5, 5, 4, 0, 0, 0, 3, 3, 2, 6, 2,  , 3, 1, 2, 4, 6, 4, 4, 0, 2, 4, 2, 4, 3, 3, 4, 4, 7, 3, 1, 4, 3, 3, 2, 2, 6, 2, 3, 3, 2, 6, 6, 4, 1, 2, 1, 2, 2, 3, 1, 4, 1, 0, 371
C# major blues (7#), 0, 4, 1, 2, 1, 1, 3, 2, 2, 4, 1, 2, 1, 1, 3, 1, 2, 3, 1, 0, 0, 0, 2, 1, 1, 4, 1, 2, 1, 1, 3, 1, 1, 3, 1, 3, 2, 2, 3, 4, 0, 1, 2, 2, 2, 3, 2, 3, 1, 1, 3, 2, 4, 3, 2, 1, 7, 4, 6, 1, 0, 3, 0,  , 0, 2, 1, 1, 1, 3, 2, 1, 2, 3, 3, 2, 3, 4, 3, 4, 0, 1, 1, 2, 2, 3, 5, 1,  , 2, 0, 1, 4, 2, 3, 1, 0, 1, 1, 1, 1, 1, 2, 4, 4, 3, 5, 2, 1, 2, 2, 2, 1, 5, 3, 2, 1, 3, 5, 4, 6, 1, 4, 2, 4, 1, 3, 0, 2, 2, 0, 268
Ab minor blues (7b), 0, 4, 1, 3, 1, 1, 4, 2, 3, 4, 1, 3, 1, 1, 4, 3, 2, 3, 1, 0, 0, 0, 2, 2, 1, 4, 1, 3, 1, 1, 4, 3, 1, 2, 1, 2, 4, 4, 4, 4, 0, 1, 2, 4, 2, 1, 3, 4, 1, 1, 3, 3, 3, 2, 2, 3, 5, 4, 6, 1, 0, 2, 0,  , 0, 2, 2, 1, 1, 4, 2, 1, 1, 3, 2, 4, 5, 4, 3, 4, 0, 1, 1, 2, 3, 3, 5, 1,  , 2, 0, 1, 4, 3, 3, 1, 0, 1, 1, 1, 1, 2, 3, 5, 4, 6, 4, 1, 3, 2, 2, 2, 1, 5, 3, 2, 2, 3, 5, 6, 5, 1, 4, 2, 4, 1, 3, 0, 3, 2, 0, 298
A# minor blues (7#), 0, 4, 1, 3, 1, 1, 4, 2, 3, 4, 1, 3, 1, 1, 4, 3, 2, 3, 1, 0, 0, 0, 2, 2, 1, 4, 1, 3, 1, 1, 4, 3, 1, 2, 1, 2, 4, 4, 4, 4, 0, 1, 2, 4, 2, 1, 3, 4, 1, 1, 3, 3, 3, 2, 2, 3, 5, 4, 6, 1, 0, 2, 0,  , 0, 2, 2, 1, 1, 4, 2, 1, 1, 3, 2, 4, 5, 4, 3, 4, 0, 1, 1, 2, 3, 3, 5, 1,  , 2, 0, 1, 4, 3, 3, 1, 0, 1, 1, 1, 1, 2, 3, 5, 4, 6, 4, 1, 3, 2, 2, 2, 1, 5, 3, 2, 2, 3, 5, 6, 5, 1, 4, 2, 4, 1, 3, 0, 3, 2, 0, 298
Cb dorian (7b), 0, 4, 1, 2, 1, 1, 3, 2, 2, 4, 1, 2, 1, 1, 3, 1, 2, 3, 1, 0, 0, 0, 2, 1, 1, 4, 1, 2, 1, 1, 3, 1, 1, 3, 1, 3, 2, 2, 3, 4, 0, 1, 2, 2, 2, 3, 2, 3, 1, 1, 3, 2, 4, 3, 2, 1, 7, 4, 6, 1, 0, 3, 0,  , 0, 2, 1, 1, 1, 3, 2, 1, 2, 3, 3, 2, 3, 4, 3, 4, 0, 1, 1, 2, 2, 3, 5, 1,  , 2, 0, 1, 4, 2, 3, 1, 0, 1, 1, 1, 1, 1, 2, 4, 4, 3, 5, 2, 1, 2, 2, 2, 1, 5, 3, 2, 1, 3, 5, 4, 6, 1, 4, 2, 4, 1, 3, 0, 2, 2, 0, 268
C# dorian (7#), 0, 4, 1, 3, 1, 1, 4, 2, 3, 4, 1, 3, 1, 1, 4, 3, 2, 3, 1, 0, 0, 0, 2, 2, 1, 4, 1, 3, 1, 1, 4, 3, 1, 2, 1, 2, 4, 4, 4, 4, 0, 1, 2, 4, 2, 1, 3, 4, 1, 1, 3, 3, 3, 2, 2, 3, 5, 4, 6, 1, 0, 2, 0,  , 0, 2, 2, 1, 1, 4, 2, 1, 1, 3, 2, 4, 5, 4, 3, 4, 0, 1, 1, 2, 3, 3, 5, 1,  , 2, 0, 1, 4, 3, 3, 1, 0, 1, 1, 1, 1, 2, 3, 5, 4, 6, 4, 1, 3, 2, 2, 2, 1, 5, 3, 2, 2, 3, 5, 6, 5, 1, 4, 2, 4, 1, 3, 0, 3, 2, 0, 298
Cb phrygian (7b), 0, 4, 1, 2, 1, 1, 3, 2, 2, 4, 1, 2, 1, 1, 3, 1, 2, 3, 1, 0, 0, 0, 2, 1, 1, 4, 1, 2, 1, 1, 3, 1, 1, 3, 1, 3, 2, 2, 3, 4, 0, 1, 2, 2, 2, 3, 2, 3, 1, 1, 3, 2, 4, 3, 2, 1, 7, 4, 6, 1, 0, 3, 0,  , 0, 2, 1, 1, 1, 3, 2, 1, 2, 3, 3, 2, 3, 4, 3, 4, 0, 1, 1, 2, 2, 3, 5, 1,  , 2, 0, 1, 4, 2, 3, 1, 0, 1, 1, 1, 1, 1, 2, 4, 4, 3, 5, 2, 1, 2, 2, 2, 1, 5, 3, 2, 1, 3, 5, 4, 6, 1, 4, 2, 4, 1, 3, 0, 2, 2, 0, 268
C# phrygian (7#), 0, 4, 1, 2, 1, 1, 3, 2, 2, 4, 1, 2, 1, 1, 3, 1, 2, 3, 1, 0, 0, 0, 2, 1, 1, 4, 1, 2, 1, 1, 3, 1, 1, 3, 1, 3, 2, 2, 3, 4, 0, 1, 2, 2, 2, 3, 2, 3, 1, 1, 3, 2, 4, 3, 2, 1, 7, 4, 6, 1, 0, 3, 0,  , 0, 2, 1, 1, 1, 3, 2, 1, 2, 3, 3, 2, 3, 4, 3, 4, 0, 1, 1, 2, 2, 3, 5, 1,  , 2, 0, 1, 4, 2, 3, 1, 0, 1, 1, 1, 1, 1, 2, 4, 4, 3, 5, 2, 1, 2, 2, 2, 1, 5, 3, 2, 1, 3, 5, 4, 6, 1, 4, 2, 4, 1, 3, 0, 2, 2, 0, 268
Cb lydian (7b), 0, 4, 1, 2, 1, 1, 3, 2, 2, 4, 1, 2, 1, 1, 3, 1, 2, 3, 1, 0, 0, 0, 2, 1, 1, 4, 1, 2, 1, 1, 3, 1, 1, 3, 1, 3, 2, 2, 3, 4, 0, 1, 2, 2, 2, 3, 2, 3, 1, 1, 3, 2, 4, 3, 2, 1, 7, 4, 6, 1, 0, 3, 0,  , 0, 2, 1, 1, 1, 3, 2, 1, 2, 3, 3, 2, 3, 4, 3, 4, 0, 1, 1, 2, 2, 3, 5, 1,  , 2, 0, 1, 4, 2, 3, 1, 0, 1, 1, 1, 1, 1, 2, 4, 4, 3, 5, 2, 1, 2, 2, 2, 1, 5, 3, 2, 1, 3, 5, 4, 6, 1, 4, 2, 4, 1, 3, 0, 2, 2, 0, 268
C# lydian (7#), 0, 4, 1, 2, 1, 1, 3, 2, 2, 4, 1, 2, 1, 1, 3, 1, 2, 3, 1, 0, 0, 0, 2, 1, 1, 4, 1, 2, 1, 1, 3, 1, 1, 3, 1, 3, 2, 2, 3, 4, 0, 1, 2, 2, 2, 3, 2, 3, 1, 1, 3, 2, 4, 3, 2, 1, 7, 4, 6, 1, 0, 3, 0,  , 0, 2, 1, 1, 1, 3, 2, 1, 2, 3, 3, 2, 3, 4, 3, 4, 0, 1, 1, 2, 2, 3, 5, 1,  , 2, 0, 1, 4, 2, 3, 1, 0, 1, 1, 1, 1, 1, 2, 4, 4, 3, 5, 2, 1, 2, 2, 2, 1, 5, 3, 2, 1, 3, 5, 4, 6, 1, 4, 2, 4, 1, 3, 0, 2, 2, 0, 268
Cb mixolydian (7b), 0, 4, 1, 2, 1, 1, 3, 2, 2, 4, 1, 2, 1, 1, 3, 1, 2, 3, 1, 0, 0, 0, 2, 1, 1, 4, 1, 2, 1, 1, 3, 1, 1, 3, 1, 3, 2, 2, 3, 4, 0, 1, 2, 2, 2, 3, 2, 3, 1, 1, 3, 2, 4, 3, 2, 1, 7, 4, 6, 1, 0, 3, 0,  , 0, 2, 1, 1, 1, 3, 2, 1, 2, 3, 3, 2, 3, 4, 3, 4, 0, 1, 1, 2, 2, 3, 5, 1,  , 2, 0, 1, 4, 2, 3, 1, 0, 1, 1, 1, 1, 1, 2, 4, 4, 3, 5, 2, 1, 2, 2, 2, 1, 5, 3, 2, 1, 3, 5, 4, 6, 1, 4, 2, 4, 1, 3, 0, 2, 2, 0, 268
C# mixolydian (7#), 0, 4, 1, 2, 1, 1, 3, 2, 2, 4, 1, 2, 1, 1, 3, 1, 2, 3, 1, 0, 0, 0, 2, 1, 1, 4, 1, 2, 1, 1, 3, 1, 1, 3, 1, 3, 2, 2, 3, 4, 0, 1, 2, 2, 2, 3, 2, 3, 1, 1, 3, 2, 4, 3, 2, 1, 7, 4, 6, 1, 0, 3, 0,  , 0, 2, 1, 1, 1, 3, 2, 1, 2, 3, 3, 2, 3, 4, 3, 4, 0, 1, 1, 2, 2, 3, 5, 1,  , 2, 0, 1, 4, 2, 3, 1, 0, 1, 1, 1, 1, 1, 2, 4, 4, 3, 5, 2, 1, 2, 2, 2, 1, 5, 3, 2, 1, 3, 5, 4, 6, 1, 4, 2, 4, 1, 3, 0, 2, 2, 0, 268
Cb aeolian (7b), 0, 3, 1, 1, 0, 0, 2, 3, 1, 3, 1, 1, 0, 0, 2, 1, 1, 6, 1, 1, 0, 0, 1, 2, 0, 3, 1, 1, 0, 0, 2, 1, 0, 2, 0, 2, 1, 2, 2, 3, 0, 0, 1, 1, 1, 3, 1, 2, 0, 2, 3, 3, 5, 2, 3, 2, 5, 3, 4, 0, 0, 2, 0,  , 0, 1, 1, 0, 1, 2, 1, 1, 2, 2, 2, 3, 2, 5, 2, 3, 0, 2, 2, 1, 3, 2, 4, 1,  , 1, 0, 1, 5, 1, 2, 0, 0, 0, 0, 0, 0, 1, 3, 3, 3, 3, 4, 2, 1, 3, 1, 1, 0, 6, 2, 3, 2, 2, 4, 3, 5, 0, 3, 1, 3, 1, 2, 0, 1, 4, 0, 214
C# aeolian (7#), 1, 4, 2, 2, 1, 1, 2, 3, 3, 4, 2, 2, 1, 1, 2, 2, 1, 2, 0, 1, 0, 0, 2, 1, 2, 4, 2, 2, 1, 1, 2, 2, 1, 3, 2, 3, 2, 3, 3, 3, 1, 2, 1, 3, 3, 4, 2, 4, 2, 0, 2, 4, 5, 3, 3, 1, 6, 3, 4, 2, 1, 3, 0,  , 0, 3, 1, 1, 0, 4, 3, 1, 1, 4, 3, 3, 2, 5, 4, 3, 0, 0, 0, 3, 2, 2, 5, 2,  , 3, 1, 2, 3, 3, 3, 2, 0, 2, 1, 2, 1, 2, 2, 5, 3, 5, 4, 1, 2, 2, 3, 2, 2, 4, 2, 3, 2, 2, 5, 6, 5, 1, 3, 1, 3, 2, 3, 1, 3, 1, 0, 290
Cb locrian (7b), 0, 2, 1, 1, 0, 0, 2, 3, 1, 2, 1, 1, 0, 0, 2, 1, 1, 3, 1, 1, 0, 0, 1, 2, 0, 2, 1, 1, 0, 0, 2, 1, 0, 1, 0, 1, 1, 3, 3, 3, 0, 0, 1, 1, 1, 3, 2, 2, 0, 2, 2, 4, 5, 1, 3, 2, 5, 2, 4, 0, 0, 1, 0,  , 0, 1, 1, 0, 1, 2, 1, 1, 1, 2, 1, 4, 2, 5, 2, 2, 0, 1, 2, 1, 3, 2, 4, 1,  , 1, 0, 1, 4, 2, 2, 0, 0, 0, 0, 0, 0, 1, 4, 3, 3, 4, 5, 1, 1, 3, 1, 1, 0, 5, 2, 2, 2, 2, 4, 4, 4, 0, 3, 2, 3, 1, 2, 0, 1, 2, 0, 202
C# locrian (7#), 1, 5, 2, 3, 3, 1, 3, 3, 4, 5, 2, 3, 3, 1, 3, 4, 1, 2, 0, 1, 0, 0, 2, 2, 3, 5, 2, 3, 3, 1, 3, 4, 3, 3, 4, 3, 5, 5, 6, 5, 1, 2, 1, 5, 3, 2, 3, 5, 2, 0, 3, 4, 4, 5, 3, 3, 5, 5, 6, 2, 1, 3, 0,  , 0, 3, 2, 2, 0, 6, 3, 1, 1, 4, 5, 5, 5, 5, 5, 4, 0, 0, 0, 3, 3, 2, 6, 2,  , 3, 1, 2, 4, 6, 4, 4, 0, 2, 4, 2, 4, 3, 3, 4, 4, 7, 3, 1, 4, 3, 3, 2, 2, 6, 2, 3, 3, 2, 6, 6, 4, 1, 2, 1, 2, 2, 3, 1, 4, 1, 0, 371
