 , 0, 1, 2, 3, 4, 5, 6, 7, 8, 9, 10, 11, 12, 13, 14, 15, 16, 17, 18, 19, 20, 21, 22, 23, 24, 25, 26, 27, 28, 29, 30, 31, 32, 33, 34, 35, 36, 37, 38, 39, 40, 41, 42, 43, 44, 45, 46, 47, 48, 49, 50, 51, 52, 53, 54, 55, 56, 57, 58, 59, 60, 61, 62, 63, 64, 65, 66, 67, 68, 69, 70, 71, 72, 73, 74, 75, 76, 77, 78, 79, 80, 81, 82, 83, 84, 85, 86, 87, 88, 89, 90, 91, 92, 93, 94, 95, 96, 97, 98, 99, 100, 101, 102, 103, 104, 105, 106, 107, 108, 109, 110, 111, 112, 113, 114, 115, 116, 117, 118, 119, 120, 121, 122, 123, 124, 125, 126, 127, 128, 129, 130, 131, 132, 133, 134, 135, 136, 137, 138, 139, 140, 141, 142, 143, 144, 145, 146, 147, 148, 149, 150, 151, 152, 153, 154, 155, 156, 157, 158, 159, 160, 161, 162, 163, 164, 165, 166, 167, 168, 169, 170, 171, 172, 173, 174, 175, 176, 177, 178, 179, 180, 181, 182, 183, 184, 185, 186, 187, 188, 189, 190, 191, 192, 193, 194, 195, 196, 197, 198, 199, 200, 201, 202, 203, 204, 205, 206, 207, 208, 209, 210, 211, 212, 213, 214, 215, 216, 217, 218, 219, 220, rowcost
C major (0), 0+0:0:0:0:0, 3+1:0:0:0:0, 4+2:1:0:0:1, 3+4:0:0:0:0, 1+0:0:0:0:0, 3+1:0:0:0:0, 4+2:1:0:0:1, 2+4:0:0:0:0, 1+1:0:0:0:0, 2+1:0:0:0:0, 1+1:0:0:0:0, 1+4:0:0:0:0, 1+1:0:0:0:0, 3+1:0:0:0:0, 4+2:1:0:0:1, 3+4:0:0:0:0, 1+0:0:0:0:0, 3+1:0:0:0:0, 4+2:1:0:0:1, 3+4:0:0:0:0, 1+0:0:0:0:0, 3+1:0:0:0:0, 4+2:1:0:0:1, 2+4:0:0:0:0, 1+1:0:0:0:0, 2+1:0:0:0:0, 1+1:0:0:0:0, 1+4:0:0:0:0, 1+1:0:0:0:0, 3+1:0:0:0:0, 4+2:1:0:0:1, 3+4:0:0:0:0, 1+0:0:0:0:0, 2+1:0:0:0:0, 2+1:1:0:0:1, 2+1:0:0:0:0, 2+1:1:0:0:1, 2+1:0:0:0:0, 2+1:1:0:0:1, 3+5:0:0:0:0, 8+6:0:0:0:2, 2+1:0:0:0:0, 2+2:0:0:0:1, 2+1:0:0:0:0, 4+4:0:0:0:0, 3+3:0:0:0:0, 2+1:1:0:0:1, 7+4:0:0:0:0, 5+5:2:0:0:2, 4+3:0:0:0:0, 4+2:1:0:0:1, 2+1:0:0:0:0, 2+1:0:0:0:0, 3+1:0:0:0:0, 3+2:1:0:0:0, 2+1:0:0:0:0, 1+1:0:0:0:0, 1+0:0:0:0:0, 3+1:0:0:0:0, 1+1:0:0:0:0, 4+3:0:1:0:3, 6+4:0:0:0:0, 7+5:1:0:0:1, 5+3:0:0:0:0, 1+0:0:0:0:0, 2+1:0:0:0:0, 2+1:1:0:0:1, 4+2:0:0:0:0, 1+0:0:0:0:0, 4+2:0:0:0:0, 2+1:1:0:0:1, 3+4:0:0:0:0, 2+2:0:0:0:1, 1+0:0:0:0:0, 0+0:0:0:0:0, 1+1:0:0:0:0, 1+1:0:0:0:0, 2+1:0:0:0:0, 2+1:1:0:0:1, 4+3:1:0:0:1, 1+0:0:0:0:0, 2+1:0:0:0:0, 3+1:1:0:0:1, 4+2:0:0:0:0, 1+0:0:0:0:0, 2+2:0:0:0:0, 2+1:1:0:0:1, 1+2:0:0:0:0, 1+1:0:0:0:0, 1+0:0:0:0:0, 0+0:0:0:0:0, 1+2:0:0:0:0, 1+1:0:0:0:0, 2+1:0:0:0:0, 2+2:2:0:0:2, 2+3:0:0:0:0, 1+0:0:0:0:0, 2+3:0:0:0:0, 2+3:3:0:0:3, 2+3:0:0:0:0, 1+0:0:0:0:0, 4+2:0:0:0:0, 5+3:2:0:0:2, 1+4:0:0:0:0, 1+2:0:0:0:0, 1+1:0:0:0:0, 3+2:0:0:0:0, 4+5:1:1:0:1, 2+1:1:0:0:0, 4+2:0:0:0:0, 2+1:1:0:0:1, 2+2:0:0:0:0, 1+0:0:0:0:0, 3+2:1:0:0:1, 4+4:2:0:0:2, 5+3:0:0:0:0, 2+2:0:0:0:0, 4+2:0:0:0:0, 5+3:2:0:0:2, 1+3:0:0:0:0, 1+1:0:0:0:0, 1+0:0:0:0:0, 1+0:0:0:0:0, 1+1:0:0:0:0, 1+2:0:0:0:0, 2+1:0:0:0:0, 5+3:2:0:0:2, 4+2:0:0:0:0, 2+1:0:0:0:0, 2+2:0:0:0:0, 4+2:1:0:0:1, 4+2:0:0:0:0, 1+0:0:0:0:0, 2+1:0:0:0:0, 3+3:1:0:0:1, 4+3:0:0:0:1, 2+1:0:0:0:0, 1+0:0:0:0:0, 1+2:0:0:0:0, 1+1:0:0:0:0, 5+3:2:0:0:2, 6+4:0:0:0:0, 2+2:2:0:0:2, 2+2:0:0:0:0, 1+0:0:0:0:0, 2+1:0:0:0:0, 3+1:1:0:0:1, 2+1:0:0:0:0, 1+0:0:0:0:0, 2+1:0:0:0:0, 3+1:1:0:0:1, 1+2:0:0:0:0, 1+1:0:0:0:0, 2+1:0:0:0:0, 2+1:0:0:0:0, 2+2:0:0:0:0, 3+4:3:0:0:3, 4+2:0:0:0:0, 2+1:1:0:0:1, 2+2:0:0:0:0, 1+0:0:0:0:0, 2+1:0:0:0:0, 3+1:1:0:0:1, 3+4:0:0:0:0, 2+1:0:0:0:0, 2+2:0:0:0:0, 2+1:1:0:0:1, 4+4:0:0:0:0, 4+3:0:0:0:0, 1+0:0:0:0:0,  , 1+3:0:0:0:0, 2+2:0:0:0:2, 3+1:0:0:0:0, 6+3:2:0:0:2, 4+2:0:0:0:0, 1+0:0:0:0:0, 2+2:0:0:0:0, 2+3:3:0:0:3, 2+2:0:0:0:0, 1+0:0:0:0:0, 3+2:0:0:0:0, 4+2:1:0:0:1, 2+3:0:0:0:0, 3+3:0:0:0:1, 1+0:0:0:0:0, 0+0:0:0:0:0, 1+2:0:0:0:0, 1+2:0:0:0:0, 6+3:0:0:0:0, 3+1:1:0:0:1, 2+1:0:0:0:0, 1+0:0:0:0:0, 4+2:0:0:0:0, 4+2:1:0:0:1, 2+2:0:0:0:0, 2+1:0:0:0:0, 2+1:0:0:0:0, 5+2:1:0:0:1, 3+2:0:0:0:0, 1+1:0:0:0:0, 2+1:0:0:0:0, 4+3:0:0:0:2, 1+3:0:0:0:0, 1+2:0:0:0:0, 5+4:2:0:0:2, 2+1:1:0:0:1, 2+2:2:0:0:2, 2+1:0:0:0:0, 6+3:1:0:0:0, 5+3:1:0:0:1, 4+3:0:0:0:1, 4+3:0:0:0:1, 2+3:0:0:0:2, 3+3:2:0:0:0, 2+2:0:0:0:1, 3+2:0:0:0:0, 4+3:1:0:0:0, 2+1:0:0:0:0, 2+1:0:0:0:0, 0+0:0:0:0:0, 537+388:71:2:0:83
A minor (0), 0+1:0:0:0:0, 3+5:0:0:0:1, 4+3:0:0:0:0, 3+5:0:0:0:2, 1+1:0:0:0:0, 3+5:0:0:0:1, 4+3:0:0:0:0, 2+4:0:0:0:2, 1+2:0:0:0:1, 2+2:0:0:0:0, 1+1:0:0:0:0, 1+4:0:0:0:4, 1+2:0:0:0:0, 3+5:0:0:0:1, 4+3:0:0:0:0, 3+5:0:0:0:2, 1+1:0:0:0:0, 3+5:0:0:0:1, 4+3:0:0:0:0, 3+5:0:0:0:2, 1+1:0:0:0:0, 3+5:0:0:0:1, 4+3:0:0:0:0, 2+4:0:0:0:2, 1+2:0:0:0:1, 2+2:0:0:0:0, 1+1:0:0:0:0, 1+4:0:0:0:4, 1+2:0:0:0:0, 3+5:0:0:0:1, 4+3:0:0:0:0, 3+5:0:0:0:2, 1+1:0:0:0:0, 2+4:0:0:0:1, 2+0:0:0:0:0, 2+2:0:0:0:0, 2+4:1:0:0:0, 2+3:0:0:0:1, 2+0:0:0:0:0, 3+6:0:0:0:0, 9+8:0:0:0:3, 2+2:0:0:0:1, 2+4:0:0:0:1, 2+3:0:0:0:1, 4+4:0:0:0:1, 3+8:0:0:0:1, 2+0:0:0:0:0, 8+6:0:0:0:0, 5+8:2:0:0:3, 4+6:0:0:0:1, 4+2:0:0:0:1, 2+2:0:0:0:0, 2+5:0:0:0:0, 3+3:0:0:0:1, 3+2:1:0:0:1, 2+2:0:0:0:0, 1+3:0:0:0:1, 1+4:0:0:0:0, 3+3:0:0:0:0, 1+1:0:0:0:1, 4+4:0:1:0:1, 6+7:0:0:0:1, 7+5:0:0:0:1, 6+7:0:0:0:0, 1+3:0:0:0:0, 2+2:0:0:0:1, 2+0:0:0:0:0, 4+4:0:0:0:0, 1+2:0:0:0:0, 4+4:0:0:0:1, 2+0:0:0:0:0, 3+4:0:0:0:0, 2+3:0:0:0:1, 1+2:0:0:0:0, 0+1:0:0:0:0, 1+2:0:0:0:1, 1+1:0:0:0:0, 2+4:0:0:0:1, 2+0:0:0:0:0, 4+5:1:0:0:0, 1+1:0:0:0:0, 2+6:0:0:0:1, 3+3:0:0:0:0, 4+5:0:0:0:0, 1+1:0:0:0:0, 2+3:0:0:0:2, 2+0:0:0:0:0, 1+2:0:0:0:0, 1+2:0:0:0:1, 1+2:0:0:0:0, 0+1:0:0:0:0, 1+3:0:0:0:2, 1+1:0:0:0:0, 2+3:0:0:0:1, 2+0:0:0:0:0, 2+4:0:0:0:0, 1+1:0:0:0:0, 2+5:0:0:0:3, 2+0:0:0:0:0, 2+5:0:0:0:0, 1+2:0:0:0:0, 4+5:0:0:0:1, 4+3:3:2:0:3, 1+4:0:0:0:0, 1+6:0:0:0:2, 1+3:0:0:0:0, 3+3:0:0:0:0, 5+4:0:0:0:1, 2+3:0:0:0:1, 4+5:0:0:0:1, 2+0:0:0:0:0, 2+3:0:0:0:0, 1+1:0:0:0:0, 3+4:0:0:0:1, 4+2:0:0:0:2, 5+4:0:0:0:0, 2+3:0:0:0:0, 4+5:0:0:0:1, 5+2:0:0:0:1, 1+3:0:0:0:0, 1+4:0:0:0:1, 1+2:0:0:0:0, 1+0:0:0:0:0, 1+1:0:0:0:1, 1+3:0:0:0:0, 2+3:0:0:0:1, 5+2:1:0:0:1, 4+3:0:0:0:0, 2+3:0:0:0:0, 2+8:0:0:0:2, 4+1:0:0:0:1, 4+3:0:0:0:0, 1+2:0:0:0:0, 2+3:0:0:0:1, 3+2:0:0:0:2, 4+4:0:0:0:1, 2+2:0:0:0:1, 1+4:0:0:0:0, 2+5:0:0:0:0, 1+4:0:0:0:0, 5+2:0:0:0:0, 6+6:0:0:0:4, 2+0:0:0:0:0, 2+3:0:0:0:0, 1+1:0:0:0:0, 2+5:0:0:0:1, 3+3:0:0:0:0, 2+5:0:0:0:0, 1+4:0:0:0:0, 2+5:0:0:0:1, 3+3:0:0:0:0, 1+3:0:0:0:0, 1+4:0:0:0:1, 2+3:0:0:0:0, 2+1:0:0:0:1, 2+6:0:0:0:0, 3+5:3:0:0:0, 4+5:0:0:0:1, 2+0:0:0:0:0, 2+3:0:0:0:0, 1+1:0:0:0:0, 2+5:0:0:0:1, 3+3:0:0:0:0, 3+5:0:0:0:0, 2+3:0:0:0:0, 2+5:0:0:0:2, 2+0:0:0:0:0, 4+4:0:0:0:0, 4+5:0:0:0:1, 1+1:0:0:0:0,  , 1+3:0:0:0:3, 2+0:0:0:0:0, 3+3:0:0:0:1, 6+3:1:0:0:2, 4+3:0:0:0:0, 1+1:0:0:0:0, 2+3:0:0:0:2, 2+0:0:0:0:0, 2+3:0:0:0:0, 1+1:0:0:0:0, 3+3:0:0:0:1, 4+1:0:0:0:1, 2+3:0:0:0:1, 3+5:0:0:0:2, 1+2:0:0:0:0, 0+2:0:0:0:0, 1+4:0:0:0:2, 1+2:0:0:0:0, 6+8:0:0:0:2, 3+4:0:0:0:0, 2+4:0:0:0:0, 1+3:0:0:0:0, 4+7:0:0:0:2, 3+3:3:3:0:3, 2+4:0:0:0:0, 2+2:0:0:0:0, 2+3:0:0:0:1, 5+2:0:0:0:1, 3+2:0:0:0:0, 1+2:0:0:0:1, 2+3:0:0:0:0, 4+3:0:0:0:0, 1+3:0:0:0:3, 1+2:0:0:0:0, 5+4:2:0:0:1, 2+0:0:0:0:0, 2+1:0:0:0:0, 2+2:0:0:0:0, 6+6:1:0:0:1, 5+5:1:0:0:1, 4+5:0:0:0:0, 4+5:0:0:0:0, 2+6:0:0:0:0, 3+5:2:0:0:2, 2+5:0:0:0:0, 3+4:0:0:0:0, 4+4:1:0:0:1, 2+3:0:0:0:0, 2+1:0:0:0:0, 0+0:0:0:0:0, 540+682:23:6:0:138
F major (1b), 0+0:0:0:0:0, 2+1:0:0:0:0, 3+2:1:0:0:1, 4+4:0:0:0:0, 0+0:0:0:0:0, 2+1:0:0:0:0, 3+2:1:0:0:1, 3+4:0:0:0:0, 2+1:0:0:0:0, 1+1:0:0:0:0, 1+0:0:0:0:0, 1+0:0:0:0:0, 1+1:0:0:0:0, 2+1:0:0:0:0, 3+2:1:0:0:1, 4+4:0:0:0:0, 0+0:0:0:0:0, 2+1:0:0:0:0, 3+2:1:0:0:1, 4+4:0:0:0:0, 0+0:0:0:0:0, 2+1:0:0:0:0, 3+2:1:0:0:1, 3+4:0:0:0:0, 2+1:0:0:0:0, 1+1:0:0:0:0, 1+0:0:0:0:0, 1+0:0:0:0:0, 1+1:0:0:0:0, 2+1:0:0:0:0, 3+2:1:0:0:1, 4+4:0:0:0:0, 0+0:0:0:0:0, 1+1:0:0:0:0, 1+1:1:0:0:1, 3+1:0:0:0:0, 1+1:1:0:0:1, 1+1:0:0:0:0, 1+1:1:0:0:1, 4+5:0:0:0:0, 9+6:0:0:0:2, 1+1:0:0:0:0, 3+2:0:0:0:1, 2+1:0:0:0:0, 4+4:0:0:0:0, 2+3:0:0:0:0, 1+1:1:0:0:1, 8+4:0:0:0:0, 4+5:2:0:0:2, 3+3:0:0:0:0, 3+2:1:0:0:1, 3+1:0:0:0:0, 1+1:0:0:0:0, 2+3:0:0:0:1, 2+1:1:0:0:0, 2+1:0:0:0:0, 2+1:0:0:0:0, 0+0:0:0:0:0, 2+1:0:0:0:0, 1+0:0:0:0:0, 4+3:0:1:0:3, 5+4:0:0:0:0, 6+5:1:0:0:1, 6+3:0:0:0:0, 0+0:0:0:0:0, 1+1:0:0:0:0, 1+1:1:0:0:1, 5+2:0:0:0:0, 0+0:0:0:0:0, 3+2:0:0:0:0, 1+1:1:0:0:1, 3+4:0:0:0:0, 3+2:0:0:0:1, 0+0:0:0:0:0, 0+0:0:0:0:0, 1+1:0:0:0:0, 1+1:0:0:0:0, 1+1:0:0:0:0, 1+1:1:0:0:1, 3+3:1:0:0:1, 0+0:0:0:0:0, 1+1:0:0:0:0, 2+1:1:0:0:1, 5+2:0:0:0:0, 0+0:0:0:0:0, 1+2:0:0:0:0, 1+1:1:0:0:1, 1+2:0:0:0:0, 2+1:0:0:0:0, 0+0:0:0:0:0, 0+0:0:0:0:0, 1+2:0:0:0:0, 1+1:0:0:0:0, 1+1:0:0:0:0, 1+2:2:0:0:2, 3+3:0:0:0:0, 0+0:0:0:0:0, 1+3:0:0:0:0, 1+3:3:0:0:3, 3+3:0:0:0:0, 0+0:0:0:0:0, 3+2:0:0:0:0, 4+3:2:0:0:2, 2+4:0:0:0:0, 2+2:0:0:0:0, 0+0:0:0:0:0, 4+2:0:0:0:0, 5+3:0:0:0:0, 2+3:0:0:0:0, 3+2:0:0:0:0, 1+1:1:0:0:1, 3+2:0:0:0:0, 0+0:0:0:0:0, 3+2:0:0:0:0, 3+4:2:0:0:2, 6+3:0:0:0:0, 1+2:0:0:0:0, 3+2:0:0:0:0, 4+3:2:0:0:2, 1+3:0:0:0:0, 2+1:0:0:0:0, 0+0:0:0:0:0, 0+0:0:0:0:0, 1+1:0:0:0:0, 1+2:0:0:0:0, 1+1:0:0:0:0, 4+3:2:0:0:2, 5+2:0:0:0:0, 1+1:0:0:0:0, 1+2:0:0:0:0, 3+2:1:0:0:1, 5+2:0:0:0:0, 0+0:0:0:0:0, 1+1:0:0:0:0, 2+3:1:0:0:1, 4+3:0:0:0:0, 3+1:0:0:0:0, 0+0:0:0:0:0, 1+2:0:0:0:0, 1+0:0:0:0:0, 4+3:2:0:0:2, 5+4:0:0:0:0, 1+2:2:0:0:2, 3+2:0:0:0:0, 0+0:0:0:0:0, 1+1:0:0:0:0, 2+1:1:0:0:1, 3+1:0:0:0:0, 0+0:0:0:0:0, 1+1:0:0:0:0, 2+1:1:0:0:1, 1+2:0:0:0:0, 2+1:0:0:0:0, 1+1:0:0:0:0, 1+1:0:0:0:0, 1+0:0:0:0:0, 2+4:3:0:0:3, 3+2:0:0:0:0, 1+1:1:0:0:1, 3+2:0:0:0:0, 0+0:0:0:0:0, 1+1:0:0:0:0, 2+1:1:0:0:1, 4+4:0:0:0:0, 1+1:0:0:0:0, 1+2:0:0:0:0, 1+1:1:0:0:1, 4+4:0:0:0:0, 5+3:0:0:0:0, 0+0:0:0:0:0,  , 1+0:0:0:0:0, 2+3:3:0:0:3, 2+1:0:0:0:0, 5+3:2:0:0:2, 5+2:0:0:0:0, 0+0:0:0:0:0, 1+2:0:0:0:0, 1+3:3:0:0:3, 3+2:0:0:0:0, 0+0:0:0:0:0, 2+2:0:0:0:0, 3+2:1:0:0:1, 3+3:0:0:0:0, 4+3:0:0:0:1, 0+0:0:0:0:0, 0+0:0:0:0:0, 1+2:0:0:0:0, 1+2:0:0:0:0, 5+3:0:0:0:0, 2+1:1:0:0:1, 3+1:0:0:0:0, 0+0:0:0:0:0, 3+2:0:0:0:0, 3+2:1:0:0:1, 3+2:0:0:0:0, 1+1:0:0:0:0, 1+1:0:0:0:0, 4+2:1:0:0:1, 3+2:0:0:0:0, 2+1:0:0:0:0, 1+1:0:0:0:0, 4+3:0:0:0:2, 1+3:0:0:0:0, 1+2:0:0:0:0, 4+4:2:0:0:2, 1+1:1:0:0:1, 1+2:2:0:0:2, 3+1:0:0:0:0, 5+3:1:0:0:1, 6+3:0:0:0:0, 3+2:2:0:0:2, 5+3:0:0:0:0, 1+2:2:0:0:2, 4+3:0:0:0:0, 1+1:1:0:0:1, 4+2:0:0:0:0, 3+2:1:0:0:1, 3+1:0:0:0:0, 1+1:0:0:0:0, 0+0:0:0:0:0, 459+368:73:1:0:83
G major (1#), 0+0:0:0:0:0, 4+5:0:0:0:1, 4+4:1:0:0:1, 2+3:2:0:0:0, 1+1:0:0:0:0, 4+5:0:0:0:1, 4+4:1:0:0:1, 1+2:2:0:0:0, 2+1:0:0:0:0, 2+2:0:0:0:0, 1+0:0:0:0:0, 2+1:0:0:0:0, 0+0:0:0:0:0, 4+5:0:0:0:1, 4+4:1:0:0:1, 2+3:2:0:0:0, 1+1:0:0:0:0, 4+5:0:0:0:1, 4+4:1:0:0:1, 2+3:2:0:0:0, 1+1:0:0:0:0, 4+5:0:0:0:1, 4+4:1:0:0:1, 1+2:2:0:0:0, 2+1:0:0:0:0, 2+2:0:0:0:0, 1+0:0:0:0:0, 2+1:0:0:0:0, 0+0:0:0:0:0, 4+5:0:0:0:1, 4+4:1:0:0:1, 2+3:2:0:0:0, 1+1:0:0:0:0, 3+4:0:0:0:1, 2+2:2:0:0:0, 1+3:0:0:0:0, 1+1:1:0:0:0, 3+3:0:0:0:1, 2+2:2:0:0:0, 2+2:1:0:0:1, 9+6:0:0:0:2, 1+1:1:0:0:0, 2+2:0:0:0:1, 3+2:0:0:0:0, 2+3:1:2:0:3, 4+8:0:0:0:1, 2+4:4:0:0:0, 6+4:1:0:0:1, 4+4:1:0:0:2, 5+6:0:0:0:1, 4+4:2:0:0:0, 1+5:0:0:0:0, 2+5:0:0:0:0, 4+3:0:0:0:1, 2+1:1:0:0:0, 1+1:0:0:0:0, 2+1:0:0:0:0, 1+1:0:0:0:0, 4+3:0:0:0:0, 2+1:0:0:0:0, 3+3:0:1:0:3, 7+3:0:0:0:0, 8+4:0:0:0:1, 4+5:1:0:0:0, 1+2:0:0:0:0, 3+2:0:0:0:1, 2+1:1:0:0:0, 3+3:0:0:0:1, 1+1:0:0:0:0, 5+2:0:0:0:0, 3+3:0:0:0:1, 2+1:0:0:0:0, 3+2:0:0:0:1, 1+1:0:0:0:0, 0+0:0:0:0:0, 2+3:0:0:0:0, 0+0:0:0:0:0, 3+5:0:0:0:0, 3+3:0:0:0:1, 3+4:0:0:0:1, 1+2:0:0:0:0, 3+6:0:0:0:1, 3+4:1:0:0:0, 2+3:0:1:0:1, 1+1:0:0:0:0, 3+2:0:0:0:0, 3+2:0:0:0:1, 0+0:0:0:0:0, 2+1:0:0:0:0, 1+1:0:0:0:0, 0+0:0:0:0:0, 2+1:0:0:0:0, 0+0:0:0:0:0, 3+4:0:0:0:0, 3+4:0:0:0:2, 1+3:0:0:0:0, 1+1:0:0:0:0, 3+3:0:0:0:0, 3+4:0:0:0:3, 1+2:0:0:0:0, 1+2:0:0:0:0, 5+5:0:0:0:1, 4+4:1:2:0:3, 0+0:0:0:0:0, 2+2:0:0:0:0, 1+1:0:0:0:0, 3+2:0:0:0:0, 5+5:1:1:0:1, 1+1:1:0:0:0, 5+3:0:0:0:0, 3+3:0:0:0:1, 1+2:0:0:0:0, 1+2:0:0:0:0, 4+4:0:0:0:1, 4+5:3:0:0:0, 4+3:0:0:0:1, 2+1:0:0:0:0, 5+2:0:0:0:0, 6+5:0:0:0:2, 0+0:0:0:0:0, 2+1:0:0:0:0, 2+1:0:0:0:0, 1+0:0:0:0:0, 2+3:0:0:0:0, 0+0:0:0:0:0, 3+3:0:0:0:1, 5+4:2:0:0:0, 3+2:0:0:0:0, 2+1:0:0:0:0, 3+2:0:0:0:0, 4+2:1:0:0:1, 3+2:0:0:0:0, 1+1:0:0:0:0, 3+3:0:0:0:1, 3+2:1:1:0:1, 2+2:0:1:0:2, 3+1:0:0:0:0, 1+1:0:0:0:0, 1+2:0:0:0:0, 2+3:0:0:0:0, 4+2:0:0:0:0, 5+7:4:0:0:2, 3+3:0:0:0:2, 1+1:0:0:0:0, 1+1:0:0:0:0, 3+5:0:0:0:1, 3+4:1:0:0:0, 1+1:0:0:0:0, 1+2:0:0:0:0, 3+5:0:0:0:1, 3+4:1:0:0:0, 0+0:0:0:0:0, 2+1:0:0:0:0, 2+2:0:0:0:0, 2+1:1:1:0:1, 3+2:0:0:0:0, 2+2:1:0:0:1, 5+2:0:0:0:0, 3+3:0:0:0:1, 1+1:0:0:0:0, 1+1:0:0:0:0, 3+5:0:0:0:1, 3+4:1:0:0:0, 2+2:0:0:0:1, 2+1:0:0:0:0, 3+2:0:0:0:0, 3+3:0:0:0:1, 3+3:0:0:0:0, 5+3:0:0:0:0, 1+1:0:0:0:0,  , 2+3:0:0:0:0, 1+2:0:0:0:2, 4+3:0:0:0:1, 6+5:2:0:0:1, 3+2:0:0:0:0, 1+1:0:0:0:0, 3+3:0:0:0:2, 2+1:1:0:0:0, 1+1:0:0:0:0, 1+1:0:0:0:0, 4+2:0:0:0:0, 5+4:0:0:0:1, 1+1:1:0:0:0, 4+3:0:0:0:1, 1+1:0:0:0:0, 1+0:0:0:0:0, 2+2:0:0:0:0, 0+0:0:0:0:0, 5+4:3:0:0:0, 3+5:1:0:0:0, 1+1:0:0:0:0, 1+1:0:0:0:0, 5+4:0:0:0:0, 5+3:0:0:0:1, 1+2:0:0:0:0, 2+2:0:0:0:0, 3+3:0:0:0:1, 5+3:1:0:0:0, 1+1:0:1:0:1, 2+1:0:0:0:0, 2+2:0:0:0:0, 3+3:2:0:0:0, 2+3:0:0:0:0, 0+0:0:0:0:0, 6+6:0:0:0:0, 3+3:0:0:0:1, 2+3:0:0:0:2, 1+1:0:0:0:0, 5+3:1:0:0:0, 4+3:1:0:0:1, 5+3:0:0:0:1, 3+3:0:0:0:1, 3+3:0:0:0:2, 2+3:2:0:0:0, 3+2:0:0:0:1, 2+2:0:0:0:0, 3+3:1:0:0:0, 1+1:0:0:0:0, 1+1:0:0:0:0, 0+0:0:0:0:0, 548+531:73:11:0:93
D minor (1b), 0+0:0:0:0:0, 2+5:0:0:0:1, 3+3:0:0:0:0, 4+5:0:0:0:2, 0+1:0:0:0:0, 2+5:0:0:0:1, 3+3:0:0:0:0, 3+4:0:0:0:2, 2+2:0:0:0:1, 1+2:0:0:0:0, 1+0:0:0:0:0, 1+1:0:0:0:0, 1+0:0:0:0:0, 2+5:0:0:0:1, 3+3:0:0:0:0, 4+5:0:0:0:2, 0+1:0:0:0:0, 2+5:0:0:0:1, 3+3:0:0:0:0, 4+5:0:0:0:2, 0+1:0:0:0:0, 2+5:0:0:0:1, 3+3:0:0:0:0, 3+4:0:0:0:2, 2+2:0:0:0:1, 1+2:0:0:0:0, 1+0:0:0:0:0, 1+1:0:0:0:0, 1+0:0:0:0:0, 2+5:0:0:0:1, 3+3:0:0:0:0, 4+5:0:0:0:2, 0+1:0:0:0:0, 1+4:0:0:0:1, 1+0:0:0:0:0, 3+2:0:0:0:0, 1+4:1:0:0:0, 1+3:0:0:0:1, 1+0:0:0:0:0, 4+6:0:0:0:0, 10+8:0:0:0:3, 1+2:0:0:0:1, 3+4:0:0:0:1, 2+3:0:0:0:1, 4+4:0:0:0:1, 2+8:0:0:0:1, 1+0:0:0:0:0, 9+6:0:0:0:0, 4+8:2:0:0:3, 3+6:0:0:0:1, 3+2:0:0:0:1, 3+2:0:0:0:0, 1+5:0:0:0:0, 2+3:0:0:0:1, 2+1:1:0:0:0, 2+2:0:0:0:0, 2+3:0:0:0:1, 0+4:0:0:0:0, 2+3:0:0:0:0, 1+1:0:0:0:0, 4+3:0:1:0:3, 5+7:0:0:0:1, 6+5:0:0:0:1, 7+7:0:0:0:0, 0+3:0:0:0:0, 1+2:0:0:0:1, 1+0:0:0:0:0, 5+4:0:0:0:0, 0+2:0:0:0:0, 3+4:0:0:0:1, 1+0:0:0:0:0, 3+4:0:0:0:0, 3+3:0:0:0:1, 0+2:0:0:0:0, 0+1:0:0:0:0, 1+2:0:0:0:0, 1+1:0:0:0:0, 1+4:0:0:0:1, 1+0:0:0:0:0, 3+5:1:0:0:0, 0+1:0:0:0:0, 1+6:0:0:0:1, 2+4:1:0:0:0, 4+5:0:1:0:1, 0+1:0:0:0:0, 1+3:0:0:0:2, 1+0:0:0:0:0, 1+2:0:0:0:0, 2+2:0:0:0:1, 0+2:0:0:0:0, 0+2:0:0:0:0, 1+3:0:0:0:0, 1+1:0:0:0:0, 1+3:0:0:0:1, 1+0:0:0:0:0, 3+4:0:0:0:0, 0+1:0:0:0:0, 1+5:0:0:0:3, 1+0:0:0:0:0, 3+5:0:0:0:0, 0+2:0:0:0:0, 3+5:0:0:0:1, 3+3:3:2:0:3, 2+4:0:0:0:0, 2+6:0:0:0:2, 0+2:0:0:0:0, 4+3:0:0:0:0, 5+4:0:0:0:1, 2+3:0:0:0:1, 3+5:0:0:0:1, 1+0:0:0:0:0, 3+3:0:0:0:0, 0+1:0:0:0:0, 2+4:0:0:0:1, 3+2:0:0:0:2, 6+4:0:0:0:0, 1+3:0:0:0:0, 3+5:0:0:0:1, 4+2:0:0:0:1, 1+3:0:0:0:0, 2+4:0:0:0:1, 0+2:0:0:0:0, 0+0:0:0:0:0, 1+3:0:0:0:0, 1+3:0:0:0:0, 1+3:0:0:0:1, 5+4:2:0:0:0, 5+6:0:0:0:0, 1+3:0:0:0:0, 1+8:0:0:0:2, 3+1:0:0:0:1, 5+3:0:0:0:0, 0+2:0:0:0:0, 1+3:0:0:0:1, 2+2:0:0:0:2, 4+4:0:0:0:0, 3+2:0:0:0:1, 0+4:0:0:0:0, 2+5:0:0:0:0, 1+3:0:0:0:0, 4+2:0:0:0:0, 5+6:0:0:0:4, 1+0:0:0:0:0, 3+3:0:0:0:0, 0+1:0:0:0:0, 1+5:0:0:0:1, 2+4:1:0:0:0, 3+4:0:0:0:0, 0+4:0:0:0:0, 1+5:0:0:0:1, 2+3:0:0:0:0, 1+3:0:0:0:0, 2+4:0:0:0:1, 1+3:0:0:0:0, 1+1:0:0:0:1, 1+2:0:0:0:0, 2+5:3:0:0:0, 3+5:0:0:0:1, 1+0:0:0:0:0, 3+3:0:0:0:0, 0+1:0:0:0:0, 1+5:0:0:0:1, 2+3:0:0:0:0, 4+5:0:0:0:0, 1+3:0:0:0:0, 1+5:0:0:0:2, 1+0:0:0:0:0, 4+4:0:0:0:0, 5+5:0:0:0:1, 0+1:0:0:0:0,  , 1+3:0:0:0:0, 2+0:0:0:0:0, 2+3:0:0:0:1, 5+5:2:0:0:1, 5+6:0:0:0:0, 0+1:0:0:0:0, 1+3:0:0:0:2, 1+1:1:0:0:0, 3+3:0:0:0:0, 0+1:0:0:0:0, 2+3:0:0:0:1, 3+1:0:0:0:1, 3+3:0:0:0:1, 4+5:0:0:0:2, 0+2:0:0:0:0, 0+0:0:0:0:0, 1+4:0:0:0:0, 1+2:0:0:0:0, 5+8:0:0:0:2, 2+5:1:0:0:0, 3+6:0:0:0:0, 0+3:0:0:0:0, 3+7:0:0:0:2, 2+3:3:3:0:3, 3+4:0:0:0:0, 1+2:0:0:0:0, 1+3:0:0:0:1, 4+2:0:0:0:1, 3+2:0:0:0:0, 2+2:0:0:0:1, 1+3:0:0:0:0, 4+3:0:0:0:0, 1+3:0:0:0:3, 1+2:0:0:0:0, 4+4:2:0:0:1, 1+0:0:0:0:0, 1+1:0:0:0:0, 3+2:0:0:0:0, 5+4:0:0:0:1, 6+5:0:0:0:0, 3+5:1:0:0:0, 5+4:0:0:0:0, 1+1:0:0:0:0, 4+4:0:0:0:0, 1+1:0:0:0:0, 4+4:0:0:0:0, 3+2:0:0:0:1, 3+2:0:0:0:0, 1+1:0:0:0:1, 0+0:0:0:0:0, 460+661:25:7:0:117
E minor (1#), 0+1:0:0:0:0, 4+5:0:0:0:1, 4+6:1:0:0:1, 2+7:2:0:0:2, 1+3:0:0:0:0, 4+5:0:0:0:1, 4+6:1:0:0:1, 1+6:2:0:0:2, 2+2:0:0:0:1, 2+4:0:0:0:0, 1+1:0:0:0:0, 2+4:0:0:0:4, 0+0:0:0:0:0, 4+5:0:0:0:1, 4+6:1:0:0:1, 2+7:2:0:0:2, 1+3:0:0:0:0, 4+5:0:0:0:1, 4+6:1:0:0:1, 2+7:2:0:0:2, 1+3:0:0:0:0, 4+5:0:0:0:1, 4+6:1:0:0:1, 1+5:2:0:0:2, 2+2:0:0:0:1, 2+4:0:0:0:0, 1+1:0:0:0:0, 2+4:0:0:0:4, 0+0:0:0:0:0, 4+5:0:0:0:1, 4+6:1:0:0:1, 2+7:2:0:0:2, 1+2:0:0:0:0, 3+6:0:0:0:1, 2+5:0:0:0:0, 1+6:0:0:0:0, 1+1:1:0:0:1, 3+3:0:0:0:1, 2+0:0:0:0:0, 2+3:1:0:0:1, 10+8:0:0:0:3, 1+1:1:0:0:1, 2+2:0:0:0:0, 3+3:0:0:0:1, 2+3:1:2:0:3, 4+8:0:0:0:1, 2+0:0:0:0:0, 6+6:1:0:0:1, 4+4:1:0:0:1, 5+6:0:0:0:1, 4+2:1:0:0:0, 1+7:0:0:0:0, 2+3:0:0:0:0, 4+3:0:0:0:1, 2+2:1:0:0:1, 1+2:0:0:0:0, 2+3:0:0:0:1, 1+4:0:0:0:0, 4+3:0:0:0:0, 2+1:0:0:0:0, 3+3:0:1:0:3, 7+7:0:0:0:1, 8+7:0:0:0:0, 4+8:1:0:0:1, 1+5:0:0:0:0, 3+2:0:0:0:1, 2+3:1:0:0:1, 3+6:0:0:0:0, 1+2:0:0:0:0, 5+4:0:0:0:1, 3+5:0:0:0:0, 2+3:0:0:0:0, 3+3:0:0:0:1, 1+3:0:0:0:0, 0+1:0:0:0:0, 2+2:0:0:0:1, 0+0:0:0:0:0, 3+8:0:0:0:1, 3+6:0:0:0:0, 3+8:0:0:0:0, 1+4:0:0:0:0, 3+4:0:0:0:1, 3+6:1:0:0:1, 2+6:0:1:0:1, 1+2:0:0:0:0, 3+3:0:0:0:2, 3+5:0:0:0:0, 0+1:0:0:0:0, 2+2:0:0:0:1, 1+3:0:0:0:0, 0+1:0:0:0:0, 2+3:0:0:0:2, 0+0:0:0:0:0, 3+6:0:0:0:1, 3+6:0:0:0:0, 1+5:0:0:0:0, 1+3:0:0:0:0, 3+5:0:0:0:3, 3+6:0:0:0:0, 1+6:0:0:0:0, 1+3:0:0:0:0, 5+5:0:0:0:1, 4+5:1:2:0:3, 0+2:0:0:0:0, 2+6:0:0:0:2, 1+3:0:0:0:0, 3+3:0:0:0:0, 6+4:0:0:0:1, 2+1:0:0:0:0, 5+5:0:0:0:1, 3+6:0:0:0:0, 1+5:0:0:0:0, 1+3:0:0:0:0, 4+4:0:0:0:1, 4+2:0:0:0:2, 4+6:0:0:0:0, 2+4:0:0:0:0, 5+5:0:0:0:1, 6+6:0:0:0:0, 0+3:0:0:0:0, 2+4:0:0:0:1, 2+2:0:0:0:0, 1+0:0:0:0:0, 2+1:0:0:0:1, 0+0:0:0:0:0, 3+5:0:0:0:1, 5+6:2:0:0:3, 3+5:0:0:0:0, 2+2:0:0:0:0, 3+8:0:0:0:2, 4+1:0:0:0:1, 3+5:0:0:0:0, 1+4:0:0:0:0, 3+5:0:0:0:1, 4+5:0:0:0:0, 2+5:0:1:0:1, 3+2:0:0:0:1, 1+3:0:0:0:0, 1+5:0:0:0:2, 2+2:0:0:0:1, 5+5:0:0:0:0, 5+8:4:0:0:4, 3+5:0:0:0:0, 1+5:0:0:0:0, 1+3:0:0:0:0, 3+5:0:0:0:1, 3+5:1:0:0:1, 1+3:0:0:0:0, 1+5:0:0:0:0, 3+5:0:0:0:1, 3+5:1:0:0:1, 0+1:0:0:0:0, 2+4:0:0:0:1, 2+5:0:0:0:0, 3+1:0:0:0:1, 3+2:0:0:0:0, 2+2:1:0:0:1, 5+5:0:0:0:1, 3+6:0:0:0:0, 1+4:0:0:0:0, 1+3:0:0:0:0, 3+5:0:0:0:1, 3+5:1:0:0:1, 2+5:0:0:0:0, 2+4:0:0:0:0, 3+5:0:0:0:2, 3+6:0:0:0:0, 3+5:0:0:0:0, 5+5:0:0:0:1, 1+3:0:0:0:0,  , 2+3:0:0:0:3, 1+0:0:0:0:0, 4+8:0:0:0:1, 6+8:2:0:0:2, 3+5:0:0:0:0, 1+2:0:0:0:0, 3+3:0:0:0:2, 2+3:1:0:0:1, 1+4:0:0:0:0, 1+3:0:0:0:0, 4+3:0:0:0:1, 5+6:0:0:0:0, 2+2:0:0:0:0, 4+5:0:0:0:2, 1+3:0:0:0:0, 1+2:0:0:0:0, 2+4:0:0:0:2, 0+0:0:0:0:0, 5+5:3:0:0:3, 3+8:1:0:0:1, 1+3:0:0:0:0, 1+4:0:0:0:0, 5+5:0:0:0:1, 5+5:0:0:0:1, 1+5:0:0:0:0, 2+4:0:0:0:0, 3+3:0:0:0:1, 5+6:1:0:0:1, 1+3:0:1:0:1, 2+2:0:0:0:1, 2+4:0:0:0:0, 3+3:0:0:0:0, 2+3:0:0:0:3, 0+0:0:0:0:0, 6+8:0:0:0:1, 3+6:0:0:0:0, 2+5:0:0:0:0, 1+3:0:0:0:0, 5+6:1:0:0:1, 4+5:1:0:0:1, 5+5:0:0:0:0, 3+5:0:0:0:0, 3+6:0:0:0:0, 2+5:2:0:0:2, 3+5:0:0:0:0, 2+4:0:0:0:0, 3+4:1:0:0:1, 1+3:0:0:0:0, 1+1:0:0:0:0, 0+0:0:0:0:0, 555+876:53:8:0:153
Bb major (2b), 0+0:0:0:0:0, 3+1:0:0:0:0, 4+2:1:0:0:1, 3+4:0:0:0:0, 1+0:0:0:0:0, 3+1:0:0:0:0, 4+2:1:0:0:1, 2+4:0:0:0:0, 2+1:0:0:0:0, 2+1:0:0:0:0, 0+0:0:0:0:0, 0+1:0:0:0:0, 1+0:0:0:0:0, 3+1:0:0:0:0, 4+2:1:0:0:1, 3+4:0:0:0:0, 1+0:0:0:0:0, 3+1:0:0:0:0, 4+2:1:0:0:1, 3+4:0:0:0:0, 1+0:0:0:0:0, 3+1:0:0:0:0, 4+2:1:0:0:1, 2+4:0:0:0:0, 2+1:0:0:0:0, 2+1:0:0:0:0, 0+0:0:0:0:0, 0+1:0:0:0:0, 1+0:0:0:0:0, 3+1:0:0:0:0, 4+2:1:0:0:1, 3+4:0:0:0:0, 1+0:0:0:0:0, 2+1:0:0:0:0, 2+1:1:0:0:1, 4+1:0:0:0:0, 2+1:1:0:0:1, 2+1:0:0:0:0, 2+1:1:0:0:1, 5+5:0:0:0:0, 10+6:0:0:0:2, 2+1:0:0:0:0, 4+2:0:0:0:1, 1+2:0:0:0:0, 4+3:1:2:0:3, 3+3:0:0:0:0, 2+1:1:0:0:1, 7+4:0:0:0:0, 5+5:2:0:0:2, 4+3:0:0:0:0, 4+2:1:0:0:1, 4+1:0:0:0:0, 2+1:0:0:0:0, 3+1:0:0:0:0, 3+2:1:0:0:0, 3+1:0:0:0:0, 2+1:0:0:0:0, 1+0:0:0:0:0, 1+1:0:0:0:0, 0+1:0:0:0:0, 4+3:1:0:0:1, 6+4:0:0:0:0, 7+5:1:0:0:1, 7+3:0:0:0:0, 1+0:0:0:0:0, 2+1:0:0:0:0, 2+1:1:0:0:1, 4+2:0:0:0:0, 1+0:0:0:0:0, 4+2:0:0:0:0, 2+1:1:0:0:1, 3+4:0:0:0:0, 3+2:0:0:0:1, 1+0:0:0:0:0, 1+0:0:0:0:0, 0+0:0:0:0:0, 1+0:0:0:0:0, 2+1:0:0:0:0, 2+1:1:0:0:1, 4+3:1:0:0:1, 1+0:0:0:0:0, 2+1:0:0:0:0, 3+1:1:0:0:1, 5+2:0:0:0:0, 1+0:0:0:0:0, 2+2:0:0:0:0, 2+1:1:0:0:1, 1+2:0:0:0:0, 2+1:0:0:0:0, 1+0:0:0:0:0, 1+0:0:0:0:0, 0+0:0:0:0:0, 1+0:0:0:0:0, 2+1:0:0:0:0, 2+2:2:0:0:2, 3+3:0:0:0:0, 1+0:0:0:0:0, 2+3:0:0:0:0, 2+3:3:0:0:3, 4+3:0:0:0:0, 1+0:0:0:0:0, 4+2:0:0:0:0, 5+3:2:0:0:2, 2+4:0:0:0:0, 2+2:0:0:0:0, 1+0:0:0:0:0, 5+2:0:0:0:0, 3+5:1:1:0:1, 3+1:1:0:0:0, 4+2:0:0:0:0, 2+1:1:0:0:1, 4+2:0:0:0:0, 1+0:0:0:0:0, 3+2:1:0:0:1, 4+4:2:0:0:2, 7+3:0:0:0:0, 2+2:0:0:0:0, 4+2:0:0:0:0, 5+3:2:0:0:2, 2+3:0:0:0:0, 2+1:0:0:0:0, 1+0:0:0:0:0, 0+0:0:0:0:0, 0+3:0:0:0:0, 1+0:0:0:0:0, 2+1:0:0:0:0, 5+3:2:0:0:2, 6+2:0:0:0:0, 2+1:0:0:0:0, 2+2:0:0:0:0, 4+2:1:0:0:1, 6+2:0:0:0:0, 1+0:0:0:0:0, 2+1:0:0:0:0, 3+3:1:0:0:1, 4+3:0:0:0:0, 4+1:0:0:0:0, 1+0:0:0:0:0, 1+2:0:0:0:0, 0+0:0:0:0:0, 3+3:2:0:0:2, 6+4:0:0:0:0, 2+2:2:0:0:2, 3+2:0:0:0:0, 1+0:0:0:0:0, 2+1:0:0:0:0, 3+1:1:0:0:1, 4+1:0:0:0:0, 1+0:0:0:0:0, 2+1:0:0:0:0, 3+1:1:0:0:1, 2+2:0:0:0:0, 3+1:0:0:0:0, 2+1:0:0:0:0, 1+1:0:0:0:0, 0+0:0:0:0:0, 3+4:3:0:0:3, 4+2:0:0:0:0, 2+1:1:0:0:1, 4+2:0:0:0:0, 1+0:0:0:0:0, 2+1:0:0:0:0, 3+1:1:0:0:1, 5+4:0:0:0:0, 2+1:0:0:0:0, 2+2:0:0:0:0, 2+1:1:0:0:1, 5+4:0:0:0:0, 5+3:0:0:0:0, 1+0:0:0:0:0,  , 0+0:0:0:0:0, 1+3:3:0:0:3, 3+1:0:0:0:0, 6+3:2:0:0:2, 6+2:0:0:0:0, 1+0:0:0:0:0, 2+2:0:0:0:0, 2+3:3:0:0:3, 3+2:0:0:0:0, 1+0:0:0:0:0, 3+2:0:0:0:0, 4+2:1:0:0:1, 2+3:0:0:0:0, 3+3:0:0:0:1, 1+0:0:0:0:0, 1+0:0:0:0:0, 0+0:0:0:0:0, 1+0:0:0:0:0, 6+3:0:0:0:0, 3+1:1:0:0:1, 3+1:0:0:0:0, 1+0:0:0:0:0, 4+2:0:0:0:0, 4+2:1:0:0:1, 4+2:0:0:0:0, 2+1:0:0:0:0, 2+1:0:0:0:0, 5+2:1:0:0:1, 3+2:0:0:0:0, 2+1:0:0:0:0, 2+1:0:0:0:0, 4+3:0:0:0:0, 0+0:0:0:0:0, 1+0:0:0:0:0, 5+4:2:0:0:2, 2+1:1:0:0:1, 2+2:2:0:0:2, 4+1:0:0:0:0, 6+3:1:0:0:0, 6+3:1:0:0:1, 4+2:2:0:0:2, 6+3:0:0:0:0, 2+2:2:0:0:2, 4+3:0:0:0:0, 2+1:1:0:0:1, 5+2:0:0:0:0, 4+3:1:0:0:0, 4+1:0:0:0:0, 1+0:0:0:0:0, 1+0:0:0:0:0, 585+354:79:3:0:82
D major (2#), 0+0:0:0:0:0, 5+5:0:0:0:1, 3+4:1:0:0:1, 3+3:2:0:0:0, 2+1:0:0:0:0, 5+5:0:0:0:1, 3+4:1:0:0:1, 2+2:2:0:0:0, 2+1:0:0:0:0, 3+2:0:0:0:0, 2+2:0:0:0:0, 3+5:0:0:0:0, 1+1:0:0:0:0, 5+5:0:0:0:1, 3+4:1:0:0:1, 3+3:2:0:0:0, 2+1:0:0:0:0, 5+5:0:0:0:1, 3+4:1:0:0:1, 3+3:2:0:0:0, 2+1:0:0:0:0, 5+5:0:0:0:1, 3+4:1:0:0:1, 2+2:2:0:0:0, 2+1:0:0:0:0, 3+2:0:0:0:0, 2+2:0:0:0:0, 3+5:0:0:0:0, 1+1:0:0:0:0, 5+5:0:0:0:1, 3+4:1:0:0:1, 3+3:2:0:0:0, 2+1:0:0:0:0, 4+4:0:0:0:1, 1+0:0:0:0:0, 2+5:0:0:0:0, 2+4:1:0:0:0, 4+3:0:0:0:1, 1+0:0:0:0:0, 3+2:1:0:0:1, 10+8:3:0:0:2, 2+1:1:0:0:0, 3+2:0:0:0:1, 4+2:0:0:0:0, 3+3:1:2:0:3, 5+8:0:0:0:1, 1+0:0:0:0:0, 7+4:1:0:0:1, 5+4:1:0:0:2, 6+6:0:0:0:1, 3+2:1:0:0:0, 2+7:0:0:0:0, 3+5:0:0:0:0, 5+3:0:0:0:1, 1+1:1:0:0:0, 2+1:0:0:0:0, 2+1:0:0:0:0, 2+4:0:0:0:0, 5+3:0:0:0:0, 3+1:0:0:0:0, 4+3:0:1:0:3, 8+7:0:0:0:1, 7+5:0:0:0:1, 5+7:1:0:0:1, 2+3:0:0:0:0, 4+2:0:0:0:1, 1+1:1:0:0:0, 4+3:0:0:0:1, 2+2:0:0:0:0, 6+4:0:0:0:1, 2+0:0:0:0:0, 3+2:0:0:0:0, 2+3:1:0:0:1, 2+2:0:0:0:0, 1+1:0:0:0:0, 3+2:0:0:0:0, 1+2:0:0:0:0, 4+4:0:0:0:1, 2+0:0:0:0:0, 4+5:1:0:0:0, 2+1:0:0:0:0, 4+6:0:0:0:1, 2+4:1:0:0:0, 3+5:0:1:0:1, 2+1:0:0:0:0, 4+3:0:0:0:2, 2+0:0:0:0:0, 1+1:0:0:0:0, 2+2:0:0:0:1, 2+2:0:0:0:0, 1+2:0:0:0:0, 3+3:0:0:0:0, 1+1:0:0:0:0, 4+3:0:0:0:1, 2+0:0:0:0:0, 2+4:0:0:0:0, 2+1:0:0:0:0, 4+5:0:0:0:3, 2+0:0:0:0:0, 2+3:0:0:0:0, 2+2:0:0:0:0, 6+5:0:0:0:1, 3+4:1:2:0:3, 1+0:0:0:0:0, 2+2:0:0:0:0, 2+1:0:0:0:0, 4+2:0:0:0:0, 6+5:1:1:0:1, 2+1:1:0:0:0, 6+5:0:0:0:1, 2+0:0:0:0:0, 2+4:0:0:0:0, 2+1:0:0:0:0, 5+4:0:0:0:1, 3+2:0:0:0:2, 5+6:0:0:0:1, 3+3:0:0:0:0, 6+5:0:0:0:1, 5+2:0:0:0:1, 1+1:0:0:0:0, 2+4:0:0:0:1, 3+2:0:0:0:0, 1+0:0:0:0:0, 3+3:0:0:0:0, 1+1:0:0:0:0, 4+3:0:0:0:1, 4+4:2:0:0:0, 4+6:0:0:0:0, 3+3:0:0:0:0, 4+8:0:0:0:2, 3+1:0:0:0:1, 4+6:0:0:0:0, 2+2:0:0:0:0, 4+3:0:0:0:1, 3+2:0:0:0:2, 3+4:0:1:0:2, 4+4:0:0:0:1, 2+4:0:0:0:0, 1+5:5:5:0:5, 3+4:0:0:0:0, 5+2:0:0:0:0, 6+6:1:0:0:3, 2+0:0:0:0:0, 2+4:0:0:0:0, 2+1:0:0:0:0, 4+5:0:0:0:1, 2+4:1:0:0:0, 2+4:0:0:0:0, 2+4:0:0:0:0, 4+5:0:0:0:1, 2+4:1:0:0:0, 1+3:0:0:0:0, 3+3:0:0:0:1, 3+3:0:0:0:0, 3+1:0:0:0:1, 4+2:0:0:0:0, 3+2:1:0:0:1, 6+5:0:0:0:1, 2+0:0:0:0:0, 2+4:0:0:0:0, 2+1:0:0:0:0, 4+5:0:0:0:1, 2+4:1:0:0:0, 3+2:0:0:0:1, 3+3:0:0:0:0, 4+5:0:0:0:2, 2+0:0:0:0:0, 4+2:0:0:0:0, 6+6:0:0:0:3, 2+1:0:0:0:0,  , 3+3:0:0:0:0, 2+2:0:0:0:2, 5+3:0:0:0:1, 5+5:2:0:0:1, 4+6:0:0:0:0, 2+1:0:0:0:0, 4+3:0:0:0:2, 1+1:1:0:0:0, 2+3:0:0:0:0, 2+1:0:0:0:0, 5+3:0:0:0:1, 4+1:0:0:0:1, 2+3:0:0:0:1, 4+5:0:0:0:2, 2+2:0:0:0:0, 1+0:0:0:0:0, 3+4:0:0:0:0, 1+3:0:0:0:0, 6+8:1:0:0:1, 2+5:1:0:0:0, 2+6:0:0:0:0, 2+3:0:0:0:0, 6+7:0:0:0:2, 3+3:3:3:0:3, 2+4:0:0:0:0, 3+2:0:0:0:0, 4+3:0:0:0:1, 4+3:1:0:0:0, 2+1:0:1:0:1, 2+1:0:0:0:0, 3+3:0:0:0:0, 4+3:0:0:0:0, 3+6:0:0:0:0, 1+1:0:0:0:0, 7+4:2:0:0:1, 2+0:0:0:0:0, 3+1:0:0:0:0, 2+3:0:0:0:0, 6+3:1:0:0:0, 5+3:1:0:0:1, 6+5:1:0:0:0, 4+3:0:0:0:1, 4+1:0:0:0:0, 3+6:2:0:0:0, 4+1:0:0:0:0, 3+2:0:0:0:0, 4+3:1:0:0:0, 2+1:0:0:0:0, 1+1:0:0:0:0, 0+0:0:0:0:0, 674+645:66:17:0:113
G minor (2b), 0+0:0:0:0:0, 3+5:0:0:0:1, 4+3:0:0:0:0, 3+3:2:0:0:0, 1+1:0:0:0:0, 3+5:0:0:0:1, 4+3:0:0:0:0, 2+4:0:0:0:2, 2+2:0:0:0:1, 2+2:0:0:0:0, 0+0:0:0:0:0, 0+1:0:0:0:0, 1+0:0:0:0:0, 3+5:0:0:0:1, 4+3:0:0:0:0, 3+3:2:0:0:0, 1+1:0:0:0:0, 3+5:0:0:0:1, 4+3:0:0:0:0, 3+3:2:0:0:0, 1+1:0:0:0:0, 3+5:0:0:0:1, 4+3:0:0:0:0, 2+4:0:0:0:2, 2+2:0:0:0:1, 2+2:0:0:0:0, 0+0:0:0:0:0, 0+1:0:0:0:0, 1+0:0:0:0:0, 3+5:0:0:0:1, 4+3:0:0:0:0, 3+3:2:0:0:0, 1+1:0:0:0:0, 2+4:0:0:0:1, 2+0:0:0:0:0, 4+3:0:0:0:0, 2+1:1:0:0:0, 2+3:0:0:0:1, 2+0:0:0:0:0, 5+2:1:0:0:1, 10+6:0:0:0:2, 2+1:1:0:0:0, 5+2:0:0:0:1, 1+2:0:0:0:0, 4+3:1:2:0:3, 3+8:0:0:0:1, 2+0:0:0:0:0, 7+4:2:0:0:0, 5+4:1:0:0:2, 4+6:0:0:0:1, 4+2:0:0:0:1, 4+5:0:0:0:0, 2+5:0:0:0:0, 3+3:0:0:0:1, 3+1:1:0:0:0, 3+1:0:0:0:0, 2+1:0:0:0:0, 1+4:0:0:0:0, 1+3:0:0:0:0, 0+1:0:0:0:0, 4+3:1:0:0:1, 6+7:0:0:0:1, 7+5:0:0:0:1, 7+5:1:0:0:0, 1+2:0:0:0:0, 2+2:0:0:0:1, 2+1:1:0:0:0, 4+3:1:0:0:0, 1+1:0:0:0:0, 4+4:0:0:0:1, 2+0:0:0:0:0, 3+4:0:0:0:0, 3+3:0:0:0:1, 1+2:0:0:0:0, 1+1:0:0:0:0, 0+3:0:0:0:0, 1+0:0:0:0:0, 2+4:0:0:0:1, 2+0:0:0:0:0, 4+5:1:0:0:0, 1+1:0:0:0:0, 2+6:0:0:0:1, 3+4:1:0:0:0, 4+3:0:1:0:1, 1+2:0:0:0:0, 2+3:0:0:0:2, 2+0:0:0:0:0, 1+2:0:0:0:0, 2+2:0:0:0:1, 1+2:0:0:0:0, 1+2:0:0:0:0, 0+1:0:0:0:0, 1+0:0:0:0:0, 2+5:0:0:0:0, 2+0:0:0:0:0, 3+3:0:0:0:0, 1+3:0:0:0:0, 2+5:0:0:0:3, 2+0:0:0:0:0, 4+2:0:0:0:0, 1+2:0:0:0:0, 4+5:0:0:0:1, 4+4:1:2:0:3, 2+0:0:0:0:0, 2+2:0:0:0:0, 1+1:0:0:0:0, 5+2:0:0:0:0, 3+5:1:1:0:1, 3+1:1:0:0:0, 4+5:0:0:0:1, 2+0:0:0:0:0, 4+2:0:0:0:0, 1+2:0:0:0:0, 3+4:0:0:0:1, 4+2:0:0:0:2, 6+3:0:1:0:2, 2+3:0:0:0:0, 4+5:0:0:0:1, 5+2:0:0:0:1, 2+3:0:0:0:0, 2+4:0:0:0:1, 1+2:0:0:0:0, 0+0:0:0:0:0, 0+3:0:0:0:0, 1+0:0:0:0:0, 2+3:0:0:0:1, 6+4:2:0:0:0, 5+2:0:1:0:1, 2+3:0:0:0:0, 2+8:0:0:0:2, 4+1:0:0:0:1, 5+2:0:1:0:1, 1+1:0:0:0:0, 2+3:0:0:0:1, 3+2:0:0:0:2, 4+4:0:0:0:0, 4+2:0:0:0:1, 1+4:0:0:0:0, 1+2:0:0:0:2, 0+3:0:0:0:0, 3+2:0:0:0:0, 6+6:0:0:0:4, 2+0:0:0:0:0, 3+1:0:0:0:0, 1+1:0:0:0:0, 2+5:0:0:0:1, 3+4:1:0:0:0, 4+1:0:0:0:0, 1+2:0:0:0:0, 2+5:0:0:0:1, 3+4:1:0:0:0, 2+0:0:0:0:0, 3+3:0:0:0:1, 2+3:0:0:0:0, 1+1:0:0:0:0, 0+2:0:0:0:0, 3+2:1:0:0:1, 4+5:0:0:0:1, 2+0:0:0:0:0, 4+1:0:0:0:0, 1+1:0:0:0:0, 2+5:0:0:0:1, 3+4:1:0:0:0, 5+2:0:0:0:1, 2+3:0:0:0:0, 2+5:0:0:0:2, 2+0:0:0:0:0, 5+4:0:0:0:0, 5+5:0:0:0:1, 1+1:0:0:0:0,  , 0+3:0:0:0:0, 1+0:0:0:0:0, 3+3:0:0:0:1, 6+5:2:0:0:1, 5+2:0:1:0:1, 1+1:0:0:0:0, 2+3:0:0:0:2, 2+1:1:0:0:0, 3+1:0:0:0:0, 1+1:0:0:0:0, 3+3:0:0:0:1, 4+1:0:0:0:1, 2+1:1:0:0:0, 4+5:0:0:0:0, 1+2:0:0:0:0, 1+0:0:0:0:0, 0+3:0:0:0:0, 1+0:0:0:0:0, 6+4:3:0:0:0, 3+5:1:0:0:0, 3+1:0:0:0:0, 1+1:0:0:0:0, 4+7:0:0:0:2, 3+3:3:3:0:3, 4+2:0:0:0:0, 2+2:0:0:0:0, 2+3:0:0:0:1, 5+3:1:0:0:0, 2+1:0:1:0:1, 2+1:0:0:0:0, 2+1:0:0:0:0, 4+3:0:0:0:2, 0+3:0:0:0:0, 1+0:0:0:0:0, 5+4:2:0:0:1, 2+0:0:0:0:0, 2+1:0:0:0:0, 4+1:0:0:0:0, 6+3:1:0:0:0, 6+3:1:0:0:1, 4+5:1:0:0:0, 6+3:0:0:0:1, 2+8:2:0:0:0, 4+3:2:0:0:0, 2+5:1:0:0:0, 5+2:0:0:0:0, 4+3:1:0:0:0, 4+1:0:0:0:0, 2+1:0:0:0:0, 1+0:0:0:0:0, 581+560:54:14:0:101
B minor (2#), 0+0:0:0:0:0, 5+5:0:0:0:1, 3+6:1:0:0:1, 3+7:2:0:0:2, 2+1:0:0:0:0, 5+5:0:0:0:1, 3+6:1:0:0:1, 2+6:2:0:0:2, 2+2:0:0:0:1, 3+2:0:0:0:0, 2+2:0:0:0:0, 3+5:0:0:0:0, 1+1:0:0:0:0, 5+5:0:0:0:1, 3+6:1:0:0:1, 3+7:2:0:0:2, 2+1:0:0:0:0, 5+5:0:0:0:1, 3+6:1:0:0:1, 3+7:2:0:0:2, 2+1:0:0:0:0, 5+5:0:0:0:1, 3+6:1:0:0:1, 2+5:2:0:0:2, 2+2:0:0:0:1, 3+2:0:0:0:0, 2+2:0:0:0:0, 3+5:0:0:0:0, 1+1:0:0:0:0, 5+5:0:0:0:1, 3+6:1:0:0:1, 3+7:2:0:0:2, 2+1:0:0:0:0, 4+4:0:0:0:1, 1+0:0:0:0:0, 2+6:0:0:0:0, 2+1:1:0:0:1, 4+3:0:0:0:1, 1+0:0:0:0:0, 3+3:1:0:0:1, 11+9:2:0:0:6, 2+1:1:0:0:1, 3+2:0:0:0:0, 4+3:0:0:0:1, 3+3:1:2:0:3, 5+8:0:0:0:1, 1+0:0:0:0:0, 7+6:1:0:0:1, 5+4:1:0:0:1, 6+6:0:0:0:1, 3+2:1:0:0:0, 2+7:0:0:0:0, 3+5:0:0:0:0, 5+3:0:0:0:1, 1+2:1:0:0:1, 2+2:0:0:0:0, 2+3:0:0:0:1, 2+4:0:0:0:0, 4+3:1:0:0:1, 3+1:0:0:0:1, 4+3:0:1:0:1, 8+7:0:0:0:1, 7+5:0:0:0:1, 5+8:1:0:0:1, 2+3:0:0:0:0, 4+2:0:0:0:1, 1+3:1:0:0:1, 4+6:0:0:0:0, 2+2:0:0:0:0, 6+4:0:0:0:1, 2+0:0:0:0:0, 3+2:0:0:0:0, 2+3:1:0:0:1, 2+2:0:0:0:0, 1+1:0:0:0:0, 3+2:0:0:0:0, 1+2:0:0:0:0, 4+4:0:0:0:1, 2+0:0:0:0:0, 4+5:1:0:0:0, 2+1:0:0:0:0, 4+6:0:0:0:1, 2+4:1:0:0:0, 3+5:0:1:0:1, 2+1:0:0:0:0, 4+3:0:0:0:2, 2+0:0:0:0:0, 1+1:0:0:0:0, 2+2:0:0:0:1, 2+2:0:0:0:0, 1+2:0:0:0:0, 3+3:0:0:0:0, 1+1:0:0:0:0, 4+3:0:0:0:1, 2+0:0:0:0:0, 2+4:0:0:0:0, 2+1:0:0:0:0, 4+5:0:0:0:3, 2+0:0:0:0:0, 2+3:0:0:0:0, 2+2:0:0:0:0, 6+5:0:0:0:1, 3+5:1:2:0:3, 1+2:0:0:0:0, 2+6:0:0:0:2, 2+3:0:0:0:0, 4+3:0:0:0:0, 7+4:0:0:0:1, 3+1:0:0:0:0, 6+5:0:0:0:1, 2+0:0:0:0:0, 2+4:0:0:0:0, 2+1:0:0:0:0, 5+4:0:0:0:1, 3+2:0:0:0:2, 5+6:0:0:0:0, 3+3:0:0:0:0, 6+5:0:0:0:1, 5+2:0:0:0:1, 1+3:0:0:0:0, 2+4:0:0:0:1, 3+2:0:0:0:0, 1+0:0:0:0:0, 3+3:0:0:0:0, 1+1:0:0:0:0, 4+3:0:0:0:1, 4+4:2:0:0:0, 4+6:0:0:0:0, 3+3:0:0:0:0, 4+8:0:0:0:2, 3+1:0:0:0:1, 4+6:0:0:0:0, 2+2:0:0:0:0, 4+3:0:0:0:1, 3+2:0:0:0:2, 3+5:0:1:0:1, 4+2:0:0:0:1, 2+4:0:0:0:0, 1+5:5:5:0:5, 3+2:0:0:0:1, 6+5:0:0:0:0, 6+8:4:0:0:4, 2+4:1:0:0:2, 2+5:0:0:0:0, 2+1:0:0:0:0, 4+5:0:0:0:1, 2+4:1:0:0:0, 2+4:0:0:0:0, 2+4:0:0:0:0, 4+5:0:0:0:1, 2+5:1:0:0:1, 1+1:0:0:0:0, 3+4:0:0:0:1, 3+3:0:0:0:0, 3+1:0:0:0:1, 4+6:0:0:0:0, 3+1:1:0:0:1, 6+5:0:0:0:1, 2+0:0:0:0:0, 2+4:0:0:0:0, 2+1:0:0:0:0, 4+5:0:0:0:1, 2+5:1:0:0:1, 3+5:0:0:0:0, 3+3:0:0:0:0, 4+5:0:0:0:2, 2+0:0:0:0:0, 4+5:0:0:0:0, 6+5:0:0:0:1, 2+1:0:0:0:0,  , 3+3:0:0:0:3, 2+0:0:0:0:0, 5+3:0:0:0:1, 5+5:2:0:0:1, 4+6:0:0:0:0, 2+1:0:0:0:0, 4+3:0:0:0:2, 1+1:1:0:0:0, 2+3:0:0:0:0, 2+1:0:0:0:0, 5+3:0:0:0:1, 4+1:0:0:0:1, 3+2:0:0:0:0, 4+5:0:0:0:2, 2+2:0:0:0:0, 1+0:0:0:0:0, 3+4:0:0:0:2, 1+0:0:0:0:0, 6+5:3:0:0:3, 2+8:1:0:0:1, 2+3:0:0:0:0, 2+3:0:0:0:0, 6+7:0:0:0:2, 3+3:3:3:0:3, 2+4:0:0:0:0, 3+2:0:0:0:0, 4+3:0:0:0:1, 4+6:1:0:0:1, 2+3:0:1:0:1, 2+2:0:0:0:1, 3+3:0:0:0:0, 4+3:0:0:0:0, 3+3:0:0:0:3, 1+0:0:0:0:0, 7+4:2:0:0:1, 2+0:0:0:0:0, 3+1:0:0:0:0, 2+3:0:0:0:0, 6+6:1:0:0:1, 5+5:1:0:0:1, 6+5:0:0:0:0, 4+5:0:0:0:0, 4+6:0:0:0:0, 3+5:2:0:0:2, 4+5:0:0:0:0, 3+4:0:0:0:0, 4+4:1:0:0:1, 2+3:0:0:0:1, 1+0:0:0:0:0, 0+1:0:0:0:0, 678+735:69:16:0:151
Eb major (3b), 0+0:0:0:0:0, 2+1:0:0:0:0, 5+2:1:0:0:1, 4+4:0:0:0:0, 1+0:0:0:0:0, 2+1:0:0:0:0, 5+2:1:0:0:1, 3+4:0:0:0:0, 1+1:0:0:0:0, 3+1:0:0:0:0, 1+0:0:0:0:0, 1+0:0:0:0:0, 2+1:1:0:0:1, 2+1:0:0:0:0, 5+2:1:0:0:1, 4+4:0:0:0:0, 1+0:0:0:0:0, 2+1:0:0:0:0, 5+2:1:0:0:1, 4+4:0:0:0:0, 1+0:0:0:0:0, 2+1:0:0:0:0, 5+2:1:0:0:1, 3+4:0:0:0:0, 1+1:0:0:0:0, 3+1:0:0:0:0, 1+0:0:0:0:0, 1+0:0:0:0:0, 2+1:1:0:0:1, 2+1:0:0:0:0, 5+2:1:0:0:1, 4+4:0:0:0:0, 1+0:0:0:0:0, 3+1:0:0:0:0, 3+1:1:0:0:1, 5+1:0:0:0:0, 2+1:1:0:0:1, 1+1:0:0:0:0, 3+1:1:0:0:1, 6+5:0:0:0:0, 9+6:0:0:0:2, 2+1:0:0:0:0, 4+2:0:0:0:1, 2+1:0:0:0:0, 6+4:0:0:0:0, 2+3:0:0:0:0, 3+1:1:0:0:1, 8+4:0:0:0:0, 6+5:2:0:0:2, 3+3:0:0:0:0, 5+2:1:0:0:1, 5+1:0:0:0:0, 3+1:0:0:0:0, 2+1:0:0:0:0, 4+2:1:0:0:1, 4+2:0:0:0:0, 1+1:0:0:0:0, 1+0:0:0:0:0, 1+1:0:0:0:0, 1+0:0:0:0:0, 5+3:1:0:0:1, 5+4:0:0:0:0, 8+5:1:0:0:1, 8+3:0:0:0:0, 1+0:0:0:0:0, 1+1:0:0:0:0, 3+1:1:0:0:1, 5+2:0:0:0:0, 1+0:0:0:0:0, 3+2:0:0:0:0, 3+1:1:0:0:1, 4+4:0:0:0:0, 2+2:0:0:0:1, 1+0:0:0:0:0, 1+0:0:0:0:0, 1+0:0:0:0:0, 2+1:0:0:0:0, 1+1:0:0:0:0, 3+1:1:0:0:1, 5+3:1:0:0:1, 1+0:0:0:0:0, 3+1:0:0:0:0, 4+1:1:0:0:1, 6+2:0:0:0:0, 1+0:0:0:0:0, 1+2:0:0:0:0, 3+1:1:0:0:1, 2+2:0:0:0:0, 1+1:0:0:0:0, 1+0:0:0:0:0, 1+0:0:0:0:0, 1+0:0:0:0:0, 2+1:0:0:0:0, 3+1:0:0:0:0, 3+2:2:0:0:2, 4+3:0:0:0:0, 1+0:0:0:0:0, 1+3:0:0:0:0, 3+3:3:0:0:3, 5+3:0:0:0:0, 2+0:0:0:0:0, 3+2:0:0:0:0, 6+3:2:0:0:2, 3+4:0:0:0:0, 1+2:0:0:0:0, 1+0:0:0:0:0, 5+2:0:0:0:0, 5+3:0:0:0:0, 4+3:0:0:0:0, 3+2:0:0:0:0, 3+1:1:0:0:1, 5+2:0:0:0:0, 1+0:0:0:0:0, 3+2:0:0:0:0, 5+4:2:0:0:2, 8+3:0:0:0:0, 2+2:0:0:0:0, 3+2:0:0:0:0, 6+3:2:0:0:2, 3+3:0:0:0:0, 1+1:0:0:0:0, 1+0:0:0:0:0, 0+0:0:0:0:0, 1+0:0:0:0:0, 2+2:2:0:0:2, 1+1:0:0:0:0, 6+3:2:0:0:2, 7+2:0:0:0:0, 2+1:0:0:0:0, 1+2:0:0:0:0, 5+2:1:0:0:1, 7+2:0:0:0:0, 2+0:0:0:0:0, 3+1:0:0:0:0, 4+3:1:0:0:1, 5+3:0:0:0:0, 3+1:0:0:0:0, 1+0:0:0:0:0, 1+2:0:0:0:0, 1+0:0:0:0:0, 4+3:2:0:0:2, 7+4:0:0:0:0, 3+2:2:0:0:2, 4+2:0:0:0:0, 1+0:0:0:0:0, 1+1:0:0:0:0, 4+1:1:0:0:1, 5+1:0:0:0:0, 1+0:0:0:0:0, 1+1:0:0:0:0, 4+1:1:0:0:1, 3+2:0:0:0:0, 2+1:0:0:0:0, 2+1:0:0:0:0, 2+1:0:0:0:0, 1+0:0:0:0:0, 3+4:3:1:0:4, 3+2:0:0:0:0, 3+1:1:0:0:1, 5+2:0:0:0:0, 1+0:0:0:0:0, 1+1:0:0:0:0, 4+1:1:0:0:1, 6+4:0:0:0:0, 2+1:0:0:0:0, 1+2:0:0:0:0, 3+1:1:0:0:1, 6+4:0:0:0:0, 4+3:0:0:0:0, 1+2:0:0:0:0,  , 1+0:0:0:0:0, 2+3:3:0:0:3, 2+1:0:0:0:0, 7+3:2:0:0:2, 7+2:0:0:0:0, 1+0:0:0:0:0, 1+2:0:0:0:0, 3+3:3:0:0:3, 4+2:0:0:0:0, 1+0:0:0:0:0, 2+2:0:0:0:0, 5+2:1:0:0:1, 3+3:0:0:0:0, 3+2:0:0:0:2, 1+2:0:0:0:0, 1+0:0:0:0:0, 1+0:0:0:0:0, 2+2:0:0:0:0, 7+3:0:0:0:0, 4+1:1:0:0:1, 4+1:0:0:0:0, 2+0:0:0:0:0, 5+2:0:0:0:0, 5+2:1:0:0:1, 5+2:0:0:0:0, 2+1:0:0:0:0, 1+1:0:0:0:0, 6+2:1:0:0:1, 4+2:0:0:0:0, 1+1:0:0:0:0, 2+1:0:0:0:0, 3+3:0:0:0:0, 1+0:0:0:0:0, 2+2:0:0:0:0, 4+4:2:0:0:2, 3+1:1:0:0:1, 3+2:2:0:0:2, 5+1:0:0:0:0, 7+3:1:0:0:1, 7+3:0:0:0:0, 5+2:2:0:0:2, 7+3:0:0:0:0, 3+2:2:0:0:2, 5+3:0:0:0:0, 3+1:1:0:0:1, 6+2:0:0:0:0, 5+2:1:0:0:1, 5+1:0:0:0:0, 1+0:0:0:0:0, 1+0:0:0:0:0, 674+361:78:1:0:85
A major (3#), 1+1:0:0:0:0, 6+5:0:0:0:1, 4+3:0:0:0:0, 4+5:0:0:0:2, 3+3:0:0:0:0, 6+5:0:0:0:1, 4+3:0:0:0:0, 2+4:0:0:0:2, 3+2:0:0:0:1, 4+4:0:0:0:0, 2+1:0:0:0:0, 3+4:0:0:0:4, 2+2:0:0:0:0, 6+5:0:0:0:1, 4+3:0:0:0:0, 4+5:0:0:0:2, 3+3:0:0:0:0, 6+5:0:0:0:1, 4+3:0:0:0:0, 4+5:0:0:0:2, 3+3:0:0:0:0, 6+5:0:0:0:1, 4+3:0:0:0:0, 2+4:0:0:0:2, 3+2:0:0:0:1, 4+4:0:0:0:0, 2+1:0:0:0:0, 3+4:0:0:0:4, 2+2:0:0:0:0, 6+5:0:0:0:1, 4+3:0:0:0:0, 4+5:0:0:0:2, 3+2:0:0:0:0, 5+6:0:0:0:1, 2+0:0:0:0:0, 3+2:0:0:0:0, 3+6:0:0:0:0, 5+3:0:0:0:1, 2+0:0:0:0:0, 4+6:0:0:0:0, 10+8:0:0:0:3, 3+2:1:0:0:0, 4+4:0:0:0:0, 5+3:0:0:0:1, 4+4:0:0:0:1, 6+8:0:0:0:1, 2+0:0:0:0:0, 7+6:0:0:0:0, 6+8:0:0:0:0, 7+6:0:0:0:1, 4+2:1:0:0:0, 3+2:0:0:0:0, 4+3:0:0:0:0, 6+3:0:0:0:1, 2+1:1:0:0:0, 2+2:0:0:0:0, 3+3:0:0:0:1, 3+3:0:0:0:0, 5+6:0:0:0:0, 3+1:0:0:0:1, 3+4:0:1:0:1, 9+8:0:0:0:1, 8+7:0:0:0:0, 7+7:0:0:0:0, 3+5:0:0:0:0, 5+2:0:0:0:1, 2+1:1:0:0:0, 5+4:0:0:0:1, 3+2:0:0:0:0, 7+4:0:0:0:1, 3+0:0:0:0:0, 3+4:0:0:0:0, 3+3:0:0:0:1, 3+3:0:0:0:0, 2+1:0:0:0:0, 4+2:0:0:0:1, 1+1:0:0:0:0, 5+4:0:0:0:1, 3+6:0:0:0:0, 5+8:0:0:0:0, 3+4:0:0:0:0, 5+6:0:0:0:1, 3+4:1:0:0:0, 4+5:0:1:0:1, 3+1:0:0:0:0, 5+3:0:0:0:2, 3+0:0:0:0:0, 1+2:0:0:0:0, 3+2:0:0:0:1, 3+3:0:0:0:0, 2+1:0:0:0:0, 4+3:0:0:0:2, 1+1:0:0:0:0, 5+6:0:0:0:1, 3+6:0:0:0:0, 3+4:0:0:0:0, 3+3:0:0:0:0, 5+5:0:0:0:3, 3+0:0:0:0:0, 3+5:0:0:0:0, 3+3:0:0:0:0, 7+5:0:0:0:1, 4+4:1:2:0:3, 1+2:0:0:0:0, 3+6:0:0:0:2, 3+3:0:0:0:0, 5+3:0:0:0:0, 7+4:0:0:0:2, 2+3:0:0:0:1, 7+5:0:0:0:1, 3+0:0:0:0:0, 3+3:0:0:0:0, 3+3:0:0:0:0, 6+4:0:0:0:1, 4+2:0:0:0:2, 5+4:0:0:0:1, 4+4:0:0:0:0, 7+5:0:0:0:1, 6+2:0:0:0:1, 1+3:0:0:0:0, 3+4:0:0:0:1, 4+2:0:0:0:0, 2+0:0:0:0:0, 3+1:0:0:0:1, 2+3:0:0:0:0, 5+3:0:0:0:1, 5+4:2:0:0:0, 5+6:0:0:0:0, 4+3:0:0:0:0, 5+8:0:0:0:2, 4+1:0:0:0:1, 4+3:0:0:0:1, 3+4:0:0:0:0, 5+5:0:0:0:1, 4+2:0:0:0:2, 5+4:0:0:0:1, 5+2:0:0:0:1, 3+3:0:0:0:0, 3+5:0:0:0:2, 4+2:0:0:0:1, 4+6:1:0:0:2, 7+7:0:0:0:1, 3+5:0:0:0:0, 3+3:0:0:0:0, 3+3:0:0:0:0, 5+5:0:0:0:1, 3+4:1:0:0:0, 3+4:0:0:0:0, 3+4:0:0:0:0, 5+5:0:0:0:1, 3+4:1:0:0:0, 2+3:0:0:0:0, 4+4:0:0:0:1, 4+5:0:0:0:0, 4+1:0:0:0:1, 5+6:0:0:0:0, 3+5:3:0:0:0, 7+5:0:0:0:1, 3+0:0:0:0:0, 3+3:0:0:0:0, 3+3:0:0:0:0, 5+5:0:0:0:1, 3+4:1:0:0:0, 4+4:0:0:0:1, 4+3:0:0:0:0, 5+5:0:0:0:2, 3+0:0:0:0:0, 4+4:0:0:0:0, 7+5:0:0:0:1, 3+3:0:0:0:0,  , 3+3:0:0:0:3, 2+5:0:0:0:0, 6+3:0:0:0:1, 6+5:2:0:0:1, 5+6:0:0:0:0, 3+1:0:0:0:0, 5+3:0:0:0:2, 2+1:1:0:0:0, 3+3:0:0:0:0, 3+1:0:0:0:0, 6+3:0:0:0:1, 5+1:0:0:0:1, 2+3:0:0:0:1, 5+5:0:0:0:2, 3+3:0:0:0:0, 2+2:0:0:0:0, 4+4:0:0:0:2, 1+2:0:0:0:0, 7+8:1:0:0:1, 3+5:1:0:0:0, 3+6:0:0:0:0, 3+3:0:0:0:0, 7+7:0:0:0:2, 4+3:3:3:0:3, 3+4:0:0:0:0, 4+4:0:0:0:0, 5+3:0:0:0:1, 5+3:1:0:0:0, 2+2:0:1:0:1, 3+2:0:0:0:1, 4+4:0:0:0:0, 3+3:0:0:0:0, 3+3:0:0:0:3, 1+2:0:0:0:0, 8+4:2:0:0:1, 3+0:0:0:0:0, 4+1:0:0:0:0, 3+2:0:0:0:0, 7+6:1:0:0:1, 6+5:1:0:0:1, 7+5:0:0:0:0, 5+4:0:0:0:0, 5+6:0:0:0:0, 4+4:0:0:0:0, 5+5:0:0:0:0, 4+4:0:0:0:0, 5+4:1:0:0:1, 3+3:0:0:0:1, 1+0:0:0:0:0, 0+1:0:0:0:0, 859+773:29:8:0:134
C minor (3b), 0+0:0:0:0:0, 2+1:0:0:0:0, 5+2:1:0:0:1, 4+4:0:0:0:0, 1+1:0:0:0:0, 2+1:0:0:0:0, 5+2:1:0:0:1, 3+4:0:0:0:0, 1+1:0:0:0:0, 3+2:0:0:0:0, 1+2:0:0:0:0, 1+2:0:0:0:0, 2+1:0:0:0:0, 2+1:0:0:0:0, 5+2:1:0:0:1, 4+4:0:0:0:0, 1+1:0:0:0:0, 2+1:0:0:0:0, 5+2:1:0:0:1, 4+4:0:0:0:0, 1+1:0:0:0:0, 2+1:0:0:0:0, 5+2:1:0:0:1, 3+4:0:0:0:0, 1+1:0:0:0:0, 3+2:0:0:0:0, 1+2:0:0:0:0, 1+2:0:0:0:0, 2+1:0:0:0:0, 2+1:0:0:0:0, 5+2:1:0:0:1, 4+4:0:0:0:0, 1+1:0:0:0:0, 3+3:0:0:0:0, 3+1:1:0:0:1, 5+1:0:0:0:0, 2+2:0:0:0:0, 1+1:0:0:0:0, 3+1:1:0:0:1, 6+5:0:0:0:0, 9+6:0:0:0:2, 2+1:0:0:0:0, 4+2:0:0:0:1, 2+1:0:0:0:0, 6+4:0:0:0:0, 2+3:0:0:0:0, 3+1:1:0:0:1, 8+4:0:0:0:0, 6+4:0:0:0:2, 3+3:0:0:0:0, 5+2:1:0:0:1, 5+1:0:0:0:0, 3+1:0:0:0:0, 2+5:0:0:0:0, 4+2:1:0:0:0, 4+1:0:0:0:0, 1+1:0:0:0:0, 1+1:0:0:0:0, 1+2:0:0:0:0, 1+1:0:0:0:0, 5+3:1:0:0:1, 5+6:0:0:0:0, 8+4:0:0:0:1, 8+3:0:0:0:0, 1+1:0:0:0:0, 1+5:0:0:0:0, 3+2:0:0:0:1, 5+2:0:0:0:0, 1+1:0:0:0:0, 3+4:0:0:0:0, 3+3:0:0:0:1, 4+4:0:0:0:0, 2+2:0:0:0:1, 1+1:0:0:0:0, 1+0:0:0:0:0, 1+1:0:0:0:0, 2+1:0:0:0:0, 1+5:0:0:0:0, 3+3:0:0:0:1, 5+4:1:0:0:0, 1+1:0:0:0:0, 3+3:0:0:0:0, 4+2:0:0:0:1, 6+2:0:0:0:0, 1+1:0:0:0:0, 1+4:0:0:0:0, 3+2:0:0:0:1, 2+2:0:0:0:0, 1+1:0:0:0:0, 1+1:0:0:0:0, 1+0:0:0:0:0, 1+2:0:0:0:0, 2+1:0:0:0:0, 3+4:0:0:0:0, 3+4:0:0:0:2, 4+3:0:0:0:0, 1+1:0:0:0:0, 1+4:0:0:0:0, 3+4:0:0:0:3, 5+3:0:0:0:0, 2+1:0:0:0:0, 3+4:0:0:0:0, 6+4:0:0:0:2, 3+4:0:0:0:0, 1+2:0:0:0:0, 1+1:0:0:0:0, 5+2:0:0:0:0, 4+5:1:1:0:1, 4+1:1:0:0:0, 3+3:0:0:0:0, 3+3:0:0:0:1, 5+2:0:0:0:0, 1+0:0:0:0:0, 3+2:0:0:0:0, 5+4:2:0:0:2, 8+3:0:0:0:0, 2+1:0:0:0:0, 3+6:0:0:0:0, 6+5:0:0:0:2, 3+3:0:0:0:0, 1+1:0:0:0:0, 1+1:0:0:0:0, 0+1:0:0:0:0, 1+3:0:0:0:0, 2+2:0:0:0:0, 1+4:0:0:0:0, 6+5:0:0:0:3, 7+2:0:0:0:0, 2+1:0:0:0:0, 1+2:0:0:0:0, 5+2:1:0:0:1, 7+2:0:0:0:0, 2+2:0:0:0:0, 3+3:0:0:0:0, 4+3:1:0:0:1, 5+3:0:0:0:0, 3+1:0:0:0:0, 1+1:0:0:0:0, 1+2:0:0:0:0, 1+3:0:0:0:0, 4+2:0:0:0:0, 7+6:0:0:0:4, 3+2:2:0:0:2, 4+2:0:0:0:0, 1+1:0:0:0:0, 1+4:0:0:0:0, 4+2:0:0:0:1, 5+1:0:0:0:0, 1+1:0:0:0:0, 1+4:0:0:0:0, 4+2:0:0:0:1, 3+2:0:0:0:0, 2+1:0:0:0:0, 2+2:0:0:0:0, 2+1:0:0:0:0, 1+2:0:0:0:0, 4+2:1:0:0:1, 3+4:0:0:0:0, 3+3:0:0:0:1, 5+2:0:0:0:0, 1+1:0:0:0:0, 1+4:0:0:0:0, 4+2:0:0:0:1, 6+4:0:0:0:0, 2+1:0:0:0:0, 1+5:0:0:0:0, 3+3:0:0:0:1, 6+4:0:0:0:0, 4+3:0:0:0:0, 1+1:0:0:0:0,  , 1+3:0:0:0:0, 2+0:0:0:0:0, 2+8:0:0:0:0, 7+5:0:0:0:2, 7+2:0:0:0:0, 1+1:0:0:0:0, 1+4:0:0:0:0, 3+4:0:0:0:3, 4+2:0:0:0:0, 1+1:0:0:0:0, 2+6:0:0:0:0, 5+4:0:0:0:1, 3+3:0:0:0:0, 2+1:1:0:0:1, 1+1:0:0:0:0, 1+0:0:0:0:0, 1+2:0:0:0:0, 2+2:0:0:0:0, 7+3:0:0:0:0, 4+1:1:0:0:1, 4+1:0:0:0:0, 2+1:0:0:0:0, 5+4:0:0:0:0, 5+3:0:0:0:1, 5+2:0:0:0:0, 2+2:0:0:0:0, 1+4:0:0:0:0, 6+3:0:0:0:1, 4+2:0:0:0:0, 1+1:0:0:0:0, 2+2:0:0:0:0, 3+3:0:0:0:2, 1+3:0:0:0:0, 2+2:0:0:0:0, 4+9:2:0:0:0, 3+3:0:0:0:1, 3+3:0:0:0:2, 5+1:0:0:0:0, 7+3:1:0:0:0, 7+3:1:0:0:1, 5+3:0:0:0:1, 7+3:0:0:0:0, 3+3:0:0:0:2, 5+3:0:0:0:0, 3+2:0:0:0:1, 6+2:0:0:0:0, 5+3:1:0:0:0, 5+1:0:0:0:0, 1+1:0:0:0:1, 1+0:0:0:0:0, 673+525:29:1:0:74
F# minor (3#), 1+0:0:0:0:0, 6+5:0:0:0:1, 4+6:1:0:0:1, 4+7:2:0:0:2, 3+3:0:0:0:0, 6+5:0:0:0:1, 4+6:1:0:0:1, 2+6:2:0:0:2, 3+2:0:0:0:1, 4+4:0:0:0:0, 2+1:0:0:0:0, 3+4:0:0:0:4, 2+0:0:0:0:0, 6+5:0:0:0:1, 4+6:1:0:0:1, 4+7:2:0:0:2, 3+3:0:0:0:0, 6+5:0:0:0:1, 4+6:1:0:0:1, 4+7:2:0:0:2, 3+3:0:0:0:0, 6+5:0:0:0:1, 4+6:1:0:0:1, 2+5:2:0:0:2, 3+2:0:0:0:1, 4+4:0:0:0:0, 2+1:0:0:0:0, 3+4:0:0:0:4, 2+0:0:0:0:0, 6+5:0:0:0:1, 4+6:1:0:0:1, 4+7:2:0:0:2, 3+2:0:0:0:0, 5+6:0:0:0:1, 2+5:2:0:0:2, 3+7:0:0:0:3, 3+1:1:0:0:1, 5+4:0:0:0:1, 2+6:2:0:0:2, 4+3:1:0:0:1, 10+8:0:0:0:3, 3+1:1:0:0:1, 4+2:0:0:0:0, 5+3:0:0:0:1, 3+3:1:2:0:3, 6+6:0:0:0:1, 4+3:1:0:0:1, 7+6:0:0:0:0, 6+4:1:0:0:1, 7+5:0:0:0:1, 4+7:2:0:0:3, 3+7:0:0:0:0, 4+3:0:0:0:0, 6+5:0:0:0:1, 2+3:1:0:0:0, 2+2:0:0:0:0, 3+3:0:0:0:1, 3+3:0:0:0:0, 5+6:0:0:0:0, 3+1:0:0:0:1, 3+4:0:1:0:1, 9+8:0:0:0:1, 8+7:0:0:0:0, 6+8:1:0:0:1, 3+5:0:0:0:0, 5+6:0:0:0:1, 2+3:1:0:0:1, 5+6:0:0:0:0, 3+2:0:0:0:0, 7+5:0:0:0:1, 3+5:0:0:0:0, 3+3:0:0:0:0, 3+3:0:0:0:1, 3+3:0:0:0:0, 2+1:0:0:0:0, 4+2:0:0:0:1, 1+0:0:0:0:0, 5+8:0:0:0:1, 3+6:0:0:0:0, 5+8:0:0:0:0, 3+4:0:0:0:0, 5+4:0:0:0:1, 3+6:1:0:0:1, 4+6:0:1:0:1, 3+2:0:0:0:0, 5+7:0:0:0:2, 3+5:0:0:0:0, 1+1:0:0:0:0, 3+2:0:0:0:1, 3+3:0:0:0:0, 2+1:0:0:0:0, 4+3:0:0:0:2, 1+0:0:0:0:0, 5+6:0:0:0:1, 3+6:0:0:0:0, 3+5:0:0:0:0, 3+3:0:0:0:0, 6+6:0:0:0:1, 3+6:0:0:0:0, 3+6:0:0:0:0, 3+3:0:0:0:0, 7+6:0:0:0:1, 4+5:1:2:0:3, 1+2:0:0:0:0, 3+6:0:0:0:2, 3+3:0:0:0:0, 5+3:0:0:0:0, 7+4:0:0:0:2, 3+1:0:0:0:0, 7+5:0:0:0:1, 3+6:0:0:0:0, 3+5:0:0:0:0, 3+3:0:0:0:0, 6+8:0:0:0:1, 6+5:1:0:0:1, 6+6:0:0:0:0, 4+4:0:0:0:0, 7+7:0:0:0:1, 6+6:0:0:0:0, 1+3:0:0:0:0, 3+4:0:0:0:1, 4+2:0:0:0:0, 2+0:0:0:0:0, 3+1:0:0:0:1, 2+0:0:0:0:0, 5+5:0:0:0:1, 5+6:2:0:0:3, 5+5:0:0:0:0, 4+2:0:0:0:0, 6+6:0:0:0:1, 4+5:2:0:0:2, 5+5:0:0:0:0, 3+4:0:0:0:0, 5+5:0:0:0:1, 3+5:1:1:0:1, 4+5:0:1:0:1, 5+2:0:0:0:1, 3+3:0:0:0:0, 3+5:0:0:0:2, 4+2:0:0:0:1, 5+5:0:0:0:0, 7+8:4:0:0:4, 3+5:0:0:0:0, 3+5:0:0:0:0, 3+3:0:0:0:0, 5+7:0:0:0:1, 3+5:1:0:0:1, 3+3:0:0:0:0, 3+5:0:0:0:0, 5+7:0:0:0:1, 3+5:1:0:0:1, 2+1:0:0:0:0, 4+4:0:0:0:1, 4+5:0:0:0:0, 4+4:0:0:0:0, 5+4:0:0:0:2, 3+1:1:0:0:1, 7+5:0:0:0:1, 3+6:0:0:0:0, 3+4:0:0:0:0, 3+3:0:0:0:0, 5+6:0:0:0:1, 3+5:1:0:0:1, 4+5:0:0:0:0, 4+4:0:0:0:0, 6+6:0:0:0:1, 3+6:0:0:0:0, 4+5:0:0:0:0, 7+5:0:0:0:1, 3+3:0:0:0:0,  , 3+3:0:0:0:3, 2+0:0:0:0:0, 6+8:0:0:0:1, 6+8:2:0:0:2, 5+5:0:0:0:0, 3+2:0:0:0:0, 6+5:0:0:0:1, 2+3:1:0:0:1, 3+4:0:0:0:0, 3+3:0:0:0:0, 6+5:0:0:0:1, 5+6:0:0:0:0, 3+2:0:0:0:0, 5+5:0:0:0:2, 3+3:0:0:0:0, 2+2:0:0:0:0, 4+4:0:0:0:2, 1+0:0:0:0:0, 7+5:3:0:0:3, 3+8:1:0:0:1, 3+3:0:0:0:0, 3+4:0:0:0:0, 7+5:0:0:0:1, 5+5:0:0:0:1, 3+5:0:0:0:0, 4+4:0:0:0:0, 5+5:0:0:0:1, 5+6:1:0:0:1, 2+3:0:1:0:1, 3+2:0:0:0:1, 4+4:0:0:0:0, 3+3:0:0:0:0, 3+3:0:0:0:3, 1+0:0:0:0:0, 8+8:0:0:0:1, 3+6:0:0:0:0, 4+5:0:0:0:0, 3+3:0:0:0:0, 7+6:1:0:0:1, 6+5:1:0:0:1, 7+5:0:0:0:0, 5+5:0:0:0:0, 5+6:0:0:0:0, 4+5:2:0:0:2, 5+5:0:0:0:0, 4+4:0:0:0:0, 5+4:1:0:0:1, 3+3:0:0:0:1, 1+0:0:0:0:0, 0+1:0:0:0:0, 869+933:62:9:0:160
Ab major (4b), 0+0:0:0:0:0, 3+1:0:0:0:0, 5+2:1:0:0:1, 5+4:0:0:0:0, 1+0:0:0:0:0, 3+1:0:0:0:0, 5+2:1:0:0:1, 4+4:0:0:0:0, 2+1:0:0:0:0, 3+1:0:0:0:0, 1+0:0:0:0:0, 2+0:0:0:0:0, 2+1:1:0:0:1, 3+1:0:0:0:0, 5+2:1:0:0:1, 5+4:0:0:0:0, 1+0:0:0:0:0, 3+1:0:0:0:0, 5+2:1:0:0:1, 5+4:0:0:0:0, 1+0:0:0:0:0, 3+1:0:0:0:0, 5+2:1:0:0:1, 4+4:0:0:0:0, 2+1:0:0:0:0, 3+1:0:0:0:0, 1+0:0:0:0:0, 2+0:0:0:0:0, 2+1:1:0:0:1, 3+1:0:0:0:0, 5+2:1:0:0:1, 5+4:0:0:0:0, 1+0:0:0:0:0, 4+1:0:0:0:0, 3+1:1:0:0:1, 6+1:0:0:0:0, 2+1:1:0:0:1, 2+1:0:0:0:0, 3+1:1:0:0:1, 7+5:0:0:0:0, 10+6:0:0:0:2, 2+1:0:0:0:0, 3+2:0:1:0:1, 2+1:0:0:0:0, 5+4:0:0:0:0, 3+3:0:0:0:0, 3+1:1:0:0:1, 9+4:0:0:0:0, 7+5:2:0:0:2, 4+3:0:0:0:0, 5+2:1:0:0:1, 6+1:0:0:0:0, 3+1:0:0:0:0, 3+1:0:0:0:0, 4+2:1:0:0:1, 5+2:0:0:0:0, 2+1:0:0:0:0, 1+0:0:0:0:0, 1+1:0:0:0:0, 1+0:0:0:0:0, 6+3:1:0:0:1, 6+4:0:0:0:0, 9+5:1:0:0:1, 9+6:1:0:0:1, 1+0:0:0:0:0, 2+1:0:0:0:0, 3+1:1:0:0:1, 6+2:0:0:0:0, 1+0:0:0:0:0, 4+2:0:0:0:0, 3+1:1:0:0:1, 5+4:0:0:0:0, 3+2:0:0:0:1, 1+0:0:0:0:0, 1+0:0:0:0:0, 2+1:0:0:0:0, 2+1:0:0:0:0, 2+1:0:0:0:0, 3+1:1:0:0:1, 6+3:1:0:0:1, 1+0:0:0:0:0, 4+1:0:0:0:0, 4+1:1:0:0:1, 7+2:0:0:0:0, 1+0:0:0:0:0, 2+2:0:0:0:0, 3+1:1:0:0:1, 3+2:0:0:0:0, 2+1:0:0:0:0, 1+0:0:0:0:0, 1+0:0:0:0:0, 1+2:0:0:0:0, 2+1:0:0:0:0, 4+1:0:0:0:0, 3+2:1:0:0:1, 5+3:0:0:0:0, 1+0:0:0:0:0, 2+3:0:0:0:0, 4+3:3:0:0:3, 6+3:0:0:0:0, 2+0:0:0:0:0, 4+2:0:0:0:0, 7+3:2:0:0:2, 4+4:0:0:0:0, 2+2:0:0:0:0, 1+0:0:0:0:0, 4+4:0:0:0:0, 5+3:0:0:0:0, 5+3:0:0:0:0, 4+2:0:0:0:0, 3+1:1:0:0:1, 6+2:0:0:0:0, 1+0:0:0:0:0, 2+2:0:0:0:0, 5+4:1:0:0:1, 9+3:0:0:0:0, 3+2:0:0:0:0, 4+2:0:0:0:0, 6+3:1:0:0:1, 4+3:0:0:0:0, 2+3:0:0:0:3, 1+2:0:0:0:0, 0+0:0:0:0:0, 1+3:0:0:0:0, 2+2:2:0:0:2, 2+1:0:0:0:0, 6+3:2:0:0:2, 8+2:0:0:0:0, 2+1:0:0:0:0, 2+2:0:0:0:0, 5+2:1:0:0:1, 8+2:0:0:0:0, 2+0:0:0:0:0, 4+1:0:0:0:0, 4+3:1:0:0:1, 6+3:1:0:0:1, 4+3:0:0:0:0, 1+0:0:0:0:0, 0+0:0:0:0:0, 1+2:0:0:0:0, 5+3:2:0:0:2, 8+4:0:0:0:0, 3+2:1:0:0:1, 5+2:0:0:0:0, 1+0:0:0:0:0, 2+1:0:0:0:0, 4+1:1:0:0:1, 6+1:0:0:0:0, 1+0:0:0:0:0, 2+1:0:0:0:0, 4+1:1:0:0:1, 4+2:2:0:0:2, 3+2:0:0:0:0, 2+1:0:0:0:0, 2+1:0:0:0:0, 2+0:0:0:0:0, 4+4:3:0:0:3, 3+2:1:0:0:1, 3+1:1:0:0:1, 6+2:0:0:0:0, 1+0:0:0:0:0, 2+1:0:0:0:0, 4+1:1:0:0:1, 7+4:0:0:0:0, 3+1:0:0:0:0, 2+2:0:0:0:0, 3+1:1:0:0:1, 7+4:0:0:0:0, 5+3:0:0:0:0, 1+0:0:0:0:0,  , 1+0:0:0:0:0, 2+3:3:0:0:3, 3+1:0:0:0:0, 8+3:2:0:0:2, 8+2:0:0:0:0, 1+0:0:0:0:0, 2+2:0:0:0:0, 3+3:1:0:0:1, 5+2:0:0:0:0, 2+0:0:0:0:0, 3+2:0:0:0:0, 5+2:1:0:0:1, 4+3:0:0:0:0, 4+2:0:0:0:2, 1+0:0:0:0:0, 1+0:0:0:0:0, 1+2:0:0:0:0, 2+2:0:0:0:0, 8+3:0:0:0:0, 4+1:1:0:0:1, 5+1:0:0:0:0, 2+0:0:0:0:0, 6+2:0:0:0:0, 4+2:1:0:0:1, 6+2:0:0:0:0, 3+1:0:0:0:0, 2+1:0:0:0:0, 6+2:1:0:0:1, 5+2:0:0:0:0, 2+1:0:0:0:1, 1+3:0:0:0:3, 4+3:0:0:0:0, 1+3:0:0:0:0, 2+2:0:0:0:0, 5+4:2:0:0:2, 4+1:1:0:0:1, 4+2:2:0:0:2, 6+1:0:0:0:0, 8+3:1:0:0:1, 8+3:0:0:0:0, 6+2:2:0:0:2, 8+3:0:0:0:0, 4+2:2:0:0:2, 6+2:1:0:0:1, 4+1:1:0:0:1, 7+2:0:0:0:0, 6+2:1:0:0:1, 6+2:1:0:0:1, 1+0:0:0:0:0, 1+0:0:0:0:0, 786+382:79:1:0:92
E major (4#), 1+0:0:0:0:0, 7+5:0:0:0:1, 3+6:1:0:0:1, 5+7:2:0:0:2, 3+3:0:0:0:0, 7+5:0:0:0:1, 3+6:1:0:0:1, 3+6:2:0:0:2, 4+2:0:0:0:1, 3+4:0:0:0:0, 1+1:0:0:0:0, 4+4:0:0:0:1, 2+0:0:0:0:0, 7+5:0:0:0:1, 3+6:1:0:0:1, 5+7:2:0:0:2, 3+3:0:0:0:0, 7+5:0:0:0:1, 3+6:1:0:0:1, 5+7:2:0:0:2, 3+3:0:0:0:0, 7+5:0:0:0:1, 3+6:1:0:0:1, 3+5:2:0:0:2, 4+2:0:0:0:1, 3+4:0:0:0:0, 1+1:0:0:0:0, 4+4:0:0:0:1, 2+0:0:0:0:0, 7+5:0:0:0:1, 3+6:1:0:0:1, 5+7:2:0:0:2, 3+2:0:0:0:0, 6+6:0:0:0:1, 2+5:0:0:0:0, 4+6:0:0:0:0, 3+1:1:0:0:1, 6+4:0:0:0:1, 2+4:0:0:0:0, 5+3:1:0:0:1, 11+8:0:0:0:3, 3+1:1:0:0:1, 4+2:0:0:0:0, 5+3:0:0:0:1, 3+3:1:2:0:3, 7+6:0:0:0:1, 2+6:0:0:0:0, 8+6:0:0:0:0, 7+4:1:0:0:1, 8+5:0:0:0:1, 4+5:0:0:0:0, 4+7:0:0:0:0, 4+3:0:0:0:0, 7+5:0:0:0:1, 2+2:1:0:0:1, 3+2:0:0:0:0, 4+3:0:0:0:1, 3+3:0:0:0:0, 4+6:0:0:0:0, 3+1:0:0:0:1, 4+4:0:1:0:1, 10+8:0:0:0:1, 9+7:0:0:0:0, 7+8:1:0:0:1, 3+5:0:0:0:0, 6+6:0:0:0:1, 2+3:1:0:0:1, 6+6:0:0:0:0, 3+2:0:0:0:0, 8+5:0:0:0:1, 3+5:0:0:0:0, 4+3:0:0:0:0, 4+3:0:0:0:1, 3+3:0:0:0:0, 2+0:0:0:0:0, 5+2:0:0:0:1, 1+0:0:0:0:0, 6+8:0:0:0:1, 3+6:0:0:0:0, 6+8:0:0:0:0, 3+4:0:0:0:0, 6+4:0:0:0:1, 3+6:1:0:0:1, 5+6:0:1:0:1, 3+2:0:0:0:0, 6+7:0:0:0:2, 3+5:0:0:0:0, 2+1:0:0:0:0, 4+2:0:0:0:1, 3+3:0:0:0:0, 2+0:0:0:0:0, 4+3:0:0:0:1, 1+0:0:0:0:0, 6+6:0:0:0:1, 3+6:0:0:0:0, 4+5:0:0:0:0, 3+3:0:0:0:0, 7+6:0:0:0:1, 4+6:0:0:0:0, 4+6:0:0:0:0, 3+3:0:0:0:0, 8+6:0:0:0:1, 5+5:1:2:0:3, 2+2:0:0:0:0, 4+6:0:0:0:2, 3+3:0:0:0:0, 5+3:1:0:0:1, 7+4:0:0:0:2, 2+1:0:0:0:0, 8+5:0:0:0:1, 3+6:0:0:0:0, 4+5:0:0:0:0, 3+3:0:0:0:0, 7+8:0:0:0:1, 4+7:0:0:0:0, 7+6:0:0:0:0, 5+4:0:0:0:0, 8+7:0:0:0:1, 6+6:0:0:0:0, 2+3:0:0:0:0, 4+4:0:0:0:1, 4+2:0:0:0:0, 2+0:0:0:0:0, 3+1:0:0:0:1, 2+0:0:0:0:0, 6+5:0:0:0:1, 5+6:2:0:0:3, 6+5:0:0:0:0, 4+2:0:0:0:0, 7+6:0:0:0:1, 4+5:0:0:0:0, 6+5:0:0:0:0, 3+4:0:0:0:0, 6+5:0:0:0:1, 4+5:0:0:0:0, 5+5:0:1:0:1, 6+2:0:0:0:1, 3+3:0:0:0:0, 3+5:0:0:0:2, 4+2:0:0:0:1, 6+5:0:0:0:0, 8+8:4:0:0:4, 3+5:0:0:0:0, 4+5:0:0:0:0, 3+3:0:0:0:0, 6+7:0:0:0:1, 3+5:1:0:0:1, 4+3:0:0:0:0, 3+5:0:0:0:0, 6+7:0:0:0:1, 3+5:1:0:0:1, 3+1:0:0:0:0, 5+4:0:0:0:1, 4+5:0:0:0:0, 4+4:0:0:0:0, 6+4:0:0:0:1, 2+1:1:0:0:1, 6+5:0:0:0:1, 3+6:0:0:0:0, 4+4:0:0:0:0, 3+3:0:0:0:0, 6+6:0:0:0:1, 3+5:1:0:0:1, 5+5:0:0:0:0, 5+4:0:0:0:0, 7+6:0:0:0:1, 3+6:0:0:0:0, 5+5:0:0:0:0, 8+5:0:0:0:1, 3+3:0:0:0:0,  , 3+3:0:0:0:1, 1+0:0:0:0:0, 7+8:0:0:0:1, 7+8:2:0:0:2, 6+5:0:0:0:0, 3+2:0:0:0:0, 7+5:0:0:0:1, 2+3:1:0:0:1, 4+4:0:0:0:0, 4+3:0:0:0:0, 7+5:0:0:0:1, 5+6:0:0:0:0, 4+2:0:0:0:0, 6+5:0:0:0:2, 3+3:0:0:0:0, 2+2:0:0:0:0, 4+4:0:0:0:1, 1+0:0:0:0:0, 8+5:3:0:0:3, 3+8:1:0:0:1, 4+3:0:0:0:0, 3+4:0:0:0:0, 8+5:0:0:0:1, 5+5:0:0:0:1, 4+5:0:0:0:0, 5+4:0:0:0:0, 6+5:0:0:0:1, 5+6:1:0:0:1, 3+3:0:1:0:1, 4+2:0:0:0:1, 4+4:0:0:0:0, 4+3:0:0:0:0, 3+3:0:0:0:1, 1+0:0:0:0:0, 9+8:0:0:0:1, 4+6:0:0:0:0, 5+5:0:0:0:0, 4+3:0:0:0:0, 8+6:1:0:0:1, 7+5:1:0:0:1, 8+5:0:0:0:0, 6+5:0:0:0:0, 6+6:0:0:0:0, 5+5:2:0:0:2, 6+5:0:0:0:0, 5+4:0:0:0:0, 6+4:1:0:0:1, 4+3:0:0:0:0, 1+1:0:0:0:0, 0+0:0:0:0:0, 969+930:52:8:0:133
F minor (4b), 0+0:0:0:0:0, 3+1:0:0:0:0, 5+2:1:0:0:1, 5+4:0:0:0:0, 1+0:0:0:0:0, 3+1:0:0:0:0, 5+2:1:0:0:1, 4+4:0:0:0:0, 2+1:0:0:0:0, 3+1:0:0:0:0, 1+1:0:0:0:0, 2+4:0:0:0:0, 2+1:0:0:0:0, 3+1:0:0:0:0, 5+2:1:0:0:1, 5+4:0:0:0:0, 1+0:0:0:0:0, 3+1:0:0:0:0, 5+2:1:0:0:1, 5+4:0:0:0:0, 1+0:0:0:0:0, 3+1:0:0:0:0, 5+2:1:0:0:1, 4+4:0:0:0:0, 2+1:0:0:0:0, 3+1:0:0:0:0, 1+1:0:0:0:0, 2+4:0:0:0:0, 2+1:0:0:0:0, 3+1:0:0:0:0, 5+2:1:0:0:1, 5+4:0:0:0:0, 1+0:0:0:0:0, 4+1:0:0:0:0, 3+1:1:0:0:1, 6+1:0:0:0:0, 2+1:1:0:0:1, 2+1:0:0:0:0, 3+1:1:0:0:1, 7+5:0:0:0:0, 10+6:0:0:0:2, 2+1:0:0:0:0, 4+2:0:0:0:1, 2+1:0:0:0:0, 5+4:0:0:0:0, 3+3:0:0:0:0, 3+1:1:0:0:1, 9+4:0:0:0:0, 7+5:2:0:0:2, 4+3:0:0:0:0, 5+2:1:0:0:1, 6+1:0:0:0:0, 3+1:0:0:0:0, 3+1:0:0:0:0, 4+2:1:0:0:1, 5+2:0:0:0:0, 2+1:0:0:0:0, 1+0:0:0:0:0, 1+1:0:0:0:0, 1+1:0:0:0:0, 6+3:1:0:0:1, 6+4:0:0:0:0, 9+5:1:0:0:1, 9+3:0:0:0:0, 1+0:0:0:0:0, 2+1:0:0:0:0, 3+1:1:0:0:1, 6+2:0:0:0:0, 1+0:0:0:0:0, 4+2:0:0:0:0, 3+1:1:0:0:1, 5+4:0:0:0:0, 3+2:0:0:0:1, 1+0:0:0:0:0, 1+0:0:0:0:0, 2+1:0:0:0:0, 2+1:0:0:0:0, 2+1:0:0:0:0, 3+1:1:0:0:1, 6+3:1:0:0:1, 1+0:0:0:0:0, 4+1:0:0:0:0, 4+1:1:0:0:1, 7+2:0:0:0:0, 1+0:0:0:0:0, 2+2:0:0:0:0, 3+1:1:0:0:1, 3+2:0:0:0:0, 2+1:0:0:0:0, 1+0:0:0:0:0, 1+0:0:0:0:0, 1+2:0:0:0:0, 2+1:0:0:0:0, 4+1:0:0:0:0, 3+2:1:0:0:1, 5+3:0:0:0:0, 1+0:0:0:0:0, 2+3:0:0:0:0, 4+3:3:0:0:3, 6+3:0:0:0:0, 2+0:0:0:0:0, 4+2:0:0:0:0, 7+3:2:0:0:2, 4+4:0:0:0:0, 2+2:0:0:0:0, 1+0:0:0:0:0, 4+2:0:0:0:0, 5+3:0:0:0:0, 5+3:0:0:0:0, 4+2:0:0:0:0, 3+1:1:0:0:1, 6+2:0:0:0:0, 1+0:0:0:0:0, 2+2:0:0:0:0, 5+4:1:0:0:1, 9+3:0:0:0:0, 3+2:0:0:0:0, 4+2:0:0:0:0, 6+3:1:0:0:1, 4+3:0:0:0:0, 2+1:0:0:0:0, 1+0:0:0:0:0, 0+0:0:0:0:0, 1+1:0:0:0:0, 2+2:0:0:0:0, 2+1:0:0:0:0, 6+3:2:0:0:2, 8+2:0:0:0:0, 2+1:0:0:0:0, 2+2:0:0:0:0, 5+2:1:0:0:1, 8+2:0:0:0:0, 2+0:0:0:0:0, 4+1:0:0:0:0, 4+3:1:0:0:1, 6+3:0:0:0:0, 4+1:0:0:0:0, 1+0:0:0:0:0, 0+0:0:0:0:0, 1+1:0:0:0:0, 5+3:2:0:0:2, 8+4:0:0:0:0, 3+2:1:0:0:1, 5+2:0:0:0:0, 1+0:0:0:0:0, 2+1:0:0:0:0, 4+1:1:0:0:1, 6+1:0:0:0:0, 1+0:0:0:0:0, 2+1:0:0:0:0, 4+1:1:0:0:1, 4+2:0:0:0:0, 3+1:0:0:0:0, 2+1:0:0:0:0, 2+1:0:0:0:0, 2+2:0:0:0:0, 4+4:3:0:0:3, 3+2:1:0:0:1, 3+1:1:0:0:1, 6+2:0:0:0:0, 1+0:0:0:0:0, 2+1:0:0:0:0, 4+1:1:0:0:1, 7+4:0:0:0:0, 3+1:0:0:0:0, 2+2:0:0:0:0, 3+1:1:0:0:1, 7+4:0:0:0:0, 5+3:0:0:0:0, 1+0:0:0:0:0,  , 1+3:0:0:0:0, 2+3:3:0:0:3, 3+1:0:0:0:0, 8+3:2:0:0:2, 8+2:0:0:0:0, 1+0:0:0:0:0, 2+2:0:0:0:0, 3+3:1:0:0:1, 5+2:0:0:0:0, 2+0:0:0:0:0, 3+2:0:0:0:0, 5+2:1:0:0:1, 4+3:0:0:0:0, 3+1:1:0:0:1, 1+0:0:0:0:0, 1+0:0:0:0:0, 1+2:0:0:0:0, 2+2:0:0:0:0, 8+3:0:0:0:0, 4+1:1:0:0:1, 5+1:0:0:0:0, 2+0:0:0:0:0, 6+2:0:0:0:0, 4+2:1:0:0:1, 6+2:0:0:0:0, 3+1:0:0:0:0, 2+1:0:0:0:0, 6+2:1:0:0:1, 5+2:0:0:0:0, 2+1:0:0:0:0, 1+1:0:0:0:0, 4+3:0:0:0:2, 1+3:0:0:0:0, 2+2:0:0:0:0, 5+4:2:0:0:2, 4+1:1:0:0:1, 4+2:2:0:0:2, 6+1:0:0:0:0, 8+3:1:0:0:1, 8+3:0:0:0:0, 6+2:2:0:0:2, 8+3:0:0:0:0, 4+2:2:0:0:2, 6+3:0:0:0:0, 4+1:1:0:0:1, 7+2:0:0:0:0, 6+2:1:0:0:1, 6+2:1:0:0:1, 1+0:0:0:0:0, 1+0:0:0:0:0, 786+381:71:0:0:77
C# minor (4#), 1+0:0:0:0:0, 7+5:0:0:0:1, 3+6:1:0:0:1, 5+7:2:0:0:2, 3+3:0:0:0:0, 7+5:0:0:0:1, 3+6:1:0:0:1, 3+6:2:0:0:2, 4+2:0:0:0:1, 3+1:1:0:0:1, 1+1:0:0:0:0, 4+4:0:0:0:1, 2+0:0:0:0:0, 7+5:0:0:0:1, 3+6:1:0:0:1, 5+7:2:0:0:2, 3+3:0:0:0:0, 7+5:0:0:0:1, 3+6:1:0:0:1, 5+7:2:0:0:2, 3+3:0:0:0:0, 7+5:0:0:0:1, 3+6:1:0:0:1, 3+5:2:0:0:2, 4+2:0:0:0:1, 3+1:1:0:0:1, 1+1:0:0:0:0, 4+4:0:0:0:1, 2+0:0:0:0:0, 7+5:0:0:0:1, 3+6:1:0:0:1, 5+7:2:0:0:2, 3+2:0:0:0:0, 6+6:0:0:0:1, 2+5:2:0:0:2, 4+6:0:0:0:0, 3+1:1:0:0:1, 6+3:0:0:0:1, 2+6:2:0:0:2, 5+3:1:0:0:1, 13+9:2:0:0:6, 3+1:1:0:0:1, 4+2:0:0:0:0, 5+3:0:0:0:1, 3+3:1:2:0:3, 7+8:0:0:0:1, 4+3:1:0:0:1, 8+6:0:0:0:0, 7+4:1:0:0:1, 8+6:0:0:0:1, 4+7:2:0:0:3, 4+7:0:0:0:0, 4+3:0:0:0:0, 7+3:0:0:0:1, 2+2:1:0:0:1, 3+2:0:0:0:0, 4+3:0:0:0:1, 3+4:0:0:0:0, 4+4:1:0:0:1, 3+1:0:0:0:1, 4+4:0:1:0:1, 10+7:0:0:0:1, 9+7:0:0:0:0, 7+8:1:0:0:1, 3+5:0:0:0:0, 6+2:0:0:0:1, 2+3:1:0:0:1, 6+6:0:0:0:0, 3+2:0:0:0:0, 8+4:0:0:0:1, 3+5:0:0:0:0, 4+3:0:0:0:0, 4+3:0:0:0:1, 3+3:0:0:0:0, 2+0:0:0:0:0, 5+2:0:0:0:1, 1+0:0:0:0:0, 6+4:0:0:0:1, 3+6:0:0:0:0, 6+8:0:0:0:0, 3+4:0:0:0:0, 6+4:0:0:0:1, 3+6:1:0:0:1, 5+6:0:1:0:1, 3+2:0:0:0:0, 6+3:0:0:0:2, 3+5:0:0:0:0, 2+1:0:0:0:0, 4+2:0:0:0:1, 3+3:0:0:0:0, 2+0:0:0:0:0, 4+3:0:0:0:1, 1+0:0:0:0:0, 6+6:0:0:0:1, 3+6:0:0:0:0, 4+5:0:0:0:0, 3+3:0:0:0:0, 6+5:0:0:0:3, 4+6:0:0:0:0, 4+6:0:0:0:0, 3+3:0:0:0:0, 8+5:0:0:0:1, 5+5:1:2:0:3, 2+2:0:0:0:0, 4+6:0:0:0:2, 3+3:0:0:0:0, 5+3:1:0:0:1, 7+4:0:0:0:2, 2+1:0:0:0:0, 8+5:0:0:0:1, 3+6:0:0:0:0, 4+5:0:0:0:0, 3+3:0:0:0:0, 7+4:0:0:0:1, 6+5:1:0:0:1, 7+6:0:0:0:0, 5+4:0:0:0:0, 8+5:0:0:0:1, 6+6:0:0:0:0, 2+3:0:0:0:0, 4+4:0:0:0:1, 4+2:0:0:0:0, 2+0:0:0:0:0, 3+1:0:0:0:1, 2+0:0:0:0:0, 6+3:0:0:0:1, 5+6:2:0:0:3, 6+5:0:0:0:0, 4+2:0:0:0:0, 6+8:0:0:0:2, 4+5:2:0:0:2, 6+5:0:0:0:0, 3+4:0:0:0:0, 6+5:0:0:0:1, 3+5:1:1:0:1, 5+5:0:1:0:1, 6+2:0:0:0:1, 3+3:0:0:0:0, 3+5:0:0:0:2, 4+2:0:0:0:1, 6+5:0:0:0:0, 8+8:4:0:0:4, 3+4:1:0:0:2, 4+5:0:0:0:0, 3+3:0:0:0:0, 6+5:0:0:0:1, 3+5:1:0:0:1, 4+3:0:0:0:0, 3+5:0:0:0:0, 6+5:0:0:0:1, 3+5:1:0:0:1, 3+1:0:0:0:0, 5+4:0:0:0:1, 4+3:0:0:0:0, 4+1:0:0:0:1, 6+2:0:0:0:0, 2+1:1:0:0:1, 6+5:1:0:0:2, 3+6:0:0:0:0, 4+4:0:0:0:0, 3+3:0:0:0:0, 6+5:0:0:0:1, 3+5:1:0:0:1, 5+5:0:0:0:0, 5+4:0:0:0:0, 6+5:0:0:0:2, 3+6:0:0:0:0, 5+5:0:0:0:0, 8+5:0:0:0:1, 3+3:0:0:0:0,  , 3+3:0:0:0:1, 1+0:0:0:0:0, 7+3:0:0:0:1, 7+8:2:0:0:2, 6+5:0:0:0:0, 3+2:0:0:0:0, 6+3:0:0:0:2, 2+3:1:0:0:1, 4+4:0:0:0:0, 4+3:0:0:0:0, 7+3:0:0:0:1, 5+6:0:0:0:0, 4+2:0:0:0:0, 6+5:0:0:0:2, 3+3:0:0:0:0, 2+2:0:0:0:0, 4+4:0:0:0:1, 1+0:0:0:0:0, 8+5:3:0:0:3, 3+8:1:0:0:1, 4+3:0:0:0:0, 3+4:0:0:0:0, 8+5:0:0:0:1, 5+5:0:0:0:1, 4+5:0:0:0:0, 5+4:0:0:0:0, 6+3:0:0:0:1, 5+6:1:0:0:1, 3+3:0:1:0:1, 4+2:0:0:0:1, 4+3:0:0:0:0, 4+3:0:0:0:0, 3+3:0:0:0:1, 1+0:0:0:0:0, 9+4:2:0:0:1, 4+6:0:0:0:0, 5+7:1:0:0:1, 4+3:0:0:0:0, 8+6:1:0:0:1, 7+5:1:0:0:1, 8+5:1:0:0:1, 6+5:0:0:0:0, 6+7:1:0:0:1, 5+5:2:0:0:2, 6+4:1:0:0:1, 5+4:0:0:0:0, 6+4:1:0:0:1, 4+3:0:0:0:0, 1+0:0:0:0:0, 0+0:0:0:0:0, 970+872:76:9:0:163
Db major (5b), 1+0:0:0:0:0, 4+3:0:0:0:2, 6+2:1:0:0:1, 6+3:1:0:0:2, 2+1:0:0:0:0, 4+1:0:0:0:0, 6+2:1:0:0:1, 4+3:1:0:0:2, 3+1:0:0:0:1, 4+1:0:0:0:0, 1+0:0:0:0:0, 2+0:0:0:0:0, 3+1:1:0:0:1, 4+1:0:0:0:0, 6+2:1:0:0:1, 6+3:1:0:0:2, 2+1:0:0:0:0, 4+1:0:0:0:0, 6+2:1:0:0:1, 6+3:1:0:0:2, 2+1:0:0:0:0, 4+1:0:0:0:0, 6+2:1:0:0:1, 4+3:1:0:0:2, 3+1:0:0:0:1, 4+1:0:0:0:0, 1+0:0:0:0:0, 2+0:0:0:0:0, 3+1:1:0:0:1, 4+1:0:0:0:0, 6+2:1:0:0:1, 6+3:1:0:0:2, 2+1:0:0:0:0, 5+3:0:0:0:0, 4+1:1:0:0:1, 7+1:0:0:0:0, 3+1:1:0:0:1, 3+1:0:0:0:0, 4+1:1:0:0:1, 8+5:0:0:0:0, 11+6:0:0:0:2, 3+1:0:0:0:0, 5+2:0:0:0:1, 3+1:0:0:0:0, 4+3:1:2:0:3, 4+3:0:0:0:0, 4+1:1:0:0:1, 10+4:0:0:0:0, 8+5:2:0:0:2, 5+3:0:0:0:0, 6+2:1:0:0:1, 7+1:0:0:0:0, 4+1:0:0:0:0, 4+1:0:0:0:0, 5+1:1:0:0:0, 5+1:0:0:0:0, 3+1:0:0:0:0, 2+0:0:0:0:0, 2+1:0:0:0:0, 1+0:0:0:0:0, 6+3:1:0:0:1, 7+4:0:0:0:0, 10+5:1:0:0:1, 10+3:0:0:0:0, 2+0:0:0:0:0, 3+1:0:0:0:0, 4+1:1:0:0:1, 7+4:1:0:0:2, 2+1:0:0:0:0, 5+2:0:0:0:0, 4+1:1:0:0:1, 5+4:0:0:0:0, 4+2:0:0:0:1, 2+0:0:0:0:0, 2+0:0:0:0:0, 3+0:0:0:0:0, 2+0:0:0:0:0, 3+1:0:0:0:0, 4+1:1:0:0:1, 7+3:1:0:0:1, 2+2:0:0:0:0, 5+4:0:0:0:0, 5+1:1:0:0:1, 6+2:0:0:0:1, 2+0:0:0:0:0, 3+2:0:0:0:0, 4+1:1:0:0:1, 3+2:1:0:0:1, 3+1:0:0:0:1, 2+2:0:0:0:0, 2+0:0:0:0:0, 2+0:0:0:0:0, 2+0:0:0:0:0, 5+3:0:0:0:0, 4+2:1:0:0:1, 6+3:0:0:0:0, 2+0:0:0:0:0, 3+3:0:0:0:0, 5+3:3:0:0:3, 7+3:0:0:0:0, 3+0:0:0:0:0, 5+2:0:0:0:0, 8+3:2:0:0:2, 4+4:0:0:0:0, 3+1:0:0:0:1, 2+2:0:0:0:0, 5+2:1:0:0:1, 4+6:0:0:0:1, 5+1:0:0:0:1, 5+2:0:0:0:0, 4+1:1:0:0:1, 7+2:0:0:0:0, 2+0:0:0:0:0, 3+2:0:0:0:0, 6+4:1:0:0:1, 8+3:0:0:0:1, 4+2:0:0:0:0, 5+2:0:0:0:0, 7+3:1:0:0:1, 4+3:0:0:0:0, 3+3:0:0:0:3, 2+2:0:0:0:0, 1+0:0:0:0:0, 1+0:0:0:0:0, 3+2:2:0:0:2, 3+1:0:0:0:0, 7+3:2:0:0:2, 7+2:0:0:0:1, 3+1:0:0:0:0, 3+2:0:0:0:0, 6+2:1:0:0:1, 7+2:0:0:0:1, 3+0:0:0:0:0, 5+4:0:0:0:0, 5+3:1:0:0:1, 7+3:0:0:0:0, 5+3:0:0:0:0, 2+2:0:0:0:0, 1+3:0:0:0:0, 2+0:0:0:0:0, 5+3:1:0:0:1, 9+4:0:0:0:0, 4+2:1:0:0:1, 6+2:0:0:0:0, 2+0:0:0:0:0, 3+1:0:0:0:0, 5+1:1:0:0:1, 7+1:0:0:0:0, 2+0:0:0:0:0, 3+1:0:0:0:0, 5+1:1:0:0:1, 5+2:0:0:0:0, 4+1:0:0:0:0, 3+1:0:0:0:0, 3+1:0:0:0:0, 3+0:0:0:0:0, 3+4:1:1:0:2, 4+2:1:0:0:1, 4+1:1:0:0:1, 7+2:0:0:0:0, 2+0:0:0:0:0, 3+1:0:0:0:0, 5+1:1:0:0:1, 8+4:0:0:0:0, 4+1:0:0:0:0, 3+2:0:0:0:0, 4+1:1:0:0:1, 6+4:0:0:0:1, 6+6:0:0:0:2, 2+2:0:0:0:0,  , 1+0:0:0:0:0, 2+3:1:0:0:1, 4+1:0:0:0:0, 9+3:2:0:0:2, 7+2:0:0:0:1, 2+0:0:0:0:0, 3+2:0:0:0:0, 4+3:1:0:0:1, 6+2:0:0:0:0, 3+0:0:0:0:0, 4+2:0:0:0:0, 6+2:1:0:0:1, 4+3:1:0:0:2, 5+2:0:0:0:2, 2+2:0:0:0:0, 2+0:0:0:0:0, 2+0:0:0:0:0, 2+0:0:0:0:0, 9+3:0:0:0:0, 5+1:1:0:0:1, 6+1:0:0:0:0, 3+0:0:0:0:0, 7+3:0:0:0:0, 5+2:1:0:0:1, 7+2:0:0:0:0, 4+1:0:0:0:0, 3+1:0:0:0:0, 7+2:1:0:0:1, 4+2:1:0:0:1, 3+1:0:0:0:1, 2+3:0:0:0:3, 3+3:0:0:0:0, 1+0:0:0:0:0, 2+0:0:0:0:0, 6+4:2:0:0:2, 5+1:1:0:0:1, 5+2:2:0:0:2, 7+1:0:0:0:0, 9+3:1:0:0:0, 9+3:1:0:0:1, 7+2:2:0:0:2, 9+3:0:0:0:0, 5+2:2:0:0:2, 7+3:0:0:0:0, 5+1:1:0:0:1, 8+2:0:0:0:0, 7+3:1:0:0:0, 7+1:0:0:0:0, 0+0:0:0:0:0, 1+0:0:0:0:0, 958+387:81:3:0:118
B major (5#), 1+0:0:0:0:0, 7+5:0:0:0:1, 4+6:1:0:0:1, 6+7:2:0:0:2, 3+1:0:0:0:0, 7+5:0:0:0:1, 4+6:1:0:0:1, 4+6:2:0:0:2, 4+2:0:0:0:1, 4+1:1:0:0:1, 2+1:0:0:0:0, 5+4:0:0:0:1, 3+0:0:0:0:0, 7+5:0:0:0:1, 4+6:1:0:0:1, 6+7:2:0:0:2, 3+1:0:0:0:0, 7+5:0:0:0:1, 4+6:1:0:0:1, 6+7:2:0:0:2, 3+1:0:0:0:0, 7+5:0:0:0:1, 4+6:1:0:0:1, 4+5:2:0:0:2, 4+2:0:0:0:1, 4+1:1:0:0:1, 2+1:0:0:0:0, 5+4:0:0:0:1, 3+0:0:0:0:0, 7+5:0:0:0:1, 4+6:1:0:0:1, 6+7:2:0:0:2, 3+1:0:0:0:0, 7+4:0:0:0:1, 3+5:2:0:0:2, 5+7:0:0:0:3, 3+1:1:0:0:1, 6+3:0:0:0:1, 3+6:2:0:0:2, 6+3:1:0:0:1, 13+9:2:0:0:6, 3+1:1:0:0:1, 3+2:0:0:0:0, 6+3:0:0:0:1, 4+3:1:2:0:3, 7+8:0:0:0:1, 5+3:1:0:0:1, 9+6:0:0:0:0, 8+4:1:0:0:1, 8+6:0:0:0:1, 5+7:2:0:0:3, 5+9:0:0:0:5, 5+5:0:0:0:0, 7+3:0:0:0:1, 3+2:1:0:0:1, 4+2:0:0:0:0, 4+3:0:0:0:1, 3+4:0:0:0:0, 4+4:1:0:0:1, 4+2:0:0:0:0, 5+4:0:1:0:1, 10+7:0:0:0:1, 10+7:1:0:0:2, 8+8:1:0:0:1, 3+3:0:0:0:0, 6+2:0:0:0:1, 3+3:1:0:0:1, 7+6:0:0:0:0, 3+2:0:0:0:0, 8+4:0:0:0:1, 4+0:0:0:0:0, 5+3:0:0:0:0, 4+3:1:0:0:3, 3+2:0:0:0:0, 2+0:0:0:0:0, 6+2:0:0:0:1, 2+0:0:0:0:0, 6+4:0:0:0:1, 4+0:0:0:0:0, 7+8:0:0:0:0, 3+1:0:0:0:0, 7+6:0:0:0:1, 4+6:1:0:0:1, 6+7:0:1:0:2, 3+1:0:0:0:0, 6+3:0:0:0:2, 4+3:1:0:0:2, 3+1:0:0:0:0, 4+2:0:0:0:1, 3+3:0:0:0:0, 2+0:0:0:0:0, 5+3:0:0:0:1, 2+0:0:0:0:0, 7+3:0:0:0:1, 4+0:0:0:0:0, 5+4:0:0:0:0, 3+1:0:0:0:0, 6+5:0:0:0:3, 5+0:0:0:0:0, 5+3:0:0:0:0, 4+2:0:0:0:0, 8+5:0:0:0:1, 6+5:1:2:0:3, 3+2:0:0:0:0, 4+6:0:0:0:2, 3+3:0:0:0:0, 5+3:1:0:0:1, 8+4:0:0:0:2, 3+1:0:0:0:0, 8+5:0:0:0:1, 4+0:0:0:0:0, 5+4:0:0:0:0, 3+1:0:0:0:0, 7+4:0:0:0:1, 7+5:1:0:0:1, 8+6:0:0:0:0, 5+3:0:0:0:0, 8+5:0:0:0:1, 7+7:2:0:0:3, 3+3:0:0:0:0, 4+4:0:0:0:1, 4+2:0:0:0:0, 2+0:0:0:0:0, 4+3:0:0:0:0, 3+1:0:0:0:0, 6+3:0:0:0:1, 6+6:2:0:0:3, 7+8:0:0:0:2, 4+3:0:0:0:0, 6+8:0:0:0:2, 5+5:2:0:0:2, 7+8:0:0:0:2, 4+2:0:0:0:0, 7+3:0:0:0:1, 4+5:1:1:0:1, 6+5:0:1:0:1, 6+2:0:0:0:1, 3+4:0:0:0:0, 2+5:5:5:0:5, 5+2:0:0:0:1, 7+5:0:0:0:0, 9+8:4:0:0:4, 4+4:1:0:0:2, 5+6:0:0:0:1, 3+1:0:0:0:0, 6+5:0:0:0:1, 4+5:1:0:0:1, 5+5:0:0:0:1, 3+4:0:0:0:0, 6+5:0:0:0:1, 4+5:1:0:0:1, 4+1:0:0:0:0, 5+4:0:0:0:1, 4+3:0:0:0:0, 5+1:0:0:0:1, 7+6:0:0:0:0, 3+1:1:0:0:1, 6+5:1:0:0:2, 4+0:0:0:0:0, 5+4:0:0:0:0, 3+1:0:0:0:0, 6+5:0:0:0:1, 4+5:1:0:0:1, 6+5:0:0:0:0, 5+3:0:0:0:0, 6+5:0:0:0:2, 4+0:0:0:0:0, 6+5:0:0:0:0, 8+5:0:0:0:1, 3+1:0:0:0:0,  , 4+3:0:0:0:1, 2+0:0:0:0:0, 7+3:0:0:0:1, 8+8:2:0:0:2, 7+8:0:0:0:2, 3+1:0:0:0:0, 6+3:0:0:0:2, 3+3:1:0:0:1, 5+7:0:0:0:1, 4+1:0:0:0:0, 7+3:0:0:0:1, 6+1:0:0:0:1, 5+2:0:0:0:0, 6+5:0:0:0:2, 3+2:0:0:0:0, 2+0:0:0:0:0, 5+4:0:0:0:1, 2+0:0:0:0:0, 9+5:3:0:0:3, 4+8:1:0:0:1, 5+9:0:0:0:1, 4+3:0:0:0:0, 9+7:0:0:0:2, 5+3:3:3:0:3, 5+4:0:0:0:0, 5+2:0:0:0:0, 6+3:0:0:0:1, 6+6:1:0:0:1, 4+3:0:1:0:1, 4+2:0:0:0:1, 4+3:0:0:0:0, 5+3:0:0:0:0, 4+3:0:0:0:1, 2+0:0:0:0:0, 9+4:2:0:0:1, 5+0:0:0:0:0, 6+1:0:0:0:0, 5+3:0:0:0:0, 9+6:1:0:0:1, 8+5:1:0:0:1, 9+5:1:0:0:1, 7+5:0:0:0:0, 7+7:1:0:0:1, 6+5:2:0:0:2, 7+4:1:0:0:1, 6+4:0:0:0:0, 7+4:1:0:0:1, 5+3:0:0:0:1, 1+0:0:0:0:0, 0+0:0:0:0:0, 1100+800:88:17:0:196
Bb minor (5b), 1+0:0:0:0:0, 4+1:0:0:0:0, 6+2:1:0:0:1, 6+3:1:0:0:2, 2+1:0:0:0:0, 4+1:0:0:0:0, 6+2:1:0:0:1, 4+3:1:0:0:2, 3+1:0:0:0:1, 4+1:0:0:0:0, 1+0:0:0:0:0, 2+0:0:0:0:0, 3+1:1:0:0:1, 4+1:0:0:0:0, 6+2:1:0:0:1, 6+3:1:0:0:2, 2+1:0:0:0:0, 4+1:0:0:0:0, 6+2:1:0:0:1, 6+3:1:0:0:2, 2+1:0:0:0:0, 4+1:0:0:0:0, 6+2:1:0:0:1, 4+3:1:0:0:2, 3+1:0:0:0:1, 4+1:0:0:0:0, 1+0:0:0:0:0, 2+0:0:0:0:0, 3+1:1:0:0:1, 4+1:0:0:0:0, 6+2:1:0:0:1, 6+3:1:0:0:2, 2+1:0:0:0:0, 5+3:0:0:0:0, 4+1:1:0:0:1, 7+1:0:0:0:0, 3+1:1:0:0:1, 3+1:0:0:0:0, 4+1:1:0:0:1, 8+5:0:0:0:0, 11+6:0:0:0:2, 3+1:0:0:0:0, 4+2:0:1:0:1, 3+1:0:0:0:0, 4+3:1:2:0:3, 4+3:0:0:0:0, 4+1:1:0:0:1, 10+4:0:0:0:0, 8+5:2:0:0:2, 5+3:0:0:0:0, 6+2:1:0:0:1, 7+1:0:0:0:0, 4+1:0:0:0:0, 4+1:0:0:0:0, 5+2:1:0:0:0, 5+1:0:0:0:0, 3+1:0:0:0:0, 2+0:0:0:0:0, 2+1:0:0:0:0, 1+0:0:0:0:0, 6+3:1:0:0:1, 7+4:0:0:0:0, 10+5:1:0:0:1, 10+6:1:0:0:1, 2+0:0:0:0:0, 3+1:0:0:0:0, 4+1:1:0:0:1, 7+4:1:0:0:2, 2+1:0:0:0:0, 5+2:0:0:0:0, 4+1:1:0:0:1, 5+4:0:0:0:0, 4+2:0:0:0:1, 2+0:0:0:0:0, 2+0:0:0:0:0, 3+0:0:0:0:0, 2+0:0:0:0:0, 3+1:0:0:0:0, 4+1:1:0:0:1, 7+3:1:0:0:1, 2+0:0:0:0:0, 5+1:0:0:0:0, 5+1:1:0:0:1, 6+2:0:0:0:1, 2+0:0:0:0:0, 3+2:0:0:0:0, 4+1:1:0:0:1, 3+2:1:0:0:1, 3+1:0:0:0:1, 2+2:0:0:0:0, 2+0:0:0:0:0, 2+0:0:0:0:0, 2+1:1:0:0:1, 5+3:0:0:0:0, 4+2:1:0:0:1, 6+3:0:0:0:0, 2+0:0:0:0:0, 3+3:0:0:0:0, 5+3:3:0:0:3, 7+3:0:0:0:0, 3+0:0:0:0:0, 5+2:0:0:0:0, 8+3:2:0:0:2, 4+4:0:0:0:0, 3+0:0:0:0:0, 2+2:0:0:0:0, 5+2:1:0:0:1, 4+6:0:0:0:1, 5+1:0:0:0:1, 5+2:0:0:0:0, 4+1:1:0:0:1, 7+2:0:0:0:0, 2+0:0:0:0:0, 3+2:0:0:0:0, 6+4:1:0:0:1, 8+3:0:0:0:1, 4+2:0:0:0:0, 5+2:0:0:0:0, 7+3:1:0:0:1, 4+3:0:0:0:0, 3+1:0:0:0:0, 2+0:0:0:0:0, 1+0:0:0:0:0, 1+0:0:0:0:0, 3+2:2:0:0:2, 3+1:0:0:0:0, 7+3:2:0:0:2, 7+2:0:0:0:1, 3+1:0:0:0:0, 3+2:0:0:0:0, 6+2:1:0:0:1, 7+2:0:0:0:1, 3+0:0:0:0:0, 5+1:0:0:0:0, 5+3:1:0:0:1, 7+3:1:0:0:1, 5+3:0:0:0:0, 2+0:0:0:0:0, 1+2:0:0:0:0, 2+0:0:0:0:0, 5+3:1:0:0:1, 9+4:0:0:0:0, 4+2:1:0:0:1, 6+2:0:0:0:0, 2+0:0:0:0:0, 3+1:0:0:0:0, 5+1:1:0:0:1, 7+1:0:0:0:0, 2+0:0:0:0:0, 3+1:0:0:0:0, 5+1:1:0:0:1, 5+2:2:0:0:2, 4+2:0:0:0:0, 3+1:0:0:0:0, 3+1:0:0:0:0, 3+0:0:0:0:0, 3+4:1:1:0:2, 4+2:1:0:0:1, 4+1:1:0:0:1, 7+2:0:0:0:0, 2+0:0:0:0:0, 3+1:0:0:0:0, 5+1:1:0:0:1, 8+4:0:0:0:0, 4+1:0:0:0:0, 3+2:0:0:0:0, 4+1:1:0:0:1, 6+4:0:0:0:1, 6+4:0:0:0:2, 2+2:0:0:0:0,  , 1+0:0:0:0:0, 2+3:1:0:0:1, 4+1:0:0:0:0, 9+3:2:0:0:2, 7+2:0:0:0:1, 2+0:0:0:0:0, 3+2:0:0:0:0, 4+3:1:0:0:1, 6+2:0:0:0:0, 3+0:0:0:0:0, 4+2:0:0:0:0, 6+2:1:0:0:1, 4+3:1:0:0:2, 5+2:0:0:0:2, 2+2:0:0:0:0, 2+0:0:0:0:0, 2+0:0:0:0:0, 2+0:0:0:0:0, 9+3:0:0:0:0, 5+1:1:0:0:1, 6+1:0:0:0:0, 3+0:0:0:0:0, 7+2:0:0:0:0, 5+2:1:0:0:1, 7+2:0:0:0:0, 4+1:0:0:0:0, 3+1:0:0:0:0, 7+2:1:0:0:1, 4+2:0:0:0:1, 3+0:0:0:0:0, 2+0:0:0:0:0, 3+3:0:0:0:2, 1+3:0:0:0:0, 2+0:0:0:0:0, 6+4:2:0:0:2, 5+1:1:0:0:1, 5+2:2:0:0:2, 7+1:0:0:0:0, 9+3:1:0:0:1, 9+3:0:0:0:0, 7+2:2:0:0:2, 9+3:0:0:0:0, 5+2:2:0:0:2, 7+2:1:0:0:1, 5+1:1:0:0:1, 8+2:0:0:0:0, 7+2:1:0:0:1, 7+2:1:0:0:1, 0+0:0:0:0:0, 1+0:0:0:0:0, 957+370:86:4:0:118
G# minor (5#), 1+0:0:0:0:0, 7+5:0:0:0:1, 4+6:1:0:0:1, 6+7:2:0:0:2, 3+1:0:0:0:0, 7+5:0:0:0:1, 4+6:1:0:0:1, 4+6:2:0:0:2, 4+2:0:0:0:1, 4+2:1:0:0:1, 2+2:1:0:0:1, 5+5:0:0:0:0, 3+1:0:0:0:0, 7+5:0:0:0:1, 4+6:1:0:0:1, 6+7:2:0:0:2, 3+1:0:0:0:0, 7+5:0:0:0:1, 4+6:1:0:0:1, 6+7:2:0:0:2, 3+1:0:0:0:0, 7+5:0:0:0:1, 4+6:1:0:0:1, 4+5:2:0:0:2, 4+2:0:0:0:1, 4+2:1:0:0:1, 2+2:1:0:0:1, 5+5:0:0:0:0, 3+1:0:0:0:0, 7+5:0:0:0:1, 4+6:1:0:0:1, 6+7:2:0:0:2, 3+1:0:0:0:0, 7+4:0:0:0:1, 3+5:2:0:0:2, 5+7:0:0:0:3, 3+1:1:0:0:1, 6+3:0:0:0:1, 3+6:2:0:0:2, 6+3:1:0:0:1, 13+9:2:0:0:6, 3+1:1:0:0:1, 3+2:0:0:0:0, 6+3:0:0:0:1, 4+3:1:2:0:3, 7+8:0:0:0:1, 5+3:1:0:0:1, 9+6:0:0:0:0, 8+4:1:0:0:1, 8+6:0:0:0:1, 5+7:2:0:0:3, 5+9:0:0:0:5, 5+5:0:0:0:0, 7+3:0:0:0:1, 3+2:1:0:0:1, 4+2:0:0:0:0, 4+3:0:0:0:1, 3+4:0:0:0:0, 4+4:1:0:0:1, 4+2:0:0:0:0, 5+4:0:1:0:1, 10+7:0:0:0:1, 10+5:0:0:0:1, 9+7:0:0:0:0, 3+3:0:0:0:0, 6+2:0:0:0:1, 3+3:1:0:0:1, 7+6:0:0:0:0, 3+2:0:0:0:0, 8+4:0:0:0:1, 4+0:0:0:0:0, 5+3:0:0:0:0, 4+3:1:0:0:3, 3+2:0:0:0:0, 2+1:0:0:0:0, 6+2:0:0:0:0, 2+2:0:0:0:0, 6+4:0:0:0:1, 4+0:0:0:0:0, 7+5:1:0:0:0, 3+1:0:0:0:0, 7+6:0:0:0:1, 4+6:1:0:0:1, 6+7:0:1:0:2, 3+1:0:0:0:0, 6+3:0:0:0:2, 4+0:0:0:0:0, 3+1:0:0:0:0, 4+2:0:0:0:1, 3+2:0:0:0:0, 2+2:0:0:0:0, 5+3:0:0:0:0, 2+1:0:0:0:0, 7+3:0:0:0:1, 4+0:0:0:0:0, 5+4:0:0:0:0, 3+1:0:0:0:0, 6+5:0:0:0:3, 5+0:0:0:0:0, 5+3:0:0:0:0, 4+2:0:0:0:0, 8+5:0:0:0:1, 6+5:1:2:0:3, 3+2:0:0:0:0, 4+6:0:0:0:2, 3+3:0:0:0:0, 5+3:1:0:0:1, 8+4:0:0:0:2, 3+1:0:0:0:0, 8+5:0:0:0:1, 4+0:0:0:0:0, 5+4:0:0:0:0, 3+1:0:0:0:0, 7+4:0:0:0:1, 7+5:1:0:0:1, 8+6:0:0:0:0, 5+3:0:0:0:0, 8+5:0:0:0:1, 7+2:0:0:0:1, 3+3:0:0:0:0, 4+4:0:0:0:1, 4+2:0:0:0:0, 2+0:0:0:0:0, 4+3:0:0:0:0, 3+1:0:0:0:0, 6+3:0:0:0:1, 6+6:2:0:0:3, 7+8:0:0:0:2, 4+3:0:0:0:0, 6+8:0:0:0:2, 5+5:2:0:0:2, 7+8:0:0:0:2, 4+2:0:0:0:0, 7+3:0:0:0:1, 4+5:1:1:0:1, 6+5:0:1:0:1, 6+2:0:0:0:1, 3+4:0:0:0:0, 2+5:5:5:0:5, 5+2:0:0:0:1, 7+5:0:0:0:0, 9+8:4:0:0:4, 4+4:1:0:0:2, 5+6:0:0:0:1, 3+1:0:0:0:0, 6+5:0:0:0:1, 4+5:1:0:0:1, 5+5:0:0:0:1, 3+4:0:0:0:0, 6+5:0:0:0:1, 4+5:1:0:0:1, 4+1:0:0:0:0, 5+4:0:0:0:1, 4+3:0:0:0:0, 5+1:0:0:0:1, 7+2:0:0:0:0, 3+2:1:0:0:1, 6+5:1:0:0:2, 4+0:0:0:0:0, 5+4:0:0:0:0, 3+1:0:0:0:0, 6+5:0:0:0:1, 4+5:1:0:0:1, 6+5:0:0:0:0, 5+3:0:0:0:0, 6+5:0:0:0:2, 4+0:0:0:0:0, 6+5:0:0:0:0, 8+5:0:0:0:1, 3+1:0:0:0:0,  , 4+3:0:0:0:1, 2+0:0:0:0:0, 7+3:0:0:0:1, 8+8:2:0:0:2, 7+8:0:0:0:2, 3+1:0:0:0:0, 6+3:0:0:0:2, 3+3:1:0:0:1, 5+7:0:0:0:1, 4+1:0:0:0:0, 7+3:0:0:0:1, 6+1:0:0:0:1, 5+2:0:0:0:0, 6+5:0:0:0:2, 3+2:0:0:0:0, 2+0:0:0:0:0, 5+4:0:0:0:1, 2+0:0:0:0:0, 9+5:3:0:0:3, 4+8:1:0:0:1, 5+9:0:0:0:1, 4+3:0:0:0:0, 9+7:0:0:0:2, 5+3:3:3:0:3, 5+4:0:0:0:0, 5+2:0:0:0:0, 6+3:0:0:0:1, 6+6:1:0:0:1, 4+3:0:1:0:1, 4+2:0:0:0:1, 4+3:0:0:0:0, 5+3:0:0:0:0, 4+3:0:0:0:1, 2+0:0:0:0:0, 9+4:2:0:0:1, 5+0:0:0:0:0, 6+1:0:0:0:0, 5+5:0:0:0:1, 9+6:1:0:0:1, 8+5:1:0:0:1, 9+5:0:0:0:0, 7+5:0:0:0:0, 7+6:0:0:0:0, 6+5:2:0:0:2, 7+5:0:0:0:0, 6+4:0:0:0:0, 7+4:1:0:0:1, 5+3:0:0:0:1, 1+0:0:0:0:0, 0+0:0:0:0:0, 1101+798:83:17:0:186
Gb major (6b), 1+0:0:0:0:0, 5+3:0:0:0:2, 6+2:1:0:0:1, 7+4:0:0:0:0, 3+0:0:0:0:0, 5+1:0:0:0:0, 6+2:1:0:0:1, 5+4:0:0:0:0, 3+1:0:0:0:0, 5+1:0:0:0:0, 2+0:0:0:0:0, 3+0:0:0:0:0, 4+1:0:0:0:0, 5+1:0:0:0:0, 6+2:1:0:0:1, 7+4:0:0:0:0, 3+0:0:0:0:0, 5+1:0:0:0:0, 6+2:1:0:0:1, 7+4:0:0:0:0, 3+0:0:0:0:0, 5+1:0:0:0:0, 6+2:1:0:0:1, 5+4:0:0:0:0, 3+1:0:0:0:0, 5+1:0:0:0:0, 2+0:0:0:0:0, 3+0:0:0:0:0, 4+1:0:0:0:0, 5+1:0:0:0:0, 6+2:1:0:0:1, 7+4:0:0:0:0, 3+0:0:0:0:0, 6+1:0:0:0:0, 4+1:1:0:0:1, 8+1:0:0:0:0, 4+1:1:0:0:1, 4+1:0:0:0:0, 4+1:1:0:0:1, 9+5:0:0:0:0, 11+6:0:0:0:3, 4+1:0:0:0:0, 6+2:0:0:0:1, 4+1:0:0:0:0, 5+4:0:0:0:2, 5+3:0:0:0:0, 4+1:1:0:0:1, 11+4:0:0:0:0, 9+5:2:0:0:2, 6+3:0:0:0:0, 6+2:1:0:0:1, 8+1:0:0:0:0, 5+1:0:0:0:0, 5+1:0:0:0:0, 5+1:1:0:0:0, 6+1:0:0:0:0, 3+1:0:0:0:0, 3+0:0:0:0:0, 3+1:0:0:0:0, 2+0:0:0:0:0, 7+3:1:0:0:1, 8+4:0:0:0:0, 10+5:1:0:0:1, 11+3:0:0:0:0, 3+0:0:0:0:0, 4+1:0:0:0:0, 4+1:1:0:0:1, 8+2:0:0:0:0, 3+0:0:0:0:0, 6+2:0:0:0:0, 4+1:1:0:0:1, 6+4:0:0:0:0, 4+2:0:0:0:1, 3+0:0:0:0:0, 3+0:0:0:0:0, 4+0:0:0:0:0, 3+1:0:0:0:0, 4+1:0:0:0:0, 4+1:1:0:0:1, 8+3:1:0:0:1, 3+0:0:0:0:0, 6+1:0:0:0:0, 5+1:1:0:0:1, 7+2:0:0:0:1, 3+0:0:0:0:0, 4+2:0:0:0:0, 4+1:1:0:0:1, 4+2:0:0:0:0, 3+1:0:0:0:0, 3+0:0:0:0:0, 3+0:0:0:0:0, 3+0:0:0:0:0, 3+1:0:0:0:0, 6+1:0:0:0:0, 4+2:1:0:0:1, 7+3:0:0:0:0, 3+0:0:0:0:0, 4+3:0:0:0:0, 5+3:3:0:0:3, 8+3:0:0:0:0, 4+0:0:0:0:0, 6+2:0:0:0:0, 8+3:2:0:0:2, 5+4:0:0:0:0, 3+2:0:0:0:0, 3+1:0:0:0:0, 6+2:1:0:0:1, 5+6:0:0:0:1, 6+1:0:0:0:1, 6+2:0:0:0:0, 4+1:1:0:0:1, 8+2:0:0:0:0, 3+0:0:0:0:0, 4+2:0:0:0:0, 6+4:1:0:0:1, 9+3:0:0:0:1, 5+2:0:0:0:0, 6+2:0:0:0:0, 7+3:1:0:0:1, 5+3:0:0:0:0, 3+3:0:0:0:3, 3+2:0:0:0:0, 1+0:0:0:0:0, 2+3:0:0:0:0, 4+2:0:0:0:0, 4+1:0:0:0:0, 7+3:2:0:0:2, 8+2:0:0:0:1, 4+1:0:0:0:0, 4+2:0:0:0:0, 6+2:1:0:0:1, 8+2:0:0:0:1, 4+0:0:0:0:0, 6+1:0:0:0:0, 5+3:1:0:0:1, 8+3:0:0:0:0, 6+1:0:0:0:0, 3+0:0:0:0:0, 2+0:0:0:0:0, 3+2:0:0:0:0, 6+3:1:0:0:1, 10+4:0:0:0:0, 4+2:1:0:0:1, 7+2:0:0:0:0, 3+0:0:0:0:0, 4+1:0:0:0:0, 5+1:1:0:0:1, 8+1:0:0:0:0, 3+0:0:0:0:0, 4+1:0:0:0:0, 5+1:1:0:0:1, 6+2:0:0:0:0, 5+1:0:0:0:0, 4+1:0:0:0:0, 3+1:0:0:0:0, 4+0:0:0:0:0, 5+4:1:0:0:1, 5+2:1:0:0:1, 4+1:1:0:0:1, 8+2:0:0:0:0, 3+0:0:0:0:0, 4+1:0:0:0:0, 5+1:1:0:0:1, 9+4:0:0:0:0, 5+1:0:0:0:0, 4+2:0:0:0:0, 4+1:1:0:0:1, 7+4:0:0:0:1, 7+6:0:0:0:2, 3+2:0:0:0:2,  , 2+3:0:0:0:0, 3+3:1:0:0:1, 5+1:0:0:0:0, 9+3:2:0:0:2, 8+2:0:0:0:1, 3+0:0:0:0:0, 4+2:0:0:0:0, 4+3:1:0:0:1, 7+2:0:0:0:0, 4+0:0:0:0:0, 5+2:0:0:0:0, 6+2:1:0:0:1, 5+3:0:0:0:0, 4+2:0:1:0:1, 3+2:0:0:0:0, 2+0:0:0:0:0, 3+0:0:0:0:0, 3+2:0:0:0:0, 10+3:0:0:0:0, 5+1:1:0:0:1, 7+1:0:0:0:0, 4+0:0:0:0:0, 8+2:0:0:0:0, 5+2:1:0:0:1, 8+2:0:0:0:0, 5+1:0:0:0:0, 4+1:0:0:0:0, 7+2:1:0:0:1, 5+2:0:0:0:1, 3+1:0:0:0:1, 3+3:0:0:0:3, 4+3:0:0:0:0, 2+3:0:0:0:0, 3+2:0:0:0:0, 7+4:2:0:0:2, 5+1:1:0:0:1, 6+2:2:0:0:2, 8+1:0:0:0:0, 10+3:1:0:0:0, 10+3:0:0:0:0, 8+2:2:0:0:2, 10+3:0:0:0:0, 6+2:2:0:0:2, 8+3:0:0:0:0, 6+1:1:0:0:1, 9+2:0:0:0:0, 8+3:1:0:0:0, 8+1:0:0:0:0, 0+0:0:0:0:0, 1+0:0:0:0:0, 1123+382:65:1:0:92
F# major (6#), 1+0:0:0:0:0, 8+5:0:0:0:1, 5+6:1:0:0:1, 6+7:2:0:0:2, 4+3:0:0:0:0, 8+5:0:0:0:1, 5+6:1:0:0:1, 4+6:2:0:0:2, 4+2:0:0:0:1, 5+4:0:0:0:0, 2+1:0:0:0:0, 5+4:0:0:0:1, 3+2:0:0:0:0, 8+5:0:0:0:1, 5+6:1:0:0:1, 6+7:2:0:0:2, 4+3:0:0:0:0, 8+5:0:0:0:1, 5+6:1:0:0:1, 6+7:2:0:0:2, 4+3:0:0:0:0, 8+5:0:0:0:1, 5+6:1:0:0:1, 4+5:2:0:0:2, 4+2:0:0:0:1, 5+4:0:0:0:0, 2+1:0:0:0:0, 5+4:0:0:0:1, 3+2:0:0:0:0, 8+5:0:0:0:1, 5+6:1:0:0:1, 6+7:2:0:0:2, 4+2:0:0:0:0, 8+6:0:0:0:1, 4+5:2:0:0:2, 6+7:0:0:0:3, 4+1:1:0:0:1, 7+3:0:0:0:1, 4+6:2:0:0:2, 7+3:1:0:0:1, 12+9:2:3:0:3, 4+1:1:0:0:1, 3+2:0:1:0:1, 6+3:0:0:0:1, 6+4:0:0:0:1, 8+8:0:0:0:1, 6+3:1:0:0:1, 10+9:1:0:0:4, 9+4:1:0:0:1, 9+6:0:0:0:1, 6+7:2:0:0:3, 6+9:0:0:0:5, 6+5:0:0:0:0, 8+3:0:0:0:1, 4+2:1:0:0:1, 5+2:0:0:0:1, 4+3:0:0:0:1, 4+4:0:0:0:0, 4+4:3:2:0:3, 4+1:0:0:0:1, 4+4:0:1:0:1, 11+7:0:0:0:1, 11+7:0:0:0:0, 9+8:1:0:0:1, 4+5:0:0:0:0, 7+2:0:0:0:1, 4+3:1:0:0:1, 8+6:0:0:0:0, 4+2:0:0:0:0, 9+4:0:0:0:1, 5+5:0:0:0:0, 5+2:0:0:0:0, 4+3:0:0:0:1, 4+3:0:0:0:0, 3+1:0:0:0:0, 6+2:0:0:0:1, 2+2:0:0:0:0, 7+4:0:0:0:1, 5+6:0:0:0:0, 8+8:0:0:0:0, 4+4:0:0:0:0, 8+4:0:0:0:1, 5+6:1:0:0:1, 5+7:0:1:0:2, 4+1:0:0:0:0, 7+3:0:0:0:2, 5+5:0:0:0:0, 3+1:0:0:0:0, 4+2:0:0:0:1, 4+3:0:0:0:0, 3+1:0:0:0:0, 5+3:0:0:0:1, 2+1:0:0:0:0, 8+6:0:0:0:1, 5+6:0:0:0:0, 5+5:0:0:0:0, 4+3:0:0:0:0, 7+5:0:0:0:3, 6+6:0:0:0:0, 6+6:0:0:0:0, 5+3:0:0:0:0, 9+5:0:0:0:1, 7+5:1:2:0:3, 3+2:0:0:0:2, 4+6:0:0:0:2, 4+3:0:0:0:0, 6+3:1:0:0:1, 8+4:0:0:0:2, 4+3:0:0:0:0, 9+5:0:0:0:1, 5+6:0:0:0:0, 6+5:0:0:0:0, 4+3:0:0:0:0, 8+4:0:0:0:1, 8+5:1:0:0:1, 7+6:0:1:0:1, 6+4:0:0:0:0, 9+5:0:0:0:1, 8+6:0:0:0:0, 4+1:0:0:0:0, 4+4:0:0:0:1, 5+2:0:0:0:0, 2+0:0:0:0:0, 4+1:0:0:0:1, 3+3:0:0:0:0, 7+3:0:0:0:1, 7+6:2:0:0:3, 6+8:0:1:0:1, 5+3:0:0:0:0, 7+8:0:0:0:2, 6+5:2:0:0:2, 6+8:0:1:0:1, 5+2:0:0:0:0, 8+3:0:0:0:1, 5+5:1:1:0:1, 5+5:0:1:0:1, 7+2:0:0:0:1, 4+3:0:0:0:0, 3+5:0:0:0:2, 5+2:0:0:0:1, 6+6:0:1:0:2, 10+8:4:0:0:4, 5+4:1:0:0:2, 5+6:0:0:0:1, 4+1:0:0:0:0, 7+5:0:0:0:1, 5+5:1:0:0:1, 6+5:0:0:0:1, 4+4:0:0:0:0, 7+5:0:0:0:1, 5+5:1:0:0:1, 5+1:0:0:0:0, 6+4:0:0:0:1, 5+3:0:0:0:0, 3+2:2:1:0:1, 7+2:0:0:0:0, 4+2:1:0:0:1, 7+5:1:0:0:2, 5+6:0:0:0:0, 6+4:0:0:0:0, 4+3:0:0:0:0, 7+5:0:0:0:1, 5+5:1:0:0:1, 7+5:0:0:0:0, 6+4:0:0:0:0, 7+5:0:0:0:2, 5+6:0:0:0:0, 5+2:0:1:0:1, 8+5:0:0:0:1, 4+3:0:0:0:0,  , 4+3:0:0:0:1, 2+3:0:0:0:0, 8+8:0:0:0:1, 9+8:2:0:0:2, 6+8:0:1:0:1, 4+1:0:0:0:0, 7+3:0:0:0:2, 4+3:1:0:0:1, 5+7:0:0:0:1, 5+1:0:0:0:0, 8+3:0:0:0:1, 7+6:0:0:0:0, 5+2:0:0:0:0, 6+5:0:0:0:2, 4+3:0:0:0:0, 3+2:0:0:0:0, 5+4:0:0:0:1, 2+0:0:0:0:0, 10+5:3:0:0:3, 5+8:1:0:0:1, 5+9:0:0:0:1, 5+3:0:0:0:0, 10+7:0:0:0:2, 7+5:0:0:0:1, 6+5:0:0:0:0, 6+4:0:0:0:0, 7+3:0:0:0:1, 7+6:1:0:0:1, 3+1:0:0:0:1, 4+2:0:0:0:1, 5+3:0:0:0:0, 4+3:0:1:0:1, 4+3:0:0:0:1, 2+1:0:0:0:0, 10+4:2:0:0:1, 6+0:0:0:0:0, 7+5:0:0:0:0, 6+3:0:0:0:0, 10+6:1:0:0:1, 8+5:1:0:0:1, 10+5:0:0:0:0, 8+5:0:0:0:0, 8+6:0:0:0:0, 6+5:2:0:0:2, 8+5:0:0:0:0, 7+4:0:0:0:0, 8+4:1:0:0:1, 6+3:0:0:0:1, 0+0:0:0:0:0, 1+1:0:0:0:0, 1240+911:74:20:0:185
Eb minor (6b), 1+0:0:0:0:0, 5+3:0:0:0:2, 6+2:1:0:0:1, 7+3:1:0:0:2, 3+1:0:0:0:0, 5+3:0:0:0:2, 6+2:1:0:0:1, 5+4:0:0:0:0, 3+1:0:0:0:1, 5+1:0:0:0:0, 2+0:0:0:0:0, 3+0:0:0:0:0, 4+1:1:0:0:1, 5+3:0:0:0:2, 6+2:1:0:0:1, 7+3:1:0:0:2, 3+1:0:0:0:0, 5+3:0:0:0:2, 6+2:1:0:0:1, 7+3:1:0:0:2, 3+1:0:0:0:0, 5+3:0:0:0:2, 6+2:1:0:0:1, 5+4:0:0:0:0, 3+1:0:0:0:1, 5+1:0:0:0:0, 2+0:0:0:0:0, 3+0:0:0:0:0, 4+1:1:0:0:1, 5+3:0:0:0:2, 6+2:1:0:0:1, 7+3:1:0:0:2, 3+1:0:0:0:0, 6+3:0:0:0:0, 4+1:1:0:0:1, 8+1:0:0:0:0, 4+1:1:0:0:1, 4+1:0:0:0:0, 4+1:1:0:0:1, 9+5:0:0:0:0, 11+6:0:0:0:3, 4+1:0:0:0:0, 6+2:0:0:0:1, 4+1:0:0:0:0, 5+4:0:0:0:2, 5+3:0:0:0:0, 4+1:1:0:0:1, 11+4:0:0:0:0, 9+5:2:0:0:2, 6+3:0:0:0:0, 6+2:1:0:0:1, 8+1:0:0:0:0, 5+1:0:0:0:0, 5+1:0:0:0:0, 5+2:1:0:0:1, 6+2:0:0:0:0, 3+2:0:0:0:2, 3+1:0:0:0:0, 3+1:0:0:0:0, 2+0:0:0:0:0, 7+3:1:0:0:1, 8+4:0:0:0:0, 10+5:1:0:0:1, 11+3:0:0:0:0, 3+0:0:0:0:0, 4+1:0:0:0:0, 4+1:1:0:0:1, 8+4:1:0:0:2, 3+1:0:0:0:0, 6+3:0:0:0:3, 4+1:1:0:0:1, 6+4:0:0:0:0, 4+2:0:0:0:1, 3+0:0:0:0:0, 3+0:0:0:0:0, 4+0:0:0:0:0, 3+1:0:0:0:0, 4+1:0:0:0:0, 4+1:1:0:0:1, 8+3:1:0:0:1, 3+2:0:0:0:0, 6+4:0:0:0:0, 5+1:1:0:0:1, 7+2:0:0:0:1, 3+0:0:0:0:0, 4+2:0:0:0:0, 4+1:1:0:0:1, 4+2:0:0:0:0, 3+1:0:0:0:1, 3+2:0:0:0:0, 3+0:0:0:0:0, 3+0:0:0:0:0, 3+1:0:0:0:0, 6+1:0:0:0:0, 4+2:1:0:0:1, 7+3:0:0:0:0, 3+0:0:0:0:0, 4+3:0:0:0:0, 5+3:3:0:0:3, 8+3:0:0:0:0, 4+0:0:0:0:0, 6+2:0:0:0:0, 8+3:2:0:0:2, 5+4:0:0:0:0, 3+2:0:0:0:0, 3+0:0:0:0:0, 6+2:0:0:0:0, 5+3:0:0:0:0, 6+3:0:0:0:0, 6+2:0:0:0:0, 4+1:1:0:0:1, 8+2:0:0:0:0, 3+0:0:0:0:0, 4+2:0:0:0:0, 6+4:1:0:0:1, 9+3:0:0:0:1, 5+2:0:0:0:0, 6+2:0:0:0:0, 7+3:1:0:0:1, 5+3:0:0:0:0, 3+3:0:0:0:3, 3+2:0:0:0:0, 1+0:0:0:0:0, 2+3:0:0:0:0, 4+2:2:0:0:2, 4+2:0:0:0:2, 7+3:2:0:0:2, 8+2:0:0:0:1, 4+1:0:0:0:0, 4+2:0:0:0:0, 6+2:1:0:0:1, 8+2:0:0:0:1, 4+0:0:0:0:0, 6+4:0:0:0:0, 5+3:1:0:0:1, 8+3:0:0:0:0, 6+4:0:0:0:3, 3+2:0:0:0:0, 2+2:0:0:0:0, 3+2:0:0:0:0, 6+3:1:0:0:1, 10+4:0:0:0:0, 4+2:1:0:0:1, 7+2:0:0:0:0, 3+0:0:0:0:0, 4+1:0:0:0:0, 5+1:1:0:0:1, 8+1:0:0:0:0, 3+0:0:0:0:0, 4+1:0:0:0:0, 5+1:1:0:0:1, 6+2:0:0:0:0, 5+1:0:0:0:0, 4+1:0:0:0:0, 3+1:0:0:0:0, 4+0:0:0:0:0, 4+4:1:1:0:2, 6+2:0:0:0:2, 4+1:1:0:0:1, 8+2:0:0:0:0, 3+0:0:0:0:0, 4+1:0:0:0:0, 5+1:1:0:0:1, 9+4:0:0:0:0, 5+1:0:0:0:0, 4+2:0:0:0:0, 4+1:1:0:0:1, 7+4:0:0:0:1, 7+6:0:0:0:2, 3+2:0:0:0:2,  , 2+3:0:0:0:0, 3+3:1:0:0:1, 5+5:0:0:0:4, 9+3:2:0:0:2, 8+2:0:0:0:1, 3+0:0:0:0:0, 4+2:0:0:0:0, 4+3:1:0:0:1, 7+2:0:0:0:0, 4+0:0:0:0:0, 5+2:0:0:0:0, 6+2:1:0:0:1, 5+3:0:0:0:0, 4+2:0:1:0:1, 3+2:0:0:0:0, 2+0:0:0:0:0, 3+0:0:0:0:0, 3+2:0:0:0:0, 10+3:0:0:0:0, 5+1:1:0:0:1, 7+1:0:0:0:0, 4+0:0:0:0:0, 8+3:0:0:0:0, 5+2:1:0:0:1, 8+2:0:0:0:0, 5+1:0:0:0:0, 4+1:0:0:0:0, 7+2:1:0:0:1, 5+2:0:0:0:1, 3+1:0:0:0:1, 3+3:0:0:0:3, 4+3:0:0:0:0, 2+3:0:0:0:0, 3+2:0:0:0:0, 7+4:2:0:0:2, 5+1:1:0:0:1, 6+2:2:0:0:2, 8+1:0:0:0:0, 10+3:1:0:0:0, 10+3:0:0:0:0, 8+2:2:0:0:2, 10+3:0:0:0:0, 6+2:2:0:0:2, 8+3:0:0:0:0, 6+1:1:0:0:1, 9+2:0:0:0:0, 8+3:1:0:0:0, 8+1:0:0:0:0, 0+0:0:0:0:0, 1+0:0:0:0:0, 1123+423:72:2:0:133
D# minor (6#), 1+0:0:0:0:0, 8+5:0:0:0:1, 5+6:1:0:0:1, 6+7:2:0:0:2, 4+3:0:0:0:0, 8+5:0:0:0:1, 5+6:1:0:0:1, 4+6:2:0:0:2, 4+2:0:0:0:1, 5+4:0:0:0:0, 2+1:0:0:0:0, 5+4:0:0:0:1, 3+2:0:0:0:0, 8+5:0:0:0:1, 5+6:1:0:0:1, 6+7:2:0:0:2, 4+3:0:0:0:0, 8+5:0:0:0:1, 5+6:1:0:0:1, 6+7:2:0:0:2, 4+3:0:0:0:0, 8+5:0:0:0:1, 5+6:1:0:0:1, 4+5:2:0:0:2, 4+2:0:0:0:1, 5+4:0:0:0:0, 2+1:0:0:0:0, 5+4:0:0:0:1, 3+2:0:0:0:0, 8+5:0:0:0:1, 5+6:1:0:0:1, 6+7:2:0:0:2, 4+2:0:0:0:0, 8+6:0:0:0:1, 4+5:2:0:0:2, 6+6:0:0:0:0, 4+1:1:0:0:1, 7+3:0:0:0:1, 4+6:2:0:0:2, 7+3:1:0:0:1, 12+8:0:0:0:3, 4+2:1:0:0:0, 4+4:0:0:0:1, 6+3:0:0:0:1, 6+4:0:0:0:1, 8+8:0:0:0:1, 6+3:1:0:0:1, 10+6:0:0:0:0, 9+4:1:0:0:1, 9+6:0:0:0:1, 6+2:1:0:0:0, 6+2:0:0:0:0, 6+5:0:0:0:0, 8+3:0:0:0:1, 4+2:1:0:0:1, 5+2:0:0:0:0, 4+3:0:0:0:1, 4+4:0:0:0:0, 4+4:3:2:0:3, 4+1:0:0:0:1, 4+4:0:1:0:1, 11+7:0:0:0:1, 11+7:0:0:0:0, 9+8:1:0:0:1, 4+5:0:0:0:0, 7+2:0:0:0:1, 4+3:1:0:0:1, 8+6:0:0:0:0, 4+2:0:0:0:0, 9+4:0:0:0:1, 5+5:0:0:0:0, 5+3:0:0:0:0, 4+3:0:0:0:1, 4+3:0:0:0:0, 3+1:0:0:0:0, 6+2:0:0:0:1, 2+1:0:0:0:0, 7+4:0:0:0:1, 5+6:0:0:0:0, 8+8:0:0:0:0, 4+4:0:0:0:0, 8+4:0:0:0:1, 5+6:1:0:0:1, 5+6:0:1:0:1, 4+2:0:0:0:0, 7+3:0:0:0:2, 5+5:0:0:0:0, 3+1:0:0:0:0, 4+2:0:0:0:1, 4+3:0:0:0:0, 3+1:0:0:0:0, 5+3:0:0:0:1, 2+0:0:0:0:0, 8+6:0:0:0:1, 5+6:0:0:0:0, 5+5:0:0:0:0, 4+3:0:0:0:0, 7+5:0:0:0:3, 6+6:0:0:0:0, 6+6:0:0:0:0, 5+3:0:0:0:0, 9+5:0:0:0:1, 7+5:1:2:0:3, 3+2:0:0:0:0, 4+6:0:0:0:2, 4+3:0:0:0:0, 6+3:1:0:0:1, 8+4:0:0:0:2, 4+3:0:0:0:0, 9+5:0:0:0:1, 5+6:0:0:0:0, 6+5:0:0:0:0, 4+3:0:0:0:0, 8+4:0:0:0:1, 6+2:0:0:0:2, 8+4:0:0:0:1, 6+3:0:0:0:0, 9+5:0:0:0:1, 8+6:0:0:0:0, 4+3:0:0:0:0, 4+4:0:0:0:1, 5+2:0:0:0:0, 2+0:0:0:0:0, 4+1:0:0:0:1, 3+3:0:0:0:0, 7+3:0:0:0:1, 7+6:2:0:0:3, 6+5:0:1:0:1, 5+2:0:0:0:0, 7+8:0:0:0:2, 6+1:0:0:0:1, 7+3:0:0:0:1, 5+2:0:0:0:0, 8+3:0:0:0:1, 5+5:1:1:0:1, 5+5:0:1:0:1, 7+2:0:0:0:1, 4+3:0:0:0:0, 3+5:0:0:0:2, 5+2:0:0:0:1, 6+5:0:1:0:1, 10+8:4:0:0:4, 5+5:0:0:0:0, 5+5:0:0:0:0, 4+3:0:0:0:0, 7+5:0:0:0:1, 5+5:1:0:0:1, 6+3:0:0:0:0, 4+5:0:0:0:0, 7+5:0:0:0:1, 5+5:1:0:0:1, 5+1:0:0:0:0, 6+4:0:0:0:1, 5+3:0:0:0:0, 3+2:2:1:0:1, 7+2:0:0:0:0, 4+2:1:0:0:1, 7+5:1:0:0:2, 5+6:0:0:0:0, 6+4:0:0:0:0, 4+3:0:0:0:0, 7+5:0:0:0:1, 5+5:1:0:0:1, 7+5:0:0:0:0, 6+4:0:0:0:0, 7+5:0:0:0:2, 5+6:0:0:0:0, 5+5:0:1:0:1, 8+5:0:0:0:1, 4+3:0:0:0:0,  , 4+3:0:0:0:1, 2+0:0:0:0:0, 8+3:0:0:0:1, 9+8:2:0:0:2, 6+5:0:1:0:1, 4+2:0:0:0:0, 7+3:0:0:0:2, 4+3:1:0:0:1, 5+4:0:0:0:0, 5+3:0:0:0:0, 8+3:0:0:0:1, 7+6:0:0:0:0, 5+2:0:0:0:0, 6+5:0:0:0:2, 4+3:0:0:0:0, 3+2:0:0:0:0, 5+4:0:0:0:1, 2+0:0:0:0:0, 10+5:3:0:0:3, 5+8:1:0:0:1, 5+3:0:0:0:0, 5+4:0:0:0:0, 10+5:0:0:0:1, 7+5:0:0:0:1, 6+5:0:0:0:0, 6+4:0:0:0:0, 7+3:0:0:0:1, 7+6:1:0:0:1, 3+3:0:1:0:1, 4+2:0:0:0:1, 5+3:0:0:0:0, 4+3:0:1:0:1, 4+3:0:0:0:1, 2+2:0:0:0:0, 10+4:2:0:0:1, 6+0:0:0:0:0, 7+5:0:0:0:0, 6+3:0:0:0:0, 10+6:1:0:0:1, 8+5:1:0:0:1, 10+5:0:0:0:0, 8+5:0:0:0:0, 8+6:0:0:0:0, 6+5:2:0:0:2, 8+5:0:0:0:0, 7+4:0:0:0:0, 8+4:1:0:0:1, 6+3:0:0:0:1, 0+0:0:0:0:0, 1+1:0:0:0:0, 1241+867:66:15:0:157
Cb major (7b), 1+0:0:0:0:0, 6+1:0:0:0:0, 6+2:1:0:0:1, 7+4:0:0:0:0, 3+0:0:0:0:0, 6+1:0:0:0:0, 6+2:1:0:0:1, 5+4:0:0:0:0, 4+1:0:0:0:0, 5+1:0:0:0:0, 2+0:0:0:0:0, 4+0:0:0:0:0, 4+1:0:0:0:0, 6+1:0:0:0:0, 6+2:1:0:0:1, 7+4:0:0:0:0, 3+0:0:0:0:0, 6+1:0:0:0:0, 6+2:1:0:0:1, 7+4:0:0:0:0, 3+0:0:0:0:0, 6+1:0:0:0:0, 6+2:1:0:0:1, 5+4:0:0:0:0, 4+1:0:0:0:0, 5+1:0:0:0:0, 2+0:0:0:0:0, 4+0:0:0:0:0, 4+1:0:0:0:0, 6+1:0:0:0:0, 6+2:1:0:0:1, 7+4:0:0:0:0, 3+0:0:0:0:0, 7+1:0:0:0:0, 4+1:1:0:0:1, 8+1:0:0:0:0, 4+1:1:0:0:1, 5+1:0:0:0:0, 4+1:1:0:0:1, 9+5:0:0:0:0, 12+6:0:0:0:3, 4+1:0:0:0:0, 7+2:0:0:0:0, 5+1:0:0:0:0, 5+4:0:0:0:2, 6+3:0:0:0:0, 4+1:1:0:0:1, 11+4:0:0:0:0, 9+5:3:0:0:3, 7+3:0:0:0:0, 7+2:1:0:0:1, 8+1:0:0:0:0, 5+1:0:0:0:0, 6+1:0:0:0:0, 5+1:1:0:0:0, 6+1:0:0:0:0, 4+1:0:0:0:0, 3+0:0:0:0:0, 4+1:0:0:0:0, 3+0:0:0:0:0, 7+3:1:0:0:1, 9+4:0:0:0:0, 11+5:1:0:0:1, 11+3:0:0:0:0, 3+0:0:0:0:0, 5+1:0:0:0:0, 4+1:1:0:0:1, 8+2:0:0:0:0, 3+0:0:0:0:0, 7+2:0:0:0:0, 5+1:1:0:0:1, 6+4:0:0:0:0, 5+2:0:0:0:1, 3+0:0:0:0:0, 3+0:0:0:0:0, 5+1:0:0:0:0, 3+1:0:0:0:0, 5+1:0:0:0:0, 5+1:1:0:0:1, 8+3:1:0:0:1, 3+0:0:0:0:0, 7+1:0:0:0:0, 5+1:1:0:0:1, 7+2:0:0:0:1, 3+0:0:0:0:0, 5+2:0:0:0:0, 5+1:1:0:0:1, 4+2:0:0:0:0, 4+1:0:0:0:0, 3+0:0:0:0:0, 3+0:0:0:0:0, 4+2:0:0:0:0, 3+1:0:0:0:0, 7+1:0:0:0:0, 5+2:1:0:0:1, 7+3:0:0:0:0, 3+0:0:0:0:0, 5+3:0:0:0:0, 6+3:3:0:0:3, 8+3:0:0:0:0, 4+0:0:0:0:0, 7+2:0:0:0:0, 8+3:2:0:0:2, 5+4:0:0:0:0, 4+2:0:0:0:0, 3+0:0:0:0:0, 6+2:0:0:0:0, 6+3:0:0:0:0, 6+3:0:0:0:0, 7+2:0:0:0:0, 5+1:1:0:0:1, 8+2:0:0:0:0, 3+0:0:0:0:0, 5+2:0:0:0:0, 6+4:1:0:0:1, 9+3:0:0:0:1, 5+2:0:0:0:0, 7+2:0:0:0:0, 8+3:1:0:0:1, 5+3:0:0:0:0, 4+1:0:0:0:0, 4+0:0:0:0:0, 1+0:0:0:0:0, 3+1:0:0:0:0, 4+2:0:0:0:0, 5+1:0:0:0:0, 8+3:2:0:0:2, 8+2:0:0:0:1, 4+1:0:0:0:0, 5+2:0:0:0:0, 6+2:1:0:0:1, 8+2:0:0:0:1, 4+0:0:0:0:0, 7+1:0:0:0:0, 6+3:1:0:0:1, 8+3:0:0:0:0, 7+1:0:0:0:0, 3+0:0:0:0:0, 2+0:0:0:0:0, 4+2:0:0:0:0, 6+3:1:0:0:1, 10+4:1:0:0:1, 5+2:1:0:0:1, 7+2:0:0:0:0, 3+0:0:0:0:0, 5+1:0:0:0:0, 5+1:1:0:0:1, 8+1:0:0:0:0, 3+0:0:0:0:0, 5+1:0:0:0:0, 5+1:1:0:0:1, 6+2:0:0:0:0, 6+1:0:0:0:0, 4+1:0:0:0:0, 4+1:0:0:0:0, 5+0:0:0:0:0, 5+4:1:0:0:1, 6+2:1:0:0:1, 5+1:1:0:0:1, 8+2:0:0:0:0, 3+0:0:0:0:0, 5+1:0:0:0:0, 5+1:1:0:0:1, 9+4:0:0:0:0, 5+1:0:0:0:0, 5+2:0:0:0:0, 5+1:1:0:0:1, 7+4:0:0:0:1, 8+3:0:0:0:0, 3+0:0:0:0:0,  , 3+0:0:0:0:0, 3+3:1:0:0:1, 6+1:0:0:0:0, 9+3:2:0:0:2, 8+2:0:0:0:1, 3+0:0:0:0:0, 5+2:0:0:0:0, 4+3:1:0:0:1, 7+2:0:0:0:0, 4+0:0:0:0:0, 6+2:0:0:0:0, 7+2:1:0:0:1, 5+3:0:0:0:0, 5+1:1:0:0:1, 3+0:0:0:0:0, 3+0:0:0:0:0, 4+2:0:0:0:0, 3+2:0:0:0:0, 10+3:1:0:0:1, 5+1:1:0:0:1, 7+1:0:0:0:0, 4+0:0:0:0:0, 9+2:0:0:0:0, 6+2:1:0:0:1, 8+2:0:0:0:0, 5+1:0:0:0:0, 5+1:0:0:0:0, 7+2:1:0:0:1, 5+2:0:0:0:1, 4+1:0:0:0:1, 3+3:0:0:0:3, 5+3:0:0:0:0, 3+0:0:0:0:0, 3+2:0:0:0:0, 8+4:2:0:0:2, 6+1:1:0:0:1, 6+2:2:0:0:2, 8+1:0:0:0:0, 10+3:2:0:0:2, 10+3:0:0:0:0, 9+2:2:0:0:2, 10+3:0:0:0:0, 7+2:2:0:0:2, 8+3:0:0:0:0, 7+1:1:0:0:1, 9+2:0:0:0:0, 8+2:2:0:0:2, 8+1:0:0:0:0, 1+0:0:0:0:0, 0+0:0:0:0:0, 1212+362:70:0:0:86
C# major (7#), 1+0:0:0:0:0, 8+5:0:0:0:1, 5+6:1:0:0:1, 7+7:2:0:0:2, 4+3:0:0:0:0, 8+5:0:0:0:1, 5+6:1:0:0:1, 5+6:2:0:0:2, 5+2:0:0:0:1, 5+4:0:0:0:0, 2+1:0:0:0:0, 5+4:0:0:0:1, 3+0:0:0:0:0, 8+5:0:0:0:1, 5+6:1:0:0:1, 7+7:2:0:0:2, 4+3:0:0:0:0, 8+5:0:0:0:1, 5+6:1:0:0:1, 7+7:2:0:0:2, 4+3:0:0:0:0, 8+5:0:0:0:1, 5+6:1:0:0:1, 5+5:2:0:0:2, 5+2:0:0:0:1, 5+4:0:0:0:0, 2+1:0:0:0:0, 5+4:0:0:0:1, 3+0:0:0:0:0, 8+5:0:0:0:1, 5+6:1:0:0:1, 7+7:2:0:0:2, 4+2:0:0:0:0, 8+6:0:0:0:1, 4+5:2:0:0:2, 7+6:0:0:0:0, 4+1:1:0:0:1, 7+3:0:0:0:1, 4+6:2:0:0:2, 8+3:1:0:0:1, 13+8:0:0:0:3, 4+1:1:0:0:1, 4+2:0:1:0:1, 6+3:0:0:0:1, 5+3:1:2:0:3, 8+8:0:0:0:1, 6+3:1:0:0:1, 11+6:0:0:0:0, 9+4:1:0:0:1, 9+6:0:0:0:1, 6+7:2:0:0:3, 7+7:0:0:0:0, 6+3:0:0:0:0, 8+3:0:0:0:1, 4+2:1:0:0:1, 5+2:0:0:0:0, 5+3:0:0:0:1, 4+4:0:0:0:0, 4+4:3:2:0:3, 4+1:0:0:0:1, 4+4:0:1:0:1, 11+7:0:0:0:1, 11+7:0:0:0:0, 10+8:1:0:0:1, 4+5:0:0:0:0, 7+2:0:0:0:1, 4+3:1:0:0:1, 9+6:0:0:0:0, 4+2:0:0:0:0, 9+4:0:0:0:1, 5+5:0:0:0:0, 5+3:0:0:0:0, 5+3:0:0:0:1, 4+3:0:0:0:0, 3+0:0:0:0:0, 6+2:0:0:0:1, 2+0:0:0:0:0, 7+4:0:0:0:1, 5+6:0:0:0:0, 8+8:1:0:0:1, 4+4:0:0:0:0, 8+4:0:0:0:1, 5+6:1:0:0:1, 6+6:0:1:0:1, 4+2:0:0:0:0, 7+3:0:0:0:2, 5+5:0:0:0:0, 3+1:0:0:0:0, 5+2:0:0:0:1, 4+3:0:0:0:0, 3+0:0:0:0:0, 5+3:0:0:0:1, 2+0:0:0:0:0, 8+6:0:0:0:1, 5+6:0:0:0:0, 6+5:0:0:0:0, 4+3:0:0:0:0, 7+5:0:0:0:3, 6+6:0:0:0:0, 7+6:0:0:0:0, 5+3:0:0:0:0, 9+5:0:0:0:1, 7+5:1:2:0:3, 4+2:0:0:0:0, 5+6:0:0:0:2, 4+3:0:0:0:0, 7+3:1:0:0:1, 8+4:0:0:0:2, 4+1:0:0:0:0, 9+5:0:0:0:1, 5+6:0:0:0:0, 7+5:0:0:0:0, 4+3:0:0:0:0, 8+4:0:0:0:1, 8+5:1:0:0:1, 8+6:0:1:0:1, 6+4:0:0:0:0, 9+5:0:0:0:1, 8+6:0:0:0:0, 4+3:0:0:0:0, 5+4:0:0:0:1, 5+2:0:0:0:0, 2+0:0:0:0:0, 4+1:0:0:0:1, 3+0:0:0:0:0, 7+3:0:0:0:1, 7+6:2:0:0:3, 7+5:0:1:0:1, 5+2:0:0:0:0, 7+8:0:0:0:2, 6+5:2:0:0:2, 7+5:0:1:0:1, 5+4:0:0:0:0, 8+5:0:0:0:1, 5+5:1:1:0:1, 6+5:0:1:0:1, 8+2:0:0:0:1, 4+3:0:0:0:0, 3+5:0:0:0:2, 5+2:0:0:0:1, 6+5:0:1:0:1, 10+8:4:0:0:4, 5+5:0:0:0:0, 6+5:0:0:0:0, 4+3:0:0:0:0, 7+5:0:0:0:1, 5+5:1:0:0:1, 7+3:0:0:0:0, 4+5:0:0:0:0, 7+5:0:0:0:1, 5+5:1:0:0:1, 5+1:0:0:0:0, 7+4:0:0:0:1, 5+3:0:0:0:0, 3+2:2:1:0:1, 7+2:0:0:0:0, 4+2:1:0:0:1, 7+5:1:0:0:2, 5+6:0:0:0:0, 7+4:0:0:0:0, 4+3:0:0:0:0, 7+5:0:0:0:1, 5+5:1:0:0:1, 8+5:0:0:0:0, 6+4:0:0:0:0, 7+5:0:0:0:2, 5+6:0:0:0:0, 5+5:0:1:0:1, 9+5:0:0:0:1, 4+3:0:0:0:0,  , 4+3:0:0:0:1, 2+3:0:0:0:0, 8+8:0:0:0:1, 9+8:2:0:0:2, 7+5:0:1:0:1, 4+2:0:0:0:0, 7+3:0:0:0:2, 4+3:1:0:0:1, 6+4:0:0:0:0, 5+3:0:0:0:0, 8+3:0:0:0:1, 7+6:0:0:0:0, 6+2:0:0:0:0, 7+5:0:0:0:2, 4+3:0:0:0:0, 3+2:0:0:0:0, 5+4:0:0:0:1, 2+0:0:0:0:0, 10+5:3:0:0:3, 5+8:1:0:0:1, 6+3:0:0:0:0, 5+4:0:0:0:0, 10+5:0:0:0:1, 7+5:0:0:0:1, 7+5:0:0:0:0, 6+4:0:0:0:0, 7+3:0:0:0:1, 7+6:1:0:0:1, 3+3:0:1:0:1, 5+2:0:0:0:1, 5+3:0:0:0:0, 3+3:0:2:0:2, 4+3:0:0:0:1, 2+0:0:0:0:0, 10+4:2:0:0:1, 6+0:0:0:0:0, 7+5:0:0:0:0, 7+3:0:0:0:0, 10+6:1:0:0:1, 9+5:1:0:0:1, 10+5:0:0:0:0, 9+5:0:0:0:0, 8+6:0:0:0:0, 7+5:2:0:0:2, 8+5:0:0:0:0, 8+4:0:0:0:0, 8+4:1:0:0:1, 7+3:0:0:0:0, 0+0:0:0:0:0, 1+0:0:0:0:0, 1289+880:72:21:0:164
Ab minor (7b), 1+0:0:0:0:0, 6+3:0:0:0:2, 6+2:1:0:0:1, 7+4:0:0:0:0, 3+0:0:0:0:0, 6+1:0:0:0:0, 6+2:1:0:0:1, 5+4:0:0:0:0, 4+1:0:0:0:0, 5+1:0:0:0:0, 2+0:0:0:0:0, 4+0:0:0:0:0, 4+1:0:0:0:0, 6+1:0:0:0:0, 6+2:1:0:0:1, 7+4:0:0:0:0, 3+0:0:0:0:0, 6+1:0:0:0:0, 6+2:1:0:0:1, 7+4:0:0:0:0, 3+0:0:0:0:0, 6+1:0:0:0:0, 6+2:1:0:0:1, 5+4:0:0:0:0, 4+1:0:0:0:0, 5+1:0:0:0:0, 2+0:0:0:0:0, 4+0:0:0:0:0, 4+1:0:0:0:0, 6+1:0:0:0:0, 6+2:1:0:0:1, 7+4:0:0:0:0, 3+0:0:0:0:0, 7+1:0:0:0:0, 4+1:1:0:0:1, 8+1:0:0:0:0, 4+1:1:0:0:1, 5+1:0:0:0:0, 4+1:1:0:0:1, 9+5:0:0:0:0, 12+6:0:0:0:3, 4+1:0:0:0:0, 7+2:0:0:0:0, 5+1:0:0:0:0, 5+4:0:0:0:2, 6+3:0:0:0:0, 4+1:1:0:0:1, 11+4:0:0:0:0, 9+5:3:0:0:3, 7+3:0:0:0:0, 7+2:1:0:0:1, 8+1:0:0:0:0, 5+1:0:0:0:0, 6+1:0:0:0:0, 5+1:1:0:0:0, 6+1:0:0:0:0, 4+1:0:0:0:0, 3+0:0:0:0:0, 4+1:0:0:0:0, 3+0:0:0:0:0, 7+3:1:0:0:1, 9+4:0:0:0:0, 11+5:1:0:0:1, 11+3:0:0:0:0, 3+0:0:0:0:0, 5+1:0:0:0:0, 4+1:1:0:0:1, 8+2:0:0:0:0, 3+0:0:0:0:0, 7+2:0:0:0:0, 5+1:1:0:0:1, 6+4:0:0:0:0, 5+2:0:0:0:1, 3+0:0:0:0:0, 3+0:0:0:0:0, 5+1:0:0:0:0, 3+1:0:0:0:0, 5+1:0:0:0:0, 5+1:1:0:0:1, 8+3:1:0:0:1, 3+0:0:0:0:0, 7+1:0:0:0:0, 5+1:1:0:0:1, 7+2:0:0:0:1, 3+0:0:0:0:0, 5+2:0:0:0:0, 5+1:1:0:0:1, 4+2:0:0:0:0, 4+1:0:0:0:0, 3+0:0:0:0:0, 3+0:0:0:0:0, 4+2:0:0:0:0, 3+1:0:0:0:0, 7+1:0:0:0:0, 5+2:1:0:0:1, 7+3:0:0:0:0, 3+0:0:0:0:0, 5+3:0:0:0:0, 6+3:3:0:0:3, 8+3:0:0:0:0, 4+0:0:0:0:0, 7+2:0:0:0:0, 8+3:2:0:0:2, 5+4:0:0:0:0, 4+2:0:0:0:0, 3+0:0:0:0:0, 6+2:0:0:0:0, 6+3:0:0:0:0, 6+3:0:0:0:0, 7+2:0:0:0:0, 5+1:1:0:0:1, 8+2:0:0:0:0, 3+0:0:0:0:0, 5+2:0:0:0:0, 6+4:1:0:0:1, 9+3:0:0:0:1, 5+2:0:0:0:0, 7+2:0:0:0:0, 8+3:1:0:0:1, 5+3:0:0:0:0, 4+1:0:0:0:0, 4+0:0:0:0:0, 1+0:0:0:0:0, 3+3:0:0:0:0, 4+2:0:0:0:0, 5+1:0:0:0:0, 8+3:2:0:0:2, 8+2:0:0:0:1, 4+1:0:0:0:0, 5+2:0:0:0:0, 6+2:1:0:0:1, 8+2:0:0:0:1, 4+0:0:0:0:0, 7+1:0:0:0:0, 6+3:1:0:0:1, 8+3:0:0:0:0, 7+1:0:0:0:0, 3+0:0:0:0:0, 2+0:0:0:0:0, 4+2:0:0:0:0, 6+3:1:0:0:1, 10+4:1:0:0:1, 5+2:1:0:0:1, 7+2:0:0:0:0, 3+0:0:0:0:0, 5+1:0:0:0:0, 5+1:1:0:0:1, 8+1:0:0:0:0, 3+0:0:0:0:0, 5+1:0:0:0:0, 5+1:1:0:0:1, 6+2:0:0:0:0, 6+1:0:0:0:0, 4+1:0:0:0:0, 4+1:0:0:0:0, 5+0:0:0:0:0, 5+4:1:0:0:1, 6+2:1:0:0:1, 5+1:1:0:0:1, 8+2:0:0:0:0, 3+0:0:0:0:0, 5+1:0:0:0:0, 5+1:1:0:0:1, 9+4:0:0:0:0, 5+1:0:0:0:0, 5+2:0:0:0:0, 5+1:1:0:0:1, 7+4:0:0:0:1, 8+6:0:0:0:2, 3+2:0:0:0:2,  , 3+3:0:0:0:0, 3+3:1:0:0:1, 6+1:0:0:0:0, 9+3:2:0:0:2, 8+2:0:0:0:1, 3+0:0:0:0:0, 5+2:0:0:0:0, 4+3:1:0:0:1, 7+2:0:0:0:0, 4+0:0:0:0:0, 6+2:0:0:0:0, 7+2:1:0:0:1, 5+3:0:0:0:0, 5+2:0:1:0:1, 3+0:0:0:0:0, 3+0:0:0:0:0, 4+2:0:0:0:0, 3+2:0:0:0:0, 10+3:1:0:0:1, 5+1:1:0:0:1, 7+1:0:0:0:0, 4+0:0:0:0:0, 9+2:0:0:0:0, 6+2:1:0:0:1, 8+2:0:0:0:0, 5+1:0:0:0:0, 5+1:0:0:0:0, 7+2:1:0:0:1, 5+2:0:0:0:1, 4+1:0:0:0:1, 3+3:0:0:0:3, 5+3:0:0:0:0, 3+3:0:0:0:0, 3+2:0:0:0:0, 8+4:2:0:0:2, 6+1:1:0:0:1, 6+2:2:0:0:2, 8+1:0:0:0:0, 10+3:2:0:0:2, 10+3:0:0:0:0, 9+2:2:0:0:2, 10+3:0:0:0:0, 7+2:2:0:0:2, 8+3:0:0:0:0, 7+1:1:0:0:1, 9+2:0:0:0:0, 8+2:2:0:0:2, 8+1:0:0:0:0, 1+0:0:0:0:0, 0+0:0:0:0:0, 1212+378:69:1:0:92
A# minor (7#), 1+0:0:0:0:0, 8+5:0:0:0:1, 5+6:1:0:0:1, 7+7:2:0:0:2, 4+3:0:0:0:0, 8+5:0:0:0:1, 5+6:1:0:0:1, 5+6:2:0:0:2, 5+2:0:0:0:1, 5+4:0:0:0:0, 2+1:0:0:0:0, 5+4:0:0:0:1, 3+0:0:0:0:0, 8+5:0:0:0:1, 5+6:1:0:0:1, 7+7:2:0:0:2, 4+3:0:0:0:0, 8+5:0:0:0:1, 5+6:1:0:0:1, 7+7:2:0:0:2, 4+3:0:0:0:0, 8+5:0:0:0:1, 5+6:1:0:0:1, 5+5:2:0:0:2, 5+2:0:0:0:1, 5+4:0:0:0:0, 2+1:0:0:0:0, 5+4:0:0:0:1, 3+0:0:0:0:0, 8+5:0:0:0:1, 5+6:1:0:0:1, 7+7:2:0:0:2, 4+2:0:0:0:0, 8+6:0:0:0:1, 4+5:2:0:0:2, 7+6:0:0:0:0, 4+1:1:0:0:1, 7+3:0:0:0:1, 4+6:2:0:0:2, 8+3:1:0:0:1, 13+8:0:0:0:3, 4+1:1:0:0:1, 4+2:0:1:0:1, 6+3:0:0:0:1, 5+3:1:2:0:3, 8+8:0:0:0:1, 6+3:1:0:0:1, 11+6:0:0:0:0, 9+4:1:0:0:1, 9+6:0:0:0:1, 6+7:2:0:0:3, 7+7:0:0:0:0, 6+3:0:0:0:0, 8+3:0:0:0:1, 4+2:1:0:0:1, 5+2:0:0:0:0, 5+3:0:0:0:1, 4+4:0:0:0:0, 4+4:3:2:0:3, 4+1:0:0:0:1, 4+4:0:1:0:1, 11+7:0:0:0:1, 11+7:0:0:0:0, 10+8:1:0:0:1, 4+5:0:0:0:0, 7+2:0:0:0:1, 4+3:1:0:0:1, 9+6:0:0:0:0, 4+2:0:0:0:0, 9+4:0:0:0:1, 5+5:0:0:0:0, 5+3:0:0:0:0, 5+3:0:0:0:1, 4+3:0:0:0:0, 3+0:0:0:0:0, 6+2:0:0:0:1, 2+0:0:0:0:0, 7+4:0:0:0:1, 5+6:0:0:0:0, 8+8:1:0:0:1, 4+4:0:0:0:0, 8+4:0:0:0:1, 5+6:1:0:0:1, 6+6:0:1:0:1, 4+2:0:0:0:0, 7+3:0:0:0:2, 5+5:0:0:0:0, 3+1:0:0:0:0, 5+2:0:0:0:1, 4+3:0:0:0:0, 3+0:0:0:0:0, 5+3:0:0:0:1, 2+0:0:0:0:0, 8+6:0:0:0:1, 5+6:0:0:0:0, 6+5:0:0:0:0, 4+3:0:0:0:0, 7+5:0:0:0:3, 6+6:0:0:0:0, 7+6:0:0:0:0, 5+3:0:0:0:0, 9+5:0:0:0:1, 7+5:1:2:0:3, 4+2:0:0:0:0, 5+6:0:0:0:2, 4+3:0:0:0:0, 7+3:1:0:0:1, 8+4:0:0:0:2, 4+1:0:0:0:0, 9+5:0:0:0:1, 5+6:0:0:0:0, 7+5:0:0:0:0, 4+3:0:0:0:0, 8+4:0:0:0:1, 8+5:1:0:0:1, 8+6:0:1:0:1, 6+4:0:0:0:0, 9+5:0:0:0:1, 8+6:0:0:0:0, 4+3:0:0:0:0, 5+4:0:0:0:1, 5+2:0:0:0:0, 2+0:0:0:0:0, 4+1:0:0:0:1, 3+0:0:0:0:0, 7+3:0:0:0:1, 7+6:2:0:0:3, 7+5:0:1:0:1, 5+2:0:0:0:0, 7+8:0:0:0:2, 6+5:2:0:0:2, 7+5:0:1:0:1, 5+4:0:0:0:0, 8+5:0:0:0:1, 5+5:1:1:0:1, 6+5:0:1:0:1, 8+2:0:0:0:1, 4+3:0:0:0:0, 3+5:0:0:0:2, 5+2:0:0:0:1, 6+5:0:1:0:1, 10+8:4:0:0:4, 5+5:0:0:0:0, 6+5:0:0:0:0, 4+3:0:0:0:0, 7+5:0:0:0:1, 5+5:1:0:0:1, 7+3:0:0:0:0, 4+5:0:0:0:0, 7+5:0:0:0:1, 5+5:1:0:0:1, 5+1:0:0:0:0, 7+4:0:0:0:1, 5+3:0:0:0:0, 3+2:2:1:0:1, 7+2:0:0:0:0, 4+2:1:0:0:1, 7+5:1:0:0:2, 5+6:0:0:0:0, 7+4:0:0:0:0, 4+3:0:0:0:0, 7+5:0:0:0:1, 5+5:1:0:0:1, 8+5:0:0:0:0, 6+4:0:0:0:0, 7+5:0:0:0:2, 5+6:0:0:0:0, 5+5:0:1:0:1, 9+5:0:0:0:1, 4+3:0:0:0:0,  , 4+3:0:0:0:1, 2+0:0:0:0:0, 8+3:0:0:0:1, 9+8:2:0:0:2, 7+5:0:1:0:1, 4+2:0:0:0:0, 7+3:0:0:0:2, 4+3:1:0:0:1, 6+4:0:0:0:0, 5+3:0:0:0:0, 8+3:0:0:0:1, 7+6:0:0:0:0, 6+2:0:0:0:0, 7+5:0:0:0:2, 4+3:0:0:0:0, 3+2:0:0:0:0, 5+4:0:0:0:1, 2+0:0:0:0:0, 10+5:3:0:0:3, 5+8:1:0:0:1, 6+3:0:0:0:0, 5+4:0:0:0:0, 10+5:0:0:0:1, 7+5:0:0:0:1, 7+5:0:0:0:0, 6+4:0:0:0:0, 7+3:0:0:0:1, 7+6:1:0:0:1, 3+3:0:1:0:1, 5+2:0:0:0:1, 5+3:0:0:0:0, 3+3:0:2:0:2, 4+3:0:0:0:1, 2+0:0:0:0:0, 10+4:2:0:0:1, 6+0:0:0:0:0, 7+5:0:0:0:0, 7+3:0:0:0:0, 10+6:1:0:0:1, 9+5:1:0:0:1, 10+5:0:0:0:0, 9+5:0:0:0:0, 8+6:0:0:0:0, 7+5:2:0:0:2, 8+5:0:0:0:0, 8+4:0:0:0:0, 8+4:1:0:0:1, 7+3:0:0:0:0, 0+0:0:0:0:0, 1+0:0:0:0:0, 1289+872:72:21:0:164
