 , 0, 1, 2, 3, 4, 5, 6, 7, 8, 9, 10, 11, 12, 13, 14, 15, 16, 17, 18, 19, 20, 21, rowcost
C major (0), 0, 2, 1, 2, 4, 3, 1,  , 2, 2, 1, 4, 2, 3, 3, 2, 4, 1, 2, 1, 1, 1, 42
A minor (0), 0, 2, 4, 1, 4, 2, 1,  , 1, 2, 1, 5, 3, 4, 3, 3, 2, 2, 2, 0, 0, 0, 42
A minor mel (0), 1, 2, 5, 1, 3, 2, 1,  , 0, 2, 1, 6, 4, 4, 3, 3, 2, 2, 2, 0, 0, 0, 44
C major blues (0), 1, 2, 2, 2, 4, 3, 1,  , 3, 2, 1, 5, 3, 3, 3, 2, 4, 2, 3, 1, 1, 1, 49
A minor blues (0), 1, 2, 5, 2, 4, 3, 1,  , 3, 2, 1, 6, 4, 4, 3, 3, 3, 3, 3, 1, 1, 1, 56
C dorian (0), 1, 2, 2, 2, 3, 3, 1,  , 1, 2, 1, 5, 3, 3, 3, 2, 4, 1, 2, 1, 1, 1, 44
C phrygian (0), 0, 1, 1, 1, 4, 3, 1,  , 2, 2, 1, 4, 2, 2, 2, 1, 4, 1, 3, 1, 1, 1, 38
C lydian (0), 1, 2, 2, 2, 3, 3, 1,  , 1, 2, 1, 5, 3, 3, 3, 2, 4, 1, 2, 1, 1, 1, 44
C mixolydian (0), 0, 1, 1, 1, 4, 3, 1,  , 2, 2, 1, 4, 2, 2, 2, 1, 4, 1, 3, 1, 1, 1, 38
C aeolian (0), 0, 2, 1, 2, 4, 3, 1,  , 2, 2, 1, 4, 2, 3, 3, 2, 4, 1, 2, 1, 1, 1, 42
C locrian (0), 0, 0, 0, 1, 3, 2, 1,  , 3, 1, 0, 3, 1, 1, 2, 1, 3, 2, 3, 1, 1, 1, 30
F major (1b), 0, 1, 1, 1, 3, 3, 1,  , 2, 2, 1, 3, 2, 2, 2, 1, 4, 1, 3, 1, 1, 1, 36
G major (1#), 1, 2, 2, 2, 3, 3, 1,  , 1, 2, 1, 6, 4, 4, 3, 3, 3, 1, 2, 1, 1, 1, 47
D minor (1b), 0, 2, 2, 2, 3, 2, 0,  , 2, 1, 1, 4, 4, 4, 3, 1, 4, 2, 4, 1, 1, 1, 44
E minor (1#), 1, 5, 4, 5, 2, 2, 1,  , 1, 1, 0, 5, 3, 3, 2, 3, 3, 3, 3, 1, 1, 1, 50
D minor mel (1b), 0, 3, 2, 3, 3, 2, 0,  , 2, 1, 1, 4, 4, 5, 4, 2, 4, 2, 3, 1, 1, 1, 48
E minor mel (1#), 1, 6, 5, 6, 1, 1, 0,  , 1, 0, 0, 4, 4, 4, 3, 2, 4, 4, 4, 1, 1, 1, 53
F major blues (1b), 0, 3, 1, 3, 3, 3, 1,  , 3, 2, 1, 3, 2, 3, 4, 3, 4, 2, 4, 1, 1, 1, 48
G major blues (1#), 1, 3, 3, 3, 4, 3, 1,  , 2, 2, 1, 6, 5, 5, 4, 3, 4, 2, 4, 1, 1, 1, 59
D minor blues (1b), 0, 3, 1, 3, 4, 3, 1,  , 3, 2, 1, 5, 3, 4, 4, 4, 3, 2, 4, 1, 1, 1, 53
E minor blues (1#), 1, 5, 6, 5, 4, 3, 1,  , 2, 2, 1, 6, 5, 5, 4, 3, 3, 3, 5, 1, 1, 1, 67
F dorian (1b), 0, 2, 1, 2, 3, 3, 1,  , 2, 2, 1, 3, 2, 3, 3, 2, 4, 1, 2, 1, 1, 1, 40
G dorian (1#), 1, 3, 3, 3, 2, 2, 0,  , 1, 1, 1, 5, 5, 5, 4, 2, 4, 2, 3, 1, 1, 1, 50
F phrygian (1b), 0, 0, 0, 1, 2, 2, 1,  , 3, 1, 0, 2, 1, 1, 2, 1, 3, 2, 3, 1, 1, 1, 28
G phrygian (1#), 0, 2, 1, 2, 4, 3, 1,  , 2, 2, 1, 5, 3, 4, 3, 3, 3, 1, 2, 1, 1, 1, 45
F lydian (1b), 0, 2, 1, 2, 3, 3, 1,  , 2, 2, 1, 3, 2, 3, 3, 2, 4, 1, 2, 1, 1, 1, 40
G lydian (1#), 1, 3, 3, 3, 2, 2, 0,  , 1, 1, 1, 5, 5, 5, 4, 2, 4, 2, 3, 1, 1, 1, 50
F mixolydian (1b), 0, 0, 0, 1, 2, 2, 1,  , 3, 1, 0, 2, 1, 1, 2, 1, 3, 2, 3, 1, 1, 1, 28
G mixolydian (1#), 0, 2, 1, 2, 4, 3, 1,  , 2, 2, 1, 5, 3, 4, 3, 3, 3, 1, 2, 1, 1, 1, 45
F aeolian (1b), 0, 1, 1, 1, 3, 3, 1,  , 2, 2, 1, 3, 2, 2, 2, 1, 4, 1, 3, 1, 1, 1, 36
G aeolian (1#), 1, 2, 2, 2, 3, 3, 1,  , 1, 2, 1, 6, 4, 4, 3, 3, 3, 1, 2, 1, 1, 1, 47
F locrian (1b), 0, 1, 0, 2, 2, 1, 1,  , 2, 1, 0, 2, 1, 1, 3, 2, 3, 2, 4, 0, 0, 0, 28
G locrian (1#), 0, 1, 1, 1, 4, 3, 1,  , 2, 2, 1, 5, 3, 3, 2, 2, 3, 1, 3, 1, 1, 1, 41
Bb major (2b), 0, 0, 0, 1, 2, 2, 1,  , 3, 1, 0, 2, 1, 1, 3, 1, 3, 2, 2, 1, 1, 1, 28
D major (2#), 1, 3, 3, 3, 2, 2, 0,  , 1, 1, 1, 5, 5, 5, 4, 2, 4, 2, 3, 1, 1, 1, 50
G minor (2b), 1, 0, 1, 1, 2, 2, 1,  , 2, 1, 0, 5, 3, 2, 2, 2, 2, 2, 3, 1, 1, 1, 35
B minor (2#), 1, 4, 6, 4, 2, 2, 0,  , 1, 1, 1, 3, 5, 4, 4, 3, 3, 3, 3, 1, 1, 1, 53
G minor mel (2b), 1, 1, 2, 1, 3, 3, 1,  , 1, 2, 1, 6, 4, 3, 2, 2, 3, 1, 3, 1, 1, 1, 43
B minor mel (2#), 1, 4, 6, 3, 2, 1, 0,  , 0, 1, 1, 3, 5, 4, 4, 3, 3, 3, 3, 0, 0, 0, 47
Bb major blues (2b), 0, 3, 2, 3, 3, 3, 1,  , 3, 2, 1, 3, 2, 2, 4, 2, 4, 3, 3, 1, 1, 1, 47
D major blues (2#), 1, 3, 3, 3, 4, 3, 1,  , 2, 2, 1, 6, 5, 5, 4, 3, 4, 2, 3, 1, 1, 1, 58
G minor blues (2b), 0, 3, 2, 3, 4, 3, 1,  , 3, 2, 1, 5, 3, 3, 3, 3, 4, 3, 4, 1, 1, 1, 53
B minor blues (2#), 1, 5, 6, 5, 4, 3, 1,  , 2, 2, 1, 5, 5, 5, 3, 3, 3, 3, 4, 1, 1, 1, 64
Bb dorian (2b), 0, 1, 1, 1, 3, 3, 1,  , 2, 2, 1, 3, 2, 2, 3, 1, 4, 1, 2, 1, 1, 1, 36
D dorian (2#), 1, 3, 3, 2, 2, 1, 0,  , 0, 1, 1, 5, 5, 5, 4, 2, 4, 2, 3, 0, 0, 0, 44
Bb phrygian (2b), 0, 2, 4, 1, 4, 2, 1,  , 1, 2, 1, 5, 3, 4, 3, 3, 2, 2, 2, 0, 0, 0, 42
D phrygian (2#), 1, 2, 5, 1, 3, 2, 1,  , 0, 2, 1, 6, 4, 4, 3, 3, 2, 2, 2, 0, 0, 0, 44
Bb lydian (2b), 1, 2, 2, 2, 4, 3, 1,  , 3, 2, 1, 5, 3, 3, 3, 2, 4, 2, 3, 1, 1, 1, 49
D lydian (2#), 1, 2, 5, 2, 4, 3, 1,  , 3, 2, 1, 6, 4, 4, 3, 3, 3, 3, 3, 1, 1, 1, 56
Bb mixolydian (2b), 1, 2, 2, 2, 3, 3, 1,  , 1, 2, 1, 5, 3, 3, 3, 2, 4, 1, 2, 1, 1, 1, 44
D mixolydian (2#), 0, 1, 1, 1, 4, 3, 1,  , 2, 2, 1, 4, 2, 2, 2, 1, 4, 1, 3, 1, 1, 1, 38
Bb aeolian (2b), 1, 2, 2, 2, 3, 3, 1,  , 1, 2, 1, 5, 3, 3, 3, 2, 4, 1, 2, 1, 1, 1, 44
D aeolian (2#), 0, 1, 1, 1, 4, 3, 1,  , 2, 2, 1, 4, 2, 2, 2, 1, 4, 1, 3, 1, 1, 1, 38
Bb locrian (2b), 0, 2, 1, 2, 4, 3, 1,  , 2, 2, 1, 4, 2, 3, 3, 2, 4, 1, 2, 1, 1, 1, 42
D locrian (2#), 0, 0, 0, 1, 3, 2, 1,  , 3, 1, 0, 3, 1, 1, 2, 1, 3, 2, 3, 1, 1, 1, 30
Eb major (3b), 0, 1, 1, 1, 3, 3, 1,  , 2, 2, 1, 3, 2, 2, 2, 1, 4, 1, 3, 1, 1, 1, 36
A major (3#), 1, 2, 2, 2, 3, 3, 1,  , 1, 2, 1, 6, 4, 4, 3, 3, 3, 1, 2, 1, 1, 1, 47
C minor (3b), 0, 2, 2, 2, 3, 2, 0,  , 2, 1, 1, 4, 4, 4, 3, 1, 4, 2, 4, 1, 1, 1, 44
F# minor (3#), 1, 5, 4, 5, 2, 2, 1,  , 1, 1, 0, 5, 3, 3, 2, 3, 3, 3, 3, 1, 1, 1, 50
C minor mel (3b), 0, 1, 0, 2, 3, 2, 1,  , 3, 1, 0, 3, 1, 2, 3, 2, 3, 2, 2, 1, 1, 1, 34
F# minor mel (3#), 0, 6, 4, 5, 0, 0, 0,  , 1, 0, 0, 1, 1, 2, 2, 2, 4, 5, 4, 0, 0, 0, 37
Eb major blues (3b), 0, 2, 1, 2, 4, 3, 1,  , 2, 2, 1, 4, 2, 3, 3, 2, 4, 1, 2, 1, 1, 1, 42
A major blues (3#), 0, 2, 4, 1, 4, 2, 1,  , 1, 2, 1, 5, 3, 4, 3, 3, 2, 2, 2, 0, 0, 0, 42
C minor blues (3b), 1, 2, 5, 1, 3, 2, 1,  , 0, 2, 1, 6, 4, 4, 3, 3, 2, 2, 2, 0, 0, 0, 44
F# minor blues (3#), 1, 2, 2, 2, 4, 3, 1,  , 3, 2, 1, 5, 3, 3, 3, 2, 4, 2, 3, 1, 1, 1, 49
Eb dorian (3b), 1, 2, 5, 2, 4, 3, 1,  , 3, 2, 1, 6, 4, 4, 3, 3, 3, 3, 3, 1, 1, 1, 56
A dorian (3#), 1, 2, 2, 2, 3, 3, 1,  , 1, 2, 1, 5, 3, 3, 3, 2, 4, 1, 2, 1, 1, 1, 44
Eb phrygian (3b), 0, 1, 1, 1, 4, 3, 1,  , 2, 2, 1, 4, 2, 2, 2, 1, 4, 1, 3, 1, 1, 1, 38
A phrygian (3#), 1, 2, 2, 2, 3, 3, 1,  , 1, 2, 1, 5, 3, 3, 3, 2, 4, 1, 2, 1, 1, 1, 44
Eb lydian (3b), 0, 1, 1, 1, 4, 3, 1,  , 2, 2, 1, 4, 2, 2, 2, 1, 4, 1, 3, 1, 1, 1, 38
A lydian (3#), 0, 2, 1, 2, 4, 3, 1,  , 2, 2, 1, 4, 2, 3, 3, 2, 4, 1, 2, 1, 1, 1, 42
Eb mixolydian (3b), 0, 0, 0, 1, 3, 2, 1,  , 3, 1, 0, 3, 1, 1, 2, 1, 3, 2, 3, 1, 1, 1, 30
A mixolydian (3#), 0, 1, 1, 1, 3, 3, 1,  , 2, 2, 1, 3, 2, 2, 2, 1, 4, 1, 3, 1, 1, 1, 36
Eb aeolian (3b), 1, 2, 2, 2, 3, 3, 1,  , 1, 2, 1, 6, 4, 4, 3, 3, 3, 1, 2, 1, 1, 1, 47
A aeolian (3#), 0, 2, 2, 2, 3, 2, 0,  , 2, 1, 1, 4, 4, 4, 3, 1, 4, 2, 4, 1, 1, 1, 44
Eb locrian (3b), 0, 2, 4, 1, 4, 2, 1,  , 1, 2, 1, 5, 3, 4, 3, 3, 2, 2, 2, 0, 0, 0, 42
A locrian (3#), 1, 2, 5, 1, 3, 2, 1,  , 0, 2, 1, 6, 4, 4, 3, 3, 2, 2, 2, 0, 0, 0, 44
Ab major (4b), 1, 2, 2, 2, 4, 3, 1,  , 3, 2, 1, 5, 3, 3, 3, 2, 4, 2, 3, 1, 1, 1, 49
E major (4#), 1, 2, 5, 2, 4, 3, 1,  , 3, 2, 1, 6, 4, 4, 3, 3, 3, 3, 3, 1, 1, 1, 56
F minor (4b), 1, 2, 2, 2, 3, 3, 1,  , 1, 2, 1, 5, 3, 3, 3, 2, 4, 1, 2, 1, 1, 1, 44
C# minor (4#), 0, 1, 1, 1, 4, 3, 1,  , 2, 2, 1, 4, 2, 2, 2, 1, 4, 1, 3, 1, 1, 1, 38
F minor mel (4b), 1, 2, 2, 2, 3, 3, 1,  , 1, 2, 1, 5, 3, 3, 3, 2, 4, 1, 2, 1, 1, 1, 44
C# minor mel (4#), 0, 1, 1, 1, 4, 3, 1,  , 2, 2, 1, 4, 2, 2, 2, 1, 4, 1, 3, 1, 1, 1, 38
Ab major blues (4b), 0, 2, 1, 2, 4, 3, 1,  , 2, 2, 1, 4, 2, 3, 3, 2, 4, 1, 2, 1, 1, 1, 42
E major blues (4#), 0, 0, 0, 1, 3, 2, 1,  , 3, 1, 0, 3, 1, 1, 2, 1, 3, 2, 3, 1, 1, 1, 30
F minor blues (4b), 0, 1, 1, 1, 3, 3, 1,  , 2, 2, 1, 3, 2, 2, 2, 1, 4, 1, 3, 1, 1, 1, 36
C# minor blues (4#), 1, 2, 2, 2, 3, 3, 1,  , 1, 2, 1, 6, 4, 4, 3, 3, 3, 1, 2, 1, 1, 1, 47
Ab dorian (4b), 0, 2, 2, 2, 3, 2, 0,  , 2, 1, 1, 4, 4, 4, 3, 1, 4, 2, 4, 1, 1, 1, 44
E dorian (4#), 1, 5, 4, 5, 2, 2, 1,  , 1, 1, 0, 5, 3, 3, 2, 3, 3, 3, 3, 1, 1, 1, 50
Ab phrygian (4b), 0, 1, 0, 2, 3, 2, 1,  , 3, 1, 0, 3, 1, 2, 3, 2, 3, 2, 2, 1, 1, 1, 34
E phrygian (4#), 0, 6, 4, 5, 0, 0, 0,  , 1, 0, 0, 1, 1, 2, 2, 2, 4, 5, 4, 0, 0, 0, 37
Ab lydian (4b), 0, 2, 1, 2, 4, 3, 1,  , 2, 2, 1, 4, 2, 3, 3, 2, 4, 1, 2, 1, 1, 1, 42
E lydian (4#), 0, 2, 4, 1, 4, 2, 1,  , 1, 2, 1, 5, 3, 4, 3, 3, 2, 2, 2, 0, 0, 0, 42
Ab mixolydian (4b), 1, 2, 5, 1, 3, 2, 1,  , 0, 2, 1, 6, 4, 4, 3, 3, 2, 2, 2, 0, 0, 0, 44
E mixolydian (4#), 1, 2, 2, 2, 4, 3, 1,  , 3, 2, 1, 5, 3, 3, 3, 2, 4, 2, 3, 1, 1, 1, 49
Ab aeolian (4b), 1, 2, 5, 2, 4, 3, 1,  , 3, 2, 1, 6, 4, 4, 3, 3, 3, 3, 3, 1, 1, 1, 56
E aeolian (4#), 1, 2, 2, 2, 3, 3, 1,  , 1, 2, 1, 5, 3, 3, 3, 2, 4, 1, 2, 1, 1, 1, 44
Ab locrian (4b), 0, 1, 1, 1, 4, 3, 1,  , 2, 2, 1, 4, 2, 2, 2, 1, 4, 1, 3, 1, 1, 1, 38
E locrian (4#), 1, 2, 2, 2, 3, 3, 1,  , 1, 2, 1, 5, 3, 3, 3, 2, 4, 1, 2, 1, 1, 1, 44
Db major (5b), 0, 1, 1, 1, 4, 3, 1,  , 2, 2, 1, 4, 2, 2, 2, 1, 4, 1, 3, 1, 1, 1, 38
B major (5#), 0, 2, 1, 2, 4, 3, 1,  , 2, 2, 1, 4, 2, 3, 3, 2, 4, 1, 2, 1, 1, 1, 42
Bb minor (5b), 0, 0, 0, 1, 3, 2, 1,  , 3, 1, 0, 3, 1, 1, 2, 1, 3, 2, 3, 1, 1, 1, 30
G# minor (5#), 0, 1, 1, 1, 3, 3, 1,  , 2, 2, 1, 3, 2, 2, 2, 1, 4, 1, 3, 1, 1, 1, 36
Bb minor mel (5b), 1, 2, 2, 2, 3, 3, 1,  , 1, 2, 1, 6, 4, 4, 3, 3, 3, 1, 2, 1, 1, 1, 47
G# minor mel (5#), 0, 2, 2, 2, 3, 2, 0,  , 2, 1, 1, 4, 4, 4, 3, 1, 4, 2, 4, 1, 1, 1, 44
Db major blues (5b), 0, 2, 1, 2, 4, 3, 1,  , 2, 2, 1, 4, 2, 3, 3, 2, 4, 1, 2, 1, 1, 1, 42
B major blues (5#), 0, 2, 4, 1, 4, 2, 1,  , 1, 2, 1, 5, 3, 4, 3, 3, 2, 2, 2, 0, 0, 0, 42
Bb minor blues (5b), 1, 2, 5, 1, 3, 2, 1,  , 0, 2, 1, 6, 4, 4, 3, 3, 2, 2, 2, 0, 0, 0, 44
G# minor blues (5#), 1, 2, 2, 2, 4, 3, 1,  , 3, 2, 1, 5, 3, 3, 3, 2, 4, 2, 3, 1, 1, 1, 49
Db dorian (5b), 1, 2, 5, 2, 4, 3, 1,  , 3, 2, 1, 6, 4, 4, 3, 3, 3, 3, 3, 1, 1, 1, 56
B dorian (5#), 1, 2, 2, 2, 3, 3, 1,  , 1, 2, 1, 5, 3, 3, 3, 2, 4, 1, 2, 1, 1, 1, 44
Db phrygian (5b), 0, 1, 1, 1, 4, 3, 1,  , 2, 2, 1, 4, 2, 2, 2, 1, 4, 1, 3, 1, 1, 1, 38
B phrygian (5#), 1, 2, 2, 2, 3, 3, 1,  , 1, 2, 1, 5, 3, 3, 3, 2, 4, 1, 2, 1, 1, 1, 44
Db lydian (5b), 0, 1, 1, 1, 4, 3, 1,  , 2, 2, 1, 4, 2, 2, 2, 1, 4, 1, 3, 1, 1, 1, 38
B lydian (5#), 0, 2, 1, 2, 4, 3, 1,  , 2, 2, 1, 4, 2, 3, 3, 2, 4, 1, 2, 1, 1, 1, 42
Db mixolydian (5b), 0, 0, 0, 1, 3, 2, 1,  , 3, 1, 0, 3, 1, 1, 2, 1, 3, 2, 3, 1, 1, 1, 30
B mixolydian (5#), 0, 1, 1, 1, 3, 3, 1,  , 2, 2, 1, 3, 2, 2, 2, 1, 4, 1, 3, 1, 1, 1, 36
Db aeolian (5b), 1, 2, 2, 2, 3, 3, 1,  , 1, 2, 1, 6, 4, 4, 3, 3, 3, 1, 2, 1, 1, 1, 47
B aeolian (5#), 0, 2, 2, 2, 3, 2, 0,  , 2, 1, 1, 4, 4, 4, 3, 1, 4, 2, 4, 1, 1, 1, 44
Db locrian (5b), 1, 5, 4, 5, 2, 2, 1,  , 1, 1, 0, 5, 3, 3, 2, 3, 3, 3, 3, 1, 1, 1, 50
B locrian (5#), 1, 5, 6, 4, 2, 1, 0,  , 0, 1, 1, 3, 5, 5, 3, 2, 3, 3, 4, 0, 0, 0, 49
Gb major (6b), 0, 6, 4, 5, 0, 0, 0,  , 1, 0, 0, 1, 1, 2, 2, 2, 4, 5, 4, 0, 0, 0, 37
F# major (6#), 0, 2, 1, 2, 4, 3, 1,  , 2, 2, 1, 4, 2, 3, 3, 2, 4, 1, 2, 1, 1, 1, 42
Eb minor (6b), 0, 2, 4, 1, 4, 2, 1,  , 1, 2, 1, 5, 3, 4, 3, 3, 2, 2, 2, 0, 0, 0, 42
D# minor (6#), 1, 2, 5, 1, 3, 2, 1,  , 0, 2, 1, 6, 4, 4, 3, 3, 2, 2, 2, 0, 0, 0, 44
Eb minor mel (6b), 1, 2, 2, 2, 4, 3, 1,  , 3, 2, 1, 5, 3, 3, 3, 2, 4, 2, 3, 1, 1, 1, 49
D# minor mel (6#), 1, 2, 5, 2, 4, 3, 1,  , 3, 2, 1, 6, 4, 4, 3, 3, 3, 3, 3, 1, 1, 1, 56
Gb major blues (6b), 1, 2, 2, 2, 3, 3, 1,  , 1, 2, 1, 5, 3, 3, 3, 2, 4, 1, 2, 1, 1, 1, 44
F# major blues (6#), 0, 1, 1, 1, 4, 3, 1,  , 2, 2, 1, 4, 2, 2, 2, 1, 4, 1, 3, 1, 1, 1, 38
Eb minor blues (6b), 1, 2, 2, 2, 3, 3, 1,  , 1, 2, 1, 5, 3, 3, 3, 2, 4, 1, 2, 1, 1, 1, 44
D# minor blues (6#), 0, 1, 1, 1, 4, 3, 1,  , 2, 2, 1, 4, 2, 2, 2, 1, 4, 1, 3, 1, 1, 1, 38
Gb dorian (6b), 0, 2, 1, 2, 4, 3, 1,  , 2, 2, 1, 4, 2, 3, 3, 2, 4, 1, 2, 1, 1, 1, 42
F# dorian (6#), 0, 0, 0, 1, 3, 2, 1,  , 3, 1, 0, 3, 1, 1, 2, 1, 3, 2, 3, 1, 1, 1, 30
Gb phrygian (6b), 0, 1, 1, 1, 3, 3, 1,  , 2, 2, 1, 3, 2, 2, 2, 1, 4, 1, 3, 1, 1, 1, 36
F# phrygian (6#), 1, 2, 2, 2, 3, 3, 1,  , 1, 2, 1, 6, 4, 4, 3, 3, 3, 1, 2, 1, 1, 1, 47
Gb lydian (6b), 0, 6, 5, 5, 0, 0, 0,  , 1, 0, 0, 0, 0, 0, 5, 3, 4, 6, 3, 0, 0, 0, 38
F# lydian (6#), 0, 4, 3, 3, 0, 0, 0,  , 1, 0, 0, 0, 0, 0, 4, 2, 3, 4, 2, 0, 0, 0, 26
Gb mixolydian (6b), 1, 7, 7, 6, 1, 0, 0,  , 0, 0, 0, 2, 2, 1, 4, 4, 4, 6, 4, 0, 0, 0, 49
F# mixolydian (6#), 1, 5, 5, 4, 1, 0, 0,  , 0, 0, 0, 2, 2, 1, 3, 3, 3, 4, 3, 0, 0, 0, 37
Gb aeolian (6b), 0, 7, 6, 6, 0, 0, 0,  , 1, 0, 0, 1, 1, 1, 4, 4, 5, 7, 4, 0, 0, 0, 47
F# aeolian (6#), 0, 5, 4, 4, 0, 0, 0,  , 1, 0, 0, 1, 1, 1, 3, 3, 4, 5, 3, 0, 0, 0, 35
Gb locrian (6b), 1, 8, 7, 7, 1, 0, 0,  , 0, 0, 0, 2, 2, 2, 2, 2, 4, 6, 5, 0, 0, 0, 49
F# locrian (6#), 1, 6, 5, 5, 1, 0, 0,  , 0, 0, 0, 2, 2, 2, 2, 2, 3, 4, 4, 0, 0, 0, 39
Cb major (7b), 1, 8, 8, 7, 1, 0, 0,  , 0, 0, 0, 3, 6, 5, 6, 5, 6, 7, 5, 0, 0, 0, 68
C# major (7#), 0, 4, 3, 3, 0, 0, 0,  , 1, 0, 0, 0, 0, 0, 4, 2, 3, 4, 2, 0, 0, 0, 26
Ab minor (7b), 1, 5, 3, 5, 2, 0, 0,  , 1, 0, 0, 3, 2, 1, 4, 4, 2, 2, 4, 0, 0, 0, 39
A# minor (7#), 0, 2, 2, 3, 0, 1, 0,  , 3, 0, 0, 0, 0, 0, 2, 0, 4, 5, 1, 1, 1, 1, 26
Ab minor mel (7b), 0, 5, 2, 5, 1, 0, 0,  , 2, 0, 0, 2, 1, 1, 4, 4, 3, 3, 4, 0, 0, 0, 37
A# minor mel (7#), 0, 2, 2, 3, 1, 1, 0,  , 4, 0, 0, 1, 0, 0, 2, 0, 4, 5, 1, 1, 1, 1, 29
Cb major blues (7b), 1, 9, 9, 8, 2, 1, 0,  , 1, 1, 1, 4, 7, 7, 6, 5, 7, 8, 6, 0, 0, 0, 83
C# major blues (7#), 0, 6, 5, 5, 0, 0, 0,  , 1, 0, 0, 0, 0, 0, 5, 3, 4, 6, 3, 0, 0, 0, 38
Ab minor blues (7b), 0, 4, 3, 3, 0, 0, 0,  , 1, 0, 0, 0, 0, 0, 4, 2, 3, 4, 2, 0, 0, 0, 26
A# minor blues (7#), 1, 7, 7, 6, 1, 0, 0,  , 0, 0, 0, 2, 2, 1, 4, 4, 4, 6, 4, 0, 0, 0, 49
Cb dorian (7b), 1, 5, 5, 4, 1, 0, 0,  , 0, 0, 0, 2, 2, 1, 3, 3, 3, 4, 3, 0, 0, 0, 37
C# dorian (7#), 0, 7, 6, 6, 0, 0, 0,  , 1, 0, 0, 1, 1, 1, 4, 4, 5, 7, 4, 0, 0, 0, 47
Cb phrygian (7b), 0, 5, 4, 4, 0, 0, 0,  , 1, 0, 0, 1, 1, 1, 3, 3, 4, 5, 3, 0, 0, 0, 35
C# phrygian (7#), 1, 8, 7, 7, 1, 0, 0,  , 0, 0, 0, 2, 2, 2, 2, 2, 4, 6, 5, 0, 0, 0, 49
Cb lydian (7b), 1, 6, 5, 5, 1, 0, 0,  , 0, 0, 0, 2, 2, 2, 2, 2, 3, 4, 4, 0, 0, 0, 39
C# lydian (7#), 1, 8, 8, 7, 1, 0, 0,  , 0, 0, 0, 3, 6, 5, 6, 5, 6, 7, 5, 0, 0, 0, 68
Cb mixolydian (7b), 0, 4, 3, 3, 0, 0, 0,  , 1, 0, 0, 0, 0, 0, 4, 2, 3, 4, 2, 0, 0, 0, 26
C# mixolydian (7#), 1, 5, 3, 5, 2, 0, 0,  , 1, 0, 0, 3, 2, 1, 4, 4, 2, 2, 4, 0, 0, 0, 39
Cb aeolian (7b), 0, 2, 2, 3, 0, 1, 0,  , 3, 0, 0, 0, 0, 0, 2, 0, 4, 5, 1, 1, 1, 1, 26
C# aeolian (7#), 0, 5, 2, 5, 1, 0, 0,  , 2, 0, 0, 2, 1, 1, 4, 4, 3, 3, 4, 0, 0, 0, 37
Cb locrian (7b), 1, 7, 9, 6, 2, 1, 0,  , 0, 1, 1, 4, 7, 7, 4, 3, 4, 5, 6, 0, 0, 0, 68
C# locrian (7#), 1, 9, 9, 8, 2, 1, 0,  , 1, 1, 1, 4, 7, 7, 6, 5, 7, 8, 6, 0, 0, 0, 83
