 , 0, 1, 2, 3, 4, 5, 6, 7, 8, 9, 10, 11, 12, 13, 14, 15, 16, 17, 18, 19, 20, 21, 22, 23, 24, 25, 26, 27, 28, 29, 30, 31, 32, 33, 34, 35, 36, 37, rowcost
C major (0), 0:0:0:0:0, 1:0:0:0:0, 1:0:0:0:0, 1:0:0:0:0, 1:0:0:0:0, 1:0:0:0:0, 3:0:0:0:1, 1:0:0:0:0, 3:0:0:0:1, 0:0:0:0:0, 3:0:0:0:1, 1:0:0:0:0, 0:0:0:0:0, 1:0:0:0:0, 3:0:0:0:1, 1:0:0:0:0, 3:0:0:0:0, 4:0:0:0:0, 2:0:0:0:1, 5:0:0:0:0, 3:0:0:0:2, 1:0:0:0:4, 1:0:0:0:1, 3:0:0:0:0, 0:0:0:0:0, 2:0:0:0:0, 3:0:0:0:1, 1:0:0:0:0, 1:0:0:0:0, 1:0:0:0:0, 2:0:0:0:0, 2:0:0:0:0, 4:0:0:0:3, 0:0:0:0:0, 1:0:0:0:0, 1:0:0:0:0, 0:0:0:0:0, 1:0:0:0:0, 62:0:0:0:16
A minor (0), 1:0:0:0:0, 2:0:0:0:0, 2:0:0:0:0, 2:0:0:0:0, 2:0:0:0:0, 2:0:0:0:2, 4:0:0:0:4, 2:0:0:0:0, 4:0:0:0:0, 1:0:0:0:0, 4:0:0:0:0, 2:0:0:0:0, 1:0:0:0:0, 2:0:0:0:0, 3:0:0:0:3, 2:0:0:0:0, 4:0:0:0:2, 4:0:0:0:1, 1:0:0:0:2, 6:0:0:0:0, 4:0:0:0:0, 2:0:0:0:0, 2:0:0:0:1, 4:0:0:0:1, 1:0:0:0:0, 3:0:0:0:0, 4:0:0:0:3, 2:0:0:0:0, 2:0:0:0:0, 2:0:0:0:2, 3:0:0:0:1, 3:0:0:0:0, 5:0:0:0:1, 0:0:0:0:0, 2:0:0:0:0, 2:0:0:0:0, 1:0:0:0:0, 2:0:0:0:0, 95:0:0:0:23
A minor mel (0), 2:0:0:0:0, 3:0:0:0:0, 3:0:0:0:0, 3:0:0:0:0, 2:0:0:0:0, 3:0:0:0:2, 5:0:0:0:4, 3:0:0:0:0, 4:0:0:0:0, 2:0:0:0:0, 5:0:0:0:0, 3:0:0:0:0, 2:0:0:0:0, 2:0:0:0:0, 4:0:0:0:3, 2:0:0:0:0, 5:0:0:0:2, 5:0:0:0:1, 2:0:0:0:2, 5:0:0:0:0, 5:0:0:0:0, 3:0:0:0:0, 3:0:0:0:1, 5:0:0:0:1, 2:0:0:0:0, 3:0:0:0:0, 5:0:0:0:3, 3:0:0:0:0, 2:0:0:0:0, 3:0:0:0:2, 4:0:0:0:1, 3:0:0:0:0, 5:0:0:0:0, 1:0:0:0:0, 3:0:0:0:0, 2:0:0:0:0, 2:0:0:0:0, 2:0:0:0:0, 121:0:0:0:22
C major blues (0), 2:0:0:0:0, 3:0:0:0:0, 3:0:0:0:0, 3:0:0:0:0, 2:0:0:0:0, 3:0:0:0:0, 4:0:0:0:1, 3:0:0:0:0, 4:0:0:0:1, 1:0:0:0:0, 6:0:0:0:0, 3:0:0:0:0, 3:0:0:0:0, 2:0:0:0:0, 4:0:0:0:1, 2:0:0:0:0, 5:0:0:0:0, 5:0:0:0:0, 4:0:0:0:1, 6:0:0:0:0, 5:0:0:0:2, 3:0:0:0:4, 4:0:0:0:1, 5:0:0:0:0, 2:0:0:0:0, 3:0:0:0:0, 4:0:0:0:1, 3:0:0:0:0, 2:0:0:0:0, 2:0:0:0:0, 4:0:0:0:0, 3:0:0:0:0, 7:0:0:0:2, 2:0:0:0:0, 3:0:0:0:0, 2:0:0:0:0, 2:0:0:0:0, 2:0:0:0:0, 126:0:0:0:14
A minor blues (0), 2:0:0:0:0, 3:0:0:0:0, 3:0:0:0:0, 3:0:0:0:0, 2:0:0:0:0, 3:0:0:0:0, 4:0:0:0:1, 3:0:0:0:0, 4:0:0:0:1, 1:0:0:0:0, 6:0:0:0:0, 3:0:0:0:0, 3:0:0:0:0, 2:0:0:0:0, 4:0:0:0:1, 2:0:0:0:0, 5:0:0:0:0, 5:0:0:0:0, 4:0:0:0:1, 6:0:0:0:0, 5:0:0:0:2, 3:0:0:0:4, 4:0:0:0:1, 5:0:0:0:0, 2:0:0:0:0, 3:0:0:0:0, 4:0:0:0:1, 3:0:0:0:0, 2:0:0:0:0, 2:0:0:0:0, 4:0:0:0:0, 3:0:0:0:0, 7:0:0:0:2, 2:0:0:0:0, 3:0:0:0:0, 2:0:0:0:0, 2:0:0:0:0, 2:0:0:0:0, 126:0:0:0:14
C dorian (0), 1:0:0:0:0, 2:0:0:0:0, 2:0:0:0:0, 2:0:0:0:0, 1:0:0:0:0, 2:0:0:0:0, 4:0:0:0:1, 2:0:0:0:0, 3:0:0:0:1, 1:0:0:0:0, 4:0:0:0:1, 2:0:0:0:0, 1:0:0:0:0, 1:0:0:0:0, 4:0:0:0:1, 1:0:0:0:0, 4:0:0:0:0, 5:0:0:0:0, 3:0:0:0:1, 4:0:0:0:0, 4:0:0:0:2, 2:0:0:0:4, 2:0:0:0:1, 4:0:0:0:0, 1:0:0:0:0, 2:0:0:0:0, 4:0:0:0:1, 2:0:0:0:0, 1:0:0:0:0, 2:0:0:0:0, 3:0:0:0:0, 2:0:0:0:0, 4:0:0:0:2, 1:0:0:0:0, 2:0:0:0:0, 1:0:0:0:0, 1:0:0:0:0, 1:0:0:0:0, 88:0:0:0:15
C phrygian (0), 1:0:0:0:0, 0:0:0:0:0, 0:0:0:0:0, 0:0:0:0:0, 0:0:0:0:0, 2:0:0:0:0, 2:0:0:0:1, 0:0:0:0:0, 2:0:0:0:1, 0:0:0:0:0, 4:0:0:0:1, 0:0:0:0:0, 1:0:0:0:0, 0:0:0:0:0, 3:0:0:0:1, 0:0:0:0:0, 2:0:0:0:0, 3:0:0:0:0, 3:0:0:0:1, 4:0:0:0:0, 2:0:0:0:2, 1:0:0:0:4, 2:0:0:0:1, 2:0:0:0:0, 1:0:0:0:0, 1:0:0:0:0, 3:0:0:0:1, 0:0:0:0:0, 0:0:0:0:0, 1:0:0:0:0, 3:0:0:0:0, 1:0:0:0:0, 5:0:0:0:3, 0:0:0:0:0, 2:0:0:0:0, 0:0:0:0:0, 1:0:0:0:0, 0:0:0:0:0, 52:0:0:0:16
C lydian (0), 1:0:0:0:0, 2:0:0:0:0, 2:0:0:0:0, 2:0:0:0:0, 1:0:0:0:0, 2:0:0:0:0, 4:0:0:0:1, 2:0:0:0:0, 3:0:0:0:1, 1:0:0:0:0, 4:0:0:0:1, 2:0:0:0:0, 1:0:0:0:0, 1:0:0:0:0, 4:0:0:0:1, 1:0:0:0:0, 4:0:0:0:0, 5:0:0:0:0, 3:0:0:0:1, 4:0:0:0:0, 4:0:0:0:2, 2:0:0:0:4, 2:0:0:0:1, 4:0:0:0:0, 1:0:0:0:0, 2:0:0:0:0, 4:0:0:0:1, 2:0:0:0:0, 1:0:0:0:0, 2:0:0:0:0, 3:0:0:0:0, 2:0:0:0:0, 4:0:0:0:2, 1:0:0:0:0, 2:0:0:0:0, 1:0:0:0:0, 1:0:0:0:0, 1:0:0:0:0, 88:0:0:0:15
C mixolydian (0), 1:0:0:0:0, 0:0:0:0:0, 0:0:0:0:0, 0:0:0:0:0, 0:0:0:0:0, 2:0:0:0:0, 2:0:0:0:1, 0:0:0:0:0, 2:0:0:0:1, 0:0:0:0:0, 4:0:0:0:1, 0:0:0:0:0, 1:0:0:0:0, 0:0:0:0:0, 3:0:0:0:1, 0:0:0:0:0, 2:0:0:0:0, 3:0:0:0:0, 3:0:0:0:1, 4:0:0:0:0, 2:0:0:0:2, 1:0:0:0:4, 2:0:0:0:1, 2:0:0:0:0, 1:0:0:0:0, 1:0:0:0:0, 3:0:0:0:1, 0:0:0:0:0, 0:0:0:0:0, 1:0:0:0:0, 3:0:0:0:0, 1:0:0:0:0, 5:0:0:0:3, 0:0:0:0:0, 2:0:0:0:0, 0:0:0:0:0, 1:0:0:0:0, 0:0:0:0:0, 52:0:0:0:16
C aeolian (0), 0:0:0:0:0, 1:0:0:0:0, 1:0:0:0:0, 1:0:0:0:0, 1:0:0:0:0, 1:0:0:0:0, 3:0:0:0:1, 1:0:0:0:0, 3:0:0:0:1, 0:0:0:0:0, 3:0:0:0:1, 1:0:0:0:0, 0:0:0:0:0, 1:0:0:0:0, 3:0:0:0:1, 1:0:0:0:0, 3:0:0:0:0, 4:0:0:0:0, 2:0:0:0:1, 5:0:0:0:0, 3:0:0:0:2, 1:0:0:0:4, 1:0:0:0:1, 3:0:0:0:0, 0:0:0:0:0, 2:0:0:0:0, 3:0:0:0:1, 1:0:0:0:0, 1:0:0:0:0, 1:0:0:0:0, 2:0:0:0:0, 2:0:0:0:0, 4:0:0:0:3, 0:0:0:0:0, 1:0:0:0:0, 1:0:0:0:0, 0:0:0:0:0, 1:0:0:0:0, 62:0:0:0:16
C locrian (0), 1:0:0:0:0, 1:0:0:0:0, 1:0:0:0:0, 1:0:0:0:0, 1:0:0:0:0, 1:0:0:0:0, 1:0:0:0:1, 1:0:0:0:0, 3:0:0:0:1, 0:0:0:0:0, 4:0:0:0:0, 1:0:0:0:0, 2:0:0:0:0, 1:0:0:0:0, 2:0:0:0:1, 1:0:0:0:0, 3:0:0:0:0, 2:0:0:0:0, 2:0:0:0:1, 5:0:0:0:0, 3:0:0:0:2, 2:0:0:0:4, 3:0:0:0:1, 3:0:0:0:0, 1:0:0:0:0, 2:0:0:0:0, 2:0:0:0:1, 1:0:0:0:0, 1:0:0:0:0, 0:0:0:0:0, 2:0:0:0:0, 2:0:0:0:0, 6:0:0:0:3, 1:0:0:0:0, 2:0:0:0:0, 1:0:0:0:0, 1:0:0:0:0, 1:0:0:0:0, 68:0:0:0:15
F major (1b), 1:0:0:0:0, 0:0:0:0:0, 0:0:0:0:0, 0:0:0:0:0, 0:0:0:0:0, 2:0:0:0:0, 2:0:0:0:1, 0:0:0:0:0, 2:0:0:0:1, 0:0:0:0:0, 4:0:0:0:1, 0:0:0:0:0, 1:0:0:0:0, 0:0:0:0:0, 3:0:0:0:1, 0:0:0:0:0, 2:0:0:0:0, 3:0:0:0:0, 3:0:0:0:1, 4:0:0:0:0, 2:0:0:0:2, 1:0:0:0:4, 2:0:0:0:1, 2:0:0:0:0, 1:0:0:0:0, 1:0:0:0:0, 3:0:0:0:1, 0:0:0:0:0, 0:0:0:0:0, 1:0:0:0:0, 3:0:0:0:0, 1:0:0:0:0, 5:0:0:0:3, 0:0:0:0:0, 2:0:0:0:0, 0:0:0:0:0, 1:0:0:0:0, 0:0:0:0:0, 52:0:0:0:16
G major (1#), 1:0:0:0:0, 2:0:0:0:0, 2:0:0:0:0, 2:0:0:0:0, 1:0:0:0:0, 2:0:0:0:0, 4:0:0:0:1, 2:0:0:0:0, 3:0:0:0:1, 1:0:0:0:0, 4:0:0:0:1, 2:0:0:0:0, 1:0:0:0:0, 1:0:0:0:0, 4:0:0:0:1, 1:0:0:0:0, 4:0:0:0:0, 5:0:0:0:0, 3:0:0:0:1, 4:0:0:0:0, 4:0:0:0:2, 2:0:0:0:4, 2:0:0:0:1, 4:0:0:0:0, 1:0:0:0:0, 2:0:0:0:0, 4:0:0:0:1, 2:0:0:0:0, 1:0:0:0:0, 2:0:0:0:0, 3:0:0:0:0, 2:0:0:0:0, 4:0:0:0:2, 1:0:0:0:0, 2:0:0:0:0, 1:0:0:0:0, 1:0:0:0:0, 1:0:0:0:0, 88:0:0:0:15
D minor (1b), 2:0:0:0:0, 1:0:0:0:0, 1:0:0:0:0, 1:0:0:0:0, 1:0:0:0:0, 3:0:0:0:0, 3:0:0:0:1, 1:0:0:0:0, 3:1:0:0:1, 1:0:0:0:0, 5:1:0:0:2, 1:0:0:0:0, 2:0:0:0:0, 1:0:0:0:0, 4:0:0:0:1, 1:0:0:0:0, 3:0:0:0:2, 4:0:0:0:0, 4:1:0:0:0, 5:0:0:0:2, 3:2:0:0:0, 0:0:0:0:0, 3:0:0:0:1, 3:1:0:0:1, 2:0:0:0:0, 2:0:0:0:0, 4:0:0:0:1, 1:0:0:0:0, 1:0:0:0:0, 2:0:0:0:0, 4:0:0:0:0, 2:0:0:0:0, 4:1:0:0:2, 1:0:0:0:0, 3:0:0:0:0, 1:0:0:0:0, 2:0:0:0:0, 1:0:0:0:0, 86:7:0:0:14
E minor (1#), 2:0:0:0:0, 2:1:0:0:1, 2:1:0:0:1, 2:2:0:0:2, 1:2:0:0:2, 2:1:0:0:1, 4:2:0:0:2, 2:1:0:0:1, 2:1:0:0:1, 2:0:0:0:0, 5:0:0:0:0, 2:3:0:0:3, 2:0:0:0:0, 1:1:0:0:1, 4:2:0:0:2, 1:1:0:0:1, 5:8:0:0:8, 6:1:0:0:1, 3:1:0:0:1, 3:1:0:0:1, 5:1:0:0:1, 3:0:0:0:0, 3:1:0:0:1, 4:2:0:0:2, 2:0:0:0:0, 2:1:0:0:1, 4:2:0:0:2, 2:1:0:0:1, 2:2:0:0:2, 3:2:0:0:2, 3:1:0:0:1, 3:1:0:0:1, 3:0:0:0:0, 2:0:0:0:0, 3:0:0:0:0, 1:1:0:0:1, 2:0:0:0:0, 1:1:0:0:1, 101:45:0:0:45
D minor mel (1b), 1:0:0:0:0, 2:0:0:0:0, 2:0:0:0:0, 2:0:0:0:0, 2:0:0:0:0, 2:0:0:0:0, 4:0:0:0:1, 2:0:0:0:0, 4:1:0:0:1, 1:0:0:0:0, 4:1:0:0:2, 2:0:0:0:0, 1:0:0:0:0, 2:0:0:0:0, 4:0:0:0:1, 2:0:0:0:0, 4:0:0:0:2, 5:0:0:0:0, 3:1:0:0:0, 6:0:0:0:2, 4:2:0:0:0, 0:0:0:0:0, 2:0:0:0:1, 4:1:0:0:1, 1:0:0:0:0, 3:0:0:0:0, 4:0:0:0:1, 2:0:0:0:0, 2:0:0:0:0, 2:0:0:0:0, 3:0:0:0:0, 3:0:0:0:0, 3:1:0:0:2, 1:0:0:0:0, 2:0:0:0:0, 2:0:0:0:0, 1:0:0:0:0, 2:0:0:0:0, 96:7:0:0:14
E minor mel (1#), 3:0:0:0:0, 3:1:0:0:1, 3:1:0:0:1, 3:2:0:0:2, 2:2:0:0:2, 3:1:0:0:1, 5:2:0:0:2, 3:1:0:0:1, 3:1:0:0:1, 3:0:0:0:0, 6:0:0:0:0, 3:3:0:0:3, 3:0:0:0:0, 2:1:0:0:1, 5:2:0:0:2, 2:1:0:0:1, 6:8:0:0:8, 7:1:0:0:1, 4:1:0:0:1, 4:1:0:0:1, 6:1:0:0:1, 2:0:0:0:0, 4:1:0:0:1, 5:2:0:0:2, 3:0:0:0:0, 3:1:0:0:1, 5:2:0:0:2, 3:1:0:0:1, 3:2:0:0:2, 4:2:0:0:2, 4:1:0:0:1, 4:1:0:0:1, 2:0:0:0:0, 3:0:0:0:0, 4:0:0:0:0, 2:1:0:0:1, 3:0:0:0:0, 2:1:0:0:1, 135:45:0:0:45
F major blues (1b), 1:0:0:0:0, 2:0:0:0:0, 2:0:0:0:0, 2:0:0:0:0, 2:0:0:0:0, 3:0:0:0:0, 4:0:0:0:0, 2:0:0:0:0, 5:1:0:0:1, 1:0:0:0:0, 5:0:0:0:0, 2:0:0:0:0, 2:0:0:0:0, 3:0:0:0:0, 4:0:0:0:0, 2:0:0:0:0, 5:0:0:0:0, 5:0:0:0:0, 4:1:0:0:1, 7:0:0:0:0, 5:2:0:0:2, 3:4:0:0:4, 4:0:0:0:0, 4:1:0:0:1, 1:0:0:0:0, 3:0:0:0:0, 4:0:0:0:0, 2:0:0:0:0, 2:0:0:0:0, 2:0:0:0:0, 4:0:0:0:0, 4:0:0:0:0, 7:2:0:0:2, 2:0:0:0:0, 3:0:0:0:0, 2:0:0:0:0, 2:0:0:0:0, 2:0:0:0:0, 119:11:0:0:11
G major blues (1#), 3:0:0:0:0, 3:0:0:0:0, 3:0:0:0:0, 3:0:0:0:0, 2:0:0:0:0, 4:2:0:0:0, 5:4:0:0:1, 3:0:0:0:0, 4:0:0:0:1, 2:0:0:0:0, 6:0:0:0:1, 3:0:0:0:0, 3:0:0:0:0, 2:0:0:0:0, 5:3:0:0:1, 2:0:0:0:0, 5:2:0:0:2, 6:1:0:0:1, 5:2:0:0:1, 6:0:0:0:1, 5:0:0:0:2, 2:0:0:0:0, 4:1:0:0:1, 5:1:0:0:0, 3:0:0:0:0, 3:0:0:0:0, 5:3:0:0:1, 3:0:0:0:0, 2:0:0:0:0, 3:2:0:0:0, 5:1:0:0:0, 3:0:0:0:0, 6:0:0:0:1, 2:0:0:0:0, 4:0:0:0:0, 2:0:0:0:0, 3:0:0:0:0, 2:0:0:0:0, 137:22:0:0:14
D minor blues (1b), 1:0:0:0:0, 2:0:0:0:0, 2:0:0:0:0, 2:0:0:0:0, 2:0:0:0:0, 3:0:0:0:0, 4:0:0:0:0, 2:0:0:0:0, 5:1:0:0:1, 1:0:0:0:0, 5:0:0:0:0, 2:0:0:0:0, 2:0:0:0:0, 3:0:0:0:0, 4:0:0:0:0, 2:0:0:0:0, 5:0:0:0:0, 5:0:0:0:0, 4:1:0:0:1, 7:0:0:0:0, 5:2:0:0:2, 3:4:0:0:4, 4:0:0:0:0, 4:1:0:0:1, 1:0:0:0:0, 3:0:0:0:0, 4:0:0:0:0, 2:0:0:0:0, 2:0:0:0:0, 2:0:0:0:0, 4:0:0:0:0, 4:0:0:0:0, 7:2:0:0:2, 2:0:0:0:0, 3:0:0:0:0, 2:0:0:0:0, 2:0:0:0:0, 2:0:0:0:0, 119:11:0:0:11
E minor blues (1#), 3:0:0:0:0, 3:0:0:0:0, 3:0:0:0:0, 3:0:0:0:0, 2:0:0:0:0, 4:2:0:0:0, 5:4:0:0:1, 3:0:0:0:0, 4:0:0:0:1, 2:0:0:0:0, 6:0:0:0:1, 3:0:0:0:0, 3:0:0:0:0, 2:0:0:0:0, 5:3:0:0:1, 2:0:0:0:0, 5:2:0:0:2, 6:1:0:0:1, 5:2:0:0:1, 6:0:0:0:1, 5:0:0:0:2, 2:0:0:0:0, 4:1:0:0:1, 5:1:0:0:0, 3:0:0:0:0, 3:0:0:0:0, 5:3:0:0:1, 3:0:0:0:0, 2:0:0:0:0, 3:2:0:0:0, 5:1:0:0:0, 3:0:0:0:0, 6:0:0:0:1, 2:0:0:0:0, 4:0:0:0:0, 2:0:0:0:0, 3:0:0:0:0, 2:0:0:0:0, 137:22:0:0:14
F dorian (1b), 0:0:0:0:0, 1:0:0:0:0, 1:0:0:0:0, 1:0:0:0:0, 1:0:0:0:0, 1:0:0:0:0, 3:0:0:0:1, 1:0:0:0:0, 3:0:0:0:1, 0:0:0:0:0, 3:0:0:0:1, 1:0:0:0:0, 0:0:0:0:0, 1:0:0:0:0, 3:0:0:0:1, 1:0:0:0:0, 3:0:0:0:0, 4:0:0:0:0, 2:0:0:0:1, 5:0:0:0:0, 3:0:0:0:2, 1:0:0:0:4, 1:0:0:0:1, 3:0:0:0:0, 0:0:0:0:0, 2:0:0:0:0, 3:0:0:0:1, 1:0:0:0:0, 1:0:0:0:0, 1:0:0:0:0, 2:0:0:0:0, 2:0:0:0:0, 4:0:0:0:3, 0:0:0:0:0, 1:0:0:0:0, 1:0:0:0:0, 0:0:0:0:0, 1:0:0:0:0, 62:0:0:0:16
G dorian (1#), 2:0:0:0:0, 3:1:0:0:0, 3:1:0:0:0, 3:2:0:0:0, 2:2:0:0:0, 3:2:0:0:0, 5:4:0:0:2, 3:1:0:0:0, 4:1:0:0:1, 2:0:0:0:0, 5:0:0:0:1, 3:3:0:0:0, 2:0:0:0:0, 2:1:0:0:0, 5:3:0:0:1, 2:1:0:0:0, 5:8:0:0:2, 6:1:0:0:2, 4:2:0:0:1, 5:1:0:0:1, 5:1:0:0:2, 1:0:0:0:0, 3:1:0:0:1, 5:2:0:0:0, 2:0:0:0:0, 3:1:0:0:0, 5:3:0:0:1, 3:1:0:0:0, 2:2:0:0:0, 3:2:0:0:0, 4:1:0:0:0, 3:1:0:0:0, 3:0:0:0:2, 2:0:0:0:0, 3:0:0:0:2, 2:1:0:0:0, 2:0:0:0:0, 2:1:0:0:0, 122:51:0:0:19
F phrygian (1b), 1:0:0:0:0, 1:0:0:0:0, 1:0:0:0:0, 1:0:0:0:0, 1:0:0:0:0, 1:0:0:0:0, 1:0:0:0:1, 1:0:0:0:0, 3:0:0:0:1, 0:0:0:0:0, 4:0:0:0:0, 1:0:0:0:0, 2:0:0:0:0, 1:0:0:0:0, 2:0:0:0:1, 1:0:0:0:0, 3:0:0:0:0, 2:0:0:0:0, 2:0:0:0:1, 5:0:0:0:0, 3:0:0:0:2, 2:0:0:0:4, 3:0:0:0:1, 3:0:0:0:0, 1:0:0:0:0, 2:0:0:0:0, 2:0:0:0:1, 1:0:0:0:0, 1:0:0:0:0, 0:0:0:0:0, 2:0:0:0:0, 2:0:0:0:0, 6:0:0:0:3, 1:0:0:0:0, 2:0:0:0:0, 1:0:0:0:0, 1:0:0:0:0, 1:0:0:0:0, 68:0:0:0:15
G phrygian (1#), 0:0:0:0:0, 1:0:0:0:0, 1:0:0:0:0, 1:0:0:0:0, 1:0:0:0:0, 1:0:0:0:0, 3:0:0:0:1, 1:0:0:0:0, 3:0:0:0:1, 0:0:0:0:0, 3:0:0:0:1, 1:0:0:0:0, 0:0:0:0:0, 1:0:0:0:0, 3:0:0:0:1, 1:0:0:0:0, 3:0:0:0:0, 4:0:0:0:0, 2:0:0:0:1, 5:0:0:0:0, 3:0:0:0:2, 1:0:0:0:4, 1:0:0:0:1, 3:0:0:0:0, 0:0:0:0:0, 2:0:0:0:0, 3:0:0:0:1, 1:0:0:0:0, 1:0:0:0:0, 1:0:0:0:0, 2:0:0:0:0, 2:0:0:0:0, 4:0:0:0:3, 0:0:0:0:0, 1:0:0:0:0, 1:0:0:0:0, 0:0:0:0:0, 1:0:0:0:0, 62:0:0:0:16
F lydian (1b), 0:0:0:0:0, 1:0:0:0:0, 1:0:0:0:0, 1:0:0:0:0, 1:0:0:0:0, 1:0:0:0:0, 3:0:0:0:1, 1:0:0:0:0, 3:0:0:0:1, 0:0:0:0:0, 3:0:0:0:1, 1:0:0:0:0, 0:0:0:0:0, 1:0:0:0:0, 3:0:0:0:1, 1:0:0:0:0, 3:0:0:0:0, 4:0:0:0:0, 2:0:0:0:1, 5:0:0:0:0, 3:0:0:0:2, 1:0:0:0:4, 1:0:0:0:1, 3:0:0:0:0, 0:0:0:0:0, 2:0:0:0:0, 3:0:0:0:1, 1:0:0:0:0, 1:0:0:0:0, 1:0:0:0:0, 2:0:0:0:0, 2:0:0:0:0, 4:0:0:0:3, 0:0:0:0:0, 1:0:0:0:0, 1:0:0:0:0, 0:0:0:0:0, 1:0:0:0:0, 62:0:0:0:16
G lydian (1#), 2:0:0:0:0, 3:1:0:0:0, 3:1:0:0:0, 3:2:0:0:0, 2:2:0:0:0, 3:2:0:0:0, 5:4:0:0:2, 3:1:0:0:0, 4:1:0:0:1, 2:0:0:0:0, 5:0:0:0:1, 3:3:0:0:0, 2:0:0:0:0, 2:1:0:0:0, 5:3:0:0:1, 2:1:0:0:0, 5:8:0:0:2, 6:1:0:0:2, 4:2:0:0:1, 5:1:0:0:1, 5:1:0:0:2, 1:0:0:0:0, 3:1:0:0:1, 5:2:0:0:0, 2:0:0:0:0, 3:1:0:0:0, 5:3:0:0:1, 3:1:0:0:0, 2:2:0:0:0, 3:2:0:0:0, 4:1:0:0:0, 3:1:0:0:0, 3:0:0:0:2, 2:0:0:0:0, 3:0:0:0:2, 2:1:0:0:0, 2:0:0:0:0, 2:1:0:0:0, 122:51:0:0:19
F mixolydian (1b), 1:0:0:0:0, 1:0:0:0:0, 1:0:0:0:0, 1:0:0:0:0, 1:0:0:0:0, 1:0:0:0:0, 1:0:0:0:1, 1:0:0:0:0, 3:0:0:0:1, 0:0:0:0:0, 4:0:0:0:0, 1:0:0:0:0, 2:0:0:0:0, 1:0:0:0:0, 2:0:0:0:1, 1:0:0:0:0, 3:0:0:0:0, 2:0:0:0:0, 2:0:0:0:1, 5:0:0:0:0, 3:0:0:0:2, 2:0:0:0:4, 3:0:0:0:1, 3:0:0:0:0, 1:0:0:0:0, 2:0:0:0:0, 2:0:0:0:1, 1:0:0:0:0, 1:0:0:0:0, 0:0:0:0:0, 2:0:0:0:0, 2:0:0:0:0, 6:0:0:0:3, 1:0:0:0:0, 2:0:0:0:0, 1:0:0:0:0, 1:0:0:0:0, 1:0:0:0:0, 68:0:0:0:15
G mixolydian (1#), 0:0:0:0:0, 1:0:0:0:0, 1:0:0:0:0, 1:0:0:0:0, 1:0:0:0:0, 1:0:0:0:0, 3:0:0:0:1, 1:0:0:0:0, 3:0:0:0:1, 0:0:0:0:0, 3:0:0:0:1, 1:0:0:0:0, 0:0:0:0:0, 1:0:0:0:0, 3:0:0:0:1, 1:0:0:0:0, 3:0:0:0:0, 4:0:0:0:0, 2:0:0:0:1, 5:0:0:0:0, 3:0:0:0:2, 1:0:0:0:4, 1:0:0:0:1, 3:0:0:0:0, 0:0:0:0:0, 2:0:0:0:0, 3:0:0:0:1, 1:0:0:0:0, 1:0:0:0:0, 1:0:0:0:0, 2:0:0:0:0, 2:0:0:0:0, 4:0:0:0:3, 0:0:0:0:0, 1:0:0:0:0, 1:0:0:0:0, 0:0:0:0:0, 1:0:0:0:0, 62:0:0:0:16
F aeolian (1b), 1:0:0:0:0, 0:0:0:0:0, 0:0:0:0:0, 0:0:0:0:0, 0:0:0:0:0, 2:0:0:0:0, 2:0:0:0:1, 0:0:0:0:0, 2:0:0:0:1, 0:0:0:0:0, 4:0:0:0:1, 0:0:0:0:0, 1:0:0:0:0, 0:0:0:0:0, 3:0:0:0:1, 0:0:0:0:0, 2:0:0:0:0, 3:0:0:0:0, 3:0:0:0:1, 4:0:0:0:0, 2:0:0:0:2, 1:0:0:0:4, 2:0:0:0:1, 2:0:0:0:0, 1:0:0:0:0, 1:0:0:0:0, 3:0:0:0:1, 0:0:0:0:0, 0:0:0:0:0, 1:0:0:0:0, 3:0:0:0:0, 1:0:0:0:0, 5:0:0:0:3, 0:0:0:0:0, 2:0:0:0:0, 0:0:0:0:0, 1:0:0:0:0, 0:0:0:0:0, 52:0:0:0:16
G aeolian (1#), 1:0:0:0:0, 2:0:0:0:0, 2:0:0:0:0, 2:0:0:0:0, 1:0:0:0:0, 2:0:0:0:0, 4:0:0:0:1, 2:0:0:0:0, 3:0:0:0:1, 1:0:0:0:0, 4:0:0:0:1, 2:0:0:0:0, 1:0:0:0:0, 1:0:0:0:0, 4:0:0:0:1, 1:0:0:0:0, 4:0:0:0:0, 5:0:0:0:0, 3:0:0:0:1, 4:0:0:0:0, 4:0:0:0:2, 2:0:0:0:4, 2:0:0:0:1, 4:0:0:0:0, 1:0:0:0:0, 2:0:0:0:0, 4:0:0:0:1, 2:0:0:0:0, 1:0:0:0:0, 2:0:0:0:0, 3:0:0:0:0, 2:0:0:0:0, 4:0:0:0:2, 1:0:0:0:0, 2:0:0:0:0, 1:0:0:0:0, 1:0:0:0:0, 1:0:0:0:0, 88:0:0:0:15
F locrian (1b), 1:0:0:0:0, 1:0:0:0:0, 1:0:0:0:0, 1:0:0:0:0, 1:0:0:0:0, 2:0:0:0:0, 2:0:0:0:0, 1:0:0:0:0, 4:1:0:0:1, 1:0:0:0:0, 4:0:0:0:0, 1:0:0:0:0, 2:0:0:0:0, 2:0:0:0:0, 3:0:0:0:0, 1:0:0:0:0, 4:0:0:0:0, 3:0:0:0:0, 3:1:0:0:1, 6:0:0:0:0, 4:0:0:0:0, 3:4:0:0:4, 4:0:0:0:0, 2:1:0:0:1, 1:0:0:0:0, 2:0:0:0:0, 3:0:0:0:0, 1:0:0:0:0, 1:0:0:0:0, 1:0:0:0:0, 3:0:0:0:0, 3:0:0:0:0, 7:2:0:0:2, 2:0:0:0:0, 3:0:0:0:0, 1:0:0:0:0, 2:0:0:0:0, 1:0:0:0:0, 88:9:0:0:9
G locrian (1#), 1:0:0:0:0, 0:0:0:0:0, 0:0:0:0:0, 0:0:0:0:0, 0:0:0:0:0, 2:0:0:0:0, 2:0:0:0:1, 0:0:0:0:0, 2:0:0:0:1, 0:0:0:0:0, 4:0:0:0:1, 0:0:0:0:0, 1:0:0:0:0, 0:0:0:0:0, 3:0:0:0:1, 0:0:0:0:0, 2:0:0:0:0, 3:0:0:0:0, 3:0:0:0:1, 4:0:0:0:0, 2:0:0:0:2, 1:0:0:0:4, 2:0:0:0:1, 2:0:0:0:0, 1:0:0:0:0, 1:0:0:0:0, 3:0:0:0:1, 0:0:0:0:0, 0:0:0:0:0, 1:0:0:0:0, 3:0:0:0:0, 1:0:0:0:0, 5:0:0:0:3, 0:0:0:0:0, 2:0:0:0:0, 0:0:0:0:0, 1:0:0:0:0, 0:0:0:0:0, 52:0:0:0:16
Bb major (2b), 1:0:0:0:0, 1:0:0:0:0, 1:0:0:0:0, 1:0:0:0:0, 1:0:0:0:0, 1:0:0:0:0, 1:0:0:0:1, 1:0:0:0:0, 3:0:0:0:1, 0:0:0:0:0, 4:0:0:0:0, 1:0:0:0:0, 2:0:0:0:0, 1:0:0:0:0, 2:0:0:0:1, 1:0:0:0:0, 3:0:0:0:0, 2:0:0:0:0, 2:0:0:0:1, 5:0:0:0:0, 3:0:0:0:2, 2:0:0:0:4, 3:0:0:0:1, 3:0:0:0:0, 1:0:0:0:0, 2:0:0:0:0, 2:0:0:0:1, 1:0:0:0:0, 1:0:0:0:0, 0:0:0:0:0, 2:0:0:0:0, 2:0:0:0:0, 6:0:0:0:3, 1:0:0:0:0, 2:0:0:0:0, 1:0:0:0:0, 1:0:0:0:0, 1:0:0:0:0, 68:0:0:0:15
D major (2#), 2:0:0:0:0, 3:1:0:0:0, 3:1:0:0:0, 3:2:0:0:0, 2:2:0:0:0, 3:2:0:0:0, 5:4:0:0:2, 3:1:0:0:0, 4:1:0:0:1, 2:0:0:0:0, 5:0:0:0:1, 3:3:0:0:0, 2:0:0:0:0, 2:1:0:0:0, 5:3:0:0:1, 2:1:0:0:0, 5:8:0:0:2, 6:1:0:0:2, 4:2:0:0:1, 5:1:0:0:1, 5:1:0:0:2, 1:0:0:0:0, 3:1:0:0:1, 5:2:0:0:0, 2:0:0:0:0, 3:1:0:0:0, 5:3:0:0:1, 3:1:0:0:0, 2:2:0:0:0, 3:2:0:0:0, 4:1:0:0:0, 3:1:0:0:0, 3:0:0:0:2, 2:0:0:0:0, 3:0:0:0:2, 2:1:0:0:0, 2:0:0:0:0, 2:1:0:0:0, 122:51:0:0:19
G minor (2b), 2:0:0:0:0, 2:0:0:0:0, 2:0:0:0:0, 2:0:0:0:0, 1:0:0:0:0, 2:0:0:0:0, 2:0:0:0:1, 2:0:0:0:0, 3:1:0:0:1, 1:0:0:0:0, 5:0:0:0:0, 2:0:0:0:0, 3:0:0:0:0, 1:0:0:0:0, 3:0:0:0:1, 1:0:0:0:0, 4:0:0:0:2, 3:0:0:0:0, 3:1:0:0:1, 4:0:0:0:0, 4:2:0:0:2, 3:4:0:0:0, 4:0:0:0:1, 4:0:0:0:0, 2:0:0:0:0, 2:0:0:0:0, 3:0:0:0:1, 2:0:0:0:0, 1:0:0:0:0, 1:0:0:0:0, 3:0:0:0:0, 2:0:0:0:0, 6:2:0:0:1, 2:0:0:0:0, 3:0:0:0:0, 1:0:0:0:0, 2:0:0:0:0, 1:0:0:0:0, 94:10:0:0:11
B minor (2#), 2:0:0:0:1, 3:1:0:0:3, 3:1:0:0:3, 3:1:0:0:3, 2:1:0:0:1, 4:2:0:0:5, 6:4:0:0:7, 3:1:0:0:2, 5:1:0:0:1, 3:0:0:0:2, 5:0:0:0:3, 3:1:0:0:2, 2:0:0:0:2, 3:1:0:0:1, 6:3:0:0:5, 2:1:0:0:1, 6:8:0:0:9, 7:1:0:0:4, 5:2:0:0:4, 6:1:0:0:1, 6:1:0:0:2, 2:0:0:0:4, 4:1:0:0:3, 5:2:0:0:3, 2:0:0:0:1, 3:1:0:0:1, 6:3:0:0:5, 3:1:0:0:2, 2:1:0:0:1, 4:2:0:0:7, 5:1:0:0:2, 4:1:0:0:1, 4:0:0:0:1, 3:0:0:0:3, 4:0:0:0:2, 2:1:0:0:1, 3:0:0:0:2, 2:1:0:0:1, 143:46:0:0:102
G minor mel (2b), 2:0:0:0:0, 1:0:0:0:0, 1:0:0:0:0, 1:0:0:0:0, 0:0:0:0:0, 3:0:0:0:0, 3:0:0:0:1, 1:0:0:0:0, 2:1:0:0:1, 1:0:0:0:0, 5:1:0:0:1, 1:0:0:0:0, 2:0:0:0:0, 0:0:0:0:0, 4:0:0:0:1, 0:0:0:0:0, 3:0:0:0:2, 4:0:0:0:0, 4:1:0:0:1, 3:0:0:0:0, 3:2:0:0:2, 2:4:0:0:0, 3:0:0:0:1, 3:0:0:0:0, 2:0:0:0:0, 1:0:0:0:0, 4:0:0:0:1, 1:0:0:0:0, 0:0:0:0:0, 2:0:0:0:0, 4:0:0:0:0, 1:0:0:0:0, 5:2:0:0:1, 1:0:0:0:0, 3:0:0:0:0, 0:0:0:0:0, 2:0:0:0:0, 0:0:0:0:0, 78:11:0:0:12
B minor mel (2#), 3:0:0:0:1, 4:1:0:0:3, 4:1:0:0:3, 4:1:0:0:3, 3:1:0:0:1, 5:2:0:0:5, 7:4:0:0:7, 4:1:0:0:2, 6:1:0:0:1, 4:0:0:0:2, 6:0:0:0:3, 4:1:0:0:2, 3:0:0:0:2, 4:1:0:0:1, 6:3:0:0:5, 3:1:0:0:1, 7:8:0:0:9, 7:1:0:0:4, 4:2:0:0:4, 7:1:0:0:1, 7:1:0:0:2, 3:0:0:0:4, 5:1:0:0:3, 6:2:0:0:3, 3:0:0:0:1, 4:1:0:0:1, 7:3:0:0:5, 4:1:0:0:2, 3:1:0:0:1, 5:2:0:0:7, 6:1:0:0:2, 5:1:0:0:1, 5:0:0:0:1, 3:0:0:0:3, 5:0:0:0:2, 3:1:0:0:1, 4:0:0:0:2, 3:1:0:0:1, 176:46:0:0:102
Bb major blues (2b), 2:0:0:0:1, 1:0:0:0:0, 1:0:0:0:0, 1:0:0:0:0, 1:0:0:0:0, 3:0:0:0:1, 3:0:0:0:0, 1:0:0:0:0, 4:1:0:0:3, 2:0:0:0:0, 6:0:0:0:1, 1:0:0:0:0, 3:0:0:0:1, 2:0:0:0:0, 4:0:0:0:0, 1:0:0:0:0, 5:0:0:0:1, 5:0:0:0:0, 4:1:0:0:2, 6:1:0:0:3, 5:2:0:0:4, 4:4:0:0:4, 5:0:0:0:3, 3:1:0:0:1, 2:0:0:0:2, 2:0:0:0:1, 4:0:0:0:0, 1:0:0:0:0, 2:0:0:0:0, 3:0:0:0:0, 4:0:0:0:1, 4:0:0:0:2, 7:2:0:0:4, 3:0:0:0:0, 4:0:0:0:2, 1:0:0:0:0, 3:0:0:0:4, 1:0:0:0:0, 114:12:0:0:41
D major blues (2#), 3:0:0:0:0, 4:1:0:0:0, 4:1:0:0:0, 4:2:0:0:0, 3:2:0:0:0, 4:2:0:0:0, 6:4:0:0:2, 4:1:0:0:0, 5:1:0:0:1, 3:0:0:0:0, 6:0:0:0:1, 4:3:0:0:0, 3:0:0:0:0, 3:1:0:0:0, 5:3:0:0:1, 3:1:0:0:0, 6:8:0:0:2, 6:1:0:0:2, 4:2:0:0:0, 7:1:0:0:1, 6:1:0:0:0, 3:0:0:0:0, 4:1:0:0:1, 6:2:0:0:1, 3:0:0:0:0, 4:1:0:0:0, 6:3:0:0:1, 4:1:0:0:0, 3:2:0:0:0, 4:2:0:0:0, 5:1:0:0:0, 4:1:0:0:0, 6:0:0:0:2, 2:0:0:0:0, 4:0:0:0:2, 3:1:0:0:0, 3:0:0:0:0, 3:1:0:0:0, 160:51:0:0:17
G minor blues (2b), 2:0:0:0:1, 1:0:0:0:0, 1:0:0:0:0, 1:0:0:0:0, 1:0:0:0:0, 3:0:0:0:1, 3:0:0:0:0, 1:0:0:0:0, 4:1:0:0:3, 2:0:0:0:0, 6:0:0:0:1, 1:0:0:0:0, 3:0:0:0:1, 2:0:0:0:0, 4:0:0:0:0, 1:0:0:0:0, 5:0:0:0:1, 5:0:0:0:0, 4:1:0:0:2, 6:1:0:0:3, 5:2:0:0:4, 4:4:0:0:4, 5:0:0:0:3, 3:1:0:0:1, 2:0:0:0:2, 2:0:0:0:1, 4:0:0:0:0, 1:0:0:0:0, 2:0:0:0:0, 3:0:0:0:0, 4:0:0:0:1, 4:0:0:0:2, 7:2:0:0:4, 3:0:0:0:0, 4:0:0:0:2, 1:0:0:0:0, 3:0:0:0:4, 1:0:0:0:0, 114:12:0:0:41
B minor blues (2#), 3:0:0:0:0, 4:1:0:0:0, 4:1:0:0:0, 4:2:0:0:0, 3:2:0:0:0, 4:2:0:0:0, 6:4:0:0:2, 4:1:0:0:0, 5:1:0:0:1, 3:0:0:0:0, 6:0:0:0:1, 4:3:0:0:0, 3:0:0:0:0, 3:1:0:0:0, 5:3:0:0:1, 3:1:0:0:0, 6:8:0:0:2, 6:1:0:0:2, 4:2:0:0:0, 7:1:0:0:1, 6:1:0:0:0, 3:0:0:0:0, 4:1:0:0:1, 6:2:0:0:1, 3:0:0:0:0, 4:1:0:0:0, 6:3:0:0:1, 4:1:0:0:0, 3:2:0:0:0, 4:2:0:0:0, 5:1:0:0:0, 4:1:0:0:0, 6:0:0:0:2, 2:0:0:0:0, 4:0:0:0:2, 3:1:0:0:0, 3:0:0:0:0, 3:1:0:0:0, 160:51:0:0:17
Bb dorian (2b), 1:0:0:0:0, 0:0:0:0:0, 0:0:0:0:0, 0:0:0:0:0, 0:0:0:0:0, 2:0:0:0:0, 2:0:0:0:1, 0:0:0:0:0, 2:0:0:0:1, 0:0:0:0:0, 4:0:0:0:1, 0:0:0:0:0, 1:0:0:0:0, 0:0:0:0:0, 3:0:0:0:1, 0:0:0:0:0, 2:0:0:0:0, 3:0:0:0:0, 3:0:0:0:1, 4:0:0:0:0, 2:0:0:0:2, 1:0:0:0:4, 2:0:0:0:1, 2:0:0:0:0, 1:0:0:0:0, 1:0:0:0:0, 3:0:0:0:1, 0:0:0:0:0, 0:0:0:0:0, 1:0:0:0:0, 3:0:0:0:0, 1:0:0:0:0, 5:0:0:0:3, 0:0:0:0:0, 2:0:0:0:0, 0:0:0:0:0, 1:0:0:0:0, 0:0:0:0:0, 52:0:0:0:16
D dorian (2#), 3:0:0:0:0, 4:1:0:0:0, 4:1:0:0:0, 4:2:0:0:0, 3:2:0:0:0, 4:2:0:0:0, 6:4:0:0:2, 4:1:0:0:0, 5:1:0:0:1, 3:0:0:0:0, 6:0:0:0:1, 4:3:0:0:0, 3:0:0:0:0, 3:1:0:0:0, 5:3:0:0:1, 3:1:0:0:0, 6:8:0:0:2, 6:1:0:0:2, 3:2:0:0:0, 6:1:0:0:1, 6:1:0:0:0, 2:0:0:0:0, 4:1:0:0:1, 6:2:0:0:1, 3:0:0:0:0, 4:1:0:0:0, 6:3:0:0:1, 4:1:0:0:0, 3:2:0:0:0, 4:2:0:0:0, 5:1:0:0:0, 4:1:0:0:0, 4:0:0:0:2, 2:0:0:0:0, 4:0:0:0:2, 3:1:0:0:0, 3:0:0:0:0, 3:1:0:0:0, 155:51:0:0:17
Bb phrygian (2b), 1:0:0:0:0, 1:0:0:0:0, 1:0:0:0:0, 1:0:0:0:0, 1:0:0:0:0, 2:0:0:0:0, 2:0:0:0:0, 1:0:0:0:0, 4:1:0:0:1, 1:0:0:0:0, 4:0:0:0:0, 1:0:0:0:0, 2:0:0:0:0, 2:0:0:0:0, 3:0:0:0:0, 1:0:0:0:0, 4:0:0:0:0, 3:0:0:0:0, 3:1:0:0:1, 6:0:0:0:0, 4:0:0:0:0, 3:4:0:0:4, 4:0:0:0:0, 2:1:0:0:1, 1:0:0:0:0, 2:0:0:0:0, 3:0:0:0:0, 1:0:0:0:0, 1:0:0:0:0, 1:0:0:0:0, 3:0:0:0:0, 3:0:0:0:0, 7:2:0:0:2, 2:0:0:0:0, 3:0:0:0:0, 1:0:0:0:0, 2:0:0:0:0, 1:0:0:0:0, 88:9:0:0:9
D phrygian (2#), 1:0:0:0:0, 2:0:0:0:0, 2:0:0:0:0, 2:0:0:0:0, 1:0:0:0:0, 2:0:0:0:0, 4:0:0:0:1, 2:0:0:0:0, 3:0:0:0:1, 1:0:0:0:0, 4:0:0:0:1, 2:0:0:0:0, 1:0:0:0:0, 1:0:0:0:0, 4:0:0:0:1, 1:0:0:0:0, 4:0:0:0:0, 5:0:0:0:0, 3:0:0:0:1, 4:0:0:0:0, 4:0:0:0:2, 2:0:0:0:4, 2:0:0:0:1, 4:0:0:0:0, 1:0:0:0:0, 2:0:0:0:0, 4:0:0:0:1, 2:0:0:0:0, 1:0:0:0:0, 2:0:0:0:0, 3:0:0:0:0, 2:0:0:0:0, 4:0:0:0:2, 1:0:0:0:0, 2:0:0:0:0, 1:0:0:0:0, 1:0:0:0:0, 1:0:0:0:0, 88:0:0:0:15
Bb lydian (2b), 1:0:0:0:0, 0:0:0:0:0, 0:0:0:0:0, 0:0:0:0:0, 0:0:0:0:0, 2:0:0:0:0, 2:0:0:0:1, 0:0:0:0:0, 2:0:0:0:1, 0:0:0:0:0, 4:0:0:0:1, 0:0:0:0:0, 1:0:0:0:0, 0:0:0:0:0, 3:0:0:0:1, 0:0:0:0:0, 2:0:0:0:0, 3:0:0:0:0, 3:0:0:0:1, 4:0:0:0:0, 2:0:0:0:2, 1:0:0:0:4, 2:0:0:0:1, 2:0:0:0:0, 1:0:0:0:0, 1:0:0:0:0, 3:0:0:0:1, 0:0:0:0:0, 0:0:0:0:0, 1:0:0:0:0, 3:0:0:0:0, 1:0:0:0:0, 5:0:0:0:3, 0:0:0:0:0, 2:0:0:0:0, 0:0:0:0:0, 1:0:0:0:0, 0:0:0:0:0, 52:0:0:0:16
D lydian (2#), 3:0:0:0:0, 4:1:0:0:0, 4:1:0:0:0, 4:2:0:0:0, 3:2:0:0:0, 4:2:0:0:0, 6:4:0:0:2, 4:1:0:0:0, 5:1:0:0:1, 3:0:0:0:0, 6:0:0:0:1, 4:3:0:0:0, 3:0:0:0:0, 3:1:0:0:0, 5:3:0:0:1, 3:1:0:0:0, 6:8:0:0:2, 6:1:0:0:2, 3:2:0:0:0, 6:1:0:0:1, 6:1:0:0:0, 2:0:0:0:0, 4:1:0:0:1, 6:2:0:0:1, 3:0:0:0:0, 4:1:0:0:0, 6:3:0:0:1, 4:1:0:0:0, 3:2:0:0:0, 4:2:0:0:0, 5:1:0:0:0, 4:1:0:0:0, 4:0:0:0:2, 2:0:0:0:0, 4:0:0:0:2, 3:1:0:0:0, 3:0:0:0:0, 3:1:0:0:0, 155:51:0:0:17
Bb mixolydian (2b), 1:0:0:0:0, 1:0:0:0:0, 1:0:0:0:0, 1:0:0:0:0, 1:0:0:0:0, 2:0:0:0:0, 2:0:0:0:0, 1:0:0:0:0, 4:1:0:0:1, 1:0:0:0:0, 4:0:0:0:0, 1:0:0:0:0, 2:0:0:0:0, 2:0:0:0:0, 3:0:0:0:0, 1:0:0:0:0, 4:0:0:0:0, 3:0:0:0:0, 3:1:0:0:1, 6:0:0:0:0, 4:0:0:0:0, 3:4:0:0:4, 4:0:0:0:0, 2:1:0:0:1, 1:0:0:0:0, 2:0:0:0:0, 3:0:0:0:0, 1:0:0:0:0, 1:0:0:0:0, 1:0:0:0:0, 3:0:0:0:0, 3:0:0:0:0, 7:2:0:0:2, 2:0:0:0:0, 3:0:0:0:0, 1:0:0:0:0, 2:0:0:0:0, 1:0:0:0:0, 88:9:0:0:9
D mixolydian (2#), 1:0:0:0:0, 2:0:0:0:0, 2:0:0:0:0, 2:0:0:0:0, 1:0:0:0:0, 2:0:0:0:0, 4:0:0:0:1, 2:0:0:0:0, 3:0:0:0:1, 1:0:0:0:0, 4:0:0:0:1, 2:0:0:0:0, 1:0:0:0:0, 1:0:0:0:0, 4:0:0:0:1, 1:0:0:0:0, 4:0:0:0:0, 5:0:0:0:0, 3:0:0:0:1, 4:0:0:0:0, 4:0:0:0:2, 2:0:0:0:4, 2:0:0:0:1, 4:0:0:0:0, 1:0:0:0:0, 2:0:0:0:0, 4:0:0:0:1, 2:0:0:0:0, 1:0:0:0:0, 2:0:0:0:0, 3:0:0:0:0, 2:0:0:0:0, 4:0:0:0:2, 1:0:0:0:0, 2:0:0:0:0, 1:0:0:0:0, 1:0:0:0:0, 1:0:0:0:0, 88:0:0:0:15
Bb aeolian (2b), 1:0:0:0:0, 1:0:0:0:0, 1:0:0:0:0, 1:0:0:0:0, 1:0:0:0:0, 1:0:0:0:0, 1:0:0:0:1, 1:0:0:0:0, 3:0:0:0:1, 0:0:0:0:0, 4:0:0:0:0, 1:0:0:0:0, 2:0:0:0:0, 1:0:0:0:0, 2:0:0:0:1, 1:0:0:0:0, 3:0:0:0:0, 2:0:0:0:0, 2:0:0:0:1, 5:0:0:0:0, 3:0:0:0:2, 2:0:0:0:4, 3:0:0:0:1, 3:0:0:0:0, 1:0:0:0:0, 2:0:0:0:0, 2:0:0:0:1, 1:0:0:0:0, 1:0:0:0:0, 0:0:0:0:0, 2:0:0:0:0, 2:0:0:0:0, 6:0:0:0:3, 1:0:0:0:0, 2:0:0:0:0, 1:0:0:0:0, 1:0:0:0:0, 1:0:0:0:0, 68:0:0:0:15
D aeolian (2#), 2:0:0:0:0, 3:1:0:0:0, 3:1:0:0:0, 3:2:0:0:0, 2:2:0:0:0, 3:2:0:0:0, 5:4:0:0:2, 3:1:0:0:0, 4:1:0:0:1, 2:0:0:0:0, 5:0:0:0:1, 3:3:0:0:0, 2:0:0:0:0, 2:1:0:0:0, 5:3:0:0:1, 2:1:0:0:0, 5:8:0:0:2, 6:1:0:0:2, 4:2:0:0:1, 5:1:0:0:1, 5:1:0:0:2, 1:0:0:0:0, 3:1:0:0:1, 5:2:0:0:0, 2:0:0:0:0, 3:1:0:0:0, 5:3:0:0:1, 3:1:0:0:0, 2:2:0:0:0, 3:2:0:0:0, 4:1:0:0:0, 3:1:0:0:0, 3:0:0:0:2, 2:0:0:0:0, 3:0:0:0:2, 2:1:0:0:0, 2:0:0:0:0, 2:1:0:0:0, 122:51:0:0:19
Bb locrian (2b), 2:0:0:0:1, 1:0:0:0:0, 1:0:0:0:0, 1:0:0:0:0, 1:0:0:0:0, 2:0:0:0:1, 2:0:0:0:0, 1:0:0:0:0, 4:1:0:0:3, 2:0:0:0:0, 5:0:0:0:1, 1:0:0:0:0, 3:0:0:0:1, 2:0:0:0:0, 3:0:0:0:0, 1:0:0:0:0, 5:0:0:0:1, 4:0:0:0:0, 3:1:0:0:2, 6:1:0:0:3, 5:0:0:0:2, 4:4:0:0:4, 5:0:0:0:3, 2:1:0:0:1, 2:0:0:0:2, 2:0:0:0:1, 3:0:0:0:0, 1:0:0:0:0, 2:0:0:0:0, 2:0:0:0:0, 3:0:0:0:1, 4:0:0:0:2, 7:2:0:0:4, 3:0:0:0:0, 4:0:0:0:2, 1:0:0:0:0, 3:0:0:0:4, 1:0:0:0:0, 104:10:0:0:39
D locrian (2#), 0:0:0:0:0, 1:0:0:0:0, 1:0:0:0:0, 1:0:0:0:0, 1:0:0:0:0, 1:0:0:0:0, 3:0:0:0:1, 1:0:0:0:0, 3:0:0:0:1, 0:0:0:0:0, 3:0:0:0:1, 1:0:0:0:0, 0:0:0:0:0, 1:0:0:0:0, 3:0:0:0:1, 1:0:0:0:0, 3:0:0:0:0, 4:0:0:0:0, 2:0:0:0:1, 5:0:0:0:0, 3:0:0:0:2, 1:0:0:0:4, 1:0:0:0:1, 3:0:0:0:0, 0:0:0:0:0, 2:0:0:0:0, 3:0:0:0:1, 1:0:0:0:0, 1:0:0:0:0, 1:0:0:0:0, 2:0:0:0:0, 2:0:0:0:0, 4:0:0:0:3, 0:0:0:0:0, 1:0:0:0:0, 1:0:0:0:0, 0:0:0:0:0, 1:0:0:0:0, 62:0:0:0:16
Eb major (3b), 1:0:0:0:0, 1:0:0:0:0, 1:0:0:0:0, 1:0:0:0:0, 1:0:0:0:0, 2:0:0:0:0, 2:0:0:0:0, 1:0:0:0:0, 4:1:0:0:1, 1:0:0:0:0, 4:0:0:0:0, 1:0:0:0:0, 2:0:0:0:0, 2:0:0:0:0, 3:0:0:0:0, 1:0:0:0:0, 4:0:0:0:0, 3:0:0:0:0, 3:1:0:0:1, 6:0:0:0:0, 4:0:0:0:0, 3:4:0:0:4, 4:0:0:0:0, 2:1:0:0:1, 1:0:0:0:0, 2:0:0:0:0, 3:0:0:0:0, 1:0:0:0:0, 1:0:0:0:0, 1:0:0:0:0, 3:0:0:0:0, 3:0:0:0:0, 7:2:0:0:2, 2:0:0:0:0, 3:0:0:0:0, 1:0:0:0:0, 2:0:0:0:0, 1:0:0:0:0, 88:9:0:0:9
A major (3#), 3:0:0:0:0, 4:1:0:0:0, 4:1:0:0:0, 4:2:0:0:0, 3:2:0:0:0, 4:2:0:0:0, 6:4:0:0:2, 4:1:0:0:0, 5:1:0:0:1, 3:0:0:0:0, 6:0:0:0:1, 4:3:0:0:0, 3:0:0:0:0, 3:1:0:0:0, 5:3:0:0:1, 3:1:0:0:0, 6:8:0:0:2, 6:1:0:0:2, 3:2:0:0:0, 6:1:0:0:1, 6:1:0:0:0, 2:0:0:0:0, 4:1:0:0:1, 6:2:0:0:1, 3:0:0:0:0, 4:1:0:0:0, 6:3:0:0:1, 4:1:0:0:0, 3:2:0:0:0, 4:2:0:0:0, 5:1:0:0:0, 4:1:0:0:0, 4:0:0:0:2, 2:0:0:0:0, 4:0:0:0:2, 3:1:0:0:0, 3:0:0:0:0, 3:1:0:0:0, 155:51:0:0:17
C minor (3b), 0:0:0:0:0, 2:0:0:0:0, 2:0:0:0:0, 2:0:0:0:0, 2:0:0:0:0, 1:0:0:0:0, 3:0:0:0:1, 2:0:0:0:0, 5:1:0:0:1, 1:0:0:0:0, 3:0:0:0:1, 2:0:0:0:0, 1:0:0:0:0, 3:0:0:0:0, 3:0:0:0:1, 2:0:0:0:0, 5:0:0:0:0, 4:0:0:0:0, 2:1:0:0:1, 7:0:0:0:2, 5:0:0:0:0, 3:4:0:0:4, 3:0:0:0:1, 3:1:0:0:0, 0:0:0:0:0, 3:0:0:0:0, 3:0:0:0:1, 2:0:0:0:0, 2:0:0:0:0, 1:0:0:0:0, 2:0:0:0:0, 4:0:0:0:0, 6:2:0:0:3, 2:0:0:0:0, 2:0:0:0:0, 2:0:0:0:0, 1:0:0:0:0, 2:0:0:0:0, 98:9:0:0:16
F# minor (3#), 3:0:0:0:2, 5:1:0:0:5, 5:1:0:0:5, 5:2:0:0:6, 4:2:0:0:4, 4:2:0:0:6, 6:4:0:0:11, 5:1:0:0:6, 6:1:0:0:3, 3:0:0:0:4, 6:1:1:0:4, 5:3:0:0:8, 4:0:0:0:4, 4:1:0:0:3, 5:3:0:0:8, 4:1:0:0:3, 7:8:0:0:12, 6:1:0:0:8, 3:2:0:0:6, 7:1:0:0:4, 7:1:0:0:5, 3:0:0:0:4, 5:1:0:0:4, 7:2:0:0:4, 3:0:0:0:5, 5:1:0:0:5, 6:3:0:0:9, 5:1:0:0:5, 4:2:0:0:4, 4:2:0:0:10, 5:1:0:0:4, 5:1:0:0:3, 5:0:0:0:0, 3:0:0:0:3, 4:0:0:0:2, 4:1:0:0:5, 3:0:0:0:7, 4:1:0:0:3, 179:52:1:0:194
C minor mel (3b), 0:0:0:0:0, 2:0:0:0:0, 2:0:0:0:0, 2:0:0:0:0, 2:0:0:0:0, 0:0:0:0:0, 2:0:0:0:1, 2:0:0:0:0, 4:1:0:0:1, 0:0:0:0:0, 3:0:0:0:1, 2:0:0:0:0, 1:0:0:0:0, 2:0:0:0:0, 2:0:0:0:1, 2:0:0:0:0, 4:0:0:0:0, 3:0:0:0:0, 1:1:0:0:1, 6:0:0:0:2, 4:2:0:0:2, 2:4:0:0:4, 2:0:0:0:1, 4:1:0:0:0, 0:0:0:0:0, 3:0:0:0:0, 2:0:0:0:1, 2:0:0:0:0, 2:0:0:0:0, 0:0:0:0:0, 1:0:0:0:0, 3:0:0:0:0, 5:2:0:0:3, 1:0:0:0:0, 1:0:0:0:0, 2:0:0:0:0, 0:0:0:0:0, 2:0:0:0:0, 78:11:0:0:18
F# minor mel (3#), 4:0:0:0:2, 5:1:0:0:5, 5:1:0:0:5, 5:2:0:0:6, 4:2:0:0:4, 4:1:0:0:5, 6:2:0:0:9, 5:1:0:0:6, 5:1:0:0:3, 4:0:0:0:4, 7:1:1:0:4, 5:3:0:0:8, 5:0:0:0:4, 4:1:0:0:3, 5:2:0:0:7, 4:1:0:0:3, 8:8:0:0:12, 7:1:0:0:8, 3:1:0:0:5, 6:1:0:0:4, 8:1:0:0:5, 4:0:0:0:4, 6:1:0:0:4, 7:2:0:0:4, 4:0:0:0:5, 5:1:0:0:5, 6:2:0:0:8, 5:1:0:0:5, 5:2:0:0:4, 5:2:0:0:10, 5:1:0:0:4, 6:1:0:0:3, 4:0:0:0:0, 4:0:0:0:3, 5:0:0:0:2, 4:1:0:0:5, 4:0:0:0:7, 4:1:0:0:3, 192:46:1:0:188
Eb major blues (3b), 3:0:0:0:1, 2:0:0:0:2, 2:0:0:0:2, 2:0:0:0:3, 2:0:0:0:1, 3:0:0:0:1, 3:0:0:0:0, 2:0:0:0:3, 5:1:0:0:5, 3:0:0:0:0, 6:0:0:0:2, 2:0:0:0:3, 4:0:0:0:4, 3:0:0:0:2, 3:0:0:0:1, 2:0:0:0:2, 6:0:0:0:2, 4:0:0:0:1, 3:1:0:0:2, 7:1:0:0:5, 6:2:0:0:6, 5:4:0:0:6, 6:0:0:0:6, 4:1:0:0:4, 3:0:0:0:2, 3:0:0:0:2, 4:0:0:0:2, 2:0:0:0:2, 3:0:0:0:1, 3:0:0:0:0, 4:0:0:0:2, 5:0:0:0:3, 8:2:0:0:8, 3:0:0:0:1, 5:0:0:0:2, 2:0:0:0:2, 4:0:0:0:4, 2:0:0:0:1, 139:12:0:0:96
A major blues (3#), 4:0:0:0:0, 4:1:0:0:0, 4:1:0:0:0, 4:2:0:0:0, 3:2:0:0:0, 4:2:0:0:2, 6:4:0:0:5, 4:1:0:0:0, 5:1:0:0:0, 4:0:0:0:0, 7:0:0:0:0, 4:3:0:0:0, 4:0:0:0:0, 3:1:0:0:0, 5:3:0:0:3, 3:1:0:0:0, 7:8:0:0:2, 7:1:0:0:2, 4:2:0:0:2, 6:1:0:0:0, 7:1:0:0:0, 4:0:0:0:0, 5:1:0:0:1, 6:2:0:0:1, 4:0:0:0:0, 4:1:0:0:0, 6:3:0:0:3, 4:1:0:0:0, 4:2:0:0:0, 5:2:0:0:2, 5:1:0:0:1, 5:1:0:0:0, 5:0:0:0:1, 3:0:0:0:0, 5:0:0:0:2, 3:1:0:0:0, 4:0:0:0:0, 3:1:0:0:0, 174:51:0:0:27
C minor blues (3b), 3:0:0:0:1, 2:0:0:0:2, 2:0:0:0:2, 2:0:0:0:3, 2:0:0:0:1, 3:0:0:0:1, 3:0:0:0:0, 2:0:0:0:3, 5:1:0:0:5, 3:0:0:0:0, 6:0:0:0:2, 2:0:0:0:3, 4:0:0:0:4, 3:0:0:0:2, 3:0:0:0:1, 2:0:0:0:2, 6:0:0:0:2, 4:0:0:0:1, 3:1:0:0:2, 7:1:0:0:5, 6:2:0:0:6, 5:4:0:0:6, 6:0:0:0:6, 4:1:0:0:4, 3:0:0:0:2, 3:0:0:0:2, 4:0:0:0:2, 2:0:0:0:2, 3:0:0:0:1, 3:0:0:0:0, 4:0:0:0:2, 5:0:0:0:3, 8:2:0:0:8, 3:0:0:0:1, 5:0:0:0:2, 2:0:0:0:2, 4:0:0:0:4, 2:0:0:0:1, 139:12:0:0:96
F# minor blues (3#), 4:0:0:0:0, 4:1:0:0:0, 4:1:0:0:0, 4:2:0:0:0, 3:2:0:0:0, 4:2:0:0:2, 6:4:0:0:5, 4:1:0:0:0, 5:1:0:0:0, 4:0:0:0:0, 7:0:0:0:0, 4:3:0:0:0, 4:0:0:0:0, 3:1:0:0:0, 5:3:0:0:3, 3:1:0:0:0, 7:8:0:0:2, 7:1:0:0:2, 4:2:0:0:2, 6:1:0:0:0, 7:1:0:0:0, 4:0:0:0:0, 5:1:0:0:1, 6:2:0:0:1, 4:0:0:0:0, 4:1:0:0:0, 6:3:0:0:3, 4:1:0:0:0, 4:2:0:0:0, 5:2:0:0:2, 5:1:0:0:1, 5:1:0:0:0, 5:0:0:0:1, 3:0:0:0:0, 5:0:0:0:2, 3:1:0:0:0, 4:0:0:0:0, 3:1:0:0:0, 174:51:0:0:27
Eb dorian (3b), 1:0:0:0:0, 1:0:0:0:0, 1:0:0:0:0, 1:0:0:0:0, 1:0:0:0:0, 1:0:0:0:0, 1:0:0:0:1, 1:0:0:0:0, 3:0:0:0:1, 0:0:0:0:0, 4:0:0:0:0, 1:0:0:0:0, 2:0:0:0:0, 1:0:0:0:0, 2:0:0:0:1, 1:0:0:0:0, 3:0:0:0:0, 2:0:0:0:0, 2:0:0:0:1, 5:0:0:0:0, 3:0:0:0:2, 2:0:0:0:4, 3:0:0:0:1, 3:0:0:0:0, 1:0:0:0:0, 2:0:0:0:0, 2:0:0:0:1, 1:0:0:0:0, 1:0:0:0:0, 0:0:0:0:0, 2:0:0:0:0, 2:0:0:0:0, 6:0:0:0:3, 1:0:0:0:0, 2:0:0:0:0, 1:0:0:0:0, 1:0:0:0:0, 1:0:0:0:0, 68:0:0:0:15
A dorian (3#), 4:0:0:0:0, 4:1:0:0:0, 4:1:0:0:0, 4:2:0:0:0, 3:2:0:0:0, 4:1:0:0:1, 6:2:0:0:3, 4:1:0:0:0, 4:1:0:0:0, 4:0:0:0:0, 7:0:0:0:0, 4:3:0:0:0, 4:0:0:0:0, 3:1:0:0:0, 5:2:0:0:2, 3:1:0:0:0, 7:8:0:0:2, 7:1:0:0:2, 3:1:0:0:1, 5:1:0:0:0, 7:1:0:0:0, 3:0:0:0:0, 5:1:0:0:1, 6:2:0:0:1, 4:0:0:0:0, 4:1:0:0:0, 6:2:0:0:2, 4:1:0:0:0, 4:2:0:0:0, 5:2:0:0:2, 5:1:0:0:1, 5:1:0:0:0, 3:0:0:0:1, 3:0:0:0:0, 5:0:0:0:2, 3:1:0:0:0, 4:0:0:0:0, 3:1:0:0:0, 168:45:0:0:21
Eb phrygian (3b), 2:0:0:0:1, 1:0:0:0:0, 1:0:0:0:0, 1:0:0:0:0, 1:0:0:0:0, 2:0:0:0:1, 2:0:0:0:0, 1:0:0:0:0, 4:1:0:0:3, 2:0:0:0:0, 5:0:0:0:1, 1:0:0:0:0, 3:0:0:0:1, 2:0:0:0:0, 3:0:0:0:0, 1:0:0:0:0, 5:0:0:0:1, 4:0:0:0:0, 3:1:0:0:2, 6:1:0:0:3, 5:0:0:0:2, 4:4:0:0:4, 5:0:0:0:3, 2:1:0:0:1, 2:0:0:0:2, 2:0:0:0:1, 3:0:0:0:0, 1:0:0:0:0, 2:0:0:0:0, 2:0:0:0:0, 3:0:0:0:1, 4:0:0:0:2, 7:2:0:0:4, 3:0:0:0:0, 4:0:0:0:2, 1:0:0:0:0, 3:0:0:0:4, 1:0:0:0:0, 104:10:0:0:39
A phrygian (3#), 2:0:0:0:0, 3:1:0:0:0, 3:1:0:0:0, 3:2:0:0:0, 2:2:0:0:0, 3:2:0:0:0, 5:4:0:0:2, 3:1:0:0:0, 4:1:0:0:1, 2:0:0:0:0, 5:0:0:0:1, 3:3:0:0:0, 2:0:0:0:0, 2:1:0:0:0, 5:3:0:0:1, 2:1:0:0:0, 5:8:0:0:2, 6:1:0:0:2, 4:2:0:0:1, 5:1:0:0:1, 5:1:0:0:2, 1:0:0:0:0, 3:1:0:0:1, 5:2:0:0:0, 2:0:0:0:0, 3:1:0:0:0, 5:3:0:0:1, 3:1:0:0:0, 2:2:0:0:0, 3:2:0:0:0, 4:1:0:0:0, 3:1:0:0:0, 3:0:0:0:2, 2:0:0:0:0, 3:0:0:0:2, 2:1:0:0:0, 2:0:0:0:0, 2:1:0:0:0, 122:51:0:0:19
Eb lydian (3b), 1:0:0:0:0, 1:0:0:0:0, 1:0:0:0:0, 1:0:0:0:0, 1:0:0:0:0, 1:0:0:0:0, 1:0:0:0:1, 1:0:0:0:0, 3:0:0:0:1, 0:0:0:0:0, 4:0:0:0:0, 1:0:0:0:0, 2:0:0:0:0, 1:0:0:0:0, 2:0:0:0:1, 1:0:0:0:0, 3:0:0:0:0, 2:0:0:0:0, 2:0:0:0:1, 5:0:0:0:0, 3:0:0:0:2, 2:0:0:0:4, 3:0:0:0:1, 3:0:0:0:0, 1:0:0:0:0, 2:0:0:0:0, 2:0:0:0:1, 1:0:0:0:0, 1:0:0:0:0, 0:0:0:0:0, 2:0:0:0:0, 2:0:0:0:0, 6:0:0:0:3, 1:0:0:0:0, 2:0:0:0:0, 1:0:0:0:0, 1:0:0:0:0, 1:0:0:0:0, 68:0:0:0:15
A lydian (3#), 4:0:0:0:0, 4:1:0:0:0, 4:1:0:0:0, 4:2:0:0:0, 3:2:0:0:0, 4:1:0:0:1, 6:2:0:0:3, 4:1:0:0:0, 4:1:0:0:0, 4:0:0:0:0, 7:0:0:0:0, 4:3:0:0:0, 4:0:0:0:0, 3:1:0:0:0, 5:2:0:0:2, 3:1:0:0:0, 7:8:0:0:2, 7:1:0:0:2, 3:1:0:0:1, 5:1:0:0:0, 7:1:0:0:0, 3:0:0:0:0, 5:1:0:0:1, 6:2:0:0:1, 4:0:0:0:0, 4:1:0:0:0, 6:2:0:0:2, 4:1:0:0:0, 4:2:0:0:0, 5:2:0:0:2, 5:1:0:0:1, 5:1:0:0:0, 3:0:0:0:1, 3:0:0:0:0, 5:0:0:0:2, 3:1:0:0:0, 4:0:0:0:0, 3:1:0:0:0, 168:45:0:0:21
Eb mixolydian (3b), 2:0:0:0:1, 1:0:0:0:0, 1:0:0:0:0, 1:0:0:0:0, 1:0:0:0:0, 2:0:0:0:1, 2:0:0:0:0, 1:0:0:0:0, 4:1:0:0:3, 2:0:0:0:0, 5:0:0:0:1, 1:0:0:0:0, 3:0:0:0:1, 2:0:0:0:0, 3:0:0:0:0, 1:0:0:0:0, 5:0:0:0:1, 4:0:0:0:0, 3:1:0:0:2, 6:1:0:0:3, 5:0:0:0:2, 4:4:0:0:4, 5:0:0:0:3, 2:1:0:0:1, 2:0:0:0:2, 2:0:0:0:1, 3:0:0:0:0, 1:0:0:0:0, 2:0:0:0:0, 2:0:0:0:0, 3:0:0:0:1, 4:0:0:0:2, 7:2:0:0:4, 3:0:0:0:0, 4:0:0:0:2, 1:0:0:0:0, 3:0:0:0:4, 1:0:0:0:0, 104:10:0:0:39
A mixolydian (3#), 2:0:0:0:0, 3:1:0:0:0, 3:1:0:0:0, 3:2:0:0:0, 2:2:0:0:0, 3:2:0:0:0, 5:4:0:0:2, 3:1:0:0:0, 4:1:0:0:1, 2:0:0:0:0, 5:0:0:0:1, 3:3:0:0:0, 2:0:0:0:0, 2:1:0:0:0, 5:3:0:0:1, 2:1:0:0:0, 5:8:0:0:2, 6:1:0:0:2, 4:2:0:0:1, 5:1:0:0:1, 5:1:0:0:2, 1:0:0:0:0, 3:1:0:0:1, 5:2:0:0:0, 2:0:0:0:0, 3:1:0:0:0, 5:3:0:0:1, 3:1:0:0:0, 2:2:0:0:0, 3:2:0:0:0, 4:1:0:0:0, 3:1:0:0:0, 3:0:0:0:2, 2:0:0:0:0, 3:0:0:0:2, 2:1:0:0:0, 2:0:0:0:0, 2:1:0:0:0, 122:51:0:0:19
Eb aeolian (3b), 1:0:0:0:0, 1:0:0:0:0, 1:0:0:0:0, 1:0:0:0:0, 1:0:0:0:0, 2:0:0:0:0, 2:0:0:0:0, 1:0:0:0:0, 4:1:0:0:1, 1:0:0:0:0, 4:0:0:0:0, 1:0:0:0:0, 2:0:0:0:0, 2:0:0:0:0, 3:0:0:0:0, 1:0:0:0:0, 4:0:0:0:0, 3:0:0:0:0, 3:1:0:0:1, 6:0:0:0:0, 4:0:0:0:0, 3:4:0:0:4, 4:0:0:0:0, 2:1:0:0:1, 1:0:0:0:0, 2:0:0:0:0, 3:0:0:0:0, 1:0:0:0:0, 1:0:0:0:0, 1:0:0:0:0, 3:0:0:0:0, 3:0:0:0:0, 7:2:0:0:2, 2:0:0:0:0, 3:0:0:0:0, 1:0:0:0:0, 2:0:0:0:0, 1:0:0:0:0, 88:9:0:0:9
A aeolian (3#), 3:0:0:0:0, 4:1:0:0:0, 4:1:0:0:0, 4:2:0:0:0, 3:2:0:0:0, 4:2:0:0:0, 6:4:0:0:2, 4:1:0:0:0, 5:1:0:0:1, 3:0:0:0:0, 6:0:0:0:1, 4:3:0:0:0, 3:0:0:0:0, 3:1:0:0:0, 5:3:0:0:1, 3:1:0:0:0, 6:8:0:0:2, 6:1:0:0:2, 3:2:0:0:0, 6:1:0:0:1, 6:1:0:0:0, 2:0:0:0:0, 4:1:0:0:1, 6:2:0:0:1, 3:0:0:0:0, 4:1:0:0:0, 6:3:0:0:1, 4:1:0:0:0, 3:2:0:0:0, 4:2:0:0:0, 5:1:0:0:0, 4:1:0:0:0, 4:0:0:0:2, 2:0:0:0:0, 4:0:0:0:2, 3:1:0:0:0, 3:0:0:0:0, 3:1:0:0:0, 155:51:0:0:17
Eb locrian (3b), 3:0:0:0:1, 2:0:0:0:2, 2:0:0:0:2, 2:0:0:0:3, 2:0:0:0:1, 3:0:0:0:1, 3:0:0:0:0, 2:0:0:0:3, 5:1:0:0:5, 3:0:0:0:0, 6:0:0:0:2, 2:0:0:0:3, 4:0:0:0:4, 3:0:0:0:2, 2:0:0:0:1, 2:0:0:0:2, 6:0:0:0:2, 4:0:0:0:1, 3:1:0:0:2, 7:1:0:0:5, 6:0:0:0:4, 5:4:0:0:6, 6:0:0:0:6, 3:1:0:0:4, 3:0:0:0:2, 3:0:0:0:2, 4:0:0:0:2, 2:0:0:0:2, 3:0:0:0:1, 3:0:0:0:0, 4:0:0:0:2, 5:0:0:0:3, 8:2:0:0:8, 3:0:0:0:1, 5:0:0:0:2, 2:0:0:0:2, 4:0:0:0:4, 2:0:0:0:1, 137:10:0:0:94
A locrian (3#), 1:0:0:0:0, 2:0:0:0:0, 2:0:0:0:0, 2:0:0:0:0, 1:0:0:0:0, 2:0:0:0:0, 4:0:0:0:1, 2:0:0:0:0, 3:0:0:0:1, 1:0:0:0:0, 4:0:0:0:1, 2:0:0:0:0, 1:0:0:0:0, 1:0:0:0:0, 4:0:0:0:1, 1:0:0:0:0, 4:0:0:0:0, 5:0:0:0:0, 3:0:0:0:1, 4:0:0:0:0, 4:0:0:0:2, 2:0:0:0:4, 2:0:0:0:1, 4:0:0:0:0, 1:0:0:0:0, 2:0:0:0:0, 4:0:0:0:1, 2:0:0:0:0, 1:0:0:0:0, 2:0:0:0:0, 3:0:0:0:0, 2:0:0:0:0, 4:0:0:0:2, 1:0:0:0:0, 2:0:0:0:0, 1:0:0:0:0, 1:0:0:0:0, 1:0:0:0:0, 88:0:0:0:15
Ab major (4b), 2:0:0:0:1, 1:0:0:0:0, 1:0:0:0:0, 1:0:0:0:0, 1:0:0:0:0, 2:0:0:0:1, 2:0:0:0:0, 1:0:0:0:0, 4:1:0:0:3, 2:0:0:0:0, 5:0:0:0:1, 1:0:0:0:0, 3:0:0:0:1, 2:0:0:0:0, 3:0:0:0:0, 1:0:0:0:0, 5:0:0:0:1, 4:0:0:0:0, 3:1:0:0:2, 6:1:0:0:3, 5:0:0:0:2, 4:4:0:0:4, 5:0:0:0:3, 2:1:0:0:1, 2:0:0:0:2, 2:0:0:0:1, 3:0:0:0:0, 1:0:0:0:0, 2:0:0:0:0, 2:0:0:0:0, 3:0:0:0:1, 4:0:0:0:2, 7:2:0:0:4, 3:0:0:0:0, 4:0:0:0:2, 1:0:0:0:0, 3:0:0:0:4, 1:0:0:0:0, 104:10:0:0:39
E major (4#), 4:0:0:0:0, 4:1:0:0:0, 4:1:0:0:0, 4:2:0:0:0, 3:2:0:0:0, 4:1:0:0:1, 6:2:0:0:3, 4:1:0:0:0, 4:1:0:0:0, 4:0:0:0:0, 7:0:0:0:0, 4:3:0:0:0, 4:0:0:0:0, 3:1:0:0:0, 5:2:0:0:2, 3:1:0:0:0, 7:8:0:0:2, 7:1:0:0:2, 3:1:0:0:1, 5:1:0:0:0, 7:1:0:0:0, 3:0:0:0:0, 5:1:0:0:1, 6:2:0:0:1, 4:0:0:0:0, 4:1:0:0:0, 6:2:0:0:2, 4:1:0:0:0, 4:2:0:0:0, 5:2:0:0:2, 5:1:0:0:1, 5:1:0:0:0, 3:0:0:0:1, 3:0:0:0:0, 5:0:0:0:2, 3:1:0:0:0, 4:0:0:0:0, 3:1:0:0:0, 168:45:0:0:21
F minor (4b), 2:0:0:0:0, 0:0:0:0:0, 0:0:0:0:0, 0:0:0:0:0, 0:0:0:0:0, 3:0:0:0:0, 3:0:0:0:0, 0:0:0:0:0, 3:1:0:0:1, 2:0:0:0:0, 5:1:0:0:1, 0:0:0:0:0, 2:0:0:0:0, 1:0:0:0:0, 4:0:0:0:0, 0:0:0:0:0, 4:0:0:0:0, 5:0:0:0:0, 4:1:0:0:1, 5:1:0:0:1, 4:0:0:0:0, 3:4:0:0:4, 4:0:0:0:0, 1:1:0:0:1, 2:0:0:0:0, 1:0:0:0:0, 4:0:0:0:0, 0:0:0:0:0, 1:0:0:0:0, 3:0:0:0:0, 4:0:0:0:0, 3:0:0:0:0, 6:2:0:0:2, 2:0:0:0:0, 4:0:0:0:0, 0:0:0:0:0, 3:0:0:0:0, 0:0:0:0:0, 88:11:0:0:11
C# minor (4#), 5:0:0:0:2, 4:1:0:0:8, 4:1:0:0:10, 4:2:0:0:8, 3:2:0:0:7, 5:1:0:0:7, 6:2:0:0:7, 4:1:0:0:10, 4:1:0:0:4, 3:0:0:0:3, 8:0:0:0:6, 4:3:0:0:12, 5:0:0:0:3, 3:1:0:0:6, 5:2:0:0:5, 3:1:0:0:6, 7:8:0:0:16, 7:1:0:0:5, 4:1:0:0:5, 5:1:0:0:5, 7:1:0:0:6, 3:0:0:0:5, 6:1:0:0:6, 6:2:0:0:7, 5:0:0:0:6, 4:1:0:0:8, 6:2:0:0:6, 4:1:0:0:8, 4:2:0:0:5, 5:2:0:0:9, 6:1:0:0:4, 5:1:0:0:6, 4:0:0:0:5, 2:0:0:0:3, 6:0:0:0:5, 3:1:0:0:6, 5:0:0:0:5, 3:1:0:0:6, 177:45:0:0:241
F minor mel (4b), 1:0:0:0:0, 0:0:0:0:0, 0:0:0:0:0, 0:0:0:0:0, 0:0:0:0:0, 3:0:0:0:0, 3:0:0:0:0, 0:0:0:0:0, 3:1:0:0:1, 1:0:0:0:0, 4:1:0:0:1, 0:0:0:0:0, 1:0:0:0:0, 1:0:0:0:0, 4:0:0:0:0, 0:0:0:0:0, 3:0:0:0:0, 4:0:0:0:0, 4:1:0:0:1, 5:0:0:0:0, 3:0:0:0:0, 2:4:0:0:4, 3:0:0:0:0, 1:1:0:0:1, 1:0:0:0:0, 1:0:0:0:0, 4:0:0:0:0, 0:0:0:0:0, 0:0:0:0:0, 2:0:0:0:0, 4:0:0:0:0, 2:0:0:0:0, 6:2:0:0:2, 1:0:0:0:0, 3:0:0:0:0, 0:0:0:0:0, 2:0:0:0:0, 0:0:0:0:0, 72:10:0:0:10
C# minor mel (4#), 5:0:0:0:2, 4:1:0:0:8, 4:1:0:0:10, 4:1:0:0:7, 3:1:0:0:6, 6:1:0:0:7, 7:2:0:0:7, 4:1:0:0:10, 5:1:0:0:4, 4:0:0:0:3, 8:0:0:0:6, 4:1:0:0:10, 5:0:0:0:3, 4:1:0:0:6, 6:2:0:0:5, 3:1:0:0:6, 8:8:0:0:16, 8:1:0:0:5, 5:1:0:0:5, 6:1:0:0:5, 8:1:0:0:6, 4:0:0:0:5, 7:1:0:0:6, 6:2:0:0:7, 5:0:0:0:6, 4:1:0:0:8, 7:2:0:0:6, 4:1:0:0:8, 4:1:0:0:4, 6:2:0:0:9, 7:1:0:0:4, 6:1:0:0:6, 5:0:0:0:5, 3:0:0:0:3, 7:0:0:0:5, 3:1:0:0:6, 6:0:0:0:5, 3:1:0:0:6, 198:40:0:0:236
Ab major blues (4b), 4:0:0:0:1, 3:0:0:0:2, 3:0:0:0:2, 3:0:0:0:3, 3:0:0:0:1, 4:0:0:0:1, 4:0:0:0:1, 3:0:0:0:3, 6:1:0:0:4, 4:0:0:0:1, 7:0:0:0:2, 3:0:0:0:3, 5:0:0:0:4, 4:0:0:0:3, 4:0:0:0:3, 3:0:0:0:2, 7:0:0:0:4, 5:0:0:0:3, 4:1:0:0:4, 8:1:0:0:7, 7:0:0:0:7, 5:4:0:0:11, 7:0:0:0:8, 4:1:0:0:4, 4:0:0:0:2, 4:0:0:0:1, 5:0:0:0:3, 3:0:0:0:2, 4:0:0:0:1, 4:0:0:0:3, 5:0:0:0:3, 6:0:0:0:4, 8:2:0:0:9, 4:0:0:0:4, 6:0:0:0:3, 3:0:0:0:2, 5:0:0:0:5, 3:0:0:0:1, 174:10:0:0:127
E major blues (4#), 4:0:0:0:0, 4:1:0:0:1, 4:1:0:0:1, 4:2:0:0:2, 3:2:0:0:2, 5:2:0:0:2, 7:4:0:0:4, 4:1:0:0:1, 6:1:0:0:1, 5:0:0:0:0, 7:0:0:0:0, 4:3:0:0:3, 4:0:0:0:0, 4:1:0:0:1, 6:3:0:0:3, 3:1:0:0:1, 8:8:0:0:8, 8:1:0:0:1, 5:2:0:0:2, 7:1:0:0:1, 8:1:0:0:1, 4:0:0:0:0, 6:1:0:0:1, 6:2:0:0:2, 4:0:0:0:0, 4:1:0:0:1, 7:3:0:0:3, 4:1:0:0:1, 4:2:0:0:2, 6:2:0:0:2, 6:1:0:0:1, 6:1:0:0:1, 5:0:0:0:0, 4:0:0:0:0, 6:0:0:0:0, 3:1:0:0:1, 5:0:0:0:0, 3:1:0:0:1, 193:51:0:0:51
F minor blues (4b), 4:0:0:0:1, 3:0:0:0:2, 3:0:0:0:2, 3:0:0:0:3, 3:0:0:0:1, 4:0:0:0:1, 4:0:0:0:1, 3:0:0:0:3, 6:1:0:0:4, 4:0:0:0:1, 7:0:0:0:2, 3:0:0:0:3, 5:0:0:0:4, 4:0:0:0:3, 4:0:0:0:3, 3:0:0:0:2, 7:0:0:0:4, 5:0:0:0:3, 4:1:0:0:4, 8:1:0:0:7, 7:0:0:0:7, 5:4:0:0:11, 7:0:0:0:8, 4:1:0:0:4, 4:0:0:0:2, 4:0:0:0:1, 5:0:0:0:3, 3:0:0:0:2, 4:0:0:0:1, 4:0:0:0:3, 5:0:0:0:3, 6:0:0:0:4, 8:2:0:0:9, 4:0:0:0:4, 6:0:0:0:3, 3:0:0:0:2, 5:0:0:0:5, 3:0:0:0:1, 174:10:0:0:127
C# minor blues (4#), 4:0:0:0:0, 4:1:0:0:1, 4:1:0:0:1, 4:2:0:0:2, 3:2:0:0:2, 5:2:0:0:2, 7:4:0:0:4, 4:1:0:0:1, 6:1:0:0:1, 5:0:0:0:0, 7:0:0:0:0, 4:3:0:0:3, 4:0:0:0:0, 4:1:0:0:1, 6:3:0:0:3, 3:1:0:0:1, 8:8:0:0:8, 8:1:0:0:1, 5:2:0:0:2, 7:1:0:0:1, 8:1:0:0:1, 4:0:0:0:0, 6:1:0:0:1, 6:2:0:0:2, 4:0:0:0:0, 4:1:0:0:1, 7:3:0:0:3, 4:1:0:0:1, 4:2:0:0:2, 6:2:0:0:2, 6:1:0:0:1, 6:1:0:0:1, 5:0:0:0:0, 4:0:0:0:0, 6:0:0:0:0, 3:1:0:0:1, 5:0:0:0:0, 3:1:0:0:1, 193:51:0:0:51
Ab dorian (4b), 1:0:0:0:0, 1:0:0:0:0, 1:0:0:0:0, 1:0:0:0:0, 1:0:0:0:0, 2:0:0:0:0, 2:0:0:0:0, 1:0:0:0:0, 4:1:0:0:1, 1:0:0:0:0, 4:0:0:0:0, 1:0:0:0:0, 2:0:0:0:0, 2:0:0:0:0, 3:0:0:0:0, 1:0:0:0:0, 4:0:0:0:0, 3:0:0:0:0, 3:1:0:0:1, 6:0:0:0:0, 4:0:0:0:0, 3:4:0:0:4, 4:0:0:0:0, 2:1:0:0:1, 1:0:0:0:0, 2:0:0:0:0, 3:0:0:0:0, 1:0:0:0:0, 1:0:0:0:0, 1:0:0:0:0, 3:0:0:0:0, 3:0:0:0:0, 7:2:0:0:2, 2:0:0:0:0, 3:0:0:0:0, 1:0:0:0:0, 2:0:0:0:0, 1:0:0:0:0, 88:9:0:0:9
E dorian (4#), 4:0:0:0:0, 4:1:0:0:1, 4:1:0:0:1, 4:1:0:0:1, 3:1:0:0:1, 5:1:0:0:1, 7:2:0:0:2, 4:1:0:0:1, 5:1:0:0:1, 5:0:0:0:0, 7:0:0:0:0, 4:1:0:0:1, 4:0:0:0:0, 4:1:0:0:1, 6:2:0:0:2, 3:1:0:0:1, 8:8:0:0:8, 8:1:0:0:1, 4:1:0:0:1, 6:1:0:0:1, 8:1:0:0:1, 4:0:0:0:0, 6:1:0:0:1, 6:2:0:0:2, 4:0:0:0:0, 4:1:0:0:1, 7:2:0:0:2, 4:1:0:0:1, 4:1:0:0:1, 6:2:0:0:2, 6:1:0:0:1, 6:1:0:0:1, 4:0:0:0:0, 4:0:0:0:0, 6:0:0:0:0, 3:1:0:0:1, 5:0:0:0:0, 3:1:0:0:1, 189:40:0:0:40
Ab phrygian (4b), 3:0:0:0:1, 2:0:0:0:2, 2:0:0:0:2, 2:0:0:0:3, 2:0:0:0:1, 3:0:0:0:1, 3:0:0:0:0, 2:0:0:0:3, 5:1:0:0:5, 3:0:0:0:0, 6:0:0:0:2, 2:0:0:0:3, 4:0:0:0:4, 3:0:0:0:2, 2:0:0:0:1, 2:0:0:0:2, 6:0:0:0:2, 4:0:0:0:1, 3:1:0:0:2, 7:1:0:0:5, 6:0:0:0:4, 5:4:0:0:6, 6:0:0:0:6, 3:1:0:0:4, 3:0:0:0:2, 3:0:0:0:2, 4:0:0:0:2, 2:0:0:0:2, 3:0:0:0:1, 3:0:0:0:0, 4:0:0:0:2, 5:0:0:0:3, 8:2:0:0:8, 3:0:0:0:1, 5:0:0:0:2, 2:0:0:0:2, 4:0:0:0:4, 2:0:0:0:1, 137:10:0:0:94
E phrygian (4#), 3:0:0:0:0, 4:1:0:0:0, 4:1:0:0:0, 4:2:0:0:0, 3:2:0:0:0, 4:2:0:0:0, 6:4:0:0:2, 4:1:0:0:0, 5:1:0:0:1, 3:0:0:0:0, 6:0:0:0:1, 4:3:0:0:0, 3:0:0:0:0, 3:1:0:0:0, 5:3:0:0:1, 3:1:0:0:0, 6:8:0:0:2, 6:1:0:0:2, 3:2:0:0:0, 6:1:0:0:1, 6:1:0:0:0, 2:0:0:0:0, 4:1:0:0:1, 6:2:0:0:1, 3:0:0:0:0, 4:1:0:0:0, 6:3:0:0:1, 4:1:0:0:0, 3:2:0:0:0, 4:2:0:0:0, 5:1:0:0:0, 4:1:0:0:0, 4:0:0:0:2, 2:0:0:0:0, 4:0:0:0:2, 3:1:0:0:0, 3:0:0:0:0, 3:1:0:0:0, 155:51:0:0:17
Ab lydian (4b), 1:0:0:0:0, 1:0:0:0:0, 1:0:0:0:0, 1:0:0:0:0, 1:0:0:0:0, 2:0:0:0:0, 2:0:0:0:0, 1:0:0:0:0, 4:1:0:0:1, 1:0:0:0:0, 4:0:0:0:0, 1:0:0:0:0, 2:0:0:0:0, 2:0:0:0:0, 3:0:0:0:0, 1:0:0:0:0, 4:0:0:0:0, 3:0:0:0:0, 3:1:0:0:1, 6:0:0:0:0, 4:0:0:0:0, 3:4:0:0:4, 4:0:0:0:0, 2:1:0:0:1, 1:0:0:0:0, 2:0:0:0:0, 3:0:0:0:0, 1:0:0:0:0, 1:0:0:0:0, 1:0:0:0:0, 3:0:0:0:0, 3:0:0:0:0, 7:2:0:0:2, 2:0:0:0:0, 3:0:0:0:0, 1:0:0:0:0, 2:0:0:0:0, 1:0:0:0:0, 88:9:0:0:9
E lydian (4#), 4:0:0:0:0, 4:1:0:0:1, 4:1:0:0:1, 4:1:0:0:1, 3:1:0:0:1, 5:1:0:0:1, 7:2:0:0:2, 4:1:0:0:1, 5:1:0:0:1, 5:0:0:0:0, 7:0:0:0:0, 4:1:0:0:1, 4:0:0:0:0, 4:1:0:0:1, 6:2:0:0:2, 3:1:0:0:1, 8:8:0:0:8, 8:1:0:0:1, 4:1:0:0:1, 6:1:0:0:1, 8:1:0:0:1, 4:0:0:0:0, 6:1:0:0:1, 6:2:0:0:2, 4:0:0:0:0, 4:1:0:0:1, 7:2:0:0:2, 4:1:0:0:1, 4:1:0:0:1, 6:2:0:0:2, 6:1:0:0:1, 6:1:0:0:1, 4:0:0:0:0, 4:0:0:0:0, 6:0:0:0:0, 3:1:0:0:1, 5:0:0:0:0, 3:1:0:0:1, 189:40:0:0:40
Ab mixolydian (4b), 3:0:0:0:1, 2:0:0:0:2, 2:0:0:0:2, 2:0:0:0:3, 2:0:0:0:1, 3:0:0:0:1, 3:0:0:0:0, 2:0:0:0:3, 5:1:0:0:5, 3:0:0:0:0, 6:0:0:0:2, 2:0:0:0:3, 4:0:0:0:4, 3:0:0:0:2, 2:0:0:0:1, 2:0:0:0:2, 6:0:0:0:2, 4:0:0:0:1, 3:1:0:0:2, 7:1:0:0:5, 6:0:0:0:4, 5:4:0:0:6, 6:0:0:0:6, 3:1:0:0:4, 3:0:0:0:2, 3:0:0:0:2, 4:0:0:0:2, 2:0:0:0:2, 3:0:0:0:1, 3:0:0:0:0, 4:0:0:0:2, 5:0:0:0:3, 8:2:0:0:8, 3:0:0:0:1, 5:0:0:0:2, 2:0:0:0:2, 4:0:0:0:4, 2:0:0:0:1, 137:10:0:0:94
E mixolydian (4#), 3:0:0:0:0, 4:1:0:0:0, 4:1:0:0:0, 4:2:0:0:0, 3:2:0:0:0, 4:2:0:0:0, 6:4:0:0:2, 4:1:0:0:0, 5:1:0:0:1, 3:0:0:0:0, 6:0:0:0:1, 4:3:0:0:0, 3:0:0:0:0, 3:1:0:0:0, 5:3:0:0:1, 3:1:0:0:0, 6:8:0:0:2, 6:1:0:0:2, 3:2:0:0:0, 6:1:0:0:1, 6:1:0:0:0, 2:0:0:0:0, 4:1:0:0:1, 6:2:0:0:1, 3:0:0:0:0, 4:1:0:0:0, 6:3:0:0:1, 4:1:0:0:0, 3:2:0:0:0, 4:2:0:0:0, 5:1:0:0:0, 4:1:0:0:0, 4:0:0:0:2, 2:0:0:0:0, 4:0:0:0:2, 3:1:0:0:0, 3:0:0:0:0, 3:1:0:0:0, 155:51:0:0:17
Ab aeolian (4b), 2:0:0:0:1, 1:0:0:0:0, 1:0:0:0:0, 1:0:0:0:0, 1:0:0:0:0, 2:0:0:0:1, 2:0:0:0:0, 1:0:0:0:0, 4:1:0:0:3, 2:0:0:0:0, 5:0:0:0:1, 1:0:0:0:0, 3:0:0:0:1, 2:0:0:0:0, 3:0:0:0:0, 1:0:0:0:0, 5:0:0:0:1, 4:0:0:0:0, 3:1:0:0:2, 6:1:0:0:3, 5:0:0:0:2, 4:4:0:0:4, 5:0:0:0:3, 2:1:0:0:1, 2:0:0:0:2, 2:0:0:0:1, 3:0:0:0:0, 1:0:0:0:0, 2:0:0:0:0, 2:0:0:0:0, 3:0:0:0:1, 4:0:0:0:2, 7:2:0:0:4, 3:0:0:0:0, 4:0:0:0:2, 1:0:0:0:0, 3:0:0:0:4, 1:0:0:0:0, 104:10:0:0:39
E aeolian (4#), 4:0:0:0:0, 4:1:0:0:0, 4:1:0:0:0, 4:2:0:0:0, 3:2:0:0:0, 4:1:0:0:1, 6:2:0:0:3, 4:1:0:0:0, 4:1:0:0:0, 4:0:0:0:0, 7:0:0:0:0, 4:3:0:0:0, 4:0:0:0:0, 3:1:0:0:0, 5:2:0:0:2, 3:1:0:0:0, 7:8:0:0:2, 7:1:0:0:2, 3:1:0:0:1, 5:1:0:0:0, 7:1:0:0:0, 3:0:0:0:0, 5:1:0:0:1, 6:2:0:0:1, 4:0:0:0:0, 4:1:0:0:0, 6:2:0:0:2, 4:1:0:0:0, 4:2:0:0:0, 5:2:0:0:2, 5:1:0:0:1, 5:1:0:0:0, 3:0:0:0:1, 3:0:0:0:0, 5:0:0:0:2, 3:1:0:0:0, 4:0:0:0:0, 3:1:0:0:0, 168:45:0:0:21
Ab locrian (4b), 4:0:0:0:1, 3:0:0:0:2, 3:0:0:0:2, 3:0:0:0:3, 3:0:0:0:1, 4:0:0:0:1, 4:0:0:0:1, 3:0:0:0:3, 6:1:0:0:4, 4:0:0:0:1, 7:0:0:0:2, 3:0:0:0:3, 5:0:0:0:4, 4:0:0:0:3, 3:0:0:0:3, 3:0:0:0:2, 7:0:0:0:4, 5:0:0:0:3, 4:1:0:0:4, 8:1:0:0:7, 7:0:0:0:7, 5:4:0:0:11, 7:0:0:0:8, 4:1:0:0:4, 4:0:0:0:2, 4:0:0:0:1, 5:0:0:0:3, 3:0:0:0:2, 4:0:0:0:1, 4:0:0:0:3, 5:0:0:0:3, 6:0:0:0:4, 8:2:0:0:8, 4:0:0:0:4, 6:0:0:0:3, 3:0:0:0:2, 5:0:0:0:5, 3:0:0:0:1, 173:10:0:0:126
E locrian (4#), 2:0:0:0:0, 3:1:0:0:0, 3:1:0:0:0, 3:2:0:0:0, 2:2:0:0:0, 3:2:0:0:0, 5:4:0:0:2, 3:1:0:0:0, 4:1:0:0:1, 2:0:0:0:0, 5:0:0:0:1, 3:3:0:0:0, 2:0:0:0:0, 2:1:0:0:0, 5:3:0:0:1, 2:1:0:0:0, 5:8:0:0:2, 6:1:0:0:2, 4:2:0:0:1, 5:1:0:0:1, 5:1:0:0:2, 1:0:0:0:0, 3:1:0:0:1, 5:2:0:0:0, 2:0:0:0:0, 3:1:0:0:0, 5:3:0:0:1, 3:1:0:0:0, 2:2:0:0:0, 3:2:0:0:0, 4:1:0:0:0, 3:1:0:0:0, 3:0:0:0:2, 2:0:0:0:0, 3:0:0:0:2, 2:1:0:0:0, 2:0:0:0:0, 2:1:0:0:0, 122:51:0:0:19
Db major (5b), 3:0:0:0:1, 2:0:0:0:2, 2:0:0:0:2, 2:0:0:0:3, 2:0:0:0:1, 3:0:0:0:1, 3:0:0:0:0, 2:0:0:0:3, 5:1:0:0:5, 3:0:0:0:0, 6:0:0:0:2, 2:0:0:0:3, 4:0:0:0:4, 3:0:0:0:2, 2:0:0:0:1, 2:0:0:0:2, 6:0:0:0:2, 4:0:0:0:1, 3:1:0:0:2, 7:1:0:0:5, 6:0:0:0:4, 5:4:0:0:6, 6:0:0:0:6, 3:1:0:0:4, 3:0:0:0:2, 3:0:0:0:2, 4:0:0:0:2, 2:0:0:0:2, 3:0:0:0:1, 3:0:0:0:0, 4:0:0:0:2, 5:0:0:0:3, 8:2:0:0:8, 3:0:0:0:1, 5:0:0:0:2, 2:0:0:0:2, 4:0:0:0:4, 2:0:0:0:1, 137:10:0:0:94
B major (5#), 4:0:0:0:0, 4:1:0:0:1, 4:1:0:0:1, 4:1:0:0:1, 3:1:0:0:1, 5:1:0:0:1, 7:2:0:0:2, 4:1:0:0:1, 5:1:0:0:1, 5:0:0:0:0, 7:0:0:0:0, 4:1:0:0:1, 4:0:0:0:0, 4:1:0:0:1, 6:2:0:0:2, 3:1:0:0:1, 8:8:0:0:8, 8:1:0:0:1, 4:1:0:0:1, 6:1:0:0:1, 8:1:0:0:1, 4:0:0:0:0, 6:1:0:0:1, 6:2:0:0:2, 4:0:0:0:0, 4:1:0:0:1, 7:2:0:0:2, 4:1:0:0:1, 4:1:0:0:1, 6:2:0:0:2, 6:1:0:0:1, 6:1:0:0:1, 4:0:0:0:0, 4:0:0:0:0, 6:0:0:0:0, 3:1:0:0:1, 5:0:0:0:0, 3:1:0:0:1, 189:40:0:0:40
Bb minor (5b), 3:0:0:0:1, 2:0:0:0:0, 2:0:0:0:0, 2:0:0:0:0, 2:0:0:0:0, 2:0:0:0:1, 2:0:0:0:0, 2:0:0:0:0, 4:1:0:0:3, 2:0:0:0:0, 6:0:0:0:1, 2:0:0:0:0, 4:0:0:0:1, 2:0:0:0:0, 1:0:0:0:0, 2:0:0:0:0, 5:0:0:0:1, 3:0:0:0:0, 2:1:0:0:2, 6:1:0:0:3, 5:2:0:0:4, 4:4:0:0:4, 5:0:0:0:3, 4:1:0:0:1, 3:0:0:0:2, 3:0:0:0:1, 3:0:0:0:0, 2:0:0:0:0, 3:0:0:0:0, 2:0:0:0:0, 3:0:0:0:1, 4:0:0:0:2, 7:2:0:0:4, 2:0:0:0:0, 4:0:0:0:2, 2:0:0:0:0, 3:0:0:0:4, 2:0:0:0:0, 117:12:0:0:41
G# minor (5#), 4:0:0:0:4, 4:1:0:0:7, 4:1:0:0:7, 4:1:0:0:6, 3:1:0:0:4, 5:1:0:0:7, 7:2:0:0:10, 4:1:0:0:9, 5:1:0:0:4, 5:0:0:0:7, 7:0:0:0:9, 4:1:0:0:9, 4:0:0:0:6, 4:1:0:0:4, 6:2:0:0:7, 3:1:0:0:4, 8:8:0:0:16, 8:1:0:0:9, 4:1:0:0:5, 7:1:0:0:6, 8:1:0:0:7, 4:0:0:0:9, 6:1:0:0:8, 6:2:0:0:7, 4:0:0:0:8, 4:1:0:0:6, 7:2:0:0:9, 4:1:0:0:7, 4:1:0:0:8, 6:2:0:0:12, 6:1:0:0:5, 6:1:0:0:5, 5:0:0:0:3, 4:0:0:0:6, 6:0:0:0:6, 3:1:0:0:6, 5:0:0:0:13, 3:1:0:0:4, 191:40:0:0:269
Bb minor mel (5b), 2:0:0:0:1, 1:0:0:0:0, 1:0:0:0:0, 1:0:0:0:0, 1:0:0:0:0, 1:0:0:0:1, 1:0:0:0:0, 1:0:0:0:0, 3:1:0:0:3, 1:0:0:0:0, 5:0:0:0:1, 1:0:0:0:0, 3:0:0:0:1, 1:0:0:0:0, 2:0:0:0:0, 1:0:0:0:0, 4:0:0:0:1, 3:0:0:0:0, 2:1:0:0:2, 5:1:0:0:3, 4:2:0:0:4, 3:4:0:0:4, 4:0:0:0:3, 3:1:0:0:1, 2:0:0:0:2, 2:0:0:0:1, 2:0:0:0:0, 1:0:0:0:0, 2:0:0:0:0, 1:0:0:0:0, 2:0:0:0:1, 3:0:0:0:2, 6:2:0:0:4, 2:0:0:0:0, 3:0:0:0:2, 1:0:0:0:0, 2:0:0:0:4, 1:0:0:0:0, 84:12:0:0:41
G# minor mel (5#), 4:0:0:0:4, 5:1:0:0:7, 5:1:0:0:7, 5:1:0:0:6, 4:1:0:0:4, 5:1:0:0:7, 7:2:0:0:10, 5:1:0:0:9, 6:1:0:0:4, 5:0:0:0:6, 7:1:1:0:8, 5:1:0:0:9, 5:0:0:0:6, 5:1:0:0:4, 6:2:0:0:7, 4:1:0:0:4, 9:8:0:0:15, 8:1:0:0:9, 4:1:0:0:5, 8:1:0:0:6, 9:1:0:0:7, 5:0:0:0:9, 7:1:0:0:8, 7:2:0:0:7, 4:0:0:0:8, 5:1:0:0:6, 7:2:0:0:9, 5:1:0:0:7, 5:1:0:0:8, 6:2:0:0:12, 6:1:0:0:5, 7:1:0:0:5, 6:0:0:0:2, 5:0:0:0:5, 6:0:0:0:5, 4:1:0:0:6, 5:0:0:0:13, 4:1:0:0:4, 215:41:1:0:263
Db major blues (5b), 5:0:0:0:2, 4:0:0:0:2, 4:0:0:0:2, 4:0:0:0:3, 3:0:0:0:1, 5:0:0:0:2, 5:0:0:0:1, 4:0:0:0:3, 6:1:0:0:6, 5:0:0:0:2, 8:0:0:0:3, 4:0:0:0:3, 6:0:0:0:5, 4:0:0:0:3, 5:0:0:0:2, 3:0:0:0:2, 8:0:0:0:6, 6:0:0:0:3, 5:1:0:0:4, 8:1:0:0:8, 8:0:0:0:8, 6:4:0:0:15, 8:0:0:0:10, 5:1:0:0:4, 5:0:0:0:4, 4:0:0:0:2, 6:0:0:0:1, 4:0:0:0:2, 4:0:0:0:5, 5:0:0:0:4, 6:0:0:0:3, 6:0:0:0:5, 9:2:0:0:9, 5:0:0:0:6, 7:0:0:0:4, 3:0:0:0:2, 6:0:0:0:10, 3:0:0:0:1, 202:10:0:0:158
B major blues (5#), 4:0:0:0:1, 5:1:0:0:3, 5:1:0:0:3, 5:2:0:0:4, 4:2:0:0:2, 5:2:0:0:5, 7:4:0:0:7, 5:1:0:0:2, 7:1:0:0:1, 5:0:0:0:2, 8:0:0:0:3, 5:3:0:0:4, 5:0:0:0:2, 5:1:0:0:1, 6:3:0:0:5, 4:1:0:0:1, 9:8:0:0:9, 8:1:0:0:4, 4:2:0:0:4, 8:1:0:0:1, 9:1:0:0:2, 5:0:0:0:4, 7:1:0:0:3, 7:2:0:0:3, 4:0:0:0:1, 5:1:0:0:1, 7:3:0:0:5, 5:1:0:0:2, 5:2:0:0:2, 6:2:0:0:7, 6:1:0:0:2, 7:1:0:0:1, 6:0:0:0:1, 5:0:0:0:3, 6:0:0:0:2, 4:1:0:0:1, 5:0:0:0:2, 4:1:0:0:1, 217:51:0:0:107
Bb minor blues (5b), 5:0:0:0:2, 4:0:0:0:2, 4:0:0:0:2, 4:0:0:0:3, 3:0:0:0:1, 5:0:0:0:2, 5:0:0:0:1, 4:0:0:0:3, 6:1:0:0:6, 5:0:0:0:2, 8:0:0:0:3, 4:0:0:0:3, 6:0:0:0:5, 4:0:0:0:3, 5:0:0:0:2, 3:0:0:0:2, 8:0:0:0:6, 6:0:0:0:3, 5:1:0:0:4, 8:1:0:0:8, 8:0:0:0:8, 6:4:0:0:15, 8:0:0:0:10, 5:1:0:0:4, 5:0:0:0:4, 4:0:0:0:2, 6:0:0:0:1, 4:0:0:0:2, 4:0:0:0:5, 5:0:0:0:4, 6:0:0:0:3, 6:0:0:0:5, 9:2:0:0:9, 5:0:0:0:6, 7:0:0:0:4, 3:0:0:0:2, 6:0:0:0:10, 3:0:0:0:1, 202:10:0:0:158
G# minor blues (5#), 4:0:0:0:1, 5:1:0:0:3, 5:1:0:0:3, 5:2:0:0:4, 4:2:0:0:2, 5:2:0:0:5, 7:4:0:0:7, 5:1:0:0:2, 7:1:0:0:1, 5:0:0:0:2, 8:0:0:0:3, 5:3:0:0:4, 5:0:0:0:2, 5:1:0:0:1, 6:3:0:0:5, 4:1:0:0:1, 9:8:0:0:9, 8:1:0:0:4, 4:2:0:0:4, 8:1:0:0:1, 9:1:0:0:2, 5:0:0:0:4, 7:1:0:0:3, 7:2:0:0:3, 4:0:0:0:1, 5:1:0:0:1, 7:3:0:0:5, 5:1:0:0:2, 5:2:0:0:2, 6:2:0:0:7, 6:1:0:0:2, 7:1:0:0:1, 6:0:0:0:1, 5:0:0:0:3, 6:0:0:0:2, 4:1:0:0:1, 5:0:0:0:2, 4:1:0:0:1, 217:51:0:0:107
Db dorian (5b), 2:0:0:0:1, 1:0:0:0:0, 1:0:0:0:0, 1:0:0:0:0, 1:0:0:0:0, 2:0:0:0:1, 2:0:0:0:0, 1:0:0:0:0, 4:1:0:0:3, 2:0:0:0:0, 5:0:0:0:1, 1:0:0:0:0, 3:0:0:0:1, 2:0:0:0:0, 3:0:0:0:0, 1:0:0:0:0, 5:0:0:0:1, 4:0:0:0:0, 3:1:0:0:2, 6:1:0:0:3, 5:0:0:0:2, 4:4:0:0:4, 5:0:0:0:3, 2:1:0:0:1, 2:0:0:0:2, 2:0:0:0:1, 3:0:0:0:0, 1:0:0:0:0, 2:0:0:0:0, 2:0:0:0:0, 3:0:0:0:1, 4:0:0:0:2, 7:2:0:0:4, 3:0:0:0:0, 4:0:0:0:2, 1:0:0:0:0, 3:0:0:0:4, 1:0:0:0:0, 104:10:0:0:39
B dorian (5#), 4:0:0:0:1, 5:1:0:0:3, 5:1:0:0:3, 5:1:0:0:3, 4:1:0:0:1, 5:1:0:0:4, 7:2:0:0:5, 5:1:0:0:2, 6:1:0:0:1, 5:0:0:0:1, 7:1:1:0:2, 5:1:0:0:2, 5:0:0:0:2, 5:1:0:0:1, 6:2:0:0:4, 4:1:0:0:1, 9:8:0:0:8, 8:1:0:0:4, 4:1:0:0:3, 7:1:0:0:1, 9:1:0:0:2, 5:0:0:0:4, 7:1:0:0:3, 7:2:0:0:2, 4:0:0:0:1, 5:1:0:0:1, 7:2:0:0:4, 5:1:0:0:2, 5:1:0:0:1, 6:2:0:0:7, 6:1:0:0:2, 7:1:0:0:1, 5:0:0:0:0, 5:0:0:0:2, 6:0:0:0:1, 4:1:0:0:1, 5:0:0:0:2, 4:1:0:0:1, 213:41:1:0:89
Db phrygian (5b), 4:0:0:0:1, 3:0:0:0:2, 3:0:0:0:2, 3:0:0:0:3, 3:0:0:0:1, 4:0:0:0:1, 4:0:0:0:1, 3:0:0:0:3, 6:1:0:0:4, 4:0:0:0:1, 7:0:0:0:2, 3:0:0:0:3, 5:0:0:0:4, 4:0:0:0:3, 3:0:0:0:3, 3:0:0:0:2, 7:0:0:0:4, 5:0:0:0:3, 4:1:0:0:4, 8:1:0:0:7, 7:0:0:0:7, 5:4:0:0:11, 7:0:0:0:8, 4:1:0:0:4, 4:0:0:0:2, 4:0:0:0:1, 5:0:0:0:3, 3:0:0:0:2, 4:0:0:0:1, 4:0:0:0:3, 5:0:0:0:3, 6:0:0:0:4, 8:2:0:0:8, 4:0:0:0:4, 6:0:0:0:3, 3:0:0:0:2, 5:0:0:0:5, 3:0:0:0:1, 173:10:0:0:126
B phrygian (5#), 4:0:0:0:0, 4:1:0:0:0, 4:1:0:0:0, 4:2:0:0:0, 3:2:0:0:0, 4:1:0:0:1, 6:2:0:0:3, 4:1:0:0:0, 4:1:0:0:0, 4:0:0:0:0, 7:0:0:0:0, 4:3:0:0:0, 4:0:0:0:0, 3:1:0:0:0, 5:2:0:0:2, 3:1:0:0:0, 7:8:0:0:2, 7:1:0:0:2, 3:1:0:0:1, 5:1:0:0:0, 7:1:0:0:0, 3:0:0:0:0, 5:1:0:0:1, 6:2:0:0:1, 4:0:0:0:0, 4:1:0:0:0, 6:2:0:0:2, 4:1:0:0:0, 4:2:0:0:0, 5:2:0:0:2, 5:1:0:0:1, 5:1:0:0:0, 3:0:0:0:1, 3:0:0:0:0, 5:0:0:0:2, 3:1:0:0:0, 4:0:0:0:0, 3:1:0:0:0, 168:45:0:0:21
Db lydian (5b), 2:0:0:0:1, 1:0:0:0:0, 1:0:0:0:0, 1:0:0:0:0, 1:0:0:0:0, 2:0:0:0:1, 2:0:0:0:0, 1:0:0:0:0, 4:1:0:0:3, 2:0:0:0:0, 5:0:0:0:1, 1:0:0:0:0, 3:0:0:0:1, 2:0:0:0:0, 3:0:0:0:0, 1:0:0:0:0, 5:0:0:0:1, 4:0:0:0:0, 3:1:0:0:2, 6:1:0:0:3, 5:0:0:0:2, 4:4:0:0:4, 5:0:0:0:3, 2:1:0:0:1, 2:0:0:0:2, 2:0:0:0:1, 3:0:0:0:0, 1:0:0:0:0, 2:0:0:0:0, 2:0:0:0:0, 3:0:0:0:1, 4:0:0:0:2, 7:2:0:0:4, 3:0:0:0:0, 4:0:0:0:2, 1:0:0:0:0, 3:0:0:0:4, 1:0:0:0:0, 104:10:0:0:39
B lydian (5#), 4:0:0:0:1, 5:1:0:0:3, 5:1:0:0:3, 5:1:0:0:3, 4:1:0:0:1, 5:1:0:0:4, 7:2:0:0:5, 5:1:0:0:2, 6:1:0:0:1, 5:0:0:0:1, 7:1:1:0:2, 5:1:0:0:2, 5:0:0:0:2, 5:1:0:0:1, 6:2:0:0:4, 4:1:0:0:1, 9:8:0:0:8, 8:1:0:0:4, 4:1:0:0:3, 7:1:0:0:1, 9:1:0:0:2, 5:0:0:0:4, 7:1:0:0:3, 7:2:0:0:2, 4:0:0:0:1, 5:1:0:0:1, 7:2:0:0:4, 5:1:0:0:2, 5:1:0:0:1, 6:2:0:0:7, 6:1:0:0:2, 7:1:0:0:1, 5:0:0:0:0, 5:0:0:0:2, 6:0:0:0:1, 4:1:0:0:1, 5:0:0:0:2, 4:1:0:0:1, 213:41:1:0:89
Db mixolydian (5b), 4:0:0:0:1, 3:0:0:0:2, 3:0:0:0:2, 3:0:0:0:3, 3:0:0:0:1, 4:0:0:0:1, 4:0:0:0:1, 3:0:0:0:3, 6:1:0:0:4, 4:0:0:0:1, 7:0:0:0:2, 3:0:0:0:3, 5:0:0:0:4, 4:0:0:0:3, 3:0:0:0:3, 3:0:0:0:2, 7:0:0:0:4, 5:0:0:0:3, 4:1:0:0:4, 8:1:0:0:7, 7:0:0:0:7, 5:4:0:0:11, 7:0:0:0:8, 4:1:0:0:4, 4:0:0:0:2, 4:0:0:0:1, 5:0:0:0:3, 3:0:0:0:2, 4:0:0:0:1, 4:0:0:0:3, 5:0:0:0:3, 6:0:0:0:4, 8:2:0:0:8, 4:0:0:0:4, 6:0:0:0:3, 3:0:0:0:2, 5:0:0:0:5, 3:0:0:0:1, 173:10:0:0:126
B mixolydian (5#), 4:0:0:0:0, 4:1:0:0:0, 4:1:0:0:0, 4:2:0:0:0, 3:2:0:0:0, 4:1:0:0:1, 6:2:0:0:3, 4:1:0:0:0, 4:1:0:0:0, 4:0:0:0:0, 7:0:0:0:0, 4:3:0:0:0, 4:0:0:0:0, 3:1:0:0:0, 5:2:0:0:2, 3:1:0:0:0, 7:8:0:0:2, 7:1:0:0:2, 3:1:0:0:1, 5:1:0:0:0, 7:1:0:0:0, 3:0:0:0:0, 5:1:0:0:1, 6:2:0:0:1, 4:0:0:0:0, 4:1:0:0:0, 6:2:0:0:2, 4:1:0:0:0, 4:2:0:0:0, 5:2:0:0:2, 5:1:0:0:1, 5:1:0:0:0, 3:0:0:0:1, 3:0:0:0:0, 5:0:0:0:2, 3:1:0:0:0, 4:0:0:0:0, 3:1:0:0:0, 168:45:0:0:21
Db aeolian (5b), 3:0:0:0:1, 2:0:0:0:2, 2:0:0:0:2, 2:0:0:0:3, 2:0:0:0:1, 3:0:0:0:1, 3:0:0:0:0, 2:0:0:0:3, 5:1:0:0:5, 3:0:0:0:0, 6:0:0:0:2, 2:0:0:0:3, 4:0:0:0:4, 3:0:0:0:2, 2:0:0:0:1, 2:0:0:0:2, 6:0:0:0:2, 4:0:0:0:1, 3:1:0:0:2, 7:1:0:0:5, 6:0:0:0:4, 5:4:0:0:6, 6:0:0:0:6, 3:1:0:0:4, 3:0:0:0:2, 3:0:0:0:2, 4:0:0:0:2, 2:0:0:0:2, 3:0:0:0:1, 3:0:0:0:0, 4:0:0:0:2, 5:0:0:0:3, 8:2:0:0:8, 3:0:0:0:1, 5:0:0:0:2, 2:0:0:0:2, 4:0:0:0:4, 2:0:0:0:1, 137:10:0:0:94
B aeolian (5#), 4:0:0:0:0, 4:1:0:0:1, 4:1:0:0:1, 4:1:0:0:1, 3:1:0:0:1, 5:1:0:0:1, 7:2:0:0:2, 4:1:0:0:1, 5:1:0:0:1, 5:0:0:0:0, 7:0:0:0:0, 4:1:0:0:1, 4:0:0:0:0, 4:1:0:0:1, 6:2:0:0:2, 3:1:0:0:1, 8:8:0:0:8, 8:1:0:0:1, 4:1:0:0:1, 6:1:0:0:1, 8:1:0:0:1, 4:0:0:0:0, 6:1:0:0:1, 6:2:0:0:2, 4:0:0:0:0, 4:1:0:0:1, 7:2:0:0:2, 4:1:0:0:1, 4:1:0:0:1, 6:2:0:0:2, 6:1:0:0:1, 6:1:0:0:1, 4:0:0:0:0, 4:0:0:0:0, 6:0:0:0:0, 3:1:0:0:1, 5:0:0:0:0, 3:1:0:0:1, 189:40:0:0:40
Db locrian (5b), 5:0:0:0:2, 4:0:0:0:2, 4:0:0:0:2, 4:0:0:0:3, 3:0:0:0:1, 5:0:0:0:1, 5:0:0:0:1, 4:0:0:0:2, 6:0:0:0:2, 5:0:0:0:2, 8:0:0:0:3, 4:0:0:0:2, 6:0:0:0:5, 4:0:0:0:2, 4:0:0:0:2, 3:0:0:0:1, 8:0:0:0:5, 6:0:0:0:3, 5:1:0:0:4, 8:0:0:0:6, 8:0:0:0:8, 6:4:0:0:15, 8:0:0:0:10, 5:1:0:0:4, 5:0:0:0:4, 4:0:0:0:1, 6:0:0:0:1, 4:0:0:0:2, 4:0:0:0:5, 5:0:0:0:4, 6:0:0:0:2, 6:0:0:0:5, 9:1:0:0:5, 5:0:0:0:6, 7:0:0:0:4, 3:0:0:0:1, 6:0:0:0:10, 3:0:0:0:1, 201:7:0:0:139
B locrian (5#), 3:0:0:0:0, 4:1:0:0:0, 4:1:0:0:0, 4:2:0:0:0, 3:2:0:0:0, 4:2:0:0:0, 6:4:0:0:2, 4:1:0:0:0, 5:1:0:0:1, 3:0:0:0:0, 6:0:0:0:1, 4:3:0:0:0, 3:0:0:0:0, 3:1:0:0:0, 5:3:0:0:1, 3:1:0:0:0, 6:8:0:0:2, 6:1:0:0:2, 3:2:0:0:0, 6:1:0:0:1, 6:1:0:0:0, 2:0:0:0:0, 4:1:0:0:1, 6:2:0:0:1, 3:0:0:0:0, 4:1:0:0:0, 6:3:0:0:1, 4:1:0:0:0, 3:2:0:0:0, 4:2:0:0:0, 5:1:0:0:0, 4:1:0:0:0, 4:0:0:0:2, 2:0:0:0:0, 4:0:0:0:2, 3:1:0:0:0, 3:0:0:0:0, 3:1:0:0:0, 155:51:0:0:17
Gb major (6b), 4:0:0:0:1, 3:0:0:0:2, 3:0:0:0:2, 3:0:0:0:3, 3:0:0:0:1, 4:0:0:0:1, 4:0:0:0:1, 3:0:0:0:3, 6:1:0:0:4, 4:0:0:0:1, 7:0:0:0:2, 3:0:0:0:3, 5:0:0:0:4, 4:0:0:0:3, 3:0:0:0:3, 3:0:0:0:2, 7:0:0:0:4, 5:0:0:0:3, 4:1:0:0:4, 8:1:0:0:7, 7:0:0:0:7, 5:4:0:0:11, 7:0:0:0:8, 4:1:0:0:4, 4:0:0:0:2, 4:0:0:0:1, 5:0:0:0:3, 3:0:0:0:2, 4:0:0:0:1, 4:0:0:0:3, 5:0:0:0:3, 6:0:0:0:4, 8:2:0:0:8, 4:0:0:0:4, 6:0:0:0:3, 3:0:0:0:2, 5:0:0:0:5, 3:0:0:0:1, 173:10:0:0:126
F# major (6#), 4:0:0:0:1, 5:1:0:0:3, 5:1:0:0:3, 5:1:0:0:3, 4:1:0:0:1, 5:1:0:0:4, 7:2:0:0:5, 5:1:0:0:2, 6:1:0:0:1, 5:0:0:0:1, 7:1:1:0:2, 5:1:0:0:2, 5:0:0:0:2, 5:1:0:0:1, 6:2:0:0:4, 4:1:0:0:1, 9:8:0:0:8, 8:1:0:0:4, 4:1:0:0:3, 7:1:0:0:1, 9:1:0:0:2, 5:0:0:0:4, 7:1:0:0:3, 7:2:0:0:2, 4:0:0:0:1, 5:1:0:0:1, 7:2:0:0:4, 5:1:0:0:2, 5:1:0:0:1, 6:2:0:0:7, 6:1:0:0:2, 7:1:0:0:1, 5:0:0:0:0, 5:0:0:0:2, 6:0:0:0:1, 4:1:0:0:1, 5:0:0:0:2, 4:1:0:0:1, 213:41:1:0:89
Eb minor (6b), 3:0:0:0:1, 3:0:0:0:2, 3:0:0:0:2, 3:0:0:0:3, 3:0:0:0:1, 4:0:0:0:0, 4:0:0:0:0, 3:0:0:0:3, 6:1:0:0:3, 3:0:0:0:0, 6:0:0:0:2, 3:0:0:0:3, 4:0:0:0:4, 4:0:0:0:2, 3:0:0:0:1, 3:0:0:0:2, 6:0:0:0:1, 4:0:0:0:1, 4:1:0:0:2, 8:0:0:0:4, 6:0:0:0:4, 4:4:0:0:6, 6:0:0:0:6, 4:1:0:0:4, 3:0:0:0:2, 4:0:0:0:1, 5:0:0:0:2, 3:0:0:0:2, 3:0:0:0:1, 3:0:0:0:0, 5:0:0:0:1, 5:0:0:0:3, 8:2:0:0:7, 3:0:0:0:1, 5:0:0:0:2, 3:0:0:0:2, 4:0:0:0:4, 3:0:0:0:1, 157:9:0:0:86
D# minor (6#), 4:0:0:0:4, 5:1:0:0:8, 5:1:0:0:10, 5:1:0:0:7, 4:1:0:0:6, 5:1:0:0:8, 7:2:0:0:11, 5:1:0:0:10, 6:1:0:0:5, 5:0:0:0:7, 7:1:1:0:8, 5:1:0:0:10, 5:0:0:0:6, 5:1:0:0:7, 6:2:0:0:9, 4:1:0:0:6, 9:8:0:0:19, 8:1:0:0:11, 4:1:0:0:7, 7:1:0:0:8, 9:1:0:0:10, 6:0:0:0:14, 7:1:0:0:10, 7:2:0:0:6, 4:0:0:0:8, 5:1:0:0:8, 7:2:0:0:10, 5:1:0:0:8, 5:1:0:0:8, 6:2:0:0:15, 6:1:0:0:7, 7:1:0:0:8, 6:0:0:0:5, 5:0:0:0:8, 6:0:0:0:6, 4:1:0:0:6, 5:0:0:0:14, 4:1:0:0:6, 215:41:1:0:324
Eb minor mel (6b), 2:0:0:0:1, 2:0:0:0:2, 2:0:0:0:2, 2:0:0:0:3, 2:0:0:0:1, 3:0:0:0:1, 3:0:0:0:0, 2:0:0:0:3, 5:1:0:0:5, 2:0:0:0:0, 5:0:0:0:2, 2:0:0:0:3, 3:0:0:0:4, 3:0:0:0:2, 2:0:0:0:1, 2:0:0:0:2, 5:0:0:0:2, 3:0:0:0:1, 3:1:0:0:2, 7:0:0:0:4, 5:0:0:0:4, 4:4:0:0:6, 5:0:0:0:6, 3:1:0:0:4, 2:0:0:0:2, 3:0:0:0:2, 4:0:0:0:2, 2:0:0:0:2, 2:0:0:0:1, 2:0:0:0:0, 4:0:0:0:2, 4:0:0:0:3, 8:2:0:0:8, 2:0:0:0:1, 4:0:0:0:2, 2:0:0:0:2, 3:0:0:0:4, 2:0:0:0:1, 121:9:0:0:93
D# minor mel (6#), 5:0:0:0:3, 5:1:0:0:8, 5:1:0:0:10, 5:1:0:0:7, 4:1:0:0:6, 6:1:0:0:8, 7:2:0:0:8, 5:1:0:0:10, 6:1:0:0:5, 4:0:0:0:4, 8:1:1:0:6, 5:1:0:0:10, 6:0:0:0:4, 5:1:0:0:7, 6:2:0:0:7, 4:1:0:0:6, 9:8:0:0:19, 8:1:0:0:7, 5:1:0:0:7, 7:1:0:0:8, 9:1:0:0:10, 6:0:0:0:14, 8:1:0:0:10, 7:2:0:0:6, 5:0:0:0:8, 5:1:0:0:8, 7:2:0:0:7, 5:1:0:0:8, 5:1:0:0:8, 6:2:0:0:13, 7:1:0:0:6, 7:1:0:0:8, 7:0:0:0:5, 4:0:0:0:6, 7:0:0:0:6, 4:1:0:0:6, 6:0:0:0:9, 4:1:0:0:6, 224:41:1:0:294
Gb major blues (6b), 5:0:0:0:3, 5:0:0:0:5, 5:0:0:0:7, 5:0:0:0:5, 4:0:0:0:4, 5:0:0:0:4, 6:0:0:0:2, 5:0:0:0:7, 7:1:0:0:7, 5:0:0:0:3, 8:0:0:0:6, 5:0:0:0:7, 6:0:0:0:6, 5:0:0:0:6, 4:0:0:0:3, 4:0:0:0:5, 9:0:0:0:9, 7:0:0:0:4, 5:1:0:0:4, 9:1:0:0:9, 9:0:0:0:9, 6:4:0:0:16, 8:0:0:0:12, 6:1:0:0:6, 5:0:0:0:5, 5:0:0:0:5, 6:0:0:0:4, 5:0:0:0:5, 5:0:0:0:6, 5:0:0:0:5, 6:0:0:0:5, 7:0:0:0:8, 9:2:0:0:13, 5:0:0:0:6, 7:0:0:0:6, 4:0:0:0:3, 6:0:0:0:11, 4:0:0:0:4, 222:10:0:0:235
F# major blues (6#), 5:0:0:0:2, 5:1:0:0:5, 5:1:0:0:5, 5:2:0:0:6, 4:2:0:0:4, 6:1:0:0:5, 7:2:0:0:9, 5:1:0:0:6, 6:1:0:0:3, 5:0:0:0:5, 9:0:0:0:5, 5:3:0:0:8, 6:0:0:0:4, 5:1:0:0:3, 6:2:0:0:7, 4:1:0:0:3, 9:8:0:0:13, 8:1:0:0:8, 5:1:0:0:5, 7:1:0:0:4, 9:1:0:0:5, 5:0:0:0:4, 8:1:0:0:4, 7:2:0:0:5, 5:0:0:0:5, 5:1:0:0:5, 7:2:0:0:8, 5:1:0:0:5, 5:2:0:0:4, 6:2:0:0:10, 7:1:0:0:4, 7:1:0:0:3, 6:0:0:0:1, 5:0:0:0:4, 7:0:0:0:3, 4:1:0:0:5, 6:0:0:0:7, 4:1:0:0:3, 225:45:0:0:195
Eb minor blues (6b), 5:0:0:0:3, 5:0:0:0:5, 5:0:0:0:7, 5:0:0:0:5, 4:0:0:0:4, 5:0:0:0:4, 6:0:0:0:2, 5:0:0:0:7, 7:1:0:0:7, 5:0:0:0:3, 8:0:0:0:6, 5:0:0:0:7, 6:0:0:0:6, 5:0:0:0:6, 4:0:0:0:3, 4:0:0:0:5, 9:0:0:0:9, 7:0:0:0:4, 5:1:0:0:4, 9:1:0:0:9, 9:0:0:0:9, 6:4:0:0:16, 8:0:0:0:12, 6:1:0:0:6, 5:0:0:0:5, 5:0:0:0:5, 6:0:0:0:4, 5:0:0:0:5, 5:0:0:0:6, 5:0:0:0:5, 6:0:0:0:5, 7:0:0:0:8, 9:2:0:0:13, 5:0:0:0:6, 7:0:0:0:6, 4:0:0:0:3, 6:0:0:0:11, 4:0:0:0:4, 222:10:0:0:235
D# minor blues (6#), 5:0:0:0:3, 5:1:0:0:8, 5:1:0:0:10, 5:2:0:0:8, 4:2:0:0:7, 6:1:0:0:8, 7:2:0:0:8, 5:1:0:0:10, 6:1:0:0:5, 4:0:0:0:5, 9:0:0:0:7, 5:3:0:0:12, 6:0:0:0:4, 5:1:0:0:7, 6:2:0:0:7, 4:1:0:0:6, 9:8:0:0:20, 8:1:0:0:8, 5:1:0:0:7, 7:1:0:0:8, 9:1:0:0:10, 5:0:0:0:14, 8:1:0:0:10, 7:2:0:0:7, 5:0:0:0:8, 5:1:0:0:8, 7:2:0:0:7, 5:1:0:0:8, 5:2:0:0:9, 6:2:0:0:13, 7:1:0:0:6, 7:1:0:0:8, 6:0:0:0:6, 4:0:0:0:8, 7:0:0:0:7, 4:1:0:0:6, 6:0:0:0:11, 4:1:0:0:6, 223:45:0:0:310
Gb dorian (6b), 3:0:0:0:1, 2:0:0:0:2, 2:0:0:0:2, 2:0:0:0:3, 2:0:0:0:1, 3:0:0:0:1, 3:0:0:0:0, 2:0:0:0:3, 5:1:0:0:5, 3:0:0:0:0, 6:0:0:0:2, 2:0:0:0:3, 4:0:0:0:4, 3:0:0:0:2, 2:0:0:0:1, 2:0:0:0:2, 6:0:0:0:2, 4:0:0:0:1, 3:1:0:0:2, 7:1:0:0:5, 6:0:0:0:4, 5:4:0:0:6, 6:0:0:0:6, 3:1:0:0:4, 3:0:0:0:2, 3:0:0:0:2, 4:0:0:0:2, 2:0:0:0:2, 3:0:0:0:1, 3:0:0:0:0, 4:0:0:0:2, 5:0:0:0:3, 8:2:0:0:8, 3:0:0:0:1, 5:0:0:0:2, 2:0:0:0:2, 4:0:0:0:4, 2:0:0:0:1, 137:10:0:0:94
F# dorian (6#), 5:0:0:0:1, 5:1:0:0:5, 5:1:0:0:5, 5:1:0:0:5, 4:1:0:0:3, 6:1:0:0:5, 7:2:0:0:6, 5:1:0:0:6, 6:1:0:0:3, 4:0:0:0:1, 8:1:1:0:2, 5:1:0:0:6, 6:0:0:0:2, 5:1:0:0:3, 6:2:0:0:5, 4:1:0:0:3, 9:8:0:0:12, 8:1:0:0:5, 5:1:0:0:5, 7:1:0:0:4, 9:1:0:0:5, 5:0:0:0:4, 8:1:0:0:4, 7:2:0:0:4, 5:0:0:0:5, 5:1:0:0:5, 7:2:0:0:5, 5:1:0:0:5, 5:1:0:0:3, 6:2:0:0:8, 7:1:0:0:3, 7:1:0:0:3, 6:0:0:0:0, 4:0:0:0:2, 7:0:0:0:2, 4:1:0:0:5, 6:0:0:0:4, 4:1:0:0:3, 222:41:1:0:157
Gb phrygian (6b), 5:0:0:0:2, 4:0:0:0:2, 4:0:0:0:2, 4:0:0:0:3, 3:0:0:0:1, 5:0:0:0:1, 5:0:0:0:1, 4:0:0:0:2, 6:0:0:0:2, 5:0:0:0:2, 8:0:0:0:3, 4:0:0:0:2, 6:0:0:0:5, 4:0:0:0:2, 4:0:0:0:2, 3:0:0:0:1, 8:0:0:0:5, 6:0:0:0:3, 5:1:0:0:4, 8:0:0:0:6, 8:0:0:0:8, 6:4:0:0:15, 8:0:0:0:10, 5:1:0:0:4, 5:0:0:0:4, 4:0:0:0:1, 6:0:0:0:1, 4:0:0:0:2, 4:0:0:0:5, 5:0:0:0:4, 6:0:0:0:2, 6:0:0:0:5, 9:1:0:0:5, 5:0:0:0:6, 7:0:0:0:4, 3:0:0:0:1, 6:0:0:0:10, 3:0:0:0:1, 201:7:0:0:139
F# phrygian (6#), 4:0:0:0:0, 4:1:0:0:1, 4:1:0:0:1, 4:1:0:0:1, 3:1:0:0:1, 5:1:0:0:1, 7:2:0:0:2, 4:1:0:0:1, 5:1:0:0:1, 5:0:0:0:0, 7:0:0:0:0, 4:1:0:0:1, 4:0:0:0:0, 4:1:0:0:1, 6:2:0:0:2, 3:1:0:0:1, 8:8:0:0:8, 8:1:0:0:1, 4:1:0:0:1, 6:1:0:0:1, 8:1:0:0:1, 4:0:0:0:0, 6:1:0:0:1, 6:2:0:0:2, 4:0:0:0:0, 4:1:0:0:1, 7:2:0:0:2, 4:1:0:0:1, 4:1:0:0:1, 6:2:0:0:2, 6:1:0:0:1, 6:1:0:0:1, 4:0:0:0:0, 4:0:0:0:0, 6:0:0:0:0, 3:1:0:0:1, 5:0:0:0:0, 3:1:0:0:1, 189:40:0:0:40
Gb lydian (6b), 3:0:0:0:1, 2:0:0:0:2, 2:0:0:0:2, 2:0:0:0:3, 2:0:0:0:1, 3:0:0:0:1, 3:0:0:0:0, 2:0:0:0:3, 5:1:0:0:5, 3:0:0:0:0, 6:0:0:0:2, 2:0:0:0:3, 4:0:0:0:4, 3:0:0:0:2, 2:0:0:0:1, 2:0:0:0:2, 6:0:0:0:2, 4:0:0:0:1, 3:1:0:0:2, 7:1:0:0:5, 6:0:0:0:4, 5:4:0:0:6, 6:0:0:0:6, 3:1:0:0:4, 3:0:0:0:2, 3:0:0:0:2, 4:0:0:0:2, 2:0:0:0:2, 3:0:0:0:1, 3:0:0:0:0, 4:0:0:0:2, 5:0:0:0:3, 8:2:0:0:8, 3:0:0:0:1, 5:0:0:0:2, 2:0:0:0:2, 4:0:0:0:4, 2:0:0:0:1, 137:10:0:0:94
F# lydian (6#), 5:0:0:0:1, 5:1:0:0:5, 5:1:0:0:5, 5:1:0:0:5, 4:1:0:0:3, 6:1:0:0:5, 7:2:0:0:6, 5:1:0:0:6, 6:1:0:0:3, 4:0:0:0:1, 8:1:1:0:2, 5:1:0:0:6, 6:0:0:0:2, 5:1:0:0:3, 6:2:0:0:5, 4:1:0:0:3, 9:8:0:0:12, 8:1:0:0:5, 5:1:0:0:5, 7:1:0:0:4, 9:1:0:0:5, 5:0:0:0:4, 8:1:0:0:4, 7:2:0:0:4, 5:0:0:0:5, 5:1:0:0:5, 7:2:0:0:5, 5:1:0:0:5, 5:1:0:0:3, 6:2:0:0:8, 7:1:0:0:3, 7:1:0:0:3, 6:0:0:0:0, 4:0:0:0:2, 7:0:0:0:2, 4:1:0:0:5, 6:0:0:0:4, 4:1:0:0:3, 222:41:1:0:157
Gb mixolydian (6b), 5:0:0:0:2, 4:0:0:0:2, 4:0:0:0:2, 4:0:0:0:3, 3:0:0:0:1, 5:0:0:0:1, 5:0:0:0:1, 4:0:0:0:2, 6:0:0:0:2, 5:0:0:0:2, 8:0:0:0:3, 4:0:0:0:2, 6:0:0:0:5, 4:0:0:0:2, 4:0:0:0:2, 3:0:0:0:1, 8:0:0:0:5, 6:0:0:0:3, 5:1:0:0:4, 8:0:0:0:6, 8:0:0:0:8, 6:4:0:0:15, 8:0:0:0:10, 5:1:0:0:4, 5:0:0:0:4, 4:0:0:0:1, 6:0:0:0:1, 4:0:0:0:2, 4:0:0:0:5, 5:0:0:0:4, 6:0:0:0:2, 6:0:0:0:5, 9:1:0:0:5, 5:0:0:0:6, 7:0:0:0:4, 3:0:0:0:1, 6:0:0:0:10, 3:0:0:0:1, 201:7:0:0:139
F# mixolydian (6#), 4:0:0:0:0, 4:1:0:0:1, 4:1:0:0:1, 4:1:0:0:1, 3:1:0:0:1, 5:1:0:0:1, 7:2:0:0:2, 4:1:0:0:1, 5:1:0:0:1, 5:0:0:0:0, 7:0:0:0:0, 4:1:0:0:1, 4:0:0:0:0, 4:1:0:0:1, 6:2:0:0:2, 3:1:0:0:1, 8:8:0:0:8, 8:1:0:0:1, 4:1:0:0:1, 6:1:0:0:1, 8:1:0:0:1, 4:0:0:0:0, 6:1:0:0:1, 6:2:0:0:2, 4:0:0:0:0, 4:1:0:0:1, 7:2:0:0:2, 4:1:0:0:1, 4:1:0:0:1, 6:2:0:0:2, 6:1:0:0:1, 6:1:0:0:1, 4:0:0:0:0, 4:0:0:0:0, 6:0:0:0:0, 3:1:0:0:1, 5:0:0:0:0, 3:1:0:0:1, 189:40:0:0:40
Gb aeolian (6b), 4:0:0:0:1, 3:0:0:0:2, 3:0:0:0:2, 3:0:0:0:3, 3:0:0:0:1, 4:0:0:0:1, 4:0:0:0:1, 3:0:0:0:3, 6:1:0:0:4, 4:0:0:0:1, 7:0:0:0:2, 3:0:0:0:3, 5:0:0:0:4, 4:0:0:0:3, 3:0:0:0:3, 3:0:0:0:2, 7:0:0:0:4, 5:0:0:0:3, 4:1:0:0:4, 8:1:0:0:7, 7:0:0:0:7, 5:4:0:0:11, 7:0:0:0:8, 4:1:0:0:4, 4:0:0:0:2, 4:0:0:0:1, 5:0:0:0:3, 3:0:0:0:2, 4:0:0:0:1, 4:0:0:0:3, 5:0:0:0:3, 6:0:0:0:4, 8:2:0:0:8, 4:0:0:0:4, 6:0:0:0:3, 3:0:0:0:2, 5:0:0:0:5, 3:0:0:0:1, 173:10:0:0:126
F# aeolian (6#), 4:0:0:0:1, 5:1:0:0:3, 5:1:0:0:3, 5:1:0:0:3, 4:1:0:0:1, 5:1:0:0:4, 7:2:0:0:5, 5:1:0:0:2, 6:1:0:0:1, 5:0:0:0:1, 7:1:1:0:2, 5:1:0:0:2, 5:0:0:0:2, 5:1:0:0:1, 6:2:0:0:4, 4:1:0:0:1, 9:8:0:0:8, 8:1:0:0:4, 4:1:0:0:3, 7:1:0:0:1, 9:1:0:0:2, 5:0:0:0:4, 7:1:0:0:3, 7:2:0:0:2, 4:0:0:0:1, 5:1:0:0:1, 7:2:0:0:4, 5:1:0:0:2, 5:1:0:0:1, 6:2:0:0:7, 6:1:0:0:2, 7:1:0:0:1, 5:0:0:0:0, 5:0:0:0:2, 6:0:0:0:1, 4:1:0:0:1, 5:0:0:0:2, 4:1:0:0:1, 213:41:1:0:89
Gb locrian (6b), 5:0:0:0:3, 5:0:0:0:5, 5:0:0:0:7, 5:0:0:0:5, 4:0:0:0:4, 5:0:0:0:3, 6:0:0:0:2, 5:0:0:0:6, 7:0:0:0:3, 5:0:0:0:3, 8:0:0:0:6, 5:0:0:0:6, 6:0:0:0:6, 5:0:0:0:5, 4:0:0:0:1, 4:0:0:0:4, 9:0:0:0:8, 7:0:0:0:2, 5:1:0:0:4, 9:0:0:0:7, 9:0:0:0:9, 6:4:0:0:12, 8:0:0:0:12, 6:1:0:0:6, 5:0:0:0:5, 5:0:0:0:4, 6:0:0:0:2, 5:0:0:0:5, 5:0:0:0:6, 5:0:0:0:3, 6:0:0:0:2, 7:0:0:0:8, 9:1:0:0:9, 5:0:0:0:4, 7:0:0:0:6, 4:0:0:0:2, 6:0:0:0:11, 4:0:0:0:4, 222:7:0:0:200
F# locrian (6#), 4:0:0:0:0, 4:1:0:0:0, 4:1:0:0:0, 4:2:0:0:0, 3:2:0:0:0, 4:1:0:0:1, 6:2:0:0:3, 4:1:0:0:0, 4:1:0:0:0, 4:0:0:0:0, 7:0:0:0:0, 4:3:0:0:0, 4:0:0:0:0, 3:1:0:0:0, 5:2:0:0:2, 3:1:0:0:0, 7:8:0:0:2, 7:1:0:0:2, 3:1:0:0:1, 5:1:0:0:0, 7:1:0:0:0, 3:0:0:0:0, 5:1:0:0:1, 6:2:0:0:1, 4:0:0:0:0, 4:1:0:0:0, 6:2:0:0:2, 4:1:0:0:0, 4:2:0:0:0, 5:2:0:0:2, 5:1:0:0:1, 5:1:0:0:0, 3:0:0:0:1, 3:0:0:0:0, 5:0:0:0:2, 3:1:0:0:0, 4:0:0:0:0, 3:1:0:0:0, 168:45:0:0:21
Cb major (7b), 5:0:0:0:2, 4:0:0:0:2, 4:0:0:0:2, 4:0:0:0:3, 3:0:0:0:1, 5:0:0:0:1, 5:0:0:0:1, 4:0:0:0:2, 6:0:0:0:2, 5:0:0:0:2, 8:0:0:0:3, 4:0:0:0:2, 6:0:0:0:5, 4:0:0:0:2, 4:0:0:0:2, 3:0:0:0:1, 8:0:0:0:5, 6:0:0:0:3, 5:1:0:0:4, 8:0:0:0:6, 8:0:0:0:8, 6:4:0:0:15, 8:0:0:0:10, 5:1:0:0:4, 5:0:0:0:4, 4:0:0:0:1, 6:0:0:0:1, 4:0:0:0:2, 4:0:0:0:5, 5:0:0:0:4, 6:0:0:0:2, 6:0:0:0:5, 9:1:0:0:5, 5:0:0:0:6, 7:0:0:0:4, 3:0:0:0:1, 6:0:0:0:10, 3:0:0:0:1, 201:7:0:0:139
C# major (7#), 5:0:0:0:1, 5:1:0:0:5, 5:1:0:0:5, 5:1:0:0:5, 4:1:0:0:3, 6:1:0:0:5, 7:2:0:0:6, 5:1:0:0:6, 6:1:0:0:3, 4:0:0:0:1, 8:1:1:0:2, 5:1:0:0:6, 6:0:0:0:2, 5:1:0:0:3, 6:2:0:0:5, 4:1:0:0:3, 9:8:0:0:12, 8:1:0:0:5, 5:1:0:0:5, 7:1:0:0:4, 9:1:0:0:5, 5:0:0:0:4, 8:1:0:0:4, 7:2:0:0:4, 5:0:0:0:5, 5:1:0:0:5, 7:2:0:0:5, 5:1:0:0:5, 5:1:0:0:3, 6:2:0:0:8, 7:1:0:0:3, 7:1:0:0:3, 6:0:0:0:0, 4:0:0:0:2, 7:0:0:0:2, 4:1:0:0:5, 6:0:0:0:4, 4:1:0:0:3, 222:41:1:0:157
Ab minor (7b), 4:0:0:0:1, 3:0:0:0:2, 3:0:0:0:2, 3:0:0:0:3, 2:0:0:0:1, 4:0:0:0:1, 4:0:0:0:1, 3:0:0:0:2, 5:0:0:0:2, 4:0:0:0:1, 7:0:0:0:2, 3:0:0:0:2, 5:0:0:0:4, 3:0:0:0:2, 5:0:0:0:2, 2:0:0:0:1, 7:0:0:0:4, 6:0:0:0:2, 5:1:0:0:4, 7:0:0:0:5, 7:0:0:0:7, 5:4:0:0:11, 7:0:0:0:8, 4:1:0:0:4, 4:0:0:0:2, 3:0:0:0:1, 5:0:0:0:1, 3:0:0:0:2, 3:0:0:0:1, 4:0:0:0:3, 5:0:0:0:2, 5:0:0:0:4, 8:1:0:0:5, 5:0:0:0:4, 6:0:0:0:3, 2:0:0:0:1, 5:0:0:0:5, 2:0:0:0:1, 168:7:0:0:109
A# minor (7#), 5:0:0:0:3, 5:1:0:0:10, 5:1:0:0:12, 5:1:0:0:10, 4:1:0:0:7, 6:1:0:0:8, 7:2:0:0:8, 5:1:0:0:13, 6:1:0:0:7, 4:0:0:0:4, 8:1:1:0:6, 5:1:0:0:13, 6:0:0:0:7, 5:1:0:0:9, 6:2:0:0:7, 4:1:0:0:8, 9:8:0:0:20, 8:1:0:0:8, 6:1:0:0:7, 7:1:0:0:10, 9:1:0:0:12, 5:0:0:0:16, 8:1:0:0:13, 7:2:0:0:9, 5:0:0:0:8, 5:1:0:0:9, 7:2:0:0:9, 5:1:0:0:10, 5:1:0:0:9, 6:2:0:0:12, 7:1:0:0:6, 7:1:0:0:9, 6:0:0:0:9, 4:0:0:0:6, 7:0:0:0:6, 4:1:0:0:8, 6:0:0:0:11, 4:1:0:0:7, 223:41:1:0:346
Ab minor mel (7b), 3:0:0:0:1, 2:0:0:0:2, 2:0:0:0:2, 2:0:0:0:3, 2:0:0:0:1, 3:0:0:0:1, 3:0:0:0:1, 2:0:0:0:3, 5:1:0:0:4, 3:0:0:0:1, 6:0:0:0:2, 2:0:0:0:3, 4:0:0:0:4, 3:0:0:0:3, 4:0:0:0:3, 2:0:0:0:2, 6:0:0:0:4, 5:0:0:0:3, 4:1:0:0:4, 7:1:0:0:7, 6:0:0:0:7, 4:4:0:0:11, 6:0:0:0:8, 3:1:0:0:4, 3:0:0:0:2, 3:0:0:0:1, 4:0:0:0:3, 2:0:0:0:2, 3:0:0:0:1, 3:0:0:0:3, 4:0:0:0:3, 5:0:0:0:4, 7:2:0:0:8, 4:0:0:0:4, 5:0:0:0:3, 2:0:0:0:2, 4:0:0:0:5, 2:0:0:0:1, 140:10:0:0:126
A# minor mel (7#), 5:0:0:0:3, 5:1:0:0:9, 5:1:0:0:9, 5:1:0:0:9, 4:1:0:0:5, 6:1:0:0:8, 7:2:0:0:8, 5:1:0:0:12, 6:1:0:0:7, 4:0:0:0:4, 8:1:1:0:6, 5:1:0:0:12, 6:0:0:0:7, 5:1:0:0:7, 6:2:0:0:7, 4:1:0:0:6, 9:8:0:0:19, 8:1:0:0:8, 6:1:0:0:7, 8:1:0:0:10, 9:1:0:0:12, 5:0:0:0:16, 8:1:0:0:13, 7:2:0:0:10, 5:0:0:0:8, 5:1:0:0:7, 7:2:0:0:9, 5:1:0:0:9, 5:1:0:0:9, 6:2:0:0:12, 7:1:0:0:6, 7:1:0:0:7, 7:0:0:0:7, 4:0:0:0:6, 7:0:0:0:6, 4:1:0:0:8, 6:0:0:0:11, 4:1:0:0:5, 225:41:1:0:324
Cb major blues (7b), 5:0:0:0:4, 5:0:0:0:7, 5:0:0:0:9, 5:0:0:0:7, 4:0:0:0:6, 6:0:0:0:4, 7:0:0:0:6, 5:0:0:0:11, 7:1:0:0:7, 5:0:0:0:6, 9:0:0:0:8, 5:0:0:0:11, 6:0:0:0:8, 5:0:0:0:8, 5:0:0:0:6, 4:0:0:0:7, 9:0:0:0:12, 8:0:0:0:8, 6:1:0:0:6, 9:1:0:0:12, 9:0:0:0:12, 6:4:0:0:16, 8:0:0:0:13, 6:1:0:0:8, 5:0:0:0:9, 5:0:0:0:8, 7:0:0:0:8, 5:0:0:0:8, 5:0:0:0:8, 6:0:0:0:8, 7:0:0:0:6, 7:0:0:0:10, 9:2:0:0:12, 5:0:0:0:7, 7:0:0:0:7, 4:0:0:0:7, 6:0:0:0:16, 4:0:0:0:6, 231:10:0:0:322
C# major blues (7#), 5:0:0:0:3, 5:1:0:0:8, 5:1:0:0:10, 5:1:0:0:7, 4:1:0:0:6, 6:1:0:0:7, 7:2:0:0:10, 5:1:0:0:10, 6:1:0:0:4, 5:0:0:0:6, 9:0:0:0:8, 5:1:0:0:10, 6:0:0:0:5, 5:1:0:0:6, 6:2:0:0:7, 4:1:0:0:6, 9:8:0:0:15, 8:1:0:0:8, 5:1:0:0:5, 8:1:0:0:5, 9:1:0:0:6, 5:0:0:0:5, 8:1:0:0:6, 7:2:0:0:7, 5:0:0:0:6, 5:1:0:0:8, 7:2:0:0:9, 5:1:0:0:8, 5:1:0:0:4, 6:2:0:0:11, 7:1:0:0:5, 7:1:0:0:6, 7:0:0:0:4, 5:0:0:0:4, 7:0:0:0:5, 4:1:0:0:6, 6:0:0:0:8, 4:1:0:0:6, 227:40:0:0:260
Ab minor blues (7b), 5:0:0:0:4, 5:0:0:0:7, 5:0:0:0:9, 5:0:0:0:7, 4:0:0:0:6, 6:0:0:0:4, 7:0:0:0:6, 5:0:0:0:11, 7:1:0:0:7, 5:0:0:0:6, 9:0:0:0:8, 5:0:0:0:11, 6:0:0:0:8, 5:0:0:0:8, 5:0:0:0:6, 4:0:0:0:7, 9:0:0:0:12, 8:0:0:0:8, 6:1:0:0:6, 9:1:0:0:12, 9:0:0:0:12, 6:4:0:0:16, 8:0:0:0:13, 6:1:0:0:8, 5:0:0:0:9, 5:0:0:0:8, 7:0:0:0:8, 5:0:0:0:8, 5:0:0:0:8, 6:0:0:0:8, 7:0:0:0:6, 7:0:0:0:10, 9:2:0:0:12, 5:0:0:0:7, 7:0:0:0:7, 4:0:0:0:7, 6:0:0:0:16, 4:0:0:0:6, 231:10:0:0:322
A# minor blues (7#), 5:0:0:0:3, 5:1:0:0:8, 5:1:0:0:10, 5:1:0:0:7, 4:1:0:0:6, 6:1:0:0:7, 7:2:0:0:10, 5:1:0:0:10, 6:1:0:0:4, 5:0:0:0:6, 9:0:0:0:8, 5:1:0:0:10, 6:0:0:0:5, 5:1:0:0:6, 6:2:0:0:7, 4:1:0:0:6, 9:8:0:0:15, 8:1:0:0:8, 5:1:0:0:5, 8:1:0:0:5, 9:1:0:0:6, 5:0:0:0:5, 8:1:0:0:6, 7:2:0:0:7, 5:0:0:0:6, 5:1:0:0:8, 7:2:0:0:9, 5:1:0:0:8, 5:1:0:0:4, 6:2:0:0:11, 7:1:0:0:5, 7:1:0:0:6, 7:0:0:0:4, 5:0:0:0:4, 7:0:0:0:5, 4:1:0:0:6, 6:0:0:0:8, 4:1:0:0:6, 227:40:0:0:260
Cb dorian (7b), 4:0:0:0:1, 3:0:0:0:2, 3:0:0:0:2, 3:0:0:0:3, 3:0:0:0:1, 4:0:0:0:1, 4:0:0:0:1, 3:0:0:0:3, 6:1:0:0:4, 4:0:0:0:1, 7:0:0:0:2, 3:0:0:0:3, 5:0:0:0:4, 4:0:0:0:3, 3:0:0:0:3, 3:0:0:0:2, 7:0:0:0:4, 5:0:0:0:3, 4:1:0:0:4, 8:1:0:0:7, 7:0:0:0:7, 5:4:0:0:11, 7:0:0:0:8, 4:1:0:0:4, 4:0:0:0:2, 4:0:0:0:1, 5:0:0:0:3, 3:0:0:0:2, 4:0:0:0:1, 4:0:0:0:3, 5:0:0:0:3, 6:0:0:0:4, 8:2:0:0:8, 4:0:0:0:4, 6:0:0:0:3, 3:0:0:0:2, 5:0:0:0:5, 3:0:0:0:1, 173:10:0:0:126
C# dorian (7#), 5:0:0:0:2, 5:1:0:0:7, 5:1:0:0:7, 5:1:0:0:6, 4:1:0:0:4, 6:1:0:0:7, 7:2:0:0:7, 5:1:0:0:9, 6:1:0:0:4, 4:0:0:0:2, 8:1:1:0:5, 5:1:0:0:9, 6:0:0:0:3, 5:1:0:0:4, 6:2:0:0:5, 4:1:0:0:4, 9:8:0:0:14, 8:1:0:0:5, 5:1:0:0:5, 8:1:0:0:5, 9:1:0:0:6, 5:0:0:0:5, 8:1:0:0:6, 7:2:0:0:7, 5:0:0:0:6, 5:1:0:0:6, 7:2:0:0:6, 5:1:0:0:7, 5:1:0:0:4, 6:2:0:0:9, 7:1:0:0:4, 7:1:0:0:4, 7:0:0:0:2, 4:0:0:0:2, 7:0:0:0:4, 4:1:0:0:6, 6:0:0:0:5, 4:1:0:0:4, 224:41:1:0:207
Cb phrygian (7b), 5:0:0:0:3, 5:0:0:0:5, 5:0:0:0:7, 5:0:0:0:5, 4:0:0:0:4, 5:0:0:0:3, 6:0:0:0:2, 5:0:0:0:6, 7:0:0:0:3, 5:0:0:0:3, 8:0:0:0:6, 5:0:0:0:6, 6:0:0:0:6, 5:0:0:0:5, 4:0:0:0:1, 4:0:0:0:4, 9:0:0:0:8, 7:0:0:0:2, 5:1:0:0:4, 9:0:0:0:7, 9:0:0:0:9, 6:4:0:0:12, 8:0:0:0:12, 6:1:0:0:6, 5:0:0:0:5, 5:0:0:0:4, 6:0:0:0:2, 5:0:0:0:5, 5:0:0:0:6, 5:0:0:0:3, 6:0:0:0:2, 7:0:0:0:8, 9:1:0:0:9, 5:0:0:0:4, 7:0:0:0:6, 4:0:0:0:2, 6:0:0:0:11, 4:0:0:0:4, 222:7:0:0:200
C# phrygian (7#), 4:0:0:0:1, 5:1:0:0:3, 5:1:0:0:3, 5:1:0:0:3, 4:1:0:0:1, 5:1:0:0:4, 7:2:0:0:5, 5:1:0:0:2, 6:1:0:0:1, 5:0:0:0:1, 7:1:1:0:2, 5:1:0:0:2, 5:0:0:0:2, 5:1:0:0:1, 6:2:0:0:4, 4:1:0:0:1, 9:8:0:0:8, 8:1:0:0:4, 4:1:0:0:3, 7:1:0:0:1, 9:1:0:0:2, 5:0:0:0:4, 7:1:0:0:3, 7:2:0:0:2, 4:0:0:0:1, 5:1:0:0:1, 7:2:0:0:4, 5:1:0:0:2, 5:1:0:0:1, 6:2:0:0:7, 6:1:0:0:2, 7:1:0:0:1, 5:0:0:0:0, 5:0:0:0:2, 6:0:0:0:1, 4:1:0:0:1, 5:0:0:0:2, 4:1:0:0:1, 213:41:1:0:89
Cb lydian (7b), 4:0:0:0:1, 3:0:0:0:2, 3:0:0:0:2, 3:0:0:0:3, 3:0:0:0:1, 4:0:0:0:1, 4:0:0:0:1, 3:0:0:0:3, 6:1:0:0:4, 4:0:0:0:1, 7:0:0:0:2, 3:0:0:0:3, 5:0:0:0:4, 4:0:0:0:3, 3:0:0:0:3, 3:0:0:0:2, 7:0:0:0:4, 5:0:0:0:3, 4:1:0:0:4, 8:1:0:0:7, 7:0:0:0:7, 5:4:0:0:11, 7:0:0:0:8, 4:1:0:0:4, 4:0:0:0:2, 4:0:0:0:1, 5:0:0:0:3, 3:0:0:0:2, 4:0:0:0:1, 4:0:0:0:3, 5:0:0:0:3, 6:0:0:0:4, 8:2:0:0:8, 4:0:0:0:4, 6:0:0:0:3, 3:0:0:0:2, 5:0:0:0:5, 3:0:0:0:1, 173:10:0:0:126
C# lydian (7#), 5:0:0:0:2, 5:1:0:0:7, 5:1:0:0:7, 5:1:0:0:6, 4:1:0:0:4, 6:1:0:0:7, 7:2:0:0:7, 5:1:0:0:9, 6:1:0:0:4, 4:0:0:0:2, 8:1:1:0:5, 5:1:0:0:9, 6:0:0:0:3, 5:1:0:0:4, 6:2:0:0:5, 4:1:0:0:4, 9:8:0:0:14, 8:1:0:0:5, 5:1:0:0:5, 8:1:0:0:5, 9:1:0:0:6, 5:0:0:0:5, 8:1:0:0:6, 7:2:0:0:7, 5:0:0:0:6, 5:1:0:0:6, 7:2:0:0:6, 5:1:0:0:7, 5:1:0:0:4, 6:2:0:0:9, 7:1:0:0:4, 7:1:0:0:4, 7:0:0:0:2, 4:0:0:0:2, 7:0:0:0:4, 4:1:0:0:6, 6:0:0:0:5, 4:1:0:0:4, 224:41:1:0:207
Cb mixolydian (7b), 5:0:0:0:3, 5:0:0:0:5, 5:0:0:0:7, 5:0:0:0:5, 4:0:0:0:4, 5:0:0:0:3, 6:0:0:0:2, 5:0:0:0:6, 7:0:0:0:3, 5:0:0:0:3, 8:0:0:0:6, 5:0:0:0:6, 6:0:0:0:6, 5:0:0:0:5, 4:0:0:0:1, 4:0:0:0:4, 9:0:0:0:8, 7:0:0:0:2, 5:1:0:0:4, 9:0:0:0:7, 9:0:0:0:9, 6:4:0:0:12, 8:0:0:0:12, 6:1:0:0:6, 5:0:0:0:5, 5:0:0:0:4, 6:0:0:0:2, 5:0:0:0:5, 5:0:0:0:6, 5:0:0:0:3, 6:0:0:0:2, 7:0:0:0:8, 9:1:0:0:9, 5:0:0:0:4, 7:0:0:0:6, 4:0:0:0:2, 6:0:0:0:11, 4:0:0:0:4, 222:7:0:0:200
C# mixolydian (7#), 4:0:0:0:1, 5:1:0:0:3, 5:1:0:0:3, 5:1:0:0:3, 4:1:0:0:1, 5:1:0:0:4, 7:2:0:0:5, 5:1:0:0:2, 6:1:0:0:1, 5:0:0:0:1, 7:1:1:0:2, 5:1:0:0:2, 5:0:0:0:2, 5:1:0:0:1, 6:2:0:0:4, 4:1:0:0:1, 9:8:0:0:8, 8:1:0:0:4, 4:1:0:0:3, 7:1:0:0:1, 9:1:0:0:2, 5:0:0:0:4, 7:1:0:0:3, 7:2:0:0:2, 4:0:0:0:1, 5:1:0:0:1, 7:2:0:0:4, 5:1:0:0:2, 5:1:0:0:1, 6:2:0:0:7, 6:1:0:0:2, 7:1:0:0:1, 5:0:0:0:0, 5:0:0:0:2, 6:0:0:0:1, 4:1:0:0:1, 5:0:0:0:2, 4:1:0:0:1, 213:41:1:0:89
Cb aeolian (7b), 5:0:0:0:2, 4:0:0:0:2, 4:0:0:0:2, 4:0:0:0:3, 3:0:0:0:1, 5:0:0:0:1, 5:0:0:0:1, 4:0:0:0:2, 6:0:0:0:2, 5:0:0:0:2, 8:0:0:0:3, 4:0:0:0:2, 6:0:0:0:5, 4:0:0:0:2, 4:0:0:0:2, 3:0:0:0:1, 8:0:0:0:5, 6:0:0:0:3, 5:1:0:0:4, 8:0:0:0:6, 8:0:0:0:8, 6:4:0:0:15, 8:0:0:0:10, 5:1:0:0:4, 5:0:0:0:4, 4:0:0:0:1, 6:0:0:0:1, 4:0:0:0:2, 4:0:0:0:5, 5:0:0:0:4, 6:0:0:0:2, 6:0:0:0:5, 9:1:0:0:5, 5:0:0:0:6, 7:0:0:0:4, 3:0:0:0:1, 6:0:0:0:10, 3:0:0:0:1, 201:7:0:0:139
C# aeolian (7#), 5:0:0:0:1, 5:1:0:0:5, 5:1:0:0:5, 5:1:0:0:5, 4:1:0:0:3, 6:1:0:0:5, 7:2:0:0:6, 5:1:0:0:6, 6:1:0:0:3, 4:0:0:0:1, 8:1:1:0:2, 5:1:0:0:6, 6:0:0:0:2, 5:1:0:0:3, 6:2:0:0:5, 4:1:0:0:3, 9:8:0:0:12, 8:1:0:0:5, 5:1:0:0:5, 7:1:0:0:4, 9:1:0:0:5, 5:0:0:0:4, 8:1:0:0:4, 7:2:0:0:4, 5:0:0:0:5, 5:1:0:0:5, 7:2:0:0:5, 5:1:0:0:5, 5:1:0:0:3, 6:2:0:0:8, 7:1:0:0:3, 7:1:0:0:3, 6:0:0:0:0, 4:0:0:0:2, 7:0:0:0:2, 4:1:0:0:5, 6:0:0:0:4, 4:1:0:0:3, 222:41:1:0:157
Cb locrian (7b), 5:0:0:0:4, 5:0:0:0:7, 5:0:0:0:9, 5:0:0:0:7, 4:0:0:0:6, 6:0:0:0:4, 7:0:0:0:6, 5:0:0:0:10, 7:0:0:0:5, 5:0:0:0:6, 9:0:0:0:8, 5:0:0:0:10, 6:0:0:0:8, 5:0:0:0:7, 5:0:0:0:4, 4:0:0:0:6, 9:0:0:0:12, 8:0:0:0:6, 6:1:0:0:6, 9:0:0:0:10, 9:0:0:0:12, 6:4:0:0:11, 8:0:0:0:13, 6:1:0:0:8, 5:0:0:0:8, 5:0:0:0:8, 7:0:0:0:6, 5:0:0:0:8, 5:0:0:0:8, 6:0:0:0:6, 7:0:0:0:4, 7:0:0:0:10, 9:1:0:0:9, 5:0:0:0:5, 7:0:0:0:7, 4:0:0:0:6, 6:0:0:0:13, 4:0:0:0:6, 231:7:0:0:289
C# locrian (7#), 4:0:0:0:0, 4:1:0:0:1, 4:1:0:0:1, 4:1:0:0:1, 3:1:0:0:1, 5:1:0:0:1, 7:2:0:0:2, 4:1:0:0:1, 5:1:0:0:1, 5:0:0:0:0, 7:0:0:0:0, 4:1:0:0:1, 4:0:0:0:0, 4:1:0:0:1, 6:2:0:0:2, 3:1:0:0:1, 8:8:0:0:8, 8:1:0:0:1, 4:1:0:0:1, 6:1:0:0:1, 8:1:0:0:1, 4:0:0:0:0, 6:1:0:0:1, 6:2:0:0:2, 4:0:0:0:0, 4:1:0:0:1, 7:2:0:0:2, 4:1:0:0:1, 4:1:0:0:1, 6:2:0:0:2, 6:1:0:0:1, 6:1:0:0:1, 4:0:0:0:0, 4:0:0:0:0, 6:0:0:0:0, 3:1:0:0:1, 5:0:0:0:0, 3:1:0:0:1, 189:40:0:0:40
