 , 0, 1, 2, 3, 4, 5, 6, 7, 8, 9, 10, 11, 12, 13, 14, 15, 16, 17, 18, 19, 20, 21, 22, 23, 24, 25, 26, 27, 28, 29, 30, 31, 32, 33, 34, 35, 36, 37, 38, 39, 40, 41, 42, 43, 44, 45, 46, 47, 48, 49, 50, 51, 52, 53, 54, 55, 56, 57, 58, 59, 60, 61, 62, 63, 64, 65, 66, 67, 68, 69, 70, 71, 72, 73, 74, 75, 76, 77, 78, 79, 80, 81, 82, 83, 84, 85, 86, 87, 88, 89, 90, 91, 92, 93, 94, 95, 96, 97, 98, 99, 100, 101, 102, 103, 104, 105, 106, 107, 108, 109, 110, 111, 112, 113, 114, 115, 116, 117, 118, 119, 120, 121, 122, 123, 124, 125, 126, 127, 128, 129, 130, 131, 132, 133, 134, 135, 136, 137, 138, 139, 140, 141, 142, 143, 144, 145, 146, 147, 148, 149, 150, 151, 152, 153, 154, 155, 156, 157, 158, 159, 160, 161, 162, 163, 164, 165, 166, 167, 168, 169, 170, 171, 172, 173, 174, 175, 176, 177, 178, 179, 180, 181, 182, 183, 184, 185, 186, 187, 188, 189, rowcost
C major (0), 4:0:1:0:1,  , 2:0:0:0:0,  , 4:0:1:0:1,  , 2:0:0:0:0,  , 1:0:0:0:0, 2:0:0:0:0, 1:0:0:0:0, 1:0:0:0:0, 2:0:0:0:0, 1:0:0:0:2, 2:0:0:0:1,  , 0:0:0:0:0, 1:0:0:0:0, 1:0:0:0:0, 0:0:0:0:0, 1:0:0:0:0, 3:0:0:0:1, 2:0:0:0:4, 0:0:0:0:0, 1:0:0:0:0, 2:0:0:0:1, 2:0:0:0:3, 1:0:0:0:0, 5:0:0:0:3, 5:0:1:0:3, 4:0:1:0:4, 3:0:0:0:0, 1:0:0:0:0, 2:0:0:0:0, 1:0:0:0:0, 1:0:0:0:0, 2:0:0:0:0, 4:0:0:0:1, 0:0:0:0:0, 3:0:0:0:2, 2:0:0:0:0, 1:0:0:0:0, 2:0:0:0:1, 2:0:0:0:0, 1:0:0:0:0, 3:0:0:0:1, 4:0:0:0:1, 2:0:0:0:1, 2:0:0:0:0, 4:0:0:0:2, 2:0:0:0:1, 3:0:0:0:1, 1:0:0:0:1, 2:0:0:0:1, 2:0:0:0:1, 1:0:0:0:0, 3:0:0:0:0, 2:0:0:0:2, 2:0:0:0:2, 2:0:0:0:0, 2:0:0:0:0, 1:0:0:0:1, 4:0:0:0:2, 1:0:0:0:2, 4:0:0:0:2, 6:0:1:0:5, 7:0:4:0:8, 4:0:1:0:1, 1:0:0:0:0, 2:0:0:0:0, 3:0:0:0:0, 2:0:0:0:1, 2:0:0:0:0, 8:0:1:0:4, 2:0:0:0:0, 4:0:0:0:4, 2:0:0:0:0, 2:0:0:0:0, 2:0:0:0:1, 3:0:0:0:0, 1:0:0:0:0, 2:0:0:0:0, 1:0:0:0:0, 1:0:0:0:0, 2:0:0:0:0, 1:0:0:0:1, 2:0:0:0:1, 0:0:0:0:0, 0:0:0:0:0, 1:0:0:0:0, 1:0:0:0:0, 0:0:0:0:0, 1:0:0:0:0, 2:0:0:0:1, 2:0:0:0:2, 0:0:0:0:0, 1:0:0:0:0, 1:0:0:0:1, 2:0:0:0:3,  , 3:0:0:0:3, 3:0:1:0:4, 4:0:1:0:5, 2:0:0:0:0, 1:0:0:0:0, 2:0:0:0:0, 1:0:0:0:0, 1:0:0:0:0, 2:0:0:0:0, 4:0:0:0:1, 0:0:0:0:0, 2:0:0:0:3, 2:0:0:0:0, 2:0:0:0:0, 1:0:0:0:0, 2:0:0:0:0, 1:0:0:0:0, 2:0:0:0:0, 1:0:0:0:0, 1:0:0:0:0, 2:0:0:0:0, 3:0:0:0:2, 2:0:0:0:1, 1:0:0:0:0, 0:0:0:0:0, 1:0:0:0:0, 2:0:0:0:1, 0:0:0:0:0, 1:0:0:0:0, 5:0:0:0:3, 2:0:0:0:3, 0:0:0:0:0, 1:0:0:0:0, 1:0:0:0:1, 2:0:0:0:4, 2:0:0:0:0, 4:0:0:0:3, 3:0:1:0:5, 4:0:1:0:5, 3:0:0:0:0, 1:0:0:0:0, 3:0:0:0:0, 1:0:0:0:0, 1:0:0:0:0, 3:0:0:0:0, 6:0:0:0:1, 1:0:0:0:0, 2:0:0:0:3, 2:0:0:0:0, 1:0:0:0:0, 1:0:0:0:0, 4:0:0:0:0, 1:0:0:0:0, 2:0:0:0:0, 2:0:0:0:0, 2:0:0:0:0, 2:0:0:0:0, 2:0:0:0:1, 2:0:0:0:1, 1:0:0:0:0, 0:0:0:0:0, 1:0:0:0:0, 1:0:0:0:0, 0:0:0:0:0, 2:0:0:0:0, 2:0:0:0:1, 3:0:0:0:4, 1:0:0:0:0, 1:0:0:0:0, 1:0:0:0:3, 2:0:0:0:6, 2:0:0:0:0, 3:0:0:0:6, 3:0:1:0:4, 4:0:1:0:5, 4:0:0:0:0, 1:0:0:0:0, 2:0:0:0:0, 1:0:0:0:0, 1:0:0:0:0, 3:0:0:0:0, 5:0:0:0:1, 1:0:0:0:0, 2:0:0:0:4, 2:0:0:0:0, 2:0:0:0:0, 1:0:0:0:0, 0:0:0:0:0, 0:0:0:0:0, 0:0:0:0:0, 360:0:17:0:166
A minor (0), 4:0:1:0:1,  , 2:0:0:0:0,  , 4:0:1:0:1,  , 2:0:0:0:0,  , 1:0:0:0:0, 2:0:0:0:0, 1:0:0:0:0, 1:0:0:0:0, 2:0:0:0:0, 1:0:0:0:2, 2:0:0:0:1,  , 0:0:0:0:0, 1:0:0:0:0, 1:0:0:0:0, 0:0:0:0:0, 1:0:0:0:0, 3:0:0:0:1, 2:0:0:0:4, 0:0:0:0:0, 1:0:0:0:0, 2:0:0:0:1, 2:0:0:0:3, 1:0:0:0:0, 5:0:0:0:3, 5:0:1:0:3, 4:0:1:0:4, 3:0:0:0:0, 1:0:0:0:0, 2:0:0:0:0, 1:0:0:0:0, 1:0:0:0:0, 2:0:0:0:0, 4:0:0:0:1, 0:0:0:0:0, 3:0:0:0:2, 2:0:0:0:0, 1:0:0:0:0, 2:0:0:0:1, 2:0:0:0:0, 1:0:0:0:0, 3:0:0:0:1, 4:0:0:0:1, 2:0:0:0:1, 2:0:0:0:0, 4:0:0:0:2, 2:0:0:0:1, 3:0:0:0:1, 1:0:0:0:1, 2:0:0:0:1, 2:0:0:0:1, 1:0:0:0:0, 3:0:0:0:0, 2:0:0:0:2, 2:0:0:0:2, 2:0:0:0:0, 2:0:0:0:0, 1:0:0:0:1, 4:0:0:0:2, 1:0:0:0:2, 4:0:0:0:2, 6:0:1:0:5, 7:0:4:0:8, 4:0:1:0:1, 1:0:0:0:0, 2:0:0:0:0, 3:0:0:0:0, 2:0:0:0:1, 2:0:0:0:0, 8:0:1:0:4, 2:0:0:0:0, 4:0:0:0:4, 2:0:0:0:0, 2:0:0:0:0, 2:0:0:0:1, 3:0:0:0:0, 1:0:0:0:0, 2:0:0:0:0, 1:0:0:0:0, 1:0:0:0:0, 2:0:0:0:0, 1:0:0:0:1, 2:0:0:0:1, 0:0:0:0:0, 0:0:0:0:0, 1:0:0:0:0, 1:0:0:0:0, 0:0:0:0:0, 1:0:0:0:0, 2:0:0:0:1, 2:0:0:0:2, 0:0:0:0:0, 1:0:0:0:0, 1:0:0:0:1, 2:0:0:0:3,  , 3:0:0:0:3, 3:0:1:0:4, 4:0:1:0:5, 2:0:0:0:0, 1:0:0:0:0, 2:0:0:0:0, 1:0:0:0:0, 1:0:0:0:0, 2:0:0:0:0, 4:0:0:0:1, 0:0:0:0:0, 2:0:0:0:3, 2:0:0:0:0, 2:0:0:0:0, 1:0:0:0:0, 2:0:0:0:0, 1:0:0:0:0, 2:0:0:0:0, 1:0:0:0:0, 1:0:0:0:0, 2:0:0:0:0, 3:0:0:0:2, 2:0:0:0:1, 1:0:0:0:0, 0:0:0:0:0, 1:0:0:0:0, 2:0:0:0:1, 0:0:0:0:0, 1:0:0:0:0, 5:0:0:0:3, 2:0:0:0:3, 0:0:0:0:0, 1:0:0:0:0, 1:0:0:0:1, 2:0:0:0:4, 2:0:0:0:0, 4:0:0:0:3, 3:0:1:0:5, 4:0:1:0:5, 3:0:0:0:0, 1:0:0:0:0, 3:0:0:0:0, 1:0:0:0:0, 1:0:0:0:0, 3:0:0:0:0, 6:0:0:0:1, 1:0:0:0:0, 2:0:0:0:3, 2:0:0:0:0, 1:0:0:0:0, 1:0:0:0:0, 4:0:0:0:0, 1:0:0:0:0, 2:0:0:0:0, 2:0:0:0:0, 2:0:0:0:0, 2:0:0:0:0, 2:0:0:0:1, 2:0:0:0:1, 1:0:0:0:0, 0:0:0:0:0, 1:0:0:0:0, 1:0:0:0:0, 0:0:0:0:0, 2:0:0:0:0, 2:0:0:0:1, 3:0:0:0:4, 1:0:0:0:0, 1:0:0:0:0, 1:0:0:0:3, 2:0:0:0:6, 2:0:0:0:0, 3:0:0:0:6, 3:0:1:0:4, 4:0:1:0:5, 4:0:0:0:0, 1:0:0:0:0, 2:0:0:0:0, 1:0:0:0:0, 1:0:0:0:0, 3:0:0:0:0, 5:0:0:0:1, 1:0:0:0:0, 2:0:0:0:4, 2:0:0:0:0, 2:0:0:0:0, 1:0:0:0:0, 0:0:0:0:0, 0:0:0:0:0, 0:0:0:0:0, 360:0:17:0:166
F major (1b), 3:0:1:0:1,  , 2:1:0:0:1,  , 3:0:1:0:1,  , 2:1:0:0:1,  , 0:0:0:0:0, 1:0:0:0:0, 1:0:0:0:0, 0:0:0:0:0, 1:0:0:0:0, 2:2:0:0:2, 2:3:0:0:3,  , 0:0:0:0:0, 0:0:0:0:0, 0:0:0:0:0, 0:0:0:0:0, 0:0:0:0:0, 4:2:0:0:2, 2:4:0:0:4, 0:0:0:0:0, 2:1:0:0:1, 3:1:0:0:1, 2:3:0:0:3, 1:0:0:0:0, 6:4:0:0:4, 6:3:1:0:3, 4:4:1:0:4, 2:1:0:0:1, 0:0:0:0:0, 1:0:0:0:0, 1:0:0:0:0, 0:0:0:0:0, 1:0:0:0:0, 3:0:0:0:0, 0:0:0:0:0, 4:2:0:0:2, 1:0:0:0:0, 1:0:0:0:0, 1:1:0:0:1, 2:1:0:0:1, 0:0:0:0:0, 2:1:0:0:1, 3:1:0:0:1, 1:1:0:0:1, 1:0:0:0:0, 5:2:0:0:2, 2:2:0:0:2, 4:1:0:0:1, 1:1:0:0:1, 1:1:0:0:1, 1:1:0:0:1, 1:0:0:0:0, 2:0:0:0:0, 3:4:0:0:4, 2:2:0:0:2, 2:0:0:0:0, 3:1:0:0:1, 2:1:0:0:1, 4:2:0:0:2, 2:2:0:0:2, 5:3:0:0:3, 7:5:1:0:5, 7:9:4:0:9, 4:3:1:0:3, 0:0:0:0:0, 1:0:0:0:0, 2:0:0:0:0, 1:1:0:0:1, 1:0:0:0:0, 7:2:1:0:3, 1:0:0:0:0, 5:4:0:0:4, 1:0:0:0:0, 2:0:0:0:0, 1:1:0:0:1, 2:1:0:0:1, 0:0:0:0:0, 1:0:0:0:0, 1:0:0:0:0, 0:0:0:0:0, 1:0:0:0:0, 2:1:0:0:1, 2:2:0:0:2, 0:0:0:0:0, 0:0:0:0:0, 0:0:0:0:0, 0:0:0:0:0, 0:0:0:0:0, 0:0:0:0:0, 3:2:0:0:2, 2:2:0:0:2, 0:0:0:0:0, 2:2:0:0:2, 2:1:0:0:1, 2:3:0:0:3,  , 4:4:0:0:4, 4:4:1:0:4, 4:5:1:0:5, 2:1:0:0:1, 0:0:0:0:0, 1:0:0:0:0, 1:0:0:0:0, 0:0:0:0:0, 1:0:0:0:0, 3:0:0:0:0, 0:0:0:0:0, 3:3:0:0:3, 1:0:0:0:0, 2:0:0:0:0, 0:0:0:0:0, 2:1:0:0:1, 0:0:0:0:0, 1:0:0:0:0, 1:0:0:0:0, 0:0:0:0:0, 1:0:0:0:0, 4:2:0:0:2, 2:5:0:0:5, 1:0:0:0:0, 0:0:0:0:0, 0:0:0:0:0, 1:1:0:0:1, 0:0:0:0:0, 0:0:0:0:0, 6:4:0:0:4, 2:3:0:0:3, 0:0:0:0:0, 2:1:0:0:1, 2:1:0:0:1, 2:4:0:0:4, 2:0:0:0:0, 5:4:0:0:4, 4:5:1:0:5, 4:5:1:0:5, 3:1:0:0:1, 0:0:0:0:0, 2:0:0:0:0, 1:0:0:0:0, 0:0:0:0:0, 2:0:0:0:0, 5:0:0:0:0, 1:0:0:0:0, 3:3:0:0:3, 1:0:0:0:0, 1:0:0:0:0, 0:0:0:0:0, 3:1:0:0:1, 0:0:0:0:0, 1:0:0:0:0, 1:0:0:0:0, 1:0:0:0:0, 1:0:0:0:0, 3:1:0:0:1, 2:4:0:0:4, 1:0:0:0:0, 0:0:0:0:0, 0:0:0:0:0, 0:0:0:0:0, 0:0:0:0:0, 1:0:0:0:0, 3:4:0:0:4, 3:4:0:0:4, 1:0:0:0:0, 2:3:0:0:3, 2:3:0:0:3, 2:6:0:0:6, 2:0:0:0:0, 4:9:0:0:9, 4:4:1:0:4, 4:6:1:0:6, 3:1:0:0:1, 0:0:0:0:0, 1:0:0:0:0, 1:0:0:0:0, 0:0:0:0:0, 2:0:0:0:0, 4:0:0:0:0, 1:0:0:0:0, 3:4:0:0:4, 1:0:0:0:0, 1:0:0:0:0, 0:0:0:0:0, 0:0:0:0:0, 0:0:0:0:0, 0:0:0:0:0, 316:206:17:0:209
G major (1#), 4:4:1:0:2,  , 1:1:0:0:0,  , 4:4:1:0:2,  , 1:1:0:0:0,  , 2:2:0:0:0, 2:5:0:0:0, 2:1:0:0:0, 2:1:0:0:0, 2:2:0:0:0, 1:0:0:0:0, 1:0:0:0:0,  , 1:0:0:0:0, 2:2:0:0:0, 1:1:0:0:0, 1:0:0:0:0, 2:1:0:0:0, 2:0:0:0:1, 2:0:0:0:1, 0:0:0:0:0, 0:0:0:0:0, 2:0:2:0:3, 2:0:0:0:1, 1:0:0:0:0, 4:0:0:0:3, 5:0:1:0:2, 3:0:1:0:3, 2:1:0:0:1, 2:2:0:0:0, 2:5:0:0:0, 2:1:0:0:0, 2:1:0:0:0, 2:3:0:0:0, 5:5:0:0:2, 1:0:0:0:0, 3:0:0:0:1, 2:5:0:0:0, 2:1:0:0:0, 3:2:0:0:0, 1:2:0:0:0, 2:2:0:0:0, 3:2:0:0:0, 5:3:0:0:1, 3:2:0:0:0, 2:3:0:0:0, 5:0:0:0:2, 1:0:0:0:0, 2:0:0:0:1, 2:0:0:0:0, 3:2:0:0:0, 2:2:0:0:1, 2:0:0:0:1, 4:2:0:0:0, 1:0:0:0:2, 2:0:0:0:1, 1:0:0:0:0, 1:0:0:0:0, 1:0:0:0:1, 4:0:0:0:2, 1:0:0:0:0, 3:0:0:0:2, 6:0:2:0:5, 6:0:4:0:7, 3:1:1:0:2, 2:1:0:0:0, 2:3:0:0:0, 4:4:0:0:5, 3:4:0:0:0, 3:4:0:0:0, 7:9:1:0:6, 3:2:0:0:0, 4:0:0:0:2, 3:3:0:0:0, 3:1:0:0:0, 3:1:0:0:1, 2:5:0:0:0, 2:1:0:0:0, 2:2:0:0:0, 2:1:0:0:0, 2:2:0:0:0, 2:3:0:0:0, 1:0:0:0:0, 1:0:0:0:0, 0:0:0:0:0, 1:0:0:0:0, 2:1:0:0:0, 1:1:0:0:0, 1:0:0:0:0, 2:2:0:0:0, 1:0:0:0:1, 2:0:0:0:1, 0:0:0:0:0, 0:0:0:0:0, 1:0:0:0:1, 2:0:0:0:1,  , 2:0:0:0:3, 3:0:1:0:2, 3:0:1:0:3, 1:1:0:0:0, 2:1:0:0:0, 2:2:0:0:0, 2:1:0:0:0, 2:2:0:0:0, 2:3:0:0:0, 4:6:0:0:4, 1:0:0:0:0, 2:0:0:0:1, 2:2:0:0:0, 3:1:0:0:0, 2:3:0:0:0, 1:2:0:0:0, 2:1:0:0:0, 2:2:0:0:0, 2:1:0:0:0, 2:2:0:0:0, 2:3:0:0:0, 2:0:0:0:1, 1:0:0:0:0, 0:0:0:0:0, 1:0:0:0:0, 2:2:0:0:0, 2:1:0:0:1, 1:0:0:0:0, 2:2:0:0:0, 4:0:0:0:3, 2:0:0:0:2, 0:0:0:0:0, 0:0:0:0:0, 1:0:0:0:1, 2:0:0:0:2, 2:0:0:0:1, 3:0:0:0:3, 3:0:1:0:3, 3:0:1:0:3, 2:1:0:0:0, 2:1:0:0:0, 3:4:0:0:0, 2:1:0:0:0, 2:2:0:0:0, 3:2:0:0:0, 6:5:0:0:4, 2:0:0:0:1, 2:0:0:0:2, 2:5:0:0:0, 2:1:0:0:0, 2:3:0:0:0, 3:4:0:0:0, 2:2:0:0:0, 3:3:0:0:0, 3:2:0:0:0, 3:2:0:0:0, 3:2:0:0:0, 2:0:1:0:1, 1:0:0:0:0, 0:0:0:0:0, 1:0:0:0:0, 2:2:0:0:0, 2:1:0:0:0, 1:0:0:0:0, 3:1:0:0:0, 1:0:0:0:1, 2:0:0:0:3, 0:0:0:0:0, 0:0:0:0:0, 1:0:0:0:3, 2:0:0:0:5, 1:0:0:0:0, 2:0:0:0:6, 3:0:4:0:6, 3:0:1:0:3, 3:3:0:0:1, 2:1:0:0:0, 2:4:0:0:0, 2:1:0:0:0, 2:1:0:0:0, 3:2:0:0:0, 5:7:0:0:4, 2:0:0:0:0, 2:0:0:0:1, 2:4:0:0:0, 3:3:0:0:0, 2:1:0:0:0, 0:0:0:0:0, 0:0:0:0:0, 0:0:0:0:0, 387:231:24:0:142
D minor (1b), 3:0:1:0:1,  , 2:1:0:0:1,  , 3:0:1:0:1,  , 2:1:0:0:1,  , 0:0:0:0:0, 1:0:0:0:0, 1:0:0:0:0, 0:0:0:0:0, 1:0:0:0:0, 2:2:0:0:2, 2:3:0:0:3,  , 0:0:0:0:0, 0:0:0:0:0, 0:0:0:0:0, 0:0:0:0:0, 0:0:0:0:0, 4:2:0:0:2, 2:4:0:0:4, 0:0:0:0:0, 2:1:0:0:1, 3:1:0:0:1, 2:3:0:0:3, 1:0:0:0:0, 6:4:0:0:4, 6:3:1:0:3, 4:4:1:0:4, 2:1:0:0:1, 0:0:0:0:0, 1:0:0:0:0, 1:0:0:0:0, 0:0:0:0:0, 1:0:0:0:0, 3:0:0:0:0, 0:0:0:0:0, 4:2:0:0:2, 1:0:0:0:0, 1:0:0:0:0, 1:1:0:0:1, 2:1:0:0:1, 0:0:0:0:0, 2:1:0:0:1, 3:1:0:0:1, 1:1:0:0:1, 1:0:0:0:0, 5:2:0:0:2, 2:2:0:0:2, 4:1:0:0:1, 1:1:0:0:1, 1:1:0:0:1, 1:1:0:0:1, 1:0:0:0:0, 2:0:0:0:0, 3:4:0:0:4, 2:2:0:0:2, 2:0:0:0:0, 3:1:0:0:1, 2:1:0:0:1, 4:2:0:0:2, 2:2:0:0:2, 5:3:0:0:3, 7:5:1:0:5, 7:9:4:0:9, 4:3:1:0:3, 0:0:0:0:0, 1:0:0:0:0, 2:0:0:0:0, 1:1:0:0:1, 1:0:0:0:0, 7:2:1:0:3, 1:0:0:0:0, 5:4:0:0:4, 1:0:0:0:0, 2:0:0:0:0, 1:1:0:0:1, 2:1:0:0:1, 0:0:0:0:0, 1:0:0:0:0, 1:0:0:0:0, 0:0:0:0:0, 1:0:0:0:0, 2:1:0:0:1, 2:2:0:0:2, 0:0:0:0:0, 0:0:0:0:0, 0:0:0:0:0, 0:0:0:0:0, 0:0:0:0:0, 0:0:0:0:0, 3:2:0:0:2, 2:2:0:0:2, 0:0:0:0:0, 2:2:0:0:2, 2:1:0:0:1, 2:3:0:0:3,  , 4:4:0:0:4, 4:4:1:0:4, 4:5:1:0:5, 2:1:0:0:1, 0:0:0:0:0, 1:0:0:0:0, 1:0:0:0:0, 0:0:0:0:0, 1:0:0:0:0, 3:0:0:0:0, 0:0:0:0:0, 3:3:0:0:3, 1:0:0:0:0, 2:0:0:0:0, 0:0:0:0:0, 2:1:0:0:1, 0:0:0:0:0, 1:0:0:0:0, 1:0:0:0:0, 0:0:0:0:0, 1:0:0:0:0, 4:2:0:0:2, 2:5:0:0:5, 1:0:0:0:0, 0:0:0:0:0, 0:0:0:0:0, 1:1:0:0:1, 0:0:0:0:0, 0:0:0:0:0, 6:4:0:0:4, 2:3:0:0:3, 0:0:0:0:0, 2:1:0:0:1, 2:1:0:0:1, 2:4:0:0:4, 2:0:0:0:0, 5:4:0:0:4, 4:5:1:0:5, 4:5:1:0:5, 3:1:0:0:1, 0:0:0:0:0, 2:0:0:0:0, 1:0:0:0:0, 0:0:0:0:0, 2:0:0:0:0, 5:0:0:0:0, 1:0:0:0:0, 3:3:0:0:3, 1:0:0:0:0, 1:0:0:0:0, 0:0:0:0:0, 3:1:0:0:1, 0:0:0:0:0, 1:0:0:0:0, 1:0:0:0:0, 1:0:0:0:0, 1:0:0:0:0, 3:1:0:0:1, 2:4:0:0:4, 1:0:0:0:0, 0:0:0:0:0, 0:0:0:0:0, 0:0:0:0:0, 0:0:0:0:0, 1:0:0:0:0, 3:4:0:0:4, 3:4:0:0:4, 1:0:0:0:0, 2:3:0:0:3, 2:3:0:0:3, 2:6:0:0:6, 2:0:0:0:0, 4:9:0:0:9, 4:4:1:0:4, 4:6:1:0:6, 3:1:0:0:1, 0:0:0:0:0, 1:0:0:0:0, 1:0:0:0:0, 0:0:0:0:0, 2:0:0:0:0, 4:0:0:0:0, 1:0:0:0:0, 3:4:0:0:4, 1:0:0:0:0, 1:0:0:0:0, 0:0:0:0:0, 0:0:0:0:0, 0:0:0:0:0, 0:0:0:0:0, 316:206:17:0:209
E minor (1#), 4:4:1:0:2,  , 1:1:0:0:0,  , 4:4:1:0:2,  , 1:1:0:0:0,  , 2:2:0:0:0, 2:5:0:0:0, 2:1:0:0:0, 2:1:0:0:0, 2:2:0:0:0, 1:0:0:0:0, 1:0:0:0:0,  , 1:0:0:0:0, 2:2:0:0:0, 1:1:0:0:0, 1:0:0:0:0, 2:1:0:0:0, 2:0:0:0:1, 2:0:0:0:1, 0:0:0:0:0, 0:0:0:0:0, 2:0:2:0:3, 2:0:0:0:1, 1:0:0:0:0, 4:0:0:0:3, 5:0:1:0:2, 3:0:1:0:3, 2:1:0:0:1, 2:2:0:0:0, 2:5:0:0:0, 2:1:0:0:0, 2:1:0:0:0, 2:3:0:0:0, 5:5:0:0:2, 1:0:0:0:0, 3:0:0:0:1, 2:5:0:0:0, 2:1:0:0:0, 3:2:0:0:0, 1:2:0:0:0, 2:2:0:0:0, 3:2:0:0:0, 5:3:0:0:1, 3:2:0:0:0, 2:3:0:0:0, 5:0:0:0:2, 1:0:0:0:0, 2:0:0:0:1, 2:0:0:0:0, 3:2:0:0:0, 2:2:0:0:1, 2:0:0:0:1, 4:2:0:0:0, 1:0:0:0:2, 2:0:0:0:1, 1:0:0:0:0, 1:0:0:0:0, 1:0:0:0:1, 4:0:0:0:2, 1:0:0:0:0, 3:0:0:0:2, 6:0:2:0:5, 6:0:4:0:7, 3:1:1:0:2, 2:1:0:0:0, 2:3:0:0:0, 4:4:0:0:5, 3:4:0:0:0, 3:4:0:0:0, 7:9:1:0:6, 3:2:0:0:0, 4:0:0:0:2, 3:3:0:0:0, 3:1:0:0:0, 3:1:0:0:1, 2:5:0:0:0, 2:1:0:0:0, 2:2:0:0:0, 2:1:0:0:0, 2:2:0:0:0, 2:3:0:0:0, 1:0:0:0:0, 1:0:0:0:0, 0:0:0:0:0, 1:0:0:0:0, 2:1:0:0:0, 1:1:0:0:0, 1:0:0:0:0, 2:2:0:0:0, 1:0:0:0:1, 2:0:0:0:1, 0:0:0:0:0, 0:0:0:0:0, 1:0:0:0:1, 2:0:0:0:1,  , 2:0:0:0:3, 3:0:1:0:2, 3:0:1:0:3, 1:1:0:0:0, 2:1:0:0:0, 2:2:0:0:0, 2:1:0:0:0, 2:2:0:0:0, 2:3:0:0:0, 4:6:0:0:4, 1:0:0:0:0, 2:0:0:0:1, 2:2:0:0:0, 3:1:0:0:0, 2:3:0:0:0, 1:2:0:0:0, 2:1:0:0:0, 2:2:0:0:0, 2:1:0:0:0, 2:2:0:0:0, 2:3:0:0:0, 2:0:0:0:1, 1:0:0:0:0, 0:0:0:0:0, 1:0:0:0:0, 2:2:0:0:0, 2:1:0:0:1, 1:0:0:0:0, 2:2:0:0:0, 4:0:0:0:3, 2:0:0:0:2, 0:0:0:0:0, 0:0:0:0:0, 1:0:0:0:1, 2:0:0:0:2, 2:0:0:0:1, 3:0:0:0:3, 3:0:1:0:3, 3:0:1:0:3, 2:1:0:0:0, 2:1:0:0:0, 3:4:0:0:0, 2:1:0:0:0, 2:2:0:0:0, 3:2:0:0:0, 6:5:0:0:4, 2:0:0:0:1, 2:0:0:0:2, 2:5:0:0:0, 2:1:0:0:0, 2:3:0:0:0, 3:4:0:0:0, 2:2:0:0:0, 3:3:0:0:0, 3:2:0:0:0, 3:2:0:0:0, 3:2:0:0:0, 2:0:1:0:1, 1:0:0:0:0, 0:0:0:0:0, 1:0:0:0:0, 2:2:0:0:0, 2:1:0:0:0, 1:0:0:0:0, 3:1:0:0:0, 1:0:0:0:1, 2:0:0:0:3, 0:0:0:0:0, 0:0:0:0:0, 1:0:0:0:3, 2:0:0:0:5, 1:0:0:0:0, 2:0:0:0:6, 3:0:4:0:6, 3:0:1:0:3, 3:3:0:0:1, 2:1:0:0:0, 2:4:0:0:0, 2:1:0:0:0, 2:1:0:0:0, 3:2:0:0:0, 5:7:0:0:4, 2:0:0:0:0, 2:0:0:0:1, 2:4:0:0:0, 3:3:0:0:0, 2:1:0:0:0, 0:0:0:0:0, 0:0:0:0:0, 0:0:0:0:0, 387:231:24:0:142
Bb major (2b), 2:0:1:0:1,  , 1:1:0:0:1,  , 2:0:1:0:1,  , 1:1:0:0:1,  , 0:0:0:0:0, 0:0:0:0:0, 0:0:0:0:0, 0:0:0:0:0, 0:0:0:0:0, 3:2:0:0:3, 2:3:0:0:3,  , 0:0:0:0:0, 0:0:0:0:0, 1:0:0:0:0, 1:0:0:0:0, 0:0:0:0:0, 5:2:0:0:4, 3:4:0:0:4, 1:0:0:0:0, 3:1:0:0:2, 4:1:0:0:2, 3:3:0:0:3, 2:0:0:0:0, 6:4:0:0:7, 6:3:1:0:6, 4:4:1:0:4, 1:1:0:0:1, 0:0:0:0:0, 0:0:0:0:0, 0:0:0:0:0, 0:0:0:0:0, 0:0:0:0:0, 2:0:0:0:0, 0:0:0:0:0, 5:2:0:0:3, 0:0:0:0:0, 0:0:0:0:0, 1:1:0:0:1, 1:1:0:0:1, 0:0:0:0:0, 1:1:0:0:1, 2:1:0:0:1, 1:1:0:0:1, 0:0:0:0:0, 6:2:0:0:3, 2:2:0:0:2, 4:1:0:0:2, 2:1:0:0:1, 1:1:0:0:1, 2:1:0:0:1, 2:0:0:0:0, 2:0:0:0:0, 4:4:0:0:7, 3:2:0:0:2, 3:0:0:0:0, 4:1:0:0:2, 3:1:0:0:2, 5:2:0:0:2, 3:2:0:0:3, 5:3:0:0:4, 7:5:1:0:6, 7:9:4:0:9, 3:3:1:0:3, 0:0:0:0:0, 0:0:0:0:0, 1:0:0:0:0, 1:1:0:0:1, 0:0:0:0:0, 6:2:1:0:2, 1:0:0:0:0, 6:4:0:0:5, 0:0:0:0:0, 1:0:0:0:0, 1:1:0:0:1, 1:1:0:0:1, 0:0:0:0:0, 0:0:0:0:0, 0:0:0:0:0, 0:0:0:0:0, 0:0:0:0:0, 3:1:0:0:2, 2:2:0:0:2, 0:0:0:0:0, 0:0:0:0:0, 0:0:0:0:0, 1:0:0:0:0, 1:0:0:0:0, 0:0:0:0:0, 4:2:0:0:5, 3:2:0:0:2, 0:0:0:0:0, 2:2:0:0:4, 3:1:0:0:2, 3:3:0:0:3,  , 4:4:0:0:5, 4:4:1:0:5, 4:5:1:0:5, 1:1:0:0:1, 0:0:0:0:0, 0:0:0:0:0, 0:0:0:0:0, 0:0:0:0:0, 0:0:0:0:0, 2:0:0:0:0, 0:0:0:0:0, 4:3:0:0:4, 0:0:0:0:0, 1:0:0:0:0, 0:0:0:0:0, 1:1:0:0:1, 0:0:0:0:0, 0:0:0:0:0, 0:0:0:0:0, 0:0:0:0:0, 0:0:0:0:0, 5:2:0:0:3, 3:5:0:0:5, 1:0:0:0:0, 0:0:0:0:0, 0:0:0:0:0, 2:1:0:0:1, 1:0:0:0:0, 0:0:0:0:0, 7:4:0:0:6, 3:3:0:0:3, 0:0:0:0:0, 2:1:0:0:5, 3:1:0:0:2, 3:4:0:0:4, 2:0:0:0:0, 5:4:0:0:5, 4:5:1:0:6, 4:5:1:0:5, 2:1:0:0:1, 0:0:0:0:0, 1:0:0:0:1, 0:0:0:0:0, 0:0:0:0:0, 1:0:0:0:0, 4:0:0:0:0, 1:0:0:0:0, 4:3:0:0:4, 0:0:0:0:0, 0:0:0:0:0, 0:0:0:0:0, 2:1:0:0:1, 0:0:0:0:0, 0:0:0:0:0, 0:0:0:0:0, 0:0:0:0:0, 0:0:0:0:0, 4:1:0:0:3, 3:4:0:0:4, 1:0:0:0:0, 0:0:0:0:0, 0:0:0:0:0, 1:0:0:0:0, 1:0:0:0:0, 2:0:0:0:0, 4:4:0:0:6, 4:4:0:0:4, 2:0:0:0:0, 2:3:0:0:4, 3:3:0:0:4, 3:6:0:0:6, 2:0:0:0:0, 4:9:0:0:10, 4:4:1:0:5, 4:6:1:0:6, 2:1:0:0:1, 0:0:0:0:0, 0:0:0:0:0, 0:0:0:0:0, 0:0:0:0:0, 1:0:0:0:0, 3:0:0:0:0, 1:0:0:0:0, 4:4:0:0:5, 0:0:0:0:0, 0:0:0:0:0, 0:0:0:0:0, 0:0:0:0:0, 0:0:0:0:0, 0:0:0:0:0, 308:206:17:0:262
D major (2#), 4:4:1:0:2,  , 2:1:0:0:0,  , 4:4:1:0:2,  , 2:1:0:0:0,  , 2:2:0:0:0, 3:5:0:0:0, 3:1:0:0:0, 2:1:0:0:0, 2:2:0:0:0, 0:0:0:0:0, 0:0:0:0:0,  , 2:0:0:0:0, 2:2:0:0:0, 2:1:0:0:0, 2:0:0:0:0, 2:1:0:0:0, 2:0:0:0:0, 1:0:0:0:0, 0:0:0:0:0, 0:0:0:0:0, 3:0:2:0:2, 1:0:0:0:0, 0:0:0:0:0, 3:0:0:0:2, 4:0:1:0:1, 2:0:1:0:3, 3:1:0:0:1, 2:2:0:0:0, 3:5:0:0:0, 3:1:0:0:0, 2:1:0:0:0, 2:3:0:0:0, 5:5:0:0:2, 2:0:0:0:0, 2:0:0:0:0, 3:5:0:0:0, 3:1:0:0:0, 4:2:0:0:0, 2:2:0:0:0, 2:2:0:0:0, 4:2:0:0:0, 6:3:0:0:1, 2:2:0:0:0, 2:3:0:0:0, 4:0:0:0:2, 0:0:0:0:0, 1:0:0:0:0, 3:0:0:0:0, 2:2:0:0:0, 3:2:0:0:1, 3:0:0:0:1, 3:2:0:0:0, 1:0:0:0:0, 1:0:0:0:0, 0:0:0:0:0, 1:0:0:0:0, 1:0:0:0:0, 3:0:0:0:1, 0:0:0:0:0, 2:0:0:0:1, 5:0:2:0:3, 5:0:4:0:6, 4:1:1:0:1, 3:1:0:0:0, 3:3:0:0:0, 5:4:0:0:5, 2:4:0:0:0, 3:4:0:0:0, 8:8:1:0:3, 4:2:0:0:0, 3:0:0:0:1, 4:3:0:0:0, 4:1:0:0:0, 4:1:0:0:0, 3:5:0:0:0, 2:1:0:0:0, 3:2:0:0:0, 3:1:0:0:0, 2:2:0:0:0, 2:3:0:0:0, 0:0:0:0:0, 0:0:0:0:0, 0:0:0:0:0, 2:0:0:0:0, 2:1:0:0:0, 2:1:0:0:0, 2:0:0:0:0, 2:2:0:0:0, 1:0:0:0:0, 1:0:0:0:0, 0:0:0:0:0, 0:0:0:0:0, 1:0:0:0:0, 1:0:0:0:0,  , 2:0:0:0:1, 2:0:1:0:1, 2:0:1:0:3, 2:1:0:0:0, 2:1:0:0:0, 3:2:0:0:0, 3:1:0:0:0, 2:2:0:0:0, 2:3:0:0:0, 4:4:0:0:2, 2:0:0:0:0, 1:0:0:0:0, 3:2:0:0:0, 4:1:0:0:0, 3:3:0:0:0, 2:2:0:0:0, 2:1:0:0:0, 3:2:0:0:0, 3:1:0:0:0, 2:2:0:0:0, 2:3:0:0:0, 1:0:0:0:1, 0:0:0:0:0, 0:0:0:0:0, 2:0:0:0:0, 2:2:0:0:0, 3:1:0:0:1, 2:0:0:0:0, 3:2:0:0:0, 3:0:0:0:2, 1:0:0:0:0, 0:0:0:0:0, 0:0:0:0:0, 1:0:0:0:0, 1:0:0:0:0, 1:0:0:0:0, 2:0:0:0:1, 2:0:1:0:1, 2:0:1:0:3, 3:1:0:0:0, 2:1:0:0:0, 4:4:0:0:0, 3:1:0:0:0, 2:2:0:0:0, 2:2:0:0:0, 6:4:0:0:2, 3:0:0:0:0, 1:0:0:0:0, 3:5:0:0:0, 3:1:0:0:0, 3:3:0:0:0, 4:4:0:0:0, 3:2:0:0:0, 4:3:0:0:0, 4:2:0:0:0, 4:2:0:0:0, 3:2:0:0:0, 1:0:1:0:1, 0:0:0:0:0, 0:0:0:0:0, 2:0:0:0:0, 2:2:0:0:0, 3:1:0:0:0, 2:0:0:0:0, 3:1:0:0:0, 1:0:0:0:0, 1:0:0:0:0, 0:0:0:0:0, 0:0:0:0:0, 1:0:0:0:0, 1:0:0:0:0, 0:0:0:0:0, 2:0:0:0:1, 2:0:4:0:4, 2:0:1:0:3, 4:3:0:0:1, 2:1:0:0:0, 3:4:0:0:0, 3:1:0:0:0, 2:1:0:0:0, 2:2:0:0:0, 5:5:0:0:2, 3:0:0:0:0, 1:0:0:0:0, 3:4:0:0:0, 4:3:0:0:0, 3:1:0:0:0, 1:0:0:0:0, 1:0:0:0:0, 1:0:0:0:0, 411:225:24:0:71
G minor (2b), 2:0:1:0:1,  , 1:1:0:0:1,  , 2:0:1:0:1,  , 1:1:0:0:1,  , 0:0:0:0:0, 0:0:0:0:0, 0:0:0:0:0, 0:0:0:0:0, 0:0:0:0:0, 3:2:0:0:3, 2:3:0:0:3,  , 0:0:0:0:0, 0:0:0:0:0, 1:0:0:0:0, 1:0:0:0:0, 0:0:0:0:0, 5:2:0:0:4, 3:4:0:0:4, 1:0:0:0:0, 3:1:0:0:2, 4:1:0:0:2, 3:3:0:0:3, 2:0:0:0:0, 6:4:0:0:7, 6:3:1:0:6, 4:4:1:0:4, 1:1:0:0:1, 0:0:0:0:0, 0:0:0:0:0, 0:0:0:0:0, 0:0:0:0:0, 0:0:0:0:0, 2:0:0:0:0, 0:0:0:0:0, 5:2:0:0:3, 0:0:0:0:0, 0:0:0:0:0, 1:1:0:0:1, 1:1:0:0:1, 0:0:0:0:0, 1:1:0:0:1, 2:1:0:0:1, 1:1:0:0:1, 0:0:0:0:0, 6:2:0:0:3, 2:2:0:0:2, 4:1:0:0:2, 2:1:0:0:1, 1:1:0:0:1, 2:1:0:0:1, 2:0:0:0:0, 2:0:0:0:0, 4:4:0:0:7, 3:2:0:0:2, 3:0:0:0:0, 4:1:0:0:2, 3:1:0:0:2, 5:2:0:0:2, 3:2:0:0:3, 5:3:0:0:4, 7:5:1:0:6, 7:9:4:0:9, 3:3:1:0:3, 0:0:0:0:0, 0:0:0:0:0, 1:0:0:0:0, 1:1:0:0:1, 0:0:0:0:0, 6:2:1:0:2, 1:0:0:0:0, 6:4:0:0:5, 0:0:0:0:0, 1:0:0:0:0, 1:1:0:0:1, 1:1:0:0:1, 0:0:0:0:0, 0:0:0:0:0, 0:0:0:0:0, 0:0:0:0:0, 0:0:0:0:0, 3:1:0:0:2, 2:2:0:0:2, 0:0:0:0:0, 0:0:0:0:0, 0:0:0:0:0, 1:0:0:0:0, 1:0:0:0:0, 0:0:0:0:0, 4:2:0:0:5, 3:2:0:0:2, 0:0:0:0:0, 2:2:0:0:4, 3:1:0:0:2, 3:3:0:0:3,  , 4:4:0:0:5, 4:4:1:0:5, 4:5:1:0:5, 1:1:0:0:1, 0:0:0:0:0, 0:0:0:0:0, 0:0:0:0:0, 0:0:0:0:0, 0:0:0:0:0, 2:0:0:0:0, 0:0:0:0:0, 4:3:0:0:4, 0:0:0:0:0, 1:0:0:0:0, 0:0:0:0:0, 1:1:0:0:1, 0:0:0:0:0, 0:0:0:0:0, 0:0:0:0:0, 0:0:0:0:0, 0:0:0:0:0, 5:2:0:0:3, 3:5:0:0:5, 1:0:0:0:0, 0:0:0:0:0, 0:0:0:0:0, 2:1:0:0:1, 1:0:0:0:0, 0:0:0:0:0, 7:4:0:0:6, 3:3:0:0:3, 0:0:0:0:0, 2:1:0:0:5, 3:1:0:0:2, 3:4:0:0:4, 2:0:0:0:0, 5:4:0:0:5, 4:5:1:0:6, 4:5:1:0:5, 2:1:0:0:1, 0:0:0:0:0, 1:0:0:0:1, 0:0:0:0:0, 0:0:0:0:0, 1:0:0:0:0, 4:0:0:0:0, 1:0:0:0:0, 4:3:0:0:4, 0:0:0:0:0, 0:0:0:0:0, 0:0:0:0:0, 2:1:0:0:1, 0:0:0:0:0, 0:0:0:0:0, 0:0:0:0:0, 0:0:0:0:0, 0:0:0:0:0, 4:1:0:0:3, 3:4:0:0:4, 1:0:0:0:0, 0:0:0:0:0, 0:0:0:0:0, 1:0:0:0:0, 1:0:0:0:0, 2:0:0:0:0, 4:4:0:0:6, 4:4:0:0:4, 2:0:0:0:0, 2:3:0:0:4, 3:3:0:0:4, 3:6:0:0:6, 2:0:0:0:0, 4:9:0:0:10, 4:4:1:0:5, 4:6:1:0:6, 2:1:0:0:1, 0:0:0:0:0, 0:0:0:0:0, 0:0:0:0:0, 0:0:0:0:0, 1:0:0:0:0, 3:0:0:0:0, 1:0:0:0:0, 4:4:0:0:5, 0:0:0:0:0, 0:0:0:0:0, 0:0:0:0:0, 0:0:0:0:0, 0:0:0:0:0, 0:0:0:0:0, 308:206:17:0:262
B minor (2#), 4:4:1:0:2,  , 2:1:0:0:0,  , 4:4:1:0:2,  , 2:1:0:0:0,  , 2:2:0:0:0, 3:5:0:0:0, 3:1:0:0:0, 2:1:0:0:0, 2:2:0:0:0, 0:0:0:0:0, 0:0:0:0:0,  , 2:0:0:0:0, 2:2:0:0:0, 2:1:0:0:0, 2:0:0:0:0, 2:1:0:0:0, 2:0:0:0:0, 1:0:0:0:0, 0:0:0:0:0, 0:0:0:0:0, 3:0:2:0:2, 1:0:0:0:0, 0:0:0:0:0, 3:0:0:0:2, 4:0:1:0:1, 2:0:1:0:3, 3:1:0:0:1, 2:2:0:0:0, 3:5:0:0:0, 3:1:0:0:0, 2:1:0:0:0, 2:3:0:0:0, 5:5:0:0:2, 2:0:0:0:0, 2:0:0:0:0, 3:5:0:0:0, 3:1:0:0:0, 4:2:0:0:0, 2:2:0:0:0, 2:2:0:0:0, 4:2:0:0:0, 6:3:0:0:1, 2:2:0:0:0, 2:3:0:0:0, 4:0:0:0:2, 0:0:0:0:0, 1:0:0:0:0, 3:0:0:0:0, 2:2:0:0:0, 3:2:0:0:1, 3:0:0:0:1, 3:2:0:0:0, 1:0:0:0:0, 1:0:0:0:0, 0:0:0:0:0, 1:0:0:0:0, 1:0:0:0:0, 3:0:0:0:1, 0:0:0:0:0, 2:0:0:0:1, 5:0:2:0:3, 5:0:4:0:6, 4:1:1:0:1, 3:1:0:0:0, 3:3:0:0:0, 5:4:0:0:5, 2:4:0:0:0, 3:4:0:0:0, 8:8:1:0:3, 4:2:0:0:0, 3:0:0:0:1, 4:3:0:0:0, 4:1:0:0:0, 4:1:0:0:0, 3:5:0:0:0, 2:1:0:0:0, 3:2:0:0:0, 3:1:0:0:0, 2:2:0:0:0, 2:3:0:0:0, 0:0:0:0:0, 0:0:0:0:0, 0:0:0:0:0, 2:0:0:0:0, 2:1:0:0:0, 2:1:0:0:0, 2:0:0:0:0, 2:2:0:0:0, 1:0:0:0:0, 1:0:0:0:0, 0:0:0:0:0, 0:0:0:0:0, 1:0:0:0:0, 1:0:0:0:0,  , 2:0:0:0:1, 2:0:1:0:1, 2:0:1:0:3, 2:1:0:0:0, 2:1:0:0:0, 3:2:0:0:0, 3:1:0:0:0, 2:2:0:0:0, 2:3:0:0:0, 4:4:0:0:2, 2:0:0:0:0, 1:0:0:0:0, 3:2:0:0:0, 4:1:0:0:0, 3:3:0:0:0, 2:2:0:0:0, 2:1:0:0:0, 3:2:0:0:0, 3:1:0:0:0, 2:2:0:0:0, 2:3:0:0:0, 1:0:0:0:1, 0:0:0:0:0, 0:0:0:0:0, 2:0:0:0:0, 2:2:0:0:0, 3:1:0:0:1, 2:0:0:0:0, 3:2:0:0:0, 3:0:0:0:2, 1:0:0:0:0, 0:0:0:0:0, 0:0:0:0:0, 1:0:0:0:0, 1:0:0:0:0, 1:0:0:0:0, 2:0:0:0:1, 2:0:1:0:1, 2:0:1:0:3, 3:1:0:0:0, 2:1:0:0:0, 4:4:0:0:0, 3:1:0:0:0, 2:2:0:0:0, 2:2:0:0:0, 6:4:0:0:2, 3:0:0:0:0, 1:0:0:0:0, 3:5:0:0:0, 3:1:0:0:0, 3:3:0:0:0, 4:4:0:0:0, 3:2:0:0:0, 4:3:0:0:0, 4:2:0:0:0, 4:2:0:0:0, 3:2:0:0:0, 1:0:1:0:1, 0:0:0:0:0, 0:0:0:0:0, 2:0:0:0:0, 2:2:0:0:0, 3:1:0:0:0, 2:0:0:0:0, 3:1:0:0:0, 1:0:0:0:0, 1:0:0:0:0, 0:0:0:0:0, 0:0:0:0:0, 1:0:0:0:0, 1:0:0:0:0, 0:0:0:0:0, 2:0:0:0:1, 2:0:4:0:4, 2:0:1:0:3, 4:3:0:0:1, 2:1:0:0:0, 3:4:0:0:0, 3:1:0:0:0, 2:1:0:0:0, 2:2:0:0:0, 5:5:0:0:2, 3:0:0:0:0, 1:0:0:0:0, 3:4:0:0:0, 4:3:0:0:0, 3:1:0:0:0, 1:0:0:0:0, 1:0:0:0:0, 1:0:0:0:0, 411:225:24:0:71
Eb major (3b), 2:0:1:0:0,  , 2:1:0:0:1,  , 2:0:1:0:0,  , 2:1:0:0:1,  , 0:0:0:0:0, 0:0:0:0:0, 1:0:0:0:0, 1:0:0:0:0, 0:0:0:0:0, 4:2:0:0:5, 3:3:0:0:3,  , 1:0:0:0:0, 0:0:0:0:0, 1:0:0:0:5, 2:0:0:0:3, 1:0:0:0:0, 6:2:0:0:7, 4:4:0:0:5, 2:0:0:0:2, 4:1:0:0:3, 4:1:0:0:3, 4:3:0:0:4, 3:0:0:0:2, 6:4:0:0:7, 6:3:1:0:6, 4:4:1:0:4, 2:1:0:0:1, 0:0:0:0:0, 0:0:0:0:0, 1:0:0:0:0, 1:0:0:0:0, 1:0:0:0:0, 2:0:0:0:0, 1:0:0:0:0, 6:2:0:0:4, 0:0:0:0:0, 1:0:0:0:0, 1:1:0:0:1, 2:1:0:0:1, 0:0:0:0:0, 1:1:0:0:1, 3:1:0:0:2, 2:1:0:0:1, 1:0:0:0:0, 7:2:0:0:6, 3:2:0:0:2, 5:1:0:0:2, 3:1:0:0:2, 1:1:0:0:1, 3:1:0:0:4, 3:0:0:0:2, 3:0:0:0:0, 5:4:0:0:9, 4:2:0:0:4, 4:0:0:0:2, 5:1:0:0:3, 3:1:0:0:3, 6:2:0:0:4, 4:2:0:0:5, 5:3:0:0:4, 7:4:1:0:6, 7:9:4:0:9, 4:3:1:0:3, 0:0:0:0:0, 0:0:0:0:0, 2:0:0:0:0, 2:1:0:0:1, 0:0:0:0:0, 7:0:1:0:0, 2:0:0:0:0, 6:4:0:0:8, 0:0:0:0:0, 2:0:0:0:0, 1:0:0:0:0, 2:1:0:0:1, 0:0:0:0:0, 0:0:0:0:0, 1:0:0:0:0, 1:0:0:0:0, 0:0:0:0:0, 4:1:0:0:5, 3:2:0:0:2, 0:0:0:0:0, 1:0:0:0:0, 0:0:0:0:0, 1:0:0:0:1, 2:0:0:0:1, 1:0:0:0:0, 5:2:0:0:7, 4:2:0:0:3, 1:0:0:0:0, 3:2:0:0:4, 3:1:0:0:3, 4:3:0:0:4,  , 4:3:0:0:4, 4:4:1:0:5, 4:5:1:0:5, 2:1:0:0:1, 0:0:0:0:0, 0:0:0:0:0, 1:0:0:0:0, 1:0:0:0:0, 0:0:0:0:0, 2:0:0:0:0, 1:0:0:0:0, 4:3:0:0:5, 0:0:0:0:0, 2:0:0:0:1, 0:0:0:0:0, 2:1:0:0:1, 0:0:0:0:0, 0:0:0:0:0, 1:0:0:0:0, 1:0:0:0:0, 0:0:0:0:0, 6:2:0:0:5, 4:5:0:0:6, 1:0:0:0:0, 1:0:0:0:0, 0:0:0:0:0, 2:1:0:0:3, 2:0:0:0:1, 1:0:0:0:0, 8:4:0:0:7, 4:3:0:0:4, 1:0:0:0:0, 3:1:0:0:5, 3:1:0:0:6, 4:4:0:0:5, 1:0:0:0:0, 5:3:0:0:4, 4:4:1:0:5, 4:5:1:0:5, 3:1:0:0:1, 0:0:0:0:0, 1:0:0:0:1, 1:0:0:0:0, 1:0:0:0:0, 1:0:0:0:0, 3:0:0:0:0, 2:0:0:0:0, 4:2:0:0:4, 0:0:0:0:0, 1:0:0:0:0, 1:0:0:0:0, 3:1:0:0:1, 1:0:0:0:0, 0:0:0:0:0, 1:0:0:0:0, 1:0:0:0:0, 0:0:0:0:0, 5:1:0:0:5, 4:4:0:0:5, 1:0:0:0:0, 1:0:0:0:0, 1:0:0:0:0, 1:0:0:0:2, 2:0:0:0:2, 3:0:0:0:2, 5:4:0:0:9, 5:4:0:0:7, 2:0:0:0:1, 3:3:0:0:4, 3:1:0:0:5, 4:6:0:0:9, 2:0:0:0:0, 4:5:0:0:6, 4:3:1:0:4, 4:6:1:0:6, 3:1:0:0:1, 0:0:0:0:0, 1:0:0:0:0, 1:0:0:0:0, 1:0:0:0:0, 2:0:0:0:0, 4:0:0:0:0, 2:0:0:0:0, 4:4:0:0:6, 0:0:0:0:0, 1:0:0:0:0, 1:0:0:0:0, 0:0:0:0:0, 0:0:0:0:0, 0:0:0:0:0, 411:191:17:0:342
A major (3#), 5:4:1:0:3,  , 2:1:0:0:1,  , 5:4:1:0:3,  , 2:1:0:0:1,  , 3:2:0:0:0, 4:5:0:0:3, 3:1:0:0:1, 2:1:0:0:0, 3:2:0:0:1, 1:0:0:0:0, 0:0:0:0:0,  , 2:0:0:0:0, 3:2:0:0:0, 3:1:0:0:0, 2:0:0:0:0, 2:1:0:0:0, 1:0:0:0:0, 0:0:0:0:0, 0:0:0:0:0, 0:0:0:0:0, 2:0:2:0:2, 0:0:0:0:0, 0:0:0:0:0, 2:0:0:0:1, 3:0:1:0:1, 2:0:1:0:3, 3:1:0:0:2, 3:2:0:0:0, 4:5:0:0:3, 3:1:0:0:1, 2:1:0:0:0, 3:3:0:0:1, 5:5:0:0:4, 2:0:0:0:0, 1:0:0:0:0, 4:5:0:0:3, 4:1:0:0:1, 5:2:0:0:0, 3:2:0:0:2, 3:2:0:0:0, 5:2:0:0:1, 7:3:0:0:4, 2:2:0:0:0, 3:3:0:0:1, 5:0:0:0:1, 0:0:0:0:0, 0:0:0:0:0, 3:0:0:0:0, 3:2:0:0:0, 4:2:0:0:0, 4:0:0:0:0, 4:2:0:0:0, 2:0:0:0:0, 0:0:0:0:0, 0:0:0:0:0, 1:0:0:0:0, 0:0:0:0:0, 2:0:0:0:0, 0:0:0:0:0, 1:0:0:0:0, 4:0:2:0:3, 4:0:4:0:5, 3:1:1:0:2, 4:1:0:0:0, 4:3:0:0:1, 6:4:0:0:6, 2:4:0:0:0, 4:4:0:0:2, 8:8:1:0:5, 4:2:0:0:0, 2:0:0:0:1, 5:3:0:0:1, 4:1:0:0:1, 5:1:0:0:0, 4:5:0:0:4, 3:1:0:0:0, 4:2:0:0:1, 3:1:0:0:1, 2:2:0:0:0, 3:3:0:0:2, 1:0:0:0:0, 0:0:0:0:0, 0:0:0:0:0, 2:0:0:0:0, 3:1:0:0:0, 3:1:0:0:0, 2:0:0:0:0, 2:2:0:0:0, 0:0:0:0:0, 0:0:0:0:0, 0:0:0:0:0, 0:0:0:0:0, 0:0:0:0:0, 0:0:0:0:0,  , 1:0:0:0:0, 1:0:1:0:1, 2:0:1:0:3, 2:1:0:0:1, 3:1:0:0:0, 4:2:0:0:1, 3:1:0:0:1, 2:2:0:0:0, 3:3:0:0:2, 4:4:0:0:3, 2:0:0:0:0, 0:0:0:0:0, 4:2:0:0:1, 4:1:0:0:1, 4:3:0:0:0, 3:2:0:0:2, 3:1:0:0:0, 4:2:0:0:1, 3:1:0:0:1, 2:2:0:0:0, 3:3:0:0:2, 2:0:0:0:0, 0:0:0:0:0, 0:0:0:0:0, 2:0:0:0:0, 3:2:0:0:0, 4:1:0:0:0, 2:0:0:0:0, 3:2:0:0:0, 2:0:0:0:2, 0:0:0:0:0, 0:0:0:0:0, 0:0:0:0:0, 0:0:0:0:0, 0:0:0:0:0, 0:0:0:0:0, 1:0:0:0:0, 1:0:1:0:1, 2:0:1:0:3, 3:1:0:0:1, 3:1:0:0:0, 5:4:0:0:1, 3:1:0:0:1, 2:2:0:0:0, 3:2:0:0:1, 6:4:0:0:3, 4:0:0:0:0, 0:0:0:0:0, 4:5:0:0:4, 3:1:0:0:1, 4:3:0:0:0, 5:4:0:0:2, 4:2:0:0:0, 5:3:0:0:2, 5:2:0:0:1, 4:2:0:0:1, 4:2:0:0:1, 2:0:1:0:1, 0:0:0:0:0, 0:0:0:0:0, 3:0:0:0:0, 3:2:0:0:0, 4:1:0:0:0, 2:0:0:0:0, 3:1:0:0:0, 0:0:0:0:0, 0:0:0:0:0, 0:0:0:0:0, 0:0:0:0:0, 0:0:0:0:0, 0:0:0:0:0, 0:0:0:0:0, 1:0:0:0:0, 1:0:4:0:4, 2:0:1:0:3, 4:3:0:0:4, 3:1:0:0:0, 4:4:0:0:1, 3:1:0:0:1, 2:1:0:0:0, 3:2:0:0:1, 5:5:0:0:3, 3:0:0:0:0, 0:0:0:0:0, 4:4:0:0:2, 5:3:0:0:1, 3:1:0:0:0, 1:0:0:0:0, 1:0:0:0:0, 1:0:0:0:0, 443:225:24:0:145
C minor (3b), 2:0:1:0:0,  , 2:1:0:0:1,  , 2:0:1:0:0,  , 2:1:0:0:1,  , 0:0:0:0:0, 0:0:0:0:0, 1:0:0:0:0, 1:0:0:0:0, 0:0:0:0:0, 4:2:0:0:5, 3:3:0:0:3,  , 1:0:0:0:0, 0:0:0:0:0, 1:0:0:0:5, 2:0:0:0:3, 1:0:0:0:0, 6:2:0:0:7, 4:4:0:0:5, 2:0:0:0:2, 4:1:0:0:3, 4:1:0:0:3, 4:3:0:0:4, 3:0:0:0:2, 6:4:0:0:7, 6:3:1:0:6, 4:4:1:0:4, 2:1:0:0:1, 0:0:0:0:0, 0:0:0:0:0, 1:0:0:0:0, 1:0:0:0:0, 1:0:0:0:0, 2:0:0:0:0, 1:0:0:0:0, 6:2:0:0:4, 0:0:0:0:0, 1:0:0:0:0, 1:1:0:0:1, 2:1:0:0:1, 0:0:0:0:0, 1:1:0:0:1, 3:1:0:0:2, 2:1:0:0:1, 1:0:0:0:0, 7:2:0:0:6, 3:2:0:0:2, 5:1:0:0:2, 3:1:0:0:2, 1:1:0:0:1, 3:1:0:0:4, 3:0:0:0:2, 3:0:0:0:0, 5:4:0:0:9, 4:2:0:0:4, 4:0:0:0:2, 5:1:0:0:3, 3:1:0:0:3, 6:2:0:0:4, 4:2:0:0:5, 5:3:0:0:4, 7:4:1:0:6, 7:9:4:0:9, 4:3:1:0:3, 0:0:0:0:0, 0:0:0:0:0, 2:0:0:0:0, 2:1:0:0:1, 0:0:0:0:0, 7:0:1:0:0, 2:0:0:0:0, 6:4:0:0:8, 0:0:0:0:0, 2:0:0:0:0, 1:0:0:0:0, 2:1:0:0:1, 0:0:0:0:0, 0:0:0:0:0, 1:0:0:0:0, 1:0:0:0:0, 0:0:0:0:0, 4:1:0:0:5, 3:2:0:0:2, 0:0:0:0:0, 1:0:0:0:0, 0:0:0:0:0, 1:0:0:0:1, 2:0:0:0:1, 1:0:0:0:0, 5:2:0:0:7, 4:2:0:0:3, 1:0:0:0:0, 3:2:0:0:4, 3:1:0:0:3, 4:3:0:0:4,  , 4:3:0:0:4, 4:4:1:0:5, 4:5:1:0:5, 2:1:0:0:1, 0:0:0:0:0, 0:0:0:0:0, 1:0:0:0:0, 1:0:0:0:0, 0:0:0:0:0, 2:0:0:0:0, 1:0:0:0:0, 4:3:0:0:5, 0:0:0:0:0, 2:0:0:0:1, 0:0:0:0:0, 2:1:0:0:1, 0:0:0:0:0, 0:0:0:0:0, 1:0:0:0:0, 1:0:0:0:0, 0:0:0:0:0, 6:2:0:0:5, 4:5:0:0:6, 1:0:0:0:0, 1:0:0:0:0, 0:0:0:0:0, 2:1:0:0:3, 2:0:0:0:1, 1:0:0:0:0, 8:4:0:0:7, 4:3:0:0:4, 1:0:0:0:0, 3:1:0:0:5, 3:1:0:0:6, 4:4:0:0:5, 1:0:0:0:0, 5:3:0:0:4, 4:4:1:0:5, 4:5:1:0:5, 3:1:0:0:1, 0:0:0:0:0, 1:0:0:0:1, 1:0:0:0:0, 1:0:0:0:0, 1:0:0:0:0, 3:0:0:0:0, 2:0:0:0:0, 4:2:0:0:4, 0:0:0:0:0, 1:0:0:0:0, 1:0:0:0:0, 3:1:0:0:1, 1:0:0:0:0, 0:0:0:0:0, 1:0:0:0:0, 1:0:0:0:0, 0:0:0:0:0, 5:1:0:0:5, 4:4:0:0:5, 1:0:0:0:0, 1:0:0:0:0, 1:0:0:0:0, 1:0:0:0:2, 2:0:0:0:2, 3:0:0:0:2, 5:4:0:0:9, 5:4:0:0:7, 2:0:0:0:1, 3:3:0:0:4, 3:1:0:0:5, 4:6:0:0:9, 2:0:0:0:0, 4:5:0:0:6, 4:3:1:0:4, 4:6:1:0:6, 3:1:0:0:1, 0:0:0:0:0, 1:0:0:0:0, 1:0:0:0:0, 1:0:0:0:0, 2:0:0:0:0, 4:0:0:0:0, 2:0:0:0:0, 4:4:0:0:6, 0:0:0:0:0, 1:0:0:0:0, 1:0:0:0:0, 0:0:0:0:0, 0:0:0:0:0, 0:0:0:0:0, 411:191:17:0:342
F# minor (3#), 5:4:1:0:3,  , 2:1:0:0:1,  , 5:4:1:0:3,  , 2:1:0:0:1,  , 3:2:0:0:0, 4:5:0:0:3, 3:1:0:0:1, 2:1:0:0:0, 3:2:0:0:1, 1:0:0:0:0, 0:0:0:0:0,  , 2:0:0:0:0, 3:2:0:0:0, 3:1:0:0:0, 2:0:0:0:0, 2:1:0:0:0, 1:0:0:0:0, 0:0:0:0:0, 0:0:0:0:0, 0:0:0:0:0, 2:0:2:0:2, 0:0:0:0:0, 0:0:0:0:0, 2:0:0:0:1, 3:0:1:0:1, 2:0:1:0:3, 3:1:0:0:2, 3:2:0:0:0, 4:5:0:0:3, 3:1:0:0:1, 2:1:0:0:0, 3:3:0:0:1, 5:5:0:0:4, 2:0:0:0:0, 1:0:0:0:0, 4:5:0:0:3, 4:1:0:0:1, 5:2:0:0:0, 3:2:0:0:2, 3:2:0:0:0, 5:2:0:0:1, 7:3:0:0:4, 2:2:0:0:0, 3:3:0:0:1, 5:0:0:0:1, 0:0:0:0:0, 0:0:0:0:0, 3:0:0:0:0, 3:2:0:0:0, 4:2:0:0:0, 4:0:0:0:0, 4:2:0:0:0, 2:0:0:0:0, 0:0:0:0:0, 0:0:0:0:0, 1:0:0:0:0, 0:0:0:0:0, 2:0:0:0:0, 0:0:0:0:0, 1:0:0:0:0, 4:0:2:0:3, 4:0:4:0:5, 3:1:1:0:2, 4:1:0:0:0, 4:3:0:0:1, 6:4:0:0:6, 2:4:0:0:0, 4:4:0:0:2, 8:8:1:0:5, 4:2:0:0:0, 2:0:0:0:1, 5:3:0:0:1, 4:1:0:0:1, 5:1:0:0:0, 4:5:0:0:4, 3:1:0:0:0, 4:2:0:0:1, 3:1:0:0:1, 2:2:0:0:0, 3:3:0:0:2, 1:0:0:0:0, 0:0:0:0:0, 0:0:0:0:0, 2:0:0:0:0, 3:1:0:0:0, 3:1:0:0:0, 2:0:0:0:0, 2:2:0:0:0, 0:0:0:0:0, 0:0:0:0:0, 0:0:0:0:0, 0:0:0:0:0, 0:0:0:0:0, 0:0:0:0:0,  , 1:0:0:0:0, 1:0:1:0:1, 2:0:1:0:3, 2:1:0:0:1, 3:1:0:0:0, 4:2:0:0:1, 3:1:0:0:1, 2:2:0:0:0, 3:3:0:0:2, 4:4:0:0:3, 2:0:0:0:0, 0:0:0:0:0, 4:2:0:0:1, 4:1:0:0:1, 4:3:0:0:0, 3:2:0:0:2, 3:1:0:0:0, 4:2:0:0:1, 3:1:0:0:1, 2:2:0:0:0, 3:3:0:0:2, 2:0:0:0:0, 0:0:0:0:0, 0:0:0:0:0, 2:0:0:0:0, 3:2:0:0:0, 4:1:0:0:0, 2:0:0:0:0, 3:2:0:0:0, 2:0:0:0:2, 0:0:0:0:0, 0:0:0:0:0, 0:0:0:0:0, 0:0:0:0:0, 0:0:0:0:0, 0:0:0:0:0, 1:0:0:0:0, 1:0:1:0:1, 2:0:1:0:3, 3:1:0:0:1, 3:1:0:0:0, 5:4:0:0:1, 3:1:0:0:1, 2:2:0:0:0, 3:2:0:0:1, 6:4:0:0:3, 4:0:0:0:0, 0:0:0:0:0, 4:5:0:0:4, 3:1:0:0:1, 4:3:0:0:0, 5:4:0:0:2, 4:2:0:0:0, 5:3:0:0:2, 5:2:0:0:1, 4:2:0:0:1, 4:2:0:0:1, 2:0:1:0:1, 0:0:0:0:0, 0:0:0:0:0, 3:0:0:0:0, 3:2:0:0:0, 4:1:0:0:0, 2:0:0:0:0, 3:1:0:0:0, 0:0:0:0:0, 0:0:0:0:0, 0:0:0:0:0, 0:0:0:0:0, 0:0:0:0:0, 0:0:0:0:0, 0:0:0:0:0, 1:0:0:0:0, 1:0:4:0:4, 2:0:1:0:3, 4:3:0:0:4, 3:1:0:0:0, 4:4:0:0:1, 3:1:0:0:1, 2:1:0:0:0, 3:2:0:0:1, 5:5:0:0:3, 3:0:0:0:0, 0:0:0:0:0, 4:4:0:0:2, 5:3:0:0:1, 3:1:0:0:0, 1:0:0:0:0, 1:0:0:0:0, 1:0:0:0:0, 443:225:24:0:145
Ab major (4b), 1:0:1:0:0,  , 3:1:0:0:2,  , 1:0:1:0:0,  , 3:1:0:0:2,  , 1:0:0:0:0, 0:0:0:0:0, 1:0:0:0:6, 2:0:0:0:3, 1:0:0:0:0, 5:2:0:0:6, 4:3:0:0:4,  , 2:0:0:0:1, 1:0:0:0:0, 1:0:0:0:5, 2:0:0:0:5, 2:0:0:0:1, 7:2:0:0:8, 4:2:0:0:4, 2:0:0:0:3, 5:1:0:0:4, 5:1:0:0:3, 4:2:0:0:4, 2:0:0:0:3, 6:4:0:0:7, 7:3:1:0:6, 4:4:1:0:4, 3:1:0:0:2, 1:0:0:0:0, 0:0:0:0:0, 1:0:0:0:5, 2:0:0:0:3, 2:0:0:0:2, 1:0:0:0:0, 2:0:0:0:1, 6:2:0:0:6, 0:0:0:0:0, 1:0:0:0:2, 2:1:0:0:1, 3:1:0:0:3, 1:0:0:0:0, 1:0:0:0:0, 3:0:0:0:2, 3:1:0:0:2, 2:0:0:0:1, 8:2:0:0:7, 4:2:0:0:5, 4:1:0:0:5, 4:1:0:0:4, 2:1:0:0:1, 3:1:0:0:5, 3:0:0:0:4, 4:0:0:0:2, 6:4:0:0:11, 4:2:0:0:6, 5:0:0:0:4, 6:1:0:0:4, 4:1:0:0:3, 6:3:0:0:7, 5:0:0:0:5, 5:3:0:0:4, 8:4:1:0:6, 7:9:4:0:9, 5:3:1:0:4, 1:0:0:0:0, 0:0:0:0:0, 1:0:0:0:1, 3:1:0:0:2, 1:0:0:0:0, 6:0:1:0:1, 3:0:0:0:4, 6:2:0:0:6, 1:0:0:0:0, 3:0:0:0:1, 2:0:0:0:1, 3:1:0:0:3, 1:0:0:0:0, 0:0:0:0:0, 1:0:0:0:1, 2:0:0:0:1, 1:0:0:0:0, 5:1:0:0:7, 4:2:0:0:3, 1:0:0:0:0, 2:0:0:0:1, 1:0:0:0:0, 1:0:0:0:1, 2:0:0:0:2, 2:0:0:0:1, 6:2:0:0:8, 4:2:0:0:5, 1:0:0:0:2, 4:2:0:0:5, 4:1:0:0:3, 4:2:0:0:5,  , 4:3:0:0:4, 5:4:1:0:5, 4:4:1:0:4, 3:1:0:0:2, 1:0:0:0:0, 0:0:0:0:0, 1:0:0:0:1, 2:0:0:0:1, 1:0:0:0:0, 1:0:0:0:0, 2:0:0:0:1, 4:2:0:0:4, 0:0:0:0:0, 2:0:0:0:2, 1:0:0:0:0, 3:1:0:0:5, 1:0:0:0:0, 0:0:0:0:0, 1:0:0:0:2, 2:0:0:0:1, 1:0:0:0:0, 7:2:0:0:6, 5:5:0:0:7, 1:0:0:0:0, 2:0:0:0:3, 1:0:0:0:0, 2:1:0:0:3, 2:0:0:0:2, 2:0:0:0:1, 9:4:0:0:8, 4:3:0:0:7, 1:0:0:0:1, 4:1:0:0:6, 4:1:0:0:6, 4:3:0:0:5, 0:0:0:0:0, 5:3:0:0:4, 5:4:1:0:5, 4:4:1:0:4, 4:1:0:0:3, 1:0:0:0:0, 1:0:0:0:1, 1:0:0:0:3, 2:0:0:0:4, 2:0:0:0:0, 2:0:0:0:0, 3:0:0:0:3, 4:2:0:0:4, 0:0:0:0:0, 1:0:0:0:1, 2:0:0:0:2, 4:1:0:0:4, 2:0:0:0:1, 1:0:0:0:0, 1:0:0:0:2, 2:0:0:0:1, 1:0:0:0:0, 6:1:0:0:7, 5:4:0:0:7, 1:0:0:0:0, 2:0:0:0:2, 2:0:0:0:1, 1:0:0:0:2, 2:0:0:0:4, 4:0:0:0:3, 6:4:0:0:10, 5:4:0:0:8, 2:0:0:0:1, 4:3:0:0:9, 4:1:0:0:5, 4:6:0:0:10, 1:0:0:0:0, 4:5:0:0:6, 5:3:1:0:4, 4:5:1:0:5, 4:1:0:0:2, 1:0:0:0:0, 1:0:0:0:1, 1:0:0:0:3, 2:0:0:0:1, 3:0:0:0:1, 3:0:0:0:2, 3:0:0:0:1, 4:2:0:0:4, 1:0:0:0:0, 1:0:0:0:3, 2:0:0:0:1, 0:0:0:0:0, 0:0:0:0:0, 0:0:0:0:0, 502:175:17:0:503
E major (4#), 5:4:1:0:4,  , 3:1:0:0:1,  , 5:4:1:0:4,  , 3:1:0:0:1,  , 4:2:0:0:2, 4:3:0:0:3, 3:1:0:0:1, 3:1:0:0:1, 4:2:0:0:2, 2:0:0:0:0, 1:0:0:0:0,  , 3:0:0:0:0, 4:2:0:0:2, 3:1:0:0:1, 2:0:0:0:0, 3:1:0:0:1, 2:0:0:0:0, 0:0:0:0:0, 0:0:0:0:0, 1:0:0:0:0, 3:0:2:0:2, 0:0:0:0:0, 0:0:0:0:0, 1:0:0:0:0, 4:0:1:0:1, 2:0:1:0:1, 4:1:0:0:1, 4:2:0:0:2, 4:3:0:0:3, 3:1:0:0:1, 3:1:0:0:1, 4:3:0:0:3, 5:5:0:0:5, 3:0:0:0:0, 1:0:0:0:0, 4:3:0:0:3, 4:1:0:0:1, 6:2:0:0:2, 4:2:0:0:2, 4:2:0:0:2, 6:2:0:0:2, 8:2:0:0:2, 3:2:0:0:2, 4:3:0:0:3, 6:0:0:0:0, 1:0:0:0:0, 0:0:0:0:0, 4:0:0:0:0, 4:2:0:0:2, 3:2:0:0:2, 3:0:0:0:0, 5:2:0:0:2, 3:0:0:0:0, 0:0:0:0:0, 1:0:0:0:0, 2:0:0:0:0, 1:0:0:0:0, 1:0:0:0:0, 1:0:0:0:0, 0:0:0:0:0, 5:0:2:0:2, 3:0:4:0:4, 4:1:1:0:2, 5:1:0:0:1, 4:3:0:0:3, 6:4:0:0:4, 3:4:0:0:4, 5:4:0:0:4, 8:8:1:0:8, 5:2:0:0:2, 2:0:0:0:0, 6:3:0:0:3, 5:1:0:0:1, 6:1:0:0:1, 5:4:0:0:4, 4:1:0:0:1, 4:2:0:0:2, 3:1:0:0:1, 3:2:0:0:2, 4:3:0:0:3, 2:0:0:0:0, 1:0:0:0:0, 1:0:0:0:0, 3:0:0:0:0, 4:1:0:0:1, 3:1:0:0:1, 2:0:0:0:0, 3:2:0:0:2, 1:0:0:0:0, 0:0:0:0:0, 0:0:0:0:0, 1:0:0:0:0, 1:0:0:0:0, 0:0:0:0:0,  , 0:0:0:0:0, 2:0:1:0:1, 2:0:1:0:1, 3:1:0:0:1, 4:1:0:0:1, 4:2:0:0:2, 3:1:0:0:1, 3:2:0:0:2, 4:3:0:0:3, 4:4:0:0:4, 3:0:0:0:0, 0:0:0:0:0, 4:2:0:0:2, 4:1:0:0:1, 5:3:0:0:3, 4:2:0:0:2, 4:1:0:0:1, 4:2:0:0:2, 3:1:0:0:1, 3:2:0:0:2, 4:3:0:0:3, 3:0:0:0:0, 1:0:0:0:0, 0:0:0:0:0, 3:0:0:0:0, 4:2:0:0:2, 3:1:0:0:1, 2:0:0:0:0, 4:2:0:0:2, 3:0:0:0:0, 0:0:0:0:0, 0:0:0:0:0, 1:0:0:0:0, 1:0:0:0:0, 0:0:0:0:0, 0:0:0:0:0, 0:0:0:0:0, 2:0:1:0:1, 2:0:1:0:1, 4:1:0:0:1, 4:1:0:0:1, 5:4:0:0:4, 3:1:0:0:1, 3:2:0:0:2, 4:2:0:0:2, 6:4:0:0:4, 5:0:0:0:0, 0:0:0:0:0, 4:2:0:0:2, 3:1:0:0:1, 5:3:0:0:3, 6:4:0:0:4, 5:2:0:0:2, 6:2:0:0:2, 5:2:0:0:2, 5:2:0:0:2, 5:2:0:0:2, 3:0:1:0:1, 1:0:0:0:0, 0:0:0:0:0, 4:0:0:0:0, 4:2:0:0:2, 4:1:0:0:1, 2:0:0:0:0, 4:1:0:0:1, 1:0:0:0:0, 0:0:0:0:0, 0:0:0:0:0, 1:0:0:0:0, 1:0:0:0:0, 0:0:0:0:0, 0:0:0:0:0, 0:0:0:0:0, 2:0:4:0:4, 2:0:1:0:1, 5:3:0:0:3, 4:1:0:0:1, 4:4:0:0:4, 3:1:0:0:1, 3:1:0:0:1, 4:2:0:0:2, 5:5:0:0:5, 4:0:0:0:0, 0:0:0:0:0, 5:3:0:0:3, 5:3:0:0:3, 4:1:0:0:1, 1:0:0:0:0, 1:0:0:0:0, 1:0:0:0:0, 538:212:24:0:233
F minor (4b), 1:0:1:0:0,  , 3:1:0:0:2,  , 1:0:1:0:0,  , 3:1:0:0:2,  , 1:0:0:0:0, 0:0:0:0:0, 1:0:0:0:6, 2:0:0:0:3, 1:0:0:0:0, 5:2:0:0:6, 4:3:0:0:4,  , 2:0:0:0:1, 1:0:0:0:0, 1:0:0:0:5, 2:0:0:0:5, 2:0:0:0:1, 7:2:0:0:8, 4:2:0:0:4, 2:0:0:0:3, 5:1:0:0:4, 5:1:0:0:3, 4:2:0:0:4, 2:0:0:0:3, 6:4:0:0:7, 7:3:1:0:6, 4:4:1:0:4, 3:1:0:0:2, 1:0:0:0:0, 0:0:0:0:0, 1:0:0:0:5, 2:0:0:0:3, 2:0:0:0:2, 1:0:0:0:0, 2:0:0:0:1, 6:2:0:0:6, 0:0:0:0:0, 1:0:0:0:2, 2:1:0:0:1, 3:1:0:0:3, 1:0:0:0:0, 1:0:0:0:0, 3:0:0:0:2, 3:1:0:0:2, 2:0:0:0:1, 8:2:0:0:7, 4:2:0:0:5, 4:1:0:0:5, 4:1:0:0:4, 2:1:0:0:1, 3:1:0:0:5, 3:0:0:0:4, 4:0:0:0:2, 6:4:0:0:11, 4:2:0:0:6, 5:0:0:0:4, 6:1:0:0:4, 4:1:0:0:3, 6:3:0:0:7, 5:0:0:0:5, 5:3:0:0:4, 8:4:1:0:6, 7:9:4:0:9, 5:3:1:0:4, 1:0:0:0:0, 0:0:0:0:0, 1:0:0:0:1, 3:1:0:0:2, 1:0:0:0:0, 6:0:1:0:1, 3:0:0:0:4, 6:2:0:0:6, 1:0:0:0:0, 3:0:0:0:1, 2:0:0:0:1, 3:1:0:0:3, 1:0:0:0:0, 0:0:0:0:0, 1:0:0:0:1, 2:0:0:0:1, 1:0:0:0:0, 5:1:0:0:7, 4:2:0:0:3, 1:0:0:0:0, 2:0:0:0:1, 1:0:0:0:0, 1:0:0:0:1, 2:0:0:0:2, 2:0:0:0:1, 6:2:0:0:8, 4:2:0:0:5, 1:0:0:0:2, 4:2:0:0:5, 4:1:0:0:3, 4:2:0:0:5,  , 4:3:0:0:4, 5:4:1:0:5, 4:4:1:0:4, 3:1:0:0:2, 1:0:0:0:0, 0:0:0:0:0, 1:0:0:0:1, 2:0:0:0:1, 1:0:0:0:0, 1:0:0:0:0, 2:0:0:0:1, 4:2:0:0:4, 0:0:0:0:0, 2:0:0:0:2, 1:0:0:0:0, 3:1:0:0:5, 1:0:0:0:0, 0:0:0:0:0, 1:0:0:0:2, 2:0:0:0:1, 1:0:0:0:0, 7:2:0:0:6, 5:5:0:0:7, 1:0:0:0:0, 2:0:0:0:3, 1:0:0:0:0, 2:1:0:0:3, 2:0:0:0:2, 2:0:0:0:1, 9:4:0:0:8, 4:3:0:0:7, 1:0:0:0:1, 4:1:0:0:6, 4:1:0:0:6, 4:3:0:0:5, 0:0:0:0:0, 5:3:0:0:4, 5:4:1:0:5, 4:4:1:0:4, 4:1:0:0:3, 1:0:0:0:0, 1:0:0:0:1, 1:0:0:0:3, 2:0:0:0:4, 2:0:0:0:0, 2:0:0:0:0, 3:0:0:0:3, 4:2:0:0:4, 0:0:0:0:0, 1:0:0:0:1, 2:0:0:0:2, 4:1:0:0:4, 2:0:0:0:1, 1:0:0:0:0, 1:0:0:0:2, 2:0:0:0:1, 1:0:0:0:0, 6:1:0:0:7, 5:4:0:0:7, 1:0:0:0:0, 2:0:0:0:2, 2:0:0:0:1, 1:0:0:0:2, 2:0:0:0:4, 4:0:0:0:3, 6:4:0:0:10, 5:4:0:0:8, 2:0:0:0:1, 4:3:0:0:9, 4:1:0:0:5, 4:6:0:0:10, 1:0:0:0:0, 4:5:0:0:6, 5:3:1:0:4, 4:5:1:0:5, 4:1:0:0:2, 1:0:0:0:0, 1:0:0:0:1, 1:0:0:0:3, 2:0:0:0:1, 3:0:0:0:1, 3:0:0:0:2, 3:0:0:0:1, 4:2:0:0:4, 1:0:0:0:0, 1:0:0:0:3, 2:0:0:0:1, 0:0:0:0:0, 0:0:0:0:0, 0:0:0:0:0, 502:175:17:0:503
C# minor (4#), 5:4:1:0:4,  , 3:1:0:0:1,  , 5:4:1:0:4,  , 3:1:0:0:1,  , 4:2:0:0:2, 4:3:0:0:3, 3:1:0:0:1, 3:1:0:0:1, 4:2:0:0:2, 2:0:0:0:0, 1:0:0:0:0,  , 3:0:0:0:0, 4:2:0:0:2, 3:1:0:0:1, 2:0:0:0:0, 3:1:0:0:1, 2:0:0:0:0, 0:0:0:0:0, 0:0:0:0:0, 1:0:0:0:0, 3:0:2:0:2, 0:0:0:0:0, 0:0:0:0:0, 1:0:0:0:0, 4:0:1:0:1, 2:0:1:0:1, 4:1:0:0:1, 4:2:0:0:2, 4:3:0:0:3, 3:1:0:0:1, 3:1:0:0:1, 4:3:0:0:3, 5:5:0:0:5, 3:0:0:0:0, 1:0:0:0:0, 4:3:0:0:3, 4:1:0:0:1, 6:2:0:0:2, 4:2:0:0:2, 4:2:0:0:2, 6:2:0:0:2, 8:2:0:0:2, 3:2:0:0:2, 4:3:0:0:3, 6:0:0:0:0, 1:0:0:0:0, 0:0:0:0:0, 4:0:0:0:0, 4:2:0:0:2, 3:2:0:0:2, 3:0:0:0:0, 5:2:0:0:2, 3:0:0:0:0, 0:0:0:0:0, 1:0:0:0:0, 2:0:0:0:0, 1:0:0:0:0, 1:0:0:0:0, 1:0:0:0:0, 0:0:0:0:0, 5:0:2:0:2, 3:0:4:0:4, 4:1:1:0:2, 5:1:0:0:1, 4:3:0:0:3, 6:4:0:0:4, 3:4:0:0:4, 5:4:0:0:4, 8:8:1:0:8, 5:2:0:0:2, 2:0:0:0:0, 6:3:0:0:3, 5:1:0:0:1, 6:1:0:0:1, 5:4:0:0:4, 4:1:0:0:1, 4:2:0:0:2, 3:1:0:0:1, 3:2:0:0:2, 4:3:0:0:3, 2:0:0:0:0, 1:0:0:0:0, 1:0:0:0:0, 3:0:0:0:0, 4:1:0:0:1, 3:1:0:0:1, 2:0:0:0:0, 3:2:0:0:2, 1:0:0:0:0, 0:0:0:0:0, 0:0:0:0:0, 1:0:0:0:0, 1:0:0:0:0, 0:0:0:0:0,  , 0:0:0:0:0, 2:0:1:0:1, 2:0:1:0:1, 3:1:0:0:1, 4:1:0:0:1, 4:2:0:0:2, 3:1:0:0:1, 3:2:0:0:2, 4:3:0:0:3, 4:4:0:0:4, 3:0:0:0:0, 0:0:0:0:0, 4:2:0:0:2, 4:1:0:0:1, 5:3:0:0:3, 4:2:0:0:2, 4:1:0:0:1, 4:2:0:0:2, 3:1:0:0:1, 3:2:0:0:2, 4:3:0:0:3, 3:0:0:0:0, 1:0:0:0:0, 0:0:0:0:0, 3:0:0:0:0, 4:2:0:0:2, 3:1:0:0:1, 2:0:0:0:0, 4:2:0:0:2, 3:0:0:0:0, 0:0:0:0:0, 0:0:0:0:0, 1:0:0:0:0, 1:0:0:0:0, 0:0:0:0:0, 0:0:0:0:0, 0:0:0:0:0, 2:0:1:0:1, 2:0:1:0:1, 4:1:0:0:1, 4:1:0:0:1, 5:4:0:0:4, 3:1:0:0:1, 3:2:0:0:2, 4:2:0:0:2, 6:4:0:0:4, 5:0:0:0:0, 0:0:0:0:0, 4:2:0:0:2, 3:1:0:0:1, 5:3:0:0:3, 6:4:0:0:4, 5:2:0:0:2, 6:2:0:0:2, 5:2:0:0:2, 5:2:0:0:2, 5:2:0:0:2, 3:0:1:0:1, 1:0:0:0:0, 0:0:0:0:0, 4:0:0:0:0, 4:2:0:0:2, 4:1:0:0:1, 2:0:0:0:0, 4:1:0:0:1, 1:0:0:0:0, 0:0:0:0:0, 0:0:0:0:0, 1:0:0:0:0, 1:0:0:0:0, 0:0:0:0:0, 0:0:0:0:0, 0:0:0:0:0, 2:0:4:0:4, 2:0:1:0:1, 5:3:0:0:3, 4:1:0:0:1, 4:4:0:0:4, 3:1:0:0:1, 3:1:0:0:1, 4:2:0:0:2, 5:5:0:0:5, 4:0:0:0:0, 0:0:0:0:0, 5:3:0:0:3, 5:3:0:0:3, 4:1:0:0:1, 1:0:0:0:0, 1:0:0:0:0, 1:0:0:0:0, 538:212:24:0:233
Db major (5b), 2:0:1:0:0,  , 3:1:0:0:3,  , 2:0:1:0:0,  , 3:1:0:0:3,  , 2:0:0:0:1, 1:0:0:0:0, 1:0:0:0:6, 2:0:0:0:6, 2:0:0:0:1, 6:2:0:0:7, 4:2:0:0:4,  , 2:0:0:0:2, 2:0:0:0:1, 2:0:0:0:5, 2:0:0:0:5, 2:0:0:0:6, 7:2:0:0:12, 4:2:0:0:4, 2:0:0:0:3, 5:1:0:0:7, 5:1:0:0:6, 4:2:0:0:4, 2:0:0:0:3, 6:4:0:0:7, 7:3:1:0:7, 4:4:1:0:4, 3:1:0:0:3, 2:0:0:0:1, 1:0:0:0:0, 1:0:0:0:5, 2:0:0:0:6, 3:0:0:0:3, 0:0:0:0:0, 2:0:0:0:2, 6:2:0:0:6, 1:0:0:0:0, 2:0:0:0:2, 3:1:0:0:3, 4:1:0:0:6, 2:0:0:0:1, 2:0:0:0:1, 4:0:0:0:3, 3:1:0:0:4, 3:0:0:0:2, 9:2:0:0:9, 4:2:0:0:6, 3:0:1:3:0, 4:1:0:0:7, 3:1:0:0:4, 4:1:0:0:5, 4:0:0:0:4, 5:0:0:0:5, 7:3:0:0:13, 4:2:0:0:6, 4:0:0:0:5, 6:1:0:0:6, 4:1:0:0:4, 6:3:0:0:8, 5:0:0:0:6, 5:3:0:0:4, 8:4:1:0:8, 7:9:4:0:9, 5:1:0:0:3, 2:0:0:0:2, 1:0:0:0:0, 2:0:0:0:1, 3:1:0:0:4, 2:0:0:0:1, 5:0:1:0:1, 3:0:0:0:6, 6:2:0:0:6, 2:0:0:0:2, 2:0:0:0:2, 3:0:0:0:2, 4:1:0:0:5, 2:0:0:0:1, 1:0:0:0:0, 1:0:0:0:1, 2:0:0:0:2, 2:0:0:0:1, 6:1:0:0:8, 4:2:0:0:6, 1:0:0:0:1, 2:0:0:0:3, 2:0:0:0:1, 2:0:0:0:1, 2:0:0:0:2, 2:0:0:0:2, 6:2:0:0:10, 4:2:0:0:5, 1:0:0:0:2, 4:1:0:0:5, 4:1:0:0:4, 4:2:0:0:5,  , 4:3:0:0:4, 5:4:1:0:6, 4:4:1:0:4, 3:1:0:0:4, 2:0:0:0:1, 1:0:0:0:0, 1:0:0:0:1, 2:0:0:0:2, 2:0:0:0:1, 0:0:0:0:0, 2:0:0:0:3, 4:2:0:0:4, 1:0:0:0:0, 2:0:0:0:2, 2:0:0:0:1, 4:1:0:0:8, 2:0:0:0:1, 1:0:0:0:0, 1:0:0:0:2, 2:0:0:0:3, 2:0:0:0:2, 8:2:0:0:7, 5:2:0:0:6, 0:0:0:0:0, 2:0:0:0:4, 2:0:0:0:1, 3:1:0:0:3, 2:0:0:0:2, 2:0:0:0:2, 9:4:0:0:10, 4:3:0:0:7, 1:0:0:0:1, 4:1:0:0:7, 4:1:0:0:8, 4:3:0:0:5, 0:0:0:0:0, 5:3:0:0:4, 5:4:1:0:6, 4:4:1:0:4, 4:1:0:0:4, 2:0:0:0:3, 2:0:0:0:1, 1:0:0:0:3, 2:0:0:0:6, 3:0:0:0:2, 1:0:0:0:0, 4:0:0:0:4, 4:2:0:0:4, 1:0:0:0:0, 1:0:0:0:1, 3:0:0:0:4, 5:1:0:0:5, 3:0:0:0:3, 2:0:0:0:1, 2:0:0:0:2, 2:0:0:0:3, 2:0:0:0:1, 7:1:0:0:8, 5:2:0:0:7, 0:0:0:0:0, 3:0:0:0:3, 3:0:0:0:2, 2:0:0:0:2, 2:0:0:0:4, 3:0:0:0:4, 6:3:0:0:11, 5:4:0:0:8, 1:0:0:0:1, 4:1:0:0:8, 4:1:0:0:6, 4:6:0:0:10, 0:0:0:0:0, 4:5:0:0:6, 5:3:1:0:5, 4:4:1:0:4, 4:1:0:0:3, 2:0:0:0:3, 2:0:0:0:1, 1:0:0:0:3, 2:0:0:0:3, 4:0:0:0:4, 2:0:0:0:2, 3:0:0:0:3, 4:2:0:0:4, 2:0:0:0:1, 2:0:0:0:3, 2:0:0:0:2, 0:0:0:0:0, 0:0:0:0:0, 0:0:0:0:0, 559:160:17:3:653
B major (5#), 5:4:1:0:4,  , 4:1:0:0:1,  , 5:4:1:0:4,  , 4:1:0:0:1,  , 4:1:0:0:2, 4:2:0:0:2, 4:1:0:0:2, 4:1:0:0:2, 4:2:0:0:2, 3:0:0:0:0, 2:0:0:0:0,  , 4:0:0:0:2, 4:1:0:0:3, 3:1:0:0:1, 3:0:0:0:1, 4:1:0:0:2, 3:0:0:0:1, 1:0:0:0:0, 1:0:0:0:0, 2:0:0:0:0, 3:0:2:0:0, 1:0:0:0:0, 1:0:0:0:0, 0:0:0:0:0, 4:0:1:0:0, 1:0:1:0:0, 5:1:0:0:1, 4:1:0:0:2, 4:2:0:0:2, 4:1:0:0:2, 4:1:0:0:2, 5:3:0:0:3, 5:5:0:0:7, 4:0:0:0:6, 2:0:0:0:0, 4:2:0:0:2, 5:1:0:0:2, 6:1:0:0:2, 5:2:0:0:2, 4:1:0:0:2, 6:2:0:0:2, 9:2:0:0:3, 4:2:0:0:5, 5:3:0:0:3, 7:0:0:0:1, 2:0:0:0:0, 1:0:0:0:0, 5:0:0:0:1, 4:1:0:0:2, 4:1:0:0:1, 4:0:0:0:2, 6:2:0:0:3, 4:0:0:0:0, 1:0:0:0:0, 2:0:0:0:0, 3:0:0:0:1, 1:0:0:0:0, 2:0:0:0:0, 2:0:0:0:0, 0:0:0:0:0, 4:0:2:0:0, 2:0:4:0:2, 5:1:1:0:1, 5:1:0:0:2, 4:2:0:0:2, 7:4:0:0:6, 4:4:0:0:6, 5:3:0:0:4, 9:7:1:0:7, 6:2:0:0:4, 1:0:0:0:0, 6:2:0:0:4, 6:1:0:0:3, 7:1:0:0:3, 6:4:0:0:4, 4:1:0:0:2, 4:2:0:0:2, 4:1:0:0:4, 4:2:0:0:3, 4:3:0:0:3, 3:0:0:0:0, 2:0:0:0:0, 1:0:0:0:0, 4:0:0:0:1, 4:1:0:0:2, 3:1:0:0:1, 3:0:0:0:2, 4:2:0:0:3, 2:0:0:0:0, 1:0:0:0:0, 1:0:0:0:0, 2:0:0:0:0, 1:0:0:0:0, 1:0:0:0:0,  , 0:0:0:0:0, 2:0:1:0:0, 1:0:1:0:0, 4:1:0:0:1, 4:1:0:0:2, 4:2:0:0:2, 4:1:0:0:4, 4:2:0:0:3, 4:3:0:0:3, 4:4:0:0:4, 4:0:0:0:1, 0:0:0:0:0, 4:2:0:0:2, 5:1:0:0:4, 5:1:0:0:2, 5:2:0:0:2, 4:1:0:0:2, 4:2:0:0:2, 4:1:0:0:3, 4:2:0:0:4, 4:3:0:0:3, 4:0:0:0:0, 2:0:0:0:0, 0:0:0:0:0, 4:0:0:0:1, 4:1:0:0:2, 3:1:0:0:1, 3:0:0:0:2, 5:2:0:0:3, 4:0:0:0:0, 1:0:0:0:0, 1:0:0:0:0, 2:0:0:0:0, 1:0:0:0:0, 1:0:0:0:0, 0:0:0:0:0, 0:0:0:0:0, 2:0:1:0:0, 1:0:1:0:0, 5:1:0:0:1, 4:1:0:0:2, 5:2:0:0:2, 4:1:0:0:2, 4:2:0:0:5, 4:2:0:0:2, 6:4:0:0:4, 6:0:0:0:1, 0:0:0:0:0, 4:2:0:0:2, 4:1:0:0:4, 6:2:0:0:4, 7:4:0:0:4, 6:1:0:0:2, 6:2:0:0:3, 6:2:0:0:3, 6:2:0:0:4, 5:2:0:0:3, 4:0:1:0:0, 2:0:0:0:0, 0:0:0:0:0, 5:0:0:0:2, 5:2:0:0:3, 4:1:0:0:2, 3:0:0:0:1, 5:1:0:0:4, 2:0:0:0:0, 1:0:0:0:0, 0:0:0:0:0, 2:0:0:0:0, 1:0:0:0:0, 1:0:0:0:0, 0:0:0:0:0, 0:0:0:0:0, 2:0:4:0:0, 1:0:1:0:0, 6:3:0:0:3, 4:1:0:0:2, 5:3:0:0:3, 4:1:0:0:3, 4:1:0:0:2, 5:2:0:0:2, 6:5:0:0:5, 5:0:0:0:2, 0:0:0:0:0, 5:2:0:0:2, 6:3:0:0:5, 5:1:0:0:2, 1:0:0:0:0, 1:0:0:0:0, 1:0:0:0:0, 636:189:24:0:304
Bb minor (5b), 2:0:1:0:0,  , 3:1:0:0:3,  , 2:0:1:0:0,  , 3:1:0:0:3,  , 2:0:0:0:1, 1:0:0:0:0, 1:0:0:0:6, 2:0:0:0:6, 2:0:0:0:1, 6:2:0:0:7, 4:2:0:0:4,  , 2:0:0:0:2, 2:0:0:0:1, 2:0:0:0:5, 2:0:0:0:5, 2:0:0:0:6, 7:2:0:0:12, 4:2:0:0:4, 2:0:0:0:3, 5:1:0:0:7, 5:1:0:0:6, 4:2:0:0:4, 2:0:0:0:3, 6:4:0:0:7, 7:3:1:0:7, 4:4:1:0:4, 3:1:0:0:3, 2:0:0:0:1, 1:0:0:0:0, 1:0:0:0:5, 2:0:0:0:6, 3:0:0:0:3, 0:0:0:0:0, 2:0:0:0:2, 6:2:0:0:6, 1:0:0:0:0, 2:0:0:0:2, 3:1:0:0:3, 4:1:0:0:6, 2:0:0:0:1, 2:0:0:0:1, 4:0:0:0:3, 3:1:0:0:4, 3:0:0:0:2, 9:2:0:0:9, 4:2:0:0:6, 3:0:1:3:0, 4:1:0:0:7, 3:1:0:0:4, 4:1:0:0:5, 4:0:0:0:4, 5:0:0:0:5, 7:3:0:0:13, 4:2:0:0:6, 4:0:0:0:5, 6:1:0:0:6, 4:1:0:0:4, 6:3:0:0:8, 5:0:0:0:6, 5:3:0:0:4, 8:4:1:0:8, 7:9:4:0:9, 5:1:0:0:3, 2:0:0:0:2, 1:0:0:0:0, 2:0:0:0:1, 3:1:0:0:4, 2:0:0:0:1, 5:0:1:0:1, 3:0:0:0:6, 6:2:0:0:6, 2:0:0:0:2, 2:0:0:0:2, 3:0:0:0:2, 4:1:0:0:5, 2:0:0:0:1, 1:0:0:0:0, 1:0:0:0:1, 2:0:0:0:2, 2:0:0:0:1, 6:1:0:0:8, 4:2:0:0:6, 1:0:0:0:1, 2:0:0:0:3, 2:0:0:0:1, 2:0:0:0:1, 2:0:0:0:2, 2:0:0:0:2, 6:2:0:0:10, 4:2:0:0:5, 1:0:0:0:2, 4:1:0:0:5, 4:1:0:0:4, 4:2:0:0:5,  , 4:3:0:0:4, 5:4:1:0:6, 4:4:1:0:4, 3:1:0:0:4, 2:0:0:0:1, 1:0:0:0:0, 1:0:0:0:1, 2:0:0:0:2, 2:0:0:0:1, 0:0:0:0:0, 2:0:0:0:3, 4:2:0:0:4, 1:0:0:0:0, 2:0:0:0:2, 2:0:0:0:1, 4:1:0:0:8, 2:0:0:0:1, 1:0:0:0:0, 1:0:0:0:2, 2:0:0:0:3, 2:0:0:0:2, 8:2:0:0:7, 5:2:0:0:6, 0:0:0:0:0, 2:0:0:0:4, 2:0:0:0:1, 3:1:0:0:3, 2:0:0:0:2, 2:0:0:0:2, 9:4:0:0:10, 4:3:0:0:7, 1:0:0:0:1, 4:1:0:0:7, 4:1:0:0:8, 4:3:0:0:5, 0:0:0:0:0, 5:3:0:0:4, 5:4:1:0:6, 4:4:1:0:4, 4:1:0:0:4, 2:0:0:0:3, 2:0:0:0:1, 1:0:0:0:3, 2:0:0:0:6, 3:0:0:0:2, 1:0:0:0:0, 4:0:0:0:4, 4:2:0:0:4, 1:0:0:0:0, 1:0:0:0:1, 3:0:0:0:4, 5:1:0:0:5, 3:0:0:0:3, 2:0:0:0:1, 2:0:0:0:2, 2:0:0:0:3, 2:0:0:0:1, 7:1:0:0:8, 5:2:0:0:7, 0:0:0:0:0, 3:0:0:0:3, 3:0:0:0:2, 2:0:0:0:2, 2:0:0:0:4, 3:0:0:0:4, 6:3:0:0:11, 5:4:0:0:8, 1:0:0:0:1, 4:1:0:0:8, 4:1:0:0:6, 4:6:0:0:10, 0:0:0:0:0, 4:5:0:0:6, 5:3:1:0:5, 4:4:1:0:4, 4:1:0:0:3, 2:0:0:0:3, 2:0:0:0:1, 1:0:0:0:3, 2:0:0:0:3, 4:0:0:0:4, 2:0:0:0:2, 3:0:0:0:3, 4:2:0:0:4, 2:0:0:0:1, 2:0:0:0:3, 2:0:0:0:2, 0:0:0:0:0, 0:0:0:0:0, 0:0:0:0:0, 559:160:17:3:653
G# minor (5#), 5:4:1:0:4,  , 4:1:0:0:1,  , 5:4:1:0:4,  , 4:1:0:0:1,  , 4:1:0:0:2, 4:2:0:0:2, 4:1:0:0:2, 4:1:0:0:2, 4:2:0:0:2, 3:0:0:0:0, 2:0:0:0:0,  , 4:0:0:0:2, 4:1:0:0:3, 3:1:0:0:1, 3:0:0:0:1, 4:1:0:0:2, 3:0:0:0:1, 1:0:0:0:0, 1:0:0:0:0, 2:0:0:0:0, 3:0:2:0:0, 1:0:0:0:0, 1:0:0:0:0, 0:0:0:0:0, 4:0:1:0:0, 1:0:1:0:0, 5:1:0:0:1, 4:1:0:0:2, 4:2:0:0:2, 4:1:0:0:2, 4:1:0:0:2, 5:3:0:0:3, 5:5:0:0:7, 4:0:0:0:6, 2:0:0:0:0, 4:2:0:0:2, 5:1:0:0:2, 6:1:0:0:2, 5:2:0:0:2, 4:1:0:0:2, 6:2:0:0:2, 9:2:0:0:3, 4:2:0:0:5, 5:3:0:0:3, 7:0:0:0:1, 2:0:0:0:0, 1:0:0:0:0, 5:0:0:0:1, 4:1:0:0:2, 4:1:0:0:1, 4:0:0:0:2, 6:2:0:0:3, 4:0:0:0:0, 1:0:0:0:0, 2:0:0:0:0, 3:0:0:0:1, 1:0:0:0:0, 2:0:0:0:0, 2:0:0:0:0, 0:0:0:0:0, 4:0:2:0:0, 2:0:4:0:2, 5:1:1:0:1, 5:1:0:0:2, 4:2:0:0:2, 7:4:0:0:6, 4:4:0:0:6, 5:3:0:0:4, 9:7:1:0:7, 6:2:0:0:4, 1:0:0:0:0, 6:2:0:0:4, 6:1:0:0:3, 7:1:0:0:3, 6:4:0:0:4, 4:1:0:0:2, 4:2:0:0:2, 4:1:0:0:4, 4:2:0:0:3, 4:3:0:0:3, 3:0:0:0:0, 2:0:0:0:0, 1:0:0:0:0, 4:0:0:0:1, 4:1:0:0:2, 3:1:0:0:1, 3:0:0:0:2, 4:2:0:0:3, 2:0:0:0:0, 1:0:0:0:0, 1:0:0:0:0, 2:0:0:0:0, 1:0:0:0:0, 1:0:0:0:0,  , 0:0:0:0:0, 2:0:1:0:0, 1:0:1:0:0, 4:1:0:0:1, 4:1:0:0:2, 4:2:0:0:2, 4:1:0:0:4, 4:2:0:0:3, 4:3:0:0:3, 4:4:0:0:4, 4:0:0:0:1, 0:0:0:0:0, 4:2:0:0:2, 5:1:0:0:4, 5:1:0:0:2, 5:2:0:0:2, 4:1:0:0:2, 4:2:0:0:2, 4:1:0:0:3, 4:2:0:0:4, 4:3:0:0:3, 4:0:0:0:0, 2:0:0:0:0, 0:0:0:0:0, 4:0:0:0:1, 4:1:0:0:2, 3:1:0:0:1, 3:0:0:0:2, 5:2:0:0:3, 4:0:0:0:0, 1:0:0:0:0, 1:0:0:0:0, 2:0:0:0:0, 1:0:0:0:0, 1:0:0:0:0, 0:0:0:0:0, 0:0:0:0:0, 2:0:1:0:0, 1:0:1:0:0, 5:1:0:0:1, 4:1:0:0:2, 5:2:0:0:2, 4:1:0:0:2, 4:2:0:0:5, 4:2:0:0:2, 6:4:0:0:4, 6:0:0:0:1, 0:0:0:0:0, 4:2:0:0:2, 4:1:0:0:4, 6:2:0:0:4, 7:4:0:0:4, 6:1:0:0:2, 6:2:0:0:3, 6:2:0:0:3, 6:2:0:0:4, 5:2:0:0:3, 4:0:1:0:0, 2:0:0:0:0, 0:0:0:0:0, 5:0:0:0:2, 5:2:0:0:3, 4:1:0:0:2, 3:0:0:0:1, 5:1:0:0:4, 2:0:0:0:0, 1:0:0:0:0, 0:0:0:0:0, 2:0:0:0:0, 1:0:0:0:0, 1:0:0:0:0, 0:0:0:0:0, 0:0:0:0:0, 2:0:4:0:0, 1:0:1:0:0, 6:3:0:0:3, 4:1:0:0:2, 5:3:0:0:3, 4:1:0:0:3, 4:1:0:0:2, 5:2:0:0:2, 6:5:0:0:5, 5:0:0:0:2, 0:0:0:0:0, 5:2:0:0:2, 6:3:0:0:5, 5:1:0:0:2, 1:0:0:0:0, 1:0:0:0:0, 1:0:0:0:0, 636:189:24:0:304
Gb major (6b), 2:0:1:0:1,  , 4:1:0:0:3,  , 2:0:1:0:1,  , 4:1:0:0:3,  , 2:0:0:0:2, 2:0:0:0:1, 2:0:0:0:6, 2:0:0:0:6, 2:0:0:0:6, 6:2:0:0:11, 4:2:0:0:4,  , 3:0:0:0:2, 2:0:0:0:2, 3:0:0:0:6, 3:0:0:0:5, 2:0:0:0:6, 7:2:0:0:12, 4:2:0:0:4, 2:0:0:0:3, 5:1:0:0:7, 6:1:0:0:6, 4:2:0:0:4, 2:0:0:0:3, 6:3:0:0:4, 7:3:1:0:7, 4:4:1:0:4, 4:1:0:0:3, 2:0:0:0:2, 2:0:0:0:1, 2:0:0:0:5, 2:0:0:0:6, 3:0:0:0:7, 0:0:0:0:0, 3:0:0:0:2, 6:2:0:0:7, 2:0:0:0:2, 3:0:0:0:3, 4:1:0:0:6, 5:1:0:0:8, 2:0:0:0:3, 3:0:0:0:2, 5:0:0:0:4, 3:1:0:0:4, 3:0:0:0:3, 9:2:0:0:12, 4:2:0:0:6, 2:0:0:3:0, 5:1:0:0:7, 3:1:0:0:5, 5:1:0:0:6, 5:0:0:0:5, 5:1:0:0:7, 7:3:0:0:13, 4:2:0:0:6, 4:0:0:0:5, 6:1:0:0:6, 4:1:0:0:4, 6:3:0:0:8, 4:0:0:0:5, 5:3:0:0:4, 8:4:1:0:9, 7:9:4:0:9, 6:1:0:0:3, 3:0:0:0:3, 2:0:0:0:2, 3:0:0:0:2, 3:1:0:0:4, 2:0:0:0:2, 6:0:0:0:2, 4:0:0:0:6, 6:2:0:0:7, 3:0:0:0:3, 3:0:0:0:2, 4:0:0:0:4, 5:1:0:0:6, 2:0:0:0:3, 2:0:0:0:1, 2:0:0:0:1, 2:0:0:0:2, 2:0:0:0:2, 6:1:0:0:10, 4:2:0:0:6, 1:0:0:0:1, 3:0:0:0:3, 2:0:0:0:3, 3:0:0:0:2, 3:0:0:0:2, 2:0:0:0:2, 6:2:0:0:9, 4:2:0:0:5, 1:0:0:0:2, 4:1:0:0:4, 4:1:0:0:4, 4:2:0:0:5,  , 4:3:0:0:4, 5:4:1:0:6, 4:4:1:0:4, 4:1:0:0:4, 2:0:0:0:3, 2:0:0:0:1, 2:0:0:0:1, 2:0:0:0:2, 2:0:0:0:2, 0:0:0:0:0, 3:0:0:0:3, 4:2:0:0:4, 2:0:0:0:1, 3:0:0:0:2, 3:0:0:0:2, 5:1:0:0:9, 2:0:0:0:5, 2:0:0:0:1, 2:0:0:0:2, 2:0:0:0:3, 2:0:0:0:4, 8:2:0:0:11, 5:2:0:0:6, 0:0:0:0:0, 3:0:0:0:4, 2:0:0:0:5, 4:1:0:0:5, 3:0:0:0:2, 3:0:0:0:2, 9:5:0:0:11, 4:3:0:0:7, 1:0:0:0:1, 4:1:0:0:4, 4:1:0:0:8, 4:3:0:0:5, 0:0:0:0:0, 5:3:0:0:4, 5:4:1:0:6, 4:4:1:0:4, 5:1:0:0:4, 2:0:0:0:4, 3:0:0:0:2, 2:0:0:0:3, 2:0:0:0:6, 3:0:0:0:5, 1:0:0:0:1, 5:0:0:0:5, 4:2:0:0:4, 2:0:0:0:3, 2:0:0:0:1, 4:0:0:0:5, 6:1:0:0:7, 4:0:0:0:4, 3:0:0:0:3, 3:0:0:0:3, 3:0:0:0:3, 2:0:0:0:4, 7:1:0:0:10, 5:2:0:0:7, 0:0:0:0:0, 4:0:0:0:4, 3:0:0:0:4, 3:0:0:0:4, 3:0:0:0:4, 3:0:0:0:4, 6:3:0:0:11, 5:4:0:0:8, 1:0:0:0:1, 4:1:0:0:8, 4:1:0:0:6, 4:6:0:0:10, 0:0:0:0:0, 4:5:0:0:6, 5:3:1:0:5, 4:4:1:0:4, 5:1:0:0:3, 2:0:0:0:4, 3:0:0:0:2, 2:0:0:0:3, 2:0:0:0:3, 4:0:0:0:7, 2:0:0:0:3, 4:0:0:0:3, 4:2:0:0:4, 3:0:0:0:2, 3:0:0:0:4, 3:0:0:0:2, 1:0:0:0:0, 1:0:0:0:0, 1:0:0:0:0, 632:161:15:3:768
F# major (6#), 5:4:1:0:4,  , 4:1:0:0:2,  , 5:4:1:0:4,  , 4:1:0:0:2,  , 4:1:0:0:2, 4:2:0:0:3, 4:1:0:0:3, 4:1:0:0:2, 4:2:0:0:2, 4:0:0:0:0, 2:0:0:0:0,  , 4:0:0:0:2, 4:1:0:0:2, 4:1:0:0:2, 4:0:0:0:2, 4:1:0:0:2, 4:0:0:0:1, 2:0:0:0:0, 2:0:0:0:0, 3:0:0:0:0, 4:0:0:0:1, 2:0:0:0:0, 2:0:0:0:0, 0:0:0:0:0, 3:0:0:0:1, 0:0:0:0:0, 5:1:0:0:2, 4:1:0:0:2, 4:2:0:0:3, 4:1:0:0:3, 4:1:0:0:2, 5:3:0:0:3, 5:5:0:0:7, 4:0:0:0:2, 3:0:0:0:0, 4:2:0:0:3, 5:1:0:0:3, 6:1:0:0:3, 5:2:0:0:4, 4:1:0:0:2, 6:2:0:0:3, 9:2:0:0:5, 4:2:0:0:3, 5:3:0:0:3, 8:0:0:0:1, 2:0:0:0:0, 1:0:0:0:0, 6:0:0:0:2, 4:1:0:0:2, 5:1:0:0:3, 5:0:0:0:3, 6:2:0:0:4, 5:0:0:0:0, 2:0:0:0:0, 3:0:0:0:0, 3:1:1:0:1, 2:0:0:0:0, 3:0:0:0:0, 3:0:0:0:0, 0:0:0:0:0, 3:0:0:0:0, 1:0:2:0:0, 5:1:0:0:2, 5:1:0:0:3, 4:2:0:0:5, 7:4:0:0:10, 4:4:0:0:5, 5:3:0:0:4, 9:7:1:0:8, 6:2:0:0:5, 2:0:0:0:0, 6:2:0:0:3, 6:1:0:0:4, 7:1:0:0:5, 6:4:0:0:7, 4:1:0:0:2, 4:2:0:0:5, 4:1:0:0:5, 4:2:0:0:3, 4:3:0:0:3, 4:0:0:0:0, 2:0:0:0:0, 1:0:0:0:0, 4:0:0:0:2, 4:1:0:0:2, 4:1:0:0:3, 4:0:0:0:3, 4:2:0:0:3, 3:0:0:0:0, 2:0:0:0:0, 1:0:0:0:0, 2:0:0:0:0, 2:0:0:0:0, 2:0:0:0:0,  , 0:0:0:0:0, 1:0:0:0:0, 0:0:0:0:0, 4:1:0:0:2, 4:1:0:0:2, 4:2:0:0:5, 4:1:0:0:5, 4:2:0:0:3, 4:3:0:0:3, 4:4:0:0:4, 4:0:0:0:2, 1:0:0:0:0, 4:2:0:0:4, 5:1:0:0:5, 5:1:0:0:3, 5:2:0:0:4, 4:1:0:0:2, 4:2:0:0:6, 4:1:0:0:5, 4:2:0:0:3, 4:3:0:0:3, 5:0:0:0:0, 3:0:0:0:0, 0:0:0:0:0, 4:0:0:0:2, 4:1:0:0:2, 4:1:0:0:3, 4:0:0:0:5, 5:2:0:0:4, 5:0:0:0:1, 2:0:0:0:0, 1:0:0:0:0, 2:0:0:0:0, 2:0:0:0:0, 2:0:0:0:0, 0:0:0:0:0, 0:0:0:0:0, 1:0:0:0:0, 0:0:0:0:0, 5:1:0:0:2, 4:1:0:0:2, 5:2:0:0:6, 4:1:0:0:3, 4:2:0:0:3, 4:2:0:0:2, 6:4:0:0:4, 6:0:0:0:2, 1:0:0:0:0, 4:2:0:0:3, 4:1:0:0:7, 6:2:0:0:4, 7:4:0:0:8, 6:1:0:0:3, 6:2:0:0:3, 6:2:0:0:5, 6:2:0:0:4, 5:2:0:0:2, 5:0:0:0:0, 3:0:0:0:0, 0:0:0:0:0, 5:0:0:0:2, 5:2:0:0:3, 5:1:0:0:2, 4:0:0:0:3, 6:1:0:0:3, 3:0:0:0:0, 2:0:0:0:0, 1:0:0:0:0, 2:0:0:0:0, 2:0:0:0:0, 2:0:0:0:0, 0:0:0:0:0, 0:0:0:0:0, 1:0:0:0:0, 0:0:0:0:0, 6:3:0:0:4, 4:1:0:0:2, 5:3:0:0:6, 4:1:0:0:4, 4:1:0:0:2, 5:2:0:0:2, 6:5:0:0:5, 5:0:0:0:2, 1:0:0:0:0, 5:2:0:0:4, 6:3:0:0:7, 5:1:0:0:3, 1:0:0:0:1, 1:0:0:0:1, 1:0:0:0:1, 676:190:6:0:396
Eb minor (6b), 2:0:1:0:1,  , 4:1:0:0:3,  , 2:0:1:0:1,  , 4:1:0:0:3,  , 2:0:0:0:2, 2:0:0:0:1, 2:0:0:0:6, 2:0:0:0:6, 2:0:0:0:6, 6:2:0:0:11, 4:2:0:0:4,  , 3:0:0:0:2, 2:0:0:0:2, 3:0:0:0:6, 3:0:0:0:5, 2:0:0:0:6, 7:2:0:0:12, 4:2:0:0:4, 2:0:0:0:3, 5:1:0:0:7, 6:1:0:0:6, 4:2:0:0:4, 2:0:0:0:3, 6:3:0:0:4, 7:3:1:0:7, 4:4:1:0:4, 4:1:0:0:3, 2:0:0:0:2, 2:0:0:0:1, 2:0:0:0:5, 2:0:0:0:6, 3:0:0:0:7, 0:0:0:0:0, 3:0:0:0:2, 6:2:0:0:7, 2:0:0:0:2, 3:0:0:0:3, 4:1:0:0:6, 5:1:0:0:8, 2:0:0:0:3, 3:0:0:0:2, 5:0:0:0:4, 3:1:0:0:4, 3:0:0:0:3, 9:2:0:0:12, 4:2:0:0:6, 2:0:0:3:0, 5:1:0:0:7, 3:1:0:0:5, 5:1:0:0:6, 5:0:0:0:5, 5:1:0:0:7, 7:3:0:0:13, 4:2:0:0:6, 4:0:0:0:5, 6:1:0:0:6, 4:1:0:0:4, 6:3:0:0:8, 4:0:0:0:5, 5:3:0:0:4, 8:4:1:0:9, 7:9:4:0:9, 6:1:0:0:3, 3:0:0:0:3, 2:0:0:0:2, 3:0:0:0:2, 3:1:0:0:4, 2:0:0:0:2, 6:0:0:0:2, 4:0:0:0:6, 6:2:0:0:7, 3:0:0:0:3, 3:0:0:0:2, 4:0:0:0:4, 5:1:0:0:6, 2:0:0:0:3, 2:0:0:0:1, 2:0:0:0:1, 2:0:0:0:2, 2:0:0:0:2, 6:1:0:0:10, 4:2:0:0:6, 1:0:0:0:1, 3:0:0:0:3, 2:0:0:0:3, 3:0:0:0:2, 3:0:0:0:2, 2:0:0:0:2, 6:2:0:0:9, 4:2:0:0:5, 1:0:0:0:2, 4:1:0:0:4, 4:1:0:0:4, 4:2:0:0:5,  , 4:3:0:0:4, 5:4:1:0:6, 4:4:1:0:4, 4:1:0:0:4, 2:0:0:0:3, 2:0:0:0:1, 2:0:0:0:1, 2:0:0:0:2, 2:0:0:0:2, 0:0:0:0:0, 3:0:0:0:3, 4:2:0:0:4, 2:0:0:0:1, 3:0:0:0:2, 3:0:0:0:2, 5:1:0:0:9, 2:0:0:0:5, 2:0:0:0:1, 2:0:0:0:2, 2:0:0:0:3, 2:0:0:0:4, 8:2:0:0:11, 5:2:0:0:6, 0:0:0:0:0, 3:0:0:0:4, 2:0:0:0:5, 4:1:0:0:5, 3:0:0:0:2, 3:0:0:0:2, 9:5:0:0:11, 4:3:0:0:7, 1:0:0:0:1, 4:1:0:0:4, 4:1:0:0:8, 4:3:0:0:5, 0:0:0:0:0, 5:3:0:0:4, 5:4:1:0:6, 4:4:1:0:4, 5:1:0:0:4, 2:0:0:0:4, 3:0:0:0:2, 2:0:0:0:3, 2:0:0:0:6, 3:0:0:0:5, 1:0:0:0:1, 5:0:0:0:5, 4:2:0:0:4, 2:0:0:0:3, 2:0:0:0:1, 4:0:0:0:5, 6:1:0:0:7, 4:0:0:0:4, 3:0:0:0:3, 3:0:0:0:3, 3:0:0:0:3, 2:0:0:0:4, 7:1:0:0:10, 5:2:0:0:7, 0:0:0:0:0, 4:0:0:0:4, 3:0:0:0:4, 3:0:0:0:4, 3:0:0:0:4, 3:0:0:0:4, 6:3:0:0:11, 5:4:0:0:8, 1:0:0:0:1, 4:1:0:0:8, 4:1:0:0:6, 4:6:0:0:10, 0:0:0:0:0, 4:5:0:0:6, 5:3:1:0:5, 4:4:1:0:4, 5:1:0:0:3, 2:0:0:0:4, 3:0:0:0:2, 2:0:0:0:3, 2:0:0:0:3, 4:0:0:0:7, 2:0:0:0:3, 4:0:0:0:3, 4:2:0:0:4, 3:0:0:0:2, 3:0:0:0:4, 3:0:0:0:2, 1:0:0:0:0, 1:0:0:0:0, 1:0:0:0:0, 632:161:15:3:768
D# minor (6#), 5:4:1:0:4,  , 4:1:0:0:2,  , 5:4:1:0:4,  , 4:1:0:0:2,  , 4:1:0:0:2, 4:2:0:0:3, 4:1:0:0:3, 4:1:0:0:2, 4:2:0:0:2, 4:0:0:0:0, 2:0:0:0:0,  , 4:0:0:0:2, 4:1:0:0:2, 4:1:0:0:2, 4:0:0:0:2, 4:1:0:0:2, 4:0:0:0:1, 2:0:0:0:0, 2:0:0:0:0, 3:0:0:0:0, 4:0:0:0:1, 2:0:0:0:0, 2:0:0:0:0, 0:0:0:0:0, 3:0:0:0:1, 0:0:0:0:0, 5:1:0:0:2, 4:1:0:0:2, 4:2:0:0:3, 4:1:0:0:3, 4:1:0:0:2, 5:3:0:0:3, 5:5:0:0:7, 4:0:0:0:2, 3:0:0:0:0, 4:2:0:0:3, 5:1:0:0:3, 6:1:0:0:3, 5:2:0:0:4, 4:1:0:0:2, 6:2:0:0:3, 9:2:0:0:5, 4:2:0:0:3, 5:3:0:0:3, 8:0:0:0:1, 2:0:0:0:0, 1:0:0:0:0, 6:0:0:0:2, 4:1:0:0:2, 5:1:0:0:3, 5:0:0:0:3, 6:2:0:0:4, 5:0:0:0:0, 2:0:0:0:0, 3:0:0:0:0, 3:1:1:0:1, 2:0:0:0:0, 3:0:0:0:0, 3:0:0:0:0, 0:0:0:0:0, 3:0:0:0:0, 1:0:2:0:0, 5:1:0:0:2, 5:1:0:0:3, 4:2:0:0:5, 7:4:0:0:10, 4:4:0:0:5, 5:3:0:0:4, 9:7:1:0:8, 6:2:0:0:5, 2:0:0:0:0, 6:2:0:0:3, 6:1:0:0:4, 7:1:0:0:5, 6:4:0:0:7, 4:1:0:0:2, 4:2:0:0:5, 4:1:0:0:5, 4:2:0:0:3, 4:3:0:0:3, 4:0:0:0:0, 2:0:0:0:0, 1:0:0:0:0, 4:0:0:0:2, 4:1:0:0:2, 4:1:0:0:3, 4:0:0:0:3, 4:2:0:0:3, 3:0:0:0:0, 2:0:0:0:0, 1:0:0:0:0, 2:0:0:0:0, 2:0:0:0:0, 2:0:0:0:0,  , 0:0:0:0:0, 1:0:0:0:0, 0:0:0:0:0, 4:1:0:0:2, 4:1:0:0:2, 4:2:0:0:5, 4:1:0:0:5, 4:2:0:0:3, 4:3:0:0:3, 4:4:0:0:4, 4:0:0:0:2, 1:0:0:0:0, 4:2:0:0:4, 5:1:0:0:5, 5:1:0:0:3, 5:2:0:0:4, 4:1:0:0:2, 4:2:0:0:6, 4:1:0:0:5, 4:2:0:0:3, 4:3:0:0:3, 5:0:0:0:0, 3:0:0:0:0, 0:0:0:0:0, 4:0:0:0:2, 4:1:0:0:2, 4:1:0:0:3, 4:0:0:0:5, 5:2:0:0:4, 5:0:0:0:1, 2:0:0:0:0, 1:0:0:0:0, 2:0:0:0:0, 2:0:0:0:0, 2:0:0:0:0, 0:0:0:0:0, 0:0:0:0:0, 1:0:0:0:0, 0:0:0:0:0, 5:1:0:0:2, 4:1:0:0:2, 5:2:0:0:6, 4:1:0:0:3, 4:2:0:0:3, 4:2:0:0:2, 6:4:0:0:4, 6:0:0:0:2, 1:0:0:0:0, 4:2:0:0:3, 4:1:0:0:7, 6:2:0:0:4, 7:4:0:0:8, 6:1:0:0:3, 6:2:0:0:3, 6:2:0:0:5, 6:2:0:0:4, 5:2:0:0:2, 5:0:0:0:0, 3:0:0:0:0, 0:0:0:0:0, 5:0:0:0:2, 5:2:0:0:3, 5:1:0:0:2, 4:0:0:0:3, 6:1:0:0:3, 3:0:0:0:0, 2:0:0:0:0, 1:0:0:0:0, 2:0:0:0:0, 2:0:0:0:0, 2:0:0:0:0, 0:0:0:0:0, 0:0:0:0:0, 1:0:0:0:0, 0:0:0:0:0, 6:3:0:0:4, 4:1:0:0:2, 5:3:0:0:6, 4:1:0:0:4, 4:1:0:0:2, 5:2:0:0:2, 6:5:0:0:5, 5:0:0:0:2, 1:0:0:0:0, 5:2:0:0:4, 6:3:0:0:7, 5:1:0:0:3, 1:0:0:0:1, 1:0:0:0:1, 1:0:0:0:1, 676:190:6:0:396
Cb major (7b), 1:0:0:0:1,  , 4:1:0:0:4,  , 1:0:0:0:1,  , 4:1:0:0:4,  , 3:0:0:0:2, 2:0:0:0:2, 3:0:0:0:7, 3:0:0:0:6, 2:0:0:0:6, 6:2:0:0:11, 4:2:0:0:4,  , 4:0:0:0:3, 3:0:0:0:2, 3:0:0:0:3, 4:0:0:0:6, 3:0:0:0:6, 7:2:0:0:12, 4:2:0:0:4, 1:0:0:0:1, 5:1:0:0:6, 7:1:0:0:7, 4:2:0:0:4, 1:0:0:0:1, 6:3:0:0:4, 7:3:1:0:8, 4:4:1:0:4, 4:1:0:0:4, 3:0:0:0:2, 2:0:0:0:2, 3:0:0:0:6, 3:0:0:0:6, 3:0:0:0:7, 1:0:0:0:0, 4:0:0:0:3, 6:2:0:0:7, 2:0:0:0:3, 4:0:0:0:4, 5:1:0:0:7, 5:1:0:0:10, 3:0:0:0:3, 3:0:0:0:3, 6:0:0:0:5, 4:1:0:0:4, 3:0:0:0:3, 10:2:0:0:12, 4:2:0:0:6, 2:0:0:3:0, 6:1:0:0:7, 4:1:0:0:5, 5:0:0:0:5, 6:0:0:0:6, 6:1:0:0:8, 7:3:0:0:13, 4:2:0:0:5, 3:0:0:0:3, 6:1:0:0:5, 4:1:0:0:4, 6:2:0:0:6, 3:0:0:0:3, 5:3:0:0:4, 7:5:2:0:9, 7:9:4:0:9, 6:1:0:0:4, 4:0:0:0:4, 2:0:0:0:5, 4:0:0:0:6, 4:1:0:0:4, 3:0:0:0:2, 6:0:0:0:3, 5:0:0:0:8, 6:2:0:0:5, 4:0:0:0:4, 4:0:0:0:3, 5:0:0:0:7, 5:1:0:0:9, 3:0:0:0:3, 2:0:0:0:4, 3:0:0:0:2, 3:0:0:0:2, 2:0:0:0:2, 6:1:0:0:9, 4:2:0:0:6, 1:0:0:0:1, 4:0:0:0:4, 3:0:0:0:3, 3:0:0:0:4, 4:0:0:0:3, 3:0:0:0:2, 6:2:0:0:9, 4:2:0:0:5, 1:0:0:0:2, 4:1:0:0:4, 4:1:0:0:4, 4:2:0:0:5,  , 4:3:0:0:4, 5:4:1:0:6, 4:4:1:0:4, 4:1:0:0:5, 3:0:0:0:3, 2:0:0:0:4, 3:0:0:0:2, 3:0:0:0:2, 2:0:0:0:2, 0:0:0:0:0, 4:0:0:0:4, 4:2:0:0:4, 2:0:0:0:3, 4:0:0:0:3, 4:0:0:0:3, 5:1:0:0:11, 3:0:0:0:5, 2:0:0:0:5, 3:0:0:0:4, 3:0:0:0:3, 2:0:0:0:4, 8:2:0:0:11, 5:2:0:0:5, 0:0:0:0:0, 4:0:0:0:5, 3:0:0:0:5, 4:0:0:0:5, 4:0:0:0:5, 4:0:0:0:3, 9:5:0:0:12, 4:3:0:0:7, 1:0:0:0:1, 4:1:0:0:4, 4:1:0:0:5, 4:3:0:0:5, 0:0:0:0:0, 5:3:0:0:4, 5:4:1:0:6, 4:4:1:0:4, 5:1:0:0:5, 3:0:0:0:4, 3:0:0:0:6, 3:0:0:0:4, 3:0:0:0:6, 3:0:0:0:5, 1:0:0:0:1, 6:0:0:0:6, 4:2:0:0:4, 2:0:0:0:4, 3:0:0:0:4, 5:0:0:0:6, 6:1:0:0:11, 5:0:0:0:5, 4:0:0:0:4, 4:0:0:0:5, 4:0:0:0:4, 3:0:0:0:4, 8:1:0:0:10, 5:2:0:0:6, 0:0:0:0:0, 5:0:0:0:5, 4:0:0:0:4, 4:0:0:0:4, 4:0:0:0:6, 4:0:0:0:4, 6:3:0:0:11, 5:4:0:0:6, 0:0:0:0:0, 4:1:0:0:8, 4:1:0:0:4, 4:6:0:0:8, 0:0:0:0:0, 4:5:0:0:6, 5:6:4:0:8, 4:4:1:0:4, 5:1:0:0:4, 3:0:0:0:4, 3:0:0:0:5, 3:0:0:0:4, 3:0:0:0:3, 4:0:0:0:7, 2:0:0:0:3, 5:0:0:0:4, 4:2:0:0:4, 3:0:0:0:4, 4:0:0:0:6, 4:0:0:0:3, 1:0:0:0:1, 1:0:0:0:1, 1:0:0:0:1, 698:162:17:3:850
C# major (7#), 5:4:1:0:5,  , 4:1:0:0:2,  , 5:4:1:0:5,  , 4:1:0:0:2,  , 4:1:0:0:3, 4:2:0:0:4, 4:1:0:0:3, 4:1:0:0:2, 4:2:0:0:7, 5:0:0:0:4, 2:0:0:0:0,  , 4:0:0:0:2, 4:1:0:0:3, 4:1:0:0:3, 4:0:0:0:2, 4:1:0:0:2, 5:0:0:0:1, 2:0:0:0:0, 2:0:0:0:0, 4:0:0:0:0, 5:0:0:0:0, 2:0:0:0:0, 2:0:0:0:0, 1:0:0:0:0, 4:0:0:0:0, 0:0:0:0:0, 5:1:0:0:2, 4:1:0:0:3, 4:2:0:0:4, 4:1:0:0:3, 4:1:0:0:2, 5:3:0:0:7, 5:5:0:0:7, 4:0:0:0:2, 4:0:0:0:1, 4:2:0:0:5, 5:1:0:0:4, 6:1:0:0:6, 5:2:0:0:6, 4:1:0:0:4, 6:2:0:0:4, 9:2:0:0:5, 4:2:0:0:3, 5:3:0:0:4, 9:0:0:0:4, 2:0:0:0:0, 2:0:0:0:0, 6:0:0:0:2, 4:1:0:0:3, 5:1:0:0:4, 5:0:0:0:4, 6:2:0:0:5, 6:0:0:0:1, 2:0:0:0:0, 3:0:0:0:0, 4:1:1:0:1, 3:0:0:0:0, 3:0:0:0:0, 4:0:0:0:0, 1:0:0:0:0, 4:0:0:0:1, 0:0:0:0:0, 5:1:0:0:2, 5:1:0:0:3, 4:2:0:0:7, 7:1:0:0:5, 4:4:0:0:5, 5:3:0:0:5, 9:7:1:0:9, 6:2:0:0:5, 3:0:0:0:1, 6:2:0:0:4, 6:1:0:0:4, 7:1:0:0:7, 6:4:0:0:7, 4:1:0:0:4, 4:2:0:0:6, 4:1:0:0:5, 4:2:0:0:3, 4:3:0:0:4, 5:0:0:0:2, 2:0:0:0:0, 1:0:0:0:0, 4:0:0:0:2, 4:1:0:0:4, 4:1:0:0:4, 4:0:0:0:3, 4:2:0:0:3, 4:0:0:0:0, 2:0:0:0:0, 1:0:0:0:0, 3:0:0:0:0, 3:0:0:0:0, 2:0:0:0:0,  , 1:0:0:0:0, 2:0:0:0:0, 0:0:0:0:0, 4:1:0:0:2, 4:1:0:0:4, 4:2:0:0:6, 4:1:0:0:5, 4:2:0:0:3, 4:3:0:0:4, 4:4:0:0:4, 4:0:0:0:2, 2:0:0:0:0, 4:2:0:0:5, 5:1:0:0:5, 5:1:0:0:4, 5:2:0:0:5, 4:1:0:0:6, 4:2:0:0:7, 4:1:0:0:4, 4:2:0:0:3, 4:3:0:0:5, 6:0:0:0:4, 3:0:0:0:0, 0:0:0:0:0, 4:0:0:0:2, 4:1:0:0:6, 4:1:0:0:5, 4:0:0:0:3, 5:2:0:0:3, 6:0:0:0:1, 2:0:0:0:0, 1:0:0:0:0, 3:0:0:0:0, 3:0:0:0:0, 2:0:0:0:0, 0:0:0:0:0, 1:0:0:0:0, 2:0:0:0:0, 0:0:0:0:0, 5:1:0:0:2, 4:1:0:0:3, 5:2:0:0:7, 4:1:0:0:3, 4:2:0:0:3, 4:2:0:0:5, 6:4:0:0:5, 6:0:0:0:3, 2:0:0:0:0, 4:2:0:0:6, 4:1:0:0:5, 6:2:0:0:5, 7:4:0:0:10, 6:1:0:0:3, 6:2:0:0:5, 6:2:0:0:5, 6:2:0:0:3, 5:2:0:0:5, 6:0:0:0:3, 3:0:0:0:0, 0:0:0:0:0, 5:0:0:0:3, 5:2:0:0:5, 5:1:0:0:4, 4:0:0:0:2, 6:1:0:0:3, 4:0:0:0:0, 2:0:0:0:0, 1:0:0:0:0, 3:0:0:0:0, 3:0:0:0:0, 2:0:0:0:0, 0:0:0:0:0, 1:0:0:0:0, 2:0:0:0:0, 0:0:0:0:0, 6:3:0:0:4, 4:1:0:0:3, 5:3:0:0:7, 4:1:0:0:4, 4:1:0:0:2, 5:2:0:0:5, 6:5:0:0:6, 5:0:0:0:2, 2:0:0:0:0, 5:2:0:0:5, 6:3:0:0:8, 5:1:0:0:2, 0:0:0:0:0, 0:0:0:0:0, 0:0:0:0:0, 709:187:4:0:495
Ab minor (7b), 1:0:0:0:1,  , 4:1:0:0:4,  , 1:0:0:0:1,  , 4:1:0:0:4,  , 3:0:0:0:2, 2:0:0:0:2, 3:0:0:0:7, 3:0:0:0:6, 2:0:0:0:6, 6:2:0:0:11, 4:2:0:0:4,  , 4:0:0:0:3, 3:0:0:0:2, 3:0:0:0:3, 4:0:0:0:6, 3:0:0:0:6, 7:2:0:0:12, 4:2:0:0:4, 1:0:0:0:1, 5:1:0:0:6, 7:1:0:0:7, 4:2:0:0:4, 1:0:0:0:1, 6:3:0:0:4, 7:3:1:0:8, 4:4:1:0:4, 4:1:0:0:4, 3:0:0:0:2, 2:0:0:0:2, 3:0:0:0:6, 3:0:0:0:6, 3:0:0:0:7, 1:0:0:0:0, 4:0:0:0:3, 6:2:0:0:7, 2:0:0:0:3, 4:0:0:0:4, 5:1:0:0:7, 5:1:0:0:10, 3:0:0:0:3, 3:0:0:0:3, 6:0:0:0:5, 4:1:0:0:4, 3:0:0:0:3, 10:2:0:0:12, 4:2:0:0:6, 2:0:0:3:0, 6:1:0:0:7, 4:1:0:0:5, 5:0:0:0:5, 6:0:0:0:6, 6:1:0:0:8, 7:3:0:0:13, 4:2:0:0:5, 3:0:0:0:3, 6:1:0:0:5, 4:1:0:0:4, 6:2:0:0:6, 3:0:0:0:3, 5:3:0:0:4, 7:5:2:0:9, 7:9:4:0:9, 6:1:0:0:4, 4:0:0:0:4, 2:0:0:0:5, 4:0:0:0:6, 4:1:0:0:4, 3:0:0:0:2, 6:0:0:0:3, 5:0:0:0:8, 6:2:0:0:5, 4:0:0:0:4, 4:0:0:0:3, 5:0:0:0:7, 5:1:0:0:9, 3:0:0:0:3, 2:0:0:0:4, 3:0:0:0:2, 3:0:0:0:2, 2:0:0:0:2, 6:1:0:0:9, 4:2:0:0:6, 1:0:0:0:1, 4:0:0:0:4, 3:0:0:0:3, 3:0:0:0:4, 4:0:0:0:3, 3:0:0:0:2, 6:2:0:0:9, 4:2:0:0:5, 1:0:0:0:2, 4:1:0:0:4, 4:1:0:0:4, 4:2:0:0:5,  , 4:3:0:0:4, 5:4:1:0:6, 4:4:1:0:4, 4:1:0:0:5, 3:0:0:0:3, 2:0:0:0:4, 3:0:0:0:2, 3:0:0:0:2, 2:0:0:0:2, 0:0:0:0:0, 4:0:0:0:4, 4:2:0:0:4, 2:0:0:0:3, 4:0:0:0:3, 4:0:0:0:3, 5:1:0:0:11, 3:0:0:0:5, 2:0:0:0:5, 3:0:0:0:4, 3:0:0:0:3, 2:0:0:0:4, 8:2:0:0:11, 5:2:0:0:5, 0:0:0:0:0, 4:0:0:0:5, 3:0:0:0:5, 4:0:0:0:5, 4:0:0:0:5, 4:0:0:0:3, 9:5:0:0:12, 4:3:0:0:7, 1:0:0:0:1, 4:1:0:0:4, 4:1:0:0:5, 4:3:0:0:5, 0:0:0:0:0, 5:3:0:0:4, 5:4:1:0:6, 4:4:1:0:4, 5:1:0:0:5, 3:0:0:0:4, 3:0:0:0:6, 3:0:0:0:4, 3:0:0:0:6, 3:0:0:0:5, 1:0:0:0:1, 6:0:0:0:6, 4:2:0:0:4, 2:0:0:0:4, 3:0:0:0:4, 5:0:0:0:6, 6:1:0:0:11, 5:0:0:0:5, 4:0:0:0:4, 4:0:0:0:5, 4:0:0:0:4, 3:0:0:0:4, 8:1:0:0:10, 5:2:0:0:6, 0:0:0:0:0, 5:0:0:0:5, 4:0:0:0:4, 4:0:0:0:4, 4:0:0:0:6, 4:0:0:0:4, 6:3:0:0:11, 5:4:0:0:6, 0:0:0:0:0, 4:1:0:0:8, 4:1:0:0:4, 4:6:0:0:8, 0:0:0:0:0, 4:5:0:0:6, 5:6:4:0:8, 4:4:1:0:4, 5:1:0:0:4, 3:0:0:0:4, 3:0:0:0:5, 3:0:0:0:4, 3:0:0:0:3, 4:0:0:0:7, 2:0:0:0:3, 5:0:0:0:4, 4:2:0:0:4, 3:0:0:0:4, 4:0:0:0:6, 4:0:0:0:3, 1:0:0:0:1, 1:0:0:0:1, 1:0:0:0:1, 698:162:17:3:850
A# minor (7#), 5:4:1:0:5,  , 4:1:0:0:2,  , 5:4:1:0:5,  , 4:1:0:0:2,  , 4:1:0:0:3, 4:2:0:0:4, 4:1:0:0:3, 4:1:0:0:2, 4:2:0:0:7, 5:0:0:0:4, 2:0:0:0:0,  , 4:0:0:0:2, 4:1:0:0:3, 4:1:0:0:3, 4:0:0:0:2, 4:1:0:0:2, 5:0:0:0:1, 2:0:0:0:0, 2:0:0:0:0, 4:0:0:0:0, 5:0:0:0:0, 2:0:0:0:0, 2:0:0:0:0, 1:0:0:0:0, 4:0:0:0:0, 0:0:0:0:0, 5:1:0:0:2, 4:1:0:0:3, 4:2:0:0:4, 4:1:0:0:3, 4:1:0:0:2, 5:3:0:0:7, 5:5:0:0:7, 4:0:0:0:2, 4:0:0:0:1, 4:2:0:0:5, 5:1:0:0:4, 6:1:0:0:6, 5:2:0:0:6, 4:1:0:0:4, 6:2:0:0:4, 9:2:0:0:5, 4:2:0:0:3, 5:3:0:0:4, 9:0:0:0:4, 2:0:0:0:0, 2:0:0:0:0, 6:0:0:0:2, 4:1:0:0:3, 5:1:0:0:4, 5:0:0:0:4, 6:2:0:0:5, 6:0:0:0:1, 2:0:0:0:0, 3:0:0:0:0, 4:1:1:0:1, 3:0:0:0:0, 3:0:0:0:0, 4:0:0:0:0, 1:0:0:0:0, 4:0:0:0:1, 0:0:0:0:0, 5:1:0:0:2, 5:1:0:0:3, 4:2:0:0:7, 7:1:0:0:5, 4:4:0:0:5, 5:3:0:0:5, 9:7:1:0:9, 6:2:0:0:5, 3:0:0:0:1, 6:2:0:0:4, 6:1:0:0:4, 7:1:0:0:7, 6:4:0:0:7, 4:1:0:0:4, 4:2:0:0:6, 4:1:0:0:5, 4:2:0:0:3, 4:3:0:0:4, 5:0:0:0:2, 2:0:0:0:0, 1:0:0:0:0, 4:0:0:0:2, 4:1:0:0:4, 4:1:0:0:4, 4:0:0:0:3, 4:2:0:0:3, 4:0:0:0:0, 2:0:0:0:0, 1:0:0:0:0, 3:0:0:0:0, 3:0:0:0:0, 2:0:0:0:0,  , 1:0:0:0:0, 2:0:0:0:0, 0:0:0:0:0, 4:1:0:0:2, 4:1:0:0:4, 4:2:0:0:6, 4:1:0:0:5, 4:2:0:0:3, 4:3:0:0:4, 4:4:0:0:4, 4:0:0:0:2, 2:0:0:0:0, 4:2:0:0:5, 5:1:0:0:5, 5:1:0:0:4, 5:2:0:0:5, 4:1:0:0:6, 4:2:0:0:7, 4:1:0:0:4, 4:2:0:0:3, 4:3:0:0:5, 6:0:0:0:4, 3:0:0:0:0, 0:0:0:0:0, 4:0:0:0:2, 4:1:0:0:6, 4:1:0:0:5, 4:0:0:0:3, 5:2:0:0:3, 6:0:0:0:1, 2:0:0:0:0, 1:0:0:0:0, 3:0:0:0:0, 3:0:0:0:0, 2:0:0:0:0, 0:0:0:0:0, 1:0:0:0:0, 2:0:0:0:0, 0:0:0:0:0, 5:1:0:0:2, 4:1:0:0:3, 5:2:0:0:7, 4:1:0:0:3, 4:2:0:0:3, 4:2:0:0:5, 6:4:0:0:5, 6:0:0:0:3, 2:0:0:0:0, 4:2:0:0:6, 4:1:0:0:5, 6:2:0:0:5, 7:4:0:0:10, 6:1:0:0:3, 6:2:0:0:5, 6:2:0:0:5, 6:2:0:0:3, 5:2:0:0:5, 6:0:0:0:3, 3:0:0:0:0, 0:0:0:0:0, 5:0:0:0:3, 5:2:0:0:5, 5:1:0:0:4, 4:0:0:0:2, 6:1:0:0:3, 4:0:0:0:0, 2:0:0:0:0, 1:0:0:0:0, 3:0:0:0:0, 3:0:0:0:0, 2:0:0:0:0, 0:0:0:0:0, 1:0:0:0:0, 2:0:0:0:0, 0:0:0:0:0, 6:3:0:0:4, 4:1:0:0:3, 5:3:0:0:7, 4:1:0:0:4, 4:1:0:0:2, 5:2:0:0:5, 6:5:0:0:6, 5:0:0:0:2, 2:0:0:0:0, 5:2:0:0:5, 6:3:0:0:8, 5:1:0:0:2, 0:0:0:0:0, 0:0:0:0:0, 0:0:0:0:0, 709:187:4:0:495
