 , 0, 1, 2, 3, 4, 5, 6, 7, 8, 9, 10, 11, 12, 13, 14, 15, 16, 17, 18, 19, 20, 21, 22, 23, 24, 25, 26, 27, 28, 29, 30, 31, 32, 33, 34, 35, 36, 37, 38, 39, 40, 41, 42, 43, 44, 45, 46, 47, 48, 49, 50, 51, 52, 53, 54, 55, 56, 57, 58, 59, 60, 61, 62, 63, 64, 65, 66, 67, 68, 69, 70, 71, 72, 73, 74, 75, 76, 77, 78, 79, 80, 81, 82, 83, 84, 85, 86, 87, 88, 89, 90, 91, 92, 93, 94, 95, 96, 97, 98, 99, 100, 101, 102, 103, 104, 105, 106, 107, 108, 109, 110, 111, 112, 113, 114, 115, 116, 117, 118, 119, 120, 121, 122, 123, 124, 125, 126, 127, 128, 129, 130, 131, 132, 133, 134, 135, 136, 137, 138, 139, 140, 141, 142, 143, 144, 145, 146, 147, 148, 149, 150, 151, 152, 153, 154, 155, 156, 157, 158, 159, 160, 161, 162, 163, 164, 165, 166, 167, 168, 169, 170, 171, 172, 173, 174, 175, 176, 177, 178, 179, 180, 181, 182, 183, 184, 185, 186, 187, 188, 189, 190, rowcost
C major (0), 4+3:0:1:0:1,  , 2+2:0:0:0:0,  , 4+3:0:1:0:1,  , 2+2:0:0:0:0,  , 1+0:0:0:0:0, 2+2:0:0:0:0, 1+1:0:0:0:0, 2+1:1:0:0:1, 2+0:0:0:0:0, 1+2:0:0:0:0, 2+0:0:0:0:0, 1+0:0:0:0:0, 1+1:0:0:0:0, 1+0:0:0:0:0, 1+0:0:0:0:0, 0+0:0:0:0:0, 1+0:0:0:0:0, 3+2:0:0:0:0, 2+0:0:0:0:0, 1+1:0:0:0:0, 1+0:0:0:0:0, 2+1:0:0:0:0, 2+0:0:0:0:0, 2+1:0:0:0:0, 4+0:0:0:0:0, 6+3:0:1:0:2, 4+3:0:1:0:3, 3+2:1:0:0:1, 1+0:0:0:0:0, 2+2:0:0:0:0, 1+1:0:0:0:0, 1+0:0:0:0:0, 2+1:0:0:0:0, 4+3:0:0:0:1, 0+0:0:0:0:0, 4+1:0:0:0:0, 2+2:0:0:0:0, 2+2:0:0:0:1, 1+2:0:0:0:0, 2+0:0:0:0:0, 1+2:0:0:0:0, 3+2:1:0:0:1, 4+3:1:0:0:0, 2+4:1:0:0:0, 2+0:0:0:0:0, 2+2:0:0:0:1, 2+0:0:0:0:0, 3+0:0:0:0:0, 1+1:0:0:0:1, 2+2:2:0:0:2, 2+1:1:0:0:1, 1+1:0:0:0:0, 3+2:2:0:0:2, 2+2:0:0:0:0, 2+0:0:0:0:0, 2+0:0:0:0:0, 4+2:0:0:0:0, 1+0:0:0:0:0, 5+2:0:0:0:1, 1+0:0:0:0:0, 4+0:0:0:0:0, 6+4:0:1:0:2, 6+6:0:4:0:5, 4+3:1:1:0:2, 1+1:0:0:0:0, 2+2:0:0:0:0, 3+5:0:0:0:0, 2+5:0:0:0:0, 3+2:0:1:0:1, 7+5:0:1:0:4, 2+2:0:0:0:0, 3+1:0:0:0:0, 4+4:1:0:0:0, 2+2:0:0:0:0, 2+1:1:0:0:1, 3+5:1:0:0:1, 1+0:0:0:0:0, 2+3:0:0:0:0, 3+2:0:0:0:0, 2+1:0:0:0:0, 2+0:0:0:0:0, 2+3:0:0:0:0, 2+0:0:0:0:0, 1+0:0:0:0:0, 1+1:0:0:0:0, 3+1:0:0:0:0, 3+2:0:0:0:0, 1+1:0:0:0:1, 1+3:0:0:0:0, 5+2:0:0:0:1, 2+0:0:0:0:0, 0+0:0:0:0:0, 2+2:0:0:0:0, 6+3:0:0:0:0, 3+0:0:0:0:0, 1+0:0:0:0:0, 4+3:0:0:0:0, 4+3:0:1:0:2, 4+5:0:3:0:5, 2+2:2:0:0:0, 1+2:0:0:0:0, 2+1:0:0:0:0, 3+5:0:0:0:1, 2+3:0:0:0:0, 3+2:0:0:0:0, 5+7:0:0:0:2, 0+0:0:0:0:0, 3+4:0:0:0:2, 3+1:0:0:0:0, 4+1:0:0:0:0, 2+1:0:0:0:0, 3+5:2:0:0:2, 2+1:1:0:0:1, 4+1:0:0:0:0, 2+0:0:0:0:0, 1+0:0:0:0:0, 2+2:0:0:0:0, 4+3:0:0:0:1, 2+2:0:0:0:0, 0+0:0:0:0:0, 3+3:0:0:0:2, 2+1:0:0:0:0, 1+0:0:0:0:0, 0+0:0:0:0:0, 1+3:0:0:0:0, 3+1:0:0:0:0, 6+2:0:1:0:1, 2+1:0:0:0:0, 3+1:0:0:0:0, 4+2:0:0:0:0, 3+0:0:0:0:0, 0+0:0:0:0:0, 4+4:0:0:0:0, 8+6:1:1:0:3, 7+6:0:3:0:6, 3+4:2:0:0:0, 1+0:0:0:0:0, 3+3:1:0:0:1, 4+3:1:0:0:1, 3+2:0:0:0:0, 2+2:0:0:0:0, 5+3:0:0:0:0, 0+0:0:0:0:0, 4+7:0:0:0:4, 2+1:0:0:0:0, 6+3:0:0:0:0, 1+1:0:0:0:0, 3+5:1:0:0:0, 1+2:0:0:0:0, 2+0:0:0:0:0, 2+0:0:0:0:0, 1+0:0:0:0:0, 2+2:0:0:0:0, 3+2:0:0:0:1, 4+1:0:0:0:0, 0+0:0:0:0:0, 0+0:0:0:0:0, 1+0:0:0:0:0, 5+3:1:0:0:1, 2+2:0:0:0:0, 2+1:0:0:0:0, 2+0:0:0:0:0, 3+1:1:0:0:0, 0+0:0:0:0:0, 4+1:0:0:0:0, 5+2:0:1:0:1, 2+1:0:0:0:0, 1+0:0:0:0:0, 7+3:0:0:0:1, 4+2:0:1:0:2, 7+5:0:1:0:4, 4+3:2:0:0:1, 1+2:0:0:0:0, 4+2:0:0:0:0, 1+2:0:0:0:0, 2+1:0:0:0:0, 2+1:0:0:0:0, 4+2:0:0:0:0, 0+0:0:0:0:0, 3+4:0:0:0:3, 3+1:0:0:0:0, 1+2:0:0:0:0, 1+0:0:0:0:0, 1+0:0:0:0:0, 0+0:0:0:0:0, 0+0:0:0:0:0, 0+0:0:0:0:0, 455+308:29:24:0:86
A minor (0), 4+3:0:1:0:1,  , 2+2:0:0:0:0,  , 4+3:0:1:0:1,  , 2+2:0:0:0:1,  , 1+0:0:0:0:0, 2+3:0:0:0:0, 1+2:0:0:0:0, 2+1:1:0:0:0, 2+1:0:0:0:0, 1+0:0:0:0:0, 2+0:0:0:0:0, 1+0:0:0:0:0, 1+2:0:0:0:1, 1+0:0:0:0:0, 1+1:0:0:0:0, 0+1:0:0:0:0, 1+0:0:0:0:0, 3+1:0:0:0:0, 2+0:0:0:0:0, 1+1:0:0:0:0, 1+0:0:0:0:0, 2+1:0:0:0:0, 2+0:0:0:0:0, 2+1:0:0:0:0, 4+0:0:0:0:0, 6+3:0:1:0:2, 4+3:0:1:0:3, 3+3:1:0:0:0, 1+0:0:0:0:0, 2+3:0:0:0:0, 1+2:0:0:0:0, 1+0:0:0:0:0, 2+0:0:0:0:0, 4+3:0:0:0:2, 0+0:0:0:0:0, 4+1:0:0:0:0, 2+4:0:0:0:0, 2+2:0:0:0:1, 1+2:0:0:0:0, 2+0:0:0:0:0, 1+0:0:0:0:0, 3+1:1:0:0:0, 4+3:1:0:0:0, 2+0:0:0:0:0, 2+1:0:0:0:0, 2+6:0:0:0:0, 2+0:0:0:0:0, 3+0:0:0:0:0, 1+1:0:0:0:0, 2+0:0:0:0:0, 2+3:1:0:0:1, 1+2:0:0:0:0, 3+1:0:0:0:0, 2+2:0:0:0:0, 2+0:0:0:0:0, 2+0:0:0:0:0, 4+2:0:0:0:0, 1+0:0:0:0:0, 5+2:0:0:0:0, 1+0:0:0:0:0, 4+0:0:0:0:0, 6+4:0:1:0:2, 6+6:0:4:0:5, 4+3:1:1:0:2, 1+1:0:0:0:0, 2+0:0:0:0:0, 3+4:0:0:0:2, 2+0:0:0:0:0, 3+2:0:1:0:1, 7+5:0:1:0:4, 2+2:0:0:0:0, 3+1:0:0:0:0, 4+4:1:0:0:0, 2+2:0:0:0:0, 2+4:1:0:0:0, 3+8:1:0:0:0, 1+0:0:0:0:0, 2+4:0:0:0:0, 3+4:0:0:0:1, 2+1:0:0:0:1, 2+1:0:0:0:0, 2+0:0:0:0:0, 2+0:0:0:0:0, 1+0:0:0:0:0, 1+2:0:0:0:0, 3+1:0:0:0:1, 4+3:0:0:0:1, 1+0:0:0:0:0, 1+0:0:0:0:0, 5+2:0:0:0:1, 2+0:0:0:0:0, 0+0:0:0:0:0, 2+1:0:0:0:0, 6+3:0:0:0:0, 3+0:0:0:0:0, 1+0:0:0:0:0, 4+3:0:0:0:0, 4+3:0:1:0:2, 4+5:0:3:0:5, 2+6:0:0:0:2, 1+0:0:0:0:0, 2+0:0:0:0:0, 3+5:0:0:0:1, 2+1:0:0:0:1, 3+2:0:0:0:0, 5+7:0:0:0:2, 0+0:0:0:0:0, 3+1:0:0:0:1, 3+5:0:0:0:0, 4+5:0:0:0:1, 2+1:0:0:0:0, 3+9:2:0:0:0, 2+0:0:0:0:0, 4+2:0:0:0:0, 2+2:0:0:0:0, 1+0:0:0:0:0, 2+2:0:0:0:0, 4+5:0:0:0:0, 2+0:0:0:0:0, 0+0:0:0:0:0, 3+2:0:0:0:0, 2+2:0:0:0:0, 1+3:0:0:0:0, 0+0:0:0:0:0, 1+3:0:0:0:0, 3+1:0:0:0:0, 6+2:0:1:0:1, 2+1:0:0:0:0, 3+1:0:0:0:0, 4+2:0:0:0:0, 3+0:0:0:0:0, 0+0:0:0:0:0, 4+1:0:0:0:0, 8+6:1:1:0:3, 7+6:0:3:0:3, 3+7:2:0:0:2, 1+0:0:0:0:0, 3+5:1:0:0:0, 5+6:1:0:0:1, 3+2:0:0:0:2, 2+0:0:0:0:0, 5+6:0:0:0:2, 0+2:0:0:0:0, 4+1:0:0:0:0, 2+6:0:0:0:0, 6+4:0:0:0:2, 1+1:0:0:0:0, 3+6:1:0:0:0, 1+2:0:0:0:0, 2+4:0:0:0:0, 2+2:0:0:0:0, 1+0:0:0:0:0, 2+2:0:0:0:0, 3+4:0:0:0:0, 4+1:0:0:0:0, 0+0:0:0:0:0, 0+1:0:0:0:0, 1+0:0:0:0:0, 5+6:1:1:0:1, 2+2:0:0:0:0, 2+1:1:0:0:0, 2+0:0:0:0:0, 3+1:1:0:0:0, 0+0:0:0:0:0, 4+1:0:0:0:0, 5+2:0:1:0:1, 2+1:0:0:0:0, 1+0:0:0:0:0, 7+3:0:0:0:1, 4+2:0:1:0:2, 7+5:0:1:0:1, 5+4:1:0:0:1, 1+0:0:0:0:0, 3+1:0:1:0:1, 1+1:0:0:0:0, 2+2:0:0:0:1, 2+0:0:0:0:0, 4+4:0:0:0:2, 0+1:0:0:0:0, 3+1:0:0:0:0, 3+2:0:0:0:0, 1+4:0:0:0:0, 1+0:0:0:0:0, 1+0:0:0:0:0, 0+0:0:0:0:0, 0+0:0:0:0:0, 0+0:0:0:0:0, 457+343:21:26:0:76
F major (1b), 3+2:0:1:0:1,  , 2+1:1:0:0:1,  , 3+2:0:1:0:1,  , 2+1:1:0:0:1,  , 0+0:0:0:0:0, 1+0:0:0:0:0, 1+0:0:0:0:0, 1+1:1:0:0:1, 1+0:0:0:0:0, 2+2:0:0:0:0, 2+0:0:0:0:0, 1+0:0:0:0:0, 1+2:0:0:0:1, 0+0:0:0:0:0, 0+0:0:0:0:0, 0+0:0:0:0:0, 0+0:0:0:0:0, 4+2:0:0:0:0, 2+1:0:0:0:0, 2+2:0:0:0:0, 2+0:0:0:0:0, 3+2:0:0:0:1, 2+0:0:0:0:0, 2+1:0:0:0:0, 5+0:0:0:0:0, 7+3:0:1:0:2, 4+3:0:1:0:3, 2+3:1:0:0:0, 0+0:0:0:0:0, 1+0:0:0:0:0, 1+0:0:0:0:0, 0+0:0:0:0:0, 1+0:0:0:0:0, 3+0:0:0:0:0, 0+0:0:0:0:0, 5+1:0:0:0:0, 1+0:0:0:0:0, 2+1:1:0:0:1, 0+0:0:0:0:0, 2+1:1:0:0:1, 0+0:0:0:0:0, 2+1:1:0:0:1, 3+2:1:0:0:1, 1+1:1:0:0:1, 1+1:0:0:0:0, 3+2:0:0:0:1, 2+0:0:0:0:0, 4+1:0:0:0:0, 1+1:0:0:0:1, 1+2:2:0:0:2, 1+1:1:0:0:1, 1+1:0:0:0:0, 2+1:0:0:0:0, 3+2:0:0:0:0, 2+2:0:0:0:0, 2+0:0:0:0:0, 5+2:0:0:0:1, 2+1:0:0:0:0, 4+2:1:0:0:0, 2+0:0:0:0:0, 5+2:0:0:0:1, 7+5:0:1:0:2, 6+6:0:4:0:6, 4+3:1:1:0:2, 0+0:0:0:0:0, 1+0:0:0:0:0, 2+2:0:0:0:0, 1+1:0:0:0:0, 2+1:0:1:0:1, 5+2:0:1:0:0, 1+1:0:0:0:0, 4+1:0:0:0:0, 3+4:1:0:0:0, 2+2:0:0:0:0, 1+1:1:0:0:1, 2+1:1:0:0:1, 0+0:0:0:0:0, 1+0:0:0:0:0, 3+1:0:0:0:0, 1+1:0:0:0:0, 1+0:0:0:0:0, 3+3:0:0:0:0, 3+0:0:0:0:0, 1+0:0:0:0:0, 0+1:0:0:0:0, 2+1:0:0:0:0, 2+2:0:0:0:0, 1+1:1:0:0:1, 0+0:0:0:0:0, 6+4:0:0:0:1, 2+1:0:0:0:0, 0+0:0:0:0:0, 3+2:0:0:0:0, 7+4:0:0:0:1, 3+3:0:0:0:0, 1+0:0:0:0:0, 5+6:0:0:0:5, 5+4:0:1:0:2, 4+5:0:3:0:5, 3+2:2:0:0:0, 0+0:0:0:0:0, 1+0:0:0:0:0, 3+2:0:0:0:0, 1+1:0:0:0:0, 2+1:0:0:0:0, 4+1:0:0:0:0, 1+1:0:0:0:0, 5+5:3:0:0:3, 2+1:0:0:0:1, 3+1:0:0:0:0, 1+1:0:0:0:0, 2+2:2:0:0:2, 1+1:1:0:0:1, 3+1:0:0:0:0, 1+0:0:0:0:0, 0+0:0:0:0:0, 1+0:0:0:0:0, 5+3:0:0:0:1, 3+0:0:0:0:0, 0+0:0:0:0:0, 3+3:2:0:0:2, 1+1:0:0:0:0, 0+0:0:0:0:0, 0+0:0:0:0:0, 0+0:0:0:0:0, 4+3:0:0:0:2, 7+4:0:1:0:2, 1+1:0:0:0:1, 4+1:0:0:0:1, 5+3:0:0:0:0, 3+1:0:0:0:0, 0+0:0:0:0:0, 5+4:0:0:0:0, 9+6:1:1:0:3, 8+7:0:3:0:6, 3+4:2:0:0:0, 0+0:0:0:0:0, 2+1:1:0:0:1, 4+3:1:0:0:1, 2+2:0:0:0:0, 1+0:0:0:0:0, 4+2:0:0:0:0, 0+0:0:0:0:0, 5+8:6:0:0:6, 1+0:0:0:0:0, 5+3:0:0:0:0, 0+0:0:0:0:0, 2+1:1:0:0:1, 0+0:0:0:0:0, 1+0:0:0:0:0, 1+0:0:0:0:0, 0+0:0:0:0:0, 1+2:0:0:0:0, 4+2:0:0:0:0, 4+1:0:0:0:0, 0+0:0:0:0:0, 0+0:0:0:0:0, 0+0:0:0:0:0, 5+2:0:0:0:0, 3+2:0:0:0:0, 1+1:1:0:0:0, 3+3:0:0:0:0, 4+2:1:0:0:0, 0+0:0:0:0:0, 5+1:0:0:0:1, 6+3:0:1:0:1, 2+2:0:0:0:0, 2+0:0:0:0:0, 8+5:0:0:0:2, 5+3:0:1:0:2, 5+6:3:1:0:5, 4+3:2:0:0:1, 0+0:0:0:0:0, 2+1:0:1:0:0, 1+0:0:0:0:0, 1+1:0:0:0:0, 1+0:0:0:0:0, 3+0:0:0:0:0, 0+0:0:0:0:0, 4+4:0:0:0:3, 2+1:0:0:0:0, 1+0:0:0:0:0, 0+0:0:0:0:0, 0+0:0:0:0:0, 0+0:0:0:0:0, 0+0:0:0:0:0, 0+0:0:0:0:0, 413+251:47:25:0:101
G major (1#), 4+2:0:1:0:2,  , 1+1:1:0:0:0,  , 4+2:0:1:0:2,  , 1+1:1:0:0:0,  , 2+1:0:0:0:0, 2+0:0:0:0:0, 2+1:0:0:0:0, 3+2:1:0:0:1, 2+0:0:0:0:0, 1+2:0:0:0:0, 1+0:0:0:0:0, 0+0:0:0:0:0, 3+2:0:0:0:0, 2+3:0:0:0:0, 1+5:0:0:0:0, 1+1:0:0:0:0, 2+0:0:0:0:0, 2+2:0:0:0:0, 2+0:0:0:0:0, 1+1:0:0:0:0, 0+0:0:0:0:0, 2+1:0:1:0:1, 2+0:0:0:0:0, 2+0:0:0:0:0, 3+0:0:0:0:0, 6+3:0:1:0:2, 3+3:0:1:0:3, 2+2:1:0:0:1, 2+1:0:0:0:0, 2+0:0:0:0:0, 2+1:0:0:0:0, 2+1:0:0:0:0, 2+0:0:0:0:0, 5+3:0:0:0:2, 1+6:0:0:0:0, 3+1:0:0:0:0, 2+0:0:0:0:0, 3+2:1:0:0:1, 2+1:0:0:0:0, 1+0:0:0:0:0, 2+1:0:0:0:0, 3+1:1:0:0:0, 5+3:1:0:0:0, 3+4:1:0:0:0, 2+0:0:0:0:0, 3+2:0:0:0:1, 1+0:0:0:0:0, 2+0:0:0:0:0, 2+1:0:0:0:0, 3+0:0:0:0:0, 2+3:1:0:0:1, 2+2:0:0:0:0, 4+1:0:0:0:0, 1+2:0:0:0:0, 2+0:0:0:0:0, 1+0:0:0:0:0, 3+2:0:0:0:1, 1+0:0:0:0:0, 5+2:0:0:0:0, 1+0:0:0:0:0, 3+0:0:0:0:0, 6+4:0:2:0:3, 5+5:0:4:0:4, 3+3:1:1:0:2, 2+1:0:0:0:0, 2+0:0:0:0:0, 4+4:0:0:0:2, 3+4:0:0:0:1, 4+2:0:1:0:1, 6+5:0:1:0:4, 3+3:0:0:0:1, 3+1:0:0:0:0, 5+4:1:0:0:0, 3+2:0:0:0:0, 3+4:1:0:0:0, 2+0:0:0:0:0, 2+2:0:0:0:0, 2+0:0:0:0:0, 4+2:0:0:0:0, 3+3:0:0:0:0, 2+0:0:0:0:0, 1+3:0:0:0:0, 1+0:0:0:0:0, 0+0:0:0:0:0, 2+3:0:0:0:0, 4+3:0:0:0:0, 4+3:0:0:0:1, 2+0:0:0:0:0, 2+0:0:0:0:0, 4+2:0:0:0:1, 2+0:0:0:0:0, 0+0:0:0:0:0, 1+2:0:0:0:0, 5+3:0:0:0:0, 2+0:0:0:0:0, 1+0:0:0:0:0, 3+3:0:0:0:0, 4+3:0:2:0:3, 3+5:0:3:0:5, 1+2:2:0:0:0, 2+1:0:0:0:0, 2+0:0:0:0:0, 4+5:0:0:0:1, 3+3:0:0:0:0, 4+2:0:0:0:0, 6+7:0:0:0:2, 1+0:0:0:0:0, 3+4:0:0:0:2, 3+1:0:0:0:0, 5+2:0:0:0:0, 3+3:0:0:0:1, 2+0:0:0:0:0, 3+5:1:0:0:0, 4+2:0:1:0:1, 3+2:0:0:0:0, 2+2:0:0:0:0, 3+1:0:0:0:0, 4+2:0:1:0:1, 1+0:0:0:0:0, 0+0:0:0:0:0, 4+3:0:0:0:2, 3+2:0:0:0:0, 2+2:0:0:0:0, 1+0:0:0:0:0, 2+2:0:0:0:0, 2+3:0:0:0:2, 5+2:0:1:0:1, 1+1:0:0:0:0, 2+1:0:0:0:1, 3+3:0:0:0:0, 2+1:0:0:0:0, 0+0:0:0:0:0, 3+1:0:0:0:0, 7+6:1:1:0:3, 6+6:0:3:0:3, 2+4:2:0:0:0, 2+1:0:0:0:0, 3+1:1:0:0:1, 6+6:1:0:0:1, 5+4:0:0:0:0, 2+0:0:0:0:0, 6+6:0:0:0:2, 1+0:0:0:0:0, 3+5:0:0:0:4, 3+2:0:0:0:0, 7+3:0:0:0:0, 2+2:0:0:0:0, 2+0:0:0:0:0, 2+1:0:0:0:0, 2+0:0:0:0:0, 3+3:0:0:0:0, 2+3:0:0:0:0, 2+0:0:0:0:0, 4+2:0:0:0:0, 3+1:0:0:0:0, 0+0:0:0:0:0, 1+0:0:0:0:0, 2+0:0:0:0:0, 5+3:1:0:0:1, 3+2:0:0:0:0, 3+1:1:0:0:1, 1+3:0:0:0:0, 3+1:1:0:0:0, 0+0:0:0:0:0, 3+1:0:0:0:1, 4+3:0:1:0:1, 3+2:0:0:0:0, 1+0:0:0:0:0, 6+5:0:0:0:2, 4+2:0:1:0:2, 6+5:0:1:0:1, 3+3:2:0:0:1, 2+1:0:0:0:0, 3+1:0:1:0:1, 2+1:0:0:0:0, 3+3:0:0:0:0, 2+0:0:0:0:0, 5+4:0:0:0:2, 1+1:0:0:0:0, 3+0:0:0:0:0, 4+2:0:0:0:0, 2+2:0:0:0:0, 2+1:0:0:0:0, 2+2:0:0:0:0, 1+1:0:0:0:0, 1+1:0:0:0:0, 1+1:0:0:0:0, 489+327:25:30:0:87
D minor (1b), 3+2:0:1:0:2,  , 2+0:0:0:0:0,  , 3+2:0:1:0:2,  , 2+0:0:0:0:0,  , 0+1:0:0:0:0, 1+0:0:0:0:0, 1+1:0:0:0:0, 1+2:1:0:0:1, 1+0:0:0:0:0, 2+0:0:0:0:0, 2+0:0:0:0:0, 1+0:0:0:0:0, 1+2:0:0:0:1, 0+0:0:0:0:0, 0+1:0:0:0:0, 0+1:0:0:0:0, 0+0:0:0:0:0, 4+2:0:0:0:0, 2+0:0:0:0:0, 1+1:0:0:0:0, 2+0:0:0:0:0, 3+1:0:0:0:0, 2+0:0:0:0:0, 2+1:0:0:0:0, 5+0:0:0:0:0, 7+3:0:1:0:2, 4+3:0:1:0:3, 2+3:1:0:0:0, 0+0:0:0:0:0, 1+0:0:0:0:0, 1+1:0:0:0:0, 0+1:0:0:0:0, 1+0:0:0:0:0, 3+3:0:0:0:2, 0+1:0:0:0:0, 5+1:0:0:0:0, 1+0:0:0:0:0, 2+2:1:0:0:1, 0+1:0:0:0:0, 2+0:0:0:0:0, 0+1:0:0:0:0, 2+1:1:0:0:0, 3+3:1:0:0:0, 1+0:0:0:0:0, 1+1:0:0:0:0, 3+2:0:0:0:1, 2+0:0:0:0:0, 4+0:0:0:0:0, 1+1:0:0:0:0, 1+0:0:0:0:0, 1+3:1:0:0:1, 1+2:0:0:0:0, 2+1:0:0:0:0, 3+2:0:0:0:0, 2+0:0:0:0:0, 2+0:0:0:0:0, 5+2:0:0:0:1, 2+1:0:0:0:0, 4+2:1:0:0:0, 2+0:0:0:0:0, 5+0:0:0:0:0, 7+4:0:1:0:2, 6+6:0:4:0:6, 4+3:1:1:0:2, 0+1:0:0:0:0, 1+0:0:0:0:0, 2+4:0:0:0:2, 1+0:0:0:0:0, 2+2:0:1:0:1, 6+5:0:1:0:4, 1+2:0:0:0:0, 4+1:0:0:0:0, 3+4:1:0:0:0, 2+2:0:0:0:0, 1+4:1:0:0:0, 2+0:0:0:0:0, 0+2:0:0:0:0, 1+0:0:0:0:0, 3+2:0:0:0:0, 1+3:0:0:0:0, 1+0:0:0:0:0, 3+0:0:0:0:0, 3+0:0:0:0:0, 1+0:0:0:0:0, 0+1:0:0:0:0, 2+1:0:0:0:1, 3+3:0:0:0:1, 1+0:0:0:0:0, 0+0:0:0:0:0, 6+2:0:0:0:1, 2+0:0:0:0:0, 0+0:0:0:0:0, 3+1:0:0:0:0, 7+3:0:0:0:0, 3+0:0:0:0:0, 1+0:0:0:0:0, 5+3:0:0:0:0, 5+3:0:1:0:2, 4+5:0:3:0:5, 3+2:2:0:0:0, 0+1:0:0:0:0, 1+0:0:0:0:0, 3+5:0:0:0:1, 1+3:0:0:0:0, 2+2:0:0:0:0, 4+4:0:0:0:0, 1+3:0:0:0:0, 4+2:0:0:0:1, 2+5:0:0:0:0, 3+2:0:0:0:0, 1+3:0:0:0:1, 2+0:0:0:0:0, 1+5:1:0:0:0, 3+2:0:0:0:0, 1+2:0:0:0:0, 0+2:0:0:0:0, 1+1:0:0:0:0, 5+2:0:0:0:0, 3+0:0:0:0:0, 0+0:0:0:0:0, 3+2:0:0:0:0, 1+2:0:0:0:0, 0+3:0:0:0:0, 0+3:0:0:0:0, 0+1:0:0:0:0, 4+1:0:0:0:0, 7+2:0:1:0:1, 2+1:0:0:0:0, 4+1:0:0:0:1, 5+3:0:0:0:0, 3+1:0:0:0:0, 0+0:0:0:0:0, 5+4:0:0:0:0, 9+6:1:1:0:3, 8+7:0:3:0:6, 3+4:2:0:0:0, 0+1:0:0:0:0, 2+1:1:0:0:1, 5+6:1:0:0:1, 2+2:0:0:0:2, 1+0:0:0:0:0, 4+6:0:0:0:3, 0+1:0:0:0:0, 5+4:0:0:0:1, 1+2:0:0:0:0, 5+3:0:0:0:0, 0+2:0:0:0:0, 2+0:0:0:0:0, 0+1:0:0:0:0, 1+0:0:0:0:0, 1+3:0:0:0:0, 0+0:0:0:0:0, 1+2:0:0:0:0, 4+2:0:0:0:0, 4+1:0:0:0:0, 0+0:0:0:0:0, 0+1:0:0:0:0, 0+0:0:0:0:0, 4+6:1:1:0:1, 3+2:0:0:0:0, 1+1:1:0:0:0, 3+3:0:0:0:0, 4+1:1:0:0:0, 0+0:0:0:0:0, 5+1:0:0:0:1, 6+3:0:1:0:1, 2+2:0:0:0:0, 2+0:0:0:0:0, 8+5:0:0:0:2, 5+2:0:1:0:2, 5+6:3:1:0:5, 4+3:2:0:0:1, 0+1:0:0:0:0, 2+1:0:1:0:1, 1+1:0:0:0:0, 1+3:0:0:0:0, 1+0:0:0:0:0, 3+4:0:0:0:2, 0+1:0:0:0:0, 4+1:0:0:0:0, 2+2:0:0:0:0, 1+2:0:0:0:0, 0+0:0:0:0:0, 0+0:0:0:0:0, 0+0:0:0:0:0, 0+0:0:0:0:0, 0+0:0:0:0:0, 414+301:26:26:0:82
E minor (1#), 4+2:0:1:0:2,  , 1+1:1:0:0:0,  , 4+2:0:1:0:2,  , 1+1:1:0:0:0,  , 2+1:0:0:0:0, 2+0:0:0:0:0, 2+1:0:0:0:0, 3+2:1:0:0:1, 2+0:0:0:0:0, 1+2:0:0:0:0, 1+0:0:0:0:0, 0+0:0:0:0:0, 3+2:0:0:0:0, 2+0:0:0:0:0, 1+1:0:0:0:0, 1+0:0:0:0:0, 2+1:0:0:0:0, 2+1:0:0:0:0, 2+0:0:0:0:0, 1+0:0:0:0:0, 0+3:0:0:0:0, 3+1:0:0:0:0, 2+0:0:0:0:0, 2+0:0:0:0:0, 3+0:0:0:0:0, 6+3:0:1:0:0, 3+3:0:1:0:1, 2+3:1:0:0:1, 2+1:0:0:0:0, 2+0:0:0:0:0, 2+1:0:0:0:0, 2+1:0:0:0:0, 2+0:0:0:0:0, 5+3:0:0:0:2, 1+0:0:0:0:0, 3+1:0:0:0:0, 2+0:0:0:0:0, 3+2:1:0:0:1, 2+1:0:0:0:0, 1+0:0:0:0:0, 2+1:0:0:0:0, 3+1:1:0:0:0, 5+3:1:0:0:0, 3+4:1:0:0:0, 2+0:0:0:0:0, 3+2:0:0:0:1, 1+0:0:0:0:0, 2+0:0:0:0:0, 2+1:0:0:0:0, 3+0:0:0:0:0, 2+3:1:0:0:1, 2+2:0:0:0:0, 4+1:0:0:0:0, 1+4:0:0:0:0, 2+1:0:0:0:0, 1+2:0:0:0:0, 3+3:0:0:0:0, 1+1:0:0:0:0, 5+2:0:0:0:0, 1+0:0:0:0:0, 3+0:0:0:0:0, 6+5:0:2:0:0, 5+5:0:4:0:4, 3+4:1:1:0:2, 2+1:0:0:0:0, 2+0:0:0:0:0, 4+4:0:0:0:2, 3+0:0:0:0:0, 4+2:0:1:0:1, 6+5:0:1:0:4, 3+2:0:0:0:0, 3+1:0:0:0:0, 5+4:1:0:0:0, 3+2:0:0:0:0, 3+4:1:0:0:0, 2+0:0:0:0:0, 2+2:0:0:0:0, 2+0:0:0:0:0, 4+2:0:0:0:0, 3+3:0:0:0:0, 2+0:0:0:0:0, 1+5:0:0:0:0, 1+3:0:0:0:0, 0+0:0:0:0:0, 2+2:0:0:0:0, 4+1:0:0:0:1, 4+3:0:0:0:1, 2+0:0:0:0:0, 2+3:0:0:0:0, 4+2:0:0:0:1, 2+0:0:0:0:0, 0+0:0:0:0:0, 1+5:0:0:0:0, 5+4:0:0:0:0, 2+0:0:0:0:0, 1+0:0:0:0:0, 3+3:0:0:0:0, 4+3:0:2:0:0, 3+5:0:3:0:3, 1+5:2:0:0:2, 2+1:0:0:0:0, 2+0:0:0:0:0, 4+5:0:0:0:1, 3+3:0:0:0:0, 4+2:0:0:0:0, 6+5:1:1:0:4, 1+4:0:0:0:0, 3+1:0:0:0:0, 3+1:0:0:0:0, 5+2:0:0:0:0, 3+3:0:0:0:1, 2+0:0:0:0:0, 3+5:1:0:0:0, 4+2:0:1:0:1, 3+2:0:0:0:0, 2+2:0:0:0:0, 3+1:0:0:0:0, 4+2:0:1:0:1, 1+2:0:0:0:0, 0+0:0:0:0:0, 4+2:0:0:0:0, 3+4:0:0:0:0, 2+4:0:0:0:0, 1+0:0:0:0:0, 2+3:0:0:0:0, 2+6:0:0:0:0, 5+2:0:1:0:1, 1+1:0:0:0:0, 2+4:0:0:0:0, 3+4:0:0:0:0, 2+1:0:0:0:0, 0+0:0:0:0:0, 3+1:0:0:0:0, 7+6:1:1:0:3, 6+6:0:3:0:3, 2+7:2:0:0:2, 2+1:0:0:0:0, 3+1:1:0:0:1, 6+6:1:0:0:1, 4+2:0:0:0:2, 2+0:0:0:0:0, 6+5:0:0:0:2, 1+2:0:0:0:0, 3+0:0:0:0:0, 3+2:0:0:0:0, 7+3:0:0:0:0, 2+2:0:0:0:0, 2+0:0:0:0:0, 2+1:0:0:0:0, 2+0:0:0:0:0, 3+3:0:0:0:0, 2+3:0:0:0:0, 2+0:0:0:0:0, 4+2:0:0:0:0, 3+4:0:0:0:0, 0+2:0:0:0:0, 1+1:0:0:0:0, 2+0:0:0:0:0, 5+6:1:1:0:1, 3+2:0:0:0:0, 3+1:0:0:0:0, 1+0:0:0:0:0, 3+1:1:0:0:1, 0+1:0:0:0:0, 3+2:0:0:0:0, 4+3:0:1:0:2, 3+3:0:0:0:1, 1+0:0:0:0:0, 6+2:0:0:0:1, 4+4:0:1:0:0, 6+5:0:1:0:1, 4+4:1:0:0:1, 2+1:0:0:0:0, 3+1:0:1:0:1, 2+1:0:0:0:0, 3+3:0:0:0:0, 2+0:0:0:0:0, 5+4:0:0:0:2, 1+1:0:0:0:0, 3+0:0:0:0:0, 4+2:0:0:0:0, 2+2:0:0:0:0, 2+1:0:0:0:0, 2+0:0:0:0:0, 1+0:0:0:0:0, 1+0:0:0:0:0, 1+0:0:0:0:0, 490+345:24:31:0:67
Bb major (2b), 2+2:0:1:0:0,  , 1+1:1:0:0:1,  , 2+2:0:1:0:0,  , 1+1:1:0:0:1,  , 0+0:0:0:0:0, 0+0:0:0:0:0, 0+0:0:0:0:0, 1+1:1:0:0:1, 0+0:0:0:0:0, 3+2:0:0:0:0, 2+1:0:0:0:0, 1+0:0:0:0:0, 1+1:0:0:0:0, 1+0:0:0:0:0, 1+0:0:0:0:0, 1+0:0:0:0:0, 0+0:0:0:0:0, 5+2:0:0:0:0, 3+1:0:0:0:0, 1+2:0:0:0:0, 3+0:0:0:0:0, 4+2:0:0:0:1, 3+0:0:0:0:0, 3+0:0:0:0:0, 5+0:0:0:0:0, 7+5:0:1:0:3, 4+4:0:1:0:3, 1+0:0:0:0:0, 0+0:0:0:0:0, 0+0:0:0:0:0, 0+0:0:0:0:0, 0+0:0:0:0:0, 0+0:0:0:0:0, 2+0:0:0:0:0, 0+0:0:0:0:0, 6+2:0:0:0:1, 0+0:0:0:0:0, 1+1:1:0:0:1, 0+0:0:0:0:0, 1+1:1:0:0:1, 0+0:0:0:0:0, 1+1:1:0:0:1, 2+2:1:0:0:1, 1+1:1:0:0:1, 0+0:0:0:0:0, 4+4:0:0:0:1, 2+0:0:0:0:0, 4+0:0:0:0:0, 2+1:0:0:0:1, 1+2:2:0:0:2, 2+1:1:0:0:1, 2+1:0:0:0:0, 2+2:2:0:0:2, 4+2:0:0:0:2, 3+2:0:0:0:0, 3+0:0:0:0:0, 4+2:1:0:0:0, 3+1:0:0:0:0, 5+2:1:0:0:1, 3+0:0:0:0:0, 5+0:0:0:0:0, 7+4:0:1:0:2, 7+6:0:2:0:4, 3+3:1:1:0:2, 0+1:0:0:0:0, 0+0:0:0:0:0, 1+2:0:0:0:0, 2+1:0:0:0:0, 1+1:0:1:0:1, 4+2:0:1:0:0, 1+1:0:0:0:0, 5+3:0:0:0:1, 2+4:1:0:0:0, 1+2:0:0:0:0, 2+1:1:0:0:1, 1+1:1:0:0:1, 0+0:0:0:0:0, 0+0:0:0:0:0, 2+1:0:0:0:0, 1+1:0:0:0:0, 0+0:0:0:0:0, 4+3:0:0:0:0, 3+3:0:0:0:0, 1+0:0:0:0:0, 1+0:0:0:0:0, 2+1:0:0:0:0, 3+2:0:0:0:0, 2+1:1:0:0:1, 0+0:0:0:0:0, 7+4:0:0:0:3, 3+1:0:0:0:0, 1+0:0:0:0:0, 4+2:0:0:0:0, 8+4:0:0:0:1, 4+0:0:0:0:0, 1+0:0:0:0:0, 5+3:0:0:0:0, 5+3:0:1:0:2, 4+5:0:3:0:5, 2+2:2:0:0:0, 0+1:0:0:0:0, 0+0:0:0:0:0, 2+2:0:0:0:0, 1+1:0:0:0:0, 1+1:0:0:0:0, 3+1:0:0:0:0, 1+1:0:0:0:0, 6+5:3:0:0:3, 1+1:0:0:0:1, 2+1:0:0:0:0, 1+1:0:0:0:0, 1+2:2:0:0:2, 1+1:1:0:0:1, 2+1:0:0:0:0, 0+0:0:0:0:0, 0+0:0:0:0:0, 0+0:0:0:0:0, 6+3:0:0:0:1, 4+2:0:0:0:0, 0+0:0:0:0:0, 3+3:2:0:0:2, 2+1:0:0:0:0, 1+0:0:0:0:0, 1+0:0:0:0:0, 1+0:0:0:0:0, 5+3:0:0:0:2, 8+2:0:1:0:1, 3+1:0:0:0:0, 5+1:0:0:0:1, 6+3:0:0:0:0, 4+1:0:0:0:0, 0+0:0:0:0:0, 6+1:0:0:0:0, 9+6:1:1:0:3, 8+10:0:3:0:7, 2+2:2:0:0:0, 0+0:0:0:0:0, 1+1:1:0:0:1, 3+3:1:0:0:1, 3+2:0:0:0:0, 0+0:0:0:0:0, 3+2:0:0:0:0, 1+0:0:0:0:0, 6+8:6:0:0:6, 0+0:0:0:0:0, 4+3:0:0:0:0, 0+0:0:0:0:0, 1+1:1:0:0:1, 0+0:0:0:0:0, 0+0:0:0:0:0, 0+0:0:0:0:0, 0+0:0:0:0:0, 0+0:0:0:0:0, 5+2:0:0:0:1, 5+3:0:0:0:1, 0+0:0:0:0:0, 1+0:0:0:0:0, 0+0:0:0:0:0, 5+3:1:0:0:1, 4+2:0:0:0:0, 1+1:1:0:0:1, 4+3:0:0:0:0, 5+2:1:0:0:0, 1+0:0:0:0:0, 4+2:1:0:0:0, 7+3:0:1:0:1, 3+2:0:0:0:0, 2+0:0:0:0:0, 8+6:0:0:0:4, 5+5:0:1:0:3, 5+9:3:1:0:3, 3+1:0:0:0:0, 0+0:0:0:0:0, 1+1:0:1:0:0, 0+0:0:0:0:0, 1+1:0:0:0:0, 0+0:0:0:0:0, 2+0:0:0:0:0, 1+0:0:0:0:0, 5+5:3:0:0:3, 1+1:0:0:0:0, 0+0:0:0:0:0, 0+0:0:0:0:0, 0+0:0:0:0:0, 0+0:0:0:0:0, 0+0:0:0:0:0, 0+0:0:0:0:0, 416+253:52:23:0:101
D major (2#), 4+3:0:1:0:2,  , 2+1:1:0:0:0,  , 4+2:0:1:0:2,  , 2+1:1:0:0:0,  , 2+0:0:0:0:0, 3+3:0:0:0:0, 3+2:0:0:0:0, 3+1:1:0:0:0, 2+1:0:0:0:0, 0+0:0:0:0:0, 0+0:0:0:0:0, 0+0:0:0:0:0, 3+2:0:0:0:1, 2+0:0:0:0:0, 2+1:0:0:0:0, 2+1:0:0:0:0, 2+0:0:0:0:0, 2+2:0:0:0:0, 1+0:0:0:0:0, 1+1:0:0:0:0, 0+0:0:0:0:0, 2+1:0:1:0:1, 1+0:0:0:0:0, 1+1:0:0:0:0, 2+0:0:0:0:0, 5+3:0:1:0:2, 2+3:0:1:0:3, 3+3:1:0:0:0, 2+0:0:0:0:0, 3+3:0:0:0:0, 3+2:0:0:0:0, 2+0:0:0:0:0, 2+0:0:0:0:0, 5+3:0:0:0:2, 2+1:0:0:0:0, 2+1:0:0:0:0, 3+0:0:0:0:0, 4+2:1:0:0:1, 3+2:0:0:0:0, 2+0:0:0:0:0, 2+0:0:0:0:0, 4+1:1:0:0:0, 6+3:1:0:0:0, 2+0:0:0:0:0, 2+1:0:0:0:0, 2+2:0:0:0:1, 0+0:0:0:0:0, 1+0:0:0:0:0, 3+1:0:0:0:0, 2+0:0:0:0:0, 3+3:1:0:0:1, 3+2:0:0:0:0, 3+1:0:0:0:0, 1+2:0:0:0:0, 1+0:0:0:0:0, 0+0:0:0:0:0, 3+2:0:0:0:0, 1+0:0:0:0:0, 4+2:0:0:0:0, 0+0:0:0:0:0, 2+0:0:0:0:0, 5+4:0:2:0:3, 4+6:0:4:0:5, 4+3:1:1:0:2, 3+1:0:0:0:0, 3+0:0:0:0:0, 5+4:0:0:0:2, 2+0:0:0:0:0, 4+2:0:1:0:1, 7+5:0:1:0:4, 4+2:0:0:0:0, 2+1:0:0:0:0, 6+4:1:0:0:0, 4+2:0:0:0:0, 4+4:1:0:0:0, 3+8:1:0:0:0, 2+0:0:0:0:0, 3+4:0:0:0:0, 5+4:0:0:0:1, 3+1:0:0:0:1, 2+1:0:0:0:0, 0+0:0:0:0:0, 0+0:0:0:0:0, 0+0:0:0:0:0, 3+1:0:0:0:0, 4+1:0:0:0:1, 5+3:0:0:0:1, 3+4:1:0:0:0, 2+0:0:0:0:0, 4+2:0:0:0:1, 1+0:0:0:0:0, 0+0:0:0:0:0, 2+1:0:0:0:0, 5+3:0:0:0:0, 1+0:0:0:0:0, 0+0:0:0:0:0, 3+3:0:0:0:0, 3+3:0:2:0:3, 2+5:0:3:0:5, 2+2:2:0:0:0, 2+1:0:0:0:0, 3+0:0:0:0:0, 5+5:0:0:0:1, 3+1:0:0:0:1, 4+2:0:0:0:0, 7+7:0:0:0:4, 2+0:0:0:0:0, 2+1:0:0:0:1, 4+5:0:0:0:0, 6+5:0:0:0:1, 4+1:0:0:0:0, 3+9:2:0:0:0, 2+0:0:0:0:0, 5+2:0:1:0:1, 4+2:0:0:0:0, 2+0:0:0:0:0, 3+2:0:0:0:0, 3+2:0:1:0:1, 0+0:0:0:0:0, 0+0:0:0:0:0, 5+4:2:0:0:1, 4+2:0:0:0:0, 3+3:0:0:0:0, 2+3:0:0:0:0, 3+1:0:0:0:0, 2+1:0:1:0:1, 4+2:0:1:0:1, 1+1:0:0:0:0, 2+1:0:0:0:0, 2+2:0:0:0:0, 1+0:0:0:0:0, 0+0:0:0:0:0, 3+1:0:0:0:0, 6+6:1:1:0:3, 5+6:0:3:0:6, 3+4:2:0:0:0, 2+1:0:0:0:0, 4+1:1:0:0:1, 7+6:1:0:0:1, 4+2:0:0:0:2, 2+0:0:0:0:0, 6+5:0:0:0:2, 2+1:0:0:0:0, 2+1:0:0:0:0, 4+6:0:0:0:0, 8+4:0:0:0:2, 3+1:0:0:0:0, 3+6:1:0:0:0, 3+2:0:0:0:0, 3+4:0:0:0:0, 4+2:0:0:0:0, 2+0:0:0:0:0, 2+2:0:0:0:0, 3+2:0:0:0:0, 2+1:0:0:0:0, 0+0:0:0:0:0, 2+1:0:0:0:0, 2+0:0:0:0:0, 6+6:1:1:0:1, 4+4:0:0:0:1, 3+1:1:0:0:0, 1+3:0:0:0:0, 2+1:1:0:0:0, 0+0:0:0:0:0, 2+1:0:0:0:0, 3+2:0:1:0:1, 2+1:0:0:0:0, 0+0:0:0:0:0, 5+3:0:0:0:1, 3+2:0:1:0:2, 5+5:0:1:0:4, 4+5:2:0:0:2, 2+0:0:0:0:0, 4+1:0:1:0:1, 3+1:0:0:0:0, 4+2:0:0:0:1, 2+0:0:0:0:0, 5+4:0:0:0:2, 2+1:0:0:0:0, 2+1:0:0:0:0, 5+2:0:0:0:0, 3+4:0:0:0:0, 2+0:0:0:0:0, 2+0:0:0:0:0, 1+0:0:0:0:0, 1+0:0:0:0:0, 1+0:0:0:0:0, 508+330:30:32:0:92
G minor (2b), 2+3:0:1:0:1,  , 1+0:0:0:0:0,  , 2+3:0:1:0:1,  , 1+0:0:0:0:0,  , 0+1:0:0:0:0, 0+0:0:0:0:0, 0+1:0:0:0:0, 1+2:1:0:0:1, 0+0:0:0:0:0, 3+2:0:0:0:0, 2+0:0:0:0:0, 1+0:0:0:0:0, 2+2:0:0:0:0, 1+0:0:0:0:0, 1+1:0:0:0:0, 1+1:0:0:0:0, 0+0:0:0:0:0, 5+2:0:0:0:0, 3+1:0:0:0:0, 1+2:0:0:0:0, 3+0:0:0:0:0, 4+2:0:0:0:1, 3+0:0:0:0:0, 3+0:0:0:0:0, 5+0:0:0:0:0, 7+3:0:1:0:2, 4+3:0:1:0:3, 1+0:0:0:0:0, 0+1:0:0:0:0, 0+0:0:0:0:0, 0+1:0:0:0:0, 0+1:0:0:0:0, 0+0:0:0:0:0, 2+0:0:0:0:0, 0+6:0:0:0:0, 6+1:0:0:0:0, 0+0:0:0:0:0, 1+2:1:0:0:1, 0+1:0:0:0:0, 1+0:0:0:0:0, 0+1:0:0:0:0, 1+1:1:0:0:0, 2+3:1:0:0:0, 1+4:1:0:0:0, 0+0:0:0:0:0, 4+2:0:0:0:1, 2+0:0:0:0:0, 4+1:0:0:0:0, 2+1:0:0:0:0, 1+0:0:0:0:0, 2+3:1:0:0:1, 2+2:0:0:0:0, 2+1:0:0:0:0, 4+2:0:0:0:0, 3+2:0:0:0:0, 3+0:0:0:0:0, 4+2:1:0:0:0, 3+1:0:0:0:0, 5+2:1:0:0:1, 3+0:0:0:0:0, 5+0:0:0:0:0, 7+4:0:1:0:2, 6+6:0:4:0:6, 3+3:1:1:0:2, 0+1:0:0:0:0, 0+0:0:0:0:0, 1+4:0:0:0:2, 2+4:0:0:0:1, 1+2:0:1:0:1, 5+5:0:1:0:4, 1+2:0:0:0:0, 5+1:0:0:0:0, 2+4:1:0:0:0, 1+2:0:0:0:0, 2+4:1:0:0:0, 1+0:0:0:0:0, 0+2:0:0:0:0, 0+0:0:0:0:0, 2+2:0:0:0:0, 1+3:0:0:0:0, 0+0:0:0:0:0, 4+3:0:0:0:0, 3+0:0:0:0:0, 1+0:0:0:0:0, 1+3:0:0:0:0, 2+3:0:0:0:0, 4+3:0:0:0:1, 2+4:1:0:0:0, 0+0:0:0:0:0, 7+4:0:0:0:1, 3+1:0:0:0:0, 1+0:0:0:0:0, 4+2:0:0:0:0, 8+4:0:0:0:1, 4+3:0:0:0:0, 1+0:0:0:0:0, 5+3:0:0:0:0, 5+3:0:1:0:2, 4+5:0:3:0:5, 2+2:2:0:0:0, 0+1:0:0:0:0, 0+0:0:0:0:0, 2+5:0:0:0:1, 1+3:0:0:0:0, 1+2:0:0:0:0, 3+7:0:0:0:2, 1+0:0:0:0:0, 5+4:0:0:0:2, 1+1:0:0:0:0, 2+2:0:0:0:0, 1+3:0:0:0:1, 1+0:0:0:0:0, 1+5:1:0:0:0, 2+2:0:0:0:0, 0+2:0:0:0:0, 0+2:0:0:0:0, 0+1:0:0:0:0, 6+2:0:0:0:0, 4+0:0:0:0:0, 0+0:0:0:0:0, 3+4:2:0:0:1, 2+2:0:0:0:0, 1+3:0:0:0:0, 1+3:0:0:0:0, 1+1:0:0:0:0, 5+3:0:0:0:2, 8+2:0:1:0:1, 3+1:0:0:0:0, 5+1:0:0:0:1, 6+3:0:0:0:0, 4+1:0:0:0:0, 0+0:0:0:0:0, 6+1:0:0:0:0, 9+6:1:1:0:3, 8+7:0:3:0:6, 2+4:2:0:0:0, 0+1:0:0:0:0, 1+1:1:0:0:1, 4+6:1:0:0:1, 4+4:0:0:0:0, 0+0:0:0:0:0, 3+2:0:0:0:0, 1+4:0:0:0:0, 6+5:0:0:0:4, 0+2:0:0:0:0, 4+3:0:0:0:0, 0+2:0:0:0:0, 1+0:0:0:0:0, 0+1:0:0:0:0, 0+0:0:0:0:0, 0+3:0:0:0:0, 0+3:0:0:0:0, 0+0:0:0:0:0, 5+2:0:0:0:0, 5+1:0:0:0:0, 0+0:0:0:0:0, 1+1:0:0:0:0, 0+0:0:0:0:0, 5+6:1:1:0:1, 4+4:0:0:0:1, 1+1:1:0:0:0, 4+3:0:0:0:0, 5+2:1:0:0:0, 1+0:0:0:0:0, 4+1:1:0:0:0, 7+3:0:1:0:1, 3+2:0:0:0:0, 2+0:0:0:0:0, 8+5:0:0:0:2, 5+3:0:1:0:2, 5+6:3:1:0:5, 3+3:2:0:0:1, 0+1:0:0:0:0, 1+1:0:1:0:1, 0+1:0:0:0:0, 1+3:0:0:0:0, 0+0:0:0:0:0, 2+0:0:0:0:0, 1+3:0:0:0:0, 5+4:0:0:0:3, 1+2:0:0:0:0, 0+2:0:0:0:0, 0+1:0:0:0:0, 0+2:0:0:0:0, 0+1:0:0:0:0, 0+1:0:0:0:0, 0+1:0:0:0:0, 419+349:31:26:0:84
B minor (2#), 4+4:4:1:0:4,  , 2+2:1:0:0:1,  , 4+4:4:1:0:4,  , 2+2:1:0:0:1,  , 2+0:0:0:0:0, 3+3:0:0:0:0, 3+2:0:0:0:0, 3+1:1:0:0:0, 2+1:0:0:0:0, 0+0:0:0:0:0, 0+0:0:0:0:0, 0+0:0:0:0:0, 3+2:0:0:0:1, 2+0:0:0:0:0, 2+1:0:0:0:0, 2+1:0:0:0:0, 2+0:0:0:0:0, 2+3:0:0:0:1, 1+1:0:0:0:0, 1+3:0:0:0:0, 0+1:0:0:0:0, 2+2:0:0:0:0, 1+1:0:0:0:0, 1+2:0:0:0:0, 2+0:0:0:0:0, 5+2:0:0:0:1, 2+1:0:1:0:0, 3+3:1:0:0:1, 2+0:0:0:0:0, 3+3:0:0:0:0, 3+2:0:0:0:0, 2+0:0:0:0:0, 2+1:0:0:0:0, 5+5:0:0:0:2, 2+1:0:0:0:0, 2+1:0:0:0:0, 3+4:0:0:0:0, 4+2:0:0:0:1, 3+2:0:0:0:0, 2+5:2:0:0:2, 2+0:0:0:0:0, 4+1:1:0:0:0, 6+3:1:0:0:0, 2+0:0:0:0:0, 2+1:0:0:0:0, 2+2:0:0:0:1, 0+2:0:0:0:0, 1+0:0:0:0:0, 3+1:0:0:0:0, 2+0:0:0:0:0, 3+3:1:0:0:1, 3+2:0:0:0:0, 3+1:0:0:0:0, 1+4:0:0:0:0, 1+1:0:0:0:0, 0+2:0:0:0:0, 3+3:0:0:0:0, 1+1:0:0:0:0, 4+4:0:0:0:0, 0+2:0:0:0:0, 2+0:0:0:0:0, 5+4:0:0:0:0, 4+4:0:4:0:2, 4+4:1:1:0:2, 3+1:0:0:0:0, 3+0:0:0:0:0, 5+4:0:0:0:2, 2+0:0:0:0:0, 5+2:0:0:0:0, 7+5:0:1:0:4, 4+2:0:0:0:0, 2+1:0:0:0:0, 6+2:0:0:0:0, 4+4:0:0:0:2, 4+4:1:0:0:0, 3+8:1:0:0:0, 2+0:0:0:0:0, 3+4:0:0:0:0, 5+4:0:0:0:1, 3+1:0:0:0:1, 2+1:0:0:0:0, 0+0:0:0:0:0, 0+0:0:0:0:0, 0+0:0:0:0:0, 3+1:0:0:0:0, 4+1:0:0:0:1, 5+3:0:0:0:1, 3+0:0:0:0:0, 2+0:0:0:0:0, 4+2:0:0:0:1, 1+3:0:0:0:0, 0+1:0:0:0:0, 2+3:0:0:0:0, 5+4:1:0:0:1, 1+2:0:0:0:0, 0+0:0:0:0:0, 3+1:0:0:0:0, 3+1:0:0:0:0, 2+3:0:3:0:0, 2+5:2:0:0:2, 2+0:0:0:0:0, 3+0:0:0:0:0, 5+5:0:0:0:1, 3+1:0:0:0:1, 4+2:0:0:0:0, 7+7:0:0:0:4, 2+4:0:0:0:0, 2+0:0:0:0:0, 4+5:0:0:0:0, 6+5:0:0:0:1, 4+1:0:0:0:0, 3+9:2:0:0:0, 2+0:0:0:0:0, 6+3:0:0:0:0, 4+6:0:0:0:0, 2+0:0:0:0:0, 3+2:0:0:0:0, 3+2:0:1:0:1, 0+2:0:0:0:0, 0+0:0:0:0:0, 5+2:0:0:0:0, 4+2:0:0:0:0, 3+3:0:0:0:0, 2+3:0:0:0:0, 3+1:0:0:0:0, 2+1:0:1:0:1, 4+4:0:1:0:0, 2+1:0:0:0:0, 2+5:0:0:0:0, 2+2:0:0:0:0, 1+4:0:0:0:0, 0+2:0:0:0:0, 3+1:0:0:0:1, 6+3:0:0:0:0, 5+3:0:3:0:0, 3+7:2:0:0:2, 2+0:0:0:0:0, 4+5:1:0:0:0, 6+2:0:0:0:2, 4+2:0:0:0:2, 2+1:0:0:0:0, 6+6:0:0:0:5, 2+2:0:0:0:0, 2+1:0:0:0:0, 4+6:0:0:0:0, 8+4:0:0:0:2, 3+1:0:0:0:0, 3+6:1:0:0:0, 3+2:0:0:0:0, 3+4:0:0:0:0, 4+2:0:0:0:0, 2+0:0:0:0:0, 2+2:0:0:0:0, 3+2:0:0:0:0, 2+1:0:0:0:0, 0+0:0:0:0:0, 2+1:0:0:0:0, 2+0:0:0:0:0, 6+6:1:1:0:1, 4+2:0:0:0:0, 3+1:1:0:0:0, 1+5:0:0:0:0, 2+4:1:0:0:1, 0+2:0:0:0:0, 2+4:0:0:0:0, 3+2:0:1:0:0, 3+3:0:0:0:0, 0+0:0:0:0:0, 5+1:0:0:0:0, 3+3:0:0:0:0, 5+2:0:1:0:0, 5+4:1:0:0:1, 2+0:0:0:0:0, 4+1:0:1:0:1, 3+4:0:0:0:0, 4+2:0:0:0:1, 2+3:0:0:0:0, 5+3:0:0:0:2, 2+1:0:0:0:0, 2+1:0:0:0:0, 5+2:0:0:0:0, 3+4:0:0:0:0, 2+0:0:0:0:0, 2+0:0:0:0:0, 1+0:0:0:0:0, 1+0:0:0:0:0, 1+0:0:0:0:0, 512+394:33:22:0:71
Eb major (3b), 2+2:0:1:0:0,  , 2+1:1:0:0:1,  , 2+2:0:1:0:0,  , 2+1:1:0:0:1,  , 1+0:0:0:0:0, 1+0:0:0:0:0, 1+0:0:0:0:0, 2+1:1:0:0:1, 0+0:0:0:0:0, 4+2:0:0:0:0, 3+0:0:0:0:0, 1+0:0:0:0:0, 2+1:0:0:0:0, 1+1:0:0:0:0, 1+5:0:0:0:0, 2+0:0:0:0:0, 1+0:0:0:0:0, 6+2:0:0:0:0, 4+1:0:0:0:0, 2+2:0:0:0:0, 4+0:0:0:0:0, 4+2:0:0:0:1, 4+0:0:0:0:0, 4+0:0:0:0:0, 5+0:0:0:0:0, 7+2:0:0:0:1, 4+0:0:0:0:0, 2+1:1:0:0:1, 1+0:0:0:0:0, 1+0:0:0:0:0, 1+0:0:0:0:0, 1+0:0:0:0:0, 0+0:0:0:0:0, 2+1:0:0:0:0, 1+0:0:0:0:0, 7+5:2:0:0:3, 0+0:0:0:0:0, 2+1:1:0:0:1, 0+0:0:0:0:0, 2+1:1:0:0:1, 0+0:0:0:0:0, 1+1:1:0:0:1, 3+2:1:0:0:1, 2+1:1:0:0:1, 1+0:0:0:0:0, 5+3:0:0:0:2, 3+0:0:0:0:0, 5+0:0:0:0:0, 3+1:0:0:0:1, 1+2:2:0:0:2, 2+1:1:0:0:1, 3+1:0:0:0:0, 3+2:2:0:0:2, 5+5:0:0:0:2, 4+0:0:0:0:0, 4+0:0:0:0:0, 5+2:1:0:0:1, 3+0:0:0:0:0, 6+2:1:0:0:1, 4+0:0:0:0:0, 5+0:0:0:0:0, 7+4:0:0:0:0, 6+0:0:0:0:0, 5+3:1:0:0:1, 0+0:0:0:0:0, 0+0:0:0:0:0, 2+2:0:0:0:0, 3+2:0:0:0:0, 1+1:0:1:0:0, 5+4:0:0:0:0, 2+1:0:0:0:0, 6+3:0:0:0:3, 2+2:1:0:0:1, 2+2:0:0:0:0, 2+2:0:0:0:1, 2+1:1:0:0:1, 1+0:0:0:0:0, 1+0:0:0:0:0, 3+1:0:0:0:0, 2+1:0:0:0:0, 0+0:0:0:0:0, 5+3:0:0:0:0, 4+0:0:0:0:0, 1+0:0:0:0:0, 2+1:0:0:0:0, 3+1:0:0:0:0, 4+2:0:0:0:0, 3+1:0:0:0:1, 1+1:0:0:0:0, 8+2:0:0:0:1, 4+0:0:0:0:0, 2+0:0:0:0:0, 5+2:0:0:0:0, 8+3:0:0:0:0, 5+0:0:0:0:0, 1+0:0:0:0:0, 6+3:0:0:0:0, 5+1:0:0:0:0, 4+0:0:0:0:0, 3+4:0:0:0:0, 0+2:0:0:0:0, 0+0:0:0:0:0, 3+2:0:0:0:0, 2+1:0:0:0:0, 1+1:0:0:0:0, 2+1:0:0:0:0, 2+1:0:0:0:0, 6+5:3:0:0:3, 2+1:0:0:0:1, 3+1:0:0:0:0, 1+1:0:0:0:0, 2+2:2:0:0:2, 2+1:1:0:0:1, 2+1:0:0:0:0, 1+0:0:0:0:0, 1+0:0:0:0:0, 0+0:0:0:0:0, 7+3:0:0:0:1, 5+2:0:0:0:0, 1+0:0:0:0:0, 4+3:0:0:0:2, 2+1:0:0:0:0, 2+0:0:0:0:0, 2+0:0:0:0:0, 2+0:0:0:0:0, 6+3:0:0:0:2, 9+2:0:1:0:1, 3+1:0:0:0:0, 6+1:0:0:0:0, 6+2:0:0:0:0, 5+0:0:0:0:0, 1+0:0:0:0:0, 6+1:0:0:0:0, 9+6:1:1:0:3, 9+10:0:1:0:7, 3+3:3:0:0:3, 1+0:0:0:0:0, 2+1:1:0:0:1, 4+3:1:0:0:1, 4+3:0:0:0:0, 0+0:0:0:0:0, 2+2:0:0:0:0, 2+0:0:0:0:0, 6+8:2:0:0:2, 0+0:0:0:0:0, 5+3:0:0:0:0, 0+0:0:0:0:0, 2+1:1:0:0:1, 0+0:0:0:0:0, 1+0:0:0:0:0, 1+0:0:0:0:0, 1+0:0:0:0:0, 1+0:0:0:0:0, 4+2:0:0:0:1, 6+1:0:0:0:0, 0+0:0:0:0:0, 2+0:0:0:0:0, 1+0:0:0:0:0, 5+3:0:0:0:0, 5+2:0:0:0:0, 2+1:1:0:0:1, 5+6:0:0:0:3, 6+4:0:0:0:3, 2+0:0:0:0:0, 5+1:1:0:0:1, 7+2:0:1:0:1, 4+1:0:0:0:0, 2+0:0:0:0:0, 8+1:0:0:0:0, 5+3:0:0:0:0, 7+1:0:0:0:0, 4+3:2:0:0:2, 0+0:0:0:0:0, 1+1:0:1:0:0, 1+0:0:0:0:0, 2+1:0:0:0:0, 0+0:0:0:0:0, 2+0:0:0:0:0, 2+0:0:0:0:0, 5+4:0:0:0:2, 2+1:0:0:0:0, 1+0:0:0:0:0, 1+0:0:0:0:0, 1+0:0:0:0:0, 0+0:0:0:0:0, 0+0:0:0:0:0, 0+0:0:0:0:0, 534+227:40:8:0:80
A major (3#), 5+5:0:1:0:3,  , 2+2:0:0:0:1,  , 5+5:0:1:0:3,  , 2+2:0:0:0:1,  , 3+0:0:0:0:0, 4+3:0:0:0:0, 3+1:0:0:0:1, 2+1:1:0:0:0, 3+1:0:0:0:0, 1+0:0:0:0:0, 0+0:0:0:0:0, 0+0:0:0:0:0, 3+2:0:0:0:1, 3+0:0:0:0:0, 3+1:0:0:0:0, 2+0:0:0:0:0, 2+1:0:0:0:0, 1+1:0:0:0:0, 0+0:0:0:0:0, 1+0:0:0:0:0, 0+0:0:0:0:0, 1+1:0:1:0:1, 0+0:0:0:0:0, 1+0:0:0:0:0, 1+0:0:0:0:0, 4+2:0:0:0:1, 2+0:0:0:0:0, 3+3:1:0:0:0, 3+0:0:0:0:0, 4+3:0:0:0:0, 3+1:0:0:0:1, 2+0:0:0:0:0, 3+1:0:0:0:0, 5+5:0:0:0:2, 2+0:0:0:0:0, 1+1:0:0:0:0, 4+7:0:0:0:3, 5+2:0:0:0:1, 4+2:0:0:0:0, 3+5:0:0:0:2, 3+0:0:0:0:0, 5+1:1:0:0:0, 7+3:1:0:0:0, 2+0:0:0:0:0, 3+1:0:0:0:0, 3+2:0:0:0:1, 0+0:0:0:0:0, 0+0:0:0:0:0, 3+1:0:0:0:0, 3+0:0:0:0:0, 4+3:1:0:0:1, 4+2:0:0:0:0, 4+1:0:0:0:0, 2+2:0:0:0:0, 0+0:0:0:0:0, 0+0:0:0:0:0, 3+2:0:0:0:0, 0+0:0:0:0:0, 3+2:0:0:0:0, 0+0:0:0:0:0, 1+0:0:0:0:0, 4+4:0:0:0:0, 4+2:0:2:0:0, 3+3:1:1:0:2, 4+1:0:0:0:0, 4+0:0:0:0:0, 6+4:0:0:0:2, 2+0:0:0:0:0, 6+2:0:0:0:0, 7+5:0:1:0:4, 4+2:0:0:0:0, 1+1:0:0:0:0, 7+5:0:0:0:1, 4+3:0:0:0:1, 5+2:0:0:0:0, 4+8:1:0:0:0, 3+0:0:0:0:0, 4+4:0:0:0:0, 6+3:0:0:0:1, 3+1:0:0:0:1, 3+1:0:0:0:0, 1+0:0:0:0:0, 0+0:0:0:0:0, 0+0:0:0:0:0, 4+2:0:0:0:0, 5+1:0:0:0:1, 6+3:0:0:0:1, 2+0:0:0:0:0, 3+3:0:0:0:0, 3+2:0:0:0:1, 0+0:0:0:0:0, 0+0:0:0:0:0, 2+1:0:0:0:0, 4+3:0:0:0:0, 0+0:0:0:0:0, 0+0:0:0:0:0, 2+3:0:0:0:0, 2+1:0:0:0:0, 2+0:0:0:0:0, 3+6:0:0:0:2, 3+0:0:0:0:0, 4+0:0:0:0:0, 5+5:0:0:0:1, 4+1:0:0:0:1, 5+2:0:0:0:0, 7+7:0:0:0:4, 2+0:0:0:0:0, 1+1:0:0:0:1, 5+5:0:0:0:0, 7+5:0:0:0:1, 5+1:0:0:0:0, 4+9:2:0:0:0, 3+0:0:0:0:0, 7+3:0:0:0:0, 5+6:0:0:0:0, 3+0:0:0:0:0, 4+2:0:0:0:0, 4+2:0:1:0:1, 0+0:0:0:0:0, 0+0:0:0:0:0, 4+2:0:0:0:0, 5+4:0:0:0:0, 4+4:0:0:0:0, 2+0:0:0:0:0, 4+3:0:0:0:0, 1+1:0:1:0:1, 3+2:0:1:0:1, 1+1:0:0:0:0, 2+1:0:0:0:0, 1+2:0:0:0:0, 0+0:0:0:0:0, 0+0:0:0:0:0, 2+1:0:0:0:0, 5+6:1:1:0:3, 4+6:0:3:0:3, 3+7:2:0:0:2, 3+0:0:0:0:0, 5+5:1:0:0:0, 6+2:0:0:0:1, 4+2:0:0:0:2, 3+1:0:0:0:0, 6+6:0:0:0:5, 3+2:0:0:0:0, 1+1:0:0:0:0, 5+6:0:0:0:0, 7+4:1:0:0:1, 4+1:0:0:0:0, 4+6:1:0:0:0, 4+2:0:0:0:0, 4+4:0:0:0:0, 5+2:0:0:0:0, 3+0:0:0:0:0, 3+2:0:0:0:0, 4+2:0:0:0:0, 1+1:0:0:0:0, 0+0:0:0:0:0, 3+1:0:0:0:0, 3+0:0:0:0:0, 7+6:1:1:0:1, 5+2:0:0:0:0, 2+1:0:0:0:0, 0+0:0:0:0:0, 1+1:1:0:0:0, 0+0:0:0:0:0, 2+1:0:0:0:0, 2+2:0:1:0:1, 1+1:0:0:0:0, 0+0:0:0:0:0, 4+1:0:0:0:0, 2+3:0:0:0:0, 4+1:0:0:0:0, 3+5:2:0:0:2, 3+0:0:0:0:0, 5+1:0:1:0:1, 4+4:0:0:0:0, 5+2:0:0:0:1, 3+3:0:0:0:0, 5+3:0:0:0:2, 3+1:0:0:0:0, 1+1:0:0:0:0, 6+2:0:0:0:0, 4+3:0:0:0:2, 2+0:0:0:0:0, 3+0:0:0:0:0, 1+0:0:0:0:0, 1+0:0:0:0:0, 1+0:0:0:0:0, 549+337:19:17:0:78
C minor (3b), 2+3:0:1:0:1,  , 2+0:0:0:0:0,  , 2+3:0:1:0:1,  , 2+0:0:0:0:0,  , 1+1:0:0:0:0, 1+0:0:0:0:0, 1+1:0:0:0:0, 2+2:1:0:0:1, 0+0:0:0:0:0, 4+2:0:0:0:0, 3+1:0:0:0:0, 1+0:0:0:0:0, 3+2:0:0:0:0, 1+3:0:0:0:0, 1+5:0:0:0:0, 2+1:0:0:0:0, 1+1:0:0:0:0, 6+2:0:0:0:1, 4+1:0:0:0:0, 2+2:0:0:0:0, 4+0:0:0:0:0, 4+2:0:0:0:1, 4+0:0:0:0:0, 3+1:1:0:0:1, 5+0:0:0:0:0, 7+3:0:1:0:2, 4+3:0:1:0:3, 2+0:0:0:0:0, 1+1:0:0:0:0, 1+0:0:0:0:0, 1+1:0:0:0:0, 1+1:0:0:0:0, 0+1:0:0:0:0, 2+4:0:0:0:0, 1+0:0:0:0:0, 7+2:0:0:0:1, 0+0:0:0:0:0, 2+2:1:0:0:1, 0+1:0:0:0:0, 2+0:0:0:0:0, 0+2:0:0:0:0, 1+2:1:0:0:1, 3+3:1:0:0:0, 2+4:1:0:0:0, 1+0:0:0:0:0, 5+3:0:0:0:2, 3+0:0:0:0:0, 5+0:0:0:0:0, 3+1:0:0:0:1, 1+4:2:0:0:2, 2+3:0:0:0:1, 3+1:0:0:0:0, 3+3:2:0:0:0, 5+2:0:0:0:2, 4+0:0:0:0:0, 4+0:0:0:0:0, 5+2:1:0:0:1, 3+0:0:0:0:0, 6+2:1:0:0:1, 4+0:0:0:0:0, 5+0:0:0:0:0, 7+4:0:1:0:2, 6+6:0:4:0:5, 4+3:1:1:0:2, 0+1:0:0:0:0, 0+0:0:0:0:0, 2+4:0:0:0:2, 3+4:0:0:0:1, 1+2:0:1:0:1, 6+5:0:1:0:4, 2+3:0:0:0:1, 6+3:0:0:0:1, 2+4:1:0:0:0, 2+2:0:0:0:0, 2+3:0:0:0:0, 2+0:0:0:0:0, 1+2:0:0:0:0, 1+0:0:0:0:0, 3+2:0:0:0:0, 2+3:0:0:0:0, 0+0:0:0:0:0, 5+3:0:0:0:0, 4+3:0:0:0:0, 1+0:0:0:0:0, 2+3:0:0:0:0, 3+3:0:0:0:0, 5+3:0:0:0:1, 3+0:0:0:0:0, 1+0:0:0:0:0, 8+2:0:0:0:1, 4+0:0:0:0:0, 2+0:0:0:0:0, 5+2:0:0:0:0, 8+3:0:0:0:0, 5+0:0:0:0:0, 1+0:0:0:0:0, 6+3:0:0:0:0, 5+3:0:1:0:2, 4+5:0:3:0:5, 3+2:2:0:0:0, 0+1:0:0:0:0, 0+0:0:0:0:0, 3+5:0:0:0:1, 2+3:0:0:0:0, 1+2:0:0:0:0, 2+7:0:0:0:2, 2+0:0:0:0:0, 5+4:0:0:0:2, 2+1:0:0:0:0, 3+2:0:0:0:0, 1+3:0:0:0:1, 2+0:0:0:0:0, 2+5:1:0:0:0, 2+2:0:0:0:0, 1+2:0:0:0:0, 1+2:0:0:0:0, 0+2:0:0:0:0, 7+3:0:0:0:1, 5+2:0:0:0:0, 1+0:0:0:0:0, 4+3:0:0:0:2, 2+2:0:0:0:0, 2+2:0:0:0:0, 2+0:0:0:0:0, 2+2:0:0:0:0, 6+3:0:0:0:2, 9+2:0:1:0:1, 3+1:0:0:0:0, 6+1:0:0:0:1, 6+2:0:0:0:0, 5+0:0:0:0:0, 1+0:0:0:0:0, 6+4:0:0:0:0, 9+6:1:1:0:3, 8+6:0:3:0:6, 3+4:2:0:0:0, 1+1:0:0:0:0, 2+1:1:0:0:1, 5+6:1:0:0:1, 5+4:0:0:0:0, 0+2:0:0:0:0, 2+3:0:0:0:0, 2+0:0:0:0:0, 6+7:0:0:0:2, 0+1:0:0:0:0, 5+3:0:0:0:0, 0+2:0:0:0:0, 2+0:0:0:0:0, 0+1:0:0:0:0, 1+0:0:0:0:0, 1+3:0:0:0:0, 1+3:0:0:0:0, 1+0:0:0:0:0, 4+2:0:0:0:1, 6+1:0:0:0:0, 0+0:0:0:0:0, 2+0:0:0:0:0, 1+0:0:0:0:0, 5+2:0:0:0:0, 5+2:0:0:0:0, 2+2:0:0:0:1, 5+0:0:0:0:0, 6+1:1:0:0:0, 2+0:0:0:0:0, 5+1:1:0:0:1, 7+2:0:1:0:1, 4+1:0:0:0:0, 2+0:0:0:0:0, 8+3:0:0:0:1, 5+2:0:1:0:2, 5+9:3:1:0:3, 4+1:0:0:0:0, 0+2:0:0:0:0, 2+2:0:0:0:0, 1+1:0:0:0:0, 2+3:0:0:0:0, 0+1:0:0:0:0, 2+2:0:0:0:0, 2+0:0:0:0:0, 5+4:0:0:0:2, 2+2:0:0:0:0, 1+2:0:0:0:0, 1+1:0:0:0:0, 1+2:0:0:0:0, 0+0:0:0:0:0, 0+0:0:0:0:0, 0+0:0:0:0:0, 534+342:27:24:0:90
F# minor (3#), 5+4:4:1:0:4,  , 2+2:1:0:0:1,  , 5+4:4:1:0:4,  , 2+2:1:0:0:1,  , 3+3:0:0:0:0, 4+3:0:0:0:0, 3+1:0:0:0:1, 2+1:0:0:0:0, 3+7:0:0:0:1, 1+4:0:0:0:0, 0+0:0:0:0:0, 0+0:0:0:0:0, 3+1:0:0:0:1, 3+3:0:0:0:0, 3+2:0:0:0:0, 2+0:0:0:0:0, 2+1:0:0:0:0, 1+1:0:0:0:0, 0+1:0:0:0:0, 1+0:0:0:0:0, 0+1:0:0:0:0, 1+2:0:0:0:0, 0+1:0:0:0:0, 1+2:0:0:0:0, 1+0:0:0:0:0, 4+2:0:0:0:1, 2+0:0:0:0:0, 3+3:1:0:0:1, 3+3:0:0:0:0, 4+3:0:0:0:0, 3+1:0:0:0:1, 2+1:0:0:0:0, 3+4:0:0:0:1, 5+6:0:0:0:5, 2+0:0:0:0:0, 1+1:0:0:0:0, 4+7:0:0:0:3, 5+2:0:0:0:1, 4+2:0:0:0:0, 3+5:0:0:0:2, 3+0:0:0:0:0, 5+1:1:0:0:0, 7+3:1:0:0:0, 2+0:0:0:0:0, 3+1:0:0:0:0, 3+2:0:0:0:1, 0+0:0:0:0:0, 0+0:0:0:0:0, 3+1:0:0:0:0, 3+0:0:0:0:0, 4+4:0:0:0:0, 4+2:0:0:0:0, 4+5:0:0:0:0, 2+4:0:0:0:0, 0+1:0:0:0:0, 0+2:0:0:0:0, 3+3:0:0:0:0, 0+1:0:0:0:0, 3+2:0:0:0:0, 0+2:0:0:0:0, 1+0:0:0:0:0, 4+4:0:0:0:0, 4+2:0:2:0:0, 3+3:1:1:0:2, 4+1:0:0:0:0, 4+0:0:0:0:0, 6+4:0:0:0:2, 2+5:0:0:0:0, 6+4:0:0:0:2, 8+10:0:0:0:4, 4+3:0:0:0:0, 1+1:0:0:0:0, 7+5:0:0:0:1, 4+3:0:0:0:1, 5+2:0:0:0:0, 4+8:1:0:0:0, 3+0:0:0:0:0, 4+4:0:0:0:0, 6+3:0:0:0:1, 3+2:0:0:0:0, 3+5:0:0:0:1, 1+6:0:0:0:0, 0+0:0:0:0:0, 0+0:0:0:0:0, 4+2:0:0:0:0, 5+5:0:0:0:0, 5+4:0:0:0:1, 2+0:0:0:0:0, 3+3:0:0:0:0, 3+2:0:0:0:1, 0+3:0:0:0:0, 0+2:0:0:0:0, 2+2:0:0:0:1, 4+4:1:0:0:1, 0+2:0:0:0:0, 0+0:0:0:0:0, 2+1:0:0:0:0, 2+1:0:0:0:0, 2+0:0:0:0:0, 3+6:2:0:0:2, 3+0:0:0:0:0, 4+0:0:0:0:0, 5+5:0:0:0:1, 4+1:0:0:0:1, 5+2:0:0:0:0, 7+7:0:0:0:2, 2+0:0:0:0:0, 1+1:0:0:0:1, 5+5:0:0:0:0, 7+5:0:0:0:1, 5+1:0:0:0:0, 4+9:2:0:0:0, 3+0:0:0:0:0, 6+2:0:1:0:1, 5+2:0:0:0:0, 3+0:0:0:0:0, 4+2:0:0:0:0, 4+4:0:1:0:0, 0+1:0:0:0:0, 0+0:0:0:0:0, 4+2:0:0:0:0, 5+4:0:0:0:0, 4+4:0:0:0:0, 2+0:0:0:0:0, 4+3:0:0:0:0, 1+1:0:1:0:1, 3+4:0:1:0:0, 2+1:0:0:0:0, 2+5:0:0:0:0, 1+2:0:0:0:0, 0+4:0:0:0:0, 0+0:0:0:0:0, 2+3:0:0:0:1, 5+3:0:0:0:0, 4+1:0:0:0:0, 3+7:2:0:0:2, 3+4:0:0:0:0, 5+5:1:0:0:0, 6+2:0:0:0:1, 4+3:0:0:0:0, 3+5:0:0:0:1, 6+7:0:0:0:3, 3+2:0:0:0:0, 1+1:0:0:0:0, 5+6:0:0:0:4, 7+4:1:0:0:1, 4+1:0:0:0:0, 4+6:1:0:0:0, 4+2:0:0:0:0, 4+4:0:0:0:0, 5+2:0:0:0:0, 3+0:0:0:0:0, 3+2:0:0:0:0, 4+5:0:0:0:1, 1+2:0:0:0:0, 0+0:0:0:0:0, 3+1:0:0:0:0, 3+6:0:0:0:0, 7+5:0:0:0:1, 5+2:0:0:0:0, 2+2:1:0:0:0, 0+2:0:0:0:0, 1+4:1:0:0:1, 0+2:0:0:0:0, 2+4:0:0:0:0, 2+2:0:1:0:0, 2+3:0:0:0:0, 0+0:0:0:0:0, 4+1:0:0:0:0, 2+3:0:0:0:0, 4+1:0:0:0:0, 3+5:2:0:0:2, 3+0:0:0:0:0, 5+1:0:1:0:1, 4+4:0:0:0:2, 5+4:0:0:0:0, 3+7:0:0:0:3, 5+6:0:0:0:3, 3+1:0:0:0:0, 1+1:0:0:0:0, 6+5:0:0:0:1, 4+3:0:0:0:2, 2+2:0:0:0:0, 3+2:0:0:0:0, 1+0:0:0:0:0, 1+0:0:0:0:0, 1+0:0:0:0:0, 550+465:29:11:0:87
Ab major (4b), 1+1:0:1:0:0,  , 3+2:1:0:0:1,  , 1+1:0:1:0:0,  , 3+1:1:0:0:1,  , 2+0:0:0:0:0, 1+0:0:0:0:0, 1+0:0:0:0:0, 3+1:1:0:0:1, 1+0:0:0:0:0, 5+2:0:0:0:0, 4+0:0:0:0:0, 1+0:0:0:0:0, 3+1:0:0:0:0, 2+0:0:0:0:0, 1+0:0:0:0:0, 2+0:0:0:0:0, 2+0:0:0:0:0, 7+2:0:0:0:0, 4+0:0:0:0:0, 2+1:1:0:0:1, 5+0:0:0:0:0, 5+1:0:0:0:0, 4+0:0:0:0:0, 4+0:0:0:0:0, 5+0:0:0:0:0, 8+2:0:0:0:1, 4+0:0:0:0:0, 3+1:1:0:0:1, 2+0:0:0:0:0, 1+0:0:0:0:0, 1+0:0:0:0:0, 2+0:0:0:0:0, 1+0:0:0:0:0, 1+0:0:0:0:0, 2+0:0:0:0:0, 7+5:2:0:0:3, 0+0:0:0:0:0, 2+1:1:0:0:1, 1+0:0:0:0:0, 3+1:1:0:0:1, 1+0:0:0:0:0, 1+1:0:0:0:0, 3+5:0:0:0:0, 3+1:1:0:0:1, 2+1:0:0:0:0, 6+2:0:0:0:1, 4+0:0:0:0:0, 5+0:0:0:0:0, 4+1:0:0:0:1, 2+2:2:0:0:2, 2+1:1:0:0:1, 3+1:0:0:0:0, 4+2:2:0:0:2, 6+2:0:0:0:0, 4+0:0:0:0:0, 5+0:0:0:0:0, 6+2:1:0:0:1, 4+0:0:0:0:0, 6+2:1:0:0:1, 5+0:0:0:0:0, 5+0:0:0:0:0, 8+4:0:0:0:0, 6+0:0:0:0:0, 6+3:1:0:0:1, 1+0:0:0:0:0, 0+0:0:0:0:0, 1+2:0:0:0:0, 4+2:0:0:0:0, 2+1:0:1:0:0, 4+2:0:1:0:1, 3+1:0:0:0:0, 7+4:3:0:0:3, 2+2:0:0:0:1, 3+3:0:0:0:0, 3+2:0:0:0:1, 3+3:1:0:0:1, 2+0:0:0:0:0, 1+0:0:0:0:0, 3+1:0:0:0:0, 3+1:0:0:0:0, 1+0:0:0:0:0, 6+3:0:0:0:0, 5+0:0:0:0:0, 1+0:0:0:0:0, 3+0:0:0:0:0, 4+1:0:0:0:0, 5+2:0:0:0:0, 4+1:1:0:0:1, 2+0:0:0:0:0, 9+4:0:0:0:1, 4+0:0:0:0:0, 2+0:0:0:0:0, 6+1:0:0:0:0, 9+3:0:0:0:0, 5+0:0:0:0:0, 1+0:0:0:0:0, 6+3:0:0:0:0, 6+1:0:0:0:0, 4+0:0:0:0:0, 4+4:0:0:0:0, 1+0:0:0:0:0, 0+0:0:0:0:0, 2+2:0:0:0:0, 3+1:0:0:0:0, 2+1:0:0:0:1, 1+2:0:0:0:0, 3+1:0:0:0:0, 6+5:2:0:0:2, 2+1:0:0:0:1, 3+1:0:0:0:0, 2+1:0:0:0:0, 3+5:2:0:0:2, 3+1:1:0:0:1, 3+1:0:0:0:0, 2+0:0:0:0:0, 2+0:0:0:0:0, 1+0:0:0:0:0, 8+3:0:0:0:1, 6+0:0:0:0:0, 1+0:0:0:0:0, 5+3:2:0:0:2, 3+1:0:0:0:0, 2+0:0:0:0:0, 3+0:0:0:0:0, 3+0:0:0:0:0, 7+3:0:0:0:2, 9+2:0:1:0:1, 3+1:0:0:0:0, 7+1:0:0:0:0, 7+2:0:0:0:0, 6+0:0:0:0:0, 1+0:0:0:0:0, 6+1:0:0:0:0, 10+3:0:0:0:0, 8+1:0:0:0:0, 4+3:3:0:0:3, 2+0:0:0:0:0, 2+1:1:0:0:1, 4+3:1:0:0:1, 5+2:0:0:0:0, 1+0:0:0:0:0, 1+2:0:0:0:0, 3+0:0:0:0:0, 6+8:2:0:0:2, 1+0:0:0:0:0, 5+3:0:0:0:0, 1+0:0:0:0:0, 3+4:1:0:0:1, 1+0:0:0:0:0, 1+1:0:0:0:0, 2+2:0:0:0:0, 2+0:0:0:0:0, 2+2:0:0:0:0, 5+2:1:0:0:1, 7+1:0:0:0:0, 1+0:0:0:0:0, 3+0:0:0:0:0, 2+0:0:0:0:0, 4+2:0:0:0:0, 6+2:0:0:0:0, 3+1:1:0:0:1, 6+3:0:0:0:0, 6+1:1:0:0:0, 3+0:0:0:0:0, 6+1:1:0:0:1, 8+2:0:1:0:1, 5+1:0:0:0:0, 2+0:0:0:0:0, 8+1:0:0:0:0, 6+3:0:0:0:0, 7+1:0:0:0:0, 5+3:2:0:0:2, 1+0:0:0:0:0, 1+1:0:1:0:0, 1+3:0:0:0:0, 3+1:0:0:0:0, 1+0:0:0:0:0, 1+1:0:0:0:0, 3+0:0:0:0:0, 5+5:2:0:0:2, 2+1:0:0:0:0, 2+0:0:0:0:0, 2+0:0:0:0:0, 1+0:0:0:0:0, 0+0:0:0:0:0, 0+0:0:0:0:0, 0+0:0:0:0:0, 636+210:46:7:0:60
E major (4#), 5+4:4:1:0:4,  , 3+2:1:0:0:1,  , 5+4:4:1:0:4,  , 3+2:1:0:0:1,  , 4+3:0:0:0:0, 4+3:0:0:0:0, 3+1:0:0:0:1, 3+1:1:0:0:0, 4+0:0:0:0:0, 2+0:0:0:0:0, 1+0:0:0:0:0, 0+0:0:0:0:0, 4+1:0:0:0:1, 4+3:0:0:0:0, 3+2:0:0:0:0, 2+0:0:0:0:0, 3+1:0:0:0:0, 2+1:0:0:0:0, 0+0:0:0:0:0, 0+0:0:0:0:0, 1+0:0:0:0:0, 2+1:0:1:0:1, 0+0:0:0:0:0, 0+0:0:0:0:0, 0+0:0:0:0:0, 5+2:0:0:0:1, 2+0:0:0:0:0, 4+3:1:0:0:1, 4+3:0:0:0:0, 4+3:0:0:0:0, 3+1:0:0:0:1, 3+0:0:0:0:0, 4+0:0:0:0:0, 5+3:0:0:0:2, 3+0:0:0:0:0, 1+1:0:0:0:0, 4+7:0:0:0:1, 5+2:0:0:0:1, 5+4:0:0:0:0, 4+5:2:0:0:2, 4+1:0:0:0:0, 6+1:0:0:0:1, 8+3:0:0:0:1, 3+4:1:0:0:0, 4+0:0:0:0:0, 4+2:0:0:0:1, 1+0:0:0:0:0, 0+0:0:0:0:0, 4+1:0:0:0:0, 4+0:0:0:0:0, 3+4:0:0:0:0, 3+2:0:0:0:0, 5+5:0:0:0:0, 3+5:0:0:0:0, 0+0:0:0:0:0, 1+0:0:0:0:0, 4+2:0:0:0:0, 1+0:0:0:0:0, 2+2:0:0:0:0, 1+0:0:0:0:0, 0+0:0:0:0:0, 5+5:0:2:0:0, 3+4:0:4:0:2, 4+4:1:1:0:2, 5+1:0:0:0:0, 4+0:0:0:0:0, 6+4:0:0:0:2, 3+0:0:0:0:0, 6+2:0:1:0:1, 7+5:0:1:0:4, 5+2:0:0:0:0, 2+1:0:0:0:0, 8+5:0:0:0:1, 5+3:0:0:0:1, 6+2:0:0:0:0, 5+0:0:0:0:0, 4+2:0:0:0:0, 4+0:0:0:0:0, 6+2:0:0:0:0, 4+3:0:0:0:0, 4+0:0:0:0:0, 2+0:0:0:0:0, 1+0:0:0:0:0, 0+0:0:0:0:0, 5+2:0:0:0:0, 6+5:0:0:0:0, 6+4:0:0:0:1, 3+0:0:0:0:0, 4+3:0:0:0:0, 4+2:0:0:0:1, 0+0:0:0:0:0, 0+0:0:0:0:0, 3+5:0:0:0:0, 5+4:0:0:0:0, 0+0:0:0:0:0, 0+0:0:0:0:0, 1+3:0:0:0:0, 3+3:0:2:0:0, 2+3:0:3:0:0, 4+5:2:0:0:2, 4+1:0:0:0:0, 4+0:0:0:0:0, 5+5:0:0:0:1, 5+3:0:0:0:0, 6+2:0:0:0:0, 7+5:1:1:0:4, 3+4:0:0:0:0, 1+1:0:0:0:0, 5+1:0:0:0:0, 7+2:0:0:0:0, 6+3:0:0:0:1, 5+0:0:0:0:0, 4+5:1:0:0:0, 7+2:0:1:0:1, 6+2:0:0:0:0, 4+2:0:0:0:0, 5+1:0:0:0:0, 5+2:0:1:0:1, 1+0:0:0:0:0, 0+0:0:0:0:0, 5+2:0:0:0:0, 6+4:0:0:0:0, 4+4:0:0:0:0, 3+0:0:0:0:0, 5+3:0:0:0:0, 2+1:0:1:0:1, 2+2:0:1:0:1, 1+1:0:0:0:0, 3+1:0:0:0:0, 2+2:0:0:0:0, 1+0:0:0:0:0, 0+0:0:0:0:0, 1+1:0:0:0:0, 6+6:0:3:0:0, 4+3:0:3:0:0, 4+7:2:0:0:2, 4+1:0:0:0:0, 5+1:1:0:0:1, 6+6:1:0:0:1, 5+2:0:0:0:2, 4+0:0:0:0:0, 6+5:0:0:0:2, 4+2:0:0:0:0, 0+0:0:0:0:0, 6+2:0:0:0:0, 7+3:1:0:0:1, 5+2:0:0:0:0, 5+0:0:0:0:0, 5+1:0:0:0:0, 4+0:0:0:0:0, 6+3:0:0:0:0, 4+3:0:0:0:0, 4+0:0:0:0:0, 5+2:0:0:0:0, 2+1:0:0:0:0, 1+0:0:0:0:0, 4+1:0:0:0:0, 4+6:0:0:0:0, 7+5:0:0:0:1, 6+2:0:0:0:0, 3+1:0:0:0:0, 1+0:0:0:0:0, 1+1:1:0:0:0, 1+0:0:0:0:0, 3+1:0:0:0:0, 3+2:0:1:0:1, 2+1:0:0:0:0, 0+0:0:0:0:0, 3+1:0:0:0:0, 3+3:0:0:0:0, 4+1:0:0:0:0, 4+5:2:0:0:2, 4+0:0:0:0:0, 5+1:0:1:0:1, 4+1:0:0:0:0, 6+3:0:0:0:0, 4+0:0:0:0:0, 5+4:0:0:0:2, 4+1:0:0:0:0, 0+0:0:0:0:0, 6+5:0:0:0:1, 5+3:0:0:0:2, 3+2:0:0:0:0, 3+2:0:0:0:0, 1+0:0:0:0:0, 1+0:0:0:0:0, 1+0:0:0:0:0, 648+343:28:30:0:71
F minor (4b), 1+2:0:1:0:1,  , 3+2:1:0:0:1,  , 1+2:0:1:0:1,  , 3+2:1:0:0:1,  , 2+0:0:0:0:0, 1+2:0:0:0:0, 1+1:0:0:0:0, 3+1:1:0:0:1, 1+1:0:0:0:0, 5+0:0:0:0:0, 4+0:0:0:0:0, 1+0:0:0:0:0, 3+1:0:0:0:0, 2+0:0:0:0:0, 1+0:0:0:0:0, 2+0:0:0:0:0, 2+0:0:0:0:0, 7+2:0:0:0:0, 4+1:0:0:0:0, 2+2:0:0:0:0, 5+0:0:0:0:0, 5+2:0:0:0:1, 4+0:0:0:0:0, 4+0:0:0:0:0, 5+0:0:0:0:0, 8+3:0:1:0:2, 4+3:0:1:0:3, 3+2:1:0:0:1, 2+0:0:0:0:0, 1+2:0:0:0:0, 1+1:0:0:0:0, 2+0:0:0:0:0, 1+0:0:0:0:0, 1+0:0:0:0:0, 2+0:0:0:0:0, 7+1:0:0:0:0, 0+0:0:0:0:0, 2+2:1:0:0:1, 1+2:0:0:0:0, 3+0:0:0:0:0, 1+2:0:0:0:0, 1+2:0:0:0:0, 3+5:0:0:0:0, 3+1:1:0:0:1, 2+1:0:0:0:0, 6+3:0:0:0:2, 4+0:0:0:0:0, 5+0:0:0:0:0, 4+1:0:0:0:1, 2+2:2:0:0:2, 2+1:1:0:0:1, 3+1:0:0:0:0, 4+2:2:0:0:2, 6+2:0:0:0:0, 4+0:0:0:0:0, 5+0:0:0:0:0, 6+2:1:0:0:0, 4+0:0:0:0:0, 6+2:1:0:0:1, 5+0:0:0:0:0, 5+0:0:0:0:0, 8+4:0:1:0:2, 6+6:0:4:0:6, 5+3:1:1:0:2, 1+0:0:0:0:0, 0+1:0:0:0:0, 1+2:0:0:0:0, 4+1:0:0:0:0, 3+5:0:0:0:0, 4+2:0:1:0:0, 3+1:0:0:0:0, 7+4:3:0:0:3, 2+2:0:0:0:0, 3+3:0:0:0:0, 3+1:0:0:0:0, 3+5:1:0:0:1, 2+0:0:0:0:0, 1+3:0:0:0:0, 3+2:0:0:0:0, 3+1:0:0:0:0, 1+1:0:0:0:0, 6+0:0:0:0:0, 5+0:0:0:0:0, 1+0:0:0:0:0, 3+0:0:0:0:0, 4+1:0:0:0:0, 5+2:0:0:0:0, 4+1:1:0:0:1, 2+0:0:0:0:0, 9+4:0:0:0:1, 4+1:0:0:0:0, 2+0:0:0:0:0, 6+1:0:0:0:0, 9+3:0:0:0:0, 5+0:0:0:0:0, 1+0:0:0:0:0, 6+3:0:0:0:0, 6+3:0:1:0:2, 4+5:0:3:0:5, 4+4:0:0:0:0, 1+0:0:0:0:0, 0+3:0:0:0:0, 2+2:0:0:0:0, 3+1:0:0:0:0, 2+1:0:0:0:0, 1+1:0:0:0:0, 3+1:0:0:0:0, 6+5:2:0:0:2, 2+3:0:0:0:0, 3+3:0:0:0:0, 2+1:0:0:0:0, 3+5:2:0:0:2, 3+1:1:0:0:1, 3+1:0:0:0:0, 2+0:0:0:0:0, 2+0:0:0:0:0, 1+2:0:0:0:0, 8+3:0:0:0:1, 6+0:0:0:0:0, 1+0:0:0:0:0, 5+3:2:0:0:2, 3+1:0:0:0:0, 2+0:0:0:0:0, 3+0:0:0:0:0, 3+0:0:0:0:0, 7+3:0:0:0:2, 9+4:0:1:0:2, 2+1:0:0:0:1, 7+1:0:0:0:1, 7+3:0:0:0:0, 6+1:0:0:0:0, 1+0:0:0:0:0, 6+4:0:0:0:0, 10+6:1:1:0:3, 9+10:0:1:0:5, 4+5:0:0:0:2, 2+0:0:0:0:0, 2+3:1:0:0:1, 4+3:1:0:0:1, 5+2:0:0:0:0, 1+0:0:0:0:0, 1+2:0:0:0:0, 3+0:0:0:0:0, 6+8:2:0:0:2, 1+0:0:0:0:0, 5+3:0:0:0:0, 1+0:0:0:0:0, 3+3:1:0:0:1, 1+0:0:0:0:0, 1+2:0:0:0:0, 2+1:0:0:0:0, 2+0:0:0:0:0, 2+2:0:0:0:0, 5+2:0:0:0:1, 7+1:0:0:0:0, 1+0:0:0:0:0, 3+0:0:0:0:0, 2+0:0:0:0:0, 4+2:0:0:0:0, 6+2:0:0:0:0, 3+1:1:0:0:1, 6+3:0:0:0:0, 6+2:1:0:0:0, 3+0:0:0:0:0, 6+1:1:0:0:0, 8+3:0:1:0:1, 5+2:0:0:0:0, 2+0:0:0:0:0, 8+2:0:0:0:1, 6+3:0:0:0:0, 7+1:0:0:0:0, 5+1:0:0:0:0, 1+2:0:0:0:0, 1+3:0:1:0:1, 1+2:0:0:0:0, 3+1:0:0:0:0, 1+0:0:0:0:0, 1+0:0:0:0:0, 3+0:0:0:0:0, 5+4:0:0:0:2, 2+1:0:0:0:0, 2+2:0:0:0:0, 2+0:0:0:0:0, 1+0:0:0:0:0, 0+0:0:0:0:0, 0+0:0:0:0:0, 0+0:0:0:0:0, 636+284:35:20:0:82
C# minor (4#), 5+4:4:1:0:4,  , 3+2:1:0:0:1,  , 5+4:4:1:0:4,  , 3+2:1:0:0:1,  , 4+1:0:0:0:0, 4+0:0:0:0:0, 3+1:0:0:0:0, 3+2:1:0:0:1, 4+0:0:0:0:0, 2+3:0:0:0:0, 1+1:0:0:0:0, 0+0:0:0:0:0, 4+2:0:0:0:1, 4+0:0:0:0:0, 3+1:0:0:0:0, 2+0:0:0:0:0, 3+1:0:0:0:0, 3+3:0:0:0:0, 0+0:0:0:0:0, 0+0:0:0:0:0, 1+1:0:0:0:0, 2+2:0:0:0:0, 0+0:0:0:0:0, 0+0:0:0:0:0, 0+3:0:0:0:0, 5+3:0:0:0:0, 2+0:0:0:0:0, 4+3:1:0:0:1, 4+1:0:0:0:0, 4+0:0:0:0:0, 3+1:0:0:0:0, 3+1:0:0:0:0, 4+0:0:0:0:0, 5+3:0:0:0:2, 3+0:0:0:0:0, 1+1:0:0:0:0, 4+0:0:0:0:0, 5+2:1:0:0:1, 5+1:0:0:0:0, 4+0:0:0:0:0, 4+1:0:0:0:0, 6+1:0:0:0:1, 8+3:0:0:0:1, 3+4:1:0:0:0, 4+1:0:0:0:0, 4+2:0:0:0:1, 1+0:0:0:0:0, 0+0:0:0:0:0, 4+1:0:0:0:0, 4+0:0:0:0:0, 3+3:1:0:0:1, 3+2:0:0:0:0, 5+1:0:0:0:0, 3+4:0:0:0:0, 0+1:0:0:0:0, 1+2:0:0:0:0, 4+3:0:0:0:0, 1+1:0:0:0:0, 2+2:0:0:0:0, 1+2:0:0:0:0, 0+1:0:0:0:0, 5+5:0:0:0:1, 3+0:0:0:0:0, 4+2:1:0:0:2, 5+1:0:0:0:0, 4+0:0:0:0:0, 6+4:0:0:0:2, 3+0:0:0:0:0, 6+2:0:1:0:1, 7+5:0:1:0:4, 5+2:0:0:0:0, 2+1:0:0:0:0, 8+4:0:0:0:1, 5+2:0:0:0:0, 6+4:1:0:0:0, 5+0:0:0:0:0, 4+2:0:0:0:0, 4+0:0:0:0:0, 6+2:0:0:0:0, 4+3:0:0:0:0, 4+0:0:0:0:0, 2+5:0:0:0:0, 1+0:0:0:0:0, 0+0:0:0:0:0, 5+2:0:0:0:0, 6+1:0:0:0:1, 7+3:0:0:0:1, 3+0:0:0:0:0, 4+3:0:0:0:0, 4+2:0:0:0:0, 0+0:0:0:0:0, 0+0:0:0:0:0, 3+2:0:0:0:1, 5+4:1:0:0:1, 0+0:0:0:0:0, 0+0:0:0:0:0, 1+5:0:0:0:0, 3+2:0:0:0:0, 2+0:0:0:0:0, 4+5:2:0:0:2, 4+1:0:0:0:0, 4+0:0:0:0:0, 5+5:0:0:0:1, 5+3:0:0:0:0, 6+2:0:0:0:0, 7+5:1:1:0:4, 3+4:0:0:0:0, 1+1:0:0:0:0, 5+1:0:0:0:0, 7+2:0:0:0:0, 6+3:0:0:0:1, 5+0:0:0:0:0, 4+5:1:0:0:0, 7+2:0:1:0:1, 6+2:0:0:0:0, 4+2:0:0:0:0, 5+1:0:0:0:0, 5+4:0:1:0:0, 1+1:0:0:0:0, 0+0:0:0:0:0, 5+2:0:0:0:0, 6+2:0:0:0:0, 4+3:0:0:0:0, 3+0:0:0:0:0, 5+3:0:0:0:0, 2+2:0:1:0:0, 2+2:0:0:0:0, 1+1:0:0:0:1, 3+5:0:0:0:0, 2+2:0:0:0:0, 1+4:0:0:0:0, 0+0:0:0:0:0, 1+3:0:0:0:1, 6+4:0:0:0:1, 4+2:0:0:0:0, 4+7:2:0:0:2, 4+1:0:0:0:0, 5+1:1:0:0:1, 6+6:1:0:0:1, 5+2:0:0:0:2, 4+0:0:0:0:0, 6+5:0:0:0:2, 4+4:0:0:0:0, 0+0:0:0:0:0, 6+2:0:0:0:0, 7+3:1:0:0:1, 5+2:0:0:0:0, 5+0:0:0:0:0, 5+1:0:0:0:0, 4+0:0:0:0:0, 6+3:0:0:0:0, 4+3:0:0:0:0, 4+2:0:0:0:0, 5+5:0:0:0:1, 2+2:0:0:0:0, 1+0:0:0:0:0, 4+1:0:0:0:0, 4+0:0:0:0:0, 7+6:1:1:0:1, 6+2:0:0:0:0, 3+2:1:0:0:2, 1+2:0:0:0:0, 1+4:1:0:0:1, 1+2:0:0:0:0, 3+4:0:0:0:0, 3+2:0:1:0:0, 3+3:0:0:0:0, 0+2:0:0:0:0, 3+3:0:0:0:0, 3+8:0:0:0:0, 4+1:0:0:0:1, 5+4:1:0:0:1, 4+1:0:0:0:0, 5+1:0:1:0:1, 4+1:0:0:0:0, 6+3:0:0:0:0, 4+0:0:0:0:0, 5+4:0:0:0:2, 4+4:0:0:0:0, 0+0:0:0:0:0, 6+2:0:0:0:0, 5+2:0:0:0:0, 3+1:0:0:0:0, 3+2:0:0:0:0, 1+0:0:0:0:0, 1+0:0:0:0:0, 1+0:0:0:0:0, 652+352:31:11:0:66
Db major (5b), 2+1:0:1:0:0,  , 3+1:1:0:0:1,  , 2+2:0:1:0:1,  , 3+1:1:0:0:1,  , 3+0:0:0:0:0, 2+0:0:0:0:0, 1+0:0:0:0:0, 3+1:1:0:0:1, 2+0:0:0:0:0, 6+2:0:0:0:0, 4+0:0:0:0:0, 1+0:0:0:0:0, 2+1:0:0:0:0, 3+1:0:0:0:0, 2+5:0:0:0:0, 2+0:0:0:0:0, 2+0:0:0:0:0, 7+2:0:0:0:0, 4+0:0:0:0:0, 3+0:0:0:0:0, 5+3:0:0:0:0, 5+1:0:0:0:0, 4+0:0:0:0:0, 4+0:0:0:0:0, 5+0:0:0:0:0, 8+2:0:0:0:1, 4+0:0:0:0:0, 3+1:1:0:0:1, 3+0:0:0:0:0, 2+0:0:0:0:0, 1+0:0:0:0:0, 2+0:0:0:0:0, 2+0:0:0:0:0, 0+0:0:0:0:0, 2+0:0:0:0:0, 7+5:2:0:0:3, 1+0:0:0:0:0, 3+1:1:0:0:1, 2+0:0:0:0:0, 4+1:1:0:0:1, 2+0:0:0:0:0, 2+1:0:0:0:0, 4+2:0:0:0:0, 3+1:1:0:0:1, 3+0:0:0:0:0, 7+3:0:0:0:2, 4+0:0:0:0:0, 5+0:0:0:0:0, 4+1:0:0:0:1, 3+2:2:0:0:2, 3+1:1:0:0:1, 4+1:0:0:0:0, 5+2:2:0:0:2, 7+2:0:0:0:2, 4+0:0:0:0:0, 5+0:0:0:0:0, 6+2:1:0:0:1, 4+0:0:0:0:0, 6+2:1:0:0:1, 5+0:0:0:0:0, 5+0:0:0:0:0, 8+4:0:0:0:0, 6+0:0:0:0:0, 5+3:1:1:0:2, 2+0:0:0:0:0, 1+0:0:0:0:0, 2+2:0:0:0:0, 4+2:0:0:0:0, 3+1:0:1:0:1, 3+2:0:1:0:0, 3+1:0:0:0:0, 7+3:0:0:0:1, 3+2:0:0:0:0, 2+2:0:0:0:0, 4+2:0:0:0:1, 4+1:1:0:0:1, 3+0:0:0:0:0, 2+0:0:0:0:0, 4+1:0:0:0:0, 2+1:0:0:0:0, 2+0:0:0:0:0, 7+3:0:0:0:0, 5+0:0:0:0:0, 1+0:0:0:0:0, 4+1:0:0:0:0, 5+1:0:0:0:0, 6+4:0:0:0:0, 4+1:1:0:0:1, 3+0:0:0:0:0, 9+4:0:0:0:3, 4+1:0:0:0:0, 2+0:0:0:0:0, 6+2:0:0:0:0, 9+3:0:0:0:0, 5+0:0:0:0:0, 1+0:0:0:0:0, 6+3:0:0:0:0, 6+3:0:1:0:2, 4+5:0:3:0:5, 5+2:2:0:0:0, 2+0:0:0:0:0, 1+0:0:0:0:0, 2+2:0:0:0:0, 4+1:0:0:0:0, 3+1:0:0:0:0, 0+1:0:0:0:0, 3+1:0:0:0:1, 6+5:2:0:0:4, 3+1:0:0:0:1, 4+1:0:0:0:0, 3+1:0:0:0:0, 4+2:2:0:0:2, 4+1:1:0:0:1, 4+1:0:0:0:0, 3+0:0:0:0:0, 3+0:0:0:0:0, 2+0:0:0:0:0, 9+3:0:0:0:1, 6+2:0:0:0:0, 1+0:0:0:0:0, 5+3:2:0:0:2, 4+1:0:0:0:0, 3+1:0:0:0:0, 3+0:0:0:0:0, 4+1:0:0:0:0, 7+3:0:0:0:2, 9+2:0:1:0:1, 1+2:1:0:0:1, 7+1:0:0:0:1, 7+3:0:0:0:0, 6+1:0:0:0:0, 1+0:0:0:0:0, 6+1:0:0:0:0, 10+6:1:1:0:3, 8+6:0:3:0:3, 4+4:2:0:0:0, 3+0:0:0:0:0, 3+1:1:0:0:1, 3+3:1:0:0:1, 4+3:0:0:0:0, 2+0:0:0:0:0, 0+2:0:0:0:0, 4+1:0:0:0:0, 6+8:2:0:0:3, 2+0:0:0:0:0, 5+3:1:0:0:1, 2+0:0:0:0:0, 4+1:1:0:0:1, 2+0:0:0:0:0, 2+0:0:0:0:0, 3+0:0:0:0:0, 3+0:0:0:0:0, 3+0:0:0:0:0, 6+2:0:0:0:1, 7+1:0:0:0:0, 1+0:0:0:0:0, 4+0:0:0:0:0, 3+0:0:0:0:0, 5+2:0:0:0:0, 7+2:0:0:0:0, 3+1:1:0:0:1, 6+3:0:0:0:0, 6+1:1:0:0:0, 3+0:0:0:0:0, 6+1:1:0:0:1, 8+2:0:1:0:1, 5+1:0:0:0:0, 2+0:0:0:0:0, 8+1:0:0:0:0, 6+3:0:0:0:0, 7+1:0:0:0:0, 5+3:3:0:0:3, 2+0:0:0:0:0, 2+1:0:1:0:0, 2+0:0:0:0:0, 4+1:0:0:0:0, 2+0:0:0:0:0, 0+0:0:0:0:0, 4+2:0:0:0:0, 5+5:2:0:0:3, 3+1:0:0:0:0, 3+0:0:0:0:0, 2+0:0:0:0:0, 2+0:0:0:0:0, 0+0:0:0:0:0, 0+0:0:0:0:0, 0+0:0:0:0:0, 709+225:46:16:0:81
B major (5#), 5+4:4:1:0:4,  , 4+2:1:0:0:1,  , 5+4:4:1:0:4,  , 4+2:1:0:0:1,  , 5+0:0:0:0:0, 5+3:0:0:0:0, 4+2:0:0:0:0, 4+1:1:0:0:0, 4+1:0:0:0:0, 3+1:0:0:0:0, 2+1:0:0:0:0, 0+0:0:0:0:0, 5+2:0:0:0:1, 4+0:0:0:0:0, 3+1:0:0:0:0, 3+1:0:0:0:0, 4+0:0:0:0:0, 3+1:0:0:0:0, 1+0:0:0:0:0, 1+0:0:0:0:0, 2+0:0:0:0:0, 2+1:0:1:0:1, 1+0:0:0:0:0, 1+0:0:0:0:0, 0+0:0:0:0:0, 4+2:0:0:0:1, 1+0:0:0:0:0, 5+3:1:0:0:1, 5+0:0:0:0:0, 5+3:0:0:0:0, 4+2:0:0:0:0, 4+0:0:0:0:0, 4+0:0:0:0:0, 5+3:0:0:0:2, 4+1:0:0:0:0, 2+1:0:0:0:0, 4+0:0:0:0:0, 6+2:1:0:0:1, 5+2:0:0:0:0, 5+0:0:0:0:0, 4+0:0:0:0:0, 6+1:0:0:0:1, 9+3:0:0:0:1, 4+0:0:0:0:0, 5+1:0:0:0:0, 5+2:0:0:0:1, 2+2:0:0:0:0, 1+0:0:0:0:0, 5+1:0:0:0:0, 4+0:0:0:0:0, 3+3:1:0:0:1, 4+2:1:0:0:1, 6+1:0:0:0:0, 4+4:0:0:0:0, 1+1:0:0:0:0, 2+2:0:0:0:0, 5+3:0:0:0:1, 1+1:0:0:0:0, 3+2:0:0:0:0, 2+2:0:0:0:0, 0+0:0:0:0:0, 4+4:0:0:0:0, 2+2:0:2:0:0, 5+3:1:1:0:2, 5+1:0:0:0:0, 4+0:0:0:0:0, 7+4:0:0:0:2, 4+0:0:0:0:0, 6+2:0:1:0:1, 8+5:0:1:0:4, 6+2:0:0:0:0, 3+1:0:0:0:0, 8+4:0:0:0:1, 6+2:0:0:0:0, 7+4:0:0:0:1, 6+8:1:0:0:0, 5+0:0:0:0:0, 5+4:0:0:0:0, 7+4:0:0:0:1, 5+1:0:0:0:1, 4+1:0:0:0:0, 3+1:0:0:0:0, 2+3:0:0:0:0, 0+0:0:0:0:0, 6+1:0:0:0:0, 7+1:0:0:0:1, 8+3:0:0:0:1, 4+0:0:0:0:0, 5+0:0:0:0:0, 5+2:0:0:0:1, 1+0:0:0:0:0, 1+0:0:0:0:0, 4+5:0:0:0:0, 5+4:0:0:0:0, 1+0:0:0:0:0, 0+0:0:0:0:0, 2+1:0:0:0:0, 2+1:0:0:0:0, 1+0:0:0:0:0, 5+6:2:0:0:2, 4+0:0:0:0:0, 4+0:0:0:0:0, 6+5:0:0:0:1, 6+1:0:0:0:1, 6+2:0:0:0:0, 7+5:1:1:0:4, 4+4:0:0:0:0, 0+0:0:0:0:0, 6+5:0:0:0:0, 8+5:0:0:0:1, 6+1:0:0:0:0, 6+9:2:0:0:0, 5+0:0:0:0:0, 7+2:0:1:0:1, 7+2:0:0:0:0, 5+0:0:0:0:0, 5+2:0:0:0:0, 6+4:0:1:0:0, 2+2:0:0:0:0, 1+2:0:0:0:0, 6+2:0:0:0:0, 6+2:0:0:0:0, 5+3:0:0:0:0, 4+3:0:0:0:0, 6+1:0:0:0:0, 3+1:0:1:0:1, 3+2:0:1:0:1, 1+1:0:0:0:0, 4+1:0:0:0:0, 2+2:0:0:0:0, 2+0:0:0:0:0, 1+0:0:0:0:0, 1+1:0:0:0:0, 5+3:0:0:0:0, 3+1:0:0:0:0, 5+7:2:0:0:2, 5+0:0:0:0:0, 6+5:1:0:0:0, 7+6:1:0:0:1, 6+2:0:0:0:2, 4+0:0:0:0:0, 6+6:0:0:0:5, 5+2:0:0:0:0, 0+0:0:0:0:0, 6+2:0:0:0:0, 8+3:1:0:0:1, 5+1:0:0:0:0, 6+6:1:0:0:0, 5+2:0:0:0:0, 5+4:0:0:0:0, 7+2:0:0:0:0, 5+0:0:0:0:0, 5+2:0:0:0:0, 5+5:1:0:0:2, 3+4:0:0:0:0, 1+0:0:0:0:0, 5+1:0:0:0:0, 5+0:0:0:0:0, 8+6:0:1:0:2, 7+2:0:0:0:0, 4+1:1:0:0:0, 2+5:0:0:0:0, 2+4:1:0:0:1, 2+1:0:0:0:0, 4+2:0:0:0:0, 3+3:0:1:0:2, 3+3:0:0:0:1, 0+0:0:0:0:0, 2+1:0:0:0:0, 2+3:0:0:0:0, 3+1:0:0:0:0, 5+5:2:0:0:2, 4+0:0:0:0:0, 5+1:0:1:0:1, 5+1:0:0:0:0, 7+2:0:0:0:1, 4+0:0:0:0:0, 5+4:0:0:0:2, 5+4:0:0:0:0, 0+0:0:0:0:0, 7+2:0:0:0:0, 6+4:0:0:0:0, 4+0:0:0:0:0, 4+0:0:0:0:0, 1+0:0:0:0:0, 1+0:0:0:0:0, 1+0:0:0:0:0, 757+346:33:16:0:76
Bb minor (5b), 2+2:0:1:0:1,  , 3+1:1:0:0:1,  , 2+2:0:1:0:1,  , 3+1:1:0:0:1,  , 3+0:0:0:0:0, 2+0:0:0:0:0, 1+0:0:0:0:0, 3+1:1:0:0:1, 2+0:0:0:0:0, 6+2:0:0:0:0, 4+1:0:0:0:0, 0+0:0:0:0:0, 2+1:0:0:0:0, 3+1:0:0:0:0, 2+5:0:0:0:0, 2+0:0:0:0:0, 2+0:0:0:0:0, 7+2:0:0:0:0, 4+1:0:0:0:0, 2+2:0:0:0:0, 5+0:0:0:0:0, 5+2:0:0:0:1, 4+0:0:0:0:0, 4+0:0:0:0:0, 5+0:0:0:0:0, 8+2:0:0:0:1, 4+0:0:0:0:0, 3+1:1:0:0:1, 3+0:0:0:0:0, 2+0:0:0:0:0, 1+0:0:0:0:0, 2+0:0:0:0:0, 2+0:0:0:0:0, 0+0:0:0:0:0, 2+0:0:0:0:0, 7+5:2:0:0:3, 1+0:0:0:0:0, 3+1:1:0:0:1, 2+0:0:0:0:0, 4+1:1:0:0:1, 2+0:0:0:0:0, 2+1:0:0:0:0, 4+2:0:0:0:0, 3+1:1:0:0:1, 3+0:0:0:0:0, 7+3:0:0:0:2, 4+0:0:0:0:0, 5+1:0:0:0:0, 4+1:1:0:0:1, 3+2:2:0:0:2, 3+1:1:0:0:1, 4+1:0:0:0:0, 5+2:2:0:0:2, 7+2:0:0:0:0, 4+0:0:0:0:0, 5+0:0:0:0:0, 6+2:1:0:0:1, 4+0:0:0:0:0, 6+2:1:0:0:1, 5+0:0:0:0:0, 5+0:0:0:0:0, 8+4:0:0:0:0, 6+0:0:0:0:0, 5+3:1:0:0:1, 2+0:0:0:0:0, 1+0:0:0:0:0, 2+2:0:0:0:0, 4+2:0:0:0:0, 3+1:0:1:0:1, 3+2:0:1:0:0, 3+1:0:0:0:0, 7+4:3:0:0:3, 3+2:0:0:0:0, 2+2:0:0:0:0, 4+1:0:0:0:0, 4+1:1:0:0:1, 3+0:0:0:0:0, 2+0:0:0:0:0, 4+1:0:0:0:0, 2+1:0:0:0:0, 2+0:0:0:0:0, 7+3:0:0:0:0, 5+3:0:0:0:0, 0+0:0:0:0:0, 4+1:0:0:0:0, 5+1:0:0:0:0, 6+4:0:0:0:0, 4+1:1:0:0:1, 3+0:0:0:0:0, 9+4:0:0:0:3, 4+1:0:0:0:0, 2+0:0:0:0:0, 6+2:0:0:0:0, 9+3:0:0:0:0, 5+0:0:0:0:0, 1+0:0:0:0:0, 6+3:0:0:0:0, 6+3:0:1:0:2, 4+5:0:3:0:5, 5+2:2:0:0:0, 2+0:0:0:0:0, 1+0:0:0:0:0, 2+2:0:0:0:0, 4+1:0:0:0:0, 3+1:0:0:0:0, 0+1:0:0:0:0, 3+1:0:0:0:0, 6+5:2:0:0:2, 3+1:0:0:0:1, 4+1:0:0:0:0, 3+1:0:0:0:0, 4+2:2:0:0:2, 4+1:1:0:0:1, 4+1:0:0:0:0, 3+0:0:0:0:0, 3+0:0:0:0:0, 2+0:0:0:0:0, 9+3:0:0:0:1, 6+2:0:0:0:0, 1+0:0:0:0:0, 5+3:2:0:0:2, 4+1:0:0:0:0, 3+0:0:0:0:0, 3+0:0:0:0:0, 4+0:0:0:0:0, 7+3:0:0:0:2, 9+2:0:1:0:1, 1+2:1:0:0:1, 7+1:0:0:0:1, 7+3:0:0:0:0, 6+1:0:0:0:0, 1+0:0:0:0:0, 6+1:0:0:0:0, 10+6:1:1:0:3, 8+10:0:3:0:7, 4+3:3:0:0:3, 3+0:0:0:0:0, 3+1:1:0:0:1, 3+3:1:0:0:1, 4+3:0:0:0:0, 2+0:0:0:0:0, 0+2:0:0:0:0, 4+0:0:0:0:0, 6+8:2:0:0:2, 2+0:0:0:0:0, 5+3:1:0:0:1, 2+0:0:0:0:0, 4+1:1:0:0:1, 2+0:0:0:0:0, 2+0:0:0:0:0, 3+0:0:0:0:0, 3+0:0:0:0:0, 3+0:0:0:0:0, 6+2:0:0:0:1, 7+1:0:0:0:0, 1+0:0:0:0:0, 4+0:0:0:0:0, 3+0:0:0:0:0, 5+2:0:0:0:0, 7+2:0:0:0:0, 3+1:1:0:0:1, 6+3:0:0:0:0, 6+1:1:0:0:0, 3+0:0:0:0:0, 6+1:1:0:0:1, 8+2:0:1:0:1, 5+1:0:0:0:0, 2+0:0:0:0:0, 8+1:0:0:0:0, 6+3:0:0:0:0, 7+1:0:0:0:0, 5+3:3:0:0:3, 2+0:0:0:0:0, 2+1:0:1:0:0, 2+0:0:0:0:0, 4+1:0:0:0:0, 2+0:0:0:0:0, 0+0:0:0:0:0, 4+0:0:0:0:0, 5+5:2:0:0:2, 3+1:0:0:0:0, 3+0:0:0:0:0, 2+0:0:0:0:0, 2+0:0:0:0:0, 0+0:0:0:0:0, 0+0:0:0:0:0, 0+0:0:0:0:0, 706+230:51:15:0:83
G# minor (5#), 5+4:4:1:0:4,  , 4+3:1:0:0:1,  , 5+4:4:1:0:4,  , 4+3:1:0:0:1,  , 5+0:0:0:0:0, 5+0:0:0:0:0, 4+1:0:0:0:0, 4+1:1:0:0:0, 4+1:0:0:0:0, 3+1:0:0:0:0, 2+1:0:0:0:0, 0+0:0:0:0:0, 5+2:0:0:0:1, 4+0:0:0:0:0, 3+1:0:0:0:0, 3+1:0:0:0:0, 4+0:0:0:0:0, 3+3:0:0:0:1, 1+1:0:0:0:0, 1+0:0:0:0:0, 2+1:0:0:0:0, 2+2:0:0:0:0, 1+0:0:0:0:0, 1+0:0:0:0:0, 0+1:0:0:0:0, 4+4:0:0:0:2, 1+1:0:0:0:0, 5+3:1:0:0:1, 5+0:0:0:0:0, 5+0:0:0:0:0, 4+1:0:0:0:0, 4+0:0:0:0:0, 4+0:0:0:0:0, 5+3:0:0:0:2, 4+1:0:0:0:0, 2+1:0:0:0:0, 4+0:0:0:0:0, 6+2:1:0:0:1, 5+2:0:0:0:0, 5+0:0:0:0:0, 4+0:0:0:0:0, 6+1:0:0:0:1, 9+3:0:0:0:1, 4+0:0:0:0:0, 5+1:0:0:0:0, 5+2:0:0:0:1, 2+2:0:0:0:0, 1+0:0:0:0:0, 5+1:0:0:0:0, 4+0:0:0:0:0, 3+3:1:0:0:1, 4+2:1:0:0:1, 6+1:0:0:0:0, 4+4:0:0:0:0, 1+1:0:0:0:0, 2+2:0:0:0:0, 5+3:0:0:0:0, 1+1:0:0:0:0, 3+2:0:0:0:0, 2+2:0:0:0:0, 0+1:0:0:0:0, 4+6:0:0:0:3, 2+4:0:2:0:0, 5+2:1:0:0:2, 5+1:0:0:0:0, 4+0:0:0:0:0, 7+4:0:0:0:2, 4+0:0:0:0:0, 6+2:0:1:0:1, 8+5:0:1:0:4, 6+2:0:0:0:0, 3+1:0:0:0:0, 8+4:0:0:0:1, 6+2:0:0:0:0, 7+4:0:0:0:1, 6+8:1:0:0:0, 5+0:0:0:0:0, 5+0:0:0:0:0, 7+2:0:0:0:0, 5+1:0:0:0:1, 4+1:0:0:0:0, 3+1:0:0:0:0, 2+3:0:0:0:0, 0+0:0:0:0:0, 6+1:0:0:0:0, 7+1:0:0:0:1, 8+3:0:0:0:1, 4+0:0:0:0:0, 5+3:0:0:0:0, 5+2:0:0:0:0, 1+0:0:0:0:0, 1+0:0:0:0:0, 4+2:0:0:0:1, 5+4:1:0:0:1, 1+0:0:0:0:0, 0+0:0:0:0:0, 2+3:0:0:0:0, 2+5:0:0:0:1, 1+4:0:0:0:0, 5+6:2:0:0:2, 4+0:0:0:0:0, 4+0:0:0:0:0, 6+5:0:0:0:1, 6+1:0:0:0:1, 6+2:0:0:0:0, 7+5:1:1:0:4, 4+4:0:0:0:0, 0+0:0:0:0:0, 6+5:0:0:0:0, 8+5:0:0:0:1, 6+1:0:0:0:0, 6+9:2:0:0:0, 5+0:0:0:0:0, 7+2:0:1:0:1, 7+2:0:0:0:0, 5+0:0:0:0:0, 5+2:0:0:0:0, 6+4:0:1:0:0, 2+2:0:0:0:0, 1+2:0:0:0:0, 6+2:0:0:0:0, 6+2:0:0:0:0, 5+3:0:0:0:0, 4+3:0:0:0:0, 6+3:0:0:0:0, 3+2:0:1:0:0, 3+2:0:0:0:0, 1+1:0:0:0:1, 4+5:0:0:0:0, 2+2:0:0:0:0, 2+4:0:0:0:0, 1+0:0:0:0:0, 1+3:0:0:0:1, 6+3:0:0:0:2, 3+4:0:0:0:0, 5+7:2:0:0:2, 5+0:0:0:0:0, 6+1:1:0:0:1, 7+6:1:0:0:1, 6+2:0:0:0:2, 4+0:0:0:0:0, 6+6:0:0:0:5, 5+2:0:0:0:0, 0+0:0:0:0:0, 6+2:0:0:0:0, 8+3:1:0:0:1, 5+1:0:0:0:0, 6+6:1:0:0:0, 5+2:0:0:0:0, 5+0:0:0:0:0, 7+3:0:0:0:0, 5+0:0:0:0:0, 5+2:0:0:0:0, 5+5:1:0:0:2, 3+2:0:0:0:0, 1+0:0:0:0:0, 5+1:0:0:0:0, 5+0:0:0:0:0, 8+6:0:1:0:2, 7+2:0:0:0:0, 4+2:1:0:0:2, 2+2:0:0:0:0, 2+4:1:0:0:1, 2+2:0:0:0:0, 4+4:0:0:0:0, 3+2:0:1:0:0, 3+2:0:0:0:1, 0+0:0:0:0:0, 3+1:0:0:0:0, 2+5:0:0:0:3, 3+4:0:0:0:1, 5+5:2:0:0:4, 4+0:0:0:0:0, 5+1:0:1:0:1, 5+1:0:0:0:0, 7+2:0:0:0:1, 4+0:0:0:0:0, 5+4:0:0:0:2, 5+1:0:0:0:0, 0+0:0:0:0:0, 7+2:0:0:0:0, 6+2:0:0:0:0, 4+0:0:0:0:0, 4+0:0:0:0:0, 1+0:0:0:0:0, 1+0:0:0:0:0, 1+0:0:0:0:0, 759+363:34:13:0:89
Gb major (6b), 2+1:0:0:0:1,  , 4+1:1:0:0:1,  , 2+2:0:1:0:0,  , 4+1:1:0:0:1,  , 3+0:0:0:0:0, 3+0:0:0:0:0, 2+0:0:0:0:0, 3+1:1:0:0:1, 2+0:0:0:0:0, 6+2:0:0:0:0, 4+0:0:0:0:0, 1+0:0:0:0:0, 3+1:0:0:0:0, 3+0:0:0:0:0, 3+0:0:0:0:0, 3+0:0:0:0:0, 2+0:0:0:0:0, 7+1:0:0:0:0, 4+0:0:0:0:0, 2+1:1:0:0:1, 5+0:0:0:0:0, 5+1:0:0:0:0, 4+0:0:0:0:0, 4+0:0:0:0:0, 5+0:0:0:0:0, 8+2:0:0:0:1, 4+0:0:0:0:0, 4+1:1:0:0:1, 3+0:0:0:0:0, 3+0:0:0:0:0, 2+0:0:0:0:0, 2+0:0:0:0:0, 2+0:0:0:0:0, 0+1:0:0:0:0, 3+0:0:0:0:0, 7+5:2:0:0:3, 2+0:0:0:0:0, 4+1:1:0:0:1, 3+0:0:0:0:0, 5+1:1:0:0:1, 2+0:0:0:0:0, 3+1:0:0:0:0, 5+2:0:0:0:0, 3+1:1:0:0:1, 3+0:0:0:0:0, 7+3:0:0:0:2, 4+0:0:0:0:0, 5+0:0:0:0:0, 5+1:0:0:0:1, 3+2:2:0:0:2, 4+1:1:0:0:1, 5+1:0:0:0:0, 5+2:2:0:0:2, 7+2:0:0:0:0, 4+0:0:0:0:0, 5+0:0:0:0:0, 6+2:1:0:0:1, 4+0:0:0:0:0, 6+2:1:0:0:1, 5+0:0:0:0:0, 5+0:0:0:0:0, 8+4:0:0:0:0, 6+0:0:0:0:0, 6+3:1:0:0:1, 3+0:0:0:0:0, 2+0:0:0:0:0, 3+2:0:0:0:0, 4+2:0:0:0:0, 3+1:0:1:0:0, 4+2:0:1:0:1, 4+1:0:0:0:0, 7+4:3:0:0:3, 4+2:0:0:0:1, 3+3:0:0:0:0, 5+2:0:0:0:1, 5+3:1:0:0:1, 3+0:0:0:0:0, 3+0:0:0:0:0, 5+1:0:0:0:0, 2+1:0:0:0:0, 2+0:0:0:0:0, 7+3:0:0:0:0, 5+0:0:0:0:0, 1+0:0:0:0:0, 5+0:0:0:0:0, 5+1:0:0:0:0, 7+2:0:0:0:0, 5+1:1:0:0:1, 3+0:0:0:0:0, 9+2:0:0:0:1, 4+0:0:0:0:0, 2+0:0:0:0:0, 7+2:0:0:0:0, 9+3:0:0:0:0, 5+0:0:0:0:0, 1+0:0:0:0:0, 6+3:0:0:0:0, 6+1:0:0:0:0, 4+0:0:0:0:0, 6+4:0:0:0:0, 2+0:0:0:0:0, 2+0:0:0:0:0, 3+2:0:0:0:0, 4+1:0:0:0:0, 3+1:0:0:0:0, 1+1:0:0:0:0, 4+1:0:0:0:1, 6+5:2:0:0:4, 4+1:0:0:0:1, 5+1:0:0:0:0, 4+1:0:0:0:0, 5+5:2:0:0:2, 4+1:1:0:0:1, 5+1:0:0:0:0, 4+0:0:0:0:0, 3+0:0:0:0:0, 2+0:0:0:0:0, 9+3:0:0:0:1, 6+2:0:0:0:0, 1+0:0:0:0:0, 6+3:0:0:0:2, 5+1:0:0:0:0, 4+0:0:0:0:0, 4+0:0:0:0:0, 5+1:0:0:0:0, 8+1:0:0:0:0, 9+2:0:1:0:1, 1+2:1:0:0:1, 7+1:0:0:0:0, 7+2:0:0:0:0, 6+0:0:0:0:0, 1+0:0:0:0:0, 6+1:0:0:0:0, 10+6:1:1:0:3, 8+6:0:3:0:6, 5+4:2:0:0:0, 3+1:0:0:0:0, 4+1:1:0:0:1, 4+3:1:0:0:1, 4+3:0:0:0:0, 2+0:0:0:0:0, 0+1:0:0:0:0, 5+0:0:0:0:0, 6+7:0:0:0:2, 3+0:0:0:0:0, 6+3:1:0:0:1, 3+0:0:0:0:0, 5+4:1:0:0:1, 3+0:0:0:0:0, 3+1:0:0:0:0, 4+2:0:0:0:0, 3+0:0:0:0:0, 3+0:0:0:0:0, 6+2:0:0:0:1, 7+1:0:0:0:0, 1+0:0:0:0:0, 5+0:0:0:0:0, 3+0:0:0:0:0, 6+2:0:0:0:0, 8+2:0:0:0:0, 3+1:1:0:0:0, 6+0:0:0:0:0, 6+1:1:0:0:0, 3+0:0:0:0:0, 6+1:1:0:0:1, 8+2:0:1:0:1, 5+1:0:0:0:0, 2+0:0:0:0:0, 8+1:0:0:0:0, 6+3:0:0:0:0, 7+1:0:0:0:0, 6+3:3:0:0:3, 2+0:0:0:0:0, 3+1:0:1:0:0, 3+3:0:0:0:0, 5+1:0:0:0:0, 2+0:0:0:0:0, 0+1:0:0:0:0, 5+0:0:0:0:0, 5+4:0:0:0:2, 4+1:0:0:0:0, 4+0:0:0:0:0, 2+0:0:0:0:0, 2+0:0:0:0:0, 0+0:0:0:0:0, 0+0:0:0:0:0, 0+0:0:0:0:0, 782+210:42:10:0:70
F# major (6#), 5+5:4:1:0:4,  , 4+2:1:0:0:2,  , 5+5:4:1:0:4,  , 4+3:1:0:0:1,  , 5+0:0:0:0:0, 5+3:0:0:0:0, 4+1:0:0:0:1, 4+1:1:0:0:0, 4+1:0:0:0:0, 4+1:0:0:0:0, 2+0:0:0:0:0, 0+0:0:0:0:0, 5+2:0:0:0:1, 5+0:0:0:0:0, 4+1:0:0:0:0, 4+0:0:0:0:0, 4+1:0:0:0:0, 4+3:1:1:0:1, 2+1:0:0:0:0, 2+3:0:0:0:0, 3+1:0:0:0:0, 3+2:0:0:0:0, 2+1:0:0:0:0, 2+2:0:0:0:0, 0+0:0:0:0:0, 3+2:0:0:0:1, 0+0:0:0:0:0, 5+3:1:0:0:1, 5+0:0:0:0:0, 5+3:0:0:0:0, 4+1:0:0:0:1, 4+0:0:0:0:0, 4+0:0:0:0:0, 5+3:0:0:0:2, 4+0:0:0:0:0, 3+1:0:0:0:0, 4+4:0:0:0:0, 6+2:0:0:0:1, 5+2:0:0:0:0, 5+0:0:0:0:0, 4+0:0:0:0:0, 6+1:0:0:0:1, 9+3:0:0:0:1, 4+0:0:0:0:0, 5+1:0:0:0:0, 6+2:0:0:0:1, 2+0:0:0:0:0, 1+0:0:0:0:0, 6+1:0:0:0:0, 4+0:0:0:0:0, 4+3:1:0:0:1, 5+2:0:0:0:0, 6+1:0:0:0:0, 5+4:0:0:0:0, 2+1:0:0:0:0, 3+2:0:0:0:0, 5+3:1:0:0:1, 2+1:0:0:0:0, 4+2:0:0:0:0, 3+2:0:0:0:0, 0+0:0:0:0:0, 3+4:0:0:0:0, 1+2:0:2:0:0, 5+2:1:0:0:2, 5+1:0:0:0:0, 4+0:0:0:0:0, 7+4:0:0:0:2, 5+0:0:0:0:0, 6+2:0:1:0:1, 8+5:0:1:0:4, 6+2:0:0:0:0, 4+1:0:0:0:0, 8+5:0:0:0:1, 6+3:0:0:0:1, 8+4:0:0:0:1, 6+8:1:0:0:0, 5+0:0:0:0:0, 5+4:0:0:0:0, 7+3:0:0:0:1, 5+1:0:0:0:1, 4+1:0:0:0:0, 4+1:0:0:0:0, 2+0:0:0:0:0, 0+0:0:0:0:0, 7+2:0:0:0:0, 7+1:0:0:0:1, 9+3:0:0:0:1, 5+0:0:0:0:0, 5+3:0:0:0:0, 6+2:0:0:0:0, 2+3:0:0:0:0, 2+2:0:0:0:0, 5+2:0:0:0:1, 6+4:1:0:0:1, 2+2:0:0:0:0, 0+0:0:0:0:0, 2+1:0:0:0:0, 1+1:0:0:0:0, 0+0:0:0:0:0, 5+6:2:0:0:2, 4+0:0:0:0:0, 4+0:0:0:0:0, 6+5:0:0:0:1, 6+1:0:0:0:1, 6+2:0:0:0:0, 7+7:0:0:0:2, 4+0:0:0:0:0, 1+1:0:0:0:1, 6+5:0:0:0:0, 8+5:0:0:0:1, 6+1:0:0:0:0, 6+9:2:0:0:0, 5+0:0:0:0:0, 7+2:0:1:0:1, 7+2:0:0:0:0, 5+0:0:0:0:0, 5+2:0:0:0:0, 7+4:0:1:0:0, 3+1:0:0:0:0, 1+0:0:0:0:0, 6+2:0:0:0:0, 7+2:0:0:0:0, 6+3:0:0:0:0, 5+0:0:0:0:0, 7+3:0:0:0:0, 4+2:0:1:0:0, 4+4:0:1:0:0, 1+1:0:0:0:0, 4+5:5:4:0:5, 3+2:0:0:0:0, 3+4:0:0:0:0, 1+0:0:0:0:0, 2+2:0:0:0:0, 4+3:0:0:0:0, 2+1:0:0:0:0, 5+7:2:0:0:2, 5+0:0:0:0:0, 6+1:1:0:0:1, 7+6:1:0:0:1, 7+2:0:0:0:2, 4+0:0:0:0:0, 6+6:0:0:0:2, 6+2:0:0:0:0, 1+0:0:0:0:0, 6+2:0:0:0:0, 8+3:1:0:0:1, 5+1:0:0:0:0, 6+6:1:0:0:0, 5+2:0:0:0:0, 5+0:0:0:0:0, 7+3:0:0:0:0, 5+0:0:0:0:0, 5+2:0:0:0:0, 6+5:1:0:0:2, 4+2:0:0:0:0, 1+0:0:0:0:0, 6+1:0:0:0:0, 5+0:0:0:0:0, 9+6:0:1:0:2, 8+2:0:0:0:0, 4+2:1:0:0:2, 3+2:0:0:0:0, 3+4:1:0:0:1, 3+2:0:0:0:0, 4+4:1:0:0:1, 4+2:0:1:0:0, 5+3:0:0:0:0, 0+0:0:0:0:0, 1+1:0:0:0:0, 1+3:0:0:0:0, 2+1:0:0:0:0, 5+5:2:0:0:4, 4+0:0:0:0:0, 5+1:0:1:0:1, 5+1:0:0:0:0, 7+2:0:0:0:1, 4+0:0:0:0:0, 5+4:0:0:0:2, 6+1:0:0:0:0, 1+1:0:0:0:0, 7+2:0:0:0:0, 6+3:0:0:0:2, 4+0:0:0:0:0, 4+0:0:0:0:0, 0+0:0:0:0:0, 0+0:0:0:0:0, 0+0:0:0:0:0, 806+358:39:18:0:84
Eb minor (6b), 2+0:0:0:0:0,  , 4+2:1:0:0:1,  , 2+2:0:1:0:0,  , 4+1:1:0:0:1,  , 3+0:0:0:0:0, 3+0:0:0:0:0, 2+0:0:0:0:0, 3+1:1:0:0:1, 2+0:0:0:0:0, 6+2:0:0:0:0, 4+1:0:0:0:0, 0+0:0:0:0:0, 3+1:0:0:0:0, 3+1:0:0:0:0, 3+5:0:0:0:0, 3+0:0:0:0:0, 2+0:0:0:0:0, 7+1:0:0:0:0, 4+0:0:0:0:0, 2+1:1:0:0:1, 5+0:0:0:0:0, 5+1:0:0:0:0, 4+0:0:0:0:0, 4+0:0:0:0:0, 5+0:0:0:0:0, 8+2:0:0:0:1, 4+0:0:0:0:0, 4+1:1:0:0:1, 3+0:0:0:0:0, 3+0:0:0:0:0, 2+0:0:0:0:0, 2+0:0:0:0:0, 2+0:0:0:0:0, 0+1:0:0:0:0, 3+0:0:0:0:0, 7+5:2:0:0:3, 2+0:0:0:0:0, 4+1:1:0:0:1, 3+0:0:0:0:0, 5+1:1:0:0:1, 2+0:0:0:0:0, 3+1:0:0:0:0, 5+2:0:0:0:0, 3+1:1:0:0:1, 3+0:0:0:0:0, 7+3:0:0:0:2, 4+0:0:0:0:0, 5+0:0:0:0:0, 5+1:0:0:0:1, 3+2:2:0:0:2, 5+3:0:0:0:0, 5+1:0:0:0:0, 5+2:2:0:0:2, 7+2:0:0:0:2, 4+0:0:0:0:0, 5+0:0:0:0:0, 6+2:1:0:0:1, 4+0:0:0:0:0, 6+2:1:0:0:1, 5+0:0:0:0:0, 5+0:0:0:0:0, 8+4:0:0:0:0, 6+0:0:0:0:0, 6+3:1:0:0:1, 3+0:0:0:0:0, 2+0:0:0:0:0, 3+2:0:0:0:0, 4+2:0:0:0:0, 3+1:0:1:0:0, 4+2:0:1:0:0, 4+1:0:0:0:0, 7+8:3:0:0:7, 4+2:0:0:0:1, 3+3:0:0:0:0, 5+2:0:0:0:1, 5+3:1:0:0:1, 3+0:0:0:0:0, 3+0:0:0:0:0, 5+1:0:0:0:0, 2+1:0:0:0:0, 2+0:0:0:0:0, 7+3:0:0:0:0, 5+3:0:0:0:0, 0+0:0:0:0:0, 5+1:0:0:0:0, 5+1:0:0:0:0, 7+4:0:0:0:0, 5+1:1:0:0:1, 3+0:0:0:0:0, 9+2:0:0:0:1, 4+0:0:0:0:0, 2+0:0:0:0:0, 7+2:0:0:0:0, 9+3:0:0:0:0, 5+0:0:0:0:0, 1+0:0:0:0:0, 6+3:0:0:0:0, 6+1:0:0:0:0, 4+0:0:0:0:0, 6+4:0:0:0:0, 2+0:0:0:0:0, 2+0:0:0:0:0, 3+2:0:0:0:0, 4+1:0:0:0:0, 3+1:0:0:0:0, 1+1:0:0:0:0, 4+1:0:0:0:1, 6+5:2:0:0:4, 4+1:0:0:0:1, 5+1:0:0:0:0, 4+1:0:0:0:0, 5+5:2:0:0:2, 4+1:1:0:0:1, 5+1:0:0:0:0, 4+0:0:0:0:0, 3+0:0:0:0:0, 2+0:0:0:0:0, 9+3:0:0:0:1, 6+2:0:0:0:0, 1+0:0:0:0:0, 6+3:2:0:0:2, 5+1:0:0:0:0, 4+1:0:0:0:0, 4+0:0:0:0:0, 5+1:0:0:0:0, 8+1:0:0:0:0, 9+2:0:1:0:1, 1+2:1:0:0:1, 7+1:0:0:0:0, 7+2:0:0:0:0, 6+0:0:0:0:0, 1+0:0:0:0:0, 6+1:0:0:0:0, 10+3:0:0:0:0, 8+1:0:0:0:0, 5+3:3:0:0:3, 3+0:0:0:0:0, 4+1:1:0:0:1, 4+3:1:0:0:1, 4+3:0:0:0:0, 2+0:0:0:0:0, 0+1:0:0:0:0, 5+1:0:0:0:0, 6+8:2:0:0:6, 3+0:0:0:0:0, 6+3:1:0:0:1, 3+0:0:0:0:0, 5+4:1:0:0:1, 3+0:0:0:0:0, 3+1:0:0:0:0, 4+2:0:0:0:0, 3+0:0:0:0:0, 3+0:0:0:0:0, 6+2:0:0:0:1, 7+1:0:0:0:0, 1+0:0:0:0:0, 5+0:0:0:0:0, 3+0:0:0:0:0, 6+2:0:0:0:0, 8+2:0:0:0:0, 3+1:1:0:0:0, 6+0:0:0:0:0, 6+1:1:0:0:0, 3+0:0:0:0:0, 6+1:1:0:0:1, 8+2:0:1:0:1, 5+1:0:0:0:0, 2+0:0:0:0:0, 8+1:0:0:0:0, 6+3:0:0:0:0, 7+1:0:0:0:0, 6+3:3:0:0:3, 2+0:0:0:0:0, 3+1:0:1:0:0, 3+3:0:0:0:0, 5+1:0:0:0:0, 2+0:0:0:0:0, 0+1:0:0:0:0, 5+2:0:0:0:0, 5+4:2:0:0:4, 4+1:0:0:0:0, 4+0:0:0:0:0, 2+0:0:0:0:0, 2+0:0:0:0:0, 0+0:0:0:0:0, 0+0:0:0:0:0, 0+0:0:0:0:0, 781+224:47:6:0:73
D# minor (6#), 5+5:4:1:0:5,  , 4+2:1:0:0:2,  , 5+4:4:1:0:4,  , 4+2:1:0:0:1,  , 5+0:0:0:0:0, 5+3:0:0:0:0, 4+1:0:0:0:1, 4+1:1:0:0:0, 4+1:0:0:0:0, 4+1:0:0:0:0, 2+0:0:0:0:0, 0+0:0:0:0:0, 5+2:0:0:0:1, 5+0:0:0:0:0, 4+1:0:0:0:0, 4+0:0:0:0:0, 4+1:0:0:0:0, 4+3:1:1:0:1, 2+1:0:0:0:0, 2+0:0:0:0:0, 3+1:0:0:0:0, 3+2:0:0:0:0, 2+1:0:0:0:0, 2+0:0:0:0:0, 0+1:0:0:0:0, 3+4:0:0:0:2, 0+1:0:0:0:0, 5+3:1:0:0:1, 5+0:0:0:0:0, 5+3:0:0:0:0, 4+1:0:0:0:1, 4+0:0:0:0:0, 4+0:0:0:0:0, 5+3:0:0:0:2, 4+0:0:0:0:0, 3+1:0:0:0:0, 4+4:0:0:0:0, 6+2:0:0:0:1, 5+2:0:0:0:0, 5+0:0:0:0:0, 4+0:0:0:0:0, 6+1:0:0:0:1, 9+3:0:0:0:1, 4+0:0:0:0:0, 5+1:0:0:0:0, 6+2:0:0:0:1, 2+0:0:0:0:0, 1+0:0:0:0:0, 6+1:0:0:0:0, 4+0:0:0:0:0, 4+3:1:0:0:1, 5+2:0:0:0:0, 6+1:0:0:0:0, 5+4:0:0:0:0, 2+1:0:0:0:0, 3+2:0:0:0:0, 5+3:1:0:0:1, 2+1:0:0:0:0, 4+2:0:0:0:0, 3+2:0:0:0:0, 0+0:0:0:0:0, 3+4:0:0:0:0, 1+2:0:2:0:0, 5+2:1:0:0:2, 5+1:0:0:0:0, 4+0:0:0:0:0, 7+4:0:0:0:2, 5+0:0:0:0:0, 6+2:0:1:0:1, 8+5:0:1:0:4, 6+2:0:0:0:0, 4+1:0:0:0:0, 8+4:0:0:0:1, 6+2:0:0:0:0, 8+4:0:0:0:1, 6+8:1:0:0:0, 5+0:0:0:0:0, 5+4:0:0:0:0, 7+3:0:0:0:1, 5+1:0:0:0:1, 4+1:0:0:0:0, 4+1:0:0:0:0, 2+0:0:0:0:0, 0+0:0:0:0:0, 7+2:0:0:0:0, 7+1:0:0:0:1, 9+3:0:0:0:1, 5+0:0:0:0:0, 5+3:0:0:0:0, 6+2:0:0:0:0, 2+3:0:0:0:0, 2+2:0:0:0:0, 5+2:0:0:0:1, 6+4:1:0:0:1, 2+2:0:0:0:0, 0+0:0:0:0:0, 2+1:0:0:0:1, 1+5:0:0:0:1, 0+4:0:0:0:0, 5+5:2:0:0:2, 4+0:0:0:0:0, 4+0:0:0:0:0, 6+5:0:0:0:1, 6+1:0:0:0:1, 6+2:0:0:0:0, 7+7:0:0:0:2, 4+0:0:0:0:0, 1+1:0:0:0:1, 6+5:0:0:0:0, 8+5:0:0:0:1, 6+1:0:0:0:0, 6+9:2:0:0:0, 5+0:0:0:0:0, 7+2:0:1:0:1, 7+2:0:0:0:0, 5+0:0:0:0:0, 5+2:0:0:0:0, 7+4:0:1:0:0, 3+1:0:0:0:0, 1+0:0:0:0:0, 6+2:0:0:0:0, 7+2:0:0:0:0, 6+3:0:0:0:0, 5+0:0:0:0:0, 7+3:0:0:0:0, 4+2:0:1:0:0, 4+2:0:0:0:0, 1+1:0:1:0:0, 4+5:5:4:0:5, 3+2:0:0:0:0, 3+4:0:0:0:0, 1+0:0:0:0:0, 2+3:0:0:0:1, 5+3:0:0:0:2, 2+4:0:0:0:0, 5+7:2:0:0:2, 5+0:0:0:0:0, 6+1:1:0:0:1, 7+6:1:0:0:1, 7+2:0:0:0:2, 4+0:0:0:0:0, 6+6:0:0:0:2, 6+2:0:0:0:0, 1+0:0:0:0:0, 6+2:0:0:0:0, 8+3:1:0:0:1, 5+1:0:0:0:0, 6+6:1:0:0:0, 5+2:0:0:0:0, 5+0:0:0:0:0, 7+3:0:0:0:0, 5+0:0:0:0:0, 5+2:0:0:0:0, 6+5:1:0:0:2, 4+2:0:0:0:0, 1+0:0:0:0:0, 6+1:0:0:0:0, 5+0:0:0:0:0, 9+6:0:1:0:2, 8+2:0:0:0:0, 4+2:1:0:0:2, 3+2:0:0:0:0, 3+4:1:0:0:1, 3+2:0:0:0:0, 4+4:1:0:0:1, 4+2:0:1:0:0, 5+3:0:0:0:0, 0+0:0:0:0:0, 2+1:0:0:0:0, 1+5:0:0:0:3, 2+1:0:0:0:0, 5+5:2:0:0:4, 4+0:0:0:0:0, 5+1:0:1:0:1, 5+1:0:0:0:0, 7+2:0:0:0:1, 4+0:0:0:0:0, 5+4:0:0:0:2, 6+1:0:0:0:0, 1+1:0:0:0:0, 7+2:0:0:0:0, 6+3:0:0:0:2, 4+0:0:0:0:0, 4+0:0:0:0:0, 0+0:0:0:0:0, 0+0:0:0:0:0, 0+0:0:0:0:0, 808+364:39:18:0:93
Cb major (7b), 1+1:0:0:0:1,  , 4+2:1:0:0:1,  , 1+0:0:0:0:0,  , 4+1:1:0:0:1,  , 4+0:0:0:0:0, 3+0:0:0:0:0, 3+0:0:0:0:0, 4+1:1:0:0:1, 2+0:0:0:0:0, 6+0:0:0:0:0, 4+0:0:0:0:0, 1+0:0:0:0:0, 4+2:0:0:0:1, 4+0:0:0:0:0, 3+0:0:0:0:0, 4+0:0:0:0:0, 3+0:0:0:0:0, 7+2:0:0:0:0, 4+0:0:0:0:0, 2+1:1:0:0:1, 5+0:0:0:0:0, 6+1:0:0:0:0, 4+0:0:0:0:0, 4+0:0:0:0:0, 5+0:0:0:0:0, 8+2:0:0:0:1, 4+0:0:0:0:0, 4+1:1:0:0:1, 4+0:0:0:0:0, 3+0:0:0:0:0, 3+0:0:0:0:0, 3+0:0:0:0:0, 2+0:0:0:0:0, 1+0:0:0:0:0, 4+0:0:0:0:0, 7+1:0:0:0:0, 2+0:0:0:0:0, 5+1:1:0:0:1, 4+0:0:0:0:0, 5+1:1:0:0:1, 3+0:0:0:0:0, 3+1:0:0:0:0, 6+3:0:0:0:2, 4+1:1:0:0:1, 3+1:0:0:0:0, 8+2:0:0:0:1, 4+0:0:0:0:0, 5+0:0:0:0:0, 6+1:0:0:0:1, 4+2:2:0:0:2, 4+1:1:0:0:1, 6+1:0:0:0:0, 6+2:2:0:0:2, 7+2:0:0:0:0, 4+0:0:0:0:0, 5+0:0:0:0:0, 6+2:1:0:0:1, 4+0:0:0:0:0, 6+2:1:0:0:1, 5+0:0:0:0:0, 5+0:0:0:0:0, 8+4:0:2:0:3, 6+6:0:4:0:6, 6+3:1:1:0:2, 4+0:0:0:0:0, 2+0:0:0:0:0, 4+2:0:0:0:0, 5+2:0:0:0:0, 4+1:0:1:0:0, 4+2:0:1:0:1, 5+1:0:0:0:0, 7+4:3:0:0:3, 4+2:0:1:0:0, 4+3:0:0:0:0, 6+2:0:0:0:1, 5+1:1:0:0:1, 4+0:0:0:0:0, 3+0:0:0:0:0, 6+1:0:0:0:0, 3+1:0:0:0:0, 2+0:0:0:0:0, 7+0:0:0:0:0, 5+0:0:0:0:0, 1+0:0:0:0:0, 6+1:0:0:0:0, 6+1:0:0:0:0, 7+2:0:0:0:0, 6+1:1:0:0:1, 4+0:0:0:0:0, 9+2:0:0:0:1, 4+0:0:0:0:0, 2+0:0:0:0:0, 7+1:0:0:0:0, 9+3:0:0:0:0, 5+0:0:0:0:0, 1+0:0:0:0:0, 6+3:0:0:0:0, 6+1:0:0:0:0, 4+0:0:0:0:0, 6+4:0:0:0:0, 3+0:0:0:0:0, 2+0:0:0:0:0, 4+2:0:0:0:2, 5+1:0:0:0:0, 4+1:0:0:0:0, 2+1:0:0:0:0, 5+1:0:0:0:0, 6+5:2:0:0:2, 4+1:0:0:0:1, 6+1:0:0:0:0, 5+1:0:0:0:0, 5+2:2:0:0:2, 5+1:1:0:0:1, 4+1:0:1:0:1, 5+0:0:0:0:0, 4+0:0:0:0:0, 3+0:0:0:0:0, 10+3:0:0:0:1, 6+0:0:0:0:0, 1+0:0:0:0:0, 7+3:2:0:0:2, 6+1:0:0:0:0, 5+0:0:0:0:0, 5+0:0:0:0:0, 6+1:0:0:0:0, 8+1:0:0:0:0, 9+2:0:1:0:1, 3+1:0:0:0:0, 7+1:0:0:0:0, 7+2:0:0:0:0, 6+0:0:0:0:0, 1+0:0:0:0:0, 6+1:0:0:0:0, 10+6:1:1:0:3, 8+7:0:3:0:6, 5+4:2:0:0:0, 4+1:0:0:0:0, 4+1:1:0:0:1, 5+3:1:0:0:1, 5+2:0:0:0:0, 2+0:0:0:0:0, 1+2:0:0:0:0, 6+0:0:0:0:0, 6+8:2:0:0:2, 4+0:0:0:0:0, 7+3:1:0:0:1, 4+0:0:0:0:0, 5+4:1:0:0:1, 4+0:0:0:0:0, 3+0:0:0:0:0, 5+0:0:0:0:0, 4+0:0:0:0:0, 3+0:0:0:0:0, 7+2:1:0:0:1, 7+1:0:0:0:0, 1+0:0:0:0:0, 6+0:0:0:0:0, 4+0:0:0:0:0, 6+2:0:0:0:0, 9+2:0:0:0:0, 4+1:1:0:0:1, 6+3:0:0:0:0, 6+1:1:0:0:0, 3+0:0:0:0:0, 6+1:1:0:0:1, 8+2:0:1:0:1, 6+1:0:0:0:0, 2+0:0:0:0:0, 8+1:0:0:0:0, 6+3:0:0:0:0, 7+1:0:0:0:0, 6+3:3:0:0:3, 3+0:0:0:0:0, 3+1:0:1:0:0, 4+3:0:0:0:0, 6+1:0:0:0:0, 2+0:0:0:0:0, 1+0:0:0:0:0, 6+0:0:0:0:0, 5+4:0:0:0:2, 4+1:0:1:0:1, 5+0:0:0:0:0, 3+0:0:0:0:0, 3+0:0:0:0:0, 1+0:0:0:0:0, 1+0:0:0:0:0, 1+0:0:0:0:0, 864+201:44:19:0:79
C# major (7#), 5+5:4:1:0:5,  , 4+2:1:0:0:1,  , 5+4:4:1:0:4,  , 4+2:1:0:0:1,  , 5+1:0:0:0:0, 5+0:0:0:0:0, 4+1:0:0:0:0, 4+2:1:0:0:1, 4+0:0:0:0:0, 5+0:0:0:0:0, 2+0:0:0:0:0, 0+0:0:0:0:0, 5+1:0:0:0:1, 5+0:0:0:0:0, 4+1:0:0:0:0, 4+0:0:0:0:0, 4+1:0:0:0:0, 5+3:1:1:0:1, 2+0:0:0:0:0, 2+0:0:0:0:0, 4+1:0:0:0:0, 4+2:0:0:0:0, 2+0:0:0:0:0, 2+0:0:0:0:0, 1+3:0:0:0:0, 4+3:0:0:0:0, 0+0:0:0:0:0, 5+3:1:0:0:1, 5+1:0:0:0:0, 5+0:0:0:0:0, 4+1:0:0:0:0, 4+1:0:0:0:0, 4+0:0:0:0:0, 5+3:0:0:0:2, 4+0:0:0:0:0, 4+1:0:0:0:0, 4+0:0:0:0:0, 6+2:1:0:0:1, 5+1:0:0:0:0, 5+0:0:0:0:0, 4+1:0:0:0:0, 6+1:0:0:0:1, 9+3:0:0:0:1, 4+4:1:0:0:0, 5+1:0:0:0:0, 7+2:0:0:0:1, 2+0:0:0:0:0, 2+0:0:0:0:0, 6+1:0:0:0:0, 4+0:0:0:0:0, 4+3:1:0:0:1, 5+2:0:0:0:0, 6+1:0:0:0:0, 6+4:0:0:0:0, 2+1:0:0:0:0, 3+2:0:0:0:0, 6+3:1:0:0:1, 3+1:0:0:0:0, 4+2:0:0:0:0, 4+2:0:0:0:0, 1+0:0:0:0:0, 4+4:0:0:0:0, 0+0:0:0:0:0, 5+2:1:0:0:2, 5+1:0:0:0:0, 4+0:0:0:0:0, 7+4:0:0:0:2, 5+0:0:0:0:0, 6+2:0:1:0:1, 8+5:0:1:0:4, 6+2:0:0:0:0, 5+1:0:0:0:0, 8+4:0:0:0:1, 6+2:0:0:0:0, 8+4:0:0:0:1, 6+0:0:0:0:0, 5+2:0:0:0:0, 5+0:0:0:0:0, 7+2:0:0:0:0, 5+3:0:0:0:0, 4+0:0:0:0:0, 5+0:0:0:0:0, 3+0:0:0:0:0, 0+0:0:0:0:0, 7+2:0:0:0:0, 7+1:0:0:0:1, 9+3:0:0:0:1, 5+0:0:0:0:0, 5+3:0:0:0:0, 7+2:0:0:0:0, 2+0:0:0:0:0, 2+0:0:0:0:0, 6+2:0:0:0:1, 7+4:1:0:0:1, 2+0:0:0:0:0, 0+0:0:0:0:0, 3+5:0:0:0:0, 2+2:0:0:0:0, 0+0:0:0:0:0, 6+5:2:0:0:2, 4+1:0:0:0:0, 4+0:0:0:0:0, 6+5:0:0:0:1, 6+3:0:0:0:0, 6+2:0:0:0:0, 7+7:0:0:0:2, 5+0:0:0:0:0, 2+1:0:0:0:0, 6+1:0:0:0:0, 8+2:0:0:0:0, 6+3:0:0:0:1, 6+0:0:0:0:0, 5+5:1:0:0:0, 7+2:0:1:0:1, 7+2:0:0:0:0, 5+2:0:0:0:0, 5+1:0:0:0:0, 8+2:0:1:0:1, 4+1:0:0:0:0, 1+0:0:0:0:0, 6+2:0:0:0:0, 7+2:0:0:0:0, 6+3:0:0:0:0, 5+0:0:0:0:0, 7+3:0:0:0:0, 5+2:0:1:0:0, 5+2:0:0:0:0, 1+1:0:1:0:0, 5+5:5:4:0:5, 4+2:0:0:0:0, 3+4:0:0:0:0, 1+0:0:0:0:0, 3+3:0:0:0:1, 5+4:0:0:0:1, 3+1:0:0:0:0, 5+7:2:0:0:2, 5+1:0:0:0:0, 6+1:1:0:0:1, 7+6:1:0:0:1, 7+2:0:0:0:2, 4+0:0:0:0:0, 6+5:0:0:0:2, 6+2:0:0:0:0, 2+0:0:0:0:0, 6+2:0:0:0:0, 8+3:1:0:0:1, 5+2:0:0:0:0, 6+0:0:0:0:0, 5+1:0:0:0:0, 5+0:0:0:0:0, 7+3:0:0:0:0, 5+3:0:0:0:0, 5+2:0:0:0:0, 7+5:1:0:0:2, 4+2:0:0:0:0, 1+0:0:0:0:0, 6+1:0:0:0:0, 5+0:0:0:0:0, 9+6:0:1:0:2, 9+2:0:0:0:0, 4+2:1:0:0:2, 4+2:0:0:0:0, 4+4:1:0:0:1, 3+2:0:0:0:0, 5+4:1:0:0:1, 5+2:0:1:0:0, 5+3:0:0:0:0, 1+0:0:0:0:0, 2+1:0:0:0:0, 2+3:0:0:0:0, 2+1:0:0:0:0, 5+5:2:0:0:4, 4+0:0:0:0:0, 5+1:0:1:0:1, 5+1:0:0:0:0, 7+3:0:0:0:0, 4+0:0:0:0:0, 5+4:0:0:0:2, 6+1:0:0:0:0, 2+0:0:0:0:0, 7+2:0:0:0:0, 6+2:0:0:0:0, 4+1:0:0:0:0, 4+0:0:0:0:0, 0+0:0:0:0:0, 0+0:0:0:0:0, 0+0:0:0:0:0, 851+320:38:16:0:77
Ab minor (7b), 1+0:0:0:0:0,  , 4+2:1:0:0:1,  , 1+1:0:1:0:0,  , 4+2:1:0:0:1,  , 4+0:0:0:0:0, 3+1:0:0:0:0, 3+5:0:0:0:0, 4+1:1:0:0:1, 2+0:0:0:0:0, 6+0:0:0:0:0, 4+0:0:0:0:0, 1+0:0:0:0:0, 4+2:0:0:0:1, 4+0:0:0:0:0, 3+0:0:0:0:0, 4+0:0:0:0:0, 3+0:0:0:0:0, 7+2:0:0:0:0, 4+0:0:0:0:0, 2+1:1:0:0:1, 5+0:0:0:0:0, 6+1:0:0:0:0, 4+0:0:0:0:0, 4+0:0:0:0:0, 5+0:0:0:0:0, 8+2:0:0:0:1, 4+0:0:0:0:0, 4+2:1:0:0:1, 4+0:0:0:0:0, 3+1:0:0:0:0, 3+5:0:0:0:0, 3+0:0:0:0:0, 2+0:0:0:0:0, 1+1:0:0:0:0, 4+0:0:0:0:0, 7+6:2:0:0:4, 2+0:0:0:0:0, 5+1:1:0:0:1, 4+0:0:0:0:0, 5+1:1:0:0:1, 3+0:0:0:0:0, 3+1:0:0:0:0, 6+3:0:0:0:2, 4+1:1:0:0:1, 3+1:0:0:0:0, 8+2:0:0:0:1, 4+0:0:0:0:0, 5+0:0:0:0:0, 6+1:0:0:0:1, 4+2:2:0:0:2, 4+1:1:0:0:1, 6+1:0:0:0:0, 6+2:2:0:0:2, 7+2:0:0:0:0, 4+0:0:0:0:0, 5+0:0:0:0:0, 6+2:1:0:0:1, 4+0:0:0:0:0, 6+2:1:0:0:1, 5+0:0:0:0:0, 5+0:0:0:0:0, 7+4:1:1:0:1, 6+0:0:0:0:0, 6+3:1:0:0:1, 4+0:0:0:0:0, 2+0:0:0:0:0, 4+1:0:0:0:1, 5+1:0:0:0:0, 4+1:0:1:0:0, 4+2:0:1:0:0, 5+1:0:0:0:0, 7+4:3:0:0:3, 4+2:0:1:0:0, 4+3:0:0:0:0, 6+2:0:0:0:1, 5+3:1:0:0:1, 4+0:0:0:0:0, 3+1:0:0:0:0, 6+2:0:0:0:0, 3+1:0:0:0:0, 2+0:0:0:0:0, 7+0:0:0:0:0, 5+0:0:0:0:0, 1+0:0:0:0:0, 6+1:0:0:0:0, 6+1:0:0:0:0, 7+2:0:0:0:0, 6+1:1:0:0:1, 4+0:0:0:0:0, 9+2:0:0:0:1, 4+0:0:0:0:0, 2+0:0:0:0:0, 7+1:0:0:0:0, 9+3:0:0:0:0, 5+0:0:0:0:0, 1+0:0:0:0:0, 6+3:0:0:0:0, 6+1:0:0:0:0, 4+0:0:0:0:0, 6+4:0:0:0:0, 3+0:0:0:0:0, 2+0:0:0:0:0, 4+2:0:0:0:2, 5+2:0:0:0:0, 4+1:0:0:0:1, 2+2:0:0:0:0, 5+1:0:0:0:0, 6+5:2:0:0:2, 4+1:0:0:0:1, 6+2:0:0:0:0, 5+1:0:0:0:0, 5+5:2:0:0:2, 5+1:1:0:0:1, 4+1:0:1:0:0, 5+2:0:0:0:0, 4+0:0:0:0:0, 3+0:0:0:0:0, 10+3:0:0:0:1, 6+0:0:0:0:0, 1+0:0:0:0:0, 7+3:2:0:0:2, 6+1:0:0:0:0, 5+0:0:0:0:0, 5+0:0:0:0:0, 6+1:0:0:0:0, 8+1:0:0:0:0, 9+2:0:1:0:1, 3+1:0:0:0:0, 7+1:0:0:0:0, 7+2:0:0:0:0, 6+0:0:0:0:0, 1+0:0:0:0:0, 6+1:0:0:0:0, 10+6:1:1:0:3, 8+7:0:3:0:6, 5+4:2:0:0:0, 4+1:0:0:0:0, 4+1:1:0:0:1, 5+3:1:0:0:1, 5+2:0:0:0:0, 2+0:0:0:0:0, 1+2:0:0:0:0, 6+0:0:0:0:0, 6+7:0:0:0:2, 4+0:0:0:0:0, 7+3:1:0:0:1, 4+0:0:0:0:0, 5+4:1:0:0:1, 4+0:0:0:0:0, 3+1:0:0:0:0, 5+2:0:0:0:0, 4+0:0:0:0:0, 3+0:0:0:0:0, 7+2:1:0:0:1, 7+1:0:0:0:0, 1+0:0:0:0:0, 6+0:0:0:0:0, 4+0:0:0:0:0, 6+2:0:0:0:0, 9+2:0:0:0:0, 4+1:1:0:0:1, 6+3:0:0:0:0, 6+1:1:0:0:0, 3+0:0:0:0:0, 6+1:1:0:0:1, 8+2:0:1:0:1, 6+1:0:0:0:0, 2+0:0:0:0:0, 8+1:0:0:0:0, 6+3:0:0:0:0, 7+1:0:0:0:0, 6+3:3:0:0:3, 3+0:0:0:0:0, 3+1:0:1:0:0, 4+3:0:0:0:0, 6+1:0:0:0:0, 2+0:0:0:0:0, 1+1:0:0:0:0, 6+0:0:0:0:0, 5+4:0:0:0:2, 4+1:0:1:0:1, 5+0:0:0:0:0, 3+0:0:0:0:0, 3+0:0:0:0:0, 1+0:0:0:0:0, 1+0:0:0:0:0, 1+0:0:0:0:0, 863+228:45:14:0:73
A# minor (7#), 5+5:4:1:0:5,  , 4+2:1:0:0:1,  , 5+4:4:1:0:4,  , 4+2:1:0:0:1,  , 5+1:0:0:0:0, 5+0:0:0:0:0, 4+1:0:0:0:0, 4+2:1:0:0:1, 4+0:0:0:0:0, 5+0:0:0:0:0, 2+1:0:0:0:0, 0+0:0:0:0:0, 5+2:0:0:0:1, 5+0:0:0:0:0, 4+1:0:0:0:0, 4+0:0:0:0:0, 4+1:0:0:0:0, 5+3:1:1:0:1, 2+0:0:0:0:0, 2+0:0:0:0:0, 4+1:0:0:0:0, 4+2:0:0:0:0, 2+0:0:0:0:0, 2+0:0:0:0:0, 1+1:0:0:0:0, 4+4:0:0:0:2, 0+0:0:0:0:0, 5+3:1:0:0:1, 5+1:0:0:0:0, 5+0:0:0:0:0, 4+1:0:0:0:0, 4+1:0:0:0:0, 4+0:0:0:0:0, 5+3:0:0:0:2, 4+0:0:0:0:0, 4+1:0:0:0:0, 4+0:0:0:0:0, 6+2:1:0:0:1, 5+1:0:0:0:0, 5+0:0:0:0:0, 4+1:0:0:0:0, 6+1:0:0:0:1, 9+3:0:0:0:1, 4+4:1:0:0:0, 5+1:0:0:0:0, 7+2:0:0:0:1, 2+0:0:0:0:0, 2+0:0:0:0:0, 6+1:0:0:0:0, 4+0:0:0:0:0, 4+3:1:0:0:1, 5+2:0:0:0:0, 6+1:0:0:0:0, 6+4:0:0:0:0, 2+1:0:0:0:0, 3+2:0:0:0:0, 6+3:1:0:0:1, 3+1:0:0:0:0, 4+2:0:0:0:0, 4+2:0:0:0:0, 1+0:0:0:0:0, 4+6:0:0:0:3, 0+0:0:0:0:0, 5+4:1:1:0:2, 5+1:0:0:0:0, 4+0:0:0:0:0, 7+4:0:0:0:2, 5+0:0:0:0:0, 6+2:0:1:0:1, 8+5:0:1:0:4, 6+2:0:0:0:0, 5+1:0:0:0:0, 8+4:0:0:0:1, 6+2:0:0:0:0, 8+4:0:0:0:1, 6+0:0:0:0:0, 5+2:0:0:0:0, 5+0:0:0:0:0, 7+2:0:0:0:0, 5+3:0:0:0:0, 4+0:0:0:0:0, 5+0:0:0:0:0, 3+0:0:0:0:0, 0+0:0:0:0:0, 7+2:0:0:0:0, 7+1:0:0:0:1, 9+3:0:0:0:1, 5+0:0:0:0:0, 5+3:0:0:0:0, 7+2:0:0:0:0, 2+0:0:0:0:0, 2+0:0:0:0:0, 6+2:0:0:0:1, 7+4:1:0:0:1, 2+0:0:0:0:0, 0+0:0:0:0:0, 3+1:0:0:0:1, 2+5:0:0:0:1, 0+0:0:0:0:0, 6+5:2:0:0:2, 4+1:0:0:0:0, 4+0:0:0:0:0, 6+5:0:0:0:1, 6+3:0:0:0:0, 6+2:0:0:0:0, 7+7:0:0:0:2, 5+0:0:0:0:0, 2+1:0:0:0:0, 6+1:0:0:0:0, 8+2:0:0:0:0, 6+3:0:0:0:1, 6+0:0:0:0:0, 5+5:1:0:0:0, 7+2:0:1:0:1, 7+2:0:0:0:0, 5+2:0:0:0:0, 5+1:0:0:0:0, 8+2:0:1:0:1, 4+0:0:0:0:0, 1+0:0:0:0:0, 6+2:0:0:0:0, 7+2:0:0:0:0, 6+3:0:0:0:0, 5+0:0:0:0:0, 7+3:0:0:0:0, 5+2:0:1:0:0, 5+2:0:0:0:0, 1+1:0:1:0:0, 5+5:5:4:0:5, 4+2:0:0:0:0, 3+4:0:0:0:0, 1+0:0:0:0:0, 3+3:0:0:0:1, 6+3:0:0:0:2, 3+4:0:0:0:0, 5+7:2:0:0:2, 5+1:0:0:0:0, 6+1:1:0:0:1, 7+6:1:0:0:1, 7+2:0:0:0:2, 4+0:0:0:0:0, 6+5:0:0:0:2, 6+2:0:0:0:0, 2+0:0:0:0:0, 6+2:0:0:0:0, 8+3:1:0:0:1, 5+2:0:0:0:0, 6+0:0:0:0:0, 5+1:0:0:0:0, 5+0:0:0:0:0, 7+3:0:0:0:0, 5+3:0:0:0:0, 5+2:0:0:0:0, 7+5:1:0:0:2, 4+2:0:0:0:0, 1+0:0:0:0:0, 6+1:0:0:0:0, 5+0:0:0:0:0, 9+6:0:1:0:2, 9+2:0:0:0:0, 4+2:1:0:0:0, 4+2:0:0:0:0, 4+4:1:0:0:1, 3+2:0:0:0:0, 5+4:1:0:0:1, 5+2:0:1:0:0, 5+3:0:0:0:0, 1+0:0:0:0:0, 3+1:0:0:0:0, 2+5:0:0:0:3, 2+4:0:0:0:1, 6+4:1:0:0:1, 4+1:0:0:0:0, 5+1:0:1:0:1, 5+1:0:0:0:0, 7+3:0:0:0:0, 4+0:0:0:0:0, 5+4:0:0:0:2, 6+1:0:0:0:0, 2+0:0:0:0:0, 7+2:0:0:0:0, 6+2:0:0:0:0, 4+1:0:0:0:0, 4+0:0:0:0:0, 0+0:0:0:0:0, 0+0:0:0:0:0, 0+0:0:0:0:0, 854+330:37:17:0:84
