 , 0, 1, 2, 3, 4, 5, 6, 7, 8, 9, 10, 11, 12, 13, 14, 15, 16, 17, 18, 19, 20, 21, 22, 23, 24, 25, 26, 27, 28, 29, 30, 31, 32, 33, 34, 35, 36, 37, 38, 39, 40, 41, 42, 43, 44, 45, 46, 47, 48, 49, 50, 51, 52, 53, 54, 55, 56, 57, 58, 59, 60, 61, 62, 63, 64, 65, 66, 67, 68, 69, 70, 71, 72, 73, 74, 75, 76, 77, 78, 79, 80, 81, 82, 83, 84, 85, 86, 87, 88, 89, 90, 91, 92, 93, 94, 95, 96, 97, 98, 99, 100, 101, 102, 103, 104, 105, 106, 107, 108, 109, 110, 111, 112, 113, 114, 115, 116, 117, 118, 119, 120, 121, 122, 123, 124, 125, 126, 127, 128, 129, 130, 131, 132, 133, 134, 135, 136, 137, 138, 139, 140, 141, 142, 143, 144, 145, 146, 147, 148, 149, 150, 151, 152, 153, 154, 155, 156, 157, 158, 159, 160, 161, 162, 163, 164, 165, 166, 167, 168, 169, rowcost
C major (0), 0+0:0:0:0:0, 0+0:0:0:0:0, 0+0:0:0:0:0, 0+0:0:0:0:0, 0+0:0:0:0:0, 0+0:0:0:0:0, 2+3:0:0:0:3, 0+0:0:0:0:0, 4+2:1:0:0:1, 0+0:0:0:0:0, 0+0:0:0:0:0, 0+0:0:0:0:0, 0+0:0:0:0:0, 0+0:0:0:0:0, 1+1:0:0:0:1, 0+1:0:0:0:0, 1+0:0:0:0:0, 0+0:0:0:0:0, 1+1:0:0:0:1, 0+0:0:0:0:0, 0+0:0:0:0:0, 0+0:0:0:0:0, 0+0:0:0:0:0, 1+1:0:0:0:1, 1+1:0:0:0:1, 0+0:0:0:0:0, 4+3:0:0:1:1, 2+1:0:0:0:1, 3+5:0:0:0:0, 1+1:0:0:0:0, 1+1:0:0:0:1, 0+0:0:0:0:0, 3+2:1:0:0:1, 0+0:0:0:0:0, 0+0:0:0:0:0, 2+1:0:0:0:0, 1+2:0:0:0:0, 1+1:0:0:0:1, 2+2:0:0:0:1, 1+0:0:0:0:0, 2+1:1:0:0:1, 2+1:0:0:0:0, 1+1:0:0:0:1, 1+2:0:0:0:0, 1+3:0:0:0:3, 1+1:0:0:0:1, 1+3:0:0:0:3, 0+0:0:0:0:0, 0+0:0:0:0:0, 0+0:0:0:0:0, 4+3:0:0:0:2, 0+1:0:0:0:0, 2+1:0:0:0:0, 0+1:0:0:0:0, 0+0:0:0:0:0, 1+2:0:0:0:2, 2+2:0:0:0:0, 0+0:0:0:0:0, 4+2:0:0:1:1, 1+2:0:0:0:0, 4+6:0:0:0:3, 2+1:0:0:0:0, 3+2:0:0:0:1, 0+0:0:0:0:0, 4+4:1:0:0:0, 0+0:0:0:0:0, 0+0:0:0:0:0, 0+0:0:0:0:0, 0+0:0:0:0:0, 0+0:0:0:0:0, 1+1:0:0:0:1, 0+0:0:0:0:0, 2+1:1:0:0:1, 0+0:0:0:0:0, 0+0:0:0:0:0, 0+0:0:0:0:0, 0+0:0:0:0:0, 0+0:0:0:0:0, 1+1:0:0:0:1, 0+0:0:0:0:0, 0+0:0:0:0:0, 0+0:0:0:0:0, 1+1:0:0:0:1, 0+0:0:0:0:0, 0+0:0:0:0:0, 0+0:0:0:0:0, 1+1:0:0:0:0, 0+0:0:0:0:0, 0+0:0:0:0:0, 0+0:0:0:0:0, 3+2:0:0:1:1, 1+1:0:0:0:0, 2+1:1:0:0:1, 2+1:0:0:0:0, 1+1:0:0:0:1, 0+0:0:0:0:0, 4+2:1:0:0:1, 0+0:0:0:0:0, 2+1:0:0:0:0, 0+0:0:0:0:0, 0+0:0:0:0:0, 1+1:0:0:0:1, 6+5:0:0:0:2, 0+0:0:0:0:0, 4+2:1:0:0:1, 0+0:0:0:0:0, 0+0:0:0:0:0, 0+0:0:0:0:0, 0+0:0:0:0:0, 0+0:0:0:0:0, 1+2:0:0:0:2, 1+1:0:0:0:0, 0+0:0:0:0:0, 0+0:0:0:0:0, 1+1:0:0:0:1, 0+0:0:0:0:0, 0+0:0:0:0:0, 0+0:0:0:0:0, 0+0:0:0:0:0, 0+0:0:0:0:0, 0+0:0:0:0:0, 0+0:0:0:0:0, 5+4:0:0:1:3, 2+2:0:0:0:1, 2+1:0:0:0:0, 1+1:0:0:0:0, 1+2:0:0:0:2, 1+1:0:0:0:1, 3+1:1:0:0:1, 0+0:0:0:0:0, 0+0:0:0:0:0, 0+0:0:0:0:0, 0+0:0:0:0:0, 1+2:0:0:0:0, 3+5:0:0:0:1, 0+0:0:0:0:0, 2+1:1:0:0:1, 0+0:0:0:0:0, 0+0:0:0:0:0, 0+0:0:0:0:0, 0+0:0:0:0:0, 0+0:0:0:0:0, 1+3:0:0:0:3, 2+2:0:0:0:2, 2+1:1:0:0:0, 0+0:0:0:0:0, 3+2:0:0:0:1, 0+0:0:0:0:0, 0+0:0:0:0:0, 0+0:0:0:0:0, 0+0:0:0:0:0, 3+2:0:0:0:1, 1+1:0:0:0:0, 1+0:0:0:0:0, 3+2:0:0:1:1, 3+2:0:0:0:2, 3+5:0:0:0:0, 1+1:0:0:0:0, 3+2:0:0:0:1, 2+1:0:0:0:0, 1+0:0:0:0:0, 2+2:0:0:0:0, 3+2:0:0:0:1, 3+4:2:0:0:0, 1+0:0:0:0:0, 0+0:0:0:0:0, 1+1:0:0:0:1, 2+2:0:0:0:2, 0+0:0:0:0:0, 0+0:0:0:0:0, 165+149:13:0:5:72
A minor (0), 0+0:0:0:0:0, 0+0:0:0:0:0, 0+2:0:0:0:0, 0+1:0:0:0:0, 0+1:0:0:0:0, 0+0:0:0:0:0, 2+1:0:0:0:1, 0+1:0:0:0:0, 4+2:0:0:0:0, 0+0:0:0:0:0, 0+2:0:0:0:0, 0+1:0:0:0:0, 0+1:0:0:0:0, 0+0:0:0:0:0, 1+0:0:0:0:0, 0+1:0:0:0:0, 1+0:0:0:0:0, 0+0:0:0:0:0, 1+1:0:0:0:0, 0+1:0:0:0:0, 0+0:0:0:0:0, 0+0:0:0:0:0, 0+3:0:0:0:0, 1+3:0:0:0:1, 1+1:0:0:0:0, 0+0:0:0:0:0, 4+3:0:0:1:1, 2+3:0:0:0:0, 2+2:1:0:0:1, 1+1:0:0:0:1, 1+0:0:0:0:0, 0+1:0:0:0:0, 3+1:0:0:0:0, 0+2:0:0:0:0, 0+3:0:0:0:0, 2+2:0:0:0:0, 1+4:0:0:0:0, 1+1:0:0:0:1, 2+1:0:0:0:0, 1+3:0:0:0:0, 2+0:0:0:0:0, 2+1:0:0:0:0, 1+1:0:0:0:0, 1+3:0:0:0:0, 1+3:0:0:0:0, 1+1:0:0:0:0, 1+3:0:0:0:0, 0+2:0:0:0:0, 0+0:0:0:0:0, 0+0:0:0:0:0, 4+2:0:0:0:0, 0+1:0:0:0:0, 2+1:0:0:0:0, 0+1:0:0:0:0, 0+3:0:0:0:0, 1+3:0:0:0:0, 2+4:0:0:0:0, 0+0:0:0:0:0, 4+2:0:0:1:1, 1+2:0:0:0:0, 4+4:2:0:0:1, 2+2:0:0:0:1, 3+1:0:0:0:0, 0+3:0:0:0:0, 4+4:1:0:0:1, 0+0:0:0:0:0, 0+1:0:0:0:0, 0+2:0:0:0:0, 0+0:0:0:0:0, 0+0:0:0:0:0, 1+1:0:0:0:0, 0+1:0:0:0:0, 2+0:0:0:0:0, 0+0:0:0:0:0, 0+3:0:0:0:0, 0+1:0:0:0:0, 0+0:0:0:0:0, 0+0:0:0:0:0, 1+1:0:0:0:0, 0+1:0:0:0:0, 0+0:0:0:0:0, 0+0:0:0:0:0, 1+1:0:0:0:0, 0+1:0:0:0:0, 0+0:0:0:0:0, 0+0:0:0:0:0, 1+3:0:0:0:0, 0+1:0:0:0:0, 0+0:0:0:0:0, 0+0:0:0:0:0, 3+2:0:0:1:1, 1+2:0:0:0:0, 2+2:1:0:0:1, 2+3:0:0:0:0, 1+0:0:0:0:0, 0+1:0:0:0:0, 4+2:2:2:0:2, 0+0:0:0:0:0, 2+2:0:0:0:0, 0+1:0:0:0:0, 0+0:0:0:0:0, 1+1:0:0:0:0, 8+7:0:0:0:1, 0+1:0:0:0:0, 3+3:3:3:0:3, 0+0:0:0:0:0, 0+4:0:0:0:0, 0+3:0:0:0:0, 0+2:0:0:0:0, 0+0:0:0:0:0, 1+0:0:0:0:0, 1+1:0:0:0:0, 0+0:0:0:0:0, 0+0:0:0:0:0, 1+1:0:0:0:0, 0+1:0:0:0:0, 0+0:0:0:0:0, 0+0:0:0:0:0, 0+1:0:0:0:0, 0+1:0:0:0:0, 0+0:0:0:0:0, 0+0:0:0:0:0, 5+5:0:0:1:1, 2+3:0:0:0:0, 2+4:0:0:0:1, 1+1:0:0:0:1, 1+3:0:0:0:0, 1+1:0:0:0:0, 3+3:0:0:0:0, 0+1:0:0:0:0, 0+2:0:0:0:0, 0+2:0:0:0:0, 0+0:0:0:0:0, 1+0:0:0:0:0, 3+2:0:0:0:0, 0+2:0:0:0:0, 2+0:0:0:0:0, 0+0:0:0:0:0, 0+3:0:0:0:0, 0+3:0:0:0:0, 0+1:0:0:0:0, 0+0:0:0:0:0, 1+2:0:0:0:0, 2+2:0:0:0:0, 2+1:1:0:0:1, 0+1:0:0:0:0, 3+6:0:0:0:0, 0+1:0:0:0:0, 0+0:0:0:0:0, 0+0:0:0:0:0, 0+1:0:0:0:0, 3+6:0:0:0:0, 1+1:0:0:0:0, 1+0:0:0:0:0, 3+2:0:0:1:1, 3+3:0:0:0:0, 3+5:0:0:0:0, 1+4:0:0:0:0, 3+1:0:0:0:0, 2+2:0:0:0:0, 1+0:0:0:0:0, 2+2:0:0:0:1, 3+1:0:0:0:0, 3+6:2:0:0:2, 1+1:0:0:0:0, 0+0:0:0:0:0, 1+1:0:0:0:0, 2+2:0:0:0:1, 0+0:0:0:0:0, 0+0:0:0:0:0, 165+241:13:5:5:27
F major (1b), 1+0:0:0:0:0, 0+0:0:0:0:0, 1+0:0:0:0:0, 1+0:0:0:0:0, 0+0:0:0:0:0, 1+0:0:0:0:0, 3+3:0:0:0:3, 1+0:0:0:0:0, 3+2:1:0:0:1, 0+0:0:0:0:0, 1+0:0:0:0:0, 1+0:0:0:0:0, 0+0:0:0:0:0, 1+0:0:0:0:0, 2+1:0:0:0:1, 0+0:0:0:0:0, 1+1:0:0:0:0, 1+0:0:0:0:0, 2+1:0:0:0:1, 0+0:0:0:0:0, 1+0:0:0:0:0, 0+0:0:0:0:0, 1+0:0:0:0:0, 2+1:0:0:0:1, 1+1:0:0:0:1, 1+0:0:0:0:0, 5+3:0:0:1:2, 2+2:0:0:0:1, 1+1:1:0:0:1, 1+1:0:0:0:0, 2+1:0:0:0:1, 1+0:0:0:0:0, 2+2:1:0:0:1, 0+0:0:0:0:0, 1+0:0:0:0:0, 3+1:0:0:0:0, 1+2:0:0:0:0, 2+1:0:0:0:1, 3+2:0:0:0:1, 0+0:0:0:0:0, 1+1:1:0:0:1, 2+1:0:0:0:0, 2+1:0:0:0:1, 2+2:0:0:0:0, 1+3:0:0:0:3, 2+1:0:0:0:1, 2+3:0:0:0:3, 0+0:0:0:0:0, 0+0:0:0:0:0, 1+0:0:0:0:0, 5+3:0:0:0:2, 0+0:0:0:0:0, 2+1:0:0:0:1, 0+0:0:0:0:0, 1+0:0:0:0:0, 2+2:0:0:0:2, 2+2:0:0:0:0, 1+0:0:0:0:0, 5+4:0:0:1:2, 2+1:0:0:0:0, 3+3:2:0:0:2, 2+1:0:0:0:0, 4+2:0:0:0:1, 0+0:0:0:0:0, 3+4:1:0:0:0, 0+0:0:0:0:0, 1+0:0:0:0:0, 1+0:0:0:0:0, 0+0:0:0:0:0, 1+0:0:0:0:0, 2+1:0:0:0:1, 0+0:0:0:0:0, 1+1:1:0:0:1, 0+0:0:0:0:0, 1+0:0:0:0:0, 1+0:0:0:0:0, 0+0:0:0:0:0, 1+0:0:0:0:0, 2+1:0:0:0:1, 0+0:0:0:0:0, 0+0:0:0:0:0, 1+0:0:0:0:0, 2+1:0:0:0:1, 0+0:0:0:0:0, 0+0:0:0:0:0, 0+0:0:0:0:0, 2+1:0:0:0:0, 1+0:0:0:0:0, 0+0:0:0:0:0, 1+0:0:0:0:0, 4+3:0:0:1:2, 1+1:0:0:0:0, 1+1:1:0:0:1, 1+1:0:0:0:0, 2+1:0:0:0:1, 0+0:0:0:0:0, 3+2:1:0:0:1, 0+0:0:0:0:0, 3+1:0:0:0:0, 1+0:0:0:0:0, 0+0:0:0:0:0, 2+1:0:0:0:1, 7+5:0:0:0:2, 0+0:0:0:0:0, 3+2:1:0:0:1, 0+0:0:0:0:0, 1+0:0:0:0:0, 1+0:0:0:0:0, 0+0:0:0:0:0, 1+0:0:0:0:0, 2+2:0:0:0:2, 1+1:0:0:0:0, 1+0:0:0:0:0, 1+0:0:0:0:0, 2+1:0:0:0:1, 0+0:0:0:0:0, 0+0:0:0:0:0, 0+0:0:0:0:0, 1+0:0:0:0:0, 1+0:0:0:0:0, 0+0:0:0:0:0, 1+0:0:0:0:0, 6+4:0:0:1:3, 2+2:0:0:0:1, 1+1:0:0:0:0, 1+1:0:0:0:0, 2+2:0:0:0:2, 1+1:0:0:0:1, 2+1:1:0:0:1, 1+0:0:0:0:0, 1+0:0:0:0:0, 1+0:0:0:0:0, 0+0:0:0:0:0, 2+2:0:0:0:0, 4+5:0:0:0:1, 0+0:0:0:0:0, 1+1:1:0:0:1, 0+0:0:0:0:0, 1+0:0:0:0:0, 1+0:0:0:0:0, 0+0:0:0:0:0, 1+0:0:0:0:0, 2+3:0:0:0:3, 2+2:0:0:0:2, 2+1:1:0:0:0, 1+0:0:0:0:0, 4+2:0:0:0:1, 0+0:0:0:0:0, 1+0:0:0:0:0, 0+0:0:0:0:0, 1+0:0:0:0:0, 4+2:0:0:0:1, 0+0:0:0:0:0, 2+1:0:0:0:0, 4+6:0:0:1:1, 3+2:0:0:0:2, 2+3:0:0:0:0, 1+0:0:0:0:0, 4+4:1:0:0:3, 1+2:0:0:0:0, 1+1:0:0:0:0, 3+2:0:0:0:0, 4+2:0:0:0:1, 3+4:0:0:0:0, 1+1:0:0:0:0, 1+0:0:0:0:0, 2+1:0:0:0:1, 2+2:0:0:0:1, 1+0:0:0:0:0, 1+0:0:0:0:0, 235+149:15:0:5:77
G major (1#), 0+0:0:0:0:0, 1+0:0:0:0:0, 1+0:0:0:0:0, 0+0:0:0:0:0, 1+0:0:0:0:0, 1+0:0:0:0:0, 3+3:0:0:0:3, 0+0:0:0:0:0, 5+2:0:0:0:1, 1+0:0:0:0:0, 1+0:0:0:0:0, 0+0:0:0:0:0, 1+0:0:0:0:0, 1+0:0:0:0:0, 2+1:0:0:0:1, 0+0:0:0:0:0, 1+1:0:0:0:0, 1+1:0:0:0:0, 2+1:0:0:0:1, 0+0:0:0:0:0, 0+0:0:0:0:0, 1+0:0:0:0:0, 1+0:0:0:0:0, 1+1:0:0:0:1, 2+1:0:0:0:1, 1+0:0:0:0:0, 4+4:0:0:1:1, 1+1:0:0:0:1, 4+5:0:0:0:0, 2+1:0:0:0:0, 2+1:0:0:0:1, 0+0:0:0:0:0, 3+2:1:0:0:1, 1+0:0:0:0:0, 1+0:0:0:0:0, 2+1:0:0:0:0, 2+2:0:0:0:0, 2+1:0:0:0:1, 3+2:0:0:0:1, 1+1:0:0:0:0, 2+2:0:0:0:1, 3+1:0:0:0:0, 2+1:0:0:0:1, 1+2:0:0:0:0, 2+3:0:0:0:3, 2+1:0:0:0:1, 2+3:0:0:0:3, 0+0:0:0:0:0, 0+0:0:0:0:0, 1+0:0:0:0:0, 5+3:0:0:0:2, 1+0:0:0:0:0, 1+1:0:0:0:1, 1+0:0:0:0:0, 1+0:0:0:0:0, 1+2:0:0:0:2, 3+2:0:0:0:0, 1+0:0:0:0:0, 4+3:0:0:1:1, 0+0:0:0:0:0, 5+6:0:0:0:3, 3+1:0:0:0:0, 4+2:0:0:0:1, 0+0:0:0:0:0, 3+4:1:0:0:0, 1+0:0:0:0:0, 1+0:0:0:0:0, 0+0:0:0:0:0, 1+0:0:0:0:0, 1+0:0:0:0:0, 2+1:0:0:0:1, 0+0:0:0:0:0, 2+1:1:0:0:0, 1+0:0:0:0:0, 1+0:0:0:0:0, 0+0:0:0:0:0, 1+0:0:0:0:0, 1+0:0:0:0:0, 2+1:0:0:0:1, 0+0:0:0:0:0, 0+0:0:0:0:0, 1+0:0:0:0:0, 2+1:0:0:0:1, 0+0:0:0:0:0, 0+0:0:0:0:0, 1+0:0:0:0:0, 2+1:0:0:0:0, 0+0:0:0:0:0, 1+0:0:0:0:0, 1+0:0:0:0:0, 3+3:0:0:1:1, 0+0:0:0:0:0, 4+3:0:0:0:0, 3+1:0:0:0:0, 2+1:0:0:0:1, 0+0:0:0:0:0, 4+2:1:0:0:1, 1+0:0:0:0:0, 3+1:0:0:0:0, 1+0:0:0:0:0, 1+0:0:0:0:0, 2+1:0:0:0:1, 7+5:0:0:0:2, 0+0:0:0:0:0, 3+4:1:3:0:3, 1+0:0:0:0:0, 1+0:0:0:0:0, 1+0:0:0:0:0, 1+0:0:0:0:0, 1+0:0:0:0:0, 2+2:0:0:0:2, 1+1:0:0:0:0, 0+0:0:0:0:0, 1+0:0:0:0:0, 2+1:0:0:0:1, 0+0:0:0:0:0, 0+0:0:0:0:0, 1+0:0:0:0:0, 1+0:0:0:0:0, 0+0:0:0:0:0, 1+0:0:0:0:0, 1+0:0:0:0:0, 5+5:0:0:1:3, 1+1:0:0:0:1, 3+6:0:0:0:0, 2+1:0:0:0:0, 2+2:0:0:0:2, 1+1:0:0:0:1, 3+1:1:0:0:1, 1+0:0:0:0:0, 1+0:0:0:0:0, 0+0:0:0:0:0, 1+0:0:0:0:0, 2+2:0:0:0:0, 4+5:0:0:0:1, 0+0:0:0:0:0, 2+1:1:0:0:0, 1+0:0:0:0:0, 1+0:0:0:0:0, 1+0:0:0:0:0, 1+0:0:0:0:0, 1+0:0:0:0:0, 2+3:0:0:0:3, 2+2:0:0:0:2, 1+1:1:0:0:0, 1+0:0:0:0:0, 4+2:0:0:0:1, 1+0:0:0:0:0, 0+0:0:0:0:0, 1+0:0:0:0:0, 1+0:0:0:0:0, 3+2:0:0:0:1, 2+1:0:0:0:0, 2+1:0:0:0:0, 3+6:0:0:1:1, 2+2:0:0:0:2, 4+5:0:0:0:0, 2+1:0:0:0:0, 4+2:0:0:0:1, 2+1:0:0:0:0, 0+0:0:0:0:0, 3+2:0:0:0:0, 4+2:0:0:0:1, 2+4:2:0:0:0, 0+0:0:0:0:0, 1+0:0:0:0:0, 2+1:0:0:0:1, 2+2:0:0:0:2, 0+0:0:0:0:0, 0+0:0:0:0:0, 259+164:10:3:5:72
D minor (1b), 1+0:0:0:0:0, 0+0:0:0:0:0, 1+2:0:0:0:0, 1+1:0:0:0:0, 0+1:0:0:0:0, 1+0:0:0:0:0, 3+1:0:0:0:1, 1+1:0:0:0:0, 3+2:0:0:0:0, 0+1:0:0:0:0, 1+2:0:0:0:0, 1+1:0:0:0:0, 0+1:0:0:0:0, 1+0:0:0:0:0, 2+0:0:0:0:0, 0+1:0:0:0:0, 1+0:0:0:0:0, 1+0:0:0:0:0, 2+0:0:0:0:0, 0+1:0:0:0:0, 1+0:0:0:0:0, 0+0:0:0:0:0, 1+3:0:0:0:0, 2+3:0:0:0:1, 1+1:0:0:0:0, 1+0:0:0:0:0, 5+3:0:0:1:1, 2+3:0:0:0:0, 1+2:1:0:0:1, 1+3:0:0:0:0, 2+0:0:0:0:0, 1+1:0:0:0:0, 2+1:0:0:0:0, 0+1:0:0:0:0, 1+3:0:0:0:0, 3+2:0:0:0:0, 1+4:0:0:0:0, 2+1:0:0:0:1, 3+1:0:0:0:0, 0+3:0:0:0:0, 1+1:1:0:0:0, 2+3:0:0:0:1, 2+1:0:0:0:0, 2+3:0:0:0:0, 1+3:0:0:0:0, 2+1:0:0:0:0, 2+0:0:0:0:0, 0+1:0:0:0:0, 0+1:0:0:0:0, 1+0:0:0:0:0, 5+2:0:0:0:0, 0+1:0:0:0:0, 2+1:0:0:0:0, 0+1:0:0:0:0, 1+3:0:0:0:0, 2+3:0:0:0:0, 2+4:0:0:0:0, 1+0:0:0:0:0, 5+2:0:0:1:1, 2+2:0:0:0:0, 3+4:2:0:0:1, 2+2:0:0:0:0, 4+1:0:0:0:0, 0+1:0:0:0:0, 3+3:1:0:0:0, 0+1:0:0:0:0, 1+1:0:0:0:0, 1+2:0:0:0:0, 0+0:0:0:0:0, 1+0:0:0:0:0, 2+0:0:0:0:0, 0+1:0:0:0:0, 1+1:1:0:0:0, 0+1:0:0:0:0, 1+3:0:0:0:0, 1+1:0:0:0:0, 0+0:0:0:0:0, 1+0:0:0:0:0, 2+0:0:0:0:0, 0+1:0:0:0:0, 0+0:0:0:0:0, 1+0:0:0:0:0, 2+0:0:0:0:0, 0+1:0:0:0:0, 0+0:0:0:0:0, 0+1:0:0:0:0, 2+3:0:0:0:0, 1+1:0:0:0:0, 0+0:0:0:0:0, 1+0:0:0:0:0, 4+2:0:0:1:1, 1+2:0:0:0:0, 1+2:1:0:0:1, 1+3:0:0:0:0, 2+0:0:0:0:0, 0+1:0:0:0:0, 3+2:2:2:0:2, 0+1:0:0:0:0, 3+2:0:0:0:0, 1+1:0:0:0:0, 0+0:0:0:0:0, 2+1:0:0:0:0, 9+7:0:0:0:1, 0+1:0:0:0:0, 2+4:1:3:0:3, 0+1:0:0:0:0, 1+4:0:0:0:0, 1+3:0:0:0:0, 0+2:0:0:0:0, 1+0:0:0:0:0, 2+0:0:0:0:0, 1+1:0:0:0:0, 1+0:0:0:0:0, 1+0:0:0:0:0, 2+0:0:0:0:0, 0+1:0:0:0:0, 0+0:0:0:0:0, 0+1:0:0:0:0, 1+1:0:0:0:0, 1+1:0:0:0:0, 0+0:0:0:0:0, 1+0:0:0:0:0, 6+3:0:0:1:1, 2+3:0:0:0:0, 1+4:0:0:0:1, 1+2:0:0:0:0, 2+0:0:0:0:0, 1+1:0:0:0:0, 2+3:0:0:0:0, 1+1:0:0:0:0, 1+2:0:0:0:0, 1+2:0:0:0:0, 0+0:0:0:0:0, 2+0:0:0:0:0, 4+1:0:0:0:0, 0+3:0:0:0:0, 1+1:1:0:0:0, 0+2:0:0:0:0, 1+3:0:0:0:0, 1+3:0:0:0:0, 0+1:0:0:0:0, 1+0:0:0:0:0, 2+0:0:0:0:0, 2+2:0:0:0:0, 2+1:1:0:0:1, 1+1:0:0:0:0, 4+3:0:0:0:0, 0+1:0:0:0:0, 1+0:0:0:0:0, 0+0:0:0:0:0, 1+1:0:0:0:0, 4+6:0:0:0:0, 0+1:0:0:0:0, 2+0:0:0:0:0, 4+2:0:0:1:1, 3+4:0:0:0:0, 2+5:0:0:0:0, 1+1:0:0:0:0, 4+6:1:0:0:1, 1+4:0:0:0:0, 1+1:0:0:0:0, 3+2:0:0:0:1, 4+1:0:0:0:0, 3+6:0:0:0:2, 1+1:0:0:0:0, 1+0:0:0:0:0, 2+0:0:0:0:0, 2+1:0:0:0:0, 1+0:0:0:0:0, 1+0:0:0:0:0, 236+241:13:5:5:24
E minor (1#), 0+0:0:0:0:0, 1+0:0:0:0:0, 1+2:0:0:0:0, 0+1:0:0:0:0, 1+1:0:0:0:0, 1+0:0:0:0:0, 3+1:0:0:0:1, 0+1:0:0:0:0, 5+3:0:0:0:0, 1+0:0:0:0:0, 1+2:0:0:0:0, 0+1:0:0:0:0, 1+1:0:0:0:0, 1+0:0:0:0:0, 2+0:0:0:0:0, 0+0:0:0:0:0, 1+0:0:0:0:0, 1+2:0:0:0:0, 2+0:0:0:0:0, 0+0:0:0:0:0, 0+0:0:0:0:0, 1+0:0:0:0:0, 1+3:0:0:0:0, 1+3:0:0:0:1, 2+1:0:0:0:0, 1+0:0:0:0:0, 4+3:0:0:1:1, 1+1:0:0:0:0, 3+5:0:0:0:0, 2+1:0:0:0:1, 2+0:0:0:0:0, 0+1:0:0:0:0, 3+1:0:0:0:0, 1+2:0:0:0:0, 1+3:0:0:0:0, 2+2:0:0:0:0, 2+4:0:0:0:0, 2+1:0:0:0:1, 3+1:0:0:0:0, 1+2:0:0:0:0, 2+3:0:0:0:0, 3+1:0:0:0:0, 2+1:0:0:0:0, 1+3:0:0:0:0, 2+3:0:0:0:0, 2+1:0:0:0:0, 2+0:0:0:0:0, 0+1:0:0:0:0, 0+0:0:0:0:0, 1+0:0:0:0:0, 5+2:0:0:0:0, 1+1:0:0:0:0, 1+1:0:0:0:0, 1+1:0:0:0:0, 1+3:0:0:0:0, 1+3:0:0:0:0, 3+4:0:0:0:0, 1+0:0:0:0:0, 4+2:0:0:1:1, 0+1:0:0:0:0, 5+7:0:0:0:1, 3+2:0:0:0:1, 4+1:0:0:0:0, 0+0:0:0:0:0, 3+4:1:0:0:1, 1+0:0:0:0:0, 1+1:0:0:0:0, 0+2:0:0:0:0, 1+0:0:0:0:0, 1+0:0:0:0:0, 2+0:0:0:0:0, 0+0:0:0:0:0, 2+3:1:0:0:1, 1+0:0:0:0:0, 1+3:0:0:0:0, 0+1:0:0:0:0, 1+0:0:0:0:0, 1+0:0:0:0:0, 2+0:0:0:0:0, 0+0:0:0:0:0, 0+0:0:0:0:0, 1+0:0:0:0:0, 2+0:0:0:0:0, 0+0:0:0:0:0, 0+0:0:0:0:0, 1+0:0:0:0:0, 2+3:0:0:0:0, 0+1:0:0:0:0, 1+0:0:0:0:0, 1+0:0:0:0:0, 3+2:0:0:1:1, 0+1:0:0:0:0, 3+5:0:0:0:0, 3+3:0:0:0:0, 2+0:0:0:0:0, 0+1:0:0:0:0, 4+2:2:2:0:2, 1+0:0:0:0:0, 3+2:0:0:0:0, 1+1:0:0:0:0, 1+0:0:0:0:0, 2+1:0:0:0:0, 9+7:0:0:0:1, 0+0:0:0:0:0, 3+5:1:3:0:4, 1+0:0:0:0:0, 1+4:0:0:0:0, 1+3:0:0:0:0, 1+2:0:0:0:0, 1+0:0:0:0:0, 2+0:0:0:0:0, 1+1:0:0:0:0, 0+0:0:0:0:0, 1+0:0:0:0:0, 2+0:0:0:0:0, 0+0:0:0:0:0, 0+0:0:0:0:0, 1+0:0:0:0:0, 1+1:0:0:0:0, 0+1:0:0:0:0, 1+0:0:0:0:0, 1+0:0:0:0:0, 5+6:0:0:1:1, 1+2:0:0:0:0, 3+7:0:0:0:0, 2+1:0:0:0:1, 2+0:0:0:0:0, 1+1:0:0:0:0, 3+3:0:0:0:0, 1+1:0:0:0:0, 1+2:0:0:0:0, 0+2:0:0:0:0, 1+0:0:0:0:0, 2+0:0:0:0:0, 4+1:0:0:0:0, 0+0:0:0:0:0, 2+3:1:0:0:1, 1+0:0:0:0:0, 1+3:0:0:0:0, 1+3:0:0:0:0, 1+1:0:0:0:0, 1+0:0:0:0:0, 2+0:0:0:0:0, 2+2:0:0:0:0, 1+1:1:0:0:1, 1+1:0:0:0:0, 4+3:0:0:0:0, 1+1:0:0:0:0, 0+0:0:0:0:0, 1+0:0:0:0:0, 1+1:0:0:0:0, 3+6:0:0:0:0, 2+1:0:0:0:0, 2+0:0:0:0:0, 3+2:0:0:1:1, 2+2:0:0:0:2, 4+5:0:0:0:0, 2+1:0:0:0:0, 4+1:0:0:0:0, 2+2:0:0:0:0, 0+0:0:0:0:0, 3+2:0:0:0:1, 4+1:0:0:0:0, 2+6:2:0:0:2, 0+1:0:0:0:0, 1+0:0:0:0:0, 2+1:0:0:0:0, 2+2:0:0:0:0, 0+0:0:0:0:0, 0+0:0:0:0:0, 259+228:9:5:5:28
Bb major (2b), 1+1:0:0:0:0, 0+0:0:0:0:0, 2+2:0:0:0:0, 2+0:0:0:0:0, 1+0:0:0:0:0, 1+1:0:0:0:0, 4+3:0:0:0:3, 2+0:0:0:0:0, 4+2:1:0:0:1, 0+0:0:0:0:0, 2+2:0:0:0:0, 2+0:0:0:0:0, 1+0:0:0:0:0, 1+1:0:0:0:0, 3+1:0:0:0:1, 1+0:0:0:0:0, 1+1:0:0:0:1, 2+0:0:0:0:0, 3+1:0:0:0:1, 1+0:0:0:0:0, 1+0:0:0:0:0, 0+0:0:0:0:0, 2+1:0:0:0:0, 3+1:0:0:0:1, 2+1:0:0:0:1, 1+0:0:0:0:0, 6+3:0:0:1:2, 3+1:0:0:0:1, 1+5:0:0:0:0, 0+0:0:0:0:0, 3+1:0:0:0:1, 2+0:0:0:0:0, 3+2:1:0:0:1, 1+0:0:0:0:0, 1+1:0:0:0:0, 4+1:0:0:0:0, 2+2:0:0:0:0, 2+1:0:0:0:1, 4+2:0:0:0:1, 1+0:0:0:0:0, 2+1:1:0:0:1, 3+1:0:0:0:0, 3+1:0:0:0:1, 3+2:0:0:0:0, 2+3:0:0:0:3, 2+1:0:0:0:0, 3+3:0:0:0:3, 1+0:0:0:0:0, 1+0:0:0:0:0, 2+1:0:0:0:0, 6+3:0:0:0:2, 1+0:0:0:0:0, 3+1:0:0:0:1, 1+0:0:0:0:0, 1+0:0:0:0:0, 3+2:0:0:0:2, 3+2:0:0:0:0, 1+2:0:0:0:0, 6+4:0:0:1:2, 3+1:0:0:0:0, 4+3:2:0:0:2, 1+1:0:0:0:0, 3+4:1:0:0:3, 1+0:0:0:0:0, 4+4:4:0:0:4, 0+0:0:0:0:0, 2+1:0:0:0:0, 2+0:0:0:0:0, 1+0:0:0:0:0, 1+3:0:0:0:0, 3+1:0:0:0:1, 1+0:0:0:0:0, 2+1:1:0:0:1, 0+0:0:0:0:0, 1+1:0:0:0:0, 2+0:0:0:0:0, 1+0:0:0:0:0, 1+2:0:0:0:0, 3+1:0:0:0:1, 1+0:0:0:0:0, 0+0:0:0:0:0, 1+2:0:0:0:0, 3+1:0:0:0:1, 1+0:0:0:0:0, 0+0:0:0:0:0, 1+0:0:0:0:0, 2+1:0:0:0:0, 2+0:0:0:0:0, 1+0:0:0:0:0, 1+3:0:0:0:0, 5+3:0:0:1:2, 2+1:0:0:0:0, 2+1:1:0:0:1, 0+0:0:0:0:0, 3+1:0:0:0:1, 1+0:0:0:0:0, 4+2:1:0:0:1, 1+0:0:0:0:0, 4+3:0:0:0:0, 2+1:0:0:0:0, 1+0:0:0:0:0, 3+1:0:0:0:1, 8+5:0:0:0:2, 1+0:0:0:0:0, 4+2:1:0:0:1, 0+0:0:0:0:0, 1+1:0:0:0:0, 2+1:0:0:0:0, 1+0:0:0:0:0, 2+3:0:0:0:0, 3+2:0:0:0:2, 2+1:0:0:0:0, 1+0:0:0:0:0, 1+0:0:0:0:0, 3+1:0:0:0:1, 1+0:0:0:0:0, 0+0:0:0:0:0, 0+0:0:0:0:0, 2+1:0:0:0:0, 2+0:0:0:0:0, 1+0:0:0:0:0, 2+1:0:0:0:0, 7+4:0:0:1:3, 3+2:0:0:0:1, 2+1:0:0:0:0, 0+0:0:0:0:0, 3+2:0:0:0:2, 2+1:0:0:0:1, 3+1:1:0:0:1, 1+2:0:0:0:0, 1+1:0:0:0:0, 2+0:0:0:0:0, 1+0:0:0:0:0, 3+2:0:0:0:0, 5+5:0:0:0:1, 1+0:0:0:0:0, 2+1:1:0:0:1, 0+0:0:0:0:0, 2+2:0:0:0:0, 2+1:0:0:0:0, 1+0:0:0:0:0, 2+1:0:0:0:0, 3+3:0:0:0:3, 3+2:0:0:0:2, 3+1:1:0:0:0, 2+0:0:0:0:0, 5+2:0:0:0:1, 1+0:0:0:0:0, 1+0:0:0:0:0, 0+0:0:0:0:0, 1+1:0:0:0:0, 5+2:0:0:0:1, 1+0:0:0:0:0, 3+1:0:0:0:0, 5+6:0:0:1:5, 4+2:0:0:0:2, 1+5:0:0:0:0, 0+0:0:0:0:0, 3+4:1:0:0:3, 2+2:0:0:0:0, 2+1:0:0:0:0, 2+2:0:0:0:0, 5+2:0:0:0:1, 4+4:2:0:0:0, 2+0:0:0:0:0, 2+0:0:0:0:0, 3+1:0:0:0:1, 3+2:0:0:0:1, 1+0:0:0:0:0, 1+0:0:0:0:0, 348+194:20:0:5:86
D major (2#), 1+0:0:0:0:0, 2+0:0:0:0:0, 1+0:0:0:0:0, 1+0:0:0:0:0, 2+0:0:0:0:0, 1+0:0:0:0:0, 4+3:0:0:0:3, 1+0:0:0:0:0, 4+2:0:0:0:0, 2+1:0:0:0:0, 1+2:0:0:0:0, 1+0:0:0:0:0, 2+0:0:0:0:0, 1+0:0:0:0:0, 3+1:0:0:0:1, 1+0:0:0:0:0, 1+0:0:0:0:0, 1+1:0:0:0:0, 2+1:0:0:0:0, 1+0:0:0:0:0, 1+0:0:0:0:0, 2+0:0:0:0:0, 1+0:0:0:0:0, 2+1:0:0:0:1, 3+1:0:0:0:1, 1+0:0:0:0:0, 4+3:0:0:1:1, 2+3:0:0:0:1, 4+2:1:0:0:1, 3+3:0:0:0:0, 3+0:0:0:0:0, 1+1:0:0:0:0, 2+1:0:0:0:0, 2+1:0:0:0:0, 1+1:0:0:0:0, 3+2:0:0:0:0, 3+4:0:0:0:0, 3+1:0:0:0:1, 3+1:0:0:0:0, 2+3:0:0:0:0, 1+1:1:0:0:0, 4+3:0:0:0:1, 2+1:0:0:0:0, 2+3:0:0:0:0, 3+3:0:0:0:0, 3+1:0:0:0:0, 2+3:0:0:0:0, 1+1:0:0:0:0, 1+1:0:0:0:0, 2+2:0:0:0:0, 6+2:0:0:0:0, 2+1:0:0:0:0, 2+1:0:0:0:0, 2+1:0:0:0:0, 1+3:0:0:0:0, 2+3:0:0:0:0, 4+4:0:0:0:0, 1+1:0:0:0:0, 4+2:0:0:1:1, 1+4:0:0:0:0, 6+4:2:0:0:1, 4+2:0:0:0:0, 5+1:0:0:0:0, 1+1:0:0:0:0, 2+3:1:0:0:0, 2+1:0:0:0:0, 1+1:0:0:0:0, 1+0:0:0:0:0, 2+1:0:0:0:0, 1+1:0:0:0:0, 2+1:0:0:0:0, 1+0:0:0:0:0, 1+1:1:0:0:0, 2+1:0:0:0:0, 1+1:0:0:0:0, 1+0:0:0:0:0, 2+1:0:0:0:0, 1+1:0:0:0:0, 2+1:0:0:0:0, 1+0:0:0:0:0, 0+0:0:0:0:0, 1+1:0:0:0:0, 2+1:0:0:0:0, 1+1:0:0:0:0, 0+0:0:0:0:0, 2+1:0:0:0:0, 2+1:0:0:0:0, 1+0:0:0:0:0, 2+1:0:0:0:0, 1+2:0:0:0:0, 3+2:0:0:1:1, 1+2:0:0:0:0, 4+2:1:0:0:1, 4+3:0:0:0:0, 3+0:0:0:0:0, 1+1:0:0:0:0, 3+2:2:2:0:2, 2+1:0:0:0:0, 4+4:0:0:0:0, 2+2:0:0:0:0, 2+1:0:0:0:0, 2+1:0:0:0:0, 9+7:0:0:0:1, 1+1:0:0:0:0, 2+4:1:3:0:3, 2+1:0:0:0:0, 1+1:0:0:0:0, 2+2:0:0:0:0, 2+1:0:0:0:0, 2+5:0:0:0:0, 3+0:0:0:0:0, 2+4:0:0:0:1, 0+0:0:0:0:0, 1+1:0:0:0:0, 2+1:0:0:0:0, 1+1:0:0:0:0, 0+0:0:0:0:0, 2+1:0:0:0:0, 1+1:0:0:0:0, 1+0:0:0:0:0, 2+0:0:0:0:0, 2+0:0:0:0:0, 6+5:0:0:1:1, 2+5:0:0:0:1, 4+4:0:0:0:1, 3+2:0:0:0:0, 2+3:0:0:0:0, 2+1:0:0:0:0, 2+3:0:0:0:0, 2+3:0:0:0:0, 1+1:0:0:0:0, 1+2:0:0:0:0, 2+0:0:0:0:0, 2+1:0:0:0:0, 4+2:0:0:0:0, 1+0:0:0:0:0, 1+1:1:0:0:0, 2+2:0:0:0:0, 1+2:0:0:0:0, 2+4:0:0:0:0, 2+1:0:0:0:0, 1+4:0:0:0:0, 2+2:0:0:0:0, 3+2:0:0:0:2, 1+1:1:0:0:0, 1+3:0:0:0:0, 4+6:0:0:0:0, 2+1:0:0:0:0, 1+0:0:0:0:0, 2+1:0:0:0:0, 2+3:0:0:0:0, 4+6:0:0:0:0, 3+1:0:0:0:0, 2+2:0:0:0:0, 3+2:0:0:1:1, 3+2:0:0:0:2, 5+5:0:0:0:0, 3+4:0:0:0:0, 5+1:0:0:0:0, 3+4:0:0:0:0, 1+0:0:0:0:0, 4+2:0:0:0:0, 5+2:0:0:0:1, 3+4:2:0:0:0, 1+0:0:0:0:0, 1+2:0:0:0:0, 2+1:0:0:0:0, 3+2:0:0:0:1, 0+0:0:0:0:0, 0+0:0:0:0:0, 357+267:14:5:5:32
G minor (2b), 1+0:0:0:0:0, 0+2:0:0:0:0, 2+2:0:0:0:0, 2+0:0:0:0:0, 1+0:0:0:0:0, 1+0:0:0:0:0, 4+3:0:0:0:3, 2+0:0:0:0:0, 4+2:0:0:0:0, 0+2:0:0:0:0, 2+2:0:0:0:0, 2+0:0:0:0:0, 1+0:0:0:0:0, 1+0:0:0:0:0, 3+1:0:0:0:1, 1+0:0:0:0:0, 1+1:0:0:0:0, 2+1:0:0:0:0, 3+1:0:0:0:1, 1+0:0:0:0:0, 1+0:0:0:0:0, 0+1:0:0:0:0, 2+2:0:0:0:0, 3+1:0:0:0:1, 2+1:0:0:0:1, 1+3:0:0:0:0, 6+4:0:0:1:1, 3+1:0:0:0:1, 1+5:0:0:0:0, 0+1:0:0:0:0, 3+3:0:0:0:1, 2+0:0:0:0:0, 3+1:0:0:0:0, 1+1:0:0:0:0, 1+1:0:0:0:0, 4+2:0:0:0:0, 2+4:0:0:0:0, 2+1:0:0:0:1, 4+1:0:0:0:0, 1+3:0:0:0:0, 2+0:0:0:0:0, 3+3:0:0:0:1, 3+1:0:0:0:0, 3+3:0:0:0:0, 2+3:0:0:0:0, 2+1:0:0:0:1, 3+0:0:0:0:0, 1+1:0:0:0:0, 1+1:0:0:0:0, 2+2:0:0:0:0, 6+2:0:0:0:0, 1+2:0:0:0:0, 3+1:0:0:0:1, 1+0:0:0:0:0, 1+0:0:0:0:0, 3+2:0:0:0:2, 3+4:0:0:0:0, 1+2:0:0:0:0, 6+3:0:0:1:1, 3+0:0:0:0:0, 4+4:2:0:0:1, 1+3:0:0:0:0, 3+6:1:0:0:1, 1+0:0:0:0:0, 4+4:1:0:0:0, 0+2:0:0:0:0, 2+1:0:0:0:0, 2+0:0:0:0:0, 1+0:0:0:0:0, 1+0:0:0:0:0, 3+0:0:0:0:0, 1+1:0:0:0:0, 2+0:0:0:0:0, 0+1:0:0:0:0, 1+1:0:0:0:0, 2+0:0:0:0:0, 1+0:0:0:0:0, 1+0:0:0:0:0, 3+1:0:0:0:1, 1+0:0:0:0:0, 0+0:0:0:0:0, 1+1:0:0:0:0, 3+1:0:0:0:1, 1+0:0:0:0:0, 0+0:0:0:0:0, 1+1:0:0:0:0, 2+3:0:0:0:0, 2+1:0:0:0:0, 1+1:0:0:0:0, 1+3:0:0:0:0, 5+3:0:0:1:1, 2+0:0:0:0:0, 2+2:1:0:0:1, 0+1:0:0:0:0, 3+0:0:0:0:0, 1+1:0:0:0:0, 4+2:2:2:0:2, 1+1:0:0:0:0, 4+4:0:0:0:0, 2+2:0:0:0:0, 1+1:0:0:0:0, 3+1:0:0:0:0, 10+7:0:0:0:1, 1+1:0:0:0:0, 3+3:3:3:0:3, 0+1:0:0:0:0, 1+1:0:0:0:0, 2+2:0:0:0:0, 1+1:0:0:0:0, 2+5:0:0:0:0, 3+0:0:0:0:0, 2+4:0:0:0:1, 1+0:0:0:0:0, 1+0:0:0:0:0, 3+0:0:0:0:0, 1+1:0:0:0:0, 0+0:0:0:0:0, 0+1:0:0:0:0, 2+1:0:0:0:0, 2+0:0:0:0:0, 1+0:0:0:0:0, 2+0:0:0:0:0, 7+5:0:0:1:3, 3+1:0:0:0:1, 2+4:0:0:0:1, 0+1:0:0:0:0, 3+0:0:0:0:0, 2+1:0:0:0:0, 3+3:0:0:0:0, 1+3:0:0:0:0, 1+1:0:0:0:0, 2+2:0:0:0:0, 1+1:0:0:0:0, 3+0:0:0:0:0, 5+1:0:0:0:0, 1+3:0:0:0:0, 2+0:0:0:0:0, 0+2:0:0:0:0, 2+2:0:0:0:0, 2+4:0:0:0:0, 1+1:0:0:0:0, 2+0:0:0:0:0, 3+3:0:0:0:3, 3+2:0:0:0:2, 3+1:1:0:0:0, 2+3:0:0:0:0, 5+2:0:0:0:1, 1+0:0:0:0:0, 1+0:0:0:0:0, 0+1:0:0:0:0, 1+3:0:0:0:0, 5+6:0:0:0:0, 1+1:0:0:0:0, 3+3:0:0:0:1, 5+6:0:0:1:1, 4+2:0:0:0:2, 1+5:0:0:0:0, 0+1:0:0:0:0, 3+6:1:0:0:1, 2+4:0:0:0:0, 2+0:0:0:0:0, 2+2:0:0:0:0, 5+2:0:0:0:1, 4+4:2:0:0:0, 2+0:0:0:0:0, 2+2:0:0:0:0, 3+1:0:0:0:1, 3+2:1:0:0:1, 1+0:0:0:0:0, 1+0:0:0:0:0, 349+262:15:5:5:49
B minor (2#), 1+0:0:0:0:0, 2+0:0:0:0:0, 1+2:0:0:0:0, 1+0:0:0:0:0, 2+1:0:0:0:0, 1+0:0:0:0:0, 4+1:0:0:0:1, 1+1:0:0:0:0, 4+2:0:0:0:0, 2+1:0:0:0:0, 1+2:0:0:0:0, 1+0:0:0:0:0, 2+1:0:0:0:0, 1+0:0:0:0:0, 3+0:0:0:0:0, 1+0:0:0:0:0, 1+0:0:0:0:0, 1+2:0:0:0:1, 2+2:0:0:0:1, 1+0:0:0:0:0, 1+0:0:0:0:0, 2+0:0:0:0:0, 1+3:0:0:0:0, 2+1:0:0:0:0, 3+1:0:0:0:0, 1+6:0:0:0:0, 4+4:0:0:1:2, 2+1:0:0:0:0, 4+5:0:0:0:0, 3+1:0:0:0:1, 3+0:0:0:0:0, 1+1:0:0:0:0, 2+1:0:0:0:0, 2+1:0:0:0:0, 1+3:0:0:0:0, 3+2:0:0:0:0, 3+4:0:0:0:0, 3+1:0:0:0:1, 3+1:0:0:0:0, 2+3:0:0:0:0, 1+1:1:0:0:0, 4+3:0:0:0:1, 2+1:0:0:0:0, 2+3:0:0:0:0, 3+3:0:0:0:0, 3+1:0:0:0:0, 2+0:0:0:0:0, 1+1:0:0:0:0, 1+0:0:0:0:0, 2+3:0:0:0:0, 6+2:0:0:0:0, 2+1:0:0:0:0, 2+1:0:0:0:0, 2+1:0:0:0:0, 1+3:0:0:0:0, 2+0:0:0:0:0, 4+4:0:0:0:0, 1+3:0:0:0:0, 4+3:0:0:1:1, 1+1:0:0:0:0, 6+7:0:0:0:1, 4+2:0:0:0:1, 5+1:0:0:0:0, 1+0:0:0:0:0, 2+5:1:0:0:3, 2+0:0:0:0:0, 1+1:0:0:0:0, 1+0:0:0:0:0, 2+1:0:0:0:0, 1+2:0:0:0:1, 2+3:0:0:0:1, 1+0:0:0:0:0, 1+3:1:0:0:1, 2+0:0:0:0:0, 1+3:0:0:0:0, 1+0:0:0:0:0, 2+2:0:0:0:0, 1+2:0:0:0:1, 2+5:0:0:0:1, 1+0:0:0:0:0, 0+1:0:0:0:0, 1+2:0:0:0:1, 2+2:0:0:0:1, 1+0:0:0:0:0, 0+0:0:0:0:0, 2+0:0:0:0:0, 2+3:0:0:0:0, 1+1:0:0:0:0, 2+0:0:0:0:0, 1+3:0:0:0:0, 3+3:0:0:1:1, 1+1:0:0:0:0, 4+2:1:0:0:1, 4+3:0:0:0:0, 3+0:0:0:0:0, 1+1:0:0:0:0, 3+2:2:2:0:2, 2+1:0:0:0:0, 4+2:0:0:0:0, 2+1:0:0:0:0, 2+0:0:0:0:0, 2+1:0:0:0:0, 9+7:0:0:0:1, 1+0:0:0:0:0, 2+5:1:3:0:4, 2+0:0:0:0:0, 1+4:0:0:0:0, 2+3:0:0:0:0, 2+2:0:0:0:0, 2+0:0:0:0:0, 3+0:0:0:0:0, 2+1:0:0:0:0, 0+0:0:0:0:0, 1+2:0:0:0:1, 2+2:0:0:0:1, 1+0:0:0:0:0, 0+0:0:0:0:0, 2+0:0:0:0:0, 1+1:0:0:0:0, 1+1:0:0:0:0, 2+0:0:0:0:0, 2+0:0:0:0:0, 6+6:0:0:1:1, 2+2:0:0:0:0, 4+4:0:0:0:1, 3+2:0:0:0:0, 2+0:0:0:0:0, 2+1:0:0:0:0, 3+5:1:0:0:1, 2+2:0:0:0:0, 1+2:0:0:0:0, 1+0:0:0:0:0, 2+0:0:0:0:0, 2+2:0:0:0:1, 4+5:0:0:0:1, 1+0:0:0:0:0, 1+3:1:0:0:1, 2+0:0:0:0:0, 1+3:0:0:0:0, 2+3:0:0:0:0, 2+1:0:0:0:0, 1+0:0:0:0:0, 2+0:0:0:0:0, 3+2:0:0:0:0, 1+1:1:0:0:1, 1+4:0:0:0:3, 5+5:0:0:0:1, 2+1:0:0:0:0, 1+0:0:0:0:0, 2+0:0:0:0:0, 2+1:0:0:0:0, 4+6:0:0:0:0, 3+1:0:0:0:0, 2+0:0:0:0:0, 3+2:0:0:1:1, 3+4:0:0:0:0, 4+2:1:0:0:1, 3+4:0:0:0:0, 5+1:0:0:0:0, 3+2:0:0:0:0, 1+0:0:0:0:0, 4+2:0:0:0:1, 5+1:0:0:0:0, 3+6:2:0:0:2, 1+1:0:0:0:0, 1+3:0:0:0:2, 2+4:0:0:0:1, 3+3:0:0:0:1, 0+0:0:0:0:0, 0+0:0:0:0:0, 358+280:13:5:5:52
Eb major (3b), 2+0:0:0:0:0, 1+0:0:0:0:0, 3+0:0:0:0:0, 2+0:0:0:0:0, 2+0:0:0:0:0, 2+0:0:0:0:0, 4+3:0:0:0:3, 3+0:0:0:0:0, 5+2:1:0:0:1, 1+0:0:0:0:0, 2+0:0:0:0:0, 2+0:0:0:0:0, 2+0:0:0:0:0, 2+0:0:0:0:0, 4+1:0:0:0:1, 2+0:0:0:0:0, 2+0:0:0:0:0, 3+0:0:0:0:0, 4+1:0:0:0:1, 2+0:0:0:0:0, 1+0:0:0:0:0, 1+0:0:0:0:0, 2+0:0:0:0:0, 3+1:0:0:0:1, 3+1:0:0:0:1, 2+0:0:0:0:0, 6+3:0:0:1:2, 4+2:0:0:0:1, 2+4:0:0:0:0, 1+0:0:0:0:0, 4+1:0:0:0:1, 3+0:0:0:0:0, 4+2:1:0:0:1, 2+0:0:0:0:0, 2+0:0:0:0:0, 4+1:0:0:0:0, 3+2:0:0:0:0, 3+1:0:0:0:1, 5+2:0:0:0:1, 2+0:0:0:0:0, 3+1:1:0:0:1, 4+1:0:0:0:0, 4+1:0:0:0:1, 3+2:0:0:0:0, 3+3:0:0:0:3, 3+1:0:0:0:0, 3+3:0:0:0:1, 2+0:0:0:0:0, 2+0:0:0:0:0, 3+0:0:0:0:0, 6+3:0:0:0:1, 2+0:0:0:0:0, 3+1:1:0:0:0, 2+0:0:0:0:0, 2+0:0:0:0:0, 3+2:0:0:0:2, 4+2:0:0:0:0, 2+0:0:0:0:0, 6+4:0:0:1:2, 4+1:0:0:0:0, 5+3:0:0:0:0, 2+1:0:0:0:0, 4+4:1:0:0:3, 2+0:0:0:0:0, 5+4:4:0:0:4, 1+0:0:0:0:0, 2+0:0:0:0:0, 3+0:0:0:0:0, 2+0:0:0:0:0, 2+0:0:0:0:0, 3+1:0:0:0:1, 2+0:0:0:0:0, 3+1:1:0:0:1, 1+0:0:0:0:0, 1+0:0:0:0:0, 2+0:0:0:0:0, 2+0:0:0:0:0, 2+0:0:0:0:0, 3+1:0:0:0:1, 2+0:0:0:0:0, 1+0:0:0:0:0, 2+0:0:0:0:0, 3+1:0:0:0:1, 2+0:0:0:0:0, 1+0:0:0:0:0, 2+0:0:0:0:0, 2+1:0:0:0:0, 2+0:0:0:0:0, 2+0:0:0:0:0, 2+0:0:0:0:0, 5+3:0:0:1:2, 3+1:0:0:0:0, 2+1:1:0:0:1, 1+0:0:0:0:0, 4+1:0:0:0:1, 2+0:0:0:0:0, 5+2:1:0:0:1, 2+0:0:0:0:0, 4+1:0:0:0:1, 2+0:0:0:0:0, 2+0:0:0:0:0, 4+1:0:0:0:1, 7+5:0:0:0:2, 2+0:0:0:0:0, 5+2:1:0:0:1, 1+0:0:0:0:0, 1+0:0:0:0:0, 3+0:0:0:0:0, 2+0:0:0:0:0, 3+0:0:0:0:0, 3+2:0:0:0:1, 3+1:0:0:0:0, 1+0:0:0:0:0, 2+0:0:0:0:0, 3+1:0:0:0:1, 2+0:0:0:0:0, 1+0:0:0:0:0, 1+0:0:0:0:0, 2+0:0:0:0:0, 2+0:0:0:0:0, 2+0:0:0:0:0, 3+0:0:0:0:0, 7+4:0:0:1:3, 4+2:0:0:0:1, 1+6:0:0:0:0, 1+3:0:0:0:0, 4+2:0:0:0:2, 3+1:0:0:0:1, 4+1:1:0:0:1, 2+0:0:0:0:0, 1+0:0:0:0:0, 3+0:0:0:0:0, 2+0:0:0:0:0, 4+2:0:0:0:0, 4+5:0:0:0:1, 2+0:0:0:0:0, 3+1:1:0:0:1, 1+0:0:0:0:0, 3+0:0:0:0:0, 3+0:0:0:0:0, 2+0:0:0:0:0, 3+0:0:0:0:0, 4+3:0:0:0:1, 4+2:0:0:0:2, 2+3:0:0:0:0, 3+0:0:0:0:0, 5+2:0:0:0:1, 2+0:0:0:0:0, 1+0:0:0:0:0, 1+0:0:0:0:0, 1+0:0:0:0:0, 5+2:0:0:0:0, 2+0:0:0:0:0, 4+1:0:0:0:0, 5+6:0:0:1:2, 5+3:0:0:0:2, 1+3:0:0:0:0, 1+0:0:0:0:0, 4+4:1:0:0:3, 3+2:0:0:0:0, 3+1:0:0:0:0, 3+2:0:0:0:0, 4+2:0:0:0:1, 5+4:0:0:0:0, 3+1:0:0:0:0, 3+0:0:0:0:0, 3+1:0:0:0:1, 4+2:0:0:0:1, 1+0:0:0:0:0, 1+0:0:0:0:0, 464+161:16:0:5:73
A major (3#), 1+0:0:0:0:0, 2+0:0:0:0:0, 2+2:0:0:0:0, 2+1:0:0:0:0, 3+1:0:0:0:0, 1+0:0:0:0:0, 3+1:0:0:0:1, 2+1:0:0:0:0, 5+3:0:0:0:0, 2+0:0:0:0:0, 2+2:0:0:0:0, 2+1:0:0:0:0, 3+1:0:0:0:0, 1+0:0:0:0:0, 2+0:0:0:0:0, 2+1:0:0:0:0, 0+0:0:0:0:0, 1+0:0:0:0:0, 1+1:0:0:0:0, 2+1:0:0:0:0, 1+0:0:0:0:0, 2+0:0:0:0:0, 2+3:0:0:0:0, 3+3:0:0:0:1, 3+1:0:0:0:0, 1+0:0:0:0:0, 3+3:0:0:1:1, 3+3:0:0:0:0, 5+5:0:0:0:0, 3+1:0:0:0:1, 2+0:0:0:0:0, 2+1:0:0:0:0, 3+1:0:0:0:0, 3+2:0:0:0:0, 2+3:0:0:0:0, 4+2:0:0:0:0, 4+4:0:0:0:0, 3+1:0:0:0:1, 2+1:0:0:0:0, 3+2:0:0:0:0, 2+3:0:0:0:0, 3+1:0:0:0:0, 3+1:0:0:0:0, 3+3:0:0:0:0, 3+3:0:0:0:0, 3+1:0:0:0:0, 1+3:0:0:0:0, 2+2:0:0:0:0, 1+0:0:0:0:0, 2+0:0:0:0:0, 5+2:0:0:0:0, 3+1:0:0:0:0, 1+1:0:0:0:0, 3+1:0:0:0:0, 2+3:0:0:0:0, 3+3:0:0:0:0, 5+4:0:0:0:0, 1+0:0:0:0:0, 3+2:0:0:1:1, 2+2:0:0:0:0, 7+7:0:0:0:1, 5+2:0:0:0:1, 4+1:0:0:0:0, 2+3:0:0:0:0, 3+5:1:0:0:0, 2+0:0:0:0:0, 2+1:0:0:0:0, 2+2:0:0:0:0, 2+0:0:0:0:0, 1+0:0:0:0:0, 1+1:0:0:0:0, 2+1:0:0:0:0, 2+3:0:0:0:0, 2+0:0:0:0:0, 2+3:0:0:0:0, 2+1:0:0:0:0, 2+0:0:0:0:0, 1+0:0:0:0:0, 1+1:0:0:0:0, 2+1:0:0:0:0, 0+0:0:0:0:0, 1+0:0:0:0:0, 1+1:0:0:0:0, 2+1:0:0:0:0, 0+0:0:0:0:0, 2+0:0:0:0:0, 3+3:0:0:0:0, 2+1:0:0:0:0, 2+0:0:0:0:0, 1+0:0:0:0:0, 2+2:0:0:1:1, 2+2:0:0:0:0, 5+5:0:0:0:0, 4+3:0:0:0:0, 2+0:0:0:0:0, 2+1:0:0:0:0, 4+2:2:2:0:2, 2+0:0:0:0:0, 5+2:0:0:0:0, 3+1:0:0:0:0, 2+0:0:0:0:0, 2+1:0:0:0:0, 8+7:0:0:0:1, 2+1:0:0:0:0, 4+4:0:0:0:1, 2+0:0:0:0:0, 2+4:0:0:0:0, 3+3:0:0:0:0, 3+2:0:0:0:0, 2+0:0:0:0:0, 2+0:0:0:0:0, 3+1:0:0:0:0, 0+0:0:0:0:0, 1+0:0:0:0:0, 1+1:0:0:0:0, 2+1:0:0:0:0, 0+0:0:0:0:0, 2+0:0:0:0:0, 2+1:0:0:0:0, 2+1:0:0:0:0, 2+0:0:0:0:0, 2+0:0:0:0:0, 5+5:0:0:1:1, 3+3:0:0:0:0, 5+4:0:0:0:1, 3+1:0:0:0:1, 1+3:0:0:0:0, 3+1:0:0:0:0, 3+3:0:0:0:0, 3+1:0:0:0:0, 2+2:0:0:0:0, 2+2:0:0:0:0, 2+0:0:0:0:0, 1+1:0:0:0:0, 3+2:0:0:0:0, 2+2:0:0:0:0, 2+3:0:0:0:0, 2+0:0:0:0:0, 2+3:0:0:0:0, 3+3:0:0:0:0, 3+1:0:0:0:0, 1+0:0:0:0:0, 1+2:0:0:0:0, 4+2:0:0:0:0, 2+1:1:0:0:1, 2+1:0:0:0:0, 3+6:0:0:0:0, 3+1:0:0:0:0, 1+0:0:0:0:0, 2+0:0:0:0:0, 3+1:0:0:0:0, 5+6:0:0:0:0, 3+1:0:0:0:0, 1+2:0:0:0:0, 2+2:0:0:1:1, 4+4:0:0:0:0, 5+2:1:0:0:1, 3+2:0:0:0:2, 4+1:0:0:0:0, 4+2:0:0:0:0, 1+1:0:0:0:0, 4+2:0:0:0:1, 4+1:0:0:0:0, 5+4:0:0:0:0, 1+1:0:0:0:0, 1+0:0:0:0:0, 1+1:0:0:0:0, 2+2:0:0:0:0, 0+0:0:0:0:0, 0+0:0:0:0:0, 407+259:5:2:5:22
C minor (3b), 2+0:0:0:0:0, 1+0:0:0:0:0, 3+0:0:0:0:0, 2+0:0:0:0:0, 2+0:0:0:0:0, 2+0:0:0:0:0, 4+3:0:0:0:3, 3+0:0:0:0:0, 5+2:0:0:0:1, 1+0:0:0:0:0, 2+0:0:0:0:0, 2+0:0:0:0:0, 2+0:0:0:0:0, 2+0:0:0:0:0, 4+1:0:0:0:1, 2+0:0:0:0:0, 2+0:0:0:0:0, 3+0:0:0:0:0, 4+1:0:0:0:1, 2+0:0:0:0:0, 1+0:0:0:0:0, 1+0:0:0:0:0, 2+0:0:0:0:0, 3+1:0:0:0:1, 3+1:0:0:0:1, 2+0:0:0:0:0, 6+3:0:0:1:2, 4+1:0:0:0:1, 2+5:0:0:0:0, 1+1:0:0:0:0, 4+1:0:0:0:1, 3+0:0:0:0:0, 4+2:1:0:0:1, 2+0:0:0:0:0, 2+0:0:0:0:0, 4+1:0:0:0:0, 3+2:0:0:0:0, 3+1:0:0:0:1, 5+2:0:0:0:1, 2+1:0:0:0:0, 3+2:0:0:0:1, 4+1:0:0:0:0, 4+1:0:0:0:1, 3+2:0:0:0:0, 3+3:0:0:0:3, 3+1:0:0:0:0, 3+3:0:0:0:1, 2+0:0:0:0:0, 2+0:0:0:0:0, 3+0:0:0:0:0, 6+3:0:0:0:1, 2+0:0:0:0:0, 3+1:1:0:0:0, 2+0:0:0:0:0, 2+0:0:0:0:0, 3+2:0:0:0:2, 4+2:0:0:0:0, 2+0:0:0:0:0, 6+4:0:0:1:2, 4+1:0:0:0:0, 5+6:0:0:0:0, 2+1:0:0:0:0, 4+2:0:0:0:1, 2+0:0:0:0:0, 5+4:1:0:0:0, 1+0:0:0:0:0, 2+0:0:0:0:0, 3+0:0:0:0:0, 2+0:0:0:0:0, 2+0:0:0:0:0, 3+1:0:0:0:1, 2+0:0:0:0:0, 3+2:0:0:0:1, 1+0:0:0:0:0, 1+0:0:0:0:0, 2+0:0:0:0:0, 2+0:0:0:0:0, 2+0:0:0:0:0, 3+1:0:0:0:1, 2+0:0:0:0:0, 1+0:0:0:0:0, 2+0:0:0:0:0, 3+1:0:0:0:1, 2+0:0:0:0:0, 1+0:0:0:0:0, 2+0:0:0:0:0, 2+1:0:0:0:0, 2+0:0:0:0:0, 2+0:0:0:0:0, 2+0:0:0:0:0, 5+3:0:0:1:2, 3+1:0:0:0:0, 2+3:0:0:0:1, 1+4:0:0:0:0, 4+1:0:0:0:1, 2+0:0:0:0:0, 5+2:1:0:0:1, 2+0:0:0:0:0, 4+1:0:0:0:1, 2+0:0:0:0:0, 2+0:0:0:0:0, 4+1:0:0:0:1, 7+5:0:0:0:2, 2+0:0:0:0:0, 5+3:0:0:0:1, 1+0:0:0:0:0, 1+0:0:0:0:0, 3+0:0:0:0:0, 2+0:0:0:0:0, 3+0:0:0:0:0, 3+2:0:0:0:1, 3+1:0:0:0:0, 1+0:0:0:0:0, 2+0:0:0:0:0, 3+1:0:0:0:1, 2+0:0:0:0:0, 1+0:0:0:0:0, 1+0:0:0:0:0, 2+0:0:0:0:0, 2+0:0:0:0:0, 2+0:0:0:0:0, 3+0:0:0:0:0, 7+4:0:0:1:3, 4+2:0:0:0:1, 1+6:0:0:0:0, 1+3:0:0:0:0, 4+2:0:0:0:2, 3+1:0:0:0:1, 4+1:1:0:0:1, 2+0:0:0:0:0, 1+0:0:0:0:0, 3+0:0:0:0:0, 2+0:0:0:0:0, 4+2:0:0:0:0, 4+5:0:0:0:1, 2+0:0:0:0:0, 3+2:0:0:0:1, 1+0:0:0:0:0, 3+0:0:0:0:0, 3+0:0:0:0:0, 2+0:0:0:0:0, 3+0:0:0:0:0, 4+3:0:0:0:1, 4+2:0:0:0:2, 2+1:1:0:0:0, 3+0:0:0:0:0, 5+2:0:0:0:1, 2+0:0:0:0:0, 1+0:0:0:0:0, 1+0:0:0:0:0, 1+0:0:0:0:0, 5+2:0:0:0:0, 2+1:0:0:0:0, 4+1:0:0:0:0, 5+6:0:0:1:2, 5+2:0:0:0:2, 1+5:0:0:0:0, 1+1:0:0:0:0, 4+2:0:0:0:1, 3+1:0:0:0:0, 3+1:0:0:0:0, 3+2:0:0:0:0, 4+2:0:0:0:1, 5+4:0:0:0:0, 3+1:0:0:0:0, 3+0:0:0:0:0, 3+1:0:0:0:1, 4+2:0:0:0:1, 1+0:0:0:0:0, 1+0:0:0:0:0, 464+172:6:0:5:65
F# minor (3#), 1+0:0:0:0:0, 2+0:0:0:0:0, 2+2:0:0:0:0, 2+1:0:0:0:0, 3+1:0:0:0:0, 1+0:0:0:0:0, 3+1:0:0:0:1, 2+1:0:0:0:0, 5+3:0:0:0:0, 2+0:0:0:0:0, 2+2:0:0:0:0, 2+1:0:0:0:0, 3+1:0:0:0:0, 1+0:0:0:0:0, 2+0:0:0:0:0, 2+1:0:0:0:0, 0+0:0:0:0:0, 1+1:0:0:0:0, 1+1:0:0:0:0, 2+1:0:0:0:0, 1+0:0:0:0:0, 2+0:0:0:0:0, 2+3:0:0:0:0, 3+3:0:0:0:1, 3+1:0:0:0:0, 1+0:0:0:0:0, 3+3:0:0:1:1, 3+3:0:0:0:0, 5+5:0:0:0:0, 3+1:0:0:0:1, 2+0:0:0:0:0, 2+0:0:0:0:0, 4+2:1:0:0:1, 3+2:0:0:0:0, 2+3:0:0:0:0, 4+2:0:0:0:0, 4+4:0:0:0:0, 3+1:0:0:0:1, 2+1:0:0:0:0, 3+2:0:0:0:0, 2+5:1:0:0:1, 3+1:0:0:0:0, 3+1:0:0:0:0, 3+3:0:0:0:0, 3+3:0:0:0:0, 3+1:0:0:0:0, 1+3:0:0:0:0, 2+2:0:0:0:0, 1+0:0:0:0:0, 2+0:0:0:0:0, 5+2:0:0:0:0, 3+1:0:0:0:0, 1+1:0:0:0:0, 3+1:0:0:0:0, 2+3:0:0:0:0, 3+3:0:0:0:0, 5+4:0:0:0:0, 1+0:0:0:0:0, 3+2:0:0:1:1, 2+2:0:0:0:0, 7+7:0:0:0:1, 5+2:0:0:0:1, 4+1:0:0:0:0, 2+3:0:0:0:0, 3+5:1:0:0:0, 2+0:0:0:0:0, 2+1:0:0:0:0, 2+2:0:0:0:0, 2+0:0:0:0:0, 1+0:0:0:0:0, 1+1:0:0:0:0, 2+1:0:0:0:0, 2+3:1:0:0:1, 2+0:0:0:0:0, 2+3:0:0:0:0, 2+1:0:0:0:0, 2+0:0:0:0:0, 1+0:0:0:0:0, 1+1:0:0:0:0, 2+1:0:0:0:0, 0+0:0:0:0:0, 1+1:0:0:0:0, 1+1:0:0:0:0, 2+1:0:0:0:0, 0+0:0:0:0:0, 2+0:0:0:0:0, 3+3:0:0:0:0, 2+1:0:0:0:0, 2+0:0:0:0:0, 1+0:0:0:0:0, 2+2:0:0:1:1, 2+2:0:0:0:0, 5+5:0:0:0:0, 4+3:0:0:0:0, 2+0:0:0:0:0, 2+0:0:0:0:0, 4+4:1:2:0:3, 2+0:0:0:0:0, 5+2:0:0:0:0, 3+1:0:0:0:0, 2+0:0:0:0:0, 2+1:0:0:0:0, 8+7:0:0:0:1, 2+0:0:0:0:0, 3+5:1:3:0:4, 2+0:0:0:0:0, 2+4:0:0:0:0, 3+3:0:0:0:0, 3+2:0:0:0:0, 2+0:0:0:0:0, 2+0:0:0:0:0, 3+1:0:0:0:0, 0+0:0:0:0:0, 1+1:0:0:0:0, 1+1:0:0:0:0, 2+1:0:0:0:0, 0+0:0:0:0:0, 2+0:0:0:0:0, 2+1:0:0:0:0, 2+1:0:0:0:0, 2+0:0:0:0:0, 2+0:0:0:0:0, 5+5:0:0:1:1, 3+3:0:0:0:0, 5+7:0:0:0:0, 3+1:0:0:0:1, 1+3:0:0:0:0, 3+1:0:0:0:0, 3+4:0:0:0:0, 3+1:0:0:0:0, 2+2:0:0:0:0, 2+2:0:0:0:0, 2+0:0:0:0:0, 1+1:0:0:0:0, 3+2:0:0:0:0, 2+2:0:0:0:0, 2+3:1:0:0:1, 2+0:0:0:0:0, 2+3:0:0:0:0, 3+3:0:0:0:0, 3+1:0:0:0:0, 1+0:0:0:0:0, 1+2:0:0:0:0, 4+2:0:0:0:0, 2+1:1:0:0:1, 2+1:0:0:0:0, 3+6:0:0:0:0, 3+1:0:0:0:0, 1+0:0:0:0:0, 2+0:0:0:0:0, 3+1:0:0:0:0, 5+6:0:0:0:0, 3+1:0:0:0:0, 1+2:0:0:0:0, 2+4:0:0:1:1, 4+7:0:0:0:0, 5+5:0:0:0:0, 3+2:0:0:0:2, 4+1:0:0:0:0, 4+2:0:0:0:0, 1+0:0:0:0:0, 4+2:0:0:0:1, 4+1:0:0:0:0, 4+6:1:0:0:1, 1+4:0:0:0:0, 1+6:0:0:0:2, 1+4:0:0:0:1, 2+3:0:0:0:1, 0+0:0:0:0:0, 0+0:0:0:0:0, 406+291:9:5:5:33
Ab major (4b), 2+1:0:0:0:0, 2+0:0:0:0:0, 4+2:0:0:0:0, 2+1:0:0:0:0, 2+0:0:0:0:0, 3+1:0:0:0:0, 5+3:0:0:0:3, 3+0:0:0:0:0, 5+2:1:0:0:1, 2+0:0:0:0:0, 3+2:0:0:0:0, 2+1:0:0:0:0, 2+0:0:0:0:0, 3+1:0:0:0:0, 5+1:0:0:0:1, 2+0:0:0:0:0, 2+1:0:0:0:0, 4+3:0:0:0:0, 5+1:0:0:0:1, 2+0:0:0:0:0, 1+1:0:0:0:0, 2+0:0:0:0:0, 3+1:0:0:0:0, 3+1:0:0:0:1, 3+1:1:0:0:1, 3+1:0:0:0:0, 7+3:0:0:1:2, 5+2:2:0:0:2, 3+4:0:0:0:0, 2+0:0:0:0:0, 5+1:0:0:0:1, 3+0:0:0:0:0, 4+2:1:0:0:1, 3+0:0:0:0:0, 3+1:0:0:0:0, 4+2:1:0:0:1, 3+2:2:0:0:2, 4+3:0:0:0:0, 6+2:0:0:0:1, 3+0:0:0:0:0, 3+1:1:0:0:1, 5+1:0:0:0:0, 5+1:0:0:0:1, 3+2:0:0:0:0, 3+3:3:0:0:3, 4+1:0:0:0:0, 4+3:0:0:0:1, 3+0:0:0:0:0, 2+0:0:0:0:0, 4+1:0:0:0:0, 7+3:0:0:0:1, 2+0:0:0:0:0, 3+1:1:0:0:0, 3+0:0:0:0:0, 3+1:0:0:0:0, 3+2:0:0:0:2, 3+2:0:0:0:0, 3+2:0:0:0:0, 7+3:0:0:1:1, 5+0:0:0:0:0, 6+3:0:0:0:0, 2+1:0:0:0:0, 5+4:1:0:0:3, 2+0:0:0:0:0, 5+4:4:0:0:4, 2+0:0:0:0:0, 3+1:0:0:0:0, 3+1:0:0:0:0, 2+0:0:0:0:0, 3+3:0:0:0:0, 4+1:0:0:0:1, 2+0:0:0:0:0, 3+1:1:0:0:1, 2+0:0:0:0:0, 2+1:0:0:0:0, 2+1:0:0:0:0, 2+0:0:0:0:0, 3+2:0:0:0:0, 4+1:0:0:0:1, 2+0:0:0:0:0, 1+0:0:0:0:0, 3+2:0:0:0:0, 4+1:0:0:0:1, 2+0:0:0:0:0, 1+0:0:0:0:0, 3+0:0:0:0:0, 3+1:0:0:0:0, 3+0:0:0:0:0, 2+0:0:0:0:0, 3+3:0:0:0:0, 6+3:0:0:1:1, 4+0:0:0:0:0, 3+1:1:0:0:1, 1+1:0:0:0:0, 5+1:0:0:0:1, 2+0:0:0:0:0, 4+2:1:0:0:1, 3+0:0:0:0:0, 6+3:0:0:0:0, 3+1:0:0:0:0, 2+0:0:0:0:0, 5+1:0:0:0:1, 8+5:0:0:0:2, 2+0:0:0:0:0, 4+2:1:0:0:1, 2+0:0:0:0:0, 2+1:0:0:0:0, 3+1:0:0:0:0, 2+0:0:0:0:0, 4+3:0:0:0:0, 4+2:0:0:0:1, 3+1:0:0:0:0, 1+0:0:0:0:0, 3+3:0:0:0:0, 4+1:0:0:0:1, 2+0:0:0:0:0, 1+0:0:0:0:0, 2+0:0:0:0:0, 3+1:0:0:0:0, 3+1:0:0:0:0, 3+0:0:0:0:0, 4+1:0:0:0:0, 8+4:0:0:1:3, 5+2:0:0:0:1, 2+1:0:0:0:0, 1+1:0:0:0:0, 5+2:0:0:0:2, 3+1:0:0:0:1, 4+1:1:0:0:1, 3+2:0:0:0:0, 2+1:0:0:0:0, 3+2:0:0:0:0, 2+0:0:0:0:0, 5+2:0:0:0:0, 5+5:0:0:0:1, 2+0:0:0:0:0, 3+1:1:0:0:1, 2+0:0:0:0:0, 4+2:0:0:0:0, 3+1:0:0:0:0, 3+0:0:0:0:0, 4+1:0:0:0:0, 5+3:0:0:0:1, 4+2:0:0:0:2, 2+3:0:0:0:0, 4+1:0:0:0:0, 6+2:0:0:0:1, 3+0:0:0:0:0, 1+2:0:0:0:0, 2+0:0:0:0:0, 2+1:0:0:0:0, 5+2:0:0:0:0, 2+0:0:0:0:0, 5+1:0:0:0:0, 6+6:0:0:1:1, 6+2:0:0:0:2, 2+3:0:0:0:0, 2+0:0:0:0:0, 5+4:1:0:0:3, 3+2:0:0:0:0, 3+1:0:0:0:0, 4+2:0:0:0:0, 5+2:0:0:0:1, 6+4:2:0:0:2, 4+1:0:0:0:0, 4+1:0:0:0:0, 4+1:0:0:0:1, 4+2:1:0:0:1, 1+0:0:0:0:0, 1+0:0:0:0:0, 563+217:28:0:5:74
E major (4#), 1+0:0:0:0:0, 3+0:0:0:0:0, 3+2:0:0:0:0, 2+0:0:0:0:0, 3+1:0:0:0:0, 2+0:0:0:0:0, 4+1:0:0:0:1, 2+0:0:0:0:0, 5+3:0:0:0:0, 3+0:0:0:0:0, 3+2:0:0:0:0, 2+0:0:0:0:0, 3+1:0:0:0:0, 2+0:0:0:0:0, 3+0:0:0:0:0, 2+0:0:0:0:0, 0+0:0:0:0:0, 2+1:0:0:0:0, 2+1:0:0:0:0, 2+0:0:0:0:0, 1+0:0:0:0:0, 3+0:0:0:0:0, 3+3:0:0:0:0, 3+1:0:0:0:0, 2+1:0:0:0:0, 2+0:0:0:0:0, 4+3:0:0:1:1, 4+1:0:0:0:0, 6+5:0:0:0:0, 4+1:0:0:0:1, 3+0:0:0:0:0, 2+0:0:0:0:0, 3+5:0:0:0:0, 4+2:0:0:0:0, 3+3:0:0:0:0, 3+2:0:0:0:0, 4+4:0:0:0:0, 4+1:0:0:0:1, 3+1:0:0:0:0, 4+2:0:0:0:0, 2+3:0:0:0:0, 4+1:0:0:0:0, 4+1:0:0:0:0, 2+3:0:0:0:0, 2+3:0:0:0:0, 4+1:0:0:0:0, 2+3:0:0:0:0, 3+1:0:0:0:0, 1+0:0:0:0:0, 3+3:0:0:0:0, 6+2:0:0:0:0, 3+1:0:0:0:0, 1+1:0:0:0:0, 4+1:0:0:0:0, 3+3:0:0:0:0, 2+0:0:0:0:0, 4+4:0:0:0:0, 2+0:0:0:0:0, 4+2:0:0:1:1, 3+1:0:0:0:0, 8+7:0:0:0:1, 5+2:0:0:0:1, 5+1:0:0:0:0, 2+0:0:0:0:0, 3+4:1:0:0:1, 3+0:0:0:0:0, 3+1:0:0:0:0, 2+0:0:0:0:0, 2+0:0:0:0:0, 2+0:0:0:0:0, 2+1:0:0:0:0, 2+0:0:0:0:0, 2+3:1:0:0:1, 3+0:0:0:0:0, 3+3:0:0:0:0, 2+0:0:0:0:0, 2+0:0:0:0:0, 2+0:0:0:0:0, 2+1:0:0:0:0, 2+0:0:0:0:0, 0+0:0:0:0:0, 2+1:0:0:0:0, 2+1:0:0:0:0, 2+0:0:0:0:0, 0+0:0:0:0:0, 3+0:0:0:0:0, 4+3:0:0:0:0, 3+1:0:0:0:0, 2+0:0:0:0:0, 2+0:0:0:0:0, 3+2:0:0:1:1, 3+1:0:0:0:0, 6+5:0:0:0:0, 4+3:0:0:0:0, 3+0:0:0:0:0, 2+0:0:0:0:0, 4+5:0:0:0:1, 3+0:0:0:0:0, 6+2:0:0:0:0, 4+1:0:0:0:0, 2+0:0:0:0:0, 3+1:0:0:0:0, 9+7:0:0:0:1, 2+0:0:0:0:0, 3+5:1:3:0:4, 3+0:0:0:0:0, 3+4:0:0:0:0, 3+3:0:0:0:0, 3+2:0:0:0:0, 3+0:0:0:0:0, 3+0:0:0:0:0, 3+1:0:0:0:0, 0+0:0:0:0:0, 2+1:0:0:0:0, 2+1:0:0:0:0, 2+0:0:0:0:0, 0+0:0:0:0:0, 3+0:0:0:0:0, 3+1:0:0:0:0, 3+1:0:0:0:0, 3+0:0:0:0:0, 3+0:0:0:0:0, 6+6:0:0:1:1, 4+2:0:0:0:0, 6+7:0:0:0:0, 3+1:0:0:0:1, 2+3:0:0:0:0, 3+1:0:0:0:0, 4+5:1:0:0:1, 4+2:0:0:0:0, 3+2:0:0:0:0, 2+0:0:0:0:0, 2+0:0:0:0:0, 2+1:0:0:0:0, 4+2:0:0:0:0, 2+0:0:0:0:0, 2+3:1:0:0:1, 3+0:0:0:0:0, 3+3:0:0:0:0, 3+3:0:0:0:0, 4+1:0:0:0:0, 2+0:0:0:0:0, 2+2:0:0:0:0, 4+2:0:0:0:0, 2+1:1:0:0:1, 3+1:0:0:0:0, 4+6:0:0:0:0, 4+1:0:0:0:0, 1+0:0:0:0:0, 3+0:0:0:0:0, 4+1:0:0:0:0, 5+6:0:0:0:0, 3+1:0:0:0:0, 2+2:0:0:0:0, 3+2:0:0:1:1, 5+3:0:0:0:0, 6+5:0:0:0:0, 4+2:0:0:0:2, 5+1:0:0:0:0, 4+2:0:0:0:0, 1+0:0:0:0:0, 5+2:0:0:0:1, 5+1:0:0:0:0, 5+6:1:0:0:1, 2+1:0:0:0:0, 2+0:0:0:0:0, 2+1:0:0:0:0, 2+2:0:0:0:0, 0+0:0:0:0:0, 0+0:0:0:0:0, 501+249:7:3:5:26
F minor (4b), 2+1:0:0:0:0, 2+0:0:0:0:0, 4+2:0:0:0:0, 2+0:0:0:0:0, 2+0:0:0:0:0, 3+1:0:0:0:0, 5+3:0:0:0:3, 3+0:0:0:0:0, 5+2:1:0:0:1, 2+0:0:0:0:0, 3+2:0:0:0:0, 2+0:0:0:0:0, 2+0:0:0:0:0, 3+1:0:0:0:0, 5+1:0:0:0:1, 2+0:0:0:0:0, 2+1:0:0:0:1, 4+0:0:0:0:0, 5+1:0:0:0:1, 2+0:0:0:0:0, 1+0:0:0:0:0, 2+0:0:0:0:0, 3+1:0:0:0:0, 3+1:0:0:0:1, 3+1:0:0:0:1, 3+0:0:0:0:0, 7+3:0:0:1:2, 5+2:0:0:0:1, 3+1:0:0:0:0, 2+1:0:0:0:0, 5+1:0:0:0:1, 3+0:0:0:0:0, 4+2:1:0:0:1, 3+0:0:0:0:0, 3+1:0:0:0:0, 4+1:0:0:0:1, 3+2:0:0:0:0, 4+1:0:0:0:1, 6+2:0:0:0:1, 3+0:0:0:0:0, 3+1:1:0:0:1, 5+1:0:0:0:0, 5+1:0:0:0:1, 3+2:0:0:0:0, 3+3:0:0:0:3, 4+1:0:0:0:0, 4+3:0:0:0:1, 3+0:0:0:0:0, 2+0:0:0:0:0, 4+1:0:0:0:0, 7+3:0:0:0:1, 2+0:0:0:0:0, 3+1:1:0:0:0, 3+0:0:0:0:0, 3+0:0:0:0:0, 3+2:0:0:0:2, 3+2:0:0:0:0, 3+2:0:0:0:0, 7+4:0:0:1:2, 5+1:0:0:0:0, 6+3:0:0:0:0, 2+1:0:0:0:0, 5+2:0:0:0:1, 2+0:0:0:0:0, 5+4:4:0:0:4, 2+0:0:0:0:0, 3+1:0:0:0:0, 3+0:0:0:0:0, 2+0:0:0:0:0, 3+3:0:0:0:0, 4+1:0:0:0:1, 2+0:0:0:0:0, 3+1:1:0:0:1, 2+0:0:0:0:0, 2+1:0:0:0:0, 2+0:0:0:0:0, 2+0:0:0:0:0, 3+2:0:0:0:0, 4+1:0:0:0:1, 2+0:0:0:0:0, 1+0:0:0:0:0, 3+2:0:0:0:0, 4+1:0:0:0:1, 2+0:0:0:0:0, 1+0:0:0:0:0, 3+0:0:0:0:0, 3+1:0:0:0:0, 3+0:0:0:0:0, 2+0:0:0:0:0, 3+3:0:0:0:0, 6+3:0:0:1:2, 4+1:0:0:0:0, 3+1:1:0:0:1, 1+1:0:0:0:0, 5+1:0:0:0:1, 2+0:0:0:0:0, 4+2:1:0:0:1, 3+0:0:0:0:0, 6+3:0:0:0:0, 3+1:0:0:0:0, 2+0:0:0:0:0, 5+1:0:0:0:1, 8+5:0:0:0:2, 2+0:0:0:0:0, 4+2:1:0:0:1, 2+0:0:0:0:0, 2+1:0:0:0:0, 3+1:0:0:0:0, 2+0:0:0:0:0, 4+3:0:0:0:0, 4+2:0:0:0:1, 3+1:0:0:0:0, 1+0:0:0:0:0, 3+0:0:0:0:0, 4+1:0:0:0:1, 2+0:0:0:0:0, 1+0:0:0:0:0, 2+0:0:0:0:0, 3+1:0:0:0:0, 3+0:0:0:0:0, 3+0:0:0:0:0, 4+1:0:0:0:0, 8+4:0:0:1:3, 5+2:0:0:0:1, 2+1:0:0:0:0, 1+1:0:0:0:0, 5+2:0:0:0:2, 3+1:0:0:0:1, 4+1:1:0:0:1, 3+2:0:0:0:0, 2+1:0:0:0:0, 3+0:0:0:0:0, 2+0:0:0:0:0, 5+2:0:0:0:0, 5+5:0:0:0:1, 2+0:0:0:0:0, 3+1:1:0:0:1, 2+0:0:0:0:0, 4+2:0:0:0:0, 3+1:0:0:0:0, 3+0:0:0:0:0, 4+1:0:0:0:0, 5+3:0:0:0:1, 4+2:0:0:0:2, 2+3:0:0:0:0, 4+1:0:0:0:0, 6+2:0:0:0:1, 3+0:0:0:0:0, 1+0:0:0:0:0, 2+0:0:0:0:0, 2+1:0:0:0:0, 5+2:0:0:0:0, 2+0:0:0:0:0, 5+1:0:0:0:0, 6+6:0:0:1:2, 6+3:0:0:0:2, 2+5:0:0:0:0, 2+1:0:0:0:0, 5+2:0:0:0:1, 3+2:0:0:0:0, 3+1:0:0:0:0, 4+2:0:0:0:0, 5+2:0:0:0:1, 6+4:0:0:0:0, 4+1:0:0:0:0, 4+0:0:0:0:0, 4+1:0:0:0:1, 4+2:0:0:0:1, 1+0:0:0:0:0, 1+0:0:0:0:0, 563+196:14:0:5:70
C# minor (4#), 1+0:0:0:0:0, 3+0:0:0:0:0, 3+3:0:0:0:0, 2+0:0:0:0:0, 3+1:0:0:0:0, 2+1:0:0:0:1, 4+5:0:0:0:3, 2+0:0:0:0:0, 5+3:0:0:0:0, 3+0:0:0:0:0, 3+3:0:0:0:0, 2+0:0:0:0:0, 3+1:0:0:0:0, 2+1:0:0:0:1, 3+3:0:0:0:2, 2+0:0:0:0:0, 0+0:0:0:0:0, 2+2:0:0:0:1, 2+2:0:0:0:1, 2+0:0:0:0:0, 1+0:0:0:0:0, 3+0:0:0:0:0, 3+3:0:0:0:0, 3+1:0:0:0:0, 2+2:0:0:0:2, 3+1:0:0:0:1, 4+3:0:0:1:1, 4+1:0:0:0:0, 6+5:0:0:0:0, 4+1:0:0:0:1, 3+0:0:0:0:0, 2+0:0:0:0:0, 4+2:1:0:0:1, 4+2:0:0:0:0, 3+2:0:0:0:0, 3+1:0:0:0:0, 4+4:0:0:0:0, 4+1:0:0:0:1, 3+1:0:0:0:0, 4+2:0:0:0:0, 2+5:1:0:0:1, 4+5:0:0:0:3, 4+5:0:0:0:1, 2+0:0:0:0:0, 2+4:0:0:0:0, 4+2:0:0:0:0, 4+3:0:0:0:1, 3+1:0:0:0:0, 1+0:0:0:0:0, 3+3:0:0:0:0, 6+4:0:0:0:0, 3+1:0:0:0:0, 1+1:0:0:0:0, 4+2:0:0:0:0, 3+3:0:0:0:0, 2+0:0:0:0:0, 4+4:0:0:0:0, 2+1:0:0:0:1, 4+4:0:0:1:1, 3+1:0:0:0:0, 8+7:0:0:0:1, 5+2:0:0:0:1, 5+1:0:0:0:0, 2+0:0:0:0:0, 3+4:1:0:0:1, 3+0:0:0:0:0, 3+4:0:0:0:0, 2+0:0:0:0:0, 2+0:0:0:0:0, 2+1:0:0:0:1, 2+3:0:0:0:1, 2+0:0:0:0:0, 2+3:1:0:0:1, 3+0:0:0:0:0, 3+2:0:0:0:0, 2+0:0:0:0:0, 2+0:0:0:0:0, 2+1:0:0:0:1, 2+5:0:0:0:1, 2+0:0:0:0:0, 0+0:0:0:0:0, 2+1:0:0:0:1, 2+2:0:0:0:1, 2+0:0:0:0:0, 0+0:0:0:0:0, 3+5:0:0:0:0, 4+2:0:0:0:0, 3+1:0:0:0:0, 2+0:0:0:0:0, 3+1:0:0:0:1, 3+5:0:0:1:1, 3+1:0:0:0:0, 6+5:0:0:0:0, 4+3:0:0:0:0, 3+0:0:0:0:0, 2+0:0:0:0:0, 4+4:1:2:0:3, 3+5:0:0:0:0, 6+4:0:0:0:0, 4+3:0:0:0:0, 2+0:0:0:0:0, 3+7:0:0:0:3, 8+11:2:0:0:3, 2+0:0:0:0:0, 3+5:1:3:0:4, 3+0:0:0:0:0, 3+4:0:0:0:0, 3+1:0:0:0:0, 3+1:0:0:0:0, 3+2:0:0:0:0, 3+4:0:0:0:2, 3+5:0:0:0:0, 0+0:0:0:0:0, 2+1:0:0:0:1, 2+2:0:0:0:1, 2+0:0:0:0:0, 0+0:0:0:0:0, 3+0:0:0:0:0, 3+2:0:0:0:0, 3+1:0:0:0:0, 3+4:0:0:0:0, 3+5:0:0:0:0, 6+6:0:0:1:1, 4+2:0:0:0:0, 6+4:0:0:0:1, 3+1:0:0:0:1, 2+3:0:0:0:0, 3+1:0:0:0:0, 4+5:1:0:0:1, 4+2:0:0:0:0, 3+2:0:0:0:0, 2+0:0:0:0:0, 2+0:0:0:0:0, 2+2:0:0:0:1, 4+5:0:0:0:1, 2+0:0:0:0:0, 2+3:1:0:0:1, 3+0:0:0:0:0, 3+4:0:0:0:0, 3+1:0:0:0:0, 4+1:0:0:0:0, 4+3:2:2:0:3, 2+5:0:0:0:2, 4+2:0:0:0:0, 2+1:1:0:0:1, 3+4:0:0:0:3, 5+5:0:0:0:1, 4+1:0:0:0:0, 1+0:0:0:0:0, 3+0:0:0:0:0, 4+6:0:0:0:0, 5+2:0:0:0:0, 3+1:0:0:0:0, 2+3:0:0:0:2, 3+4:0:0:1:1, 5+3:0:0:0:0, 7+5:0:0:0:0, 4+1:0:0:0:0, 5+1:0:0:0:0, 4+1:0:0:0:0, 1+0:0:0:0:0, 5+2:0:0:0:1, 5+1:0:0:0:0, 5+6:1:0:0:1, 2+1:0:0:0:0, 2+6:0:0:0:2, 2+4:0:0:0:1, 2+3:0:0:0:1, 0+1:0:0:0:0, 0+1:0:0:0:0, 509+351:14:7:5:79
Db major (5b), 2+1:0:0:0:0, 2+0:0:0:0:0, 5+2:0:0:0:0, 3+0:0:0:0:0, 3+0:0:0:0:0, 3+0:0:0:0:0, 5+3:0:0:0:3, 4+0:0:0:0:0, 6+2:1:0:0:1, 2+0:0:0:0:0, 4+2:0:0:0:0, 3+0:0:0:0:0, 3+0:0:0:0:0, 3+0:0:0:0:0, 5+1:0:0:0:1, 3+0:0:0:0:0, 2+0:0:0:0:0, 4+0:0:0:0:0, 5+1:0:0:0:1, 3+0:0:0:0:0, 1+0:0:0:0:0, 2+0:0:0:0:0, 4+1:0:0:0:0, 4+1:0:0:0:1, 3+1:0:0:0:1, 3+0:0:0:0:0, 7+3:0:0:1:2, 6+1:0:0:0:1, 4+4:0:0:0:0, 2+0:0:0:0:0, 5+1:0:0:0:1, 4+0:0:0:0:0, 5+2:1:0:0:1, 4+0:0:0:0:0, 4+0:0:0:0:0, 5+1:0:0:0:1, 4+2:0:0:0:0, 3+1:0:0:0:1, 6+2:0:0:0:1, 4+0:0:0:0:0, 4+1:1:0:0:1, 5+1:1:0:0:1, 6+1:0:0:0:1, 4+2:0:0:0:0, 3+3:0:0:0:3, 4+1:0:0:0:0, 4+3:0:0:0:1, 4+0:0:0:0:0, 2+0:0:0:0:0, 4+0:0:0:0:0, 7+3:0:0:0:1, 3+0:0:0:0:0, 3+1:1:0:0:0, 4+0:0:0:0:0, 4+0:0:0:0:0, 4+2:0:0:0:2, 4+2:0:0:0:0, 3+0:0:0:0:0, 7+3:0:0:1:1, 6+0:0:0:0:0, 7+3:0:0:0:0, 3+1:0:0:0:0, 5+4:1:0:0:3, 3+0:0:0:0:0, 6+4:1:0:0:0, 2+0:0:0:0:0, 4+1:0:0:0:0, 4+0:0:0:0:0, 2+0:0:0:0:0, 3+0:0:0:0:0, 4+1:0:0:0:1, 3+0:0:0:0:0, 4+1:1:0:0:1, 2+0:0:0:0:0, 3+1:0:0:0:0, 3+0:0:0:0:0, 2+0:0:0:0:0, 3+0:0:0:0:0, 4+1:0:0:0:1, 3+0:0:0:0:0, 1+0:0:0:0:0, 3+2:0:0:0:0, 4+1:0:0:0:1, 3+0:0:0:0:0, 1+0:0:0:0:0, 3+0:0:0:0:0, 4+1:0:0:0:0, 4+0:0:0:0:0, 2+0:0:0:0:0, 3+0:0:0:0:0, 6+3:0:0:1:1, 5+0:0:0:0:0, 4+1:1:0:0:1, 1+0:0:0:0:0, 5+1:0:0:0:1, 3+0:0:0:0:0, 5+2:1:0:0:1, 3+0:0:0:0:0, 6+1:0:0:0:1, 4+0:0:0:0:0, 2+0:0:0:0:0, 5+1:0:0:0:1, 8+5:0:0:0:2, 3+0:0:0:0:0, 5+2:1:0:0:1, 2+0:0:0:0:0, 3+1:0:0:0:0, 4+1:0:0:0:0, 3+0:0:0:0:0, 4+0:0:0:0:0, 4+2:0:0:0:1, 4+1:0:0:0:0, 1+0:0:0:0:0, 3+0:0:0:0:0, 4+1:0:0:0:1, 3+0:0:0:0:0, 1+0:0:0:0:0, 2+0:0:0:0:0, 4+1:0:0:0:0, 4+0:0:0:0:0, 3+0:0:0:0:0, 4+0:0:0:0:0, 8+4:0:0:1:3, 6+2:0:0:0:1, 3+1:0:0:0:0, 1+0:0:0:0:0, 5+2:0:0:0:2, 4+1:0:0:0:1, 5+1:1:0:0:1, 4+0:0:0:0:0, 3+0:0:0:0:0, 4+0:0:0:0:0, 2+0:0:0:0:0, 5+2:0:0:0:0, 5+5:0:0:0:1, 3+0:0:0:0:0, 4+1:1:0:0:1, 2+0:0:0:0:0, 5+2:0:0:0:0, 4+1:0:0:0:0, 4+0:0:0:0:0, 4+0:0:0:0:0, 5+3:0:0:0:1, 5+2:0:0:0:2, 3+1:1:0:0:0, 5+0:0:0:0:0, 6+2:0:0:0:1, 4+0:0:0:0:0, 1+0:0:0:0:0, 2+0:0:0:0:0, 3+1:0:0:0:0, 6+2:0:0:0:0, 2+0:0:0:0:0, 5+1:0:0:0:0, 6+6:0:0:1:1, 7+2:0:0:0:2, 3+3:0:0:0:0, 2+0:0:0:0:0, 5+4:1:0:0:3, 4+2:0:0:0:0, 3+1:0:0:0:0, 4+2:0:0:0:0, 5+2:0:0:0:1, 7+4:2:0:0:0, 4+0:0:0:0:0, 4+0:0:0:0:0, 4+1:0:0:0:1, 4+2:0:0:0:1, 1+0:0:0:0:0, 1+0:0:0:0:0, 643+162:17:0:5:68
B major (5#), 2+0:0:0:0:0, 4+0:0:0:0:0, 4+3:0:0:0:0, 2+0:0:0:0:0, 4+2:0:0:0:0, 3+2:0:0:0:1, 3+4:0:0:0:1, 3+2:0:0:0:0, 6+5:1:0:0:2, 4+3:0:0:0:0, 3+2:0:0:0:2, 2+0:0:0:0:0, 4+3:0:0:0:0, 3+2:0:0:0:1, 4+4:0:0:0:0, 3+0:0:0:0:0, 1+0:0:0:0:0, 3+1:0:0:0:0, 3+1:0:0:0:0, 3+0:0:0:0:0, 1+0:0:0:0:0, 4+0:0:0:0:0, 3+3:0:0:0:0, 2+1:0:0:0:0, 3+2:0:0:0:0, 3+4:0:0:0:3, 4+4:0:0:1:2, 5+5:0:0:0:0, 7+2:1:0:0:1, 5+3:0:0:0:0, 4+0:0:0:0:0, 3+0:0:0:0:0, 5+2:1:0:0:1, 5+2:0:0:0:0, 4+3:0:0:0:1, 3+1:0:0:0:0, 5+4:0:0:0:0, 5+1:0:0:0:1, 4+1:0:0:0:0, 5+2:0:0:0:0, 3+5:1:0:0:1, 5+5:0:0:0:3, 5+5:0:0:0:1, 2+4:0:0:0:0, 3+4:0:0:0:0, 5+2:0:0:0:0, 2+6:0:0:0:3, 4+1:0:0:0:0, 2+0:0:0:0:0, 4+3:0:0:0:0, 7+4:0:0:0:0, 4+1:0:0:0:0, 2+1:0:0:0:0, 5+2:0:0:0:0, 4+2:0:0:0:1, 2+0:0:0:0:0, 5+4:0:0:0:0, 3+2:0:0:0:1, 4+3:0:0:1:1, 4+8:0:0:0:0, 9+4:2:0:0:1, 6+2:0:0:0:0, 6+1:0:0:0:0, 3+0:0:0:0:0, 4+5:1:0:0:3, 4+4:0:0:0:0, 3+1:0:0:0:1, 3+0:0:0:0:0, 3+1:0:0:0:0, 3+2:0:0:0:1, 2+2:0:0:0:1, 3+0:0:0:0:0, 3+3:1:0:0:1, 4+3:0:0:0:0, 3+1:0:0:0:1, 2+0:0:0:0:0, 3+2:0:0:0:0, 3+2:0:0:0:1, 2+2:0:0:0:1, 3+0:0:0:0:0, 1+1:0:0:0:0, 3+2:0:0:0:1, 2+2:0:0:0:1, 3+0:0:0:0:0, 1+3:0:0:0:0, 4+5:0:0:0:0, 4+1:0:0:0:1, 3+1:0:0:0:0, 3+3:0:0:0:0, 3+3:0:0:0:2, 3+3:0:0:1:1, 4+6:0:0:0:0, 6+2:1:0:0:1, 5+3:0:0:0:0, 4+0:0:0:0:0, 3+0:0:0:0:0, 5+4:1:2:0:3, 4+5:0:0:0:0, 5+4:0:0:0:0, 4+3:0:0:0:0, 3+0:0:0:0:0, 4+4:0:0:0:0, 7+10:2:0:0:2, 3+0:0:0:0:0, 4+5:1:3:0:4, 4+3:0:0:0:0, 3+3:0:0:0:3, 4+1:0:0:0:0, 4+1:0:0:0:0, 4+2:0:0:0:0, 3+4:0:0:0:0, 4+1:0:0:0:0, 0+0:0:0:0:0, 3+2:0:0:0:1, 2+2:0:0:0:1, 3+0:0:0:0:0, 1+2:0:0:0:0, 4+4:0:0:0:0, 3+1:0:0:0:1, 3+1:0:0:0:0, 4+4:0:0:0:0, 4+5:0:0:0:0, 6+6:0:0:1:1, 5+2:0:0:0:0, 6+4:0:0:0:1, 4+1:0:0:0:1, 3+3:0:0:0:0, 4+1:0:0:0:0, 5+5:1:0:0:1, 5+2:0:0:0:0, 3+1:0:0:0:1, 3+0:0:0:0:0, 3+0:0:0:0:0, 3+1:0:0:0:0, 4+2:0:0:0:0, 3+0:0:0:0:0, 3+3:1:0:0:1, 4+3:0:0:0:0, 4+3:0:0:0:2, 4+1:0:0:0:0, 5+4:0:0:0:0, 3+5:0:0:0:4, 3+6:0:0:0:2, 5+2:0:0:0:0, 2+1:1:0:0:1, 4+4:0:0:0:3, 5+5:0:0:0:1, 5+1:0:0:0:0, 1+0:0:0:0:0, 4+0:0:0:0:0, 4+6:0:0:0:0, 4+2:0:0:0:0, 4+1:0:0:0:0, 3+2:0:0:0:0, 3+3:0:0:1:1, 6+3:0:0:0:0, 7+5:0:0:0:0, 5+4:0:0:0:0, 6+1:0:0:0:0, 5+1:0:0:0:0, 2+0:0:0:0:0, 6+2:0:0:0:1, 5+1:0:0:0:0, 6+6:1:0:0:1, 3+1:0:0:0:0, 3+3:0:0:0:2, 2+4:0:0:0:1, 3+2:0:0:0:0, 0+0:0:0:0:0, 0+0:0:0:0:0, 621+390:17:5:5:85
Bb minor (5b), 2+1:0:0:0:0, 2+0:0:0:0:0, 5+2:0:0:0:0, 3+1:0:0:0:0, 3+0:0:0:0:0, 3+1:0:0:0:0, 5+3:0:0:0:3, 4+0:0:0:0:0, 6+2:1:0:0:1, 2+0:0:0:0:0, 4+2:0:0:0:0, 3+1:0:0:0:0, 3+0:0:0:0:0, 3+1:0:0:0:0, 5+1:0:0:0:1, 3+0:0:0:0:0, 2+1:0:0:0:0, 4+3:0:0:0:0, 5+1:0:0:0:1, 3+0:0:0:0:0, 1+1:0:0:0:0, 2+0:0:0:0:0, 4+1:0:0:0:0, 4+1:0:0:0:1, 3+1:1:0:0:1, 3+1:0:0:0:0, 7+3:0:0:1:2, 6+1:0:0:0:1, 4+4:0:0:0:0, 2+0:0:0:0:0, 5+1:0:0:0:1, 4+0:0:0:0:0, 5+2:1:0:0:1, 4+0:0:0:0:0, 4+1:0:0:0:0, 5+2:1:0:0:1, 4+2:2:0:0:2, 3+3:0:0:0:0, 6+2:0:0:0:1, 4+0:0:0:0:0, 4+1:1:0:0:1, 5+1:1:0:0:1, 6+1:0:0:0:1, 4+2:0:0:0:0, 3+3:3:0:0:3, 4+2:0:0:0:1, 4+3:0:0:0:1, 4+0:0:0:0:0, 2+0:0:0:0:0, 4+1:0:0:0:0, 7+3:0:0:0:1, 3+0:0:0:0:0, 3+1:1:0:0:0, 4+0:0:0:0:0, 4+1:0:0:0:0, 4+2:0:0:0:2, 4+2:0:0:0:0, 3+2:0:0:0:0, 7+3:0:0:1:1, 6+0:0:0:0:0, 7+3:0:0:0:0, 3+1:0:0:0:0, 5+4:1:0:0:3, 3+0:0:0:0:0, 6+4:4:0:0:4, 2+0:0:0:0:0, 4+1:0:0:0:0, 4+1:0:0:0:0, 2+0:0:0:0:0, 3+3:0:0:0:0, 4+1:0:0:0:1, 3+0:0:0:0:0, 4+1:1:0:0:1, 2+0:0:0:0:0, 3+1:0:0:0:0, 3+1:0:0:0:0, 2+0:0:0:0:0, 3+2:0:0:0:0, 4+1:0:0:0:1, 3+0:0:0:0:0, 1+0:0:0:0:0, 3+2:0:0:0:0, 4+1:0:0:0:1, 3+0:0:0:0:0, 1+0:0:0:0:0, 3+0:0:0:0:0, 4+1:0:0:0:0, 4+0:0:0:0:0, 2+0:0:0:0:0, 3+3:0:0:0:0, 6+3:0:0:1:1, 5+0:0:0:0:0, 4+1:1:0:0:1, 1+0:0:0:0:0, 5+1:0:0:0:1, 3+0:0:0:0:0, 5+2:1:0:0:1, 3+0:0:0:0:0, 7+3:0:0:0:0, 4+1:0:0:0:0, 2+0:0:0:0:0, 5+1:0:0:0:1, 8+5:0:0:0:2, 3+0:0:0:0:0, 5+2:1:0:0:1, 2+0:0:0:0:0, 3+1:0:0:0:0, 4+1:0:0:0:0, 3+0:0:0:0:0, 4+3:0:0:0:0, 4+2:0:0:0:1, 4+1:0:0:0:0, 1+0:0:0:0:0, 3+3:0:0:0:0, 4+1:0:0:0:1, 3+0:0:0:0:0, 1+0:0:0:0:0, 2+0:0:0:0:0, 4+1:0:0:0:0, 4+1:0:0:0:0, 3+0:0:0:0:0, 4+1:0:0:0:0, 8+4:0:0:1:3, 6+2:0:0:0:1, 3+1:0:0:0:0, 1+0:0:0:0:0, 5+2:0:0:0:2, 4+1:0:0:0:1, 5+1:1:0:0:1, 4+2:0:0:0:0, 3+1:0:0:0:0, 4+2:0:0:0:0, 2+0:0:0:0:0, 5+2:0:0:0:0, 5+5:0:0:0:1, 3+0:0:0:0:0, 4+1:1:0:0:1, 2+0:0:0:0:0, 5+2:0:0:0:0, 4+1:0:0:0:0, 4+0:0:0:0:0, 4+1:0:0:0:0, 5+3:0:0:0:1, 5+2:0:0:0:2, 3+3:0:0:0:0, 5+1:0:0:0:0, 6+2:0:0:0:1, 4+0:0:0:0:0, 1+2:0:0:0:0, 2+0:0:0:0:0, 3+1:0:0:0:0, 6+2:0:0:0:0, 2+0:0:0:0:0, 5+1:0:0:0:0, 6+6:0:0:1:1, 7+2:0:0:0:2, 3+3:0:0:0:0, 2+0:0:0:0:0, 5+4:1:0:0:3, 4+2:0:0:0:0, 3+1:0:0:0:0, 4+2:0:0:0:0, 5+2:0:0:0:1, 7+4:2:0:0:0, 4+0:0:0:0:0, 4+0:0:0:0:0, 4+1:0:0:0:1, 4+2:0:0:0:1, 1+0:0:0:0:0, 1+0:0:0:0:0, 644+213:26:0:5:73
G# minor (5#), 2+1:0:0:0:0, 5+2:0:0:0:2, 4+3:0:0:0:2, 2+0:0:0:0:0, 4+1:0:0:0:0, 3+2:0:0:0:1, 3+4:0:0:0:1, 3+2:0:0:0:0, 6+5:1:0:0:2, 4+0:0:0:0:0, 3+2:0:0:0:0, 2+0:0:0:0:0, 4+1:0:0:0:0, 3+1:0:0:0:1, 4+3:0:0:0:2, 3+0:0:0:0:0, 1+0:0:0:0:0, 3+2:0:0:0:1, 3+2:0:0:0:1, 3+0:0:0:0:0, 1+0:0:0:0:0, 4+0:0:0:0:0, 3+2:0:0:0:2, 2+3:0:0:0:3, 3+2:0:0:0:2, 4+1:0:0:0:1, 4+3:0:0:1:1, 5+5:0:0:0:0, 7+2:1:0:0:1, 5+3:0:0:0:0, 4+0:0:0:0:0, 3+0:0:0:0:0, 5+2:1:0:0:1, 5+2:0:0:0:0, 4+3:0:0:0:1, 3+1:0:0:0:0, 5+4:0:0:0:0, 5+1:0:0:0:1, 4+3:0:0:0:1, 5+4:0:0:0:0, 3+5:1:0:0:1, 5+5:0:0:0:3, 5+5:0:0:0:1, 2+4:0:0:0:0, 3+4:0:0:0:0, 5+2:0:0:0:0, 4+3:0:0:0:1, 4+1:0:0:0:0, 2+0:0:0:0:0, 4+0:0:0:0:0, 7+2:0:0:0:0, 4+1:0:0:0:0, 2+1:0:0:0:0, 5+2:0:0:0:0, 4+2:0:0:0:1, 2+0:0:0:0:0, 5+4:0:0:0:0, 3+1:0:0:0:1, 4+4:0:0:1:1, 4+8:0:0:0:0, 9+4:2:0:0:1, 6+2:0:0:0:0, 6+1:0:0:0:0, 3+0:0:0:0:0, 4+5:1:0:0:3, 4+0:0:0:0:0, 3+1:0:0:0:0, 3+0:0:0:0:0, 3+0:0:0:0:0, 3+1:0:0:0:1, 2+3:0:0:0:1, 3+0:0:0:0:0, 3+3:1:0:0:1, 4+0:0:0:0:0, 3+3:0:0:0:0, 2+0:0:0:0:0, 3+0:0:0:0:0, 3+1:0:0:0:1, 2+5:0:0:0:1, 3+0:0:0:0:0, 1+1:0:0:0:0, 3+2:0:0:0:1, 2+2:0:0:0:1, 3+0:0:0:0:0, 1+3:0:0:0:0, 4+5:0:0:0:0, 4+1:0:0:0:1, 3+1:0:0:0:0, 3+0:0:0:0:0, 4+1:0:0:0:1, 3+5:0:0:1:1, 4+6:0:0:0:0, 6+2:1:0:0:1, 5+3:0:0:0:0, 4+0:0:0:0:0, 3+0:0:0:0:0, 5+4:1:2:0:3, 4+0:0:0:0:0, 5+2:0:0:0:1, 4+1:0:0:0:0, 3+0:0:0:0:0, 4+7:0:0:0:3, 8+11:2:0:0:3, 3+0:0:0:0:0, 4+5:1:3:0:4, 4+0:0:0:0:0, 3+4:0:0:0:0, 4+3:0:0:0:0, 4+2:0:0:0:0, 4+0:0:0:0:0, 3+4:0:0:0:2, 4+5:0:0:0:0, 0+0:0:0:0:0, 3+2:0:0:0:1, 2+2:0:0:0:1, 3+0:0:0:0:0, 1+2:0:0:0:0, 4+0:0:0:0:0, 3+1:0:0:0:0, 3+1:0:0:0:0, 4+0:0:0:0:0, 4+0:0:0:0:0, 7+7:0:0:1:2, 5+7:0:0:0:0, 6+4:0:0:0:1, 4+1:0:0:0:1, 3+6:0:0:0:3, 4+1:0:0:0:0, 5+5:1:0:0:1, 5+2:0:0:0:0, 3+1:0:0:0:1, 3+0:0:0:0:0, 3+0:0:0:0:0, 3+2:0:0:0:1, 4+5:0:0:0:1, 3+0:0:0:0:0, 3+3:1:0:0:1, 4+0:0:0:0:0, 4+3:0:0:0:0, 4+3:0:0:0:0, 5+1:0:0:0:0, 5+3:2:2:0:3, 3+5:0:0:0:2, 5+2:0:0:0:0, 2+1:1:0:0:1, 4+4:0:0:0:3, 5+5:0:0:0:1, 5+1:0:0:0:0, 1+0:0:0:0:0, 4+0:0:0:0:0, 4+1:0:0:0:0, 4+6:0:0:0:1, 4+1:0:0:0:0, 3+3:0:0:0:2, 3+4:0:0:1:1, 6+7:0:0:0:0, 6+2:1:0:0:1, 5+4:0:0:0:0, 6+1:0:0:0:0, 5+2:0:0:0:0, 2+0:0:0:0:0, 6+2:0:0:0:1, 5+1:0:0:0:0, 6+6:1:0:0:1, 3+4:0:0:0:0, 3+3:0:0:0:2, 2+4:0:0:0:1, 3+3:0:0:0:1, 0+0:0:0:0:0, 0+0:0:0:0:0, 629+369:20:7:5:102
Gb major (6b), 3+0:0:0:0:0, 3+0:0:0:0:0, 5+0:0:0:0:0, 4+0:0:0:0:0, 4+0:0:0:0:0, 3+0:0:0:0:0, 6+3:0:0:0:3, 5+0:0:0:0:0, 6+2:1:0:0:1, 3+0:0:0:0:0, 4+0:0:0:0:0, 4+0:0:0:0:0, 4+0:0:0:0:0, 3+0:0:0:0:0, 6+1:0:0:0:1, 4+0:0:0:0:0, 2+0:0:0:0:0, 4+0:0:0:0:0, 5+1:0:0:0:1, 4+0:0:0:0:0, 2+0:0:0:0:0, 3+0:0:0:0:0, 4+0:0:0:0:0, 5+1:0:0:0:1, 4+1:0:0:0:1, 3+0:0:0:0:0, 7+3:0:0:1:2, 7+1:0:0:0:1, 5+5:0:0:0:0, 3+0:0:0:0:0, 6+1:0:0:0:1, 5+0:0:0:0:0, 5+2:1:0:0:1, 5+0:0:0:0:0, 4+0:0:0:0:0, 6+1:0:0:0:1, 5+2:0:0:0:0, 4+1:0:0:0:1, 6+2:0:0:0:1, 5+0:0:0:0:0, 4+1:1:0:0:1, 6+1:1:0:0:1, 6+1:0:0:0:1, 5+2:0:0:0:0, 4+3:0:0:0:3, 5+1:0:0:0:0, 4+3:0:0:0:1, 5+0:0:0:0:0, 3+0:0:0:0:0, 5+0:0:0:0:0, 8+3:0:0:0:1, 4+0:0:0:0:0, 4+1:1:0:0:0, 5+0:0:0:0:0, 4+0:0:0:0:0, 5+2:0:0:0:2, 5+2:0:0:0:0, 3+0:0:0:0:0, 7+2:0:0:1:1, 7+1:0:0:0:0, 8+3:0:0:0:0, 4+1:0:0:0:0, 6+2:0:0:0:1, 4+0:0:0:0:0, 6+4:1:0:0:0, 3+0:0:0:0:0, 4+0:0:0:0:0, 5+0:0:0:0:0, 3+0:0:0:0:0, 3+0:0:0:0:0, 4+1:0:0:0:1, 4+0:0:0:0:0, 4+1:1:0:0:1, 3+0:0:0:0:0, 3+0:0:0:0:0, 4+0:0:0:0:0, 3+0:0:0:0:0, 3+0:0:0:0:0, 4+1:0:0:0:1, 4+0:0:0:0:0, 1+0:0:0:0:0, 3+0:0:0:0:0, 4+1:0:0:0:1, 4+0:0:0:0:0, 1+0:0:0:0:0, 4+0:0:0:0:0, 4+1:0:0:0:0, 5+0:0:0:0:0, 3+0:0:0:0:0, 3+0:0:0:0:0, 6+2:0:0:1:1, 6+1:0:0:0:0, 5+1:1:0:0:1, 2+0:0:0:0:0, 6+1:0:0:0:1, 4+0:0:0:0:0, 5+2:1:0:0:1, 4+0:0:0:0:0, 7+1:0:0:0:1, 5+0:0:0:0:0, 3+0:0:0:0:0, 5+1:0:0:0:1, 8+5:0:0:0:2, 4+0:0:0:0:0, 5+2:1:0:0:1, 3+0:0:0:0:0, 3+0:0:0:0:0, 5+0:0:0:0:0, 4+0:0:0:0:0, 5+0:0:0:0:0, 5+2:0:0:0:1, 5+1:0:0:0:0, 1+0:0:0:0:0, 3+0:0:0:0:0, 4+1:0:0:0:1, 4+0:0:0:0:0, 1+0:0:0:0:0, 3+0:0:0:0:0, 4+0:0:0:0:0, 5+0:0:0:0:0, 4+0:0:0:0:0, 5+0:0:0:0:0, 9+4:0:0:1:3, 7+2:0:0:0:1, 4+1:0:0:0:0, 2+0:0:0:0:0, 5+2:0:0:0:2, 5+1:0:0:0:1, 5+1:1:0:0:1, 5+0:0:0:0:0, 3+0:0:0:0:0, 5+0:0:0:0:0, 3+0:0:0:0:0, 5+2:0:0:0:0, 5+5:0:0:0:1, 4+0:0:0:0:0, 4+1:1:0:0:1, 3+0:0:0:0:0, 5+0:0:0:0:0, 5+0:0:0:0:0, 5+0:0:0:0:0, 4+0:0:0:0:0, 5+3:0:0:0:1, 6+2:0:0:0:2, 3+1:1:0:0:0, 5+0:0:0:0:0, 6+2:0:0:0:1, 5+0:0:0:0:0, 2+0:0:0:0:0, 3+0:0:0:0:0, 4+0:0:0:0:0, 7+2:0:0:0:0, 3+0:0:0:0:0, 5+1:0:0:0:0, 6+2:0:0:1:1, 8+2:0:0:0:2, 4+5:0:0:0:0, 3+0:0:0:0:0, 6+4:1:0:0:3, 5+2:0:0:0:0, 4+1:0:0:0:0, 5+2:0:0:0:0, 6+2:0:0:0:1, 8+4:2:0:0:0, 5+0:0:0:0:0, 4+0:0:0:0:0, 4+1:0:0:0:1, 5+2:0:0:0:1, 0+0:0:0:0:0, 0+0:0:0:0:0, 748+142:16:0:5:66
F# major (6#), 2+1:0:0:0:1, 4+0:0:0:0:0, 5+2:0:0:0:0, 3+1:0:0:0:0, 5+1:0:0:0:0, 3+1:0:0:0:1, 4+5:0:0:0:3, 4+1:0:0:0:0, 7+3:0:0:0:0, 4+0:0:0:0:0, 4+2:0:0:0:0, 3+1:0:0:0:0, 5+1:0:0:0:0, 3+1:0:0:0:1, 5+3:0:0:0:2, 4+3:0:0:0:0, 1+0:0:0:0:0, 4+2:0:0:0:1, 4+2:0:0:0:1, 4+1:0:0:0:0, 1+0:0:0:0:0, 4+0:0:0:0:0, 4+3:0:0:0:0, 3+3:0:0:0:1, 4+1:0:0:0:0, 3+1:0:0:0:1, 5+3:0:0:1:1, 6+5:0:0:0:0, 8+2:0:0:0:0, 5+1:0:0:0:1, 5+0:0:0:0:0, 4+0:0:0:0:0, 6+2:1:0:0:1, 6+2:0:0:0:0, 4+3:0:0:0:0, 4+2:0:0:0:0, 6+4:0:0:0:0, 5+1:0:0:0:1, 5+1:0:0:0:0, 6+2:0:0:0:0, 4+5:1:0:0:1, 6+5:0:0:0:3, 6+5:0:0:0:1, 3+3:0:0:0:0, 4+3:0:0:0:0, 6+1:0:0:0:0, 3+3:0:0:0:0, 5+2:0:0:0:0, 3+0:0:0:0:0, 5+0:0:0:0:0, 8+3:0:0:0:0, 5+1:0:0:0:0, 3+1:0:0:0:0, 6+1:0:0:0:0, 4+3:0:0:0:0, 3+3:0:0:0:0, 6+4:0:0:0:0, 3+1:0:0:0:1, 5+4:0:0:1:1, 5+8:0:0:0:0, 10+4:2:0:0:1, 6+2:0:0:0:1, 6+1:0:0:0:1, 4+3:0:0:0:0, 5+5:1:0:0:0, 4+0:0:0:0:0, 4+1:0:0:0:0, 4+2:0:0:0:0, 4+0:0:0:0:0, 3+1:0:0:0:1, 3+3:0:0:0:1, 4+0:0:0:0:0, 4+3:1:0:0:1, 4+0:0:0:0:0, 3+3:0:0:0:0, 3+1:0:0:0:0, 4+0:0:0:0:0, 3+1:0:0:0:1, 3+5:0:0:0:1, 4+3:0:0:0:0, 1+0:0:0:0:0, 3+1:0:0:0:1, 3+2:0:0:0:1, 4+1:0:0:0:0, 1+0:0:0:0:0, 5+0:0:0:0:0, 4+3:0:0:0:0, 4+1:0:0:0:0, 4+0:0:0:0:0, 3+1:0:0:0:1, 4+5:0:0:1:1, 5+6:0:0:0:0, 7+2:1:0:0:1, 5+3:0:0:0:0, 5+0:0:0:0:0, 4+0:0:0:0:0, 6+4:1:2:0:3, 5+0:0:0:0:0, 6+2:0:0:0:1, 5+1:0:0:0:0, 4+0:0:0:0:0, 5+5:3:3:0:4, 9+11:2:0:0:3, 4+0:0:0:0:0, 5+5:1:3:0:4, 4+0:0:0:0:0, 3+4:0:0:0:0, 5+3:0:0:0:0, 5+2:0:0:0:0, 5+0:0:0:0:0, 4+2:0:0:0:0, 5+1:0:0:0:0, 0+0:0:0:0:0, 3+1:0:0:0:1, 3+2:0:0:0:1, 4+1:0:0:0:0, 1+0:0:0:0:0, 4+0:0:0:0:0, 4+1:0:0:0:0, 4+1:0:0:0:0, 5+0:0:0:0:0, 5+0:0:0:0:0, 8+7:0:0:1:2, 6+7:0:0:0:0, 7+4:0:0:0:1, 4+1:0:0:0:1, 4+3:0:0:0:0, 5+1:0:0:0:0, 5+3:0:0:0:0, 5+1:0:0:0:0, 3+2:0:0:0:0, 4+2:0:0:0:0, 4+0:0:0:0:0, 4+2:0:0:0:1, 5+5:0:0:0:1, 4+0:0:0:0:0, 4+3:1:0:0:1, 4+0:0:0:0:0, 5+3:0:0:0:0, 5+3:0:0:0:0, 6+1:0:0:0:0, 4+3:2:2:0:3, 4+5:0:0:0:2, 6+2:0:0:0:0, 3+1:1:0:0:1, 5+4:0:0:0:3, 6+5:0:0:0:1, 6+1:0:0:0:0, 1+0:0:0:0:0, 4+0:0:0:0:0, 4+1:0:0:0:0, 5+6:0:0:0:1, 5+1:0:0:0:0, 4+2:0:0:0:1, 4+4:0:0:1:1, 7+7:0:0:0:0, 7+2:0:0:0:0, 5+2:0:0:0:2, 6+1:0:0:0:1, 6+2:0:0:0:0, 3+1:0:0:0:0, 6+2:0:0:0:1, 6+4:0:0:0:2, 7+7:1:0:0:3, 4+4:0:0:0:3, 4+5:4:4:0:5, 3+4:0:0:0:1, 4+3:0:0:0:1, 0+0:0:0:0:0, 0+0:0:0:0:0, 746+359:23:14:5:92
Eb minor (6b), 3+0:0:0:0:0, 3+0:0:0:0:0, 5+0:0:0:0:0, 4+0:0:0:0:0, 4+0:0:0:0:0, 3+0:0:0:0:0, 6+3:0:0:0:3, 5+0:0:0:0:0, 6+2:1:0:0:1, 3+0:0:0:0:0, 4+0:0:0:0:0, 4+0:0:0:0:0, 4+0:0:0:0:0, 3+0:0:0:0:0, 6+1:0:0:0:1, 4+0:0:0:0:0, 2+0:0:0:0:0, 4+0:0:0:0:0, 5+1:0:0:0:1, 4+0:0:0:0:0, 2+0:0:0:0:0, 3+0:0:0:0:0, 4+0:0:0:0:0, 5+1:0:0:0:1, 4+1:0:0:0:1, 3+0:0:0:0:0, 7+3:0:0:1:2, 7+2:0:0:0:1, 5+4:0:0:0:0, 3+0:0:0:0:0, 6+1:0:0:0:1, 5+0:0:0:0:0, 5+2:1:0:0:1, 5+0:0:0:0:0, 4+0:0:0:0:0, 6+1:0:0:0:1, 5+2:0:0:0:0, 4+1:0:0:0:1, 6+2:0:0:0:1, 5+0:0:0:0:0, 4+1:1:0:0:1, 6+1:1:0:0:1, 6+1:0:0:0:1, 5+2:0:0:0:0, 4+3:0:0:0:3, 5+1:0:0:0:0, 4+3:0:0:0:1, 5+0:0:0:0:0, 3+0:0:0:0:0, 5+0:0:0:0:0, 8+3:0:0:0:1, 4+0:0:0:0:0, 4+1:1:0:0:0, 5+0:0:0:0:0, 4+0:0:0:0:0, 5+2:0:0:0:2, 5+2:0:0:0:0, 3+0:0:0:0:0, 7+2:0:0:1:1, 7+1:0:0:0:0, 8+3:0:0:0:0, 4+1:0:0:0:0, 6+4:1:0:0:3, 4+0:0:0:0:0, 6+4:1:0:0:0, 3+0:0:0:0:0, 4+0:0:0:0:0, 5+0:0:0:0:0, 3+0:0:0:0:0, 3+0:0:0:0:0, 4+1:0:0:0:1, 4+0:0:0:0:0, 4+1:1:0:0:1, 3+0:0:0:0:0, 3+0:0:0:0:0, 4+0:0:0:0:0, 3+0:0:0:0:0, 3+0:0:0:0:0, 4+1:0:0:0:1, 4+0:0:0:0:0, 1+0:0:0:0:0, 3+0:0:0:0:0, 4+1:0:0:0:1, 4+0:0:0:0:0, 1+0:0:0:0:0, 4+0:0:0:0:0, 4+1:0:0:0:0, 5+0:0:0:0:0, 3+0:0:0:0:0, 3+0:0:0:0:0, 6+2:0:0:1:1, 6+1:0:0:0:0, 5+1:1:0:0:1, 2+0:0:0:0:0, 6+1:0:0:0:1, 4+0:0:0:0:0, 5+2:1:0:0:1, 4+0:0:0:0:0, 7+1:0:0:0:1, 5+0:0:0:0:0, 3+0:0:0:0:0, 5+1:0:0:0:1, 8+5:0:0:0:2, 4+0:0:0:0:0, 5+2:1:0:0:1, 3+0:0:0:0:0, 3+0:0:0:0:0, 5+0:0:0:0:0, 4+0:0:0:0:0, 5+0:0:0:0:0, 5+2:0:0:0:1, 5+1:0:0:0:0, 1+0:0:0:0:0, 3+0:0:0:0:0, 4+1:0:0:0:1, 4+0:0:0:0:0, 1+0:0:0:0:0, 3+0:0:0:0:0, 4+0:0:0:0:0, 5+0:0:0:0:0, 4+0:0:0:0:0, 5+0:0:0:0:0, 9+4:0:0:1:3, 7+2:0:0:0:1, 4+1:0:0:0:1, 2+3:0:0:0:0, 5+2:0:0:0:2, 5+1:0:0:0:1, 5+1:1:0:0:1, 5+0:0:0:0:0, 3+0:0:0:0:0, 5+0:0:0:0:0, 3+0:0:0:0:0, 5+2:0:0:0:0, 5+5:0:0:0:1, 4+0:0:0:0:0, 4+1:1:0:0:1, 3+0:0:0:0:0, 5+0:0:0:0:0, 5+0:0:0:0:0, 5+0:0:0:0:0, 4+0:0:0:0:0, 5+3:0:0:0:1, 6+2:0:0:0:2, 3+1:1:0:0:0, 5+0:0:0:0:0, 6+2:0:0:0:1, 5+0:0:0:0:0, 2+0:0:0:0:0, 3+0:0:0:0:0, 4+0:0:0:0:0, 7+2:0:0:0:0, 3+0:0:0:0:0, 5+1:0:0:0:0, 6+2:0:0:1:1, 8+2:0:0:0:2, 4+3:0:0:0:0, 3+0:0:0:0:0, 6+4:1:0:0:3, 5+2:0:0:0:0, 4+1:0:0:0:0, 5+2:0:0:0:0, 6+2:0:0:0:1, 8+4:2:0:0:0, 5+0:0:0:0:0, 4+0:0:0:0:0, 4+1:0:0:0:1, 5+2:0:0:0:1, 0+0:0:0:0:0, 0+0:0:0:0:0, 748+145:17:0:5:69
D# minor (6#), 2+1:0:0:0:1, 4+0:0:0:0:0, 5+2:0:0:0:0, 3+1:0:0:0:0, 5+1:0:0:0:0, 3+0:0:0:0:0, 4+1:0:0:0:1, 4+1:0:0:0:0, 7+3:0:0:0:0, 4+0:0:0:0:0, 4+2:0:0:0:0, 3+1:0:0:0:0, 5+1:0:0:0:0, 3+0:0:0:0:0, 5+0:0:0:0:0, 4+1:0:0:0:0, 1+0:0:0:0:0, 4+2:0:0:0:1, 4+2:0:0:0:1, 4+1:0:0:0:0, 1+0:0:0:0:0, 4+0:0:0:0:0, 4+3:0:0:0:0, 3+3:0:0:0:1, 4+1:0:0:0:0, 3+1:0:0:0:1, 5+3:0:0:1:1, 6+1:0:0:0:0, 8+5:0:0:0:0, 5+1:0:0:0:1, 5+0:0:0:0:0, 4+1:0:0:0:0, 5+1:0:0:0:0, 6+2:0:0:0:0, 4+3:0:0:0:0, 4+2:0:0:0:0, 6+4:0:0:0:0, 5+1:0:0:0:1, 5+1:0:0:0:0, 6+2:0:0:0:0, 4+5:1:0:0:1, 6+1:0:0:0:0, 6+1:0:0:0:0, 3+3:0:0:0:0, 4+3:0:0:0:0, 6+1:0:0:0:0, 3+3:0:0:0:0, 5+2:0:0:0:0, 3+0:0:0:0:0, 5+0:0:0:0:0, 8+2:0:0:0:0, 5+1:0:0:0:0, 3+1:0:0:0:0, 6+1:0:0:0:0, 4+3:0:0:0:0, 3+3:0:0:0:0, 6+4:0:0:0:0, 3+1:0:0:0:1, 5+4:0:0:1:1, 5+1:0:0:0:0, 10+7:0:0:0:1, 6+2:0:0:0:1, 6+1:0:0:0:1, 4+3:0:0:0:0, 5+5:1:0:0:0, 4+0:0:0:0:0, 4+1:0:0:0:0, 4+2:0:0:0:0, 4+0:0:0:0:0, 3+1:0:0:0:1, 3+3:0:0:0:1, 4+0:0:0:0:0, 4+3:1:0:0:1, 4+0:0:0:0:0, 3+3:0:0:0:0, 3+1:0:0:0:0, 4+0:0:0:0:0, 3+0:0:0:0:0, 3+1:0:0:0:0, 4+1:0:0:0:0, 1+0:0:0:0:0, 3+1:0:0:0:1, 3+2:0:0:0:1, 4+1:0:0:0:0, 1+0:0:0:0:0, 5+0:0:0:0:0, 4+3:0:0:0:0, 4+1:0:0:0:0, 4+0:0:0:0:0, 3+1:0:0:0:1, 4+5:0:0:1:1, 5+6:0:0:0:0, 7+2:1:0:0:1, 5+3:0:0:0:0, 5+0:0:0:0:0, 4+1:0:0:0:0, 6+2:2:2:0:2, 5+0:0:0:0:0, 6+2:0:0:0:1, 5+1:0:0:0:0, 4+0:0:0:0:0, 5+1:0:0:0:0, 10+7:0:0:0:1, 4+0:0:0:0:0, 5+5:1:3:0:4, 4+0:0:0:0:0, 3+4:0:0:0:0, 5+3:0:0:0:0, 5+2:0:0:0:0, 5+0:0:0:0:0, 4+0:0:0:0:0, 5+1:0:0:0:0, 0+0:0:0:0:0, 3+1:0:0:0:1, 3+2:0:0:0:1, 4+1:0:0:0:0, 1+0:0:0:0:0, 4+0:0:0:0:0, 4+1:0:0:0:0, 4+1:0:0:0:0, 5+0:0:0:0:0, 5+0:0:0:0:0, 7+5:0:0:1:1, 6+3:0:0:0:0, 7+4:0:0:0:1, 4+1:0:0:0:1, 4+3:0:0:0:0, 5+1:0:0:0:0, 5+3:0:0:0:0, 5+1:0:0:0:0, 3+2:0:0:0:0, 4+2:0:0:0:0, 4+0:0:0:0:0, 4+2:0:0:0:1, 5+5:0:0:0:1, 4+0:0:0:0:0, 4+3:1:0:0:1, 4+0:0:0:0:0, 5+3:0:0:0:0, 5+3:0:0:0:0, 6+1:0:0:0:0, 4+0:0:0:0:0, 4+2:0:0:0:0, 6+2:0:0:0:0, 3+1:1:0:0:1, 5+1:0:0:0:0, 5+6:0:0:0:0, 6+1:0:0:0:0, 1+0:0:0:0:0, 4+0:0:0:0:0, 4+1:0:0:0:0, 5+6:0:0:0:1, 5+1:0:0:0:0, 4+2:0:0:0:1, 4+4:0:0:1:1, 7+3:0:0:0:0, 7+5:0:0:0:0, 5+2:0:0:0:2, 6+1:0:0:0:1, 6+2:0:0:0:0, 3+0:0:0:0:0, 6+2:0:0:0:1, 6+1:0:0:0:0, 7+6:1:0:0:1, 4+4:0:0:0:3, 4+5:4:4:0:5, 3+4:0:0:0:1, 4+3:0:0:0:1, 0+0:0:0:0:0, 0+0:0:0:0:0, 744+296:14:9:5:58
Cb major (7b), 3+0:0:0:0:0, 4+0:0:0:0:0, 6+0:0:0:0:0, 4+0:0:0:0:0, 5+0:0:0:0:0, 4+0:0:0:0:0, 7+3:0:0:0:3, 5+0:0:0:0:0, 7+2:1:0:0:1, 4+0:0:0:0:0, 5+0:0:0:0:0, 4+0:0:0:0:0, 5+0:0:0:0:0, 4+0:0:0:0:0, 7+1:0:0:0:1, 4+0:0:0:0:0, 2+0:0:0:0:0, 5+0:0:0:0:0, 6+1:0:0:0:1, 4+0:0:0:0:0, 2+0:0:0:0:0, 4+0:0:0:0:0, 5+0:0:0:0:0, 5+1:0:0:0:1, 5+1:0:0:0:1, 4+0:0:0:0:0, 7+3:0:0:1:2, 7+1:0:0:0:1, 6+5:0:0:0:0, 4+0:0:0:0:0, 7+1:0:0:0:1, 5+0:0:0:0:0, 5+2:1:0:0:1, 6+0:0:0:0:0, 5+0:0:0:0:0, 6+1:0:0:0:1, 6+2:0:0:0:0, 5+1:0:0:0:1, 7+2:0:0:0:1, 5+0:0:0:0:0, 4+1:1:0:0:1, 7+1:1:0:0:1, 7+1:0:0:0:1, 5+2:0:0:0:0, 5+3:0:0:0:3, 6+1:0:0:0:0, 5+3:0:0:0:1, 5+0:0:0:0:0, 3+0:0:0:0:0, 6+0:0:0:0:0, 9+3:0:0:0:1, 5+0:0:0:0:0, 4+1:1:0:0:0, 6+0:0:0:0:0, 5+0:0:0:0:0, 5+2:0:0:0:2, 6+2:0:0:0:0, 4+0:0:0:0:0, 7+3:0:0:1:1, 7+0:0:0:0:0, 9+3:0:0:0:0, 5+1:0:0:0:0, 7+4:1:0:0:3, 4+0:0:0:0:0, 6+3:1:0:0:0, 4+0:0:0:0:0, 5+0:0:0:0:0, 5+0:0:0:0:0, 4+0:0:0:0:0, 4+0:0:0:0:0, 5+1:0:0:0:1, 4+0:0:0:0:0, 4+1:1:0:0:1, 4+0:0:0:0:0, 4+0:0:0:0:0, 4+0:0:0:0:0, 4+0:0:0:0:0, 4+0:0:0:0:0, 5+1:0:0:0:1, 4+0:0:0:0:0, 1+0:0:0:0:0, 4+0:0:0:0:0, 5+1:0:0:0:1, 4+0:0:0:0:0, 1+0:0:0:0:0, 5+0:0:0:0:0, 5+1:0:0:0:0, 5+0:0:0:0:0, 4+0:0:0:0:0, 4+0:0:0:0:0, 6+3:0:0:1:1, 6+0:0:0:0:0, 6+1:1:0:0:1, 3+1:0:0:0:0, 7+1:0:0:0:1, 4+0:0:0:0:0, 5+2:1:0:0:1, 5+0:0:0:0:0, 8+1:0:0:0:1, 6+0:0:0:0:0, 4+0:0:0:0:0, 6+1:0:0:0:1, 9+5:0:0:0:2, 4+0:0:0:0:0, 5+2:1:0:0:1, 4+0:0:0:0:0, 4+0:0:0:0:0, 6+0:0:0:0:0, 5+0:0:0:0:0, 6+0:0:0:0:0, 6+2:0:0:0:1, 5+1:0:0:0:0, 1+0:0:0:0:0, 4+0:0:0:0:0, 5+1:0:0:0:1, 4+0:0:0:0:0, 1+0:0:0:0:0, 4+0:0:0:0:0, 5+0:0:0:0:0, 5+0:0:0:0:0, 5+0:0:0:0:0, 6+0:0:0:0:0, 9+4:0:0:1:3, 7+2:0:0:0:1, 5+1:0:0:0:0, 3+1:0:0:0:0, 6+2:0:0:0:2, 5+1:0:0:0:1, 5+1:1:0:0:1, 6+0:0:0:0:0, 4+0:0:0:0:0, 5+0:0:0:0:0, 4+0:0:0:0:0, 6+2:0:0:0:0, 6+5:0:0:0:1, 4+0:0:0:0:0, 4+1:1:0:0:1, 4+0:0:0:0:0, 6+0:0:0:0:0, 6+0:0:0:0:0, 6+0:0:0:0:0, 5+0:0:0:0:0, 6+3:0:0:0:1, 6+2:0:0:0:2, 3+1:1:0:0:0, 6+0:0:0:0:0, 7+2:0:0:0:1, 6+0:0:0:0:0, 2+0:0:0:0:0, 4+0:0:0:0:0, 5+0:0:0:0:0, 7+2:0:0:0:0, 4+0:0:0:0:0, 6+1:0:0:0:0, 6+6:0:0:1:1, 8+2:0:0:0:2, 5+5:0:0:0:0, 4+0:0:0:0:0, 7+4:1:0:0:3, 5+2:0:0:0:0, 4+1:0:0:0:0, 6+2:0:0:0:0, 7+2:0:0:0:1, 8+4:2:0:0:0, 5+0:0:0:0:0, 5+0:0:0:0:0, 5+1:0:0:0:1, 5+2:0:0:0:1, 0+0:0:0:0:0, 0+0:0:0:0:0, 853+149:17:0:5:68
C# major (7#), 3+0:0:0:0:0, 4+0:0:0:0:0, 6+2:0:0:0:0, 4+0:0:0:0:0, 5+1:0:0:0:0, 4+0:0:0:0:0, 5+1:0:0:0:1, 5+0:0:0:0:0, 7+3:0:0:0:0, 4+0:0:0:0:0, 5+2:0:0:0:0, 4+0:0:0:0:0, 5+1:0:0:0:0, 4+0:0:0:0:0, 6+0:0:0:0:0, 4+0:0:0:0:0, 1+0:0:0:0:0, 5+2:0:0:0:1, 5+2:0:0:0:1, 4+0:0:0:0:0, 2+0:0:0:0:0, 4+0:0:0:0:0, 5+3:0:0:0:0, 4+1:0:0:0:0, 4+2:0:0:0:2, 4+1:0:0:0:1, 6+3:0:0:1:1, 6+1:0:0:0:0, 8+5:0:0:0:0, 5+1:0:0:0:1, 6+0:0:0:0:0, 5+0:0:0:0:0, 6+2:1:0:0:1, 6+2:0:0:0:0, 5+3:0:0:0:0, 5+2:0:0:0:0, 6+4:0:0:0:0, 6+1:0:0:0:1, 6+1:0:0:0:0, 6+2:0:0:0:0, 4+5:1:0:0:1, 6+1:0:0:0:0, 7+1:0:0:0:0, 4+3:0:0:0:0, 4+3:0:0:0:0, 7+1:0:0:0:0, 6+3:0:0:0:1, 5+1:0:0:0:0, 3+0:0:0:0:0, 6+0:0:0:0:0, 9+2:0:0:0:0, 5+1:0:0:0:0, 2+1:0:1:0:1, 6+1:0:0:0:0, 5+3:0:0:0:0, 4+0:0:0:0:0, 6+4:0:0:0:0, 4+1:0:0:0:1, 6+4:0:0:1:1, 6+1:0:0:0:0, 10+7:0:0:0:1, 6+2:0:0:0:1, 7+1:0:0:0:1, 4+0:0:0:0:0, 5+4:1:0:0:1, 4+0:0:0:0:0, 5+1:0:0:0:0, 5+0:0:0:0:0, 4+0:0:0:0:0, 4+1:0:0:0:1, 4+3:0:0:0:1, 4+0:0:0:0:0, 4+3:1:0:0:1, 4+0:0:0:0:0, 4+3:0:0:0:0, 4+0:0:0:0:0, 4+0:0:0:0:0, 4+1:0:0:0:1, 4+5:0:0:0:1, 4+0:0:0:0:0, 1+0:0:0:0:0, 4+1:0:0:0:1, 4+2:0:0:0:1, 4+0:0:0:0:0, 1+0:0:0:0:0, 5+0:0:0:0:0, 5+3:0:0:0:0, 5+1:0:0:0:0, 4+0:0:0:0:0, 4+1:0:0:0:1, 5+5:0:0:1:1, 5+1:0:0:0:0, 7+5:0:0:0:0, 5+3:0:0:0:0, 6+0:0:0:0:0, 4+0:0:0:0:0, 6+4:1:2:0:3, 5+0:0:0:0:0, 7+2:0:0:0:1, 6+1:0:0:0:0, 4+0:0:0:0:0, 6+1:0:0:0:0, 11+7:0:0:0:1, 4+0:0:0:0:0, 5+5:1:3:0:4, 4+0:0:0:0:0, 4+4:0:0:0:0, 6+3:0:0:0:0, 5+2:0:0:0:0, 6+0:0:0:0:0, 5+0:0:0:0:0, 5+1:0:0:0:0, 1+0:0:0:0:0, 4+1:0:0:0:1, 4+2:0:0:0:1, 4+0:0:0:0:0, 1+0:0:0:0:0, 4+0:0:0:0:0, 5+1:0:0:0:0, 5+1:0:0:0:0, 5+0:0:0:0:0, 6+0:0:0:0:0, 9+7:0:0:1:2, 6+2:0:0:0:0, 7+4:0:0:0:1, 4+1:0:0:0:1, 5+5:0:0:0:2, 5+1:0:0:0:0, 6+5:1:0:0:1, 6+2:0:0:0:0, 4+2:0:0:0:0, 5+0:0:0:0:0, 4+0:0:0:0:0, 5+2:0:0:0:1, 6+5:0:0:0:1, 4+0:0:0:0:0, 4+3:1:0:0:1, 4+0:0:0:0:0, 6+3:0:0:0:0, 6+3:0:0:0:0, 6+1:0:0:0:0, 5+3:2:2:0:3, 5+5:0:0:0:2, 6+2:0:0:0:0, 3+1:1:0:0:1, 6+4:0:0:0:3, 7+5:0:0:0:1, 6+1:0:0:0:0, 2+0:0:0:0:0, 4+0:0:0:0:0, 5+1:0:0:0:0, 6+6:0:0:0:1, 5+1:0:0:0:0, 5+2:0:0:0:1, 5+4:0:0:1:1, 7+3:0:0:0:0, 7+5:0:0:0:0, 5+1:0:0:0:0, 7+1:0:0:0:1, 6+2:0:0:0:0, 3+0:0:0:0:0, 7+2:0:0:0:1, 7+1:0:0:0:0, 7+6:1:0:0:1, 4+4:0:0:0:3, 5+5:4:4:0:5, 4+4:0:0:0:1, 5+3:0:0:0:1, 1+1:0:0:0:0, 1+1:0:0:0:0, 839+292:16:12:5:75
Ab minor (7b), 3+0:0:0:0:0, 4+0:0:0:0:0, 6+0:0:0:0:0, 4+0:0:0:0:0, 5+0:0:0:0:0, 4+0:0:0:0:0, 7+3:0:0:0:3, 5+0:0:0:0:0, 7+2:1:0:0:1, 4+0:0:0:0:0, 5+0:0:0:0:0, 4+0:0:0:0:0, 5+0:0:0:0:0, 4+0:0:0:0:0, 7+1:0:0:0:1, 4+0:0:0:0:0, 2+0:0:0:0:0, 5+0:0:0:0:0, 6+1:0:0:0:1, 4+0:0:0:0:0, 2+0:0:0:0:0, 4+0:0:0:0:0, 5+0:0:0:0:0, 5+1:0:0:0:1, 5+1:0:0:0:1, 4+0:0:0:0:0, 7+3:0:0:1:2, 7+1:0:0:0:1, 6+5:0:0:0:0, 4+0:0:0:0:0, 7+1:0:0:0:1, 5+0:0:0:0:0, 5+2:1:0:0:1, 6+0:0:0:0:0, 5+0:0:0:0:0, 6+1:0:0:0:1, 6+2:0:0:0:0, 5+1:0:0:0:1, 7+2:0:0:0:1, 5+0:0:0:0:0, 4+1:1:0:0:1, 7+1:1:0:0:1, 7+1:0:0:0:1, 5+2:0:0:0:0, 5+3:0:0:0:3, 6+1:0:0:0:0, 5+3:0:0:0:1, 5+0:0:0:0:0, 3+0:0:0:0:0, 6+0:0:0:0:0, 9+3:0:0:0:1, 5+0:0:0:0:0, 4+1:1:0:0:0, 6+0:0:0:0:0, 5+0:0:0:0:0, 5+2:0:0:0:2, 6+2:0:0:0:0, 4+0:0:0:0:0, 7+3:0:0:1:1, 7+0:0:0:0:0, 9+3:0:0:0:0, 5+1:0:0:0:0, 7+4:1:0:0:3, 4+0:0:0:0:0, 6+3:1:0:0:0, 4+0:0:0:0:0, 5+0:0:0:0:0, 5+0:0:0:0:0, 4+0:0:0:0:0, 4+0:0:0:0:0, 5+1:0:0:0:1, 4+0:0:0:0:0, 4+1:1:0:0:1, 4+0:0:0:0:0, 4+0:0:0:0:0, 4+0:0:0:0:0, 4+0:0:0:0:0, 4+0:0:0:0:0, 5+1:0:0:0:1, 4+0:0:0:0:0, 1+0:0:0:0:0, 4+0:0:0:0:0, 5+1:0:0:0:1, 4+0:0:0:0:0, 1+0:0:0:0:0, 5+0:0:0:0:0, 5+1:0:0:0:0, 5+0:0:0:0:0, 4+0:0:0:0:0, 4+0:0:0:0:0, 6+3:0:0:1:1, 6+0:0:0:0:0, 6+1:1:0:0:1, 3+1:0:0:0:0, 7+1:0:0:0:1, 4+0:0:0:0:0, 5+2:1:0:0:1, 5+0:0:0:0:0, 8+1:0:0:0:1, 6+0:0:0:0:0, 4+0:0:0:0:0, 6+1:0:0:0:1, 9+5:0:0:0:2, 4+0:0:0:0:0, 5+2:1:0:0:1, 4+0:0:0:0:0, 4+0:0:0:0:0, 6+0:0:0:0:0, 5+0:0:0:0:0, 6+0:0:0:0:0, 6+2:0:0:0:1, 5+1:0:0:0:0, 1+0:0:0:0:0, 4+0:0:0:0:0, 5+1:0:0:0:1, 4+0:0:0:0:0, 1+0:0:0:0:0, 4+0:0:0:0:0, 5+0:0:0:0:0, 5+0:0:0:0:0, 5+0:0:0:0:0, 6+0:0:0:0:0, 9+4:0:0:1:3, 7+2:0:0:0:1, 5+1:0:0:0:0, 3+1:0:0:0:0, 6+2:0:0:0:2, 5+1:0:0:0:1, 5+1:1:0:0:1, 6+0:0:0:0:0, 4+0:0:0:0:0, 5+0:0:0:0:0, 4+0:0:0:0:0, 6+2:0:0:0:0, 6+5:0:0:0:1, 4+0:0:0:0:0, 4+1:1:0:0:1, 4+0:0:0:0:0, 6+0:0:0:0:0, 6+0:0:0:0:0, 6+0:0:0:0:0, 5+0:0:0:0:0, 6+3:0:0:0:1, 6+2:0:0:0:2, 3+1:1:0:0:0, 6+0:0:0:0:0, 7+2:0:0:0:1, 6+0:0:0:0:0, 2+0:0:0:0:0, 4+0:0:0:0:0, 5+0:0:0:0:0, 7+2:0:0:0:0, 4+0:0:0:0:0, 6+1:0:0:0:0, 6+6:0:0:1:1, 8+2:0:0:0:2, 5+5:0:0:0:0, 4+0:0:0:0:0, 7+4:1:0:0:3, 5+2:0:0:0:0, 4+1:0:0:0:0, 6+2:0:0:0:0, 7+2:0:0:0:1, 8+4:2:0:0:0, 5+0:0:0:0:0, 5+0:0:0:0:0, 5+1:0:0:0:1, 5+2:0:0:0:1, 0+0:0:0:0:0, 0+0:0:0:0:0, 853+149:17:0:5:68
A# minor (7#), 3+0:0:0:0:0, 4+0:0:0:0:0, 6+2:0:0:0:0, 4+0:0:0:0:0, 5+1:0:0:0:0, 4+0:0:0:0:0, 5+1:0:0:0:1, 5+0:0:0:0:0, 7+3:0:0:0:0, 4+0:0:0:0:0, 5+2:0:0:0:0, 4+0:0:0:0:0, 5+1:0:0:0:0, 4+0:0:0:0:0, 6+0:0:0:0:0, 4+0:0:0:0:0, 1+0:0:0:0:0, 5+2:0:0:0:1, 5+2:0:0:0:1, 4+0:0:0:0:0, 2+0:0:0:0:0, 4+0:0:0:0:0, 5+3:0:0:0:0, 4+1:0:0:0:0, 4+2:0:0:0:2, 4+1:0:0:0:1, 6+3:0:0:1:1, 6+1:0:0:0:0, 8+5:0:0:0:0, 5+1:0:0:0:1, 6+0:0:0:0:0, 5+0:0:0:0:0, 6+2:1:0:0:1, 6+2:0:0:0:0, 5+3:0:0:0:0, 5+2:0:0:0:0, 6+4:0:0:0:0, 6+1:0:0:0:1, 6+1:0:0:0:0, 6+2:0:0:0:0, 4+5:1:0:0:1, 6+1:0:0:0:0, 7+1:0:0:0:0, 4+3:0:0:0:0, 4+3:0:0:0:0, 7+1:0:0:0:0, 4+3:0:0:0:0, 5+2:0:0:0:0, 3+0:0:0:0:0, 6+0:0:0:0:0, 9+2:0:0:0:0, 5+1:0:0:0:0, 2+1:0:1:0:1, 6+1:0:0:0:0, 5+3:0:0:0:0, 4+0:0:0:0:0, 6+4:0:0:0:0, 4+1:0:0:0:0, 6+4:0:0:1:1, 6+1:0:0:0:0, 10+7:0:0:0:1, 6+2:0:0:0:1, 7+1:0:0:0:1, 4+0:0:0:0:0, 5+4:1:0:0:1, 4+0:0:0:0:0, 5+1:0:0:0:0, 5+0:0:0:0:0, 4+0:0:0:0:0, 4+1:0:0:0:0, 4+3:0:0:0:1, 4+0:0:0:0:0, 4+3:1:0:0:1, 4+0:0:0:0:0, 4+3:0:0:0:0, 4+0:0:0:0:0, 4+0:0:0:0:0, 4+1:0:0:0:0, 4+5:0:0:0:1, 4+0:0:0:0:0, 1+0:0:0:0:0, 4+1:0:0:0:1, 4+2:0:0:0:1, 4+0:0:0:0:0, 1+0:0:0:0:0, 5+0:0:0:0:0, 5+3:0:0:0:0, 5+1:0:0:0:0, 4+0:0:0:0:0, 4+2:0:0:0:0, 5+5:0:0:1:1, 5+1:0:0:0:0, 7+5:0:0:0:0, 5+3:0:0:0:0, 6+0:0:0:0:0, 4+0:0:0:0:0, 6+4:1:2:0:3, 5+0:0:0:0:0, 7+2:0:0:0:1, 6+1:0:0:0:0, 4+0:0:0:0:0, 6+1:0:0:0:0, 11+7:0:0:0:1, 4+0:0:0:0:0, 5+5:1:3:0:4, 4+0:0:0:0:0, 4+4:0:0:0:0, 6+3:0:0:0:0, 5+2:0:0:0:0, 6+0:0:0:0:0, 5+0:0:0:0:0, 5+1:0:0:0:0, 1+0:0:0:0:0, 4+1:0:0:0:1, 4+2:0:0:0:1, 4+0:0:0:0:0, 1+0:0:0:0:0, 4+0:0:0:0:0, 5+1:0:0:0:0, 5+1:0:0:0:0, 5+0:0:0:0:0, 6+0:0:0:0:0, 8+6:0:0:1:1, 6+2:0:0:0:0, 7+4:0:0:0:1, 4+1:0:0:0:1, 5+3:0:0:0:0, 5+1:0:0:0:0, 5+3:0:0:0:0, 6+1:0:0:0:0, 4+2:0:0:0:0, 5+0:0:0:0:0, 4+0:0:0:0:0, 5+1:0:0:0:0, 6+5:0:0:0:1, 4+0:0:0:0:0, 4+3:1:0:0:1, 4+0:0:0:0:0, 6+3:0:0:0:0, 6+3:0:0:0:0, 6+1:0:0:0:0, 5+4:0:0:0:0, 5+5:0:0:0:2, 6+2:0:0:0:0, 3+1:1:0:0:1, 6+1:0:0:0:0, 6+6:0:0:0:0, 6+1:0:0:0:0, 2+0:0:0:0:0, 4+0:0:0:0:0, 5+1:0:0:0:0, 6+6:0:0:0:1, 5+1:0:0:0:0, 5+2:0:0:0:0, 5+4:0:0:1:1, 7+3:0:0:0:0, 7+5:0:0:0:0, 5+1:0:0:0:0, 7+1:0:0:0:1, 6+2:0:0:0:0, 3+0:0:0:0:0, 7+2:0:0:0:1, 7+1:0:0:0:0, 7+6:1:0:0:1, 4+1:0:0:0:0, 5+3:0:0:0:2, 4+4:0:0:0:1, 5+3:0:0:0:1, 1+1:0:0:0:0, 1+1:0:0:0:0, 834+281:9:6:5:51
