 , 0, 1, 2, 3, 4, 5, 6, 7, 8, 9, 10, 11, 12, 13, 14, 15, 16, 17, 18, 19, 20, 21, 22, 23, 24, 25, 26, 27, 28, 29, 30, 31, 32, 33, 34, 35, 36, 37, 38, 39, 40, 41, 42, 43, 44, 45, 46, 47, 48, 49, 50, 51, 52, 53, 54, 55, 56, 57, 58, 59, 60, 61, 62, 63, 64, 65, 66, 67, 68, 69, 70, 71, 72, 73, 74, 75, 76, 77, 78, 79, 80, 81, 82, 83, 84, 85, 86, 87, 88, 89, 90, 91, 92, 93, 94, 95, 96, 97, 98, 99, 100, 101, 102, 103, 104, 105, 106, 107, 108, 109, 110, 111, 112, 113, 114, 115, 116, 117, 118, 119, 120, 121, 122, 123, 124, 125, 126, 127, 128, 129, 130, 131, 132, 133, 134, 135, 136, 137, 138, 139, 140, 141, 142, 143, 144, 145, 146, 147, 148, 149, 150, 151, 152, 153, 154, 155, 156, 157, 158, 159, 160, 161, 162, 163, 164, 165, 166, 167, 168, 169, 170, 171, 172, 173, 174, 175, 176, 177, 178, 179, 180, 181, 182, 183, 184, 185, 186, 187, 188, 189, 190, 191, 192, 193, 194, 195, 196, 197, 198, 199, 200, 201, 202, 203, 204, 205, 206, 207, 208, 209, 210, 211, 212, 213, 214, 215, 216, 217, 218, 219, 220, 221, 222, 223, 224, 225, rowcost
C major (0), 1:0:0:0:0, 2:0:0:0:0, 2:0:0:0:1, 5:0:0:0:0, 5:0:0:0:3, 6:0:0:0:6, 0:0:0:0:0, 0:0:0:0:0, 1:0:0:0:0, 2:0:0:0:0, 2:0:0:0:1, 5:0:0:0:0, 5:0:0:0:3, 6:0:0:0:6, 0:0:0:0:0, 0:0:0:0:0, 5:0:0:0:3, 4:0:0:0:2, 3:0:0:0:5, 5:0:0:0:5, 2:0:0:0:0, 3:0:0:0:3, 3:0:0:0:0, 7:0:1:0:7, 1:0:0:0:0, 2:0:0:0:0, 2:0:0:0:1, 5:0:0:0:0, 5:0:0:0:3, 6:0:0:0:6, 0:0:0:0:0, 0:0:0:0:0, 0:0:0:0:0, 0:0:0:0:0, 1:0:0:0:0, 4:0:0:0:0, 4:0:0:0:3, 6:0:1:0:8, 0:0:0:0:0, 0:0:0:0:0, 0:0:0:0:0, 1:0:0:0:0, 2:0:0:0:0, 4:0:0:0:0, 8:0:0:0:8, 6:0:2:0:8, 0:0:0:0:0, 2:0:0:0:2, 3:0:0:0:4, 2:0:0:0:2, 2:0:0:0:2, 6:0:0:0:8, 1:0:0:0:0, 3:0:0:0:3, 5:0:0:0:0, 8:0:0:0:11, 1:0:0:0:0, 1:0:0:0:0, 2:0:0:0:0, 4:0:0:0:0, 5:0:0:0:3, 6:0:0:0:7, 0:0:0:0:0, 0:0:0:0:0, 0:0:0:0:0, 0:0:0:0:0, 3:0:0:0:0, 4:0:0:0:0, 4:0:0:0:3, 4:0:0:0:5, 0:0:0:0:0, 0:0:0:0:0, 0:0:0:0:0, 0:0:0:0:0, 3:0:0:0:0, 4:0:0:0:0, 4:0:0:0:3, 4:0:0:0:5, 0:0:0:0:0, 0:0:0:0:0, 3:0:0:0:3, 2:0:0:0:2, 2:0:0:0:3, 5:0:0:0:6, 1:0:0:0:0, 1:0:0:0:3, 2:0:0:0:0, 4:0:0:0:5, 0:0:0:0:0, 0:0:0:0:0, 1:0:0:0:0, 6:0:0:0:0, 4:0:0:0:3, 4:0:0:0:6, 0:0:0:0:0, 0:0:0:0:0, 1:0:0:0:0, 2:0:0:0:0, 1:0:0:0:0, 9:0:0:0:0, 4:0:0:0:4, 6:0:0:0:7, 2:0:0:0:0, 0:0:0:0:0, 0:0:0:0:0, 4:0:0:0:5, 1:0:0:0:0, 4:0:0:0:0, 6:0:0:0:4, 5:0:2:0:7, 2:0:0:0:0, 2:0:0:0:1, 4:0:0:0:3, 2:0:0:0:2, 2:0:0:0:6, 6:0:0:0:6, 1:0:0:0:0, 6:0:0:0:3, 2:0:0:0:0, 8:0:0:0:9, 0:0:0:0:0, 4:0:0:0:0, 3:0:0:0:2, 7:0:0:0:0, 4:0:0:0:6, 6:0:0:0:9, 2:0:0:0:0, 0:0:0:0:0, 1:0:0:0:1, 1:0:0:0:2, 4:0:0:0:0, 4:0:0:0:0, 4:0:0:0:4, 6:0:0:0:9, 1:0:0:0:0, 1:0:0:0:0, 0:0:0:0:0, 2:0:0:0:2, 1:0:0:0:0, 4:0:0:0:0, 4:0:0:0:5, 5:0:0:0:7, 2:0:0:0:0, 0:0:0:0:0, 4:0:0:0:7, 3:0:0:0:2, 2:0:0:0:2, 7:0:0:0:6, 1:0:0:0:0, 3:0:0:0:2, 2:0:0:0:0, 9:0:2:0:10, 2:0:0:0:0, 6:0:0:0:1, 2:0:0:0:1, 7:0:0:0:0, 4:0:0:0:6, 7:0:0:0:9, 7:0:0:0:1, 5:0:0:0:2, 5:0:0:0:1, 7:0:0:0:3, 1:0:0:0:0, 5:0:0:0:0, 4:0:0:0:5, 5:0:0:0:7, 2:0:0:0:0, 0:0:0:0:0, 1:0:0:0:1, 1:0:0:0:0, 1:0:0:0:0, 4:0:0:0:0, 5:0:0:0:5, 6:0:0:0:8, 2:0:0:0:1, 0:0:0:0:0, 4:0:0:0:7, 8:0:0:0:3, 3:0:0:0:2, 6:0:0:0:7, 4:0:0:0:0, 1:0:0:0:3, 5:0:0:0:0, 5:0:0:0:9, 0:0:0:0:0, 2:0:0:0:1, 3:0:0:0:1, 7:0:0:0:0, 5:0:0:0:5, 5:0:0:0:9, 2:0:0:0:2, 1:0:0:0:1, 1:0:0:0:1, 1:0:0:0:0, 1:0:0:0:0, 4:0:0:0:0, 10:0:0:0:4, 4:0:0:0:10, 0:0:0:0:0, 1:0:0:0:3, 1:0:0:0:3, 1:0:0:0:3, 4:0:0:0:0, 4:0:0:0:0, 9:0:1:0:6, 6:0:0:0:6, 2:0:0:0:0, 0:0:0:0:0, 6:0:0:0:4, 7:0:0:0:3, 3:0:1:0:5, 6:0:0:0:7, 3:0:0:0:1, 4:0:0:0:2, 2:0:0:0:0, 4:0:0:0:8, 0:0:0:0:0, 4:0:0:0:0, 1:0:0:0:0, 4:0:0:0:0, 4:0:0:0:5, 4:0:0:0:6, 1:0:0:0:0, 0:0:0:0:0, 2:0:0:0:2, 0:0:0:0:0, 678:0:10:0:484
A minor (0), 1:0:0:0:0, 2:0:0:0:0, 2:0:0:0:1, 5:0:0:0:0, 5:0:0:0:3, 6:0:0:0:6, 0:0:0:0:0, 0:0:0:0:0, 1:0:0:0:0, 2:0:0:0:0, 2:0:0:0:1, 5:0:0:0:0, 5:0:0:0:3, 6:0:0:0:6, 0:0:0:0:0, 0:0:0:0:0, 5:0:0:0:3, 4:0:0:0:2, 3:0:0:0:5, 5:0:0:0:5, 2:0:0:0:0, 3:0:0:0:3, 3:0:0:0:0, 7:0:1:0:7, 1:0:0:0:0, 2:0:0:0:0, 2:0:0:0:1, 5:0:0:0:0, 5:0:0:0:3, 6:0:0:0:6, 0:0:0:0:0, 0:0:0:0:0, 0:0:0:0:0, 0:0:0:0:0, 1:0:0:0:0, 4:0:0:0:0, 4:0:0:0:3, 6:0:1:0:8, 0:0:0:0:0, 0:0:0:0:0, 0:0:0:0:0, 1:0:0:0:0, 2:0:0:0:0, 4:0:0:0:0, 8:0:0:0:8, 6:0:2:0:8, 0:0:0:0:0, 2:0:0:0:2, 3:0:0:0:4, 2:0:0:0:2, 2:0:0:0:2, 6:0:0:0:8, 1:0:0:0:0, 3:0:0:0:3, 5:0:0:0:0, 8:0:0:0:11, 1:0:0:0:0, 1:0:0:0:0, 2:0:0:0:0, 4:0:0:0:0, 5:0:0:0:3, 6:0:0:0:7, 0:0:0:0:0, 0:0:0:0:0, 0:0:0:0:0, 0:0:0:0:0, 3:0:0:0:0, 4:0:0:0:0, 4:0:0:0:3, 4:0:0:0:5, 0:0:0:0:0, 0:0:0:0:0, 0:0:0:0:0, 0:0:0:0:0, 3:0:0:0:0, 4:0:0:0:0, 4:0:0:0:3, 4:0:0:0:5, 0:0:0:0:0, 0:0:0:0:0, 3:0:0:0:3, 2:0:0:0:2, 2:0:0:0:3, 5:0:0:0:6, 1:0:0:0:0, 1:0:0:0:3, 2:0:0:0:0, 4:0:0:0:5, 0:0:0:0:0, 0:0:0:0:0, 1:0:0:0:0, 6:0:0:0:0, 4:0:0:0:3, 4:0:0:0:6, 0:0:0:0:0, 0:0:0:0:0, 1:0:0:0:0, 2:0:0:0:0, 1:0:0:0:0, 9:0:0:0:0, 4:0:0:0:4, 6:0:0:0:7, 2:0:0:0:0, 0:0:0:0:0, 0:0:0:0:0, 4:0:0:0:5, 1:0:0:0:0, 4:0:0:0:0, 6:0:0:0:4, 5:0:2:0:7, 2:0:0:0:0, 2:0:0:0:1, 4:0:0:0:3, 2:0:0:0:2, 2:0:0:0:6, 6:0:0:0:6, 1:0:0:0:0, 6:0:0:0:3, 2:0:0:0:0, 8:0:0:0:9, 0:0:0:0:0, 4:0:0:0:0, 3:0:0:0:2, 7:0:0:0:0, 4:0:0:0:6, 6:0:0:0:9, 2:0:0:0:0, 0:0:0:0:0, 1:0:0:0:1, 1:0:0:0:2, 4:0:0:0:0, 4:0:0:0:0, 4:0:0:0:4, 6:0:0:0:9, 1:0:0:0:0, 1:0:0:0:0, 0:0:0:0:0, 2:0:0:0:2, 1:0:0:0:0, 4:0:0:0:0, 4:0:0:0:5, 5:0:0:0:7, 2:0:0:0:0, 0:0:0:0:0, 4:0:0:0:7, 3:0:0:0:2, 2:0:0:0:2, 7:0:0:0:6, 1:0:0:0:0, 3:0:0:0:2, 2:0:0:0:0, 9:0:2:0:10, 2:0:0:0:0, 6:0:0:0:1, 2:0:0:0:1, 7:0:0:0:0, 4:0:0:0:6, 7:0:0:0:9, 7:0:0:0:1, 5:0:0:0:2, 5:0:0:0:1, 7:0:0:0:3, 1:0:0:0:0, 5:0:0:0:0, 4:0:0:0:5, 5:0:0:0:7, 2:0:0:0:0, 0:0:0:0:0, 1:0:0:0:1, 1:0:0:0:0, 1:0:0:0:0, 4:0:0:0:0, 5:0:0:0:5, 6:0:0:0:8, 2:0:0:0:1, 0:0:0:0:0, 4:0:0:0:7, 8:0:0:0:3, 3:0:0:0:2, 6:0:0:0:7, 4:0:0:0:0, 1:0:0:0:3, 5:0:0:0:0, 5:0:0:0:9, 0:0:0:0:0, 2:0:0:0:1, 3:0:0:0:1, 7:0:0:0:0, 5:0:0:0:5, 5:0:0:0:9, 2:0:0:0:2, 1:0:0:0:1, 1:0:0:0:1, 1:0:0:0:0, 1:0:0:0:0, 4:0:0:0:0, 10:0:0:0:4, 4:0:0:0:10, 0:0:0:0:0, 1:0:0:0:3, 1:0:0:0:3, 1:0:0:0:3, 4:0:0:0:0, 4:0:0:0:0, 9:0:1:0:6, 6:0:0:0:6, 2:0:0:0:0, 0:0:0:0:0, 6:0:0:0:4, 7:0:0:0:3, 3:0:1:0:5, 6:0:0:0:7, 3:0:0:0:1, 4:0:0:0:2, 2:0:0:0:0, 4:0:0:0:8, 0:0:0:0:0, 4:0:0:0:0, 1:0:0:0:0, 4:0:0:0:0, 4:0:0:0:5, 4:0:0:0:6, 1:0:0:0:0, 0:0:0:0:0, 2:0:0:0:2, 0:0:0:0:0, 678:0:10:0:484
F major (1b), 1:0:0:0:0, 3:0:0:0:0, 3:1:0:0:1, 4:0:0:0:0, 5:6:0:0:6, 7:7:0:0:7, 1:0:0:0:0, 1:0:0:0:0, 1:0:0:0:0, 3:0:0:0:0, 3:1:0:0:1, 4:0:0:0:0, 5:6:0:0:6, 7:7:0:0:7, 1:0:0:0:0, 1:0:0:0:0, 6:5:0:0:5, 5:4:0:0:4, 4:3:1:0:4, 6:8:0:0:8, 3:1:0:0:1, 4:3:0:0:3, 2:0:0:0:0, 8:8:1:0:8, 1:0:0:0:0, 3:0:0:0:0, 3:1:0:0:1, 4:0:0:0:0, 5:6:0:0:6, 7:7:0:0:7, 1:0:0:0:0, 1:0:0:0:0, 0:0:0:0:0, 1:0:0:0:0, 2:0:0:0:0, 3:0:0:0:0, 4:4:0:0:4, 7:9:1:0:9, 1:0:0:0:0, 1:0:0:0:0, 0:0:0:0:0, 2:0:0:0:0, 3:0:0:0:0, 3:0:0:0:0, 9:10:0:0:10, 7:7:0:2:9, 1:0:0:0:0, 3:2:0:0:2, 4:7:0:0:7, 3:4:0:0:4, 2:2:0:0:2, 7:9:0:0:9, 2:3:0:0:3, 4:3:0:0:3, 4:0:0:0:0, 9:13:0:0:13, 1:1:0:0:1, 2:0:0:0:0, 3:0:0:0:0, 3:0:0:0:0, 5:5:0:0:5, 7:8:0:0:8, 1:0:0:0:0, 1:0:0:0:0, 0:0:0:0:0, 1:0:0:0:0, 4:0:0:0:0, 3:0:0:0:0, 5:4:0:0:4, 5:6:0:0:6, 1:0:0:0:0, 1:0:0:0:0, 0:0:0:0:0, 1:0:0:0:0, 4:0:0:0:0, 3:0:0:0:0, 5:4:0:0:4, 5:6:0:0:6, 1:0:0:0:0, 1:0:0:0:0, 4:4:0:0:4, 3:3:0:0:3, 2:3:0:0:3, 6:7:0:0:7, 2:1:0:0:1, 2:3:0:0:3, 1:0:0:0:0, 5:6:0:0:6, 0:0:0:0:0, 1:0:0:0:0, 2:0:0:0:0, 5:0:0:0:0, 5:4:0:0:4, 5:7:0:0:7, 1:0:0:0:0, 1:0:0:0:0, 1:0:0:0:0, 3:0:0:0:0, 2:0:0:0:0, 8:0:0:0:0, 4:5:0:0:5, 7:8:0:0:8, 3:0:0:0:0, 1:0:0:0:0, 0:0:0:0:0, 5:5:0:0:5, 2:0:0:0:0, 3:0:0:0:0, 6:5:0:0:5, 6:8:2:0:8, 3:0:0:0:0, 3:1:0:0:1, 5:6:0:0:6, 3:5:0:0:5, 3:6:0:0:6, 7:8:0:0:8, 2:2:0:0:2, 7:4:0:0:4, 1:0:0:0:0, 9:10:0:0:10, 0:0:0:0:0, 5:0:0:0:0, 4:2:0:0:2, 6:0:0:0:0, 4:7:0:0:7, 7:10:0:0:10, 3:0:0:0:0, 1:0:0:0:0, 2:1:0:0:1, 2:2:0:0:2, 5:1:0:0:1, 3:0:0:0:0, 5:4:0:0:4, 7:10:0:0:10, 2:0:0:0:0, 2:0:0:0:0, 0:0:0:0:0, 3:2:0:0:2, 2:0:0:0:0, 3:0:0:0:0, 4:6:0:0:6, 6:8:0:0:8, 3:0:0:0:0, 1:0:0:0:0, 5:8:0:0:8, 4:4:0:0:4, 2:2:0:0:2, 8:7:0:0:7, 2:5:0:0:5, 4:2:0:0:2, 1:0:0:0:0, 10:13:2:0:14, 1:0:0:0:0, 7:1:0:0:1, 3:1:0:0:1, 6:0:0:0:0, 4:7:0:0:7, 8:10:0:0:10, 6:1:0:0:1, 6:4:0:0:4, 4:0:0:0:0, 8:1:0:0:1, 2:0:0:0:0, 4:0:0:0:0, 4:5:0:0:5, 6:8:0:0:8, 3:0:0:0:0, 1:0:0:0:0, 1:1:0:0:1, 2:0:0:0:0, 2:0:0:0:0, 3:0:0:0:0, 5:7:0:0:7, 7:9:0:0:9, 2:0:0:0:0, 1:0:0:0:0, 5:10:0:0:10, 9:4:0:0:4, 4:2:0:0:2, 7:8:0:0:8, 5:4:0:0:4, 2:3:0:0:3, 4:0:0:0:0, 6:11:0:0:11, 0:0:0:0:0, 3:1:0:0:1, 4:1:0:0:1, 6:2:0:0:2, 5:6:0:0:6, 6:10:0:0:10, 3:2:0:0:2, 2:1:0:0:1, 2:1:0:0:1, 2:0:0:0:0, 2:0:0:0:0, 3:0:0:0:0, 9:5:0:0:5, 5:12:0:0:12, 1:0:0:0:0, 2:3:0:0:3, 1:3:0:0:3, 2:3:0:0:3, 5:0:0:0:0, 3:0:0:0:0, 9:6:1:0:6, 7:7:0:0:7, 3:0:0:0:0, 1:0:0:0:0, 7:7:0:0:7, 8:5:0:0:5, 3:5:1:0:5, 7:9:0:0:9, 4:3:0:0:3, 5:2:0:0:2, 1:0:0:0:0, 5:10:0:0:10, 0:0:0:0:0, 5:0:0:0:0, 2:0:0:0:0, 3:0:0:0:0, 4:6:0:0:6, 5:7:0:0:7, 2:0:0:0:0, 1:0:0:0:0, 2:1:0:0:1, 0:0:0:0:0, 801:601:9:2:605
G major (1#), 2:0:0:0:1, 3:0:0:0:2, 3:1:0:0:1, 6:10:0:0:4, 6:0:0:0:4, 5:0:0:0:4, 1:0:0:0:0, 0:0:0:0:0, 2:0:0:0:1, 3:0:0:0:3, 3:1:0:0:1, 6:10:0:0:4, 6:0:0:0:4, 5:0:0:0:4, 1:0:0:0:0, 0:0:0:0:0, 4:0:0:0:3, 3:0:0:0:2, 3:1:0:0:2, 4:0:0:0:3, 1:0:0:0:0, 3:0:0:0:2, 4:6:0:0:0, 6:0:1:0:5, 2:0:0:0:1, 3:0:0:0:3, 3:1:0:0:1, 6:10:0:0:4, 6:0:0:0:4, 5:0:0:0:4, 1:0:0:0:0, 0:0:0:0:0, 1:0:0:0:0, 1:0:0:0:0, 2:2:0:0:0, 5:9:0:0:4, 5:0:0:0:2, 5:0:1:0:4, 1:0:0:0:0, 0:0:0:0:0, 1:0:0:0:0, 2:0:0:0:1, 3:2:0:0:0, 5:7:0:0:2, 9:1:0:0:5, 5:0:2:0:5, 1:0:0:0:0, 3:0:0:0:1, 2:0:0:0:4, 1:0:0:0:2, 2:0:0:0:1, 5:0:0:0:6, 0:0:0:0:0, 2:0:0:0:1, 6:6:0:0:1, 7:0:0:0:7, 2:0:0:0:0, 2:1:0:0:0, 3:1:0:0:1, 5:7:0:0:2, 6:0:0:0:3, 5:0:0:0:5, 1:0:0:0:0, 0:0:0:0:0, 1:0:0:0:0, 1:0:0:0:0, 4:1:0:0:1, 5:7:0:0:2, 5:0:0:0:2, 3:0:0:0:3, 1:0:0:0:0, 0:0:0:0:0, 1:0:0:0:0, 1:0:0:0:0, 4:1:0:0:1, 5:7:0:0:2, 5:0:0:0:2, 3:0:0:0:3, 1:0:0:0:0, 0:0:0:0:0, 2:0:0:0:3, 1:0:0:0:2, 2:0:0:0:2, 4:0:0:0:4, 0:0:0:0:0, 1:0:0:0:3, 3:4:0:0:0, 3:0:0:0:3, 1:0:0:0:0, 1:0:0:0:0, 2:2:0:0:0, 7:8:0:0:3, 5:0:0:0:2, 3:0:0:0:4, 1:0:0:0:0, 0:0:0:0:0, 2:1:0:0:0, 3:0:0:0:2, 2:2:0:0:0, 10:10:0:0:6, 5:0:0:0:2, 5:0:0:0:4, 3:1:0:0:1, 0:0:0:0:0, 1:0:0:0:0, 5:0:0:0:5, 2:2:0:0:0, 5:7:0:0:3, 7:0:0:0:3, 4:0:2:0:5, 3:1:0:0:1, 1:0:0:0:1, 3:0:0:0:3, 1:0:0:0:2, 2:0:0:0:4, 5:0:0:0:4, 0:0:0:0:0, 5:0:0:0:5, 3:4:0:0:0, 7:0:0:0:7, 1:0:0:0:0, 5:0:0:0:6, 4:2:0:0:1, 8:9:0:0:4, 5:0:0:0:5, 5:0:0:0:6, 3:0:0:0:2, 0:0:0:0:0, 2:0:0:0:1, 2:0:0:0:2, 4:3:1:0:1, 5:10:0:0:3, 5:0:0:0:3, 5:0:0:0:6, 2:1:0:0:0, 1:1:0:0:0, 1:0:0:0:0, 3:0:0:0:2, 2:2:0:0:0, 5:7:0:0:3, 5:0:0:0:4, 4:0:0:0:4, 3:1:0:0:1, 0:0:0:0:0, 3:0:0:0:6, 2:0:0:0:2, 2:0:0:0:1, 6:0:0:0:4, 0:0:0:0:0, 4:0:0:0:3, 3:4:0:0:0, 8:0:0:2:8, 3:1:0:0:1, 7:2:0:0:3, 3:3:0:0:1, 8:7:0:0:3, 5:0:0:0:5, 6:0:0:0:6, 8:3:0:0:1, 4:1:0:0:3, 6:3:0:0:2, 8:4:0:0:5, 2:3:0:0:0, 6:9:0:0:4, 5:0:0:0:3, 4:0:0:0:3, 3:0:0:0:2, 0:0:0:0:0, 2:0:0:0:1, 2:0:0:0:2, 2:2:0:0:0, 5:9:0:0:3, 6:0:0:0:5, 5:0:0:0:4, 3:0:0:0:2, 0:0:0:0:0, 3:0:0:0:5, 7:1:0:0:4, 3:0:1:0:2, 5:0:0:0:4, 3:0:0:0:2, 2:0:0:0:3, 6:4:0:0:1, 4:0:0:0:7, 1:0:0:0:0, 3:0:0:0:3, 4:2:0:0:2, 8:10:0:0:3, 6:0:0:0:4, 4:0:0:0:4, 3:1:0:0:2, 1:0:0:0:0, 2:0:0:0:0, 2:0:0:0:1, 2:2:0:0:0, 5:9:0:0:4, 11:0:0:0:6, 3:0:0:0:6, 1:0:0:0:0, 2:0:0:0:3, 2:0:0:0:3, 2:0:0:0:3, 5:3:0:0:1, 5:10:0:0:5, 10:0:1:0:5, 5:0:0:0:4, 3:0:0:0:2, 0:0:0:0:0, 5:2:0:0:6, 6:0:0:0:4, 3:0:1:0:3, 5:0:0:0:5, 2:1:0:0:0, 5:1:0:0:4, 3:3:0:0:0, 3:0:0:0:6, 1:0:0:0:0, 5:0:0:0:3, 2:2:0:0:0, 5:10:0:0:4, 5:0:0:0:3, 3:0:0:0:4, 2:1:0:0:0, 0:0:0:0:0, 2:0:0:0:1, 0:0:0:0:0, 755:283:10:2:493
D minor (1b), 1:0:0:0:0, 3:0:0:0:0, 3:1:0:0:1, 4:0:0:0:0, 5:6:0:0:6, 7:7:0:0:7, 1:0:0:0:0, 1:0:0:0:0, 1:0:0:0:0, 3:0:0:0:0, 3:1:0:0:1, 4:0:0:0:0, 5:6:0:0:6, 7:7:0:0:7, 1:0:0:0:0, 1:0:0:0:0, 6:5:0:0:5, 5:4:0:0:4, 4:3:1:0:4, 6:8:0:0:8, 3:1:0:0:1, 4:3:0:0:3, 2:0:0:0:0, 8:8:1:0:8, 1:0:0:0:0, 3:0:0:0:0, 3:1:0:0:1, 4:0:0:0:0, 5:6:0:0:6, 7:7:0:0:7, 1:0:0:0:0, 1:0:0:0:0, 0:0:0:0:0, 1:0:0:0:0, 2:0:0:0:0, 3:0:0:0:0, 4:4:0:0:4, 7:9:1:0:9, 1:0:0:0:0, 1:0:0:0:0, 0:0:0:0:0, 2:0:0:0:0, 3:0:0:0:0, 3:0:0:0:0, 9:10:0:0:10, 7:7:0:2:9, 1:0:0:0:0, 3:2:0:0:2, 4:7:0:0:7, 3:4:0:0:4, 2:2:0:0:2, 7:9:0:0:9, 2:3:0:0:3, 4:3:0:0:3, 4:0:0:0:0, 9:13:0:0:13, 1:1:0:0:1, 2:0:0:0:0, 3:0:0:0:0, 3:0:0:0:0, 5:5:0:0:5, 7:8:0:0:8, 1:0:0:0:0, 1:0:0:0:0, 0:0:0:0:0, 1:0:0:0:0, 4:0:0:0:0, 3:0:0:0:0, 5:4:0:0:4, 5:6:0:0:6, 1:0:0:0:0, 1:0:0:0:0, 0:0:0:0:0, 1:0:0:0:0, 4:0:0:0:0, 3:0:0:0:0, 5:4:0:0:4, 5:6:0:0:6, 1:0:0:0:0, 1:0:0:0:0, 4:4:0:0:4, 3:3:0:0:3, 2:3:0:0:3, 6:7:0:0:7, 2:1:0:0:1, 2:3:0:0:3, 1:0:0:0:0, 5:6:0:0:6, 0:0:0:0:0, 1:0:0:0:0, 2:0:0:0:0, 5:0:0:0:0, 5:4:0:0:4, 5:7:0:0:7, 1:0:0:0:0, 1:0:0:0:0, 1:0:0:0:0, 3:0:0:0:0, 2:0:0:0:0, 8:0:0:0:0, 4:5:0:0:5, 7:8:0:0:8, 3:0:0:0:0, 1:0:0:0:0, 0:0:0:0:0, 5:5:0:0:5, 2:0:0:0:0, 3:0:0:0:0, 6:5:0:0:5, 6:8:2:0:8, 3:0:0:0:0, 3:1:0:0:1, 5:6:0:0:6, 3:5:0:0:5, 3:6:0:0:6, 7:8:0:0:8, 2:2:0:0:2, 7:4:0:0:4, 1:0:0:0:0, 9:10:0:0:10, 0:0:0:0:0, 5:0:0:0:0, 4:2:0:0:2, 6:0:0:0:0, 4:7:0:0:7, 7:10:0:0:10, 3:0:0:0:0, 1:0:0:0:0, 2:1:0:0:1, 2:2:0:0:2, 5:1:0:0:1, 3:0:0:0:0, 5:4:0:0:4, 7:10:0:0:10, 2:0:0:0:0, 2:0:0:0:0, 0:0:0:0:0, 3:2:0:0:2, 2:0:0:0:0, 3:0:0:0:0, 4:6:0:0:6, 6:8:0:0:8, 3:0:0:0:0, 1:0:0:0:0, 5:8:0:0:8, 4:4:0:0:4, 2:2:0:0:2, 8:7:0:0:7, 2:5:0:0:5, 4:2:0:0:2, 1:0:0:0:0, 10:13:2:0:14, 1:0:0:0:0, 7:1:0:0:1, 3:1:0:0:1, 6:0:0:0:0, 4:7:0:0:7, 8:10:0:0:10, 6:1:0:0:1, 6:4:0:0:4, 4:0:0:0:0, 8:1:0:0:1, 2:0:0:0:0, 4:0:0:0:0, 4:5:0:0:5, 6:8:0:0:8, 3:0:0:0:0, 1:0:0:0:0, 1:1:0:0:1, 2:0:0:0:0, 2:0:0:0:0, 3:0:0:0:0, 5:7:0:0:7, 7:9:0:0:9, 2:0:0:0:0, 1:0:0:0:0, 5:10:0:0:10, 9:4:0:0:4, 4:2:0:0:2, 7:8:0:0:8, 5:4:0:0:4, 2:3:0:0:3, 4:0:0:0:0, 6:11:0:0:11, 0:0:0:0:0, 3:1:0:0:1, 4:1:0:0:1, 6:2:0:0:2, 5:6:0:0:6, 6:10:0:0:10, 3:2:0:0:2, 2:1:0:0:1, 2:1:0:0:1, 2:0:0:0:0, 2:0:0:0:0, 3:0:0:0:0, 9:5:0:0:5, 5:12:0:0:12, 1:0:0:0:0, 2:3:0:0:3, 1:3:0:0:3, 2:3:0:0:3, 5:0:0:0:0, 3:0:0:0:0, 9:6:1:0:6, 7:7:0:0:7, 3:0:0:0:0, 1:0:0:0:0, 7:7:0:0:7, 8:5:0:0:5, 3:5:1:0:5, 7:9:0:0:9, 4:3:0:0:3, 5:2:0:0:2, 1:0:0:0:0, 5:10:0:0:10, 0:0:0:0:0, 5:0:0:0:0, 2:0:0:0:0, 3:0:0:0:0, 4:6:0:0:6, 5:7:0:0:7, 2:0:0:0:0, 1:0:0:0:0, 2:1:0:0:1, 0:0:0:0:0, 801:601:9:2:605
E minor (1#), 2:0:0:0:1, 3:0:0:0:2, 3:1:0:0:1, 6:10:0:0:4, 6:0:0:0:4, 5:0:0:0:4, 1:0:0:0:0, 0:0:0:0:0, 2:0:0:0:1, 3:0:0:0:3, 3:1:0:0:1, 6:10:0:0:4, 6:0:0:0:4, 5:0:0:0:4, 1:0:0:0:0, 0:0:0:0:0, 4:0:0:0:3, 3:0:0:0:2, 3:1:0:0:2, 4:0:0:0:3, 1:0:0:0:0, 3:0:0:0:2, 4:6:0:0:0, 6:0:1:0:5, 2:0:0:0:1, 3:0:0:0:3, 3:1:0:0:1, 6:10:0:0:4, 6:0:0:0:4, 5:0:0:0:4, 1:0:0:0:0, 0:0:0:0:0, 1:0:0:0:0, 1:0:0:0:0, 2:2:0:0:0, 5:9:0:0:4, 5:0:0:0:2, 5:0:1:0:4, 1:0:0:0:0, 0:0:0:0:0, 1:0:0:0:0, 2:0:0:0:1, 3:2:0:0:0, 5:7:0:0:2, 9:1:0:0:5, 5:0:2:0:5, 1:0:0:0:0, 3:0:0:0:1, 2:0:0:0:4, 1:0:0:0:2, 2:0:0:0:1, 5:0:0:0:6, 0:0:0:0:0, 2:0:0:0:1, 6:6:0:0:1, 7:0:0:0:7, 2:0:0:0:0, 2:1:0:0:0, 3:1:0:0:1, 5:7:0:0:2, 6:0:0:0:3, 5:0:0:0:5, 1:0:0:0:0, 0:0:0:0:0, 1:0:0:0:0, 1:0:0:0:0, 4:1:0:0:1, 5:7:0:0:2, 5:0:0:0:2, 3:0:0:0:3, 1:0:0:0:0, 0:0:0:0:0, 1:0:0:0:0, 1:0:0:0:0, 4:1:0:0:1, 5:7:0:0:2, 5:0:0:0:2, 3:0:0:0:3, 1:0:0:0:0, 0:0:0:0:0, 2:0:0:0:3, 1:0:0:0:2, 2:0:0:0:2, 4:0:0:0:4, 0:0:0:0:0, 1:0:0:0:3, 3:4:0:0:0, 3:0:0:0:3, 1:0:0:0:0, 1:0:0:0:0, 2:2:0:0:0, 7:8:0:0:3, 5:0:0:0:2, 3:0:0:0:4, 1:0:0:0:0, 0:0:0:0:0, 2:1:0:0:0, 3:0:0:0:2, 2:2:0:0:0, 10:10:0:0:6, 5:0:0:0:2, 5:0:0:0:4, 3:1:0:0:1, 0:0:0:0:0, 1:0:0:0:0, 5:0:0:0:5, 2:2:0:0:0, 5:7:0:0:3, 7:0:0:0:3, 4:0:2:0:5, 3:1:0:0:1, 1:0:0:0:1, 3:0:0:0:3, 1:0:0:0:2, 2:0:0:0:4, 5:0:0:0:4, 0:0:0:0:0, 5:0:0:0:5, 3:4:0:0:0, 7:0:0:0:7, 1:0:0:0:0, 5:0:0:0:6, 4:2:0:0:1, 8:9:0:0:4, 5:0:0:0:5, 5:0:0:0:6, 3:0:0:0:2, 0:0:0:0:0, 2:0:0:0:1, 2:0:0:0:2, 4:3:1:0:1, 5:10:0:0:3, 5:0:0:0:3, 5:0:0:0:6, 2:1:0:0:0, 1:1:0:0:0, 1:0:0:0:0, 3:0:0:0:2, 2:2:0:0:0, 5:7:0:0:3, 5:0:0:0:4, 4:0:0:0:4, 3:1:0:0:1, 0:0:0:0:0, 3:0:0:0:6, 2:0:0:0:2, 2:0:0:0:1, 6:0:0:0:4, 0:0:0:0:0, 4:0:0:0:3, 3:4:0:0:0, 8:0:0:2:8, 3:1:0:0:1, 7:2:0:0:3, 3:3:0:0:1, 8:7:0:0:3, 5:0:0:0:5, 6:0:0:0:6, 8:3:0:0:1, 4:1:0:0:3, 6:3:0:0:2, 8:4:0:0:5, 2:3:0:0:0, 6:9:0:0:4, 5:0:0:0:3, 4:0:0:0:3, 3:0:0:0:2, 0:0:0:0:0, 2:0:0:0:1, 2:0:0:0:2, 2:2:0:0:0, 5:9:0:0:3, 6:0:0:0:5, 5:0:0:0:4, 3:0:0:0:2, 0:0:0:0:0, 3:0:0:0:5, 7:1:0:0:4, 3:0:1:0:2, 5:0:0:0:4, 3:0:0:0:2, 2:0:0:0:3, 6:4:0:0:1, 4:0:0:0:7, 1:0:0:0:0, 3:0:0:0:3, 4:2:0:0:2, 8:10:0:0:3, 6:0:0:0:4, 4:0:0:0:4, 3:1:0:0:2, 1:0:0:0:0, 2:0:0:0:0, 2:0:0:0:1, 2:2:0:0:0, 5:9:0:0:4, 11:0:0:0:6, 3:0:0:0:6, 1:0:0:0:0, 2:0:0:0:3, 2:0:0:0:3, 2:0:0:0:3, 5:3:0:0:1, 5:10:0:0:5, 10:0:1:0:5, 5:0:0:0:4, 3:0:0:0:2, 0:0:0:0:0, 5:2:0:0:6, 6:0:0:0:4, 3:0:1:0:3, 5:0:0:0:5, 2:1:0:0:0, 5:1:0:0:4, 3:3:0:0:0, 3:0:0:0:6, 1:0:0:0:0, 5:0:0:0:3, 2:2:0:0:0, 5:10:0:0:4, 5:0:0:0:3, 3:0:0:0:4, 2:1:0:0:0, 0:0:0:0:0, 2:0:0:0:1, 0:0:0:0:0, 755:283:10:2:493
Bb major (2b), 2:0:0:0:0, 3:0:0:0:1, 4:1:0:0:3, 3:0:0:0:0, 5:6:0:0:6, 8:7:0:0:8, 2:0:0:0:1, 2:0:0:0:1, 2:0:0:0:0, 3:0:0:0:1, 4:1:0:0:3, 3:0:0:0:0, 5:6:0:0:6, 8:7:0:0:8, 2:0:0:0:1, 2:0:0:0:1, 6:4:0:0:6, 6:4:0:0:7, 5:3:1:0:3, 7:8:0:0:9, 4:1:0:0:3, 5:3:0:0:5, 1:0:0:0:1, 9:8:1:0:10, 2:0:0:0:0, 3:0:0:0:1, 4:1:0:0:3, 3:0:0:0:0, 5:6:0:0:6, 8:7:0:0:8, 2:0:0:0:1, 2:0:0:0:1, 0:0:0:0:0, 2:0:0:0:1, 3:0:0:0:1, 2:0:0:0:0, 4:4:0:0:4, 8:9:1:0:11, 1:0:0:0:2, 2:0:0:0:1, 1:0:0:0:0, 3:0:0:0:1, 4:0:0:0:2, 2:0:0:0:0, 9:9:0:0:10, 8:7:0:2:11, 1:0:0:0:2, 4:2:0:0:3, 4:5:0:0:7, 4:4:0:0:6, 3:2:0:0:2, 8:9:0:0:11, 2:3:0:0:5, 5:3:0:0:4, 3:0:0:0:0, 10:13:0:0:16, 1:1:0:0:1, 2:0:1:0:3, 4:0:0:0:1, 2:0:0:0:0, 5:5:0:0:5, 8:8:0:0:10, 2:0:0:0:1, 2:0:0:0:1, 0:0:0:0:0, 1:0:0:0:2, 5:0:0:0:2, 2:0:0:0:0, 5:4:0:0:5, 6:6:0:0:8, 1:0:0:0:2, 2:0:0:0:1, 0:0:0:0:0, 1:0:0:0:2, 5:0:0:0:2, 2:0:0:0:0, 5:4:0:0:5, 6:6:0:0:8, 1:0:0:0:2, 2:0:0:0:2, 4:4:0:0:5, 4:3:0:0:5, 3:3:0:0:3, 7:7:0:0:9, 2:1:0:0:2, 3:3:0:0:4, 0:0:0:0:0, 6:6:0:0:8, 0:0:0:0:0, 1:0:0:0:2, 3:0:0:0:1, 4:0:0:0:0, 5:4:0:0:5, 6:7:0:0:8, 1:0:0:0:2, 2:0:0:0:1, 0:0:0:0:0, 3:0:0:0:2, 3:0:0:0:2, 7:0:0:0:2, 5:5:0:0:5, 8:8:0:0:11, 3:0:0:0:1, 2:0:0:0:5, 1:0:0:0:0, 5:5:0:0:7, 3:0:0:0:2, 2:0:0:0:0, 7:5:0:0:5, 7:8:2:0:9, 3:0:0:0:2, 4:1:0:0:2, 6:6:0:0:8, 4:5:0:0:8, 4:6:0:0:7, 8:8:0:0:11, 2:2:0:0:3, 8:4:0:0:8, 0:0:0:0:0, 10:10:0:0:12, 1:0:0:0:0, 4:0:0:0:1, 5:2:0:0:4, 5:0:0:0:0, 4:5:0:0:5, 8:10:0:0:13, 2:0:0:0:2, 2:0:0:0:2, 2:0:0:0:1, 2:0:2:0:4, 6:1:0:0:2, 2:0:0:0:0, 5:4:0:0:5, 8:10:0:0:14, 1:0:0:0:2, 3:0:0:0:3, 1:0:0:0:0, 4:2:0:0:4, 3:0:0:0:2, 2:0:0:0:0, 4:5:0:0:5, 7:8:0:0:10, 3:0:0:0:2, 2:0:0:0:1, 5:3:0:0:4, 5:4:0:0:7, 3:2:0:0:2, 9:7:0:0:8, 2:5:0:0:6, 5:2:0:0:4, 0:0:0:0:0, 11:13:2:0:16, 1:0:1:0:1, 8:1:0:0:4, 4:1:0:0:4, 5:0:0:0:0, 4:5:0:0:5, 9:10:0:0:12, 5:1:0:0:2, 7:4:0:0:5, 5:0:0:0:0, 9:1:0:0:2, 3:0:0:0:1, 3:0:0:0:0, 4:5:0:0:5, 7:8:0:0:12, 4:0:0:0:2, 2:0:0:0:3, 1:0:0:0:0, 1:0:0:0:2, 3:0:0:0:1, 2:0:0:0:0, 5:6:0:0:6, 8:9:0:0:10, 1:0:0:0:1, 2:0:0:0:3, 5:7:0:0:8, 9:6:2:0:9, 5:2:0:0:3, 8:8:0:0:9, 5:4:0:0:7, 3:3:0:0:4, 3:0:0:0:0, 7:11:0:0:13, 1:0:0:0:0, 3:0:0:0:1, 5:1:0:0:2, 5:2:0:0:2, 6:6:0:0:6, 7:10:0:0:11, 3:2:0:0:4, 3:1:0:0:3, 2:1:0:0:2, 1:0:0:0:2, 3:0:0:0:2, 2:0:0:0:0, 9:4:0:0:4, 6:12:0:0:15, 2:0:0:0:1, 3:3:0:0:4, 2:2:0:0:2, 3:2:0:0:4, 6:0:0:0:1, 2:0:0:0:0, 8:6:1:0:6, 8:7:0:0:9, 4:0:0:0:2, 2:0:0:0:1, 7:7:0:0:10, 9:5:0:0:10, 4:5:1:0:5, 8:9:0:0:11, 4:3:1:0:5, 6:2:0:0:3, 0:0:0:0:0, 6:10:0:0:12, 0:0:0:0:0, 4:0:0:0:1, 3:0:0:0:1, 2:0:0:0:0, 4:5:0:0:5, 6:7:0:0:10, 3:0:0:0:2, 2:0:0:0:3, 2:0:0:0:0, 0:0:0:0:0, 889:575:16:2:859
D major (2#), 3:0:0:0:0, 3:0:0:0:1, 4:1:0:0:1, 7:9:0:0:4, 7:0:0:0:2, 4:0:0:0:2, 2:0:0:0:0, 1:0:0:0:0, 3:0:0:0:0, 3:0:0:0:1, 4:1:0:0:1, 7:9:0:0:4, 7:0:0:0:2, 4:0:0:0:2, 2:0:0:0:0, 1:0:0:0:0, 3:0:0:0:3, 2:0:0:0:1, 2:1:0:0:0, 3:0:0:0:1, 0:0:0:0:0, 2:0:0:0:1, 5:6:0:0:0, 5:0:1:0:3, 3:0:0:0:0, 3:0:0:0:1, 4:1:0:0:1, 7:9:0:0:4, 7:0:0:0:2, 4:0:0:0:2, 2:0:0:0:0, 1:0:0:0:0, 2:0:0:0:0, 1:0:0:0:0, 3:2:0:0:0, 6:9:0:0:6, 6:0:0:0:2, 4:0:1:0:2, 2:0:0:0:0, 1:0:0:0:0, 2:0:0:0:0, 3:0:0:0:0, 4:2:0:0:0, 5:7:0:0:4, 10:1:0:0:4, 4:0:2:0:4, 2:0:0:0:0, 4:0:0:0:1, 2:0:0:0:4, 1:0:0:0:0, 1:0:0:0:0, 4:0:0:0:3, 0:0:0:0:0, 1:0:0:0:0, 7:6:0:0:1, 6:0:0:0:4, 3:0:0:0:0, 3:1:0:0:0, 4:1:0:0:0, 5:7:0:0:3, 7:0:0:0:2, 4:0:0:0:3, 2:0:0:0:0, 1:0:0:0:0, 2:0:0:0:0, 1:0:0:0:0, 5:1:0:0:1, 5:7:0:0:4, 6:0:0:0:2, 2:0:0:0:2, 2:0:0:0:0, 1:0:0:0:0, 2:0:0:0:0, 1:0:0:0:0, 5:1:0:0:1, 5:7:0:0:4, 6:0:0:0:2, 2:0:0:0:2, 2:0:0:0:0, 1:0:0:0:0, 2:0:0:0:3, 1:0:0:0:0, 1:0:0:0:0, 3:0:0:0:3, 0:0:0:0:0, 1:0:0:0:0, 4:4:0:0:0, 2:0:0:0:2, 2:0:0:0:0, 1:0:0:0:0, 3:2:0:0:0, 8:7:0:0:3, 6:0:0:0:2, 2:0:0:0:3, 2:0:0:0:0, 1:0:0:0:0, 3:1:0:0:0, 3:0:0:0:0, 3:2:0:0:0, 11:8:0:0:5, 6:0:0:0:2, 4:0:0:0:3, 4:1:0:0:2, 1:0:0:0:0, 2:0:0:0:0, 5:0:0:0:2, 3:2:0:0:0, 6:6:0:0:3, 8:0:0:0:2, 3:0:2:0:3, 4:1:0:0:0, 2:0:0:0:1, 2:0:0:0:3, 1:0:0:0:0, 1:0:0:0:0, 4:0:0:0:1, 0:0:0:0:0, 6:0:0:0:2, 4:4:0:0:0, 6:0:0:0:5, 2:0:0:0:0, 6:0:0:0:3, 5:2:0:0:0, 9:8:0:0:4, 6:0:0:0:5, 4:0:0:0:3, 4:0:0:0:1, 1:0:0:0:0, 3:0:0:0:1, 3:0:0:0:2, 5:3:1:0:1, 6:10:0:0:5, 6:0:0:0:3, 4:0:0:0:3, 3:1:0:0:0, 2:1:0:0:1, 2:0:0:0:0, 3:0:0:0:0, 3:2:0:0:0, 5:6:0:0:3, 6:0:0:0:4, 3:0:0:0:2, 4:1:0:0:0, 1:0:0:0:0, 2:0:0:0:6, 2:0:0:0:0, 1:0:0:0:0, 5:0:0:0:2, 0:0:0:0:0, 4:0:0:0:1, 4:4:0:0:0, 7:0:0:2:6, 4:1:0:0:1, 7:1:0:0:1, 4:3:0:0:1, 9:6:0:0:3, 6:0:0:0:5, 5:0:0:0:3, 9:3:0:0:3, 5:1:0:0:1, 7:3:0:0:2, 9:4:0:0:5, 3:3:0:0:0, 7:8:0:0:4, 6:0:0:0:3, 3:0:0:0:2, 4:0:0:0:1, 1:0:0:0:0, 3:0:0:0:1, 2:0:0:0:2, 3:2:0:0:0, 6:8:0:0:4, 7:0:0:0:4, 4:0:0:0:3, 4:0:0:0:2, 1:0:0:0:0, 2:0:0:0:5, 6:0:1:0:2, 2:0:1:0:1, 4:0:0:0:1, 3:0:0:0:1, 2:0:0:0:0, 7:4:0:0:0, 3:0:0:0:5, 2:0:0:0:0, 3:0:0:0:1, 5:2:0:0:2, 9:10:0:0:6, 7:0:0:0:4, 3:0:0:0:3, 4:1:0:0:3, 2:0:0:0:0, 3:0:0:0:0, 3:0:0:0:1, 3:2:0:0:0, 6:9:0:0:6, 12:0:0:0:4, 2:0:0:0:2, 2:0:0:0:0, 3:0:0:0:3, 3:0:0:0:3, 3:0:0:0:3, 6:3:0:0:0, 6:7:0:0:4, 11:0:1:0:5, 4:0:0:0:3, 4:0:0:0:1, 1:0:0:0:0, 5:0:1:0:3, 5:0:0:0:0, 2:0:1:0:1, 4:0:0:0:3, 1:1:0:0:0, 5:0:0:0:1, 4:3:0:0:0, 2:0:0:0:3, 2:0:0:0:0, 4:0:0:0:2, 3:2:0:0:0, 6:10:0:0:6, 6:0:0:0:3, 2:0:0:0:2, 3:1:0:0:0, 1:0:0:0:0, 3:0:0:0:1, 0:0:0:0:0, 838:263:12:2:351
G minor (2b), 2:0:0:0:0, 3:0:0:0:1, 4:1:0:0:3, 3:0:0:0:0, 5:6:0:0:6, 8:7:0:0:8, 2:0:0:0:1, 2:0:0:0:1, 2:0:0:0:0, 3:0:0:0:1, 4:1:0:0:3, 3:0:0:0:0, 5:6:0:0:6, 8:7:0:0:8, 2:0:0:0:1, 2:0:0:0:1, 6:4:0:0:6, 6:4:0:0:7, 5:3:1:0:3, 7:8:0:0:9, 4:1:0:0:3, 5:3:0:0:5, 1:0:0:0:1, 9:8:1:0:10, 2:0:0:0:0, 3:0:0:0:1, 4:1:0:0:3, 3:0:0:0:0, 5:6:0:0:6, 8:7:0:0:8, 2:0:0:0:1, 2:0:0:0:1, 0:0:0:0:0, 2:0:0:0:1, 3:0:0:0:1, 2:0:0:0:0, 4:4:0:0:4, 8:9:1:0:11, 1:0:0:0:2, 2:0:0:0:1, 1:0:0:0:0, 3:0:0:0:1, 4:0:0:0:2, 2:0:0:0:0, 9:9:0:0:10, 8:7:0:2:11, 1:0:0:0:2, 4:2:0:0:3, 4:5:0:0:7, 4:4:0:0:6, 3:2:0:0:2, 8:9:0:0:11, 2:3:0:0:5, 5:3:0:0:4, 3:0:0:0:0, 10:13:0:0:16, 1:1:0:0:1, 2:0:1:0:3, 4:0:0:0:1, 2:0:0:0:0, 5:5:0:0:5, 8:8:0:0:10, 2:0:0:0:1, 2:0:0:0:1, 0:0:0:0:0, 1:0:0:0:2, 5:0:0:0:2, 2:0:0:0:0, 5:4:0:0:5, 6:6:0:0:8, 1:0:0:0:2, 2:0:0:0:1, 0:0:0:0:0, 1:0:0:0:2, 5:0:0:0:2, 2:0:0:0:0, 5:4:0:0:5, 6:6:0:0:8, 1:0:0:0:2, 2:0:0:0:2, 4:4:0:0:5, 4:3:0:0:5, 3:3:0:0:3, 7:7:0:0:9, 2:1:0:0:2, 3:3:0:0:4, 0:0:0:0:0, 6:6:0:0:8, 0:0:0:0:0, 1:0:0:0:2, 3:0:0:0:1, 4:0:0:0:0, 5:4:0:0:5, 6:7:0:0:8, 1:0:0:0:2, 2:0:0:0:1, 0:0:0:0:0, 3:0:0:0:2, 3:0:0:0:2, 7:0:0:0:2, 5:5:0:0:5, 8:8:0:0:11, 3:0:0:0:1, 2:0:0:0:5, 1:0:0:0:0, 5:5:0:0:7, 3:0:0:0:2, 2:0:0:0:0, 7:5:0:0:5, 7:8:2:0:9, 3:0:0:0:2, 4:1:0:0:2, 6:6:0:0:8, 4:5:0:0:8, 4:6:0:0:7, 8:8:0:0:11, 2:2:0:0:3, 8:4:0:0:8, 0:0:0:0:0, 10:10:0:0:12, 1:0:0:0:0, 4:0:0:0:1, 5:2:0:0:4, 5:0:0:0:0, 4:5:0:0:5, 8:10:0:0:13, 2:0:0:0:2, 2:0:0:0:2, 2:0:0:0:1, 2:0:2:0:4, 6:1:0:0:2, 2:0:0:0:0, 5:4:0:0:5, 8:10:0:0:14, 1:0:0:0:2, 3:0:0:0:3, 1:0:0:0:0, 4:2:0:0:4, 3:0:0:0:2, 2:0:0:0:0, 4:5:0:0:5, 7:8:0:0:10, 3:0:0:0:2, 2:0:0:0:1, 5:3:0:0:4, 5:4:0:0:7, 3:2:0:0:2, 9:7:0:0:8, 2:5:0:0:6, 5:2:0:0:4, 0:0:0:0:0, 11:13:2:0:16, 1:0:1:0:1, 8:1:0:0:4, 4:1:0:0:4, 5:0:0:0:0, 4:5:0:0:5, 9:10:0:0:12, 5:1:0:0:2, 7:4:0:0:5, 5:0:0:0:0, 9:1:0:0:2, 3:0:0:0:1, 3:0:0:0:0, 4:5:0:0:5, 7:8:0:0:12, 4:0:0:0:2, 2:0:0:0:3, 1:0:0:0:0, 1:0:0:0:2, 3:0:0:0:1, 2:0:0:0:0, 5:6:0:0:6, 8:9:0:0:10, 1:0:0:0:1, 2:0:0:0:3, 5:7:0:0:8, 9:6:2:0:9, 5:2:0:0:3, 8:8:0:0:9, 5:4:0:0:7, 3:3:0:0:4, 3:0:0:0:0, 7:11:0:0:13, 1:0:0:0:0, 3:0:0:0:1, 5:1:0:0:2, 5:2:0:0:2, 6:6:0:0:6, 7:10:0:0:11, 3:2:0:0:4, 3:1:0:0:3, 2:1:0:0:2, 1:0:0:0:2, 3:0:0:0:2, 2:0:0:0:0, 9:4:0:0:4, 6:12:0:0:15, 2:0:0:0:1, 3:3:0:0:4, 2:2:0:0:2, 3:2:0:0:4, 6:0:0:0:1, 2:0:0:0:0, 8:6:1:0:6, 8:7:0:0:9, 4:0:0:0:2, 2:0:0:0:1, 7:7:0:0:10, 9:5:0:0:10, 4:5:1:0:5, 8:9:0:0:11, 4:3:1:0:5, 6:2:0:0:3, 0:0:0:0:0, 6:10:0:0:12, 0:0:0:0:0, 4:0:0:0:1, 3:0:0:0:1, 2:0:0:0:0, 4:5:0:0:5, 6:7:0:0:10, 3:0:0:0:2, 2:0:0:0:3, 2:0:0:0:0, 0:0:0:0:0, 889:575:16:2:859
B minor (2#), 3:0:0:0:0, 3:0:0:0:1, 4:1:0:0:1, 7:9:0:0:4, 7:0:0:0:2, 4:0:0:0:2, 2:0:0:0:0, 1:0:0:0:0, 3:0:0:0:0, 3:0:0:0:1, 4:1:0:0:1, 7:9:0:0:4, 7:0:0:0:2, 4:0:0:0:2, 2:0:0:0:0, 1:0:0:0:0, 3:0:0:0:3, 2:0:0:0:1, 2:1:0:0:0, 3:0:0:0:1, 0:0:0:0:0, 2:0:0:0:1, 5:6:0:0:0, 5:0:1:0:3, 3:0:0:0:0, 3:0:0:0:1, 4:1:0:0:1, 7:9:0:0:4, 7:0:0:0:2, 4:0:0:0:2, 2:0:0:0:0, 1:0:0:0:0, 2:0:0:0:0, 1:0:0:0:0, 3:2:0:0:0, 6:9:0:0:6, 6:0:0:0:2, 4:0:1:0:2, 2:0:0:0:0, 1:0:0:0:0, 2:0:0:0:0, 3:0:0:0:0, 4:2:0:0:0, 5:7:0:0:4, 10:1:0:0:4, 4:0:2:0:4, 2:0:0:0:0, 4:0:0:0:1, 2:0:0:0:4, 1:0:0:0:0, 1:0:0:0:0, 4:0:0:0:3, 0:0:0:0:0, 1:0:0:0:0, 7:6:0:0:1, 6:0:0:0:4, 3:0:0:0:0, 3:1:0:0:0, 4:1:0:0:0, 5:7:0:0:3, 7:0:0:0:2, 4:0:0:0:3, 2:0:0:0:0, 1:0:0:0:0, 2:0:0:0:0, 1:0:0:0:0, 5:1:0:0:1, 5:7:0:0:4, 6:0:0:0:2, 2:0:0:0:2, 2:0:0:0:0, 1:0:0:0:0, 2:0:0:0:0, 1:0:0:0:0, 5:1:0:0:1, 5:7:0:0:4, 6:0:0:0:2, 2:0:0:0:2, 2:0:0:0:0, 1:0:0:0:0, 2:0:0:0:3, 1:0:0:0:0, 1:0:0:0:0, 3:0:0:0:3, 0:0:0:0:0, 1:0:0:0:0, 4:4:0:0:0, 2:0:0:0:2, 2:0:0:0:0, 1:0:0:0:0, 3:2:0:0:0, 8:7:0:0:3, 6:0:0:0:2, 2:0:0:0:3, 2:0:0:0:0, 1:0:0:0:0, 3:1:0:0:0, 3:0:0:0:0, 3:2:0:0:0, 11:8:0:0:5, 6:0:0:0:2, 4:0:0:0:3, 4:1:0:0:2, 1:0:0:0:0, 2:0:0:0:0, 5:0:0:0:2, 3:2:0:0:0, 6:6:0:0:3, 8:0:0:0:2, 3:0:2:0:3, 4:1:0:0:0, 2:0:0:0:1, 2:0:0:0:3, 1:0:0:0:0, 1:0:0:0:0, 4:0:0:0:1, 0:0:0:0:0, 6:0:0:0:2, 4:4:0:0:0, 6:0:0:0:5, 2:0:0:0:0, 6:0:0:0:3, 5:2:0:0:0, 9:8:0:0:4, 6:0:0:0:5, 4:0:0:0:3, 4:0:0:0:1, 1:0:0:0:0, 3:0:0:0:1, 3:0:0:0:2, 5:3:1:0:1, 6:10:0:0:5, 6:0:0:0:3, 4:0:0:0:3, 3:1:0:0:0, 2:1:0:0:1, 2:0:0:0:0, 3:0:0:0:0, 3:2:0:0:0, 5:6:0:0:3, 6:0:0:0:4, 3:0:0:0:2, 4:1:0:0:0, 1:0:0:0:0, 2:0:0:0:6, 2:0:0:0:0, 1:0:0:0:0, 5:0:0:0:2, 0:0:0:0:0, 4:0:0:0:1, 4:4:0:0:0, 7:0:0:2:6, 4:1:0:0:1, 7:1:0:0:1, 4:3:0:0:1, 9:6:0:0:3, 6:0:0:0:5, 5:0:0:0:3, 9:3:0:0:3, 5:1:0:0:1, 7:3:0:0:2, 9:4:0:0:5, 3:3:0:0:0, 7:8:0:0:4, 6:0:0:0:3, 3:0:0:0:2, 4:0:0:0:1, 1:0:0:0:0, 3:0:0:0:1, 2:0:0:0:2, 3:2:0:0:0, 6:8:0:0:4, 7:0:0:0:4, 4:0:0:0:3, 4:0:0:0:2, 1:0:0:0:0, 2:0:0:0:5, 6:0:1:0:2, 2:0:1:0:1, 4:0:0:0:1, 3:0:0:0:1, 2:0:0:0:0, 7:4:0:0:0, 3:0:0:0:5, 2:0:0:0:0, 3:0:0:0:1, 5:2:0:0:2, 9:10:0:0:6, 7:0:0:0:4, 3:0:0:0:3, 4:1:0:0:3, 2:0:0:0:0, 3:0:0:0:0, 3:0:0:0:1, 3:2:0:0:0, 6:9:0:0:6, 12:0:0:0:4, 2:0:0:0:2, 2:0:0:0:0, 3:0:0:0:3, 3:0:0:0:3, 3:0:0:0:3, 6:3:0:0:0, 6:7:0:0:4, 11:0:1:0:5, 4:0:0:0:3, 4:0:0:0:1, 1:0:0:0:0, 5:0:1:0:3, 5:0:0:0:0, 2:0:1:0:1, 4:0:0:0:3, 1:1:0:0:0, 5:0:0:0:1, 4:3:0:0:0, 2:0:0:0:3, 2:0:0:0:0, 4:0:0:0:2, 3:2:0:0:0, 6:10:0:0:6, 6:0:0:0:3, 2:0:0:0:2, 3:1:0:0:0, 1:0:0:0:0, 3:0:0:0:1, 0:0:0:0:0, 838:263:12:2:351
Eb major (3b), 3:0:0:0:1, 2:0:0:0:1, 5:1:0:0:5, 2:0:0:0:0, 6:6:0:0:6, 8:6:0:0:11, 3:0:0:0:3, 2:0:0:0:3, 3:0:0:0:1, 2:0:0:0:1, 5:1:0:0:5, 2:0:0:0:0, 6:6:0:0:6, 8:6:0:0:11, 3:0:0:0:3, 2:0:0:0:4, 6:4:0:0:6, 7:4:0:0:8, 6:3:1:0:5, 7:7:0:0:11, 5:1:0:0:4, 5:3:0:0:6, 2:0:0:0:1, 9:7:1:0:13, 3:0:0:0:1, 2:0:0:0:1, 5:1:0:0:5, 2:0:0:0:0, 6:6:0:0:6, 8:6:0:0:11, 3:0:0:0:3, 2:0:0:0:4, 1:0:0:0:0, 2:0:0:0:3, 4:0:0:0:2, 1:0:0:0:0, 5:4:0:0:4, 8:8:1:0:14, 2:0:0:0:2, 3:0:0:0:4, 2:0:0:0:1, 2:0:0:0:4, 5:0:0:0:3, 1:0:0:0:0, 10:9:0:0:10, 8:7:0:2:13, 2:0:0:0:2, 4:2:0:0:6, 4:5:0:0:7, 5:4:0:0:8, 4:2:0:0:4, 8:9:0:0:14, 3:3:0:0:5, 6:3:0:0:7, 4:0:0:0:1, 11:13:0:0:21, 2:1:0:0:1, 2:0:1:0:2, 5:0:0:0:2, 1:0:0:0:0, 6:5:0:0:5, 8:7:0:0:12, 3:0:0:0:3, 2:0:0:0:2, 1:0:0:0:0, 1:0:0:0:2, 5:1:0:0:4, 1:0:0:0:0, 6:4:0:0:5, 6:6:0:0:10, 2:0:0:0:2, 2:0:0:0:2, 1:0:0:0:0, 1:0:0:0:2, 5:1:0:0:4, 1:0:0:0:0, 6:4:0:0:5, 6:6:0:0:10, 2:0:0:0:2, 2:0:0:0:3, 4:4:0:0:5, 5:3:0:0:6, 4:3:0:0:4, 7:7:0:0:11, 3:1:0:0:2, 3:1:0:0:3, 1:0:0:0:0, 6:6:0:0:10, 1:0:0:0:0, 1:0:0:0:2, 4:0:0:0:3, 3:0:0:0:0, 6:4:0:0:5, 6:7:0:0:10, 2:0:0:0:2, 2:0:0:0:2, 1:0:0:0:0, 2:0:0:0:2, 4:0:0:0:4, 6:0:0:0:2, 6:5:0:0:6, 8:8:0:0:14, 4:0:0:0:1, 2:0:0:0:8, 2:0:0:0:1, 5:0:0:0:2, 4:0:0:0:4, 1:0:0:0:0, 8:5:0:0:6, 7:7:2:0:12, 4:0:0:0:2, 4:1:0:0:4, 6:6:0:0:10, 5:5:0:0:9, 5:6:0:0:10, 8:6:0:0:11, 3:2:0:0:3, 8:4:0:0:9, 1:0:0:0:0, 10:9:0:0:13, 2:0:0:0:2, 3:0:0:0:1, 6:2:0:0:6, 4:0:0:0:0, 5:5:0:0:5, 8:8:0:0:14, 3:0:0:0:2, 3:0:0:0:4, 3:0:0:0:2, 3:0:2:0:2, 7:1:0:0:4, 1:0:0:0:0, 6:4:0:0:5, 8:8:0:0:15, 2:0:0:0:2, 2:0:0:0:5, 2:0:0:0:2, 4:0:0:0:3, 4:0:0:0:4, 1:0:0:0:0, 5:5:0:0:5, 7:7:0:0:12, 4:0:0:0:2, 2:0:0:0:2, 5:3:0:0:4, 6:4:0:0:8, 4:2:0:0:7, 9:6:0:0:11, 3:5:0:0:6, 5:1:0:0:4, 1:0:0:0:0, 11:12:2:0:20, 2:0:1:0:0, 7:1:0:0:6, 5:1:0:0:5, 4:0:0:0:0, 5:5:0:0:5, 9:8:0:0:13, 6:1:0:0:2, 7:2:0:0:4, 6:0:0:0:1, 9:0:0:0:3, 4:0:0:0:3, 2:0:0:0:0, 5:5:0:0:5, 7:8:0:0:14, 5:0:0:0:3, 3:0:0:0:5, 2:0:0:0:2, 2:0:0:0:2, 4:0:0:0:2, 1:0:0:0:0, 6:6:0:0:6, 8:9:0:0:13, 2:0:0:0:1, 2:0:0:0:6, 5:7:0:0:8, 10:6:2:0:9, 6:2:0:0:5, 9:7:0:0:11, 6:4:0:0:7, 4:2:0:0:6, 4:0:0:0:0, 7:11:0:0:16, 2:0:0:0:2, 2:0:0:0:2, 6:1:0:0:4, 4:2:0:0:2, 7:5:1:0:5, 7:10:0:0:14, 4:2:0:0:4, 3:1:0:0:5, 3:1:0:0:2, 2:0:0:0:2, 4:0:0:0:4, 1:0:0:0:0, 10:4:0:0:4, 7:10:0:0:16, 3:0:0:0:3, 4:3:0:0:8, 3:2:0:0:5, 4:2:0:0:7, 7:0:0:0:2, 1:0:0:0:0, 9:6:1:0:6, 8:7:0:0:12, 5:0:0:0:3, 2:0:0:0:3, 7:7:0:0:10, 10:5:0:0:13, 5:5:1:0:8, 9:8:0:0:12, 5:3:1:0:4, 7:2:0:0:4, 1:0:0:0:0, 6:8:0:0:12, 1:0:0:0:0, 3:0:0:0:1, 4:0:0:0:2, 1:0:0:0:0, 5:5:0:0:5, 6:6:0:0:12, 4:0:0:0:3, 3:0:0:0:5, 2:0:0:0:2, 0:0:0:0:0, 984:535:17:2:1087
A major (3#), 4:0:0:0:0, 4:0:0:0:1, 5:1:0:0:2, 8:9:0:0:6, 8:0:0:0:1, 3:0:0:0:1, 3:0:0:0:0, 2:0:0:0:0, 4:0:0:0:0, 4:0:0:0:1, 5:1:0:0:2, 8:9:0:0:6, 8:0:0:0:1, 3:0:0:0:1, 3:0:0:0:0, 2:0:0:0:0, 3:0:0:0:1, 1:0:0:0:1, 1:1:0:0:0, 2:0:0:0:1, 0:0:0:0:0, 1:0:0:0:1, 6:6:0:0:4, 4:0:1:0:2, 4:0:0:0:0, 4:0:0:0:1, 5:1:0:0:2, 8:9:0:0:6, 8:0:0:0:1, 3:0:0:0:1, 3:0:0:0:0, 2:0:0:0:0, 2:0:0:0:0, 2:0:0:0:0, 4:2:0:0:2, 7:8:0:0:6, 6:0:0:0:1, 3:0:1:0:2, 3:0:0:0:0, 2:0:0:0:0, 2:0:0:0:0, 4:0:0:0:0, 5:2:0:0:1, 6:6:0:0:4, 10:0:0:0:1, 3:0:2:0:4, 3:0:0:0:0, 5:0:0:0:0, 2:0:0:0:1, 0:0:0:0:0, 0:0:0:0:0, 3:0:0:0:3, 0:0:0:0:0, 0:0:0:0:0, 8:6:0:0:5, 5:0:0:0:2, 4:0:0:0:0, 4:1:0:0:1, 5:1:0:0:1, 6:7:0:0:4, 8:0:0:0:1, 3:0:0:0:2, 3:0:0:0:0, 2:0:0:0:0, 2:0:0:0:0, 2:0:0:0:0, 6:1:0:0:2, 6:6:0:0:4, 6:0:0:0:1, 1:0:0:0:2, 3:0:0:0:0, 2:0:0:0:0, 2:0:0:0:0, 2:0:0:0:0, 6:1:0:0:2, 6:6:0:0:4, 6:0:0:0:1, 1:0:0:0:2, 3:0:0:0:0, 2:0:0:0:0, 2:0:0:0:2, 0:0:0:0:0, 0:0:0:0:0, 2:0:0:0:3, 0:0:0:0:0, 0:0:0:0:0, 5:4:0:0:2, 1:0:0:0:2, 2:0:0:0:0, 2:0:0:0:0, 4:2:0:0:2, 9:7:0:0:4, 6:0:0:0:1, 1:0:0:0:3, 3:0:0:0:0, 2:0:0:0:0, 3:1:0:0:1, 4:0:0:0:0, 4:2:0:0:2, 12:6:1:0:5, 6:0:0:0:1, 3:0:0:0:3, 5:1:0:0:2, 2:0:0:0:0, 3:0:0:0:0, 6:0:0:0:2, 4:2:0:0:2, 7:6:0:0:4, 7:0:0:0:1, 2:0:2:0:3, 5:1:0:0:0, 3:0:0:0:0, 3:0:0:0:2, 0:0:0:0:0, 0:0:0:0:0, 3:0:0:0:1, 0:0:0:0:0, 5:0:0:0:1, 5:4:0:0:3, 5:0:0:0:3, 3:0:0:0:0, 7:0:0:0:2, 6:2:0:0:2, 10:7:0:0:4, 6:0:0:0:2, 3:0:0:0:3, 5:0:0:0:0, 2:0:0:0:0, 3:0:0:0:0, 4:0:0:0:0, 6:3:1:0:4, 7:9:0:0:6, 6:0:0:0:2, 3:0:0:0:3, 4:1:0:0:1, 3:1:0:0:1, 3:0:0:0:0, 4:0:0:0:0, 4:2:0:0:2, 6:6:0:0:4, 7:0:0:0:2, 2:0:0:0:2, 5:1:0:0:0, 2:0:0:0:0, 2:0:0:0:1, 1:0:0:0:0, 0:0:0:0:0, 4:0:0:0:2, 0:0:0:0:0, 3:0:0:0:1, 5:4:0:0:3, 6:0:0:2:6, 5:1:0:0:2, 8:1:0:0:0, 5:3:0:0:4, 9:7:0:0:5, 6:0:0:0:2, 4:0:0:0:3, 8:3:0:0:4, 6:1:0:0:0, 6:3:0:0:2, 10:4:0:0:3, 4:3:0:0:3, 8:8:0:0:5, 6:0:0:0:2, 2:0:0:0:2, 5:0:0:0:0, 2:0:0:0:0, 4:0:0:0:0, 3:0:0:0:0, 4:2:0:0:2, 7:7:0:0:4, 6:0:0:0:2, 3:0:0:0:3, 5:0:0:0:1, 2:0:0:0:0, 2:0:0:0:3, 5:0:1:0:1, 1:0:1:0:1, 3:0:0:0:1, 2:0:0:0:1, 1:0:0:0:0, 8:4:0:0:3, 2:0:0:0:4, 3:0:0:0:0, 4:0:0:0:0, 6:2:0:0:1, 10:9:0:0:6, 7:0:0:0:2, 2:0:0:0:3, 5:1:0:0:3, 3:0:0:0:0, 3:0:0:0:0, 4:0:0:0:0, 4:2:0:0:2, 7:8:0:0:6, 11:0:0:0:2, 1:0:0:0:2, 3:0:0:0:0, 4:0:0:0:0, 4:0:0:0:0, 4:0:0:0:0, 7:3:0:0:2, 7:7:0:0:5, 11:0:1:0:3, 3:0:0:0:3, 5:0:0:0:0, 2:0:0:0:0, 4:0:1:0:2, 4:0:0:0:0, 1:0:1:0:1, 3:0:0:0:3, 1:1:0:0:1, 4:0:0:0:0, 5:3:0:0:2, 1:0:0:0:3, 2:0:0:0:0, 5:0:0:0:1, 4:2:0:0:2, 7:9:0:0:6, 6:0:0:0:1, 1:0:0:0:2, 4:1:0:0:1, 2:0:0:0:0, 3:0:0:0:0, 0:0:0:0:0, 902:251:13:2:338
C minor (3b), 3:0:0:0:1, 2:0:0:0:1, 5:1:0:0:5, 2:0:0:0:0, 6:6:0:0:6, 8:6:0:0:11, 3:0:0:0:3, 2:0:0:0:3, 3:0:0:0:1, 2:0:0:0:1, 5:1:0:0:5, 2:0:0:0:0, 6:6:0:0:6, 8:6:0:0:11, 3:0:0:0:3, 2:0:0:0:4, 6:4:0:0:6, 7:4:0:0:8, 6:3:1:0:5, 7:7:0:0:11, 5:1:0:0:4, 5:3:0:0:6, 2:0:0:0:1, 9:7:1:0:13, 3:0:0:0:1, 2:0:0:0:1, 5:1:0:0:5, 2:0:0:0:0, 6:6:0:0:6, 8:6:0:0:11, 3:0:0:0:3, 2:0:0:0:4, 1:0:0:0:0, 2:0:0:0:3, 4:0:0:0:2, 1:0:0:0:0, 5:4:0:0:4, 8:8:1:0:14, 2:0:0:0:2, 3:0:0:0:4, 2:0:0:0:1, 2:0:0:0:4, 5:0:0:0:3, 1:0:0:0:0, 10:9:0:0:10, 8:7:0:2:13, 2:0:0:0:2, 4:2:0:0:6, 4:5:0:0:7, 5:4:0:0:8, 4:2:0:0:4, 8:9:0:0:14, 3:3:0:0:5, 6:3:0:0:7, 4:0:0:0:1, 11:13:0:0:21, 2:1:0:0:1, 2:0:1:0:2, 5:0:0:0:2, 1:0:0:0:0, 6:5:0:0:5, 8:7:0:0:12, 3:0:0:0:3, 2:0:0:0:2, 1:0:0:0:0, 1:0:0:0:2, 5:1:0:0:4, 1:0:0:0:0, 6:4:0:0:5, 6:6:0:0:10, 2:0:0:0:2, 2:0:0:0:2, 1:0:0:0:0, 1:0:0:0:2, 5:1:0:0:4, 1:0:0:0:0, 6:4:0:0:5, 6:6:0:0:10, 2:0:0:0:2, 2:0:0:0:3, 4:4:0:0:5, 5:3:0:0:6, 4:3:0:0:4, 7:7:0:0:11, 3:1:0:0:2, 3:1:0:0:3, 1:0:0:0:0, 6:6:0:0:10, 1:0:0:0:0, 1:0:0:0:2, 4:0:0:0:3, 3:0:0:0:0, 6:4:0:0:5, 6:7:0:0:10, 2:0:0:0:2, 2:0:0:0:2, 1:0:0:0:0, 2:0:0:0:2, 4:0:0:0:4, 6:0:0:0:2, 6:5:0:0:6, 8:8:0:0:14, 4:0:0:0:1, 2:0:0:0:8, 2:0:0:0:1, 5:0:0:0:2, 4:0:0:0:4, 1:0:0:0:0, 8:5:0:0:6, 7:7:2:0:12, 4:0:0:0:2, 4:1:0:0:4, 6:6:0:0:10, 5:5:0:0:9, 5:6:0:0:10, 8:6:0:0:11, 3:2:0:0:3, 8:4:0:0:9, 1:0:0:0:0, 10:9:0:0:13, 2:0:0:0:2, 3:0:0:0:1, 6:2:0:0:6, 4:0:0:0:0, 5:5:0:0:5, 8:8:0:0:14, 3:0:0:0:2, 3:0:0:0:4, 3:0:0:0:2, 3:0:2:0:2, 7:1:0:0:4, 1:0:0:0:0, 6:4:0:0:5, 8:8:0:0:15, 2:0:0:0:2, 2:0:0:0:5, 2:0:0:0:2, 4:0:0:0:3, 4:0:0:0:4, 1:0:0:0:0, 5:5:0:0:5, 7:7:0:0:12, 4:0:0:0:2, 2:0:0:0:2, 5:3:0:0:4, 6:4:0:0:8, 4:2:0:0:7, 9:6:0:0:11, 3:5:0:0:6, 5:1:0:0:4, 1:0:0:0:0, 11:12:2:0:20, 2:0:1:0:0, 7:1:0:0:6, 5:1:0:0:5, 4:0:0:0:0, 5:5:0:0:5, 9:8:0:0:13, 6:1:0:0:2, 7:2:0:0:4, 6:0:0:0:1, 9:0:0:0:3, 4:0:0:0:3, 2:0:0:0:0, 5:5:0:0:5, 7:8:0:0:14, 5:0:0:0:3, 3:0:0:0:5, 2:0:0:0:2, 2:0:0:0:2, 4:0:0:0:2, 1:0:0:0:0, 6:6:0:0:6, 8:9:0:0:13, 2:0:0:0:1, 2:0:0:0:6, 5:7:0:0:8, 10:6:2:0:9, 6:2:0:0:5, 9:7:0:0:11, 6:4:0:0:7, 4:2:0:0:6, 4:0:0:0:0, 7:11:0:0:16, 2:0:0:0:2, 2:0:0:0:2, 6:1:0:0:4, 4:2:0:0:2, 7:5:1:0:5, 7:10:0:0:14, 4:2:0:0:4, 3:1:0:0:5, 3:1:0:0:2, 2:0:0:0:2, 4:0:0:0:4, 1:0:0:0:0, 10:4:0:0:4, 7:10:0:0:16, 3:0:0:0:3, 4:3:0:0:8, 3:2:0:0:5, 4:2:0:0:7, 7:0:0:0:2, 1:0:0:0:0, 9:6:1:0:6, 8:7:0:0:12, 5:0:0:0:3, 2:0:0:0:3, 7:7:0:0:10, 10:5:0:0:13, 5:5:1:0:8, 9:8:0:0:12, 5:3:1:0:4, 7:2:0:0:4, 1:0:0:0:0, 6:8:0:0:12, 1:0:0:0:0, 3:0:0:0:1, 4:0:0:0:2, 1:0:0:0:0, 5:5:0:0:5, 6:6:0:0:12, 4:0:0:0:3, 3:0:0:0:5, 2:0:0:0:2, 0:0:0:0:0, 984:535:17:2:1087
F# minor (3#), 4:0:0:0:0, 4:0:0:0:1, 5:1:0:0:2, 8:9:0:0:6, 8:0:0:0:1, 3:0:0:0:1, 3:0:0:0:0, 2:0:0:0:0, 4:0:0:0:0, 4:0:0:0:1, 5:1:0:0:2, 8:9:0:0:6, 8:0:0:0:1, 3:0:0:0:1, 3:0:0:0:0, 2:0:0:0:0, 3:0:0:0:1, 1:0:0:0:1, 1:1:0:0:0, 2:0:0:0:1, 0:0:0:0:0, 1:0:0:0:1, 6:6:0:0:4, 4:0:1:0:2, 4:0:0:0:0, 4:0:0:0:1, 5:1:0:0:2, 8:9:0:0:6, 8:0:0:0:1, 3:0:0:0:1, 3:0:0:0:0, 2:0:0:0:0, 2:0:0:0:0, 2:0:0:0:0, 4:2:0:0:2, 7:8:0:0:6, 6:0:0:0:1, 3:0:1:0:2, 3:0:0:0:0, 2:0:0:0:0, 2:0:0:0:0, 4:0:0:0:0, 5:2:0:0:1, 6:6:0:0:4, 10:0:0:0:1, 3:0:2:0:4, 3:0:0:0:0, 5:0:0:0:0, 2:0:0:0:1, 0:0:0:0:0, 0:0:0:0:0, 3:0:0:0:3, 0:0:0:0:0, 0:0:0:0:0, 8:6:0:0:5, 5:0:0:0:2, 4:0:0:0:0, 4:1:0:0:1, 5:1:0:0:1, 6:7:0:0:4, 8:0:0:0:1, 3:0:0:0:2, 3:0:0:0:0, 2:0:0:0:0, 2:0:0:0:0, 2:0:0:0:0, 6:1:0:0:2, 6:6:0:0:4, 6:0:0:0:1, 1:0:0:0:2, 3:0:0:0:0, 2:0:0:0:0, 2:0:0:0:0, 2:0:0:0:0, 6:1:0:0:2, 6:6:0:0:4, 6:0:0:0:1, 1:0:0:0:2, 3:0:0:0:0, 2:0:0:0:0, 2:0:0:0:2, 0:0:0:0:0, 0:0:0:0:0, 2:0:0:0:3, 0:0:0:0:0, 0:0:0:0:0, 5:4:0:0:2, 1:0:0:0:2, 2:0:0:0:0, 2:0:0:0:0, 4:2:0:0:2, 9:7:0:0:4, 6:0:0:0:1, 1:0:0:0:3, 3:0:0:0:0, 2:0:0:0:0, 3:1:0:0:1, 4:0:0:0:0, 4:2:0:0:2, 12:6:1:0:5, 6:0:0:0:1, 3:0:0:0:3, 5:1:0:0:2, 2:0:0:0:0, 3:0:0:0:0, 6:0:0:0:2, 4:2:0:0:2, 7:6:0:0:4, 7:0:0:0:1, 2:0:2:0:3, 5:1:0:0:0, 3:0:0:0:0, 3:0:0:0:2, 0:0:0:0:0, 0:0:0:0:0, 3:0:0:0:1, 0:0:0:0:0, 5:0:0:0:1, 5:4:0:0:3, 5:0:0:0:3, 3:0:0:0:0, 7:0:0:0:2, 6:2:0:0:2, 10:7:0:0:4, 6:0:0:0:2, 3:0:0:0:3, 5:0:0:0:0, 2:0:0:0:0, 3:0:0:0:0, 4:0:0:0:0, 6:3:1:0:4, 7:9:0:0:6, 6:0:0:0:2, 3:0:0:0:3, 4:1:0:0:1, 3:1:0:0:1, 3:0:0:0:0, 4:0:0:0:0, 4:2:0:0:2, 6:6:0:0:4, 7:0:0:0:2, 2:0:0:0:2, 5:1:0:0:0, 2:0:0:0:0, 2:0:0:0:1, 1:0:0:0:0, 0:0:0:0:0, 4:0:0:0:2, 0:0:0:0:0, 3:0:0:0:1, 5:4:0:0:3, 6:0:0:2:6, 5:1:0:0:2, 8:1:0:0:0, 5:3:0:0:4, 9:7:0:0:5, 6:0:0:0:2, 4:0:0:0:3, 8:3:0:0:4, 6:1:0:0:0, 6:3:0:0:2, 10:4:0:0:3, 4:3:0:0:3, 8:8:0:0:5, 6:0:0:0:2, 2:0:0:0:2, 5:0:0:0:0, 2:0:0:0:0, 4:0:0:0:0, 3:0:0:0:0, 4:2:0:0:2, 7:7:0:0:4, 6:0:0:0:2, 3:0:0:0:3, 5:0:0:0:1, 2:0:0:0:0, 2:0:0:0:3, 5:0:1:0:1, 1:0:1:0:1, 3:0:0:0:1, 2:0:0:0:1, 1:0:0:0:0, 8:4:0:0:3, 2:0:0:0:4, 3:0:0:0:0, 4:0:0:0:0, 6:2:0:0:1, 10:9:0:0:6, 7:0:0:0:2, 2:0:0:0:3, 5:1:0:0:3, 3:0:0:0:0, 3:0:0:0:0, 4:0:0:0:0, 4:2:0:0:2, 7:8:0:0:6, 11:0:0:0:2, 1:0:0:0:2, 3:0:0:0:0, 4:0:0:0:0, 4:0:0:0:0, 4:0:0:0:0, 7:3:0:0:2, 7:7:0:0:5, 11:0:1:0:3, 3:0:0:0:3, 5:0:0:0:0, 2:0:0:0:0, 4:0:1:0:2, 4:0:0:0:0, 1:0:1:0:1, 3:0:0:0:3, 1:1:0:0:1, 4:0:0:0:0, 5:3:0:0:2, 1:0:0:0:3, 2:0:0:0:0, 5:0:0:0:1, 4:2:0:0:2, 7:9:0:0:6, 6:0:0:0:1, 1:0:0:0:2, 4:1:0:0:1, 2:0:0:0:0, 3:0:0:0:0, 0:0:0:0:0, 902:251:13:2:338
Ab major (4b), 4:0:0:0:3, 3:0:0:0:1, 5:1:0:0:8, 1:0:0:0:1, 7:6:0:0:8, 8:5:0:0:10, 4:0:0:0:5, 2:0:0:0:3, 4:0:0:0:3, 3:0:0:0:1, 5:1:0:0:8, 1:0:0:0:1, 7:6:0:0:8, 8:5:0:0:10, 4:0:0:0:5, 2:0:0:0:4, 6:4:0:0:6, 8:4:0:0:9, 7:3:1:0:7, 7:7:0:0:11, 6:1:0:0:5, 6:3:0:0:6, 3:0:0:0:2, 9:8:1:0:14, 4:0:0:0:3, 3:0:0:0:1, 5:1:0:0:8, 1:0:0:0:1, 7:6:0:0:8, 8:5:0:0:10, 4:0:0:0:5, 2:0:0:0:4, 2:0:0:0:1, 3:0:0:0:3, 5:0:0:0:3, 0:0:0:0:0, 6:4:0:0:6, 9:8:1:0:14, 3:0:0:0:4, 4:0:0:0:5, 3:0:0:0:4, 3:0:0:0:4, 6:0:0:0:5, 0:0:0:0:0, 11:9:0:0:13, 8:6:0:0:10, 3:0:0:0:3, 4:1:0:0:5, 4:5:0:0:7, 6:4:0:0:10, 4:2:0:0:5, 8:9:0:0:14, 4:3:0:0:8, 7:3:0:0:8, 3:0:0:0:3, 11:13:0:0:23, 3:1:0:0:2, 3:0:1:0:2, 5:0:0:0:4, 0:0:0:0:0, 7:5:0:0:6, 8:7:0:0:12, 4:0:0:0:5, 3:0:0:0:2, 2:0:0:0:1, 2:0:0:0:2, 5:1:0:0:6, 0:0:0:0:0, 7:4:0:0:6, 6:6:0:0:10, 3:0:0:0:3, 2:0:0:0:2, 2:0:0:0:1, 2:0:0:0:2, 5:1:0:0:6, 0:0:0:0:0, 7:4:0:0:6, 6:6:0:0:10, 3:0:0:0:3, 2:0:0:0:3, 4:4:0:0:5, 6:3:0:0:8, 4:3:0:0:5, 7:7:0:0:11, 4:1:0:0:4, 4:1:0:0:3, 1:0:0:0:2, 6:6:0:0:10, 2:0:0:0:1, 2:0:0:0:2, 4:0:0:0:4, 2:0:0:0:0, 7:4:0:0:6, 6:7:0:0:10, 3:0:0:0:3, 2:0:0:0:2, 2:0:0:0:2, 3:0:0:0:2, 4:0:0:0:5, 5:0:0:0:3, 7:5:0:0:8, 8:7:0:0:14, 5:0:0:0:3, 3:0:0:0:8, 3:0:0:0:3, 6:0:0:0:3, 5:0:0:0:5, 0:0:0:0:0, 9:5:0:0:8, 8:7:2:0:12, 5:0:0:0:5, 4:1:0:0:4, 6:6:0:0:10, 6:5:0:0:11, 5:5:0:0:11, 8:6:0:0:13, 4:2:0:0:4, 9:4:0:0:11, 2:0:0:0:1, 10:9:0:0:14, 3:0:0:0:3, 4:0:0:0:1, 7:2:0:0:7, 3:0:0:0:1, 6:5:0:0:6, 8:7:0:0:14, 4:0:0:0:3, 3:0:0:0:5, 4:0:0:0:5, 4:0:2:0:4, 7:1:0:0:5, 0:0:0:0:0, 7:4:0:0:6, 8:7:0:0:15, 3:0:0:0:3, 3:0:0:0:5, 3:0:0:0:3, 5:0:0:0:4, 4:0:0:0:5, 0:0:0:0:0, 6:5:0:0:6, 7:6:0:0:11, 5:0:0:0:5, 3:0:0:0:2, 5:3:0:0:4, 7:4:0:0:9, 4:2:0:0:8, 9:6:0:0:12, 4:5:0:0:7, 6:1:0:0:4, 2:0:0:0:2, 11:10:2:0:20, 3:0:1:0:2, 8:1:0:0:7, 6:1:0:0:6, 3:0:0:0:2, 6:5:0:0:7, 9:7:0:0:13, 7:1:0:0:4, 7:2:0:0:5, 7:0:0:0:4, 10:0:0:0:6, 5:0:0:0:5, 1:0:0:0:1, 6:5:0:0:8, 7:6:0:0:13, 6:0:0:0:4, 4:0:0:0:6, 3:0:0:0:4, 3:0:0:0:3, 5:0:0:0:3, 0:0:0:0:0, 7:6:0:0:8, 8:7:0:0:12, 3:0:0:0:2, 3:0:0:0:6, 5:7:0:0:8, 11:6:2:0:11, 6:2:0:0:6, 9:6:0:0:11, 7:4:0:0:9, 5:2:0:0:7, 5:0:0:0:1, 7:10:0:0:15, 3:0:0:0:4, 3:0:0:0:2, 7:1:0:0:6, 3:2:0:0:3, 8:5:1:0:6, 7:7:0:0:11, 5:2:0:0:6, 3:0:0:0:4, 4:1:0:0:3, 3:0:0:0:3, 5:0:0:0:6, 0:0:0:0:0, 11:4:0:0:7, 7:8:0:0:15, 4:0:0:0:5, 4:3:0:0:10, 4:2:0:0:7, 5:2:0:0:8, 8:0:0:0:4, 0:0:0:0:0, 10:6:1:0:8, 8:7:0:0:13, 6:0:0:0:4, 2:0:0:0:3, 7:7:0:0:11, 11:5:0:0:18, 5:3:0:0:7, 9:8:0:0:14, 6:3:1:0:6, 8:2:0:0:5, 1:0:0:0:2, 6:8:0:0:12, 2:0:0:0:3, 4:0:0:0:1, 5:0:0:0:3, 0:0:0:0:0, 6:5:0:0:7, 6:6:0:0:12, 5:0:0:0:5, 3:0:0:0:6, 2:0:0:0:2, 1:0:0:0:0, 1093:509:16:0:1303
E major (4#), 5:0:0:0:0, 5:0:0:0:0, 5:1:0:0:1, 8:9:0:0:9, 9:0:0:0:0, 2:0:0:0:0, 4:0:0:0:0, 2:0:0:0:0, 5:0:0:0:0, 5:0:0:0:0, 5:1:0:0:1, 8:9:0:0:9, 9:0:0:0:0, 2:0:0:0:0, 4:0:0:0:0, 2:0:0:0:0, 2:0:0:0:0, 2:0:0:0:0, 2:1:0:0:1, 2:0:0:0:0, 1:0:0:0:0, 2:0:0:0:0, 7:6:0:0:6, 3:0:1:0:1, 5:0:0:0:0, 5:0:0:0:0, 5:1:0:0:1, 8:9:0:0:9, 9:0:0:0:0, 2:0:0:0:0, 4:0:0:0:0, 2:0:0:0:0, 3:0:0:0:0, 3:0:0:0:0, 5:1:0:0:1, 7:8:0:0:8, 7:0:0:0:0, 4:0:1:0:1, 4:0:0:0:0, 3:0:0:0:0, 3:0:0:0:0, 5:0:0:0:0, 6:2:0:0:2, 6:6:0:0:6, 11:0:0:0:0, 3:0:2:0:2, 4:0:0:0:0, 6:0:0:0:0, 1:0:0:0:0, 1:0:0:0:0, 0:0:0:0:0, 3:0:0:0:0, 1:0:0:0:0, 1:0:0:0:0, 8:5:0:0:5, 4:0:0:0:0, 5:0:0:0:0, 5:1:0:0:1, 5:1:0:0:1, 6:7:0:0:7, 9:0:0:0:0, 2:0:0:0:0, 4:0:0:0:0, 3:0:0:0:0, 3:0:0:0:0, 3:0:0:0:0, 6:1:0:0:1, 6:6:0:0:6, 7:0:0:0:0, 1:0:0:0:0, 4:0:0:0:0, 2:0:0:0:0, 3:0:0:0:0, 3:0:0:0:0, 6:1:0:0:1, 6:6:0:0:6, 7:0:0:0:0, 1:0:0:0:0, 4:0:0:0:0, 2:0:0:0:0, 1:0:0:0:0, 1:0:0:0:0, 0:0:0:0:0, 2:0:0:0:0, 1:0:0:0:0, 1:0:0:0:0, 5:4:0:0:4, 1:0:0:0:0, 3:0:0:0:0, 3:0:0:0:0, 4:1:0:0:1, 9:7:0:0:7, 7:0:0:0:0, 1:0:0:0:0, 4:0:0:0:0, 2:0:0:0:0, 4:1:0:0:1, 5:0:0:0:0, 4:1:0:0:1, 12:7:0:0:7, 7:0:0:0:0, 3:0:0:0:0, 6:1:0:0:1, 3:0:0:0:0, 4:0:0:0:0, 7:0:0:0:0, 5:1:0:0:1, 7:6:0:0:6, 8:0:0:0:0, 3:0:2:0:2, 6:1:0:0:1, 2:0:0:0:0, 2:0:0:0:0, 1:0:0:0:0, 0:0:0:0:0, 3:0:0:0:0, 1:0:0:0:0, 6:0:0:0:0, 6:4:0:0:4, 4:0:0:0:0, 4:0:0:0:0, 8:0:0:0:0, 7:2:0:0:2, 10:7:0:0:7, 7:0:0:0:0, 3:0:0:0:0, 6:0:0:0:0, 2:0:0:0:0, 4:0:0:0:0, 5:0:0:0:0, 6:1:1:0:2, 7:9:0:0:9, 7:0:0:0:0, 3:0:0:0:0, 5:1:0:0:1, 4:1:0:0:1, 4:0:0:0:0, 5:0:0:0:0, 4:1:0:0:1, 6:6:0:0:6, 8:0:0:0:0, 2:0:0:0:0, 6:1:0:0:1, 3:0:0:0:0, 1:0:0:0:0, 2:0:0:0:0, 0:0:0:0:0, 4:0:0:0:0, 1:0:0:0:0, 4:0:0:0:0, 6:3:0:0:3, 6:0:0:2:2, 6:1:0:0:1, 9:1:0:0:1, 6:2:0:0:2, 9:7:0:0:7, 7:0:0:0:0, 4:0:0:0:0, 9:3:0:0:3, 5:1:0:0:1, 7:3:0:0:3, 11:4:0:0:4, 5:2:0:0:2, 8:8:0:0:8, 7:0:0:0:0, 2:0:0:0:0, 6:0:0:0:0, 3:0:0:0:0, 5:0:0:0:0, 4:0:0:0:0, 5:2:0:0:2, 7:7:0:0:7, 7:0:0:0:0, 3:0:0:0:0, 6:0:0:0:0, 3:0:0:0:0, 1:0:0:0:0, 6:0:1:0:1, 1:0:1:0:1, 3:0:0:0:0, 3:0:0:0:0, 2:0:0:0:0, 9:4:0:0:4, 1:0:0:0:0, 4:0:0:0:0, 5:0:0:0:0, 7:2:0:0:2, 10:9:0:0:9, 8:0:0:0:0, 2:0:0:0:0, 6:1:0:0:1, 4:0:0:0:0, 4:0:0:0:0, 5:0:0:0:0, 5:1:0:0:1, 7:8:0:0:8, 12:0:0:0:0, 1:0:0:0:0, 4:0:0:0:0, 3:0:0:0:0, 5:0:0:0:0, 5:0:0:0:0, 8:2:0:0:2, 7:7:0:0:7, 12:0:1:0:1, 3:0:0:0:0, 6:0:0:0:0, 2:0:0:0:0, 3:0:1:0:1, 5:0:0:0:0, 1:0:1:0:1, 3:0:0:0:0, 2:1:0:0:1, 5:0:0:0:0, 5:3:0:0:3, 1:0:0:0:0, 3:0:0:0:0, 6:0:0:0:0, 5:2:0:0:2, 7:9:0:0:9, 7:0:0:0:0, 1:0:0:0:0, 5:1:0:0:1, 2:0:0:0:0, 2:0:0:0:0, 1:0:0:0:0, 1016:239:12:2:253
F minor (4b), 4:0:0:0:3, 3:0:0:0:1, 5:1:0:0:8, 1:0:0:0:1, 7:6:0:0:8, 8:5:0:0:10, 4:0:0:0:5, 2:0:0:0:3, 4:0:0:0:3, 3:0:0:0:1, 5:1:0:0:8, 1:0:0:0:1, 7:6:0:0:8, 8:5:0:0:10, 4:0:0:0:5, 2:0:0:0:4, 6:4:0:0:6, 8:4:0:0:9, 7:3:1:0:7, 7:7:0:0:11, 6:1:0:0:5, 6:3:0:0:6, 3:0:0:0:2, 9:8:1:0:14, 4:0:0:0:3, 3:0:0:0:1, 5:1:0:0:8, 1:0:0:0:1, 7:6:0:0:8, 8:5:0:0:10, 4:0:0:0:5, 2:0:0:0:4, 2:0:0:0:1, 3:0:0:0:3, 5:0:0:0:3, 0:0:0:0:0, 6:4:0:0:6, 9:8:1:0:14, 3:0:0:0:4, 4:0:0:0:5, 3:0:0:0:4, 3:0:0:0:4, 6:0:0:0:5, 0:0:0:0:0, 11:9:0:0:13, 8:6:0:0:10, 3:0:0:0:3, 4:1:0:0:5, 4:5:0:0:7, 6:4:0:0:10, 4:2:0:0:5, 8:9:0:0:14, 4:3:0:0:8, 7:3:0:0:8, 3:0:0:0:3, 11:13:0:0:23, 3:1:0:0:2, 3:0:1:0:2, 5:0:0:0:4, 0:0:0:0:0, 7:5:0:0:6, 8:7:0:0:12, 4:0:0:0:5, 3:0:0:0:2, 2:0:0:0:1, 2:0:0:0:2, 5:1:0:0:6, 0:0:0:0:0, 7:4:0:0:6, 6:6:0:0:10, 3:0:0:0:3, 2:0:0:0:2, 2:0:0:0:1, 2:0:0:0:2, 5:1:0:0:6, 0:0:0:0:0, 7:4:0:0:6, 6:6:0:0:10, 3:0:0:0:3, 2:0:0:0:3, 4:4:0:0:5, 6:3:0:0:8, 4:3:0:0:5, 7:7:0:0:11, 4:1:0:0:4, 4:1:0:0:3, 1:0:0:0:2, 6:6:0:0:10, 2:0:0:0:1, 2:0:0:0:2, 4:0:0:0:4, 2:0:0:0:0, 7:4:0:0:6, 6:7:0:0:10, 3:0:0:0:3, 2:0:0:0:2, 2:0:0:0:2, 3:0:0:0:2, 4:0:0:0:5, 5:0:0:0:3, 7:5:0:0:8, 8:7:0:0:14, 5:0:0:0:3, 3:0:0:0:8, 3:0:0:0:3, 6:0:0:0:3, 5:0:0:0:5, 0:0:0:0:0, 9:5:0:0:8, 8:7:2:0:12, 5:0:0:0:5, 4:1:0:0:4, 6:6:0:0:10, 6:5:0:0:11, 5:5:0:0:11, 8:6:0:0:13, 4:2:0:0:4, 9:4:0:0:11, 2:0:0:0:1, 10:9:0:0:14, 3:0:0:0:3, 4:0:0:0:1, 7:2:0:0:7, 3:0:0:0:1, 6:5:0:0:6, 8:7:0:0:14, 4:0:0:0:3, 3:0:0:0:5, 4:0:0:0:5, 4:0:2:0:4, 7:1:0:0:5, 0:0:0:0:0, 7:4:0:0:6, 8:7:0:0:15, 3:0:0:0:3, 3:0:0:0:5, 3:0:0:0:3, 5:0:0:0:4, 4:0:0:0:5, 0:0:0:0:0, 6:5:0:0:6, 7:6:0:0:11, 5:0:0:0:5, 3:0:0:0:2, 5:3:0:0:4, 7:4:0:0:9, 4:2:0:0:8, 9:6:0:0:12, 4:5:0:0:7, 6:1:0:0:4, 2:0:0:0:2, 11:10:2:0:20, 3:0:1:0:2, 8:1:0:0:7, 6:1:0:0:6, 3:0:0:0:2, 6:5:0:0:7, 9:7:0:0:13, 7:1:0:0:4, 7:2:0:0:5, 7:0:0:0:4, 10:0:0:0:6, 5:0:0:0:5, 1:0:0:0:1, 6:5:0:0:8, 7:6:0:0:13, 6:0:0:0:4, 4:0:0:0:6, 3:0:0:0:4, 3:0:0:0:3, 5:0:0:0:3, 0:0:0:0:0, 7:6:0:0:8, 8:7:0:0:12, 3:0:0:0:2, 3:0:0:0:6, 5:7:0:0:8, 11:6:2:0:11, 6:2:0:0:6, 9:6:0:0:11, 7:4:0:0:9, 5:2:0:0:7, 5:0:0:0:1, 7:10:0:0:15, 3:0:0:0:4, 3:0:0:0:2, 7:1:0:0:6, 3:2:0:0:3, 8:5:1:0:6, 7:7:0:0:11, 5:2:0:0:6, 3:0:0:0:4, 4:1:0:0:3, 3:0:0:0:3, 5:0:0:0:6, 0:0:0:0:0, 11:4:0:0:7, 7:8:0:0:15, 4:0:0:0:5, 4:3:0:0:10, 4:2:0:0:7, 5:2:0:0:8, 8:0:0:0:4, 0:0:0:0:0, 10:6:1:0:8, 8:7:0:0:13, 6:0:0:0:4, 2:0:0:0:3, 7:7:0:0:11, 11:5:0:0:18, 5:3:0:0:7, 9:8:0:0:14, 6:3:1:0:6, 8:2:0:0:5, 1:0:0:0:2, 6:8:0:0:12, 2:0:0:0:3, 4:0:0:0:1, 5:0:0:0:3, 0:0:0:0:0, 6:5:0:0:7, 6:6:0:0:12, 5:0:0:0:5, 3:0:0:0:6, 2:0:0:0:2, 1:0:0:0:0, 1093:509:16:0:1303
C# minor (4#), 5:0:0:0:0, 5:0:0:0:0, 5:1:0:0:1, 8:9:0:0:9, 9:0:0:0:0, 2:0:0:0:0, 4:0:0:0:0, 2:0:0:0:0, 5:0:0:0:0, 5:0:0:0:0, 5:1:0:0:1, 8:9:0:0:9, 9:0:0:0:0, 2:0:0:0:0, 4:0:0:0:0, 2:0:0:0:0, 2:0:0:0:0, 2:0:0:0:0, 2:1:0:0:1, 2:0:0:0:0, 1:0:0:0:0, 2:0:0:0:0, 7:6:0:0:6, 3:0:1:0:1, 5:0:0:0:0, 5:0:0:0:0, 5:1:0:0:1, 8:9:0:0:9, 9:0:0:0:0, 2:0:0:0:0, 4:0:0:0:0, 2:0:0:0:0, 3:0:0:0:0, 3:0:0:0:0, 5:1:0:0:1, 7:8:0:0:8, 7:0:0:0:0, 4:0:1:0:1, 4:0:0:0:0, 3:0:0:0:0, 3:0:0:0:0, 5:0:0:0:0, 6:2:0:0:2, 6:6:0:0:6, 11:0:0:0:0, 3:0:2:0:2, 4:0:0:0:0, 6:0:0:0:0, 1:0:0:0:0, 1:0:0:0:0, 0:0:0:0:0, 3:0:0:0:0, 1:0:0:0:0, 1:0:0:0:0, 8:5:0:0:5, 4:0:0:0:0, 5:0:0:0:0, 5:1:0:0:1, 5:1:0:0:1, 6:7:0:0:7, 9:0:0:0:0, 2:0:0:0:0, 4:0:0:0:0, 3:0:0:0:0, 3:0:0:0:0, 3:0:0:0:0, 6:1:0:0:1, 6:6:0:0:6, 7:0:0:0:0, 1:0:0:0:0, 4:0:0:0:0, 2:0:0:0:0, 3:0:0:0:0, 3:0:0:0:0, 6:1:0:0:1, 6:6:0:0:6, 7:0:0:0:0, 1:0:0:0:0, 4:0:0:0:0, 2:0:0:0:0, 1:0:0:0:0, 1:0:0:0:0, 0:0:0:0:0, 2:0:0:0:0, 1:0:0:0:0, 1:0:0:0:0, 5:4:0:0:4, 1:0:0:0:0, 3:0:0:0:0, 3:0:0:0:0, 4:1:0:0:1, 9:7:0:0:7, 7:0:0:0:0, 1:0:0:0:0, 4:0:0:0:0, 2:0:0:0:0, 4:1:0:0:1, 5:0:0:0:0, 4:1:0:0:1, 12:7:0:0:7, 7:0:0:0:0, 3:0:0:0:0, 6:1:0:0:1, 3:0:0:0:0, 4:0:0:0:0, 7:0:0:0:0, 5:1:0:0:1, 7:6:0:0:6, 8:0:0:0:0, 3:0:2:0:2, 6:1:0:0:1, 2:0:0:0:0, 2:0:0:0:0, 1:0:0:0:0, 0:0:0:0:0, 3:0:0:0:0, 1:0:0:0:0, 6:0:0:0:0, 6:4:0:0:4, 4:0:0:0:0, 4:0:0:0:0, 8:0:0:0:0, 7:2:0:0:2, 10:7:0:0:7, 7:0:0:0:0, 3:0:0:0:0, 6:0:0:0:0, 2:0:0:0:0, 4:0:0:0:0, 5:0:0:0:0, 6:1:1:0:2, 7:9:0:0:9, 7:0:0:0:0, 3:0:0:0:0, 5:1:0:0:1, 4:1:0:0:1, 4:0:0:0:0, 5:0:0:0:0, 4:1:0:0:1, 6:6:0:0:6, 8:0:0:0:0, 2:0:0:0:0, 6:1:0:0:1, 3:0:0:0:0, 1:0:0:0:0, 2:0:0:0:0, 0:0:0:0:0, 4:0:0:0:0, 1:0:0:0:0, 4:0:0:0:0, 6:3:0:0:3, 6:0:0:2:2, 6:1:0:0:1, 9:1:0:0:1, 6:2:0:0:2, 9:7:0:0:7, 7:0:0:0:0, 4:0:0:0:0, 9:3:0:0:3, 5:1:0:0:1, 7:3:0:0:3, 11:4:0:0:4, 5:2:0:0:2, 8:8:0:0:8, 7:0:0:0:0, 2:0:0:0:0, 6:0:0:0:0, 3:0:0:0:0, 5:0:0:0:0, 4:0:0:0:0, 5:2:0:0:2, 7:7:0:0:7, 7:0:0:0:0, 3:0:0:0:0, 6:0:0:0:0, 3:0:0:0:0, 1:0:0:0:0, 6:0:1:0:1, 1:0:1:0:1, 3:0:0:0:0, 3:0:0:0:0, 2:0:0:0:0, 9:4:0:0:4, 1:0:0:0:0, 4:0:0:0:0, 5:0:0:0:0, 7:2:0:0:2, 10:9:0:0:9, 8:0:0:0:0, 2:0:0:0:0, 6:1:0:0:1, 4:0:0:0:0, 4:0:0:0:0, 5:0:0:0:0, 5:1:0:0:1, 7:8:0:0:8, 12:0:0:0:0, 1:0:0:0:0, 4:0:0:0:0, 3:0:0:0:0, 5:0:0:0:0, 5:0:0:0:0, 8:2:0:0:2, 7:7:0:0:7, 12:0:1:0:1, 3:0:0:0:0, 6:0:0:0:0, 2:0:0:0:0, 3:0:1:0:1, 5:0:0:0:0, 1:0:1:0:1, 3:0:0:0:0, 2:1:0:0:1, 5:0:0:0:0, 5:3:0:0:3, 1:0:0:0:0, 3:0:0:0:0, 6:0:0:0:0, 5:2:0:0:2, 7:9:0:0:9, 7:0:0:0:0, 1:0:0:0:0, 5:1:0:0:1, 2:0:0:0:0, 2:0:0:0:0, 1:0:0:0:0, 1016:239:12:2:253
Db major (5b), 5:0:0:0:4, 4:0:0:0:2, 6:1:0:0:8, 2:0:0:0:1, 8:6:0:0:9, 8:5:0:0:10, 5:0:0:0:7, 3:0:0:0:3, 5:0:0:0:4, 4:0:0:0:2, 6:1:0:0:8, 2:0:0:0:1, 8:6:0:0:9, 8:5:0:0:10, 5:0:0:0:7, 3:0:0:0:4, 6:3:0:0:6, 8:3:0:0:12, 7:3:1:0:8, 7:7:0:0:11, 6:1:0:0:7, 6:3:0:0:8, 4:0:0:0:3, 9:8:1:0:16, 5:0:0:0:4, 4:0:0:0:2, 6:1:0:0:8, 2:0:0:0:1, 8:6:0:0:9, 8:5:0:0:10, 5:0:0:0:7, 3:0:0:0:4, 2:0:0:0:2, 4:0:0:0:5, 6:0:0:0:4, 1:0:0:0:0, 6:4:0:0:7, 9:8:1:0:15, 4:0:0:0:6, 5:0:0:0:7, 3:0:0:0:5, 4:0:0:0:5, 7:0:0:0:6, 1:0:0:0:0, 12:9:0:0:15, 8:6:0:0:10, 4:0:0:0:6, 5:1:0:0:6, 4:3:0:0:5, 6:3:0:0:11, 4:2:0:0:5, 8:9:0:0:14, 4:1:0:0:9, 7:3:0:0:10, 4:0:0:0:3, 11:13:0:0:24, 3:0:0:0:2, 4:0:1:0:4, 6:0:0:0:4, 1:0:0:0:0, 8:5:0:0:7, 8:7:0:0:12, 5:0:0:0:7, 4:0:0:0:3, 2:0:0:0:2, 3:0:0:0:3, 6:1:0:0:6, 1:0:0:0:0, 7:4:0:0:7, 6:6:0:0:10, 4:0:0:0:5, 3:0:0:0:2, 2:0:0:0:2, 3:0:0:0:3, 6:1:0:0:6, 1:0:0:0:0, 7:4:0:0:7, 6:6:0:0:10, 4:0:0:0:5, 3:0:0:0:3, 4:4:0:0:5, 6:3:0:0:10, 4:3:0:0:5, 7:7:0:0:11, 4:1:0:0:5, 4:1:0:0:4, 2:0:0:0:2, 6:6:0:0:10, 2:0:0:0:2, 3:0:0:0:3, 5:0:0:0:4, 3:0:0:0:1, 7:4:0:0:7, 6:7:0:0:10, 4:0:0:0:5, 3:0:0:0:2, 2:0:0:0:4, 4:0:0:0:3, 5:0:0:0:5, 6:0:0:0:4, 7:5:0:0:9, 8:7:0:0:14, 6:0:0:0:6, 4:0:0:0:9, 4:0:0:0:5, 7:0:0:0:5, 6:0:0:0:6, 1:0:0:0:0, 9:5:0:0:9, 8:7:2:0:13, 6:0:0:0:8, 5:1:0:0:4, 7:6:0:0:10, 6:4:0:0:14, 5:5:0:0:11, 8:6:0:0:13, 4:1:0:0:4, 9:4:0:0:12, 3:0:0:0:2, 10:9:0:0:14, 4:0:0:0:5, 5:0:0:0:2, 8:2:0:0:9, 4:0:0:0:1, 6:4:0:0:7, 8:7:0:0:14, 5:0:0:0:5, 4:0:0:0:5, 4:0:0:0:6, 5:0:2:0:5, 8:1:0:0:5, 1:0:0:0:0, 7:4:0:0:7, 8:7:0:0:15, 4:0:0:0:6, 4:0:0:0:6, 4:0:0:0:6, 6:0:0:0:6, 5:0:0:0:5, 1:0:0:0:0, 7:5:0:0:7, 7:6:0:0:11, 6:0:0:0:8, 4:0:0:0:6, 5:3:0:0:4, 7:3:0:0:13, 4:2:0:0:8, 9:6:0:0:12, 4:1:0:0:4, 6:1:0:0:5, 3:0:0:0:3, 11:10:2:0:20, 4:0:1:0:4, 9:1:0:0:10, 7:1:0:0:7, 2:0:0:0:2, 6:4:0:0:7, 9:7:0:0:13, 7:0:0:0:5, 8:2:0:0:5, 7:1:0:0:6, 11:0:0:0:7, 6:0:0:0:6, 2:0:0:0:1, 6:5:0:0:9, 7:6:0:0:13, 7:0:0:0:7, 5:0:0:0:7, 4:0:0:0:5, 4:0:0:0:4, 6:0:0:0:4, 1:0:0:0:0, 7:4:0:0:7, 8:7:0:0:12, 4:0:0:0:4, 4:0:0:0:7, 5:5:0:0:6, 11:6:2:0:13, 6:2:0:0:6, 9:6:0:0:11, 7:1:0:0:8, 5:2:0:0:9, 6:0:0:0:2, 7:10:0:0:15, 4:0:0:0:5, 4:0:0:0:3, 8:1:0:0:7, 4:2:0:0:3, 8:4:1:0:7, 7:7:0:0:11, 6:2:0:0:8, 4:0:0:0:6, 4:1:0:0:7, 4:0:0:0:4, 6:0:0:0:7, 1:0:0:0:0, 12:4:0:0:9, 7:8:0:0:15, 5:0:0:0:8, 5:3:0:0:10, 5:2:0:0:8, 6:2:0:0:9, 9:0:0:0:5, 1:0:0:0:0, 10:6:1:0:11, 8:7:0:0:13, 7:0:0:0:7, 3:0:0:0:3, 7:6:0:0:10, 11:4:0:0:20, 5:3:0:0:7, 9:8:0:0:14, 6:2:1:0:7, 8:2:0:0:6, 2:0:0:0:2, 6:8:0:0:12, 2:0:0:0:4, 5:0:0:0:2, 6:0:0:0:4, 1:0:0:0:0, 6:5:0:0:9, 6:6:0:0:12, 6:0:0:0:8, 4:0:0:0:6, 1:0:0:0:2, 1:0:0:0:1, 1219:481:16:0:1495
B major (5#), 6:0:0:0:3, 4:0:0:0:1, 6:1:0:0:3, 8:9:0:0:10, 10:0:0:0:2, 1:0:0:0:0, 5:0:0:0:4, 2:0:0:0:0, 6:0:0:0:3, 4:0:0:0:1, 6:1:0:0:3, 8:9:0:0:10, 10:0:0:0:2, 1:0:0:0:0, 5:0:0:0:4, 2:0:0:0:0, 1:0:0:0:0, 3:0:0:0:0, 3:1:0:0:1, 1:0:0:0:0, 2:0:0:0:0, 1:0:0:0:0, 8:5:0:0:6, 2:0:1:0:1, 6:0:0:0:3, 4:0:0:0:1, 6:1:0:0:3, 8:9:0:0:10, 10:0:0:0:2, 1:0:0:0:0, 5:0:0:0:4, 2:0:0:0:0, 4:0:0:0:1, 3:0:0:0:3, 6:1:0:0:3, 7:8:0:0:10, 8:0:0:0:1, 3:0:1:0:1, 5:0:0:0:3, 4:0:0:0:0, 4:0:0:0:3, 5:0:0:0:3, 7:2:0:0:3, 6:6:0:0:7, 12:0:0:0:3, 2:0:2:0:2, 5:0:0:0:2, 6:0:0:0:1, 0:0:0:0:0, 2:0:0:0:0, 1:0:0:0:0, 2:0:0:0:0, 2:0:0:0:0, 2:0:0:0:0, 9:5:0:0:8, 5:0:0:0:1, 6:0:0:0:1, 5:1:0:0:3, 6:1:0:0:2, 6:7:0:0:10, 10:0:0:0:2, 1:0:0:0:0, 5:0:0:0:3, 3:0:0:0:0, 4:0:0:0:1, 3:0:0:0:1, 5:1:0:0:2, 6:6:0:0:7, 8:0:0:0:1, 0:0:0:0:0, 5:0:0:0:2, 2:0:0:0:0, 4:0:0:0:1, 3:0:0:0:1, 5:1:0:0:2, 6:6:0:0:7, 8:0:0:0:1, 0:0:0:0:0, 5:0:0:0:2, 2:0:0:0:0, 0:0:0:0:0, 2:0:0:0:0, 1:0:0:0:0, 1:0:0:0:0, 2:0:0:0:0, 1:0:0:0:0, 6:3:0:0:4, 0:0:0:0:0, 4:0:0:0:1, 3:0:0:0:1, 5:1:0:0:2, 9:7:0:0:8, 8:0:0:0:1, 0:0:0:0:0, 5:0:0:0:2, 2:0:0:0:0, 5:1:0:0:2, 5:0:0:0:1, 5:1:0:0:2, 12:7:0:0:9, 8:0:0:0:1, 2:0:0:0:0, 7:1:0:0:5, 3:0:0:0:0, 5:0:0:0:2, 8:0:0:0:2, 6:1:0:0:2, 7:6:0:0:7, 9:0:0:0:2, 2:0:2:0:2, 7:1:0:0:4, 2:0:0:0:0, 1:0:0:0:0, 2:0:0:0:0, 1:0:0:0:0, 2:0:0:0:0, 2:0:0:0:0, 5:0:0:0:0, 7:4:0:0:5, 3:0:0:0:0, 5:0:0:0:4, 7:0:0:0:1, 8:2:0:0:4, 10:7:0:0:8, 8:0:0:0:2, 2:0:0:0:0, 7:0:0:0:5, 3:0:0:0:0, 5:0:0:0:1, 6:0:0:0:1, 7:1:1:0:3, 7:9:0:0:11, 8:0:0:0:1, 2:0:0:0:0, 6:1:0:0:4, 4:1:0:0:1, 5:0:0:0:3, 6:0:0:0:2, 5:1:0:0:2, 6:6:0:0:12, 9:0:0:0:3, 1:0:0:0:0, 7:1:0:0:4, 3:0:0:0:0, 0:0:0:0:0, 3:0:0:0:1, 1:0:0:0:0, 3:0:0:0:1, 2:0:0:0:0, 3:0:0:0:1, 7:3:0:0:5, 5:0:0:2:2, 7:1:0:0:4, 8:1:0:0:3, 7:2:0:0:3, 9:7:0:0:9, 8:0:0:0:1, 3:0:0:0:0, 10:3:0:0:6, 5:0:0:0:0, 8:3:0:0:6, 12:4:0:0:7, 6:2:0:0:3, 8:8:0:0:10, 8:0:0:0:1, 1:0:0:0:0, 7:0:0:0:4, 4:0:0:0:0, 6:0:0:0:1, 5:0:0:0:1, 6:2:0:0:4, 7:7:0:0:9, 8:0:0:0:1, 2:0:0:0:0, 7:0:0:0:4, 3:0:0:0:0, 0:0:0:0:0, 7:0:1:0:2, 2:0:1:0:0, 4:0:0:0:1, 4:0:0:0:0, 3:0:0:0:1, 10:4:0:0:6, 0:0:0:0:0, 5:0:0:0:1, 5:0:0:0:1, 7:1:0:0:2, 10:9:0:0:11, 9:0:0:0:3, 1:0:0:0:0, 7:1:0:0:5, 4:0:0:0:0, 5:0:0:0:1, 6:0:0:0:1, 6:1:0:0:3, 7:8:0:0:10, 13:0:0:0:2, 2:0:0:0:0, 5:0:0:0:4, 4:0:0:0:2, 6:0:0:0:2, 6:0:0:0:2, 8:1:0:0:2, 7:7:0:0:10, 13:0:1:0:4, 2:0:0:0:0, 7:0:0:0:4, 2:0:0:0:0, 2:0:1:0:1, 6:0:0:0:1, 2:0:1:0:1, 4:0:0:0:0, 3:1:0:0:1, 6:0:0:0:1, 6:3:0:0:6, 0:0:0:0:0, 4:0:0:0:3, 5:0:0:0:1, 6:2:0:0:3, 7:9:0:0:12, 8:0:0:0:2, 0:0:0:0:0, 6:1:0:0:3, 3:0:0:0:0, 2:0:0:0:2, 1:0:0:0:0, 1094:234:12:2:522
Bb minor (5b), 5:0:0:0:4, 4:0:0:0:2, 6:1:0:0:8, 2:0:0:0:1, 8:6:0:0:9, 8:5:0:0:10, 5:0:0:0:7, 3:0:0:0:3, 5:0:0:0:4, 4:0:0:0:2, 6:1:0:0:8, 2:0:0:0:1, 8:6:0:0:9, 8:5:0:0:10, 5:0:0:0:7, 3:0:0:0:4, 6:3:0:0:6, 8:3:0:0:12, 7:3:1:0:8, 7:7:0:0:11, 6:1:0:0:7, 6:3:0:0:8, 4:0:0:0:3, 9:8:1:0:16, 5:0:0:0:4, 4:0:0:0:2, 6:1:0:0:8, 2:0:0:0:1, 8:6:0:0:9, 8:5:0:0:10, 5:0:0:0:7, 3:0:0:0:4, 2:0:0:0:2, 4:0:0:0:5, 6:0:0:0:4, 1:0:0:0:0, 6:4:0:0:7, 9:8:1:0:15, 4:0:0:0:6, 5:0:0:0:7, 3:0:0:0:5, 4:0:0:0:5, 7:0:0:0:6, 1:0:0:0:0, 12:9:0:0:15, 8:6:0:0:10, 4:0:0:0:6, 5:1:0:0:6, 4:3:0:0:5, 6:3:0:0:11, 4:2:0:0:5, 8:9:0:0:14, 4:1:0:0:9, 7:3:0:0:10, 4:0:0:0:3, 11:13:0:0:24, 3:0:0:0:2, 4:0:1:0:4, 6:0:0:0:4, 1:0:0:0:0, 8:5:0:0:7, 8:7:0:0:12, 5:0:0:0:7, 4:0:0:0:3, 2:0:0:0:2, 3:0:0:0:3, 6:1:0:0:6, 1:0:0:0:0, 7:4:0:0:7, 6:6:0:0:10, 4:0:0:0:5, 3:0:0:0:2, 2:0:0:0:2, 3:0:0:0:3, 6:1:0:0:6, 1:0:0:0:0, 7:4:0:0:7, 6:6:0:0:10, 4:0:0:0:5, 3:0:0:0:3, 4:4:0:0:5, 6:3:0:0:10, 4:3:0:0:5, 7:7:0:0:11, 4:1:0:0:5, 4:1:0:0:4, 2:0:0:0:2, 6:6:0:0:10, 2:0:0:0:2, 3:0:0:0:3, 5:0:0:0:4, 3:0:0:0:1, 7:4:0:0:7, 6:7:0:0:10, 4:0:0:0:5, 3:0:0:0:2, 2:0:0:0:4, 4:0:0:0:3, 5:0:0:0:5, 6:0:0:0:4, 7:5:0:0:9, 8:7:0:0:14, 6:0:0:0:6, 4:0:0:0:9, 4:0:0:0:5, 7:0:0:0:5, 6:0:0:0:6, 1:0:0:0:0, 9:5:0:0:9, 8:7:2:0:13, 6:0:0:0:8, 5:1:0:0:4, 7:6:0:0:10, 6:4:0:0:14, 5:5:0:0:11, 8:6:0:0:13, 4:1:0:0:4, 9:4:0:0:12, 3:0:0:0:2, 10:9:0:0:14, 4:0:0:0:5, 5:0:0:0:2, 8:2:0:0:9, 4:0:0:0:1, 6:4:0:0:7, 8:7:0:0:14, 5:0:0:0:5, 4:0:0:0:5, 4:0:0:0:6, 5:0:2:0:5, 8:1:0:0:5, 1:0:0:0:0, 7:4:0:0:7, 8:7:0:0:15, 4:0:0:0:6, 4:0:0:0:6, 4:0:0:0:6, 6:0:0:0:6, 5:0:0:0:5, 1:0:0:0:0, 7:5:0:0:7, 7:6:0:0:11, 6:0:0:0:8, 4:0:0:0:6, 5:3:0:0:4, 7:3:0:0:13, 4:2:0:0:8, 9:6:0:0:12, 4:1:0:0:4, 6:1:0:0:5, 3:0:0:0:3, 11:10:2:0:20, 4:0:1:0:4, 9:1:0:0:10, 7:1:0:0:7, 2:0:0:0:2, 6:4:0:0:7, 9:7:0:0:13, 7:0:0:0:5, 8:2:0:0:5, 7:1:0:0:6, 11:0:0:0:7, 6:0:0:0:6, 2:0:0:0:1, 6:5:0:0:9, 7:6:0:0:13, 7:0:0:0:7, 5:0:0:0:7, 4:0:0:0:5, 4:0:0:0:4, 6:0:0:0:4, 1:0:0:0:0, 7:4:0:0:7, 8:7:0:0:12, 4:0:0:0:4, 4:0:0:0:7, 5:5:0:0:6, 11:6:2:0:13, 6:2:0:0:6, 9:6:0:0:11, 7:1:0:0:8, 5:2:0:0:9, 6:0:0:0:2, 7:10:0:0:15, 4:0:0:0:5, 4:0:0:0:3, 8:1:0:0:7, 4:2:0:0:3, 8:4:1:0:7, 7:7:0:0:11, 6:2:0:0:8, 4:0:0:0:6, 4:1:0:0:7, 4:0:0:0:4, 6:0:0:0:7, 1:0:0:0:0, 12:4:0:0:9, 7:8:0:0:15, 5:0:0:0:8, 5:3:0:0:10, 5:2:0:0:8, 6:2:0:0:9, 9:0:0:0:5, 1:0:0:0:0, 10:6:1:0:11, 8:7:0:0:13, 7:0:0:0:7, 3:0:0:0:3, 7:6:0:0:10, 11:4:0:0:20, 5:3:0:0:7, 9:8:0:0:14, 6:2:1:0:7, 8:2:0:0:6, 2:0:0:0:2, 6:8:0:0:12, 2:0:0:0:4, 5:0:0:0:2, 6:0:0:0:4, 1:0:0:0:0, 6:5:0:0:9, 6:6:0:0:12, 6:0:0:0:8, 4:0:0:0:6, 1:0:0:0:2, 1:0:0:0:1, 1219:481:16:0:1495
G# minor (5#), 6:0:0:0:3, 4:0:0:0:1, 6:1:0:0:3, 8:9:0:0:10, 10:0:0:0:2, 1:0:0:0:0, 5:0:0:0:4, 2:0:0:0:0, 6:0:0:0:3, 4:0:0:0:1, 6:1:0:0:3, 8:9:0:0:10, 10:0:0:0:2, 1:0:0:0:0, 5:0:0:0:4, 2:0:0:0:0, 1:0:0:0:0, 3:0:0:0:0, 3:1:0:0:1, 1:0:0:0:0, 2:0:0:0:0, 1:0:0:0:0, 8:5:0:0:6, 2:0:1:0:1, 6:0:0:0:3, 4:0:0:0:1, 6:1:0:0:3, 8:9:0:0:10, 10:0:0:0:2, 1:0:0:0:0, 5:0:0:0:4, 2:0:0:0:0, 4:0:0:0:1, 3:0:0:0:3, 6:1:0:0:3, 7:8:0:0:10, 8:0:0:0:1, 3:0:1:0:1, 5:0:0:0:3, 4:0:0:0:0, 4:0:0:0:3, 5:0:0:0:3, 7:2:0:0:3, 6:6:0:0:7, 12:0:0:0:3, 2:0:2:0:2, 5:0:0:0:2, 6:0:0:0:1, 0:0:0:0:0, 2:0:0:0:0, 1:0:0:0:0, 2:0:0:0:0, 2:0:0:0:0, 2:0:0:0:0, 9:5:0:0:8, 5:0:0:0:1, 6:0:0:0:1, 5:1:0:0:3, 6:1:0:0:2, 6:7:0:0:10, 10:0:0:0:2, 1:0:0:0:0, 5:0:0:0:3, 3:0:0:0:0, 4:0:0:0:1, 3:0:0:0:1, 5:1:0:0:2, 6:6:0:0:7, 8:0:0:0:1, 0:0:0:0:0, 5:0:0:0:2, 2:0:0:0:0, 4:0:0:0:1, 3:0:0:0:1, 5:1:0:0:2, 6:6:0:0:7, 8:0:0:0:1, 0:0:0:0:0, 5:0:0:0:2, 2:0:0:0:0, 0:0:0:0:0, 2:0:0:0:0, 1:0:0:0:0, 1:0:0:0:0, 2:0:0:0:0, 1:0:0:0:0, 6:3:0:0:4, 0:0:0:0:0, 4:0:0:0:1, 3:0:0:0:1, 5:1:0:0:2, 9:7:0:0:8, 8:0:0:0:1, 0:0:0:0:0, 5:0:0:0:2, 2:0:0:0:0, 5:1:0:0:2, 5:0:0:0:1, 5:1:0:0:2, 12:7:0:0:9, 8:0:0:0:1, 2:0:0:0:0, 7:1:0:0:5, 3:0:0:0:0, 5:0:0:0:2, 8:0:0:0:2, 6:1:0:0:2, 7:6:0:0:7, 9:0:0:0:2, 2:0:2:0:2, 7:1:0:0:4, 2:0:0:0:0, 1:0:0:0:0, 2:0:0:0:0, 1:0:0:0:0, 2:0:0:0:0, 2:0:0:0:0, 5:0:0:0:0, 7:4:0:0:5, 3:0:0:0:0, 5:0:0:0:4, 7:0:0:0:1, 8:2:0:0:4, 10:7:0:0:8, 8:0:0:0:2, 2:0:0:0:0, 7:0:0:0:5, 3:0:0:0:0, 5:0:0:0:1, 6:0:0:0:1, 7:1:1:0:3, 7:9:0:0:11, 8:0:0:0:1, 2:0:0:0:0, 6:1:0:0:4, 4:1:0:0:1, 5:0:0:0:3, 6:0:0:0:2, 5:1:0:0:2, 6:6:0:0:12, 9:0:0:0:3, 1:0:0:0:0, 7:1:0:0:4, 3:0:0:0:0, 0:0:0:0:0, 3:0:0:0:1, 1:0:0:0:0, 3:0:0:0:1, 2:0:0:0:0, 3:0:0:0:1, 7:3:0:0:5, 5:0:0:2:2, 7:1:0:0:4, 8:1:0:0:3, 7:2:0:0:3, 9:7:0:0:9, 8:0:0:0:1, 3:0:0:0:0, 10:3:0:0:6, 5:0:0:0:0, 8:3:0:0:6, 12:4:0:0:7, 6:2:0:0:3, 8:8:0:0:10, 8:0:0:0:1, 1:0:0:0:0, 7:0:0:0:4, 4:0:0:0:0, 6:0:0:0:1, 5:0:0:0:1, 6:2:0:0:4, 7:7:0:0:9, 8:0:0:0:1, 2:0:0:0:0, 7:0:0:0:4, 3:0:0:0:0, 0:0:0:0:0, 7:0:1:0:2, 2:0:1:0:0, 4:0:0:0:1, 4:0:0:0:0, 3:0:0:0:1, 10:4:0:0:6, 0:0:0:0:0, 5:0:0:0:1, 5:0:0:0:1, 7:1:0:0:2, 10:9:0:0:11, 9:0:0:0:3, 1:0:0:0:0, 7:1:0:0:5, 4:0:0:0:0, 5:0:0:0:1, 6:0:0:0:1, 6:1:0:0:3, 7:8:0:0:10, 13:0:0:0:2, 2:0:0:0:0, 5:0:0:0:4, 4:0:0:0:2, 6:0:0:0:2, 6:0:0:0:2, 8:1:0:0:2, 7:7:0:0:10, 13:0:1:0:4, 2:0:0:0:0, 7:0:0:0:4, 2:0:0:0:0, 2:0:1:0:1, 6:0:0:0:1, 2:0:1:0:1, 4:0:0:0:0, 3:1:0:0:1, 6:0:0:0:1, 6:3:0:0:6, 0:0:0:0:0, 4:0:0:0:3, 5:0:0:0:1, 6:2:0:0:3, 7:9:0:0:12, 8:0:0:0:2, 0:0:0:0:0, 6:1:0:0:3, 3:0:0:0:0, 2:0:0:0:2, 1:0:0:0:0, 1094:234:12:2:522
Gb major (6b), 6:0:0:0:5, 4:0:0:0:3, 7:1:0:0:11, 3:0:0:0:2, 9:6:0:0:10, 8:5:0:0:10, 6:0:0:0:9, 4:0:0:0:4, 6:0:0:0:5, 4:0:0:0:3, 7:1:0:0:11, 3:0:0:0:2, 9:6:0:0:10, 8:5:0:0:10, 6:0:0:0:9, 4:0:0:0:5, 6:3:0:0:5, 8:3:0:0:11, 7:3:0:0:8, 7:7:0:0:13, 6:1:0:0:6, 6:3:0:0:8, 5:0:0:0:5, 9:8:1:0:16, 6:0:0:0:5, 4:0:0:0:3, 7:1:0:0:11, 3:0:0:0:2, 9:6:0:0:10, 8:5:0:0:10, 6:0:0:0:9, 4:0:0:0:5, 3:0:0:0:2, 4:0:0:0:8, 7:0:0:0:6, 2:0:0:0:3, 7:4:0:0:7, 9:8:1:0:16, 5:0:0:0:8, 6:0:0:0:9, 4:0:0:0:5, 5:0:0:0:7, 8:0:0:0:9, 1:0:0:0:2, 13:9:0:0:16, 8:6:0:0:10, 5:0:0:0:8, 6:1:0:0:8, 4:3:0:0:4, 6:3:0:0:11, 4:2:0:0:5, 8:9:0:0:15, 4:1:0:0:8, 7:3:0:0:10, 5:0:0:0:4, 11:13:0:0:24, 4:0:0:0:3, 5:0:1:0:7, 7:0:0:0:6, 1:0:0:0:3, 9:5:0:0:8, 8:7:0:0:13, 6:0:0:0:9, 5:0:0:0:5, 3:0:0:0:2, 3:0:0:0:3, 7:1:0:0:7, 1:0:0:0:2, 8:4:0:0:6, 6:6:0:0:10, 5:0:0:0:6, 4:0:0:0:3, 3:0:0:0:2, 3:0:0:0:3, 7:1:0:0:7, 1:0:0:0:2, 8:4:0:0:6, 6:6:0:0:10, 5:0:0:0:6, 4:0:0:0:4, 4:4:0:0:5, 6:3:0:0:10, 4:3:0:0:5, 7:7:0:0:12, 4:1:0:0:5, 4:1:0:0:4, 3:0:0:0:3, 6:6:0:0:10, 3:0:0:0:2, 3:0:0:0:3, 6:0:0:0:5, 4:0:0:0:2, 8:4:0:0:6, 6:7:0:0:10, 5:0:0:0:6, 4:0:0:0:3, 3:0:0:0:4, 4:0:0:0:3, 6:0:0:0:8, 6:0:0:0:3, 8:5:0:0:9, 8:7:0:0:15, 7:0:0:0:8, 5:0:0:0:12, 5:0:0:0:6, 6:0:0:0:6, 7:0:0:0:8, 2:0:0:0:1, 10:5:0:0:9, 8:7:2:0:13, 7:0:0:0:9, 6:1:0:0:7, 7:6:0:0:10, 6:4:0:0:13, 5:5:0:0:10, 8:6:0:0:14, 4:1:0:0:4, 10:4:0:0:11, 4:0:0:0:4, 10:9:0:0:15, 5:0:0:0:7, 6:0:0:0:3, 9:2:0:0:11, 5:0:0:0:2, 7:4:0:0:7, 8:7:0:0:15, 6:0:0:0:7, 5:0:0:0:7, 5:0:0:0:6, 6:0:2:0:5, 9:1:0:0:8, 2:0:0:0:2, 8:4:0:0:6, 8:7:0:0:16, 5:0:0:0:7, 5:0:0:0:8, 5:0:0:0:7, 6:0:0:0:7, 6:0:0:0:11, 1:0:0:0:1, 8:5:0:0:8, 7:6:0:0:11, 7:0:0:0:9, 5:0:0:0:8, 5:3:0:0:4, 7:3:0:0:12, 4:2:0:0:8, 9:6:0:0:14, 4:1:0:0:4, 6:1:0:0:5, 4:0:0:0:4, 11:10:1:0:21, 5:0:1:0:5, 9:2:3:0:10, 8:1:0:0:10, 3:0:0:0:3, 7:4:0:0:7, 9:7:0:0:14, 8:0:0:0:7, 9:2:0:0:7, 8:1:0:0:8, 12:0:0:0:10, 7:0:0:0:8, 3:0:0:0:2, 7:5:0:0:9, 7:6:0:0:13, 8:0:0:0:8, 6:0:0:0:9, 5:0:0:0:6, 4:0:0:0:4, 7:0:0:0:5, 2:0:0:0:1, 8:4:0:0:7, 8:7:0:0:13, 5:0:0:0:6, 5:0:0:0:11, 5:5:0:0:6, 11:6:2:0:14, 6:2:0:0:5, 9:6:0:0:13, 6:1:0:0:6, 5:2:0:0:9, 7:0:0:0:4, 7:10:0:0:15, 5:0:0:0:6, 4:0:0:0:5, 9:1:0:0:9, 5:2:0:0:6, 9:4:1:0:7, 7:7:0:0:12, 7:2:0:0:10, 5:0:0:0:7, 5:1:0:0:6, 5:0:0:0:4, 7:0:0:0:10, 2:0:0:0:1, 13:4:0:0:10, 7:8:0:0:15, 6:0:0:0:11, 6:3:0:0:13, 6:2:0:0:9, 7:2:0:0:10, 10:0:0:0:7, 2:0:0:0:2, 11:6:1:0:11, 8:7:0:0:14, 8:0:0:0:8, 4:0:0:0:4, 8:6:0:0:8, 11:5:0:0:21, 5:3:0:0:7, 9:8:0:0:15, 6:2:1:0:7, 9:2:0:0:7, 3:0:0:0:4, 6:8:0:0:12, 3:0:0:0:4, 5:0:0:0:3, 7:0:0:0:6, 2:0:0:0:1, 7:5:0:0:9, 6:6:0:0:12, 7:0:0:0:10, 5:0:0:0:9, 2:0:0:0:2, 1:0:0:0:1, 1355:483:17:0:1708
F# major (6#), 7:0:0:0:5, 4:0:0:0:1, 7:1:0:0:6, 8:9:0:0:12, 10:0:0:0:3, 2:0:0:0:1, 6:0:0:0:6, 3:0:0:0:1, 7:0:0:0:5, 4:0:0:0:1, 7:1:0:0:6, 8:9:0:0:12, 10:0:0:0:3, 2:0:0:0:1, 6:0:0:0:6, 3:0:0:0:1, 1:0:0:0:0, 4:0:0:0:0, 4:1:0:0:1, 2:0:0:0:0, 3:0:0:0:0, 2:0:0:0:0, 8:5:0:0:9, 3:0:1:0:0, 7:0:0:0:5, 4:0:0:0:1, 7:1:0:0:6, 8:9:0:0:12, 10:0:0:0:3, 2:0:0:0:1, 6:0:0:0:6, 3:0:0:0:1, 4:0:0:0:2, 4:0:0:0:3, 7:1:0:0:7, 7:8:0:0:10, 8:0:0:0:3, 4:0:1:0:0, 5:0:0:0:4, 5:0:0:0:2, 5:0:0:0:5, 6:0:0:0:4, 8:2:0:0:5, 6:6:0:0:7, 11:0:0:0:2, 3:0:2:0:0, 5:0:0:0:4, 7:0:0:0:3, 0:0:0:0:0, 3:0:0:0:0, 2:0:0:0:0, 3:0:0:0:0, 2:0:0:0:0, 3:0:0:0:0, 9:5:0:0:10, 6:0:0:0:1, 6:0:0:0:2, 6:1:0:0:3, 7:1:0:0:5, 6:7:0:0:8, 10:0:0:0:2, 2:0:0:0:0, 6:0:0:0:5, 4:0:0:0:1, 4:0:0:0:3, 3:0:0:0:1, 6:1:0:0:4, 6:6:0:0:7, 8:0:0:0:3, 1:0:0:0:0, 5:0:0:0:4, 3:0:0:0:2, 4:0:0:0:3, 3:0:0:0:1, 6:1:0:0:4, 6:6:0:0:7, 8:0:0:0:3, 1:0:0:0:0, 5:0:0:0:4, 3:0:0:0:1, 0:0:0:0:0, 3:0:0:0:0, 2:0:0:0:0, 2:0:0:0:0, 2:0:0:0:0, 2:0:0:0:0, 6:3:0:0:6, 1:0:0:0:0, 4:0:0:0:3, 3:0:0:0:1, 6:1:0:0:4, 9:7:0:0:9, 8:0:0:0:3, 1:0:0:0:0, 5:0:0:0:4, 3:0:0:0:1, 5:1:0:0:5, 5:0:0:0:1, 6:1:0:0:4, 12:6:1:0:7, 9:0:0:0:4, 3:0:0:0:0, 7:1:0:0:5, 4:0:0:0:2, 6:0:0:0:4, 8:0:0:0:1, 7:1:0:0:6, 7:6:0:0:9, 10:0:0:0:4, 3:0:2:0:0, 7:1:0:0:4, 3:0:0:0:2, 2:0:0:0:0, 3:0:0:0:0, 2:0:0:0:0, 3:0:0:0:0, 2:0:0:0:0, 6:0:0:0:1, 7:4:0:0:8, 4:0:0:0:1, 6:0:0:0:3, 7:0:0:0:2, 9:2:0:0:7, 10:7:0:0:9, 8:0:0:0:2, 3:0:0:0:0, 7:0:0:0:3, 4:0:0:0:3, 6:0:0:0:3, 7:0:0:0:2, 8:1:0:0:5, 7:9:0:0:11, 8:0:0:0:3, 3:0:0:0:0, 6:1:0:0:5, 5:1:0:0:2, 6:0:0:0:6, 7:0:0:0:1, 6:1:0:0:4, 6:6:0:0:9, 9:0:0:0:2, 2:0:0:0:1, 7:1:0:0:4, 4:0:0:0:1, 0:0:0:0:0, 4:0:0:0:0, 2:0:0:0:0, 4:0:0:0:0, 2:0:0:0:0, 4:0:0:0:0, 7:3:0:0:8, 6:0:0:2:3, 8:1:0:0:4, 9:1:0:0:4, 8:2:0:0:6, 9:6:0:0:8, 8:0:0:0:2, 4:0:0:0:1, 10:3:0:0:7, 6:0:0:0:2, 9:3:0:0:7, 12:3:0:2:7, 7:2:0:0:6, 8:8:0:0:11, 8:0:0:0:3, 2:0:0:0:0, 8:0:0:0:4, 5:0:0:0:2, 7:0:0:0:3, 5:0:0:0:1, 7:2:0:0:6, 7:7:0:0:9, 8:0:0:0:3, 3:0:0:0:0, 7:0:0:0:3, 4:0:0:0:1, 0:0:0:0:0, 8:0:1:0:0, 3:0:0:0:0, 5:0:0:0:0, 4:0:0:0:0, 4:0:0:0:1, 10:4:0:0:8, 1:0:0:0:0, 6:0:0:0:3, 6:0:0:0:1, 8:1:0:0:4, 10:9:0:0:13, 9:1:1:0:3, 2:0:0:0:0, 7:1:0:0:5, 5:0:0:0:1, 5:0:0:0:3, 6:0:0:0:4, 7:1:0:0:6, 7:8:0:0:12, 12:0:0:0:4, 3:0:0:0:0, 6:0:0:0:6, 5:0:0:0:5, 7:0:0:0:4, 7:0:0:0:3, 9:1:0:0:5, 7:7:0:0:10, 12:0:1:0:2, 3:0:0:0:0, 8:0:0:0:5, 3:0:0:0:2, 2:0:1:0:0, 6:0:0:0:1, 3:0:1:0:0, 5:0:0:0:1, 4:1:0:0:1, 7:0:0:0:1, 6:3:0:0:8, 1:0:0:0:0, 4:0:0:0:2, 5:0:0:0:1, 7:2:0:0:6, 7:9:0:0:13, 8:0:0:0:2, 1:0:0:0:0, 7:1:0:0:5, 4:0:0:0:2, 2:2:2:0:3, 1:0:0:0:0, 1222:234:14:4:714
Eb minor (6b), 6:0:0:0:5, 4:0:0:0:3, 7:1:0:0:11, 3:0:0:0:2, 9:6:0:0:10, 8:5:0:0:10, 6:0:0:0:9, 4:0:0:0:4, 6:0:0:0:5, 4:0:0:0:3, 7:1:0:0:11, 3:0:0:0:2, 9:6:0:0:10, 8:5:0:0:10, 6:0:0:0:9, 4:0:0:0:5, 6:3:0:0:5, 8:3:0:0:11, 7:3:0:0:8, 7:7:0:0:13, 6:1:0:0:6, 6:3:0:0:8, 5:0:0:0:5, 9:8:1:0:16, 6:0:0:0:5, 4:0:0:0:3, 7:1:0:0:11, 3:0:0:0:2, 9:6:0:0:10, 8:5:0:0:10, 6:0:0:0:9, 4:0:0:0:5, 3:0:0:0:2, 4:0:0:0:8, 7:0:0:0:6, 2:0:0:0:3, 7:4:0:0:7, 9:8:1:0:16, 5:0:0:0:8, 6:0:0:0:9, 4:0:0:0:5, 5:0:0:0:7, 8:0:0:0:9, 1:0:0:0:2, 13:9:0:0:16, 8:6:0:0:10, 5:0:0:0:8, 6:1:0:0:8, 4:3:0:0:4, 6:3:0:0:11, 4:2:0:0:5, 8:9:0:0:15, 4:1:0:0:8, 7:3:0:0:10, 5:0:0:0:4, 11:13:0:0:24, 4:0:0:0:3, 5:0:1:0:7, 7:0:0:0:6, 1:0:0:0:3, 9:5:0:0:8, 8:7:0:0:13, 6:0:0:0:9, 5:0:0:0:5, 3:0:0:0:2, 3:0:0:0:3, 7:1:0:0:7, 1:0:0:0:2, 8:4:0:0:6, 6:6:0:0:10, 5:0:0:0:6, 4:0:0:0:3, 3:0:0:0:2, 3:0:0:0:3, 7:1:0:0:7, 1:0:0:0:2, 8:4:0:0:6, 6:6:0:0:10, 5:0:0:0:6, 4:0:0:0:4, 4:4:0:0:5, 6:3:0:0:10, 4:3:0:0:5, 7:7:0:0:12, 4:1:0:0:5, 4:1:0:0:4, 3:0:0:0:3, 6:6:0:0:10, 3:0:0:0:2, 3:0:0:0:3, 6:0:0:0:5, 4:0:0:0:2, 8:4:0:0:6, 6:7:0:0:10, 5:0:0:0:6, 4:0:0:0:3, 3:0:0:0:4, 4:0:0:0:3, 6:0:0:0:8, 6:0:0:0:3, 8:5:0:0:9, 8:7:0:0:15, 7:0:0:0:8, 5:0:0:0:12, 5:0:0:0:6, 6:0:0:0:6, 7:0:0:0:8, 2:0:0:0:1, 10:5:0:0:9, 8:7:2:0:13, 7:0:0:0:9, 6:1:0:0:7, 7:6:0:0:10, 6:4:0:0:13, 5:5:0:0:10, 8:6:0:0:14, 4:1:0:0:4, 10:4:0:0:11, 4:0:0:0:4, 10:9:0:0:15, 5:0:0:0:7, 6:0:0:0:3, 9:2:0:0:11, 5:0:0:0:2, 7:4:0:0:7, 8:7:0:0:15, 6:0:0:0:7, 5:0:0:0:7, 5:0:0:0:6, 6:0:2:0:5, 9:1:0:0:8, 2:0:0:0:2, 8:4:0:0:6, 8:7:0:0:16, 5:0:0:0:7, 5:0:0:0:8, 5:0:0:0:7, 6:0:0:0:7, 6:0:0:0:11, 1:0:0:0:1, 8:5:0:0:8, 7:6:0:0:11, 7:0:0:0:9, 5:0:0:0:8, 5:3:0:0:4, 7:3:0:0:12, 4:2:0:0:8, 9:6:0:0:14, 4:1:0:0:4, 6:1:0:0:5, 4:0:0:0:4, 11:10:1:0:21, 5:0:1:0:5, 9:2:3:0:10, 8:1:0:0:10, 3:0:0:0:3, 7:4:0:0:7, 9:7:0:0:14, 8:0:0:0:7, 9:2:0:0:7, 8:1:0:0:8, 12:0:0:0:10, 7:0:0:0:8, 3:0:0:0:2, 7:5:0:0:9, 7:6:0:0:13, 8:0:0:0:8, 6:0:0:0:9, 5:0:0:0:6, 4:0:0:0:4, 7:0:0:0:5, 2:0:0:0:1, 8:4:0:0:7, 8:7:0:0:13, 5:0:0:0:6, 5:0:0:0:11, 5:5:0:0:6, 11:6:2:0:14, 6:2:0:0:5, 9:6:0:0:13, 6:1:0:0:6, 5:2:0:0:9, 7:0:0:0:4, 7:10:0:0:15, 5:0:0:0:6, 4:0:0:0:5, 9:1:0:0:9, 5:2:0:0:6, 9:4:1:0:7, 7:7:0:0:12, 7:2:0:0:10, 5:0:0:0:7, 5:1:0:0:6, 5:0:0:0:4, 7:0:0:0:10, 2:0:0:0:1, 13:4:0:0:10, 7:8:0:0:15, 6:0:0:0:11, 6:3:0:0:13, 6:2:0:0:9, 7:2:0:0:10, 10:0:0:0:7, 2:0:0:0:2, 11:6:1:0:11, 8:7:0:0:14, 8:0:0:0:8, 4:0:0:0:4, 8:6:0:0:8, 11:5:0:0:21, 5:3:0:0:7, 9:8:0:0:15, 6:2:1:0:7, 9:2:0:0:7, 3:0:0:0:4, 6:8:0:0:12, 3:0:0:0:4, 5:0:0:0:3, 7:0:0:0:6, 2:0:0:0:1, 7:5:0:0:9, 6:6:0:0:12, 7:0:0:0:10, 5:0:0:0:9, 2:0:0:0:2, 1:0:0:0:1, 1355:483:17:0:1708
D# minor (6#), 7:0:0:0:5, 4:0:0:0:1, 7:1:0:0:6, 8:9:0:0:12, 10:0:0:0:3, 2:0:0:0:1, 6:0:0:0:6, 3:0:0:0:1, 7:0:0:0:5, 4:0:0:0:1, 7:1:0:0:6, 8:9:0:0:12, 10:0:0:0:3, 2:0:0:0:1, 6:0:0:0:6, 3:0:0:0:1, 1:0:0:0:0, 4:0:0:0:0, 4:1:0:0:1, 2:0:0:0:0, 3:0:0:0:0, 2:0:0:0:0, 8:5:0:0:9, 3:0:1:0:0, 7:0:0:0:5, 4:0:0:0:1, 7:1:0:0:6, 8:9:0:0:12, 10:0:0:0:3, 2:0:0:0:1, 6:0:0:0:6, 3:0:0:0:1, 4:0:0:0:2, 4:0:0:0:3, 7:1:0:0:7, 7:8:0:0:10, 8:0:0:0:3, 4:0:1:0:0, 5:0:0:0:4, 5:0:0:0:2, 5:0:0:0:5, 6:0:0:0:4, 8:2:0:0:5, 6:6:0:0:7, 11:0:0:0:2, 3:0:2:0:0, 5:0:0:0:4, 7:0:0:0:3, 0:0:0:0:0, 3:0:0:0:0, 2:0:0:0:0, 3:0:0:0:0, 2:0:0:0:0, 3:0:0:0:0, 9:5:0:0:10, 6:0:0:0:1, 6:0:0:0:2, 6:1:0:0:3, 7:1:0:0:5, 6:7:0:0:8, 10:0:0:0:2, 2:0:0:0:0, 6:0:0:0:5, 4:0:0:0:1, 4:0:0:0:3, 3:0:0:0:1, 6:1:0:0:4, 6:6:0:0:7, 8:0:0:0:3, 1:0:0:0:0, 5:0:0:0:4, 3:0:0:0:2, 4:0:0:0:3, 3:0:0:0:1, 6:1:0:0:4, 6:6:0:0:7, 8:0:0:0:3, 1:0:0:0:0, 5:0:0:0:4, 3:0:0:0:1, 0:0:0:0:0, 3:0:0:0:0, 2:0:0:0:0, 2:0:0:0:0, 2:0:0:0:0, 2:0:0:0:0, 6:3:0:0:6, 1:0:0:0:0, 4:0:0:0:3, 3:0:0:0:1, 6:1:0:0:4, 9:7:0:0:9, 8:0:0:0:3, 1:0:0:0:0, 5:0:0:0:4, 3:0:0:0:1, 5:1:0:0:5, 5:0:0:0:1, 6:1:0:0:4, 12:6:1:0:7, 9:0:0:0:4, 3:0:0:0:0, 7:1:0:0:5, 4:0:0:0:2, 6:0:0:0:4, 8:0:0:0:1, 7:1:0:0:6, 7:6:0:0:9, 10:0:0:0:4, 3:0:2:0:0, 7:1:0:0:4, 3:0:0:0:2, 2:0:0:0:0, 3:0:0:0:0, 2:0:0:0:0, 3:0:0:0:0, 2:0:0:0:0, 6:0:0:0:1, 7:4:0:0:8, 4:0:0:0:1, 6:0:0:0:3, 7:0:0:0:2, 9:2:0:0:7, 10:7:0:0:9, 8:0:0:0:2, 3:0:0:0:0, 7:0:0:0:3, 4:0:0:0:3, 6:0:0:0:3, 7:0:0:0:2, 8:1:0:0:5, 7:9:0:0:11, 8:0:0:0:3, 3:0:0:0:0, 6:1:0:0:5, 5:1:0:0:2, 6:0:0:0:6, 7:0:0:0:1, 6:1:0:0:4, 6:6:0:0:9, 9:0:0:0:2, 2:0:0:0:1, 7:1:0:0:4, 4:0:0:0:1, 0:0:0:0:0, 4:0:0:0:0, 2:0:0:0:0, 4:0:0:0:0, 2:0:0:0:0, 4:0:0:0:0, 7:3:0:0:8, 6:0:0:2:3, 8:1:0:0:4, 9:1:0:0:4, 8:2:0:0:6, 9:6:0:0:8, 8:0:0:0:2, 4:0:0:0:1, 10:3:0:0:7, 6:0:0:0:2, 9:3:0:0:7, 12:3:0:2:7, 7:2:0:0:6, 8:8:0:0:11, 8:0:0:0:3, 2:0:0:0:0, 8:0:0:0:4, 5:0:0:0:2, 7:0:0:0:3, 5:0:0:0:1, 7:2:0:0:6, 7:7:0:0:9, 8:0:0:0:3, 3:0:0:0:0, 7:0:0:0:3, 4:0:0:0:1, 0:0:0:0:0, 8:0:1:0:0, 3:0:0:0:0, 5:0:0:0:0, 4:0:0:0:0, 4:0:0:0:1, 10:4:0:0:8, 1:0:0:0:0, 6:0:0:0:3, 6:0:0:0:1, 8:1:0:0:4, 10:9:0:0:13, 9:1:1:0:3, 2:0:0:0:0, 7:1:0:0:5, 5:0:0:0:1, 5:0:0:0:3, 6:0:0:0:4, 7:1:0:0:6, 7:8:0:0:12, 12:0:0:0:4, 3:0:0:0:0, 6:0:0:0:6, 5:0:0:0:5, 7:0:0:0:4, 7:0:0:0:3, 9:1:0:0:5, 7:7:0:0:10, 12:0:1:0:2, 3:0:0:0:0, 8:0:0:0:5, 3:0:0:0:2, 2:0:1:0:0, 6:0:0:0:1, 3:0:1:0:0, 5:0:0:0:1, 4:1:0:0:1, 7:0:0:0:1, 6:3:0:0:8, 1:0:0:0:0, 4:0:0:0:2, 5:0:0:0:1, 7:2:0:0:6, 7:9:0:0:13, 8:0:0:0:2, 1:0:0:0:0, 7:1:0:0:5, 4:0:0:0:2, 2:2:2:0:3, 1:0:0:0:0, 1222:234:14:4:714
Cb major (7b), 7:0:0:0:7, 5:0:0:0:3, 8:1:0:0:13, 4:0:0:0:4, 10:6:0:0:12, 8:5:0:0:9, 7:0:0:0:11, 4:0:0:0:4, 7:0:0:0:7, 5:0:0:0:3, 8:1:0:0:13, 4:0:0:0:4, 10:6:0:0:12, 8:5:0:0:9, 7:0:0:0:11, 4:0:0:0:4, 6:3:0:0:5, 8:3:0:0:11, 7:3:0:0:7, 7:7:0:0:12, 6:1:0:0:5, 6:3:0:0:8, 6:0:0:0:8, 9:8:1:0:15, 7:0:0:0:7, 5:0:0:0:3, 8:1:0:0:13, 4:0:0:0:4, 10:6:0:0:12, 8:5:0:0:9, 7:0:0:0:11, 4:0:0:0:4, 4:0:0:0:3, 5:0:0:0:8, 8:0:0:0:10, 3:0:0:0:4, 8:4:0:0:9, 9:8:1:0:15, 6:0:0:0:10, 6:0:0:0:9, 5:0:0:0:8, 6:0:0:0:8, 9:0:0:0:11, 2:0:0:0:2, 14:9:0:0:17, 8:6:0:0:12, 6:0:0:0:10, 7:0:0:0:8, 4:3:0:0:4, 6:3:0:0:11, 4:2:0:0:4, 8:9:0:0:15, 4:1:0:0:8, 7:3:0:0:8, 6:0:0:0:5, 11:13:0:0:24, 5:0:0:0:4, 6:0:0:0:8, 8:0:0:0:9, 2:0:0:0:3, 10:5:0:0:9, 8:7:0:0:12, 7:0:0:0:11, 5:0:0:0:6, 4:0:0:0:4, 4:0:0:0:3, 8:1:0:0:9, 2:0:0:0:2, 9:4:0:0:8, 6:6:0:0:10, 6:0:0:0:8, 4:0:0:0:5, 4:0:0:0:4, 4:0:0:0:3, 8:1:0:0:9, 2:0:0:0:2, 9:4:0:0:8, 6:6:0:0:10, 6:0:0:0:8, 4:0:0:0:5, 4:4:0:0:5, 6:3:0:0:10, 4:3:0:0:5, 7:7:0:0:12, 4:1:0:0:5, 4:1:0:0:4, 4:0:0:0:5, 6:6:0:0:10, 4:0:0:0:4, 4:0:0:0:3, 7:0:0:0:6, 5:0:0:0:3, 9:4:0:0:8, 6:7:0:0:10, 6:0:0:0:8, 4:0:0:0:4, 4:0:0:0:7, 5:0:0:0:3, 7:0:0:0:9, 7:0:0:0:4, 9:5:0:0:11, 8:7:0:0:14, 8:0:0:0:10, 5:0:0:0:12, 6:0:0:0:8, 7:0:0:0:6, 8:0:0:0:11, 3:0:0:0:3, 11:5:0:0:11, 8:7:2:0:11, 8:0:0:0:10, 6:0:0:0:7, 7:6:0:0:10, 6:4:0:0:13, 5:5:0:0:8, 8:6:0:0:14, 4:1:0:0:4, 10:4:0:0:12, 5:0:0:0:7, 10:9:0:0:16, 6:0:0:0:8, 7:0:0:0:4, 10:2:0:0:13, 6:0:0:0:3, 8:4:0:0:8, 8:7:0:0:14, 7:0:0:0:8, 5:0:0:0:9, 6:0:0:0:7, 7:0:0:0:6, 10:1:0:0:9, 3:0:0:0:3, 9:4:0:0:8, 8:7:0:0:15, 6:0:0:0:9, 5:0:0:0:8, 6:0:0:0:10, 7:0:0:0:6, 7:0:0:0:12, 2:0:0:0:1, 9:5:0:0:9, 7:6:0:0:11, 8:0:0:0:10, 5:0:0:0:9, 5:3:0:0:4, 7:3:0:0:12, 4:2:0:0:4, 9:6:0:0:12, 4:1:0:0:4, 7:1:0:0:5, 5:0:0:0:7, 11:10:1:0:19, 6:0:0:0:7, 10:2:1:0:11, 9:1:0:0:13, 4:0:0:0:4, 8:4:0:0:8, 9:7:0:0:14, 9:0:0:0:9, 9:2:0:0:9, 9:1:0:0:10, 13:0:0:0:11, 8:0:0:0:10, 4:0:0:0:4, 8:5:0:0:11, 7:6:0:0:13, 9:0:0:0:8, 6:0:0:0:10, 6:0:0:0:6, 5:0:0:0:4, 8:0:0:0:7, 3:0:0:0:2, 9:4:0:0:9, 8:7:0:0:12, 6:0:0:0:7, 5:0:0:0:10, 5:5:0:0:6, 11:6:1:0:14, 7:2:0:0:4, 9:6:0:0:12, 6:1:0:0:6, 6:2:0:0:8, 8:0:0:0:6, 7:10:0:0:14, 6:0:0:0:6, 5:0:0:0:4, 9:0:0:0:9, 6:2:0:0:8, 10:4:0:0:8, 7:7:0:0:11, 8:2:0:0:12, 5:0:0:0:7, 6:1:0:0:8, 6:0:0:0:7, 8:0:0:0:12, 3:0:0:0:4, 14:4:0:0:13, 7:8:0:0:14, 7:0:0:0:13, 7:3:0:0:15, 7:2:0:0:11, 8:2:0:0:11, 11:0:0:0:10, 3:0:0:0:3, 12:6:1:0:12, 8:7:0:0:13, 9:0:0:0:9, 4:0:0:0:5, 8:6:0:0:9, 11:5:0:0:22, 5:3:0:0:6, 9:8:0:0:16, 6:2:0:0:7, 10:2:0:0:8, 4:0:0:0:6, 6:8:0:0:12, 4:0:0:0:5, 6:0:0:0:3, 8:0:0:0:9, 3:0:0:0:4, 8:5:0:0:10, 6:6:0:0:11, 8:0:0:0:11, 5:0:0:0:10, 3:0:0:0:3, 1:0:0:0:1, 1494:480:8:0:1890
C# major (7#), 7:0:0:0:5, 5:0:0:0:2, 8:1:0:0:9, 8:9:0:0:13, 10:0:0:0:3, 3:0:0:0:0, 7:0:0:0:7, 4:0:0:0:2, 7:0:0:0:5, 5:0:0:0:2, 8:1:0:0:9, 8:9:0:0:13, 10:0:0:0:3, 3:0:0:0:0, 7:0:0:0:7, 4:0:0:0:2, 2:0:0:0:0, 5:0:0:0:0, 5:1:0:0:1, 3:0:0:0:2, 4:0:0:0:0, 3:0:0:0:0, 8:5:0:0:11, 4:0:0:0:0, 7:0:0:0:5, 5:0:0:0:2, 8:1:0:0:9, 8:9:0:0:13, 10:0:0:0:3, 3:0:0:0:0, 7:0:0:0:7, 4:0:0:0:2, 4:0:0:0:2, 5:0:0:0:6, 8:1:0:0:9, 7:8:0:0:13, 8:0:0:0:2, 5:0:0:0:1, 6:0:0:0:5, 6:0:0:0:4, 5:0:0:0:3, 7:0:0:0:5, 9:2:0:0:8, 6:6:0:0:9, 12:0:0:0:3, 4:0:0:0:0, 6:0:0:0:6, 8:0:0:0:5, 1:0:0:0:0, 4:0:0:0:0, 2:0:0:0:0, 4:0:0:0:1, 3:0:0:0:0, 4:0:0:0:0, 9:5:0:0:11, 7:0:0:0:1, 6:0:0:0:3, 7:1:0:0:6, 8:1:0:0:7, 6:7:0:0:11, 10:0:0:0:3, 3:0:0:0:1, 7:0:0:0:7, 5:0:0:0:3, 4:0:0:0:2, 4:0:0:0:2, 7:1:0:0:5, 6:6:0:0:9, 9:0:0:0:2, 2:0:0:0:0, 6:0:0:0:4, 4:0:0:0:3, 4:0:0:0:2, 4:0:0:0:2, 7:1:0:0:5, 6:6:0:0:9, 9:0:0:0:2, 2:0:0:0:0, 6:0:0:0:4, 4:0:0:0:2, 1:0:0:0:0, 4:0:0:0:0, 2:0:0:0:0, 3:0:0:0:1, 3:0:0:0:0, 3:0:0:0:0, 6:3:0:0:7, 2:0:0:0:0, 4:0:0:0:2, 4:0:0:0:2, 7:1:0:0:5, 9:7:0:0:10, 9:0:0:0:2, 2:0:0:0:0, 6:0:0:0:4, 4:0:0:0:2, 5:1:0:0:3, 6:0:0:0:2, 7:1:0:0:7, 12:6:0:0:8, 9:0:0:0:2, 4:0:0:0:1, 8:1:0:0:6, 5:0:0:0:5, 6:0:0:0:3, 9:0:0:0:3, 8:1:0:0:8, 7:6:0:0:8, 9:0:0:0:2, 4:0:0:0:0, 8:1:0:0:5, 4:0:0:0:5, 3:0:0:0:1, 4:0:0:0:0, 3:0:0:0:0, 4:0:0:0:1, 3:0:0:0:0, 7:0:0:0:0, 7:4:0:0:10, 5:0:0:0:1, 6:0:0:0:5, 8:0:0:0:2, 10:2:0:0:9, 10:7:0:0:10, 8:0:0:0:2, 4:0:0:0:1, 8:0:0:0:5, 5:0:0:0:5, 7:0:0:0:3, 8:0:0:0:2, 9:1:0:0:8, 7:9:0:0:13, 9:0:0:0:2, 4:0:0:0:1, 7:1:0:0:5, 6:1:0:0:4, 6:0:0:0:5, 8:0:0:0:3, 7:1:0:0:10, 6:6:0:0:10, 9:0:0:0:3, 3:0:0:0:0, 8:1:0:0:5, 5:0:0:0:3, 1:0:0:0:0, 5:0:0:0:0, 2:0:0:0:0, 5:0:0:0:2, 3:0:0:0:0, 5:0:0:0:1, 7:3:0:0:9, 7:0:0:2:3, 8:1:0:0:4, 10:1:0:0:5, 9:2:0:0:9, 9:6:0:0:8, 8:0:0:0:2, 5:0:0:0:1, 10:4:0:0:9, 7:0:0:0:4, 9:3:0:0:8, 13:3:0:2:9, 8:2:0:0:8, 8:8:0:0:12, 8:0:0:0:2, 3:0:0:0:0, 9:0:0:0:5, 6:0:0:0:4, 7:0:0:0:3, 6:0:0:0:2, 8:2:0:0:7, 7:7:0:0:10, 8:0:0:0:2, 4:0:0:0:1, 8:0:0:0:5, 5:0:0:0:5, 1:0:0:0:0, 9:0:0:0:1, 4:0:0:0:0, 6:0:0:0:2, 5:0:0:0:0, 5:0:0:0:1, 10:4:0:0:10, 2:0:0:0:0, 6:0:0:0:3, 7:0:0:0:3, 9:1:0:0:6, 10:9:0:0:16, 9:1:1:0:3, 3:0:0:0:1, 8:1:0:0:6, 6:0:0:0:2, 6:0:0:0:2, 7:0:0:0:2, 8:1:0:0:9, 7:8:0:0:13, 11:0:0:0:3, 4:0:0:0:0, 7:0:0:0:8, 6:0:0:0:8, 7:0:0:0:4, 8:0:0:0:4, 10:1:0:0:7, 7:7:0:0:11, 11:0:0:0:2, 4:0:0:0:1, 9:0:0:0:5, 4:0:0:0:3, 3:0:0:0:0, 7:0:0:0:2, 2:0:0:0:0, 6:0:0:0:1, 5:1:0:0:1, 8:0:0:0:1, 6:3:0:0:10, 2:0:0:0:0, 4:0:0:0:2, 6:0:0:0:2, 8:2:0:0:8, 7:9:0:0:14, 8:0:0:0:2, 2:0:0:0:0, 8:1:0:0:6, 5:0:0:0:5, 1:2:2:0:2, 1:0:0:0:0, 1373:235:3:4:889
Ab minor (7b), 7:0:0:0:7, 5:0:0:0:3, 8:1:0:0:13, 4:0:0:0:4, 10:6:0:0:12, 8:5:0:0:9, 7:0:0:0:11, 4:0:0:0:4, 7:0:0:0:7, 5:0:0:0:3, 8:1:0:0:13, 4:0:0:0:4, 10:6:0:0:12, 8:5:0:0:9, 7:0:0:0:11, 4:0:0:0:4, 6:3:0:0:5, 8:3:0:0:11, 7:3:0:0:7, 7:7:0:0:12, 6:1:0:0:5, 6:3:0:0:8, 6:0:0:0:8, 9:8:1:0:15, 7:0:0:0:7, 5:0:0:0:3, 8:1:0:0:13, 4:0:0:0:4, 10:6:0:0:12, 8:5:0:0:9, 7:0:0:0:11, 4:0:0:0:4, 4:0:0:0:3, 5:0:0:0:8, 8:0:0:0:10, 3:0:0:0:4, 8:4:0:0:9, 9:8:1:0:15, 6:0:0:0:10, 6:0:0:0:9, 5:0:0:0:8, 6:0:0:0:8, 9:0:0:0:11, 2:0:0:0:2, 14:9:0:0:17, 8:6:0:0:12, 6:0:0:0:10, 7:0:0:0:8, 4:3:0:0:4, 6:3:0:0:11, 4:2:0:0:4, 8:9:0:0:15, 4:1:0:0:8, 7:3:0:0:8, 6:0:0:0:5, 11:13:0:0:24, 5:0:0:0:4, 6:0:0:0:8, 8:0:0:0:9, 2:0:0:0:3, 10:5:0:0:9, 8:7:0:0:12, 7:0:0:0:11, 5:0:0:0:6, 4:0:0:0:4, 4:0:0:0:3, 8:1:0:0:9, 2:0:0:0:2, 9:4:0:0:8, 6:6:0:0:10, 6:0:0:0:8, 4:0:0:0:5, 4:0:0:0:4, 4:0:0:0:3, 8:1:0:0:9, 2:0:0:0:2, 9:4:0:0:8, 6:6:0:0:10, 6:0:0:0:8, 4:0:0:0:5, 4:4:0:0:5, 6:3:0:0:10, 4:3:0:0:5, 7:7:0:0:12, 4:1:0:0:5, 4:1:0:0:4, 4:0:0:0:5, 6:6:0:0:10, 4:0:0:0:4, 4:0:0:0:3, 7:0:0:0:6, 5:0:0:0:3, 9:4:0:0:8, 6:7:0:0:10, 6:0:0:0:8, 4:0:0:0:4, 4:0:0:0:7, 5:0:0:0:3, 7:0:0:0:9, 7:0:0:0:4, 9:5:0:0:11, 8:7:0:0:14, 8:0:0:0:10, 5:0:0:0:12, 6:0:0:0:8, 7:0:0:0:6, 8:0:0:0:11, 3:0:0:0:3, 11:5:0:0:11, 8:7:2:0:11, 8:0:0:0:10, 6:0:0:0:7, 7:6:0:0:10, 6:4:0:0:13, 5:5:0:0:8, 8:6:0:0:14, 4:1:0:0:4, 10:4:0:0:12, 5:0:0:0:7, 10:9:0:0:16, 6:0:0:0:8, 7:0:0:0:4, 10:2:0:0:13, 6:0:0:0:3, 8:4:0:0:8, 8:7:0:0:14, 7:0:0:0:8, 5:0:0:0:9, 6:0:0:0:7, 7:0:0:0:6, 10:1:0:0:9, 3:0:0:0:3, 9:4:0:0:8, 8:7:0:0:15, 6:0:0:0:9, 5:0:0:0:8, 6:0:0:0:10, 7:0:0:0:6, 7:0:0:0:12, 2:0:0:0:1, 9:5:0:0:9, 7:6:0:0:11, 8:0:0:0:10, 5:0:0:0:9, 5:3:0:0:4, 7:3:0:0:12, 4:2:0:0:4, 9:6:0:0:12, 4:1:0:0:4, 7:1:0:0:5, 5:0:0:0:7, 11:10:1:0:19, 6:0:0:0:7, 10:2:1:0:11, 9:1:0:0:13, 4:0:0:0:4, 8:4:0:0:8, 9:7:0:0:14, 9:0:0:0:9, 9:2:0:0:9, 9:1:0:0:10, 13:0:0:0:11, 8:0:0:0:10, 4:0:0:0:4, 8:5:0:0:11, 7:6:0:0:13, 9:0:0:0:8, 6:0:0:0:10, 6:0:0:0:6, 5:0:0:0:4, 8:0:0:0:7, 3:0:0:0:2, 9:4:0:0:9, 8:7:0:0:12, 6:0:0:0:7, 5:0:0:0:10, 5:5:0:0:6, 11:6:1:0:14, 7:2:0:0:4, 9:6:0:0:12, 6:1:0:0:6, 6:2:0:0:8, 8:0:0:0:6, 7:10:0:0:14, 6:0:0:0:6, 5:0:0:0:4, 9:0:0:0:9, 6:2:0:0:8, 10:4:0:0:8, 7:7:0:0:11, 8:2:0:0:12, 5:0:0:0:7, 6:1:0:0:8, 6:0:0:0:7, 8:0:0:0:12, 3:0:0:0:4, 14:4:0:0:13, 7:8:0:0:14, 7:0:0:0:13, 7:3:0:0:15, 7:2:0:0:11, 8:2:0:0:11, 11:0:0:0:10, 3:0:0:0:3, 12:6:1:0:12, 8:7:0:0:13, 9:0:0:0:9, 4:0:0:0:5, 8:6:0:0:9, 11:5:0:0:22, 5:3:0:0:6, 9:8:0:0:16, 6:2:0:0:7, 10:2:0:0:8, 4:0:0:0:6, 6:8:0:0:12, 4:0:0:0:5, 6:0:0:0:3, 8:0:0:0:9, 3:0:0:0:4, 8:5:0:0:10, 6:6:0:0:11, 8:0:0:0:11, 5:0:0:0:10, 3:0:0:0:3, 1:0:0:0:1, 1494:480:8:0:1890
A# minor (7#), 7:0:0:0:5, 5:0:0:0:2, 8:1:0:0:9, 8:9:0:0:13, 10:0:0:0:3, 3:0:0:0:0, 7:0:0:0:7, 4:0:0:0:2, 7:0:0:0:5, 5:0:0:0:2, 8:1:0:0:9, 8:9:0:0:13, 10:0:0:0:3, 3:0:0:0:0, 7:0:0:0:7, 4:0:0:0:2, 2:0:0:0:0, 5:0:0:0:0, 5:1:0:0:1, 3:0:0:0:2, 4:0:0:0:0, 3:0:0:0:0, 8:5:0:0:11, 4:0:0:0:0, 7:0:0:0:5, 5:0:0:0:2, 8:1:0:0:9, 8:9:0:0:13, 10:0:0:0:3, 3:0:0:0:0, 7:0:0:0:7, 4:0:0:0:2, 4:0:0:0:2, 5:0:0:0:6, 8:1:0:0:9, 7:8:0:0:13, 8:0:0:0:2, 5:0:0:0:1, 6:0:0:0:5, 6:0:0:0:4, 5:0:0:0:3, 7:0:0:0:5, 9:2:0:0:8, 6:6:0:0:9, 12:0:0:0:3, 4:0:0:0:0, 6:0:0:0:6, 8:0:0:0:5, 1:0:0:0:0, 4:0:0:0:0, 2:0:0:0:0, 4:0:0:0:1, 3:0:0:0:0, 4:0:0:0:0, 9:5:0:0:11, 7:0:0:0:1, 6:0:0:0:3, 7:1:0:0:6, 8:1:0:0:7, 6:7:0:0:11, 10:0:0:0:3, 3:0:0:0:1, 7:0:0:0:7, 5:0:0:0:3, 4:0:0:0:2, 4:0:0:0:2, 7:1:0:0:5, 6:6:0:0:9, 9:0:0:0:2, 2:0:0:0:0, 6:0:0:0:4, 4:0:0:0:3, 4:0:0:0:2, 4:0:0:0:2, 7:1:0:0:5, 6:6:0:0:9, 9:0:0:0:2, 2:0:0:0:0, 6:0:0:0:4, 4:0:0:0:2, 1:0:0:0:0, 4:0:0:0:0, 2:0:0:0:0, 3:0:0:0:1, 3:0:0:0:0, 3:0:0:0:0, 6:3:0:0:7, 2:0:0:0:0, 4:0:0:0:2, 4:0:0:0:2, 7:1:0:0:5, 9:7:0:0:10, 9:0:0:0:2, 2:0:0:0:0, 6:0:0:0:4, 4:0:0:0:2, 5:1:0:0:3, 6:0:0:0:2, 7:1:0:0:7, 12:6:0:0:8, 9:0:0:0:2, 4:0:0:0:1, 8:1:0:0:6, 5:0:0:0:5, 6:0:0:0:3, 9:0:0:0:3, 8:1:0:0:8, 7:6:0:0:8, 9:0:0:0:2, 4:0:0:0:0, 8:1:0:0:5, 4:0:0:0:5, 3:0:0:0:1, 4:0:0:0:0, 3:0:0:0:0, 4:0:0:0:1, 3:0:0:0:0, 7:0:0:0:0, 7:4:0:0:10, 5:0:0:0:1, 6:0:0:0:5, 8:0:0:0:2, 10:2:0:0:9, 10:7:0:0:10, 8:0:0:0:2, 4:0:0:0:1, 8:0:0:0:5, 5:0:0:0:5, 7:0:0:0:3, 8:0:0:0:2, 9:1:0:0:8, 7:9:0:0:13, 9:0:0:0:2, 4:0:0:0:1, 7:1:0:0:5, 6:1:0:0:4, 6:0:0:0:5, 8:0:0:0:3, 7:1:0:0:10, 6:6:0:0:10, 9:0:0:0:3, 3:0:0:0:0, 8:1:0:0:5, 5:0:0:0:3, 1:0:0:0:0, 5:0:0:0:0, 2:0:0:0:0, 5:0:0:0:2, 3:0:0:0:0, 5:0:0:0:1, 7:3:0:0:9, 7:0:0:2:3, 8:1:0:0:4, 10:1:0:0:5, 9:2:0:0:9, 9:6:0:0:8, 8:0:0:0:2, 5:0:0:0:1, 10:4:0:0:9, 7:0:0:0:4, 9:3:0:0:8, 13:3:0:2:9, 8:2:0:0:8, 8:8:0:0:12, 8:0:0:0:2, 3:0:0:0:0, 9:0:0:0:5, 6:0:0:0:4, 7:0:0:0:3, 6:0:0:0:2, 8:2:0:0:7, 7:7:0:0:10, 8:0:0:0:2, 4:0:0:0:1, 8:0:0:0:5, 5:0:0:0:5, 1:0:0:0:0, 9:0:0:0:1, 4:0:0:0:0, 6:0:0:0:2, 5:0:0:0:0, 5:0:0:0:1, 10:4:0:0:10, 2:0:0:0:0, 6:0:0:0:3, 7:0:0:0:3, 9:1:0:0:6, 10:9:0:0:16, 9:1:1:0:3, 3:0:0:0:1, 8:1:0:0:6, 6:0:0:0:2, 6:0:0:0:2, 7:0:0:0:2, 8:1:0:0:9, 7:8:0:0:13, 11:0:0:0:3, 4:0:0:0:0, 7:0:0:0:8, 6:0:0:0:8, 7:0:0:0:4, 8:0:0:0:4, 10:1:0:0:7, 7:7:0:0:11, 11:0:0:0:2, 4:0:0:0:1, 9:0:0:0:5, 4:0:0:0:3, 3:0:0:0:0, 7:0:0:0:2, 2:0:0:0:0, 6:0:0:0:1, 5:1:0:0:1, 8:0:0:0:1, 6:3:0:0:10, 2:0:0:0:0, 4:0:0:0:2, 6:0:0:0:2, 8:2:0:0:8, 7:9:0:0:14, 8:0:0:0:2, 2:0:0:0:0, 8:1:0:0:6, 5:0:0:0:5, 1:2:2:0:2, 1:0:0:0:0, 1373:235:3:4:889
