 , 0, 1, 2, 3, 4, 5, 6, 7, 8, 9, 10, 11, 12, 13, 14, 15, 16, 17, 18, 19, 20, 21, 22, 23, 24, 25, 26, 27, 28, 29, 30, 31, 32, 33, 34, 35, 36, 37, 38, 39, 40, 41, 42, 43, 44, 45, 46, 47, 48, 49, 50, 51, 52, 53, 54, 55, 56, 57, 58, 59, 60, 61, 62, 63, 64, 65, 66, 67, 68, 69, 70, 71, 72, 73, 74, 75, 76, 77, 78, 79, 80, 81, 82, 83, 84, 85, 86, 87, 88, 89, 90, 91, 92, 93, 94, 95, 96, 97, 98, 99, 100, 101, 102, 103, 104, 105, 106, 107, 108, 109, 110, 111, 112, 113, 114, 115, 116, 117, 118, 119, 120, 121, 122, 123, 124, 125, 126, 127, 128, 129, 130, 131, 132, 133, 134, 135, 136, 137, 138, 139, 140, 141, 142, 143, 144, 145, 146, 147, 148, 149, 150, 151, 152, 153, 154, 155, 156, 157, 158, 159, 160, 161, 162, 163, 164, 165, 166, 167, 168, rowcost
C major (0), 2+0:0:0:0:0, 7+4:2:1:0:2, 1+0:0:0:0:0, 1+0:0:0:0:0, 2+0:0:0:0:0, 7+4:2:1:0:2, 1+0:0:0:0:0, 1+0:0:0:0:0, 1+0:0:0:0:0, 1+0:0:0:0:0, 2+2:0:0:0:2, 0+0:0:0:0:0, 1+0:0:0:0:0, 2+0:0:0:0:0, 3+1:0:0:0:0, 1+0:0:0:0:0, 2+0:0:0:0:0, 6+3:2:1:0:2, 1+0:0:0:0:0, 1+0:0:0:0:0, 2+2:0:0:0:0, 1+0:0:0:0:0, 1+0:0:0:0:0, 1+0:0:0:0:0, 1+0:0:0:0:0, 3+2:1:0:0:0, 3+1:1:0:0:0, 4+2:0:0:0:0, 0+2:0:0:0:0, 4+1:0:0:0:0, 1+0:0:0:0:0, 1+0:0:0:0:0, 2+0:0:0:0:0, 6+3:2:1:0:2, 3+1:0:0:0:0, 4+2:0:0:0:1, 3+0:0:0:0:0, 8+4:2:2:0:3, 1+0:0:0:0:0, 4+2:0:1:0:2, 1+0:0:0:0:0, 5+3:1:0:0:1, 2+1:1:0:0:0, 3+1:0:0:0:0, 4+3:0:0:0:1, 3+1:0:0:0:1, 2+1:0:0:0:0, 2+1:0:0:0:1, 2+1:0:1:0:1, 5+3:2:1:0:2, 2+1:0:1:0:1, 2+2:0:0:0:0, 3+3:1:0:0:0, 2+1:1:0:0:0, 1+0:0:0:0:0, 1+0:0:0:0:0, 4+2:0:0:0:0, 2+2:2:0:0:0, 4+3:1:2:0:2, 5+2:0:0:0:0, 0+1:0:0:0:0, 3+3:0:0:0:0, 5+6:0:0:0:0, 1+0:0:0:0:0, 1+0:0:0:0:0, 5+3:2:1:0:2, 1+0:0:0:0:0, 3+1:0:0:0:1, 1+0:0:0:0:0, 8+4:2:1:0:2, 1+0:0:0:0:0, 1+0:0:0:0:0, 1+0:0:0:0:0, 2+1:1:0:0:0, 1+0:0:0:0:0, 0+0:0:0:0:0, 3+2:0:0:0:2, 2+0:0:0:0:0, 1+0:0:0:0:0, 2+0:0:0:0:0, 1+0:0:0:0:0, 5+3:2:1:0:2, 1+1:0:0:0:0, 1+0:0:0:0:0, 1+0:0:0:0:0, 2+1:0:0:0:1, 1+0:0:0:0:0, 2+1:0:0:0:1, 1+0:0:0:0:0, 4+2:2:0:0:0, 3+1:0:1:0:1, 4+2:0:0:0:2, 2+2:0:0:0:1, 5+4:1:0:0:0, 1+0:0:0:0:0, 2+2:0:0:0:0, 1+0:0:0:0:0, 8+5:2:1:0:2, 1+1:0:0:0:0, 2+1:1:0:0:0, 4+1:0:0:0:0, 9+5:2:2:0:3, 1+0:0:0:0:0, 2+1:0:0:0:0, 1+0:0:0:0:0, 2+1:1:0:0:0, 3+1:0:0:0:1, 0+0:0:0:0:0, 3+1:0:0:0:1, 2+1:0:0:0:0, 3+3:0:0:0:0, 3+1:1:0:0:0, 1+0:0:0:0:0, 6+3:2:1:0:2, 1+0:0:0:0:0, 2+0:0:0:0:0, 1+0:0:0:0:0, 1+0:0:0:0:0, 1+0:0:0:0:0, 1+0:0:0:0:0, 1+0:0:0:0:0, 2+3:3:0:0:0, 3+3:0:0:0:0, 4+3:0:0:0:3, 2+1:0:0:0:1, 5+2:0:0:0:0, 2+0:0:0:0:0, 2+1:0:0:0:0, 3+1:0:0:0:0, 7+3:2:1:0:2, 2+0:0:0:0:0, 1+0:0:0:0:0, 2+0:0:0:0:0, 5+3:2:1:0:2, 3+1:0:0:0:1, 1+0:0:0:0:0, 1+0:0:0:0:0, 3+2:1:0:0:1, 1+0:0:0:0:0, 1+0:0:0:0:0, 3+1:0:0:0:1, 2+0:0:0:0:0, 5+3:0:0:0:0, 4+2:0:0:0:1, 1+0:0:0:0:0, 5+3:2:1:0:2, 3+1:0:0:0:1, 3+3:2:0:0:0, 2+1:0:0:0:1, 1+0:0:0:0:0, 1+0:0:0:0:0, 1+0:0:0:0:0, 3+3:2:0:0:0, 4+6:4:0:0:1, 2+1:0:0:0:0, 2+1:0:0:0:1, 1+0:0:0:0:0, 5+5:0:0:0:2, 4+3:0:0:0:1, 3+1:0:0:0:1, 1+0:0:0:0:0, 1+0:0:0:0:0, 3+1:0:0:0:1, 3+2:0:0:0:0, 2+1:0:0:0:0, 1+0:0:0:0:0, 1+0:0:0:0:0, 1+0:0:0:0:0, 1+0:0:0:0:0, 408+193:58:23:0:73
A minor (0), 2+0:0:0:0:0, 7+4:2:1:0:2, 1+2:0:0:0:0, 1+2:0:0:0:0, 2+0:0:0:0:0, 7+3:2:1:0:2, 1+2:0:0:0:0, 1+2:0:0:0:0, 1+1:0:0:0:0, 1+2:0:0:0:0, 2+3:0:0:0:0, 0+0:0:0:0:0, 1+0:0:0:0:0, 2+0:0:0:0:0, 3+4:0:0:0:0, 1+1:0:0:0:0, 2+0:0:0:0:0, 6+3:2:1:0:2, 1+0:0:0:0:0, 1+2:0:0:0:0, 2+6:0:0:0:0, 1+2:0:0:0:0, 1+1:0:0:0:0, 1+1:0:0:0:0, 1+2:0:0:0:0, 3+2:1:0:0:1, 4+1:0:0:0:0, 4+2:0:0:0:0, 0+2:0:0:0:0, 4+1:0:0:0:0, 1+0:0:0:0:0, 1+2:0:0:0:0, 2+0:0:0:0:0, 6+3:2:1:0:2, 3+2:0:0:0:0, 4+5:0:0:0:0, 3+0:0:0:0:0, 8+4:2:2:0:3, 1+0:0:0:0:0, 4+3:0:1:0:1, 1+1:0:0:0:0, 5+4:1:0:0:1, 2+3:1:0:0:1, 3+1:0:0:0:0, 4+3:0:0:0:0, 3+3:0:0:0:0, 2+2:0:0:0:0, 2+1:0:0:0:1, 2+1:0:1:0:1, 5+3:2:1:0:2, 2+3:0:1:0:1, 2+3:0:0:0:0, 3+6:1:0:0:1, 3+1:0:0:0:0, 1+3:0:0:0:0, 1+3:0:0:0:0, 4+4:0:0:0:1, 2+2:1:0:0:0, 4+3:1:2:0:2, 5+2:0:0:0:0, 0+1:0:0:0:0, 3+3:0:0:0:0, 5+6:0:0:0:0, 1+2:0:0:0:0, 1+0:0:0:0:0, 5+3:2:1:0:2, 1+2:0:0:0:0, 3+4:0:0:0:0, 1+3:0:0:0:0, 8+4:2:1:0:2, 1+0:0:0:0:0, 1+1:0:0:0:0, 1+1:0:0:0:0, 3+3:0:0:0:0, 1+2:0:0:0:0, 0+1:0:0:0:0, 3+2:0:0:0:2, 2+0:0:0:0:0, 1+2:0:0:0:0, 2+2:0:0:0:0, 1+0:0:0:0:0, 5+3:2:1:0:2, 1+5:0:0:0:0, 1+2:0:0:0:0, 1+4:0:0:0:0, 2+2:0:0:0:0, 1+1:0:0:0:0, 2+2:0:0:0:0, 1+1:0:0:0:0, 4+2:2:0:0:2, 3+5:0:1:0:0, 4+1:0:0:0:0, 2+4:0:0:0:2, 5+4:1:0:0:0, 1+0:0:0:0:0, 2+2:0:0:0:0, 1+0:0:0:0:0, 8+5:2:1:0:2, 1+3:0:0:0:0, 2+6:0:0:0:0, 4+1:0:0:0:0, 9+5:2:2:0:3, 1+0:0:0:0:0, 2+3:0:0:0:0, 1+2:0:0:0:0, 3+2:0:0:0:0, 3+2:0:0:0:0, 0+1:0:0:0:0, 3+1:0:0:0:1, 2+1:0:0:0:0, 3+3:0:0:0:0, 3+5:1:0:0:0, 1+0:0:0:0:0, 6+3:2:1:0:2, 1+0:0:0:0:0, 2+1:0:0:0:0, 1+2:0:0:0:0, 1+2:0:0:0:0, 1+2:0:0:0:0, 1+3:0:0:0:0, 1+1:0:0:0:0, 2+3:3:0:0:3, 3+3:0:0:0:0, 4+1:0:0:0:0, 2+1:0:0:0:0, 5+1:0:0:0:0, 2+0:0:0:0:0, 2+2:0:0:0:0, 3+1:0:0:0:0, 7+3:2:1:0:2, 2+3:0:0:0:0, 1+2:0:0:0:0, 2+0:0:0:0:0, 5+3:2:1:0:2, 3+1:0:0:0:1, 1+1:0:0:0:0, 1+3:0:0:0:0, 4+3:0:0:0:0, 1+2:0:0:0:0, 1+0:0:0:0:0, 3+1:0:0:0:1, 2+0:0:0:0:0, 5+3:0:0:0:0, 4+3:0:0:0:1, 1+0:0:0:0:0, 5+3:2:1:0:2, 3+3:0:0:0:0, 3+8:0:0:0:0, 2+2:0:0:0:0, 1+1:0:0:0:0, 1+1:0:0:0:0, 1+1:0:0:0:0, 3+4:2:0:0:2, 4+6:4:0:0:4, 2+1:0:0:0:0, 2+0:0:0:0:0, 1+1:0:0:0:0, 5+7:3:0:0:0, 4+1:0:0:0:1, 3+3:0:0:0:0, 1+2:0:0:0:0, 1+1:0:0:0:0, 3+3:0:0:0:0, 3+3:0:0:0:0, 2+0:0:0:0:0, 1+0:0:0:0:0, 1+0:0:0:0:0, 1+0:0:0:0:0, 1+0:0:0:0:0, 413+347:52:23:0:63
F major (1b), 3+0:0:0:0:0, 7+4:2:1:0:3, 2+0:0:0:0:0, 2+0:0:0:0:0, 3+0:0:0:0:0, 7+4:2:1:0:3, 2+0:0:0:0:0, 2+0:0:0:0:0, 1+0:0:0:0:0, 1+0:0:0:0:0, 3+2:0:0:0:2, 1+0:0:0:0:0, 2+2:0:0:0:0, 3+1:0:0:0:0, 3+1:0:1:0:1, 2+0:0:0:0:0, 3+0:0:0:0:0, 6+3:2:1:0:2, 2+0:0:0:0:0, 2+0:0:0:0:0, 2+2:0:0:0:0, 1+0:0:0:0:0, 2+0:0:0:0:0, 1+0:0:0:0:0, 2+0:0:0:0:0, 2+2:1:0:0:0, 3+1:1:0:0:0, 5+2:0:0:0:1, 1+0:0:0:0:0, 5+1:0:0:0:0, 2+0:0:0:0:0, 2+0:0:0:0:0, 3+3:0:0:0:0, 5+4:3:1:0:3, 4+1:0:0:0:0, 5+2:0:0:0:1, 4+1:0:0:0:0, 8+4:2:2:0:3, 2+0:0:0:0:0, 5+2:0:1:0:2, 2+0:0:0:0:0, 6+3:1:0:0:1, 3+1:1:0:0:0, 3+1:0:0:0:0, 5+3:0:0:0:1, 4+1:0:0:0:1, 3+0:0:0:0:0, 2+1:0:0:0:1, 3+1:0:1:0:1, 6+3:2:1:0:2, 3+1:0:1:0:1, 3+2:0:0:0:0, 3+3:1:0:0:0, 2+1:1:0:0:0, 2+0:0:0:0:0, 2+0:0:0:0:0, 5+2:0:0:0:0, 1+2:1:0:0:0, 5+3:1:2:0:2, 6+2:0:0:0:2, 1+0:0:0:0:0, 4+2:0:0:0:0, 6+4:0:0:0:1, 2+0:0:0:0:0, 2+0:0:0:0:0, 5+3:2:1:0:2, 2+0:0:0:0:0, 4+1:0:0:0:1, 2+0:0:0:0:0, 8+5:2:1:0:3, 2+0:0:0:0:0, 2+0:0:0:0:0, 2+0:0:0:0:0, 2+1:1:0:0:0, 2+0:0:0:0:0, 0+0:0:0:0:0, 4+2:0:0:0:2, 3+1:0:0:0:0, 2+0:0:0:0:0, 2+0:0:0:0:0, 2+0:0:0:0:0, 5+3:2:1:0:2, 2+1:0:0:0:0, 2+0:0:0:0:0, 1+0:0:0:0:0, 3+1:0:0:0:1, 2+0:0:0:0:0, 2+1:1:0:0:0, 2+0:0:0:0:0, 3+4:1:0:0:0, 4+1:0:1:0:1, 5+2:0:0:0:2, 3+2:0:0:0:1, 6+2:1:0:0:0, 2+0:0:0:0:0, 3+0:0:0:0:0, 2+0:0:0:0:0, 9+5:2:1:0:3, 2+0:0:0:0:0, 3+1:1:0:0:0, 5+1:0:0:0:0, 8+5:3:2:0:4, 2+0:0:0:0:0, 3+1:0:0:0:0, 1+0:0:0:0:0, 2+1:1:0:0:0, 4+1:0:0:0:1, 0+0:0:0:0:0, 4+2:0:0:0:1, 3+4:0:0:0:4, 4+3:0:0:0:0, 2+1:1:0:0:0, 2+0:0:0:0:0, 6+3:2:1:0:2, 2+0:0:0:0:0, 3+0:0:0:0:0, 1+0:0:0:0:0, 2+0:0:0:0:0, 2+0:0:0:0:0, 1+0:0:0:0:0, 2+0:0:0:0:0, 1+4:2:0:0:0, 3+2:0:0:0:0, 5+3:0:0:0:3, 3+1:0:0:0:1, 6+2:0:0:0:0, 3+0:0:0:0:0, 3+1:0:0:0:0, 4+1:0:0:0:1, 7+4:3:1:0:3, 3+0:0:0:0:0, 2+0:0:0:0:0, 3+0:0:0:0:0, 5+3:2:1:0:2, 4+1:0:0:0:1, 2+0:0:0:0:0, 2+0:0:0:0:0, 4+2:1:0:0:1, 2+0:0:0:0:0, 1+0:0:0:0:0, 4+1:0:0:0:1, 3+2:0:0:0:0, 6+3:0:0:0:0, 3+2:1:0:0:0, 2+0:0:0:0:0, 5+3:2:1:0:2, 4+1:0:0:0:1, 4+3:2:0:0:0, 3+1:0:0:0:1, 1+0:0:0:0:0, 2+0:0:0:0:0, 1+0:0:0:0:0, 4+3:2:0:0:0, 3+3:1:0:0:1, 2+0:0:0:0:0, 3+1:0:0:0:1, 2+0:0:0:0:0, 6+5:0:0:0:2, 5+1:0:0:0:1, 4+1:0:0:0:0, 2+0:0:0:0:0, 2+0:0:0:0:0, 4+1:0:0:0:1, 4+2:0:0:0:0, 2+0:0:0:0:0, 1+0:0:0:0:0, 1+0:0:0:0:0, 1+0:0:0:0:0, 1+0:0:0:0:0, 517+193:57:24:0:87
G major (1#), 1+0:0:0:0:0, 6+4:2:1:0:3, 1+0:0:0:0:0, 1+0:0:0:0:0, 1+0:0:0:0:0, 6+4:2:1:0:3, 1+0:0:0:0:0, 1+0:0:0:0:0, 0+0:0:0:0:0, 0+0:0:0:0:0, 1+2:0:0:0:2, 0+0:0:0:0:0, 1+2:0:0:0:0, 1+1:0:0:0:0, 3+1:0:0:0:0, 1+0:0:0:0:0, 1+0:0:0:0:0, 5+3:2:1:0:2, 1+0:0:0:0:0, 1+0:0:0:0:0, 1+2:0:0:0:0, 0+0:0:0:0:0, 0+0:0:0:0:0, 0+0:0:0:0:0, 0+0:0:0:0:0, 2+2:1:0:0:0, 2+1:1:0:0:0, 3+2:0:0:0:0, 0+0:0:0:0:0, 3+1:0:0:0:0, 0+0:0:0:0:0, 1+0:0:0:0:0, 1+3:0:0:0:0, 5+3:2:1:0:2, 3+1:0:0:0:0, 3+2:0:0:0:1, 2+1:0:0:0:0, 7+4:2:2:0:3, 1+0:0:0:0:0, 4+2:0:1:0:2, 0+0:0:0:0:0, 4+3:1:0:0:1, 1+1:1:0:0:0, 2+1:0:0:0:0, 3+3:0:0:0:1, 2+1:0:0:0:1, 1+0:0:0:0:0, 2+1:0:0:0:1, 1+1:0:1:0:1, 4+3:2:1:0:2, 2+1:0:1:0:1, 3+2:0:0:0:0, 2+3:1:0:0:0, 1+1:1:0:0:0, 0+0:0:0:0:0, 0+0:0:0:0:0, 3+2:0:0:0:0, 1+2:2:0:0:0, 3+3:1:2:0:2, 4+2:0:0:0:0, 0+0:0:0:0:0, 4+2:0:0:0:0, 4+4:0:0:0:1, 1+0:0:0:0:0, 0+0:0:0:0:0, 4+3:2:1:0:2, 1+0:0:0:0:0, 3+1:0:0:0:1, 0+0:0:0:0:0, 7+4:2:1:0:2, 1+0:0:0:0:0, 1+0:0:0:0:0, 0+0:0:0:0:0, 1+1:1:0:0:0, 0+0:0:0:0:0, 0+0:0:0:0:0, 3+2:0:0:0:2, 1+0:0:0:0:0, 1+0:0:0:0:0, 1+0:0:0:0:0, 0+0:0:0:0:0, 4+3:2:1:0:2, 2+1:0:0:0:0, 1+0:0:0:0:0, 0+0:0:0:0:0, 1+1:0:0:0:1, 0+0:0:0:0:0, 1+1:0:0:0:1, 0+0:0:0:0:0, 3+2:2:0:0:0, 2+1:0:1:0:1, 3+2:0:0:0:2, 2+2:0:0:0:1, 4+4:1:0:0:0, 0+0:0:0:0:0, 1+0:0:0:0:0, 0+0:0:0:0:0, 7+5:2:1:0:3, 1+0:0:0:0:0, 2+1:1:0:0:0, 3+1:0:0:0:0, 8+5:2:2:0:3, 1+0:0:0:0:0, 2+1:0:0:0:0, 0+0:0:0:0:0, 1+1:1:0:0:0, 2+1:0:0:0:1, 0+0:0:0:0:0, 3+1:0:0:0:1, 1+1:0:0:0:0, 4+3:0:0:0:0, 2+1:1:0:0:0, 0+0:0:0:0:0, 5+3:2:1:0:2, 1+0:0:0:0:0, 1+0:0:0:0:0, 0+0:0:0:0:0, 0+0:0:0:0:0, 0+0:0:0:0:0, 0+0:0:0:0:0, 0+0:0:0:0:0, 1+3:3:0:0:0, 2+2:0:0:0:0, 3+3:0:0:0:3, 1+1:0:0:0:1, 4+2:0:0:0:0, 1+0:0:0:0:0, 2+1:0:0:0:0, 2+1:0:0:0:1, 5+4:3:1:0:3, 1+0:0:0:0:0, 1+0:0:0:0:0, 1+0:0:0:0:0, 4+3:2:1:0:2, 3+1:0:0:0:1, 1+0:0:0:0:0, 0+0:0:0:0:0, 2+2:1:0:0:1, 0+0:0:0:0:0, 0+0:0:0:0:0, 3+1:0:0:0:1, 1+0:0:0:0:0, 5+3:0:0:0:0, 3+2:0:0:0:1, 0+0:0:0:0:0, 4+3:2:1:0:2, 2+1:0:0:0:1, 3+3:2:0:0:0, 1+1:0:0:0:1, 0+0:0:0:0:0, 0+0:0:0:0:0, 0+0:0:0:0:0, 2+3:2:0:0:0, 3+6:4:0:0:1, 1+0:0:0:0:0, 1+1:0:0:0:0, 0+0:0:0:0:0, 5+7:3:0:0:0, 3+1:0:0:0:1, 2+1:0:0:0:0, 0+0:0:0:0:0, 0+0:0:0:0:0, 2+1:0:0:0:1, 3+2:1:0:0:0, 1+0:0:0:0:0, 0+0:0:0:0:0, 0+0:0:0:0:0, 0+0:0:0:0:0, 0+0:0:0:0:0, 290+188:63:23:0:75
D minor (1b), 3+0:0:0:0:0, 7+4:2:1:0:3, 2+0:0:0:0:0, 2+0:0:0:0:0, 3+0:0:0:0:0, 7+4:2:1:0:3, 2+0:0:0:0:0, 2+0:0:0:0:0, 1+2:0:0:0:0, 1+3:0:0:0:0, 3+2:0:0:0:2, 1+0:0:0:0:0, 2+2:0:0:0:0, 3+1:0:0:0:0, 3+1:0:1:0:1, 2+0:0:0:0:0, 3+0:0:0:0:0, 6+3:2:1:0:2, 2+0:0:0:0:0, 2+0:0:0:0:0, 2+1:0:0:0:0, 1+2:0:0:0:0, 2+0:0:0:0:0, 1+2:0:0:0:0, 2+0:0:0:0:0, 2+5:4:0:0:0, 3+1:1:0:0:0, 5+2:0:0:0:0, 1+0:0:0:0:0, 5+1:0:0:0:0, 2+0:0:0:0:0, 2+0:0:0:0:0, 3+3:0:0:0:0, 6+3:2:1:0:2, 4+1:0:0:0:0, 5+2:0:0:0:1, 4+1:0:0:0:0, 8+4:2:2:0:3, 2+0:0:0:0:0, 5+2:0:1:0:2, 2+2:0:0:0:0, 6+3:1:0:0:1, 3+1:1:0:0:0, 3+1:0:0:0:0, 5+3:0:0:0:0, 4+3:0:0:0:0, 3+0:0:0:0:0, 2+1:0:0:0:1, 3+1:0:1:0:1, 6+3:2:1:0:2, 3+1:0:1:0:1, 3+2:0:0:0:0, 3+3:1:0:0:0, 2+1:1:0:0:0, 2+0:0:0:0:0, 2+2:0:0:0:0, 5+2:0:0:0:0, 1+2:1:0:0:0, 5+3:1:2:0:2, 6+2:0:0:0:0, 1+0:0:0:0:0, 4+2:0:0:0:0, 6+6:0:0:0:0, 2+0:0:0:0:0, 2+0:0:0:0:0, 5+3:2:1:0:2, 2+0:0:0:0:0, 4+1:0:0:0:1, 2+0:0:0:0:0, 8+4:2:1:0:2, 2+0:0:0:0:0, 2+0:0:0:0:0, 2+2:0:0:0:0, 2+1:1:0:0:0, 2+0:0:0:0:0, 0+0:0:0:0:0, 4+2:0:0:0:2, 3+0:0:0:0:0, 2+0:0:0:0:0, 2+0:0:0:0:0, 2+0:0:0:0:0, 5+3:2:1:0:2, 2+1:0:0:0:0, 2+0:0:0:0:0, 1+1:0:0:0:0, 3+3:0:0:0:0, 2+0:0:0:0:0, 2+4:1:0:0:0, 2+0:0:0:0:0, 3+4:1:0:0:0, 4+1:0:1:0:1, 5+2:0:0:0:2, 3+4:0:0:0:2, 6+4:1:0:0:0, 2+0:0:0:0:0, 3+0:0:0:0:0, 2+0:0:0:0:0, 9+5:2:1:0:3, 2+0:0:0:0:0, 3+1:1:0:0:0, 5+1:0:0:0:0, 9+5:2:2:0:3, 2+0:0:0:0:0, 3+1:0:0:0:0, 1+1:0:0:0:0, 2+1:1:0:0:0, 4+1:0:0:0:1, 0+0:0:0:0:0, 4+1:0:0:0:1, 3+1:0:0:0:0, 4+3:0:0:0:0, 2+1:1:0:0:0, 2+0:0:0:0:0, 6+3:2:1:0:2, 2+0:0:0:0:0, 3+0:0:0:0:0, 1+1:0:0:0:0, 2+3:0:0:0:0, 2+0:0:0:0:0, 1+2:0:0:0:0, 2+0:0:0:0:0, 1+4:2:0:0:0, 3+2:0:0:0:0, 5+3:0:0:0:3, 3+1:0:0:0:1, 6+2:0:0:0:0, 3+0:0:0:0:0, 3+1:0:0:0:0, 4+1:0:0:0:1, 7+4:3:1:0:3, 3+0:0:0:0:0, 2+0:0:0:0:0, 3+0:0:0:0:0, 5+3:2:1:0:2, 4+1:0:0:0:1, 2+0:0:0:0:0, 2+2:0:0:0:0, 4+2:1:0:0:1, 2+0:0:0:0:0, 1+0:0:0:0:0, 4+1:0:0:0:1, 3+0:0:0:0:0, 6+3:0:0:0:0, 3+2:1:0:0:0, 2+0:0:0:0:0, 5+3:2:1:0:2, 4+1:0:0:0:1, 4+3:2:0:0:0, 3+1:0:0:0:1, 1+0:0:0:0:0, 2+0:0:0:0:0, 1+2:0:0:0:0, 4+3:2:0:0:0, 3+3:1:0:0:1, 2+0:0:0:0:0, 3+1:0:0:0:0, 2+0:0:0:0:0, 6+7:3:0:0:0, 5+1:0:0:0:1, 4+1:0:0:0:0, 2+0:0:0:0:0, 2+0:0:0:0:0, 4+1:0:0:0:1, 4+2:1:0:0:0, 2+0:0:0:0:0, 1+0:0:0:0:0, 1+0:0:0:0:0, 1+0:0:0:0:0, 1+0:0:0:0:0, 519+228:62:24:0:71
E minor (1#), 1+1:0:0:0:0, 6+5:2:1:0:3, 1+2:0:0:0:0, 1+2:0:0:0:0, 1+1:0:0:0:0, 6+5:2:1:0:3, 1+2:0:0:0:0, 1+2:0:0:0:0, 0+1:0:0:0:0, 0+2:0:0:0:0, 1+3:0:0:0:0, 0+0:0:0:0:0, 1+2:0:0:0:0, 1+2:0:0:0:0, 3+2:0:0:0:0, 1+1:0:0:0:0, 1+1:0:0:0:0, 5+4:2:1:0:3, 1+2:0:0:0:0, 1+2:0:0:0:0, 1+6:0:0:0:0, 0+2:0:0:0:0, 0+1:0:0:0:0, 0+1:0:0:0:0, 0+2:0:0:0:0, 2+2:1:0:0:1, 3+1:0:0:0:0, 3+1:0:0:0:0, 0+3:0:0:0:0, 3+2:0:0:0:0, 0+1:0:0:0:0, 1+1:0:0:0:0, 1+5:0:0:0:0, 5+4:2:1:0:3, 3+5:0:0:0:0, 3+4:0:0:0:1, 2+3:0:0:0:0, 7+8:2:2:0:3, 1+1:0:0:0:0, 4+3:0:1:0:1, 0+1:0:0:0:0, 4+4:1:0:0:1, 1+3:1:0:0:1, 2+1:0:0:0:1, 3+4:0:0:0:0, 2+3:0:0:0:0, 1+2:0:0:0:0, 2+3:0:0:0:0, 1+3:0:1:0:0, 4+4:2:1:0:3, 2+2:0:1:0:1, 3+4:0:0:0:1, 2+6:1:0:0:1, 2+1:0:0:0:0, 0+3:0:0:0:0, 0+3:0:0:0:0, 3+4:0:0:0:1, 1+3:2:0:0:2, 4+5:0:2:0:2, 4+2:0:0:0:0, 0+1:0:0:0:0, 4+3:0:0:0:1, 4+6:0:0:0:0, 1+1:0:0:0:0, 0+2:0:0:0:0, 4+5:2:1:0:3, 1+2:0:0:0:0, 3+2:0:0:0:0, 0+2:0:0:0:0, 7+6:2:1:0:3, 1+1:0:0:0:0, 1+1:0:0:0:0, 0+1:0:0:0:0, 2+3:0:0:0:0, 0+2:0:0:0:0, 0+0:0:0:0:0, 3+2:0:0:0:0, 1+2:0:0:0:0, 1+1:0:0:0:0, 1+2:0:0:0:0, 0+3:0:0:0:0, 4+4:2:1:0:3, 2+2:0:0:0:1, 1+1:0:0:0:0, 0+4:0:0:0:0, 1+2:0:0:0:0, 0+1:0:0:0:0, 1+2:0:0:0:0, 0+1:0:0:0:0, 3+2:2:0:0:2, 2+5:0:1:0:0, 3+1:0:0:0:0, 2+4:0:0:0:2, 4+4:1:0:0:0, 0+5:0:0:0:0, 1+2:0:0:0:0, 0+3:0:0:0:0, 7+7:2:1:0:3, 1+1:0:0:0:0, 3+2:0:0:0:0, 3+3:0:0:0:1, 8+7:2:2:0:3, 1+1:0:0:0:0, 2+3:0:0:0:0, 0+2:0:0:0:0, 2+2:0:0:0:0, 2+2:0:0:0:0, 0+0:0:0:0:0, 3+2:0:0:0:0, 1+7:0:0:0:0, 4+6:0:0:0:1, 3+3:0:0:0:0, 0+1:0:0:0:0, 5+5:2:1:0:3, 1+1:0:0:0:0, 1+1:0:0:0:0, 0+2:0:0:0:0, 0+2:0:0:0:0, 0+2:0:0:0:0, 0+3:0:0:0:0, 0+1:0:0:0:0, 1+3:3:0:0:3, 2+3:0:0:0:0, 3+2:0:0:0:0, 1+1:0:0:0:0, 4+4:0:0:0:0, 1+3:0:0:0:0, 2+3:0:0:0:0, 2+3:0:0:0:0, 5+5:3:1:0:4, 1+2:0:0:0:0, 1+1:0:0:0:0, 1+3:0:0:0:0, 4+4:2:1:0:3, 3+1:0:0:0:0, 1+1:0:0:0:0, 0+3:0:0:0:0, 3+3:0:0:0:0, 0+2:0:0:0:0, 0+2:0:0:0:0, 3+1:0:0:0:0, 1+4:0:0:0:0, 5+6:0:0:0:0, 3+2:0:0:0:0, 0+3:0:0:0:0, 4+5:2:1:0:3, 2+2:0:0:0:0, 3+6:2:0:0:2, 1+2:0:0:0:0, 0+1:0:0:0:0, 0+1:0:0:0:0, 0+1:0:0:0:0, 2+4:2:0:0:2, 3+6:4:0:0:4, 1+1:0:0:0:0, 1+0:0:0:0:0, 0+1:0:0:0:0, 5+6:3:0:0:3, 3+2:0:0:0:0, 2+3:0:0:0:0, 0+2:0:0:0:0, 0+1:0:0:0:0, 2+3:0:0:0:0, 3+4:1:0:0:1, 1+1:0:0:0:0, 0+0:0:0:0:0, 0+0:0:0:0:0, 0+0:0:0:0:0, 0+0:0:0:0:0, 298+433:55:23:0:83
Bb major (2b), 4+1:0:0:0:0, 8+7:2:1:0:2, 3+1:0:0:0:0, 3+1:0:0:0:0, 4+2:0:0:0:0, 8+7:2:1:0:2, 3+1:0:0:0:0, 3+1:0:0:0:0, 1+0:0:0:0:0, 2+0:0:0:0:0, 3+2:0:0:0:2, 1+0:0:0:0:0, 3+2:0:0:0:0, 4+1:0:0:0:0, 5+2:0:0:0:0, 3+1:0:0:0:0, 4+1:0:0:0:0, 7+3:2:1:0:2, 3+1:0:0:0:0, 3+1:0:0:0:0, 2+2:0:0:0:0, 2+0:0:0:0:0, 3+0:0:0:0:0, 2+0:0:0:0:0, 2+0:0:0:0:0, 3+2:1:0:0:0, 4+1:1:0:0:0, 5+2:0:0:0:1, 2+0:0:0:0:0, 6+1:0:0:0:0, 3+0:0:0:0:0, 3+1:0:0:0:0, 4+3:0:0:0:0, 7+3:2:1:0:2, 5+1:0:0:0:0, 6+2:0:0:0:1, 5+1:0:0:0:0, 9+5:2:2:0:2, 3+2:0:0:0:0, 7+3:0:0:0:1, 3+0:0:0:0:0, 7+3:1:0:0:1, 3+1:1:0:0:0, 4+1:0:0:0:0, 6+3:0:0:0:1, 5+1:0:0:0:1, 4+1:0:0:0:0, 3+4:0:0:0:1, 4+1:0:1:0:1, 7+4:2:1:0:1, 5+2:0:0:0:0, 4+1:0:0:0:1, 3+3:1:0:0:0, 3+1:1:0:0:0, 2+0:0:0:0:0, 3+0:0:0:0:0, 6+3:0:0:0:1, 2+2:2:0:0:0, 6+4:1:2:0:2, 7+3:0:0:0:2, 2+0:0:0:0:0, 5+2:0:0:0:2, 7+4:0:0:0:1, 3+1:0:0:0:0, 3+0:0:0:0:0, 6+4:2:1:0:1, 3+1:0:0:0:0, 5+2:0:0:0:1, 3+0:0:0:0:0, 9+7:2:1:0:3, 3+1:0:0:0:0, 3+1:0:0:0:0, 2+0:0:0:0:0, 3+1:1:0:0:0, 2+0:0:0:0:0, 0+0:0:0:0:0, 5+4:0:0:0:4, 4+1:0:0:0:1, 3+1:0:0:0:0, 3+1:0:0:0:0, 3+0:0:0:0:0, 6+4:2:1:0:1, 3+1:0:0:0:1, 3+1:0:0:0:0, 2+0:0:0:0:0, 4+1:0:0:0:1, 2+0:0:0:0:0, 3+1:1:0:0:0, 2+0:0:0:0:0, 4+2:2:0:0:0, 5+1:0:1:0:1, 4+2:1:0:0:1, 4+2:1:0:0:1, 7+2:1:0:0:0, 3+0:0:0:0:0, 4+2:0:0:0:0, 3+0:0:0:0:0, 10+5:2:1:0:2, 3+1:0:0:0:0, 4+3:0:0:0:2, 6+2:0:0:0:0, 9+5:3:2:0:4, 3+1:0:0:0:0, 4+1:0:0:0:0, 2+0:0:0:0:0, 3+1:1:0:0:0, 4+1:0:0:0:1, 0+0:0:0:0:0, 5+4:0:0:0:1, 4+4:0:0:0:4, 5+2:0:0:0:2, 3+2:1:0:0:0, 3+0:0:0:0:0, 7+4:2:1:0:1, 3+1:0:0:0:0, 4+1:0:0:0:0, 2+0:0:0:0:0, 3+0:0:0:0:0, 2+0:0:0:0:0, 2+0:0:0:0:0, 2+0:0:0:0:0, 2+3:3:0:0:0, 4+3:0:0:0:0, 4+3:1:0:0:2, 4+1:0:0:0:1, 7+2:0:0:0:0, 4+0:0:0:0:0, 4+1:0:0:0:0, 5+1:0:0:0:1, 8+4:3:1:0:3, 4+1:0:0:0:0, 3+1:0:0:0:0, 4+1:0:0:0:0, 6+3:2:1:0:2, 5+1:0:0:0:1, 3+1:0:0:0:0, 2+0:0:0:0:0, 5+2:1:0:0:1, 2+0:0:0:0:0, 1+0:0:0:0:0, 5+1:0:0:0:1, 4+2:0:0:0:0, 7+3:0:0:0:0, 4+2:1:0:0:0, 3+0:0:0:0:0, 6+3:2:1:0:2, 5+2:0:0:0:1, 5+3:0:0:0:1, 3+1:1:0:0:0, 2+0:0:0:0:0, 3+0:0:0:0:0, 2+0:0:0:0:0, 4+3:2:0:0:0, 4+6:4:0:0:1, 3+1:0:0:0:0, 4+1:0:0:0:1, 3+0:0:0:0:0, 7+5:0:0:0:2, 6+3:0:0:0:1, 5+1:0:0:0:1, 3+0:0:0:0:0, 3+0:0:0:0:0, 5+1:0:0:0:1, 5+2:0:0:0:0, 2+1:0:0:0:0, 1+0:0:0:0:0, 1+0:0:0:0:0, 1+0:0:0:0:0, 1+0:0:0:0:0, 658+259:63:21:0:86
D major (2#), 0+0:0:0:0:0, 5+4:2:1:0:2, 0+0:0:0:0:0, 0+0:0:0:0:0, 0+0:0:0:0:0, 5+4:2:1:0:2, 0+0:0:0:0:0, 0+0:0:0:0:0, 1+0:0:0:0:0, 1+0:0:0:0:0, 1+2:0:0:0:2, 0+0:0:0:0:0, 1+0:0:0:0:0, 1+0:0:0:0:0, 2+1:0:0:0:0, 0+0:0:0:0:0, 0+0:0:0:0:0, 4+3:2:1:0:2, 0+0:0:0:0:0, 0+0:0:0:0:0, 2+2:0:0:0:0, 1+0:0:0:0:0, 0+0:0:0:0:0, 1+0:0:0:0:0, 0+0:0:0:0:0, 3+2:1:0:0:0, 1+1:1:0:0:0, 2+2:0:0:0:0, 0+0:0:0:0:0, 2+1:0:0:0:0, 0+0:0:0:0:0, 0+0:0:0:0:0, 1+0:0:0:0:0, 4+3:2:1:0:2, 2+1:0:0:0:0, 2+2:0:0:0:1, 1+0:0:0:0:0, 6+4:2:2:0:3, 0+0:0:0:0:0, 3+2:0:1:0:2, 1+0:0:0:0:0, 5+3:1:0:0:1, 1+1:1:0:0:0, 1+1:0:0:0:0, 3+3:0:1:0:1, 3+3:0:0:0:0, 0+0:0:0:0:0, 1+1:0:0:0:1, 1+1:0:1:0:1, 3+3:2:1:0:2, 1+1:0:1:0:1, 2+2:0:0:0:0, 3+3:1:0:0:0, 2+1:1:0:0:0, 0+0:0:0:0:0, 1+0:0:0:0:0, 2+2:0:0:0:0, 2+2:1:0:0:0, 2+3:1:2:0:2, 3+2:0:0:0:0, 0+0:0:0:0:0, 3+3:0:0:0:0, 4+6:0:2:0:2, 0+0:0:0:0:0, 0+0:0:0:0:0, 3+3:2:1:0:2, 0+0:0:0:0:0, 2+1:0:0:0:1, 0+0:0:0:0:0, 6+4:2:1:0:2, 0+0:0:0:0:0, 0+0:0:0:0:0, 1+0:0:0:0:0, 2+1:1:0:0:0, 0+0:0:0:0:0, 0+0:0:0:0:0, 3+2:0:0:0:2, 1+0:0:0:0:0, 0+0:0:0:0:0, 0+0:0:0:0:0, 0+0:0:0:0:0, 3+3:2:1:0:2, 1+1:0:0:0:0, 0+0:0:0:0:0, 1+0:0:0:0:0, 2+1:0:0:0:1, 0+0:0:0:0:0, 2+1:0:0:0:1, 0+0:0:0:0:0, 4+4:1:0:0:0, 1+1:0:1:0:1, 4+2:0:0:0:2, 2+2:1:0:0:1, 3+4:1:0:0:0, 0+0:0:0:0:0, 0+0:0:0:0:0, 0+0:0:0:0:0, 6+5:2:1:0:3, 0+0:0:0:0:0, 1+1:1:0:0:0, 2+1:0:0:0:0, 7+5:2:2:0:3, 0+0:0:0:0:0, 1+1:0:0:0:0, 1+0:0:0:0:0, 2+1:1:0:0:0, 2+1:0:0:0:1, 0+0:0:0:0:0, 2+1:0:0:0:1, 2+1:0:0:0:0, 3+3:0:0:0:0, 1+1:1:0:0:0, 0+0:0:0:0:0, 4+3:2:1:0:2, 0+0:0:0:0:0, 0+0:0:0:0:0, 1+0:0:0:0:0, 1+0:0:0:0:0, 0+0:0:0:0:0, 1+0:0:0:0:0, 0+0:0:0:0:0, 2+4:2:0:0:0, 1+2:0:0:0:0, 4+3:0:0:0:3, 1+1:0:0:0:1, 3+1:0:0:0:0, 0+0:0:0:0:0, 1+1:0:0:0:0, 1+1:0:0:0:0, 5+3:2:1:0:2, 0+0:0:0:0:0, 0+0:0:0:0:0, 0+0:0:0:0:0, 3+3:2:1:0:2, 2+1:0:0:0:1, 0+0:0:0:0:0, 1+0:0:0:0:0, 3+2:1:0:0:1, 0+0:0:0:0:0, 0+0:0:0:0:0, 2+1:0:0:0:1, 1+0:0:0:0:0, 4+3:0:0:0:0, 2+2:0:0:0:1, 0+0:0:0:0:0, 3+3:2:1:0:2, 1+1:0:0:0:1, 2+3:2:0:0:0, 2+1:0:0:0:1, 1+0:0:0:0:0, 0+0:0:0:0:0, 1+0:0:0:0:0, 2+3:2:0:0:0, 4+3:1:0:0:1, 0+0:0:0:0:0, 1+1:0:0:0:0, 0+0:0:0:0:0, 6+7:3:0:0:0, 2+1:0:0:0:1, 2+1:0:0:0:0, 0+0:0:0:0:0, 0+0:0:0:0:0, 2+1:0:0:0:1, 3+2:1:0:0:0, 0+0:0:0:0:0, 0+0:0:0:0:0, 0+0:0:0:0:0, 0+0:0:0:0:0, 0+0:0:0:0:0, 242+184:57:26:0:71
G minor (2b), 4+0:0:0:0:0, 8+4:2:1:0:3, 3+0:0:0:0:0, 3+0:0:0:0:0, 4+0:0:0:0:0, 8+4:2:1:0:3, 3+0:0:0:0:0, 3+0:0:0:0:0, 1+0:0:0:0:0, 2+0:0:0:0:0, 3+2:0:0:0:2, 1+0:0:0:0:0, 3+2:0:0:0:0, 4+1:0:0:0:0, 4+1:0:1:0:1, 3+0:0:0:0:0, 4+0:0:0:0:0, 7+3:2:1:0:2, 3+0:0:0:0:0, 3+0:0:0:0:0, 2+2:0:0:0:0, 2+0:0:0:0:0, 3+0:0:0:0:0, 2+0:0:0:0:0, 2+0:0:0:0:0, 3+2:1:0:0:0, 4+1:1:0:0:0, 5+2:0:0:0:1, 2+0:0:0:0:0, 6+1:0:0:0:0, 3+0:0:0:0:0, 3+1:0:0:0:0, 4+3:0:0:0:0, 6+4:3:1:0:3, 5+1:0:0:0:0, 6+2:0:0:0:1, 5+1:0:0:0:0, 9+4:2:2:0:3, 3+0:0:0:0:0, 6+2:0:1:0:2, 3+0:0:0:0:0, 7+3:1:0:0:1, 3+1:1:0:0:0, 4+1:0:0:0:0, 6+3:0:0:0:1, 5+1:0:0:0:1, 4+1:0:0:0:0, 3+1:0:0:0:1, 4+1:0:1:0:1, 7+3:2:1:0:2, 4+1:0:1:0:1, 4+2:0:0:0:0, 3+3:1:0:0:0, 3+1:1:0:0:0, 2+0:0:0:0:0, 3+0:0:0:0:0, 6+2:0:0:0:0, 2+2:1:0:0:0, 6+3:1:2:0:2, 7+2:0:0:0:2, 2+0:0:0:0:0, 5+2:0:0:0:0, 7+4:0:0:0:1, 3+1:0:0:0:0, 3+0:0:0:0:0, 6+3:2:1:0:2, 3+0:0:0:0:0, 5+1:0:0:0:1, 3+0:0:0:0:0, 9+7:2:1:0:3, 3+1:0:0:0:0, 3+1:0:0:0:0, 2+0:0:0:0:0, 3+1:1:0:0:0, 2+0:0:0:0:0, 0+0:0:0:0:0, 5+4:0:0:0:4, 4+1:0:0:0:0, 3+0:0:0:0:0, 3+0:0:0:0:0, 3+0:0:0:0:0, 6+3:2:1:0:2, 3+1:0:0:0:0, 3+0:0:0:0:0, 2+0:0:0:0:0, 4+1:0:0:0:1, 2+0:0:0:0:0, 3+1:1:0:0:0, 2+0:0:0:0:0, 4+2:2:0:0:0, 5+1:0:1:0:1, 4+2:1:0:0:1, 4+2:1:0:0:1, 7+2:1:0:0:0, 3+0:0:0:0:0, 4+2:0:0:0:0, 3+0:0:0:0:0, 10+5:2:1:0:2, 3+1:0:0:0:0, 4+1:1:0:0:0, 6+1:0:0:0:0, 9+5:3:2:0:4, 3+0:0:0:0:0, 4+1:0:0:0:0, 2+0:0:0:0:0, 3+1:1:0:0:0, 4+1:0:0:0:1, 0+0:0:0:0:0, 5+2:0:0:0:1, 4+4:0:0:0:4, 5+3:0:0:0:0, 3+1:1:0:0:0, 3+0:0:0:0:0, 7+3:2:1:0:2, 3+0:0:0:0:0, 4+0:0:0:0:0, 2+0:0:0:0:0, 3+0:0:0:0:0, 2+0:0:0:0:0, 2+0:0:0:0:0, 2+0:0:0:0:0, 2+3:3:0:0:0, 4+3:0:0:0:0, 4+3:1:0:0:2, 4+1:0:0:0:1, 7+2:0:0:0:0, 4+0:0:0:0:0, 4+1:0:0:0:0, 5+1:0:0:0:1, 8+4:3:1:0:3, 4+0:0:0:0:0, 3+0:0:0:0:0, 4+0:0:0:0:0, 6+3:2:1:0:2, 5+1:0:0:0:1, 3+0:0:0:0:0, 2+0:0:0:0:0, 5+2:1:0:0:1, 2+0:0:0:0:0, 1+0:0:0:0:0, 5+3:0:0:0:1, 4+2:0:0:0:0, 7+3:0:0:0:0, 4+2:1:0:0:0, 3+0:0:0:0:0, 6+3:2:1:0:2, 5+1:0:0:0:1, 5+3:2:0:0:0, 3+1:1:0:0:0, 2+0:0:0:0:0, 3+0:0:0:0:0, 2+0:0:0:0:0, 4+3:2:0:0:0, 4+6:4:0:0:1, 3+1:0:0:0:0, 4+1:0:0:0:1, 3+0:0:0:0:0, 7+5:3:0:0:1, 6+1:0:0:0:1, 5+1:0:0:0:0, 3+0:0:0:0:0, 3+0:0:0:0:0, 5+1:0:0:0:1, 5+2:1:0:0:1, 2+0:0:0:0:0, 1+0:0:0:0:0, 1+0:0:0:0:0, 1+0:0:0:0:0, 1+0:0:0:0:0, 654+209:70:24:0:85
B minor (2#), 0+1:0:0:0:0, 5+7:2:1:0:3, 0+2:0:0:0:0, 0+2:0:0:0:0, 0+1:0:0:0:0, 5+7:2:1:0:3, 0+2:0:0:0:0, 0+2:0:0:0:0, 1+1:0:0:0:0, 1+2:0:0:0:0, 1+0:0:0:0:0, 0+0:0:0:0:0, 1+1:0:0:0:0, 1+2:0:0:0:0, 2+2:0:0:0:0, 0+1:0:0:0:0, 0+1:0:0:0:0, 4+4:2:1:0:3, 0+2:0:0:0:0, 0+2:0:0:0:0, 2+6:0:0:0:0, 1+2:0:0:0:0, 0+1:0:0:0:0, 1+1:0:0:0:0, 0+2:0:0:0:0, 3+2:1:0:0:1, 1+2:1:0:0:1, 2+2:0:0:0:1, 0+0:0:0:0:0, 2+4:0:0:0:0, 0+1:0:0:0:0, 0+1:0:0:0:0, 1+1:0:0:0:0, 4+4:2:1:0:3, 2+5:0:0:0:0, 2+4:0:0:0:1, 1+1:0:0:0:0, 6+8:2:2:0:3, 0+1:0:0:0:0, 3+3:0:1:0:1, 1+1:0:0:0:0, 5+4:1:0:0:1, 1+3:1:0:0:1, 1+1:0:0:0:1, 3+6:0:1:0:0, 3+4:0:0:0:0, 0+2:0:0:0:0, 1+3:0:0:0:0, 1+3:0:1:0:0, 3+4:2:1:0:3, 1+2:0:1:0:1, 2+4:0:0:0:1, 3+6:1:0:0:1, 3+1:0:0:0:0, 0+3:0:0:0:0, 1+3:0:0:0:0, 2+4:0:0:0:1, 2+3:2:0:0:2, 2+6:1:2:0:1, 3+3:0:0:0:0, 0+0:0:0:0:0, 3+4:0:0:0:0, 4+5:0:2:0:0, 0+1:0:0:0:0, 0+2:0:0:0:0, 3+5:2:1:0:3, 0+2:0:0:0:0, 2+2:0:0:0:0, 0+2:0:0:0:0, 6+6:2:1:0:3, 0+1:0:0:0:0, 0+1:0:0:0:0, 1+1:0:0:0:0, 3+3:0:0:0:0, 0+1:0:0:0:0, 0+0:0:0:0:0, 3+2:0:0:0:0, 1+2:0:0:0:0, 0+1:0:0:0:0, 0+2:0:0:0:0, 0+3:0:0:0:0, 3+4:2:1:0:3, 1+2:0:0:0:1, 0+1:0:0:0:0, 1+4:0:0:0:0, 2+2:0:0:0:0, 0+1:0:0:0:0, 2+2:0:0:0:0, 0+1:0:0:0:0, 4+2:2:0:0:2, 1+5:0:1:0:0, 4+1:0:0:0:0, 2+1:1:0:0:1, 3+8:1:0:0:1, 0+1:0:0:0:0, 0+2:0:0:0:0, 0+3:0:0:0:0, 6+7:2:1:0:3, 0+1:0:0:0:0, 2+2:0:0:0:0, 2+3:0:0:0:1, 7+7:2:2:0:3, 0+1:0:0:0:0, 1+3:0:0:0:0, 1+2:0:0:0:0, 3+2:0:0:0:0, 2+2:0:0:0:0, 0+0:0:0:0:0, 2+2:0:0:0:0, 2+3:0:0:0:1, 3+6:0:0:0:1, 2+3:0:0:0:0, 0+1:0:0:0:0, 4+5:2:1:0:3, 0+1:0:0:0:0, 0+1:0:0:0:0, 1+2:0:0:0:0, 1+2:0:0:0:0, 0+2:0:0:0:0, 1+3:0:0:0:0, 0+1:0:0:0:0, 2+3:3:0:0:3, 1+4:0:0:0:2, 4+1:0:0:0:0, 1+1:0:0:0:0, 3+4:0:0:0:0, 0+3:0:0:0:0, 1+3:0:0:0:0, 1+4:0:0:0:0, 5+4:2:1:0:3, 0+2:0:0:0:0, 0+1:0:0:0:0, 0+3:0:0:0:0, 3+4:2:1:0:3, 2+1:0:0:0:0, 0+1:0:0:0:0, 1+3:0:0:0:0, 4+3:0:0:0:0, 0+1:0:0:0:0, 0+2:0:0:0:0, 2+1:0:0:0:0, 1+4:0:0:0:0, 4+6:0:0:0:0, 2+2:0:0:0:0, 0+3:0:0:0:0, 3+5:2:1:0:3, 1+2:0:0:0:0, 2+6:2:0:0:2, 2+2:0:0:0:0, 1+1:0:0:0:0, 0+1:0:0:0:0, 1+1:0:0:0:0, 2+4:2:0:0:2, 4+6:4:0:0:4, 0+3:0:0:0:0, 1+2:0:0:0:0, 0+2:0:0:0:0, 6+9:3:0:0:5, 2+2:0:0:0:0, 2+3:0:0:0:0, 0+2:0:0:0:0, 0+1:0:0:0:0, 2+2:0:0:0:0, 3+4:1:0:0:1, 0+1:0:0:0:0, 0+0:0:0:0:0, 0+0:0:0:0:0, 0+0:0:0:0:0, 0+0:0:0:0:0, 248+430:57:26:0:87
Eb major (3b), 5+2:0:0:0:0, 9+4:2:1:0:2, 4+0:0:0:0:0, 4+0:0:0:0:0, 5+0:0:0:0:0, 9+4:2:1:0:2, 4+0:0:0:0:0, 4+1:0:0:0:0, 2+2:0:0:0:0, 3+1:0:0:0:0, 3+2:0:0:0:2, 1+0:0:0:0:0, 3+0:0:0:0:0, 5+0:0:0:0:0, 5+1:0:1:0:1, 4+0:0:0:0:0, 5+0:0:0:0:0, 8+3:2:1:0:2, 4+0:0:0:0:0, 4+0:0:0:0:0, 3+2:0:0:0:0, 3+1:0:0:0:0, 3+6:0:0:0:0, 3+1:0:0:0:0, 2+1:0:0:0:0, 3+4:4:0:0:4, 5+1:1:0:0:0, 6+2:0:0:0:0, 2+0:0:0:0:0, 7+1:0:0:0:0, 4+0:0:0:0:0, 4+0:0:0:0:0, 5+0:0:0:0:0, 8+3:2:1:0:2, 6+1:0:0:0:0, 7+2:0:0:0:1, 6+0:0:0:0:0, 10+4:2:2:0:3, 4+2:0:0:0:0, 8+3:0:0:0:1, 4+1:0:0:0:0, 8+3:0:0:0:0, 4+1:1:0:0:0, 4+1:0:0:0:0, 7+3:0:0:0:1, 6+1:0:0:0:1, 5+1:0:0:0:0, 4+4:0:0:0:4, 5+1:0:1:0:1, 8+3:2:1:0:2, 6+2:0:0:0:0, 5+1:0:0:0:1, 4+2:0:0:0:0, 4+3:0:0:0:0, 3+3:0:0:0:0, 4+2:0:0:0:0, 7+3:0:0:0:1, 2+1:1:0:0:1, 8+4:0:0:0:1, 8+2:0:0:0:0, 2+0:0:0:0:0, 6+2:0:0:0:2, 8+4:0:0:0:1, 4+1:0:0:0:0, 4+0:0:0:0:0, 7+3:2:1:0:2, 4+1:0:0:0:0, 6+2:0:0:0:1, 4+2:0:0:0:0, 10+4:2:1:0:2, 4+0:0:0:0:0, 4+1:0:0:0:0, 3+1:0:0:0:0, 4+3:0:0:0:0, 3+2:0:0:0:0, 0+0:0:0:0:0, 5+2:0:0:0:2, 5+0:0:0:0:0, 4+0:0:0:0:0, 4+0:0:0:0:0, 4+0:0:0:0:0, 7+3:2:1:0:2, 4+1:0:0:0:1, 4+1:0:0:0:1, 3+2:0:0:0:0, 5+2:0:0:0:1, 3+2:0:0:0:0, 4+2:0:0:0:0, 3+2:0:0:0:0, 5+2:1:0:0:1, 6+1:0:1:0:1, 5+2:1:0:0:1, 4+2:0:0:0:1, 8+4:0:0:0:1, 4+0:0:0:0:0, 5+2:0:0:0:0, 4+0:0:0:0:0, 11+5:2:1:0:2, 4+1:0:0:0:0, 5+3:0:0:0:2, 7+1:0:0:0:0, 11+5:2:2:0:3, 4+0:0:0:0:0, 5+1:0:0:0:0, 3+2:0:0:0:0, 4+2:0:0:0:0, 4+3:0:0:0:1, 0+0:0:0:0:0, 5+4:0:0:0:1, 5+4:0:0:0:4, 6+2:0:0:0:2, 4+2:1:0:0:0, 4+0:0:0:0:0, 8+3:2:1:0:2, 4+0:0:0:0:0, 5+1:0:0:0:0, 3+2:0:0:0:0, 4+3:0:0:0:0, 3+1:0:0:0:0, 3+1:0:0:0:0, 3+1:0:0:0:0, 3+2:2:0:0:2, 5+3:0:0:0:0, 5+3:1:0:0:2, 4+1:0:0:0:1, 8+2:0:0:0:0, 5+0:0:0:0:0, 5+1:0:0:0:0, 6+1:0:0:0:0, 10+3:2:1:0:2, 5+0:0:0:0:0, 4+0:0:0:0:0, 5+0:0:0:0:0, 7+3:2:1:0:2, 5+2:0:0:0:2, 4+1:0:0:0:1, 3+3:0:0:0:0, 6+3:0:0:0:1, 3+2:0:0:0:0, 2+2:0:0:0:0, 5+1:0:0:0:1, 5+0:0:0:0:0, 8+3:0:0:0:0, 5+2:1:0:0:0, 4+0:0:0:0:0, 7+3:2:1:0:2, 6+1:0:0:0:1, 6+3:0:0:0:1, 4+3:0:0:0:0, 3+2:0:0:0:0, 4+1:0:0:0:0, 3+1:0:0:0:0, 5+3:0:0:0:0, 5+2:1:0:0:1, 4+1:0:0:0:0, 5+1:0:0:0:1, 4+0:0:0:0:0, 8+5:0:0:0:2, 7+5:0:0:0:2, 6+2:0:0:0:0, 4+0:0:0:0:0, 4+0:0:0:0:0, 6+1:0:0:0:1, 6+2:0:0:0:0, 3+1:0:0:0:0, 1+0:0:0:0:0, 1+0:0:0:0:0, 1+0:0:0:0:0, 1+0:0:0:0:0, 806+274:45:20:0:95
A major (3#), 0+0:0:0:0:0, 5+4:2:1:0:2, 1+0:0:0:0:0, 1+0:0:0:0:0, 0+0:0:0:0:0, 5+4:2:1:0:2, 1+0:0:0:0:0, 1+0:0:0:0:0, 1+2:0:0:0:0, 2+3:0:0:0:0, 2+2:0:0:0:2, 0+0:0:0:0:0, 0+0:0:0:0:0, 0+0:0:0:0:0, 3+1:0:0:0:0, 1+0:0:0:0:0, 0+0:0:0:0:0, 4+3:2:1:0:2, 1+0:0:0:0:0, 1+0:0:0:0:0, 2+1:0:0:0:0, 2+2:0:0:0:0, 1+0:0:0:0:0, 2+2:0:0:0:0, 1+0:0:0:0:0, 4+2:1:0:0:0, 2+1:0:0:0:0, 2+1:0:0:0:0, 1+2:0:0:0:0, 1+1:0:0:0:0, 0+0:0:0:0:0, 1+0:0:0:0:0, 0+0:0:0:0:0, 3+3:2:1:0:2, 3+1:0:0:0:0, 3+2:0:0:0:1, 0+0:0:0:0:0, 7+4:2:2:0:3, 1+0:0:0:0:0, 4+2:0:1:0:2, 1+2:0:0:0:0, 6+3:1:0:0:1, 2+1:1:0:0:1, 1+1:0:0:0:0, 2+3:0:1:0:1, 4+3:0:0:0:0, 1+0:0:0:0:0, 2+1:0:0:0:1, 1+1:0:1:0:1, 3+3:2:1:0:2, 2+1:0:1:0:1, 3+2:0:0:0:0, 3+3:0:0:0:1, 3+1:1:0:0:0, 1+0:0:0:0:0, 2+2:0:0:0:0, 3+2:0:0:0:0, 3+2:1:0:0:0, 3+3:1:2:0:2, 3+2:0:0:0:0, 1+1:0:0:0:0, 2+3:0:0:0:0, 3+6:0:2:0:2, 1+0:0:0:0:0, 0+0:0:0:0:0, 3+3:2:1:0:2, 1+0:0:0:0:0, 3+1:0:0:0:1, 1+0:0:0:0:0, 5+4:2:1:0:2, 1+0:0:0:0:0, 1+0:0:0:0:0, 1+2:0:0:0:0, 3+1:1:0:0:0, 1+0:0:0:0:0, 1+0:0:0:0:0, 2+2:0:0:0:2, 0+0:0:0:0:0, 1+0:0:0:0:0, 1+0:0:0:0:0, 0+0:0:0:0:0, 3+3:2:1:0:2, 2+1:0:0:0:0, 1+0:0:0:0:0, 1+1:0:0:0:0, 3+3:0:0:0:0, 1+0:0:0:0:0, 3+4:0:0:0:1, 1+0:0:0:0:0, 5+4:1:0:0:0, 1+1:0:1:0:1, 5+2:0:0:0:2, 3+4:0:0:0:2, 2+4:1:0:0:0, 0+0:0:0:0:0, 1+0:0:0:0:0, 0+0:0:0:0:0, 7+5:2:1:0:3, 1+0:0:0:0:0, 2+1:1:0:0:0, 2+1:0:0:0:0, 6+5:2:2:0:3, 1+0:0:0:0:0, 2+1:0:0:0:0, 2+1:0:0:0:0, 3+1:1:0:0:0, 3+1:0:0:0:1, 1+0:0:0:0:0, 1+1:0:0:0:1, 1+1:0:0:0:0, 4+3:0:0:0:0, 2+1:1:0:0:0, 0+0:0:0:0:0, 4+3:2:1:0:2, 1+0:0:0:0:0, 1+0:0:0:0:0, 1+1:0:0:0:0, 2+3:0:0:0:0, 1+0:0:0:0:0, 2+2:0:0:0:0, 1+0:0:0:0:0, 3+4:2:0:0:0, 2+2:0:0:0:0, 4+4:0:0:0:0, 2+1:0:0:0:1, 2+1:0:0:0:0, 0+0:0:0:0:0, 2+1:0:0:0:0, 1+1:0:0:0:0, 4+3:2:1:0:2, 1+0:0:0:0:0, 1+0:0:0:0:0, 0+0:0:0:0:0, 3+3:2:1:0:2, 3+1:0:0:0:1, 1+0:0:0:0:0, 1+2:0:0:0:0, 4+2:1:0:0:1, 1+0:0:0:0:0, 1+0:0:0:0:0, 1+1:0:0:0:1, 0+0:0:0:0:0, 5+3:0:0:0:0, 3+2:0:0:0:1, 0+0:0:0:0:0, 3+3:2:1:0:2, 2+1:0:0:0:1, 3+3:2:0:0:0, 2+4:0:0:0:0, 2+2:0:0:0:0, 1+0:0:0:0:0, 2+2:0:0:0:0, 3+3:2:0:0:0, 5+3:1:0:0:1, 1+0:0:0:0:0, 1+1:0:0:0:0, 1+0:0:0:0:0, 5+7:3:0:0:0, 3+1:0:0:0:1, 3+1:0:0:0:0, 0+0:0:0:0:0, 1+0:0:0:0:0, 2+1:0:0:0:1, 4+3:0:0:0:0, 0+0:0:0:0:0, 0+0:0:0:0:0, 0+0:0:0:0:0, 0+0:0:0:0:0, 0+0:0:0:0:0, 322+226:53:26:0:69
C minor (3b), 5+1:0:0:0:0, 9+7:2:1:0:2, 4+1:0:0:0:0, 4+1:0:0:0:0, 5+2:0:0:0:0, 9+7:2:1:0:2, 4+1:0:0:0:0, 4+1:0:0:0:0, 2+0:0:0:0:0, 3+0:0:0:0:0, 3+2:0:0:0:2, 1+0:0:0:0:0, 3+2:0:0:0:1, 5+1:0:0:0:1, 6+2:0:0:0:0, 4+1:0:0:0:0, 5+1:0:0:0:0, 8+3:2:1:0:2, 4+1:0:0:0:0, 4+1:0:0:0:0, 3+2:0:0:0:0, 3+0:0:0:0:0, 3+0:0:0:0:0, 3+0:0:0:0:0, 2+0:0:0:0:0, 3+2:1:0:0:0, 5+1:1:0:0:0, 6+2:0:0:0:0, 2+2:0:0:0:0, 7+1:0:0:0:0, 4+0:0:0:0:0, 4+1:0:0:0:0, 5+0:0:0:0:0, 8+3:2:1:0:2, 6+1:0:0:0:0, 7+2:0:0:0:1, 6+1:0:0:0:0, 10+5:2:2:0:2, 4+2:0:0:0:0, 8+3:0:0:0:1, 4+0:0:0:0:0, 8+3:1:0:0:1, 4+1:1:0:0:0, 4+1:0:0:0:0, 7+3:0:0:0:1, 6+1:0:0:0:1, 5+1:0:0:0:0, 4+4:0:0:0:1, 5+1:0:1:0:1, 8+4:2:1:0:1, 6+2:0:0:0:0, 5+1:0:0:0:1, 4+2:0:0:0:0, 4+3:0:0:0:0, 3+0:0:0:0:0, 4+0:0:0:0:0, 7+2:0:0:0:0, 2+2:1:0:0:0, 7+3:1:2:0:2, 8+2:0:0:0:0, 2+0:0:0:0:0, 6+2:0:0:0:2, 8+4:0:0:0:1, 4+1:0:0:0:0, 4+0:0:0:0:0, 7+4:2:1:0:1, 4+1:0:0:0:0, 6+2:0:0:0:1, 4+0:0:0:0:0, 10+7:2:1:0:3, 4+1:0:0:0:0, 4+1:0:0:0:0, 3+0:0:0:0:0, 4+1:1:0:0:0, 3+0:0:0:0:0, 0+0:0:0:0:0, 5+4:0:0:0:4, 5+1:0:0:0:1, 4+1:0:0:0:0, 4+1:0:0:0:0, 4+0:0:0:0:0, 7+4:2:1:0:1, 4+1:0:0:0:1, 4+1:0:0:0:0, 3+0:0:0:0:0, 5+1:0:0:0:1, 3+0:0:0:0:0, 4+1:1:0:0:0, 3+0:0:0:0:0, 5+2:2:0:0:0, 6+1:0:1:0:1, 5+2:1:0:0:1, 4+2:0:0:0:1, 8+4:0:0:0:1, 4+0:0:0:0:0, 5+2:0:0:0:0, 4+0:0:0:0:0, 11+5:2:1:0:2, 4+1:0:0:0:0, 5+3:0:0:0:2, 7+1:0:0:0:0, 11+5:2:2:0:3, 4+1:0:0:0:0, 5+1:0:0:0:0, 3+0:0:0:0:0, 4+1:1:0:0:0, 4+1:0:0:0:1, 0+0:0:0:0:0, 5+4:0:0:0:1, 5+4:0:0:0:4, 6+2:0:0:0:2, 4+2:1:0:0:0, 4+0:0:0:0:0, 8+4:2:1:0:1, 4+1:0:0:0:0, 5+1:0:0:0:0, 3+0:0:0:0:0, 4+0:0:0:0:0, 3+0:0:0:0:0, 3+0:0:0:0:0, 3+0:0:0:0:0, 3+3:3:0:0:0, 5+3:0:0:0:0, 5+3:1:0:0:2, 4+1:0:0:0:1, 8+2:0:0:0:0, 5+0:0:0:0:0, 5+1:0:0:0:0, 6+1:0:0:0:0, 10+3:2:1:0:2, 5+1:0:0:0:0, 4+1:0:0:0:0, 5+1:0:0:0:0, 7+4:2:1:0:1, 5+2:0:0:0:2, 4+1:0:0:0:0, 3+0:0:0:0:0, 6+2:1:0:0:1, 3+0:0:0:0:0, 2+0:0:0:0:0, 5+1:0:0:0:1, 5+0:0:0:0:0, 8+3:0:0:0:0, 5+2:1:0:0:0, 4+0:0:0:0:0, 7+3:2:1:0:2, 6+2:0:0:0:1, 6+3:0:0:0:1, 4+1:1:0:0:0, 3+0:0:0:0:0, 4+0:0:0:0:0, 3+0:0:0:0:0, 5+3:2:0:0:0, 5+6:4:0:0:1, 4+1:0:0:0:0, 5+1:0:0:0:1, 4+0:0:0:0:0, 8+5:0:0:0:2, 7+3:0:0:0:1, 6+1:0:0:0:1, 4+0:0:0:0:0, 4+0:0:0:0:0, 6+1:0:0:0:1, 6+2:0:0:0:0, 3+1:0:0:0:0, 1+0:0:0:0:0, 1+0:0:0:0:0, 1+0:0:0:0:0, 1+0:0:0:0:0, 806+256:56:21:0:82
F# minor (3#), 0+1:0:0:0:0, 5+7:2:1:0:3, 1+2:0:0:0:0, 1+2:0:0:0:0, 0+1:0:0:0:0, 5+7:2:1:0:3, 1+2:0:0:0:0, 1+2:0:0:0:0, 1+4:0:0:0:0, 2+5:0:0:0:0, 2+0:0:0:0:0, 0+0:0:0:0:0, 0+1:0:0:0:0, 0+2:0:0:0:0, 3+2:0:0:0:0, 1+1:0:0:0:0, 0+1:0:0:0:0, 4+6:2:1:0:3, 1+2:0:0:0:0, 1+2:0:0:0:0, 2+2:0:0:0:0, 2+4:0:0:0:0, 1+0:0:0:0:0, 2+4:0:0:0:0, 1+0:0:0:0:0, 4+2:1:0:0:1, 2+1:0:0:0:0, 2+1:0:0:0:0, 1+0:0:0:0:0, 1+4:0:0:0:0, 0+1:0:0:0:0, 1+1:0:0:0:0, 0+1:0:0:0:0, 3+4:2:1:0:3, 3+5:0:0:0:0, 3+4:0:0:0:1, 0+1:0:0:0:0, 7+8:2:2:0:3, 1+1:0:0:0:0, 4+3:0:1:0:1, 1+4:0:0:0:0, 6+4:1:0:0:1, 2+2:1:0:0:1, 2+2:0:0:0:0, 2+6:0:1:0:0, 4+4:0:0:0:0, 1+2:0:0:0:0, 2+3:0:0:0:0, 1+1:0:0:0:0, 3+4:2:1:0:3, 2+2:0:1:0:1, 3+4:0:0:0:1, 3+6:0:0:0:0, 4+1:0:0:0:0, 1+2:0:0:0:0, 2+4:0:0:0:0, 3+4:0:0:0:1, 3+3:2:0:0:2, 3+6:1:2:0:1, 3+3:0:0:0:0, 1+0:0:0:0:0, 2+4:0:0:0:0, 3+5:0:2:0:0, 1+1:0:0:0:0, 0+1:0:0:0:0, 3+4:2:1:0:3, 1+2:0:0:0:0, 3+2:0:0:0:0, 1+2:0:0:0:0, 5+6:2:1:0:3, 1+1:0:0:0:0, 1+1:0:0:0:0, 1+6:0:0:0:0, 4+3:0:0:0:0, 1+1:0:0:0:0, 1+0:0:0:0:0, 2+4:0:0:0:0, 0+1:0:0:0:0, 1+1:0:0:0:0, 1+2:0:0:0:0, 0+1:0:0:0:0, 3+4:2:1:0:3, 2+2:0:0:0:1, 1+1:0:0:0:0, 1+2:0:0:0:0, 3+6:0:0:0:0, 1+1:0:0:0:0, 3+6:0:0:0:0, 1+1:0:0:0:0, 5+2:2:0:0:2, 1+5:0:1:0:0, 5+1:0:0:0:0, 3+1:1:0:0:1, 2+8:1:0:0:1, 0+1:0:0:0:0, 1+2:0:0:0:0, 0+3:0:0:0:0, 7+7:2:1:0:3, 1+1:0:0:0:0, 3+2:0:0:0:0, 2+2:0:0:0:0, 6+7:2:2:0:3, 1+1:0:0:0:0, 2+3:0:0:0:0, 2+2:0:0:0:0, 4+2:0:0:0:0, 3+2:0:0:0:0, 1+0:0:0:0:0, 1+2:0:0:0:0, 1+3:0:0:0:1, 4+6:0:0:0:1, 3+3:0:0:0:0, 0+1:0:0:0:0, 4+4:2:1:0:3, 1+1:0:0:0:0, 1+1:0:0:0:0, 1+2:0:0:0:0, 2+7:0:0:0:0, 1+2:0:0:0:0, 2+4:0:0:0:0, 1+1:0:0:0:0, 3+3:3:0:0:3, 2+4:0:0:0:2, 4+4:0:0:0:1, 2+1:0:0:0:0, 2+4:0:0:0:0, 0+2:0:0:0:0, 2+3:0:0:0:0, 1+4:0:0:0:0, 4+4:2:1:0:3, 1+2:0:0:0:0, 1+1:0:0:0:0, 0+1:0:0:0:0, 3+4:2:1:0:3, 3+1:0:0:0:0, 1+1:0:0:0:0, 1+5:0:0:0:0, 5+3:0:0:0:0, 1+1:0:0:0:0, 1+2:0:0:0:0, 1+3:0:0:0:0, 0+1:0:0:0:0, 5+6:0:0:0:0, 3+2:0:0:0:0, 0+2:0:0:0:0, 3+4:2:1:0:3, 2+2:0:0:0:0, 3+6:2:0:0:2, 2+5:0:0:0:3, 2+6:0:0:0:0, 1+1:0:0:0:0, 2+4:0:0:0:0, 3+5:2:0:0:3, 5+6:4:0:0:4, 1+3:0:0:0:0, 1+2:0:0:0:0, 1+2:0:0:0:0, 5+9:3:0:0:5, 3+2:0:0:0:0, 3+3:0:0:0:0, 0+2:0:0:0:0, 1+1:0:0:0:0, 2+2:0:0:0:0, 4+4:1:0:0:1, 0+0:0:0:0:0, 0+0:0:0:0:0, 0+0:0:0:0:0, 0+0:0:0:0:0, 0+0:0:0:0:0, 329+457:55:25:0:87
Ab major (4b), 6+0:0:0:0:0, 9+4:2:1:0:3, 5+0:0:0:0:0, 5+0:0:0:0:0, 6+0:0:0:0:0, 9+4:2:1:0:3, 5+0:0:0:0:0, 5+0:0:0:0:0, 3+0:0:0:0:0, 4+0:0:0:0:0, 4+2:0:0:0:2, 1+0:0:0:0:0, 4+0:0:0:0:0, 6+0:0:0:0:0, 6+1:0:1:0:1, 4+0:0:0:0:0, 6+0:0:0:0:0, 8+3:2:1:0:2, 5+0:0:0:0:0, 5+0:0:0:0:0, 4+2:0:0:0:0, 4+0:0:0:0:0, 4+0:0:0:0:0, 4+0:0:0:0:0, 3+0:0:0:0:0, 3+2:1:0:0:0, 6+1:0:0:0:1, 6+2:0:0:0:0, 3+0:0:0:0:0, 8+1:0:0:0:0, 5+0:0:0:0:0, 5+0:0:0:0:0, 6+0:0:0:0:0, 8+3:2:1:0:2, 7+1:0:0:0:0, 8+2:0:0:0:1, 7+1:0:0:0:0, 11+4:2:2:0:3, 5+0:0:0:0:0, 8+2:0:1:0:2, 5+0:0:0:0:0, 9+3:1:0:0:1, 5+1:1:0:0:0, 4+1:0:0:0:0, 8+3:0:0:0:1, 7+1:0:0:0:1, 6+0:0:0:0:0, 5+1:0:0:0:1, 6+1:0:1:0:1, 9+3:2:1:0:2, 6+1:0:1:0:1, 6+2:0:0:0:0, 5+3:1:0:0:0, 5+1:0:0:0:1, 4+0:0:0:0:0, 5+0:0:0:0:0, 8+2:0:0:0:0, 3+2:1:0:0:0, 8+3:1:2:0:2, 8+2:0:0:0:0, 3+1:0:0:0:0, 7+3:0:0:0:0, 9+6:0:0:0:0, 5+0:0:0:0:0, 5+0:0:0:0:0, 8+3:2:1:0:2, 5+0:0:0:0:0, 7+1:0:0:0:1, 5+0:0:0:0:0, 11+4:2:1:0:2, 5+0:0:0:0:0, 5+0:0:0:0:0, 4+0:0:0:0:0, 5+1:1:0:0:0, 4+0:0:0:0:0, 0+0:0:0:0:0, 6+2:0:0:0:2, 6+0:0:0:0:0, 5+0:0:0:0:0, 4+0:0:0:0:0, 5+0:0:0:0:0, 7+3:2:1:0:2, 5+1:0:0:0:0, 5+0:0:0:0:0, 4+0:0:0:0:0, 6+1:0:0:0:1, 4+0:0:0:0:0, 5+1:1:0:0:0, 4+0:0:0:0:0, 5+2:1:0:0:1, 6+1:0:1:0:1, 5+2:1:0:0:1, 5+2:0:0:0:1, 9+4:0:0:0:1, 5+0:0:0:0:0, 6+0:0:0:0:0, 5+0:0:0:0:0, 11+5:2:1:0:3, 5+0:0:0:0:0, 6+1:1:0:0:0, 8+1:0:0:0:0, 11+5:2:2:0:3, 5+0:0:0:0:0, 6+1:0:0:0:0, 4+0:0:0:0:0, 5+1:1:0:0:0, 5+1:0:0:0:1, 0+0:0:0:0:0, 6+1:0:0:0:1, 6+1:0:0:0:0, 7+3:0:0:0:0, 4+1:1:0:0:0, 5+0:0:0:0:0, 9+3:2:1:0:2, 5+0:0:0:0:0, 6+0:0:0:0:0, 4+0:0:0:0:0, 5+0:0:0:0:0, 4+0:0:0:0:0, 4+0:0:0:0:0, 4+0:0:0:0:0, 3+2:2:0:0:2, 5+2:0:0:0:0, 5+3:1:0:0:2, 5+1:0:0:0:1, 9+2:0:0:0:0, 6+0:0:0:0:0, 6+1:0:0:0:0, 7+1:0:0:0:0, 11+3:2:1:0:2, 6+0:0:0:0:0, 5+0:0:0:0:0, 6+0:0:0:0:0, 7+3:2:1:0:2, 6+1:0:0:0:1, 5+0:0:0:0:0, 4+0:0:0:0:0, 7+2:1:0:0:1, 4+0:0:0:0:0, 2+0:0:0:0:0, 6+1:0:0:0:1, 6+0:0:0:0:0, 9+3:0:0:0:0, 6+2:1:0:0:0, 5+0:0:0:0:0, 7+3:2:1:0:2, 7+1:0:0:0:1, 7+3:2:0:0:0, 5+1:1:0:0:0, 4+0:0:0:0:0, 5+0:0:0:0:0, 4+0:0:0:0:0, 6+3:2:0:0:0, 5+2:1:0:0:1, 4+0:0:0:0:0, 5+1:0:0:0:0, 5+0:0:0:0:0, 9+7:3:0:0:0, 8+1:0:0:0:1, 7+1:0:0:0:0, 5+0:0:0:0:0, 5+0:0:0:0:0, 7+1:0:0:0:1, 7+2:0:0:0:0, 4+1:0:0:0:0, 1+0:0:0:0:0, 1+0:0:0:0:0, 1+0:0:0:0:0, 1+0:0:0:0:0, 939+181:57:24:0:74
E major (4#), 1+0:0:0:0:0, 4+3:2:1:0:2, 2+2:0:0:0:0, 2+2:0:0:0:0, 1+0:0:0:0:0, 4+3:2:1:0:2, 2+2:0:0:0:0, 2+2:0:0:0:0, 2+1:0:0:0:0, 3+2:0:0:0:0, 3+3:0:0:0:0, 0+0:0:0:0:0, 1+0:0:0:0:0, 1+0:0:0:0:0, 4+4:0:0:0:0, 1+1:0:0:0:0, 1+0:0:0:0:0, 4+3:2:1:0:2, 2+2:0:0:0:0, 2+2:0:0:0:0, 3+6:0:0:0:0, 3+2:0:0:0:0, 2+1:0:0:0:0, 3+1:0:0:0:0, 2+2:0:0:0:0, 4+2:1:0:0:1, 1+1:0:0:0:0, 1+1:0:0:0:0, 2+3:0:0:0:0, 2+2:0:0:0:0, 1+0:0:0:0:0, 2+2:0:0:0:0, 1+0:0:0:0:0, 3+3:2:1:0:2, 4+2:0:0:0:0, 4+5:0:0:0:0, 1+0:0:0:0:0, 8+4:2:2:0:3, 2+0:0:0:0:0, 5+3:0:1:0:1, 2+1:0:0:0:0, 7+4:1:0:0:1, 3+3:1:0:0:1, 1+1:0:0:0:0, 4+4:0:0:0:0, 5+3:0:0:0:0, 2+2:0:0:0:0, 3+1:0:0:0:1, 2+1:0:1:0:1, 4+3:2:1:0:2, 3+1:0:1:0:1, 4+4:0:0:0:1, 4+6:0:0:0:0, 3+1:0:0:0:0, 2+3:0:0:0:0, 3+3:0:0:0:0, 4+4:0:0:0:1, 4+3:2:0:0:2, 5+5:0:2:0:2, 2+2:0:0:0:0, 2+1:0:0:0:0, 3+5:0:0:0:0, 4+6:0:2:0:2, 2+2:0:0:0:0, 1+0:0:0:0:0, 4+3:2:1:0:2, 2+0:0:0:0:0, 4+2:0:0:0:0, 2+3:0:0:0:0, 6+4:2:1:0:2, 2+2:0:0:0:0, 2+2:0:0:0:0, 2+1:0:0:0:0, 5+3:0:0:0:0, 2+2:0:0:0:0, 1+0:0:0:0:0, 3+3:0:0:0:0, 1+0:0:0:0:0, 2+2:0:0:0:0, 1+2:0:0:0:0, 1+0:0:0:0:0, 3+3:2:1:0:2, 3+1:0:0:0:0, 2+1:0:0:0:0, 2+4:0:0:0:0, 4+2:0:0:0:0, 2+1:0:0:0:0, 4+2:0:0:0:0, 2+1:0:0:0:0, 5+2:2:0:0:2, 1+1:0:1:0:1, 4+1:0:0:0:0, 4+4:0:0:0:2, 3+4:1:0:0:0, 1+0:0:0:0:0, 2+2:0:0:0:0, 1+0:0:0:0:0, 6+5:2:1:0:2, 2+2:0:0:0:0, 3+1:1:0:0:0, 3+1:0:0:0:0, 6+5:2:2:0:3, 2+2:0:0:0:0, 3+3:0:0:0:0, 3+2:0:0:0:0, 5+2:0:0:0:0, 4+2:0:0:0:0, 1+0:0:0:0:0, 2+2:0:0:0:0, 2+1:0:0:0:0, 5+3:0:0:0:0, 2+1:1:0:0:0, 1+0:0:0:0:0, 5+3:2:1:0:2, 2+0:0:0:0:0, 2+1:0:0:0:0, 2+2:0:0:0:0, 3+2:0:0:0:0, 2+2:0:0:0:0, 3+3:0:0:0:0, 2+1:0:0:0:0, 3+3:3:0:0:3, 2+3:0:0:0:0, 3+2:0:0:0:0, 3+1:0:0:0:0, 3+2:0:0:0:0, 1+0:0:0:0:0, 3+2:0:0:0:0, 2+1:0:0:0:0, 5+3:2:1:0:2, 2+3:0:0:0:0, 2+2:0:0:0:0, 1+0:0:0:0:0, 3+3:2:1:0:2, 4+1:0:0:0:1, 2+1:0:0:0:0, 2+3:0:0:0:0, 6+3:0:0:0:0, 2+2:0:0:0:0, 1+0:0:0:0:0, 2+2:0:0:0:0, 1+0:0:0:0:0, 6+3:0:0:0:0, 4+3:0:0:0:1, 1+0:0:0:0:0, 3+3:2:1:0:2, 3+1:0:0:0:1, 4+6:2:0:0:2, 3+2:0:0:0:0, 3+1:0:0:0:0, 2+1:0:0:0:0, 3+1:0:0:0:0, 4+4:2:0:0:2, 5+6:4:0:0:4, 1+1:0:0:0:0, 0+0:0:0:0:0, 2+1:0:0:0:0, 6+7:3:0:0:0, 4+1:0:0:0:1, 4+3:0:0:0:0, 1+2:0:0:0:0, 2+1:0:0:0:0, 3+3:0:0:0:0, 5+3:0:0:0:0, 1+0:0:0:0:0, 0+0:0:0:0:0, 0+0:0:0:0:0, 0+0:0:0:0:0, 0+0:0:0:0:0, 452+335:54:25:0:67
F minor (4b), 6+0:0:0:0:0, 9+4:2:1:0:3, 5+0:0:0:0:0, 5+0:0:0:0:0, 6+0:0:0:0:0, 9+4:2:1:0:3, 5+0:0:0:0:0, 5+0:0:0:0:0, 3+2:0:0:0:0, 4+1:0:0:0:0, 4+2:0:0:0:2, 1+0:0:0:0:0, 4+2:0:0:0:0, 6+1:0:0:0:0, 6+1:0:1:0:1, 4+0:0:0:0:0, 6+0:0:0:0:0, 8+3:2:1:0:2, 5+0:0:0:0:0, 5+0:0:0:0:0, 4+2:0:0:0:0, 4+1:0:0:0:0, 4+6:0:0:0:0, 4+1:0:0:0:0, 3+1:0:0:0:0, 3+4:4:0:0:4, 6+1:0:0:0:1, 6+2:0:0:0:0, 3+0:0:0:0:0, 8+1:0:0:0:0, 5+0:0:0:0:0, 5+0:0:0:0:0, 6+3:0:0:0:0, 8+3:2:1:0:2, 7+1:0:0:0:0, 8+2:0:0:0:1, 7+1:0:0:0:0, 11+4:2:2:0:3, 5+0:0:0:0:0, 8+2:0:1:0:2, 5+1:0:0:0:0, 9+3:0:0:0:0, 5+1:1:0:0:0, 4+1:0:0:0:0, 8+3:0:0:0:1, 7+1:0:0:0:1, 6+0:0:0:0:0, 5+1:0:0:0:1, 6+1:0:1:0:1, 9+3:2:1:0:2, 6+1:0:1:0:1, 6+1:0:0:0:1, 5+2:0:0:0:0, 5+3:0:0:0:0, 4+3:0:0:0:0, 5+2:0:0:0:0, 8+2:0:0:0:0, 3+2:1:0:0:0, 8+3:1:2:0:2, 8+2:0:0:0:0, 3+0:0:0:0:0, 7+2:0:0:0:2, 9+4:0:0:0:1, 5+0:0:0:0:0, 5+0:0:0:0:0, 8+3:2:1:0:2, 5+0:0:0:0:0, 7+1:0:0:0:1, 5+0:0:0:0:0, 11+4:2:1:0:2, 5+0:0:0:0:0, 5+0:0:0:0:0, 4+1:0:0:0:0, 5+3:0:0:0:0, 4+2:0:0:0:0, 0+0:0:0:0:0, 6+4:0:0:0:4, 6+1:0:0:0:0, 5+0:0:0:0:0, 4+0:0:0:0:0, 5+0:0:0:0:0, 7+3:2:1:0:2, 5+1:0:0:0:0, 5+0:0:0:0:0, 4+2:0:0:0:0, 6+2:0:0:0:1, 4+2:0:0:0:0, 5+2:0:0:0:0, 4+2:0:0:0:0, 5+2:1:0:0:1, 6+1:0:1:0:1, 5+2:1:0:0:1, 5+2:0:0:0:1, 9+4:0:0:0:1, 5+0:0:0:0:0, 6+0:0:0:0:0, 5+0:0:0:0:0, 11+5:2:1:0:3, 5+0:0:0:0:0, 6+1:1:0:0:0, 8+1:0:0:0:0, 11+5:2:2:0:3, 5+0:0:0:0:0, 6+1:0:0:0:0, 4+2:0:0:0:0, 5+2:0:0:0:0, 5+3:0:0:0:1, 0+0:0:0:0:0, 6+4:0:0:0:1, 6+4:0:0:0:4, 7+3:0:0:0:0, 4+1:1:0:0:0, 5+0:0:0:0:0, 9+3:2:1:0:2, 5+0:0:0:0:0, 6+0:0:0:0:0, 4+2:0:0:0:0, 5+3:0:0:0:0, 4+1:0:0:0:0, 4+1:0:0:0:0, 4+1:0:0:0:0, 3+2:2:0:0:2, 5+2:0:0:0:0, 5+3:1:0:0:2, 5+1:0:0:0:1, 9+2:0:0:0:0, 6+0:0:0:0:0, 6+1:0:0:0:0, 7+1:0:0:0:1, 10+4:3:1:0:3, 6+0:0:0:0:0, 5+0:0:0:0:0, 6+0:0:0:0:0, 7+3:2:1:0:2, 6+1:0:0:0:1, 5+0:0:0:0:0, 4+3:0:0:0:0, 7+3:0:0:0:1, 4+0:0:0:0:0, 2+0:0:0:0:0, 6+1:0:0:0:1, 6+2:0:0:0:0, 9+3:0:0:0:0, 6+2:1:0:0:0, 5+0:0:0:0:0, 7+3:2:1:0:2, 7+1:0:0:0:1, 7+3:0:0:0:1, 5+3:0:0:0:0, 4+2:0:0:0:0, 5+1:0:0:0:0, 4+1:0:0:0:0, 6+3:0:0:0:0, 5+2:1:0:0:1, 4+0:0:0:0:0, 5+1:0:0:0:1, 5+0:0:0:0:0, 9+5:0:0:0:2, 8+1:0:0:0:1, 7+1:0:0:0:0, 5+0:0:0:0:0, 5+0:0:0:0:0, 7+1:0:0:0:1, 7+2:0:0:0:0, 4+1:0:0:0:0, 1+0:0:0:0:0, 1+0:0:0:0:0, 1+0:0:0:0:0, 1+0:0:0:0:0, 938+249:47:24:0:92
C# minor (4#), 1+1:0:0:0:0, 4+3:2:1:0:3, 2+4:0:0:0:0, 2+4:0:0:0:0, 1+1:0:0:0:0, 4+3:2:1:0:3, 2+4:0:0:0:0, 2+2:0:0:0:0, 2+1:0:0:0:0, 3+2:0:0:0:0, 3+0:0:0:0:0, 0+0:0:0:0:0, 1+1:0:0:0:0, 1+2:0:0:0:0, 4+7:0:0:0:1, 1+2:0:0:0:0, 1+1:0:0:0:0, 4+6:2:1:0:3, 2+4:0:0:0:0, 2+2:0:0:0:0, 3+6:0:0:0:0, 3+2:0:0:0:0, 2+1:0:0:0:0, 3+1:0:0:0:0, 2+2:0:0:0:0, 4+2:1:0:0:1, 1+1:0:0:0:0, 1+1:0:0:0:0, 2+3:0:0:0:0, 2+4:0:0:0:0, 1+1:0:0:0:0, 2+4:0:0:0:0, 1+1:0:0:0:0, 3+4:2:1:0:3, 4+4:0:0:0:0, 5+7:0:0:0:0, 1+1:0:0:0:0, 8+8:2:2:0:3, 2+1:0:0:0:0, 5+3:0:1:0:1, 2+1:0:0:0:0, 7+4:1:0:0:1, 3+3:1:0:0:1, 1+1:0:0:0:1, 3+6:0:1:0:0, 5+4:0:0:0:0, 2+2:0:0:0:0, 3+3:0:0:0:0, 2+1:0:0:0:0, 4+4:2:1:0:3, 3+5:0:1:0:0, 4+4:0:0:0:1, 4+6:0:0:0:0, 3+1:0:0:0:0, 2+3:0:0:0:0, 3+3:0:0:0:0, 4+4:0:0:0:1, 4+3:2:0:0:2, 4+6:1:2:0:1, 2+3:0:0:0:0, 2+0:0:0:0:0, 3+4:0:0:0:0, 4+5:0:2:0:0, 2+4:0:0:0:0, 1+1:0:0:0:0, 4+4:2:1:0:3, 2+4:0:0:0:0, 4+5:0:0:0:0, 2+2:0:0:0:0, 6+6:2:1:0:3, 2+5:0:0:0:0, 2+1:0:0:0:0, 2+1:0:0:0:0, 5+3:0:0:0:0, 2+2:0:0:0:0, 1+0:0:0:0:0, 3+4:0:0:0:0, 1+1:0:0:0:0, 2+4:0:0:0:0, 1+4:0:0:0:0, 1+1:0:0:0:0, 3+4:2:1:0:3, 3+2:0:0:0:1, 2+1:0:0:0:0, 2+4:0:0:0:0, 4+2:0:0:0:0, 2+1:0:0:0:0, 4+2:0:0:0:0, 2+1:0:0:0:0, 5+2:2:0:0:2, 1+1:0:1:0:1, 4+1:0:0:0:0, 4+1:1:0:0:1, 3+8:1:0:0:1, 1+1:0:0:0:0, 2+4:0:0:0:0, 1+1:0:0:0:0, 6+5:2:1:0:4, 2+5:0:0:0:0, 4+2:0:0:0:0, 3+2:0:0:0:0, 6+7:2:2:0:3, 2+5:0:0:0:0, 3+3:0:0:0:0, 3+2:0:0:0:0, 5+2:0:0:0:0, 4+2:0:0:0:0, 1+0:0:0:0:0, 2+2:0:0:0:0, 2+3:0:0:0:1, 5+6:0:0:0:1, 3+3:0:0:0:0, 1+1:0:0:0:0, 5+4:2:1:0:3, 2+4:0:0:0:0, 2+1:0:0:0:0, 2+2:0:0:0:0, 3+2:0:0:0:0, 2+2:0:0:0:0, 3+3:0:0:0:0, 2+1:0:0:0:0, 3+3:3:0:0:3, 2+3:0:0:0:0, 3+2:0:0:0:0, 3+6:0:0:0:0, 3+4:0:0:0:0, 1+2:0:0:0:0, 3+4:0:0:0:0, 2+4:0:0:0:0, 5+4:2:1:0:3, 2+6:0:0:0:0, 2+4:0:0:0:0, 1+1:0:0:0:0, 3+4:2:1:0:3, 4+1:0:0:0:0, 2+1:0:0:0:0, 2+3:0:0:0:0, 6+3:0:0:0:0, 2+2:0:0:0:0, 1+2:0:0:0:0, 2+3:0:0:0:0, 1+1:0:0:0:0, 6+6:0:0:0:1, 4+6:0:0:0:0, 1+2:0:0:0:0, 3+4:2:1:0:3, 3+7:0:0:0:0, 4+6:2:0:0:2, 3+2:0:0:0:0, 3+1:0:0:0:0, 2+1:0:0:0:0, 3+1:0:0:0:0, 4+4:2:0:0:2, 5+6:4:0:0:4, 1+1:0:0:0:0, 0+1:0:0:0:0, 2+6:0:0:0:0, 6+9:3:0:0:5, 4+5:0:0:0:0, 4+3:0:0:0:0, 1+1:0:0:0:0, 2+1:0:0:0:0, 3+2:0:0:0:0, 5+4:1:0:0:1, 1+0:0:0:0:0, 0+0:0:0:0:0, 0+0:0:0:0:0, 0+0:0:0:0:0, 0+0:0:0:0:0, 453+482:55:25:0:83
Db major (5b), 6+0:0:0:0:0, 9+4:2:1:0:3, 6+0:0:0:0:0, 6+0:0:0:0:0, 6+0:0:0:0:0, 9+4:2:1:0:3, 6+0:0:0:0:0, 6+0:0:0:0:0, 3+0:0:0:0:0, 5+0:0:0:0:0, 5+2:0:0:0:2, 1+0:0:0:0:0, 4+2:0:0:0:0, 6+1:0:0:0:0, 7+1:0:1:0:1, 5+0:0:0:0:0, 6+0:0:0:0:0, 8+3:2:1:0:2, 6+0:0:0:0:0, 6+0:0:0:0:0, 4+2:0:0:0:0, 5+0:0:0:0:0, 5+0:0:0:0:0, 5+0:0:0:0:0, 4+0:0:0:0:0, 4+2:1:0:0:0, 6+1:0:0:0:0, 6+1:0:0:0:0, 4+0:0:0:0:0, 8+1:0:0:0:0, 5+0:0:0:0:0, 6+0:0:0:0:0, 6+0:0:0:0:0, 8+3:2:1:0:2, 8+1:0:0:0:0, 9+2:0:0:0:1, 7+1:0:0:0:0, 12+4:2:2:0:3, 6+0:0:0:0:0, 9+2:0:1:0:2, 5+0:0:0:0:0, 10+3:1:0:0:1, 6+1:1:0:0:0, 2+2:1:0:0:1, 8+3:0:0:0:1, 8+1:0:0:0:1, 7+0:0:0:0:0, 6+1:0:0:0:1, 6+1:0:1:0:1, 9+3:2:1:0:2, 7+1:0:1:0:1, 7+2:0:0:0:0, 6+3:0:0:0:1, 6+1:0:0:0:1, 5+0:0:0:0:0, 6+0:0:0:0:0, 9+2:0:0:0:0, 4+2:1:0:0:0, 9+3:1:2:0:2, 8+2:0:0:0:0, 4+0:0:0:0:0, 7+2:0:0:0:0, 9+4:0:0:0:1, 6+1:0:0:0:0, 5+0:0:0:0:0, 8+3:2:1:0:2, 6+0:0:0:0:0, 8+1:0:0:0:1, 6+0:0:0:0:0, 11+4:2:1:0:2, 6+0:0:0:0:0, 6+0:0:0:0:0, 4+0:0:0:0:0, 6+1:1:0:0:0, 5+0:0:0:0:0, 1+0:0:0:0:0, 6+2:0:0:0:2, 6+0:0:0:0:0, 6+0:0:0:0:0, 5+0:0:0:0:0, 5+0:0:0:0:0, 7+3:2:1:0:2, 6+1:0:0:0:0, 6+0:0:0:0:0, 4+0:0:0:0:0, 7+1:0:0:0:1, 5+0:0:0:0:0, 6+1:1:0:0:0, 5+0:0:0:0:0, 6+2:2:0:0:0, 6+1:0:1:0:1, 6+2:1:0:0:1, 6+2:0:0:0:1, 9+4:0:0:0:1, 5+0:0:0:0:0, 7+0:0:0:0:0, 5+0:0:0:0:0, 12+5:2:1:0:3, 6+0:0:0:0:0, 7+1:1:0:0:0, 8+1:0:0:0:0, 11+5:2:2:0:3, 6+0:0:0:0:0, 7+1:0:0:0:0, 5+0:0:0:0:0, 6+1:1:0:0:0, 6+1:0:0:0:1, 1+0:0:0:0:0, 6+1:0:0:0:1, 6+1:0:0:0:0, 8+3:0:0:0:0, 5+1:1:0:0:0, 5+0:0:0:0:0, 9+3:2:1:0:2, 6+0:0:0:0:0, 7+0:0:0:0:0, 4+0:0:0:0:0, 6+0:0:0:0:0, 5+0:0:0:0:0, 5+0:0:0:0:0, 5+0:0:0:0:0, 4+3:3:0:0:0, 6+3:0:0:0:0, 5+3:1:0:0:2, 6+1:0:0:0:1, 9+2:0:0:0:0, 6+0:0:0:0:0, 7+1:0:0:0:0, 7+1:0:0:0:0, 11+3:2:1:0:2, 7+0:0:0:0:0, 6+0:0:0:0:0, 6+0:0:0:0:0, 7+3:2:1:0:2, 7+1:0:0:0:1, 6+0:0:0:0:0, 4+0:0:0:0:0, 8+2:1:0:0:1, 5+0:0:0:0:0, 3+0:0:0:0:0, 6+1:0:0:0:1, 6+0:0:0:0:0, 10+3:0:0:0:0, 7+2:1:0:0:0, 5+0:0:0:0:0, 7+3:2:1:0:2, 8+1:0:0:0:1, 8+3:2:0:0:0, 5+1:1:0:0:0, 5+0:0:0:0:0, 6+0:0:0:0:0, 5+0:0:0:0:0, 7+3:2:0:0:0, 6+6:4:0:0:1, 5+1:0:0:0:0, 5+1:0:0:0:1, 6+0:0:0:0:0, 9+5:3:0:0:1, 9+1:0:0:0:1, 8+1:0:0:0:0, 5+0:0:0:0:0, 6+0:0:0:0:0, 7+1:0:0:0:1, 8+2:0:0:0:0, 4+1:0:0:0:0, 0+0:0:0:0:0, 0+0:0:0:0:0, 0+0:0:0:0:0, 0+0:0:0:0:0, 1034+186:62:24:0:75
B major (5#), 2+1:0:0:0:0, 5+5:2:1:0:3, 3+2:0:0:0:0, 3+2:0:0:0:0, 2+1:0:0:0:0, 5+5:2:1:0:3, 3+2:0:0:0:0, 3+2:0:0:0:0, 3+4:0:0:0:0, 4+5:0:0:0:0, 2+0:0:0:0:0, 0+0:0:0:0:0, 1+2:0:0:0:0, 2+2:0:0:0:0, 5+2:0:0:0:0, 2+1:0:0:0:0, 2+1:0:0:0:0, 5+4:2:1:0:3, 3+2:0:0:0:0, 3+2:0:0:0:0, 4+2:0:0:0:0, 4+4:0:0:0:0, 2+0:0:0:0:0, 4+4:0:0:0:0, 2+0:0:0:0:0, 4+2:1:0:0:1, 2+1:0:0:0:0, 2+1:0:0:0:0, 2+0:0:0:0:0, 3+2:0:0:0:0, 2+1:0:0:0:0, 3+1:0:0:0:0, 2+5:0:0:0:0, 4+4:2:1:0:3, 5+5:0:0:0:0, 5+4:0:0:0:1, 2+3:0:0:0:0, 9+8:2:2:0:3, 3+1:0:0:0:0, 6+3:0:1:0:1, 3+4:0:0:0:0, 8+4:1:0:0:1, 4+3:1:0:0:1, 1+1:0:0:0:1, 4+6:0:1:0:0, 6+4:0:0:0:0, 3+2:0:0:0:0, 4+3:0:0:0:0, 3+3:0:1:0:0, 5+4:2:1:0:3, 4+2:0:1:0:1, 5+4:0:0:0:1, 5+6:0:0:0:0, 4+1:0:0:0:0, 3+2:0:0:0:0, 4+4:0:0:0:0, 5+4:0:0:0:1, 4+3:1:0:0:1, 5+6:1:2:0:1, 3+3:0:0:0:0, 2+0:0:0:0:0, 4+3:0:0:0:1, 5+5:0:2:0:0, 3+1:0:0:0:0, 2+2:0:0:0:0, 5+5:2:1:0:3, 3+2:0:0:0:0, 5+2:0:0:0:0, 3+2:0:0:0:0, 7+6:2:1:0:3, 3+1:0:0:0:0, 3+1:0:0:0:0, 3+6:0:0:0:0, 6+3:0:0:0:0, 3+1:0:0:0:0, 1+0:0:0:0:0, 2+2:0:0:0:0, 2+2:0:0:0:0, 3+1:0:0:0:0, 2+2:0:0:0:0, 2+3:0:0:0:0, 4+4:2:1:0:3, 4+2:0:0:0:1, 3+1:0:0:0:0, 3+2:0:0:0:0, 5+6:0:0:0:0, 3+1:0:0:0:0, 5+6:0:0:0:0, 3+1:0:0:0:0, 6+2:2:0:0:2, 2+5:0:1:0:0, 5+1:0:0:0:0, 3+1:1:0:0:1, 3+6:0:0:0:0, 2+1:0:0:0:0, 3+2:0:0:0:0, 2+3:0:0:0:0, 7+7:2:1:0:3, 3+1:0:0:0:0, 5+2:0:0:0:0, 4+3:0:0:0:1, 7+7:2:2:0:3, 3+1:0:0:0:0, 4+3:0:0:0:0, 4+2:0:0:0:0, 6+2:0:0:0:0, 3+2:0:0:0:0, 1+0:0:0:0:0, 1+1:0:0:0:0, 3+6:0:0:0:0, 6+6:0:0:0:1, 4+3:0:0:0:0, 2+1:0:0:0:0, 6+5:2:1:0:3, 3+1:0:0:0:0, 3+1:0:0:0:0, 3+2:0:0:0:0, 4+7:0:0:0:0, 3+2:0:0:0:0, 4+4:0:0:0:0, 3+1:0:0:0:0, 4+3:2:0:0:2, 3+3:0:0:0:0, 4+2:0:0:0:0, 3+1:0:0:0:0, 4+4:0:0:0:0, 2+3:0:0:0:0, 4+3:0:0:0:0, 3+3:0:0:0:0, 6+5:2:1:0:3, 3+2:0:0:0:0, 3+1:0:0:0:0, 2+3:0:0:0:0, 4+4:2:1:0:3, 3+1:0:0:0:0, 3+1:0:0:0:0, 3+5:0:0:0:0, 7+3:0:0:0:0, 3+1:0:0:0:0, 2+2:0:0:0:0, 1+1:0:0:0:0, 2+4:0:0:0:0, 7+6:0:0:0:0, 5+2:0:0:0:0, 2+3:0:0:0:0, 4+5:2:1:0:3, 4+2:0:0:0:0, 6+4:0:0:0:0, 4+2:0:0:0:0, 4+1:0:0:0:0, 3+1:0:0:0:0, 4+4:0:0:0:0, 6+3:0:0:0:1, 6+6:3:0:0:3, 2+3:0:0:0:0, 1+1:0:0:0:0, 3+2:0:0:0:0, 6+9:2:1:0:3, 5+2:0:0:0:0, 5+3:0:0:0:0, 2+2:0:0:0:0, 3+1:0:0:0:0, 4+2:0:0:0:0, 6+4:1:0:0:1, 2+1:0:0:0:0, 0+0:0:0:0:0, 0+0:0:0:0:0, 0+0:0:0:0:0, 0+0:0:0:0:0, 591+453:46:27:0:73
Bb minor (5b), 6+0:0:0:0:0, 9+4:2:1:0:3, 6+0:0:0:0:0, 6+0:0:0:0:0, 6+0:0:0:0:0, 9+4:2:1:0:3, 6+0:0:0:0:0, 6+0:0:0:0:0, 3+0:0:0:0:0, 5+0:0:0:0:0, 5+2:0:0:0:2, 1+0:0:0:0:0, 4+2:0:0:0:0, 6+1:0:0:0:0, 7+1:0:1:0:1, 5+0:0:0:0:0, 6+0:0:0:0:0, 8+3:2:1:0:2, 6+0:0:0:0:0, 6+0:0:0:0:0, 4+2:0:0:0:0, 5+0:0:0:0:0, 5+0:0:0:0:0, 5+0:0:0:0:0, 4+0:0:0:0:0, 4+2:1:0:0:0, 6+1:0:0:0:0, 6+1:0:0:0:0, 4+0:0:0:0:0, 8+1:0:0:0:0, 5+0:0:0:0:0, 6+0:0:0:0:0, 6+0:0:0:0:0, 8+3:2:1:0:2, 8+1:0:0:0:0, 9+2:0:0:0:1, 7+1:0:0:0:0, 12+4:2:2:0:3, 6+0:0:0:0:0, 9+2:0:1:0:2, 5+0:0:0:0:0, 10+3:1:0:0:1, 6+1:1:0:0:0, 2+2:1:0:0:1, 8+3:0:0:0:1, 8+1:0:0:0:1, 7+1:0:0:0:0, 6+1:0:0:0:1, 6+1:0:1:0:1, 9+3:2:1:0:2, 7+1:0:1:0:1, 7+2:0:0:0:0, 6+3:0:0:0:1, 6+1:0:0:0:1, 5+0:0:0:0:0, 6+0:0:0:0:0, 9+2:0:0:0:0, 4+2:1:0:0:0, 9+3:1:2:0:2, 8+2:0:0:0:0, 4+0:0:0:0:0, 7+2:0:0:0:0, 9+4:0:0:0:1, 6+1:0:0:0:0, 5+0:0:0:0:0, 8+3:2:1:0:2, 6+0:0:0:0:0, 8+1:0:0:0:1, 6+0:0:0:0:0, 11+7:2:1:0:3, 6+1:0:0:0:0, 6+1:0:0:0:0, 4+0:0:0:0:0, 6+1:1:0:0:0, 5+0:0:0:0:0, 1+0:0:0:0:0, 6+2:0:0:0:2, 6+0:0:0:0:0, 6+0:0:0:0:0, 5+0:0:0:0:0, 5+0:0:0:0:0, 7+3:2:1:0:2, 6+1:0:0:0:0, 6+0:0:0:0:0, 4+0:0:0:0:0, 7+1:0:0:0:1, 5+0:0:0:0:0, 6+1:1:0:0:0, 5+0:0:0:0:0, 6+2:1:0:0:1, 6+1:0:1:0:1, 6+2:1:0:0:1, 6+2:0:0:0:1, 9+4:0:0:0:1, 5+0:0:0:0:0, 7+2:0:0:0:0, 5+0:0:0:0:0, 12+5:2:1:0:2, 6+1:0:0:0:0, 7+1:1:0:0:0, 8+1:0:0:0:0, 11+5:2:2:0:3, 6+0:0:0:0:0, 7+1:0:0:0:0, 5+0:0:0:0:0, 6+1:1:0:0:0, 6+1:0:0:0:1, 1+0:0:0:0:0, 6+1:0:0:0:1, 6+1:0:0:0:0, 8+3:0:0:0:0, 5+1:1:0:0:0, 5+0:0:0:0:0, 9+3:2:1:0:2, 6+0:0:0:0:0, 7+0:0:0:0:0, 4+0:0:0:0:0, 6+0:0:0:0:0, 5+0:0:0:0:0, 5+0:0:0:0:0, 5+0:0:0:0:0, 4+2:2:0:0:2, 6+3:0:0:0:0, 5+3:1:0:0:2, 6+1:0:0:0:1, 9+2:0:0:0:0, 6+0:0:0:0:0, 7+1:0:0:0:0, 7+1:0:0:0:0, 11+3:2:1:0:2, 7+0:0:0:0:0, 6+0:0:0:0:0, 6+0:0:0:0:0, 7+3:2:1:0:2, 7+1:0:0:0:1, 6+0:0:0:0:0, 4+0:0:0:0:0, 8+2:1:0:0:1, 5+0:0:0:0:0, 3+0:0:0:0:0, 6+1:0:0:0:1, 6+0:0:0:0:0, 10+3:0:0:0:0, 7+2:1:0:0:0, 5+0:0:0:0:0, 7+3:2:1:0:2, 8+1:0:0:0:1, 8+3:2:0:0:0, 5+1:1:0:0:0, 5+0:0:0:0:0, 6+0:0:0:0:0, 5+0:0:0:0:0, 7+3:2:0:0:0, 6+2:1:0:0:1, 5+1:0:0:0:0, 5+1:0:0:0:1, 6+0:0:0:0:0, 9+5:3:0:0:1, 9+1:0:0:0:1, 8+1:0:0:0:0, 5+0:0:0:0:0, 6+0:0:0:0:0, 7+1:0:0:0:1, 8+2:0:0:0:0, 4+1:0:0:0:0, 0+0:0:0:0:0, 0+0:0:0:0:0, 0+0:0:0:0:0, 0+0:0:0:0:0, 1034+190:57:24:0:78
G# minor (5#), 2+1:0:0:0:0, 5+3:2:1:0:3, 3+2:0:0:0:0, 3+2:0:0:0:0, 2+1:0:0:0:0, 5+3:2:1:0:3, 3+2:0:0:0:0, 3+2:0:0:0:0, 3+4:0:0:0:0, 4+5:0:0:0:0, 2+0:0:0:0:0, 0+0:0:0:0:0, 1+1:0:0:0:0, 2+2:0:0:0:0, 5+2:0:0:0:0, 2+1:0:0:0:0, 2+1:0:0:0:0, 5+4:2:1:0:3, 3+2:0:0:0:0, 3+2:0:0:0:0, 4+2:0:0:0:0, 4+4:0:0:0:0, 2+0:0:0:0:0, 4+4:0:0:0:0, 2+0:0:0:0:0, 4+2:1:0:0:1, 2+1:0:0:0:0, 2+1:0:0:0:0, 2+0:0:0:0:0, 3+4:0:0:0:0, 2+1:0:0:0:0, 3+1:0:0:0:0, 2+1:0:0:0:0, 4+4:2:1:0:3, 5+5:0:0:0:0, 5+4:0:0:0:1, 2+1:0:0:0:0, 9+8:2:2:0:3, 3+1:0:0:0:0, 6+3:0:1:0:1, 3+4:0:0:0:0, 8+4:1:0:0:1, 4+2:1:0:0:1, 1+1:0:0:0:1, 4+6:0:1:0:0, 6+4:0:0:0:0, 3+2:0:0:0:0, 4+3:0:0:0:0, 3+3:0:1:0:0, 5+4:2:1:0:3, 4+2:0:1:0:1, 5+4:0:0:0:1, 5+6:0:0:0:0, 4+1:0:0:0:0, 3+2:0:0:0:0, 4+4:0:0:0:0, 5+4:0:0:0:1, 4+3:1:0:0:1, 5+6:1:2:0:1, 3+3:0:0:0:0, 2+0:0:0:0:0, 4+4:0:0:0:0, 5+5:0:2:0:0, 3+1:0:0:0:0, 2+2:0:0:0:0, 5+5:2:1:0:3, 3+2:0:0:0:0, 5+2:0:0:0:0, 3+2:0:0:0:0, 7+6:2:1:0:3, 3+1:0:0:0:0, 3+1:0:0:0:0, 3+6:0:0:0:0, 6+3:0:0:0:0, 3+1:0:0:0:0, 1+0:0:0:0:0, 2+2:0:0:0:0, 2+2:0:0:0:0, 3+1:0:0:0:0, 2+2:0:0:0:0, 2+3:0:0:0:0, 4+4:2:1:0:3, 4+2:0:0:0:1, 3+1:0:0:0:0, 3+2:0:0:0:0, 5+6:0:0:0:0, 3+1:0:0:0:0, 5+6:0:0:0:0, 3+1:0:0:0:0, 6+2:2:0:0:2, 2+1:0:1:0:1, 6+5:0:0:0:1, 3+1:1:0:0:1, 3+8:0:0:0:0, 2+1:0:0:0:0, 3+2:0:0:0:0, 2+1:0:0:0:0, 7+5:2:1:0:4, 3+1:0:0:0:0, 5+2:0:0:0:0, 4+3:0:0:0:1, 7+7:2:2:0:3, 3+1:0:0:0:0, 4+3:0:0:0:0, 4+2:0:0:0:0, 6+2:0:0:0:0, 3+2:0:0:0:0, 1+0:0:0:0:0, 1+1:0:0:0:0, 3+3:0:0:0:1, 6+6:0:0:0:1, 4+3:0:0:0:0, 2+1:0:0:0:0, 6+5:2:1:0:3, 3+1:0:0:0:0, 3+1:0:0:0:0, 3+2:0:0:0:0, 4+7:0:0:0:0, 3+2:0:0:0:0, 4+4:0:0:0:0, 3+1:0:0:0:0, 4+3:2:0:0:2, 3+4:0:0:0:2, 4+2:0:0:0:0, 3+1:0:0:0:0, 4+4:0:0:0:0, 2+2:0:0:0:0, 4+3:0:0:0:0, 3+4:0:0:0:0, 6+4:2:1:0:3, 3+2:0:0:0:0, 3+1:0:0:0:0, 2+3:0:0:0:0, 4+4:2:1:0:3, 3+1:0:0:0:0, 3+1:0:0:0:0, 3+5:0:0:0:0, 7+3:0:0:0:0, 3+1:0:0:0:0, 2+2:0:0:0:0, 1+1:0:0:0:0, 2+4:0:0:0:0, 7+6:0:0:0:0, 5+2:0:0:0:0, 2+3:0:0:0:0, 4+5:2:1:0:3, 4+2:0:0:0:0, 6+4:0:0:0:0, 4+5:0:0:0:3, 4+6:0:0:0:0, 3+1:0:0:0:0, 4+4:0:0:0:0, 6+3:0:0:0:1, 6+6:3:0:0:3, 2+3:0:0:0:0, 1+1:0:0:0:0, 3+2:0:0:0:0, 6+9:2:1:0:3, 5+2:0:0:0:0, 5+3:0:0:0:0, 2+2:0:0:0:0, 3+1:0:0:0:0, 4+2:0:0:0:0, 6+4:1:0:0:1, 2+1:0:0:0:0, 0+0:0:0:0:0, 0+1:0:0:0:0, 0+1:0:0:0:0, 0+1:0:0:0:0, 592+450:46:27:0:81
Gb major (6b), 6+0:0:0:0:0, 9+4:2:1:0:2, 6+0:0:0:0:0, 6+0:0:0:0:0, 6+0:0:0:0:0, 9+4:2:1:0:2, 6+0:0:0:0:0, 6+0:0:0:0:0, 4+0:0:0:0:0, 6+0:0:0:0:0, 5+2:0:0:0:2, 1+0:0:0:0:0, 4+0:0:0:0:0, 6+0:0:0:0:0, 7+1:0:1:0:1, 5+0:0:0:0:0, 6+0:0:0:0:0, 8+3:2:1:0:2, 6+0:0:0:0:0, 6+0:0:0:0:0, 5+2:0:0:0:0, 6+0:0:0:0:0, 5+0:0:0:0:0, 6+0:0:0:0:0, 4+0:0:0:0:0, 5+2:1:0:0:0, 6+1:0:0:0:1, 6+2:0:0:0:0, 4+2:0:0:0:0, 8+1:0:0:0:0, 5+0:0:0:0:0, 6+0:0:0:0:0, 6+0:0:0:0:0, 8+3:2:1:0:2, 8+1:0:0:0:0, 9+2:0:0:0:1, 7+0:0:0:0:0, 12+4:2:2:0:3, 6+0:0:0:0:0, 9+2:0:1:0:2, 6+0:0:0:0:0, 11+3:1:0:0:1, 6+1:1:0:0:0, 2+2:1:0:0:1, 9+3:0:0:0:1, 9+1:0:0:0:1, 7+0:0:0:0:0, 6+1:0:0:0:1, 6+1:0:1:0:1, 9+3:2:1:0:2, 7+1:0:1:0:1, 7+2:0:0:0:0, 7+3:0:0:0:1, 7+1:0:0:0:1, 5+0:0:0:0:0, 7+0:0:0:0:0, 9+2:0:0:0:0, 5+2:1:0:0:0, 9+3:1:2:0:2, 8+2:0:0:0:0, 4+1:0:0:0:0, 7+3:0:0:0:0, 10+6:0:0:0:0, 6+0:0:0:0:0, 5+0:0:0:0:0, 8+3:2:1:0:2, 6+0:0:0:0:0, 8+1:0:0:0:1, 6+0:0:0:0:0, 11+4:2:1:0:2, 6+0:0:0:0:0, 6+0:0:0:0:0, 5+0:0:0:0:0, 7+1:1:0:0:0, 5+0:0:0:0:0, 1+0:0:0:0:0, 6+2:0:0:0:2, 6+0:0:0:0:0, 6+0:0:0:0:0, 5+0:0:0:0:0, 5+0:0:0:0:0, 7+3:2:1:0:2, 6+1:0:0:0:0, 6+0:0:0:0:0, 5+0:0:0:0:0, 8+1:0:0:0:1, 5+0:0:0:0:0, 7+1:1:0:0:0, 5+0:0:0:0:0, 7+2:2:0:0:0, 6+1:0:1:0:1, 7+2:1:0:0:1, 6+2:0:0:0:1, 9+4:0:0:0:1, 5+0:0:0:0:0, 7+0:0:0:0:0, 5+0:0:0:0:0, 12+5:2:1:0:3, 6+0:0:0:0:0, 7+1:1:0:0:0, 8+1:0:0:0:0, 11+5:2:2:0:3, 6+0:0:0:0:0, 7+1:0:0:0:0, 6+0:0:0:0:0, 7+1:1:0:0:0, 6+1:0:0:0:1, 1+0:0:0:0:0, 6+1:0:0:0:1, 7+1:0:0:0:0, 8+3:0:0:0:0, 5+1:1:0:0:0, 5+0:0:0:0:0, 9+3:2:1:0:2, 6+0:0:0:0:0, 7+0:0:0:0:0, 5+0:0:0:0:0, 7+0:0:0:0:0, 5+0:0:0:0:0, 6+0:0:0:0:0, 5+0:0:0:0:0, 5+3:3:0:0:0, 6+3:0:0:0:0, 6+3:1:0:0:2, 6+1:0:0:0:1, 9+2:0:0:0:0, 6+0:0:0:0:0, 7+1:0:0:0:0, 7+1:0:0:0:0, 11+3:2:1:0:2, 7+0:0:0:0:0, 6+0:0:0:0:0, 6+0:0:0:0:0, 7+3:2:1:0:2, 7+1:0:0:0:1, 6+0:0:0:0:0, 5+0:0:0:0:0, 9+2:1:0:0:1, 5+0:0:0:0:0, 3+0:0:0:0:0, 6+1:0:0:0:1, 6+0:0:0:0:0, 10+3:0:0:0:0, 7+2:1:0:0:0, 5+0:0:0:0:0, 7+3:2:1:0:2, 8+1:0:0:0:1, 8+3:2:0:0:0, 6+1:1:0:0:0, 6+0:0:0:0:0, 6+0:0:0:0:0, 6+0:0:0:0:0, 7+3:2:0:0:0, 7+6:4:0:0:1, 5+0:0:0:0:0, 5+1:0:0:0:0, 6+0:0:0:0:0, 10+7:3:0:0:0, 9+1:0:0:0:1, 8+1:0:0:0:0, 5+0:0:0:0:0, 6+0:0:0:0:0, 7+1:0:0:0:1, 8+2:0:0:0:0, 4+1:0:0:0:0, 0+0:0:0:0:0, 0+0:0:0:0:0, 0+0:0:0:0:0, 0+0:0:0:0:0, 1071+189:62:24:0:71
F# major (6#), 3+1:0:0:0:0, 6+7:2:1:0:3, 4+4:0:0:0:0, 4+4:0:0:0:0, 3+1:0:0:0:0, 6+7:2:1:0:3, 4+4:0:0:0:0, 4+4:0:0:0:0, 3+2:0:0:0:2, 5+5:0:0:0:0, 2+0:0:0:0:0, 0+0:0:0:0:0, 2+1:0:0:0:0, 3+2:0:0:0:0, 6+7:0:0:0:1, 3+2:0:0:0:0, 3+1:0:0:0:0, 6+6:2:1:0:3, 4+4:0:0:0:0, 4+4:0:0:0:0, 4+1:0:0:0:1, 5+4:0:0:0:0, 3+0:0:0:0:0, 5+4:0:0:0:0, 2+0:0:0:0:0, 5+2:1:0:0:1, 3+1:0:0:0:0, 2+2:0:0:0:0, 3+0:0:0:0:0, 4+4:0:0:0:0, 3+1:0:0:0:0, 4+4:0:0:0:0, 3+1:0:0:0:0, 5+4:2:1:0:3, 6+4:0:0:0:0, 7+7:0:0:0:0, 3+1:0:0:0:0, 10+8:2:2:0:3, 4+1:0:0:0:0, 7+3:0:1:0:1, 4+3:0:0:0:2, 9+9:1:0:0:4, 4+2:1:0:0:1, 1+2:0:0:0:0, 5+6:0:1:0:0, 7+4:0:0:0:0, 4+2:0:0:0:0, 5+3:0:0:0:0, 4+1:0:0:0:0, 6+4:2:1:0:3, 5+5:0:1:0:0, 6+4:0:0:0:1, 4+4:0:0:0:2, 5+8:0:0:0:0, 3+2:0:0:0:0, 5+4:0:0:0:0, 6+4:0:0:0:1, 5+3:1:0:0:1, 6+6:1:2:0:1, 4+3:0:0:0:0, 3+0:0:0:0:0, 5+4:0:0:0:0, 6+5:0:2:0:0, 4+4:0:0:0:0, 3+1:0:0:0:0, 6+4:2:1:0:3, 4+4:0:0:0:0, 6+5:0:0:0:0, 4+2:0:0:0:0, 8+6:2:1:0:3, 4+5:0:0:0:0, 4+4:0:0:0:0, 3+2:0:0:0:2, 6+7:1:0:0:1, 3+1:0:0:0:0, 1+0:0:0:0:0, 3+4:0:0:0:0, 3+1:0:0:0:0, 4+4:0:0:0:0, 3+4:0:0:0:0, 3+1:0:0:0:0, 5+4:2:1:0:3, 5+2:0:0:0:1, 4+1:0:0:0:0, 4+3:0:0:0:1, 6+6:0:0:0:0, 3+1:0:0:0:0, 6+6:0:0:0:0, 3+1:0:0:0:0, 7+2:2:0:0:2, 3+5:0:1:0:0, 5+1:0:0:0:0, 4+1:1:0:0:1, 4+8:0:0:0:0, 3+1:0:0:0:0, 4+4:0:0:0:0, 3+1:0:0:0:0, 8+5:2:1:0:4, 4+5:0:0:0:0, 6+2:0:0:0:0, 5+2:0:0:0:0, 8+7:2:2:0:3, 4+5:0:0:0:0, 5+7:0:0:0:1, 5+2:0:0:0:0, 7+2:0:0:0:0, 3+2:0:0:0:0, 1+0:0:0:0:0, 2+2:0:0:0:0, 4+3:0:0:0:1, 7+6:0:0:0:1, 5+3:0:0:0:0, 3+1:0:0:0:0, 7+4:2:1:0:3, 4+4:0:0:0:0, 4+5:0:0:0:0, 4+2:0:0:0:1, 5+7:0:0:0:0, 3+2:0:0:0:0, 5+4:0:0:0:0, 3+1:0:0:0:0, 5+3:2:0:0:2, 4+4:0:0:0:2, 4+4:0:0:0:1, 4+1:0:0:0:0, 5+4:0:0:0:0, 3+2:0:0:0:0, 5+4:0:0:0:0, 4+4:0:0:0:0, 7+4:2:1:0:3, 4+6:0:0:0:0, 4+4:0:0:0:0, 3+1:0:0:0:0, 5+4:2:1:0:3, 4+1:0:0:0:0, 4+1:0:0:0:0, 3+2:0:0:0:2, 7+9:1:0:0:6, 3+1:0:0:0:0, 2+2:0:0:0:0, 2+3:0:0:0:0, 3+1:0:0:0:0, 8+6:0:0:0:1, 6+6:0:0:0:0, 3+2:0:0:0:0, 5+4:2:1:0:3, 5+7:0:0:0:0, 7+4:0:0:0:0, 5+5:0:0:0:3, 5+6:0:0:0:0, 4+1:0:0:0:0, 5+4:0:0:0:0, 5+3:0:1:0:0, 7+6:3:0:0:3, 3+3:0:0:0:0, 2+2:0:0:0:0, 4+2:0:0:0:0, 7+9:2:1:0:3, 6+5:0:0:0:0, 6+3:0:0:0:0, 3+1:0:0:0:0, 4+1:0:0:0:0, 5+2:0:0:0:0, 7+4:1:0:0:1, 2+0:0:0:0:0, 0+0:0:0:0:0, 0+0:0:0:0:0, 0+0:0:0:0:0, 0+0:0:0:0:0, 727+546:48:27:0:101
Eb minor (6b), 6+0:0:0:0:0, 9+4:2:1:0:2, 6+0:0:0:0:0, 6+0:0:0:0:0, 6+0:0:0:0:0, 9+4:2:1:0:2, 6+0:0:0:0:0, 6+0:0:0:0:0, 4+0:0:0:0:0, 6+0:0:0:0:0, 5+2:0:0:0:2, 1+0:0:0:0:0, 4+0:0:0:0:0, 6+0:0:0:0:0, 7+1:0:1:0:1, 5+0:0:0:0:0, 6+0:0:0:0:0, 8+3:2:1:0:2, 6+0:0:0:0:0, 6+0:0:0:0:0, 5+2:0:0:0:0, 6+0:0:0:0:0, 5+0:0:0:0:0, 6+0:0:0:0:0, 4+0:0:0:0:0, 5+2:1:0:0:0, 6+1:0:0:0:1, 6+2:0:0:0:0, 4+2:0:0:0:0, 8+1:0:0:0:0, 5+0:0:0:0:0, 6+0:0:0:0:0, 6+0:0:0:0:0, 8+3:2:1:0:2, 8+1:0:0:0:0, 9+2:0:0:0:1, 7+0:0:0:0:0, 12+4:2:2:0:3, 6+0:0:0:0:0, 9+2:0:1:0:2, 6+0:0:0:0:0, 11+3:1:0:0:1, 6+1:1:0:0:0, 2+2:1:0:0:1, 9+3:0:0:0:1, 9+1:0:0:0:1, 7+0:0:0:0:0, 6+1:0:0:0:1, 6+1:0:1:0:1, 9+3:2:1:0:2, 7+1:0:1:0:1, 7+2:0:0:0:0, 7+3:0:0:0:1, 7+1:0:0:0:1, 5+0:0:0:0:0, 7+0:0:0:0:0, 9+2:0:0:0:0, 5+2:1:0:0:0, 9+3:1:2:0:2, 8+2:0:0:0:0, 4+1:0:0:0:0, 7+3:0:0:0:0, 10+6:0:0:0:0, 6+0:0:0:0:0, 5+0:0:0:0:0, 8+3:2:1:0:2, 6+0:0:0:0:0, 8+1:0:0:0:1, 6+0:0:0:0:0, 11+4:2:1:0:2, 6+0:0:0:0:0, 6+0:0:0:0:0, 5+0:0:0:0:0, 7+1:1:0:0:0, 5+0:0:0:0:0, 1+0:0:0:0:0, 6+2:0:0:0:2, 6+0:0:0:0:0, 6+0:0:0:0:0, 5+0:0:0:0:0, 5+0:0:0:0:0, 7+3:2:1:0:2, 6+1:0:0:0:0, 6+0:0:0:0:0, 5+0:0:0:0:0, 8+1:0:0:0:1, 5+0:0:0:0:0, 7+1:1:0:0:0, 5+0:0:0:0:0, 7+2:2:0:0:0, 6+1:0:1:0:1, 7+2:1:0:0:1, 6+2:0:0:0:1, 9+4:0:0:0:1, 5+0:0:0:0:0, 7+0:0:0:0:0, 5+0:0:0:0:0, 12+5:2:1:0:3, 6+0:0:0:0:0, 7+1:1:0:0:0, 8+1:0:0:0:0, 11+5:2:2:0:3, 6+0:0:0:0:0, 7+1:0:0:0:0, 6+0:0:0:0:0, 7+1:1:0:0:0, 6+1:0:0:0:1, 1+0:0:0:0:0, 6+1:0:0:0:1, 7+1:0:0:0:0, 8+3:0:0:0:0, 5+1:1:0:0:0, 5+0:0:0:0:0, 9+3:2:1:0:2, 6+0:0:0:0:0, 7+0:0:0:0:0, 5+0:0:0:0:0, 7+0:0:0:0:0, 5+0:0:0:0:0, 6+0:0:0:0:0, 5+0:0:0:0:0, 5+3:3:0:0:0, 6+3:0:0:0:0, 6+3:1:0:0:2, 6+1:0:0:0:1, 9+2:0:0:0:0, 6+0:0:0:0:0, 7+1:0:0:0:0, 7+1:0:0:0:0, 11+3:2:1:0:2, 7+0:0:0:0:0, 6+0:0:0:0:0, 6+0:0:0:0:0, 7+3:2:1:0:2, 7+1:0:0:0:1, 6+0:0:0:0:0, 5+0:0:0:0:0, 9+2:1:0:0:1, 5+0:0:0:0:0, 3+0:0:0:0:0, 6+1:0:0:0:1, 6+0:0:0:0:0, 10+3:0:0:0:0, 7+2:1:0:0:0, 5+0:0:0:0:0, 7+3:2:1:0:2, 8+1:0:0:0:1, 8+3:2:0:0:0, 6+1:1:0:0:0, 6+0:0:0:0:0, 6+0:0:0:0:0, 6+0:0:0:0:0, 7+3:2:0:0:0, 7+6:4:0:0:1, 5+0:0:0:0:0, 5+1:0:0:0:0, 6+0:0:0:0:0, 10+7:3:0:0:0, 9+1:0:0:0:1, 8+1:0:0:0:0, 5+0:0:0:0:0, 6+0:0:0:0:0, 7+1:0:0:0:1, 8+2:0:0:0:0, 4+1:0:0:0:0, 0+0:0:0:0:0, 0+0:0:0:0:0, 0+0:0:0:0:0, 0+0:0:0:0:0, 1071+189:62:24:0:71
D# minor (6#), 3+1:0:0:0:0, 6+3:2:1:0:3, 4+4:0:0:0:0, 4+4:0:0:0:0, 3+1:0:0:0:0, 6+3:2:1:0:3, 4+4:0:0:0:0, 4+4:0:0:0:0, 3+2:0:0:0:2, 5+5:0:0:0:0, 2+0:0:0:0:0, 0+0:0:0:0:0, 2+1:0:0:0:0, 3+2:0:0:0:0, 6+7:0:0:0:1, 3+2:0:0:0:0, 3+1:0:0:0:0, 6+6:2:1:0:3, 4+4:0:0:0:0, 4+4:0:0:0:0, 4+1:0:0:0:1, 5+4:0:0:0:0, 3+0:0:0:0:0, 5+4:0:0:0:0, 2+0:0:0:0:0, 5+2:1:0:0:1, 3+1:0:0:0:0, 2+1:0:0:0:0, 3+0:0:0:0:0, 4+4:0:0:0:0, 3+1:0:0:0:0, 4+4:0:0:0:0, 3+1:0:0:0:0, 5+4:2:1:0:3, 6+4:0:0:0:0, 7+7:0:0:0:0, 3+1:0:0:0:0, 10+8:2:2:0:3, 4+1:0:0:0:0, 7+3:0:1:0:1, 4+1:0:0:0:0, 9+4:1:0:0:1, 4+2:1:0:0:1, 1+2:0:0:0:0, 5+6:0:1:0:0, 7+4:0:0:0:0, 4+2:0:0:0:0, 5+3:0:0:0:0, 4+1:0:0:0:0, 6+4:2:1:0:3, 5+5:0:1:0:0, 6+4:0:0:0:1, 4+6:0:2:0:2, 5+1:0:0:0:0, 3+2:0:0:0:0, 5+4:0:0:0:0, 6+4:0:0:0:1, 5+3:1:0:0:1, 6+6:1:2:0:1, 4+3:0:0:0:0, 3+0:0:0:0:0, 5+4:0:0:0:0, 6+5:0:2:0:0, 4+4:0:0:0:0, 3+1:0:0:0:0, 6+4:2:1:0:3, 4+4:0:0:0:0, 6+5:0:0:0:0, 4+2:0:0:0:0, 8+6:2:1:0:3, 4+5:0:0:0:0, 4+4:0:0:0:0, 3+2:0:0:0:2, 7+3:0:0:0:0, 3+1:0:0:0:0, 1+0:0:0:0:0, 3+4:0:0:0:0, 3+1:0:0:0:0, 4+4:0:0:0:0, 3+4:0:0:0:0, 3+1:0:0:0:0, 5+4:2:1:0:3, 5+2:0:0:0:1, 4+1:0:0:0:0, 4+3:0:0:0:1, 6+6:0:0:0:0, 3+1:0:0:0:0, 6+6:0:0:0:0, 3+1:0:0:0:0, 7+2:2:0:0:2, 3+2:0:1:0:0, 6+5:0:0:0:1, 5+4:0:0:0:4, 4+8:0:0:0:0, 3+1:0:0:0:0, 4+4:0:0:0:0, 3+1:0:0:0:0, 8+5:2:1:0:4, 4+5:0:0:0:0, 6+2:0:0:0:0, 5+2:0:0:0:0, 8+7:2:2:0:3, 4+5:0:0:0:0, 5+3:0:0:0:0, 5+2:0:0:0:0, 7+2:0:0:0:0, 3+2:0:0:0:0, 1+0:0:0:0:0, 2+2:0:0:0:0, 4+3:0:0:0:1, 7+6:0:0:0:1, 5+3:0:0:0:0, 3+1:0:0:0:0, 7+4:2:1:0:3, 4+4:0:0:0:0, 4+5:0:0:0:0, 4+2:0:0:0:1, 5+7:0:0:0:0, 3+2:0:0:0:0, 5+4:0:0:0:0, 3+1:0:0:0:0, 5+3:2:0:0:2, 4+3:0:0:0:3, 4+2:0:0:0:0, 4+6:0:0:0:0, 5+4:0:0:0:0, 3+2:0:0:0:0, 5+4:0:0:0:0, 4+4:0:0:0:0, 7+4:2:1:0:3, 4+6:0:0:0:0, 4+4:0:0:0:0, 3+1:0:0:0:0, 5+4:2:1:0:3, 4+1:0:0:0:0, 4+1:0:0:0:0, 3+3:0:0:0:0, 8+3:0:0:0:0, 3+1:0:0:0:0, 2+2:0:0:0:0, 2+3:0:0:0:0, 3+1:0:0:0:0, 8+6:0:0:0:1, 6+6:0:0:0:0, 3+2:0:0:0:0, 5+4:2:1:0:3, 5+7:0:0:0:0, 7+4:0:0:0:0, 5+5:0:0:0:3, 5+6:0:0:0:0, 4+1:0:0:0:0, 5+4:0:0:0:0, 5+3:0:1:0:0, 7+6:3:0:0:3, 3+3:0:0:0:0, 2+2:0:0:0:0, 4+2:0:0:0:0, 7+9:2:1:0:3, 6+5:0:0:0:0, 6+3:0:0:0:0, 3+1:0:0:0:0, 4+1:0:0:0:0, 5+2:0:0:0:0, 7+4:1:0:0:1, 2+0:0:0:0:0, 0+0:0:0:0:0, 0+0:0:0:0:0, 0+0:0:0:0:0, 0+0:0:0:0:0, 731+518:45:29:0:90
Cb major (7b), 6+0:0:0:0:0, 9+4:2:1:0:3, 6+0:0:0:0:0, 6+0:0:0:0:0, 6+0:0:0:0:0, 9+4:2:1:0:3, 6+0:0:0:0:0, 6+0:0:0:0:0, 4+0:0:0:0:0, 6+0:0:0:0:0, 5+2:0:0:0:2, 1+0:0:0:0:0, 4+0:0:0:0:0, 6+0:0:0:0:0, 7+1:0:1:0:1, 5+0:0:0:0:0, 6+0:0:0:0:0, 8+3:2:1:0:2, 6+0:0:0:0:0, 6+0:0:0:0:0, 5+2:0:0:0:0, 6+0:0:0:0:0, 5+0:0:0:0:0, 6+0:0:0:0:0, 4+0:0:0:0:0, 5+2:1:0:0:0, 6+1:0:0:0:1, 6+2:0:0:0:0, 4+0:0:0:0:0, 8+1:0:0:0:0, 5+0:0:0:0:0, 6+0:0:0:0:0, 6+0:0:0:0:0, 8+3:2:1:0:2, 8+1:0:0:0:0, 9+2:0:0:0:1, 7+1:0:0:0:0, 12+4:2:2:0:3, 6+0:0:0:0:0, 9+2:0:1:0:2, 6+0:0:0:0:0, 11+3:1:0:0:1, 6+1:1:0:0:0, 4+1:0:0:0:0, 9+3:0:0:0:1, 9+1:0:0:0:1, 7+0:0:0:0:0, 6+1:0:0:0:1, 6+1:0:1:0:1, 9+3:2:1:0:2, 7+1:0:1:0:1, 8+2:0:0:0:0, 7+3:0:0:0:1, 7+1:0:0:0:1, 5+0:0:0:0:0, 7+0:0:0:0:0, 9+2:0:0:0:0, 5+2:1:0:0:0, 9+3:1:2:0:2, 8+2:0:0:0:0, 4+1:0:0:0:0, 8+3:0:0:0:0, 10+6:0:0:0:0, 6+0:0:0:0:0, 5+0:0:0:0:0, 8+3:2:1:0:2, 6+0:0:0:0:0, 8+1:0:0:0:1, 6+0:0:0:0:0, 11+4:2:1:0:2, 6+0:0:0:0:0, 6+0:0:0:0:0, 5+0:0:0:0:0, 7+1:1:0:0:0, 5+0:0:0:0:0, 1+0:0:0:0:0, 6+2:0:0:0:2, 6+0:0:0:0:0, 6+0:0:0:0:0, 5+0:0:0:0:0, 5+0:0:0:0:0, 7+3:2:1:0:2, 7+1:0:0:0:0, 6+0:0:0:0:0, 5+0:0:0:0:0, 8+1:0:0:0:1, 5+0:0:0:0:0, 7+1:1:0:0:0, 5+0:0:0:0:0, 7+4:1:0:0:0, 6+1:0:1:0:1, 7+2:1:0:0:1, 6+2:0:0:0:1, 9+4:0:0:0:1, 5+0:0:0:0:0, 7+0:0:0:0:0, 5+0:0:0:0:0, 12+5:2:1:0:3, 6+0:0:0:0:0, 7+1:1:0:0:0, 8+1:0:0:0:0, 11+5:2:2:0:3, 6+0:0:0:0:0, 7+1:0:0:0:0, 6+0:0:0:0:0, 7+1:1:0:0:0, 6+1:0:0:0:1, 1+0:0:0:0:0, 6+1:0:0:0:1, 7+1:0:0:0:0, 9+3:0:0:0:0, 5+1:1:0:0:0, 5+0:0:0:0:0, 9+3:2:1:0:2, 6+0:0:0:0:0, 7+0:0:0:0:0, 5+0:0:0:0:0, 7+0:0:0:0:0, 5+0:0:0:0:0, 6+0:0:0:0:0, 5+0:0:0:0:0, 5+4:2:0:0:0, 6+2:0:0:0:0, 6+3:1:0:0:2, 6+1:0:0:0:1, 9+2:0:0:0:0, 6+0:0:0:0:0, 7+1:0:0:0:0, 7+1:0:0:0:0, 11+3:2:1:0:2, 7+0:0:0:0:0, 6+0:0:0:0:0, 6+0:0:0:0:0, 7+3:2:1:0:2, 7+1:0:0:0:1, 6+0:0:0:0:0, 5+0:0:0:0:0, 9+2:1:0:0:1, 5+0:0:0:0:0, 3+0:0:0:0:0, 6+1:0:0:0:1, 6+0:0:0:0:0, 10+3:0:0:0:0, 7+2:1:0:0:0, 5+0:0:0:0:0, 7+3:2:1:0:2, 8+1:0:0:0:1, 8+3:2:0:0:0, 6+1:1:0:0:0, 6+0:0:0:0:0, 6+0:0:0:0:0, 6+0:0:0:0:0, 7+3:2:0:0:0, 7+3:1:0:0:1, 5+0:0:0:0:0, 5+1:0:0:0:0, 6+0:0:0:0:0, 10+7:3:0:0:0, 9+1:0:0:0:1, 8+1:0:0:0:0, 5+0:0:0:0:0, 6+0:0:0:0:0, 7+1:0:0:0:1, 8+2:0:0:0:0, 4+0:0:0:0:0, 0+1:0:0:0:0, 0+0:0:0:0:0, 0+0:0:0:0:0, 0+0:0:0:0:0, 1077+186:56:24:0:72
C# major (7#), 4+1:0:0:0:0, 6+3:2:1:0:3, 5+4:0:0:0:0, 5+4:0:0:0:0, 4+1:0:0:0:0, 6+3:2:1:0:3, 5+4:0:0:0:0, 5+2:0:0:0:0, 3+1:0:0:0:0, 5+2:0:0:0:0, 3+0:0:0:0:0, 1+0:0:0:0:0, 3+1:0:0:0:0, 4+2:0:0:0:0, 5+7:0:1:0:0, 4+2:0:0:0:1, 4+1:0:0:0:0, 6+3:2:1:0:3, 5+4:0:0:0:0, 5+2:0:0:0:0, 4+6:0:0:0:0, 5+2:0:0:0:0, 4+1:0:0:0:0, 5+1:0:0:0:0, 3+2:0:0:0:0, 5+2:1:0:0:1, 3+1:0:0:0:0, 3+1:0:0:0:0, 4+0:0:0:0:0, 5+4:0:0:0:0, 4+1:0:0:0:0, 5+4:0:0:0:0, 4+1:0:0:0:0, 5+3:2:1:0:3, 7+4:0:0:0:0, 8+7:0:0:0:0, 4+1:0:0:0:0, 10+8:2:2:0:3, 5+1:0:0:0:0, 8+3:0:1:0:1, 5+1:0:0:0:0, 10+4:1:0:0:1, 5+3:1:0:0:1, 1+1:0:1:0:0, 6+6:0:1:0:0, 8+4:0:0:0:0, 5+5:0:0:0:0, 5+4:0:0:0:0, 5+1:0:0:0:0, 7+4:2:1:0:3, 6+5:0:1:0:0, 7+4:0:0:0:1, 4+6:0:2:0:2, 5+1:0:0:0:0, 4+3:0:0:0:0, 6+3:0:0:0:0, 7+4:0:0:0:1, 5+3:1:0:0:1, 7+6:1:2:0:1, 5+3:0:0:0:0, 4+0:0:0:0:0, 6+4:0:0:0:0, 7+5:0:2:0:0, 5+4:0:0:0:0, 4+1:0:0:0:0, 6+4:2:1:0:3, 5+4:0:0:0:0, 7+5:0:0:0:0, 5+2:0:0:0:0, 8+6:2:1:0:3, 5+5:0:0:0:0, 5+1:0:0:0:0, 4+1:0:0:0:0, 7+3:0:0:0:0, 4+2:0:0:0:0, 1+0:0:0:0:0, 4+4:0:0:0:0, 4+1:0:0:0:0, 5+4:0:0:0:0, 3+2:0:0:0:2, 4+1:0:0:0:0, 5+4:2:1:0:3, 6+2:0:0:0:1, 5+1:0:0:0:0, 4+4:0:0:0:0, 7+2:0:0:0:0, 4+1:0:0:0:0, 7+2:0:0:0:0, 4+1:0:0:0:0, 7+2:2:0:0:2, 4+1:0:1:0:1, 7+5:0:0:0:1, 5+1:1:0:0:1, 5+8:0:0:0:0, 4+1:0:0:0:0, 5+4:0:0:0:0, 4+1:0:0:0:0, 7+5:3:2:0:5, 5+5:0:0:0:0, 7+2:0:0:0:0, 6+2:0:0:0:0, 7+4:2:1:0:4, 5+5:0:0:0:0, 6+3:0:0:0:0, 5+2:0:0:0:0, 7+2:0:0:0:0, 4+2:0:0:0:0, 1+0:0:0:0:0, 3+2:0:0:0:0, 5+3:0:0:0:1, 8+6:0:0:0:1, 4+7:1:0:0:1, 4+1:0:0:0:0, 7+4:2:1:0:3, 5+4:0:0:0:0, 5+1:0:0:0:0, 4+2:0:0:0:0, 6+2:0:0:0:0, 4+2:0:0:0:0, 5+3:0:0:0:0, 4+1:0:0:0:0, 5+3:2:0:0:2, 4+3:0:0:0:0, 5+2:0:0:0:0, 5+6:0:0:0:0, 6+4:0:0:0:0, 4+2:0:0:0:0, 6+4:0:0:0:0, 5+4:0:0:0:0, 8+4:2:1:0:3, 5+6:0:0:0:0, 5+4:0:0:0:0, 4+1:0:0:0:0, 5+4:2:1:0:3, 5+1:0:0:0:0, 5+1:0:0:0:0, 4+3:0:0:0:0, 9+3:0:0:0:0, 4+2:0:0:0:0, 2+2:0:0:0:0, 3+3:0:0:0:0, 4+1:0:0:0:0, 9+6:0:0:0:1, 6+6:0:0:0:0, 4+2:0:0:0:0, 5+3:2:1:0:3, 6+7:0:0:0:0, 8+4:0:0:0:0, 6+2:0:0:0:0, 5+1:0:0:0:0, 5+1:0:0:0:0, 5+1:0:0:0:0, 5+4:1:1:0:2, 7+6:3:0:0:3, 3+1:0:0:0:0, 3+1:0:0:0:0, 5+6:0:0:0:0, 8+9:2:1:0:3, 7+5:0:0:0:0, 7+3:0:0:0:0, 4+1:0:0:0:0, 5+1:0:0:0:0, 6+2:0:0:0:0, 8+4:1:0:0:1, 2+0:0:0:0:0, 0+0:0:0:0:0, 0+0:0:0:0:0, 0+0:0:0:0:0, 0+0:0:0:0:0, 844+479:49:31:0:82
Ab minor (7b), 6+0:0:0:0:0, 9+4:2:1:0:3, 6+0:0:0:0:0, 6+0:0:0:0:0, 6+0:0:0:0:0, 9+4:2:1:0:3, 6+0:0:0:0:0, 6+0:0:0:0:0, 4+0:0:0:0:0, 6+0:0:0:0:0, 5+2:0:0:0:2, 1+0:0:0:0:0, 4+0:0:0:0:0, 6+0:0:0:0:0, 7+1:0:1:0:1, 5+0:0:0:0:0, 6+0:0:0:0:0, 8+3:2:1:0:2, 6+0:0:0:0:0, 6+0:0:0:0:0, 5+2:0:0:0:0, 6+0:0:0:0:0, 5+0:0:0:0:0, 6+0:0:0:0:0, 4+0:0:0:0:0, 5+2:1:0:0:0, 6+1:0:0:0:1, 6+2:0:0:0:0, 4+0:0:0:0:0, 8+1:0:0:0:0, 5+0:0:0:0:0, 6+0:0:0:0:0, 6+0:0:0:0:0, 8+3:2:1:0:2, 8+1:0:0:0:0, 9+2:0:0:0:1, 7+1:0:0:0:0, 12+4:2:2:0:3, 6+0:0:0:0:0, 9+2:0:1:0:2, 6+0:0:0:0:0, 11+3:1:0:0:1, 6+1:1:0:0:0, 4+1:0:0:0:0, 9+3:0:0:0:1, 9+1:0:0:0:1, 7+0:0:0:0:0, 6+1:0:0:0:1, 6+1:0:1:0:1, 9+3:2:1:0:2, 7+1:0:1:0:1, 8+2:0:0:0:0, 7+3:0:0:0:1, 7+1:0:0:0:1, 5+0:0:0:0:0, 7+0:0:0:0:0, 9+2:0:0:0:0, 5+2:1:0:0:0, 9+3:1:2:0:2, 8+2:0:0:0:0, 4+1:0:0:0:0, 8+3:0:0:0:0, 10+6:0:0:0:0, 6+0:0:0:0:0, 5+0:0:0:0:0, 8+3:2:1:0:2, 6+0:0:0:0:0, 8+1:0:0:0:1, 6+0:0:0:0:0, 11+4:2:1:0:2, 6+0:0:0:0:0, 6+0:0:0:0:0, 5+0:0:0:0:0, 7+1:1:0:0:0, 5+0:0:0:0:0, 1+0:0:0:0:0, 6+2:0:0:0:2, 6+0:0:0:0:0, 6+0:0:0:0:0, 5+0:0:0:0:0, 5+0:0:0:0:0, 7+3:2:1:0:2, 7+1:0:0:0:0, 6+0:0:0:0:0, 5+0:0:0:0:0, 8+1:0:0:0:1, 5+0:0:0:0:0, 7+1:1:0:0:0, 5+0:0:0:0:0, 7+4:1:0:0:0, 6+1:0:1:0:1, 7+2:1:0:0:1, 6+2:0:0:0:1, 9+4:0:0:0:1, 5+0:0:0:0:0, 7+0:0:0:0:0, 5+0:0:0:0:0, 12+5:2:1:0:3, 6+0:0:0:0:0, 7+1:1:0:0:0, 8+1:0:0:0:0, 11+5:2:2:0:3, 6+0:0:0:0:0, 7+1:0:0:0:0, 6+0:0:0:0:0, 7+1:1:0:0:0, 6+1:0:0:0:1, 1+0:0:0:0:0, 6+1:0:0:0:1, 7+1:0:0:0:0, 9+3:0:0:0:0, 5+1:1:0:0:0, 5+0:0:0:0:0, 9+3:2:1:0:2, 6+0:0:0:0:0, 7+0:0:0:0:0, 5+0:0:0:0:0, 7+0:0:0:0:0, 5+0:0:0:0:0, 6+0:0:0:0:0, 5+0:0:0:0:0, 5+4:2:0:0:0, 6+2:0:0:0:0, 6+3:1:0:0:2, 6+1:0:0:0:1, 9+2:0:0:0:0, 6+0:0:0:0:0, 7+1:0:0:0:0, 7+1:0:0:0:0, 11+3:2:1:0:2, 7+0:0:0:0:0, 6+0:0:0:0:0, 6+0:0:0:0:0, 7+3:2:1:0:2, 7+1:0:0:0:1, 6+0:0:0:0:0, 5+0:0:0:0:0, 9+2:1:0:0:1, 5+0:0:0:0:0, 3+0:0:0:0:0, 6+1:0:0:0:1, 6+0:0:0:0:0, 10+3:0:0:0:0, 7+2:1:0:0:0, 5+0:0:0:0:0, 7+3:2:1:0:2, 8+1:0:0:0:1, 8+3:2:0:0:0, 6+1:1:0:0:0, 6+0:0:0:0:0, 6+0:0:0:0:0, 6+0:0:0:0:0, 7+3:2:0:0:0, 7+3:1:0:0:1, 5+0:0:0:0:0, 5+1:0:0:0:0, 6+0:0:0:0:0, 10+7:3:0:0:0, 9+1:0:0:0:1, 8+1:0:0:0:0, 5+0:0:0:0:0, 6+0:0:0:0:0, 7+1:0:0:0:1, 8+2:0:0:0:0, 4+1:0:0:0:0, 0+0:0:0:0:0, 0+0:0:0:0:0, 0+1:0:0:0:0, 0+1:0:0:0:0, 1077+188:56:24:0:72
A# minor (7#), 4+1:0:0:0:0, 6+3:2:1:0:3, 5+4:0:0:0:0, 5+4:0:0:0:0, 4+1:0:0:0:0, 6+3:2:1:0:3, 5+4:0:0:0:0, 5+2:0:0:0:0, 3+1:0:0:0:0, 5+2:0:0:0:0, 3+0:0:0:0:0, 1+0:0:0:0:0, 3+1:0:0:0:0, 4+2:0:0:0:0, 5+7:0:1:0:0, 4+2:0:0:0:1, 4+1:0:0:0:0, 6+3:2:1:0:3, 5+4:0:0:0:0, 5+2:0:0:0:0, 4+6:0:0:0:0, 5+2:0:0:0:0, 4+1:0:0:0:0, 5+1:0:0:0:0, 3+2:0:0:0:0, 5+2:1:0:0:1, 3+1:0:0:0:0, 3+1:0:0:0:0, 4+0:0:0:0:0, 5+4:0:0:0:0, 4+1:0:0:0:0, 5+4:0:0:0:0, 4+1:0:0:0:0, 5+3:2:1:0:3, 7+4:0:0:0:0, 8+7:0:0:0:0, 4+1:0:0:0:0, 10+8:2:2:0:3, 5+1:0:0:0:0, 8+3:0:1:0:1, 5+1:0:0:0:0, 10+4:1:0:0:1, 5+3:1:0:0:1, 1+1:0:1:0:0, 6+6:0:1:0:0, 8+4:0:0:0:0, 5+2:0:0:0:0, 5+3:0:0:0:0, 5+1:0:0:0:0, 7+4:2:1:0:3, 6+2:0:1:0:1, 7+4:0:0:0:1, 4+6:0:2:0:2, 5+1:0:0:0:0, 4+3:0:0:0:0, 6+3:0:0:0:0, 7+4:0:0:0:1, 5+3:1:0:0:1, 7+6:1:2:0:1, 5+3:0:0:0:0, 4+0:0:0:0:0, 6+4:0:0:0:0, 7+5:0:2:0:0, 5+4:0:0:0:0, 4+1:0:0:0:0, 6+4:2:1:0:3, 5+2:0:0:0:0, 7+2:0:0:0:0, 5+2:0:0:0:0, 8+6:2:1:0:3, 5+1:0:0:0:0, 5+1:0:0:0:0, 4+1:0:0:0:0, 7+3:0:0:0:0, 4+2:0:0:0:0, 1+0:0:0:0:0, 4+2:0:0:0:1, 4+4:0:0:0:0, 5+4:0:0:0:0, 3+2:0:0:0:2, 4+1:0:0:0:0, 5+4:2:1:0:3, 6+2:0:0:0:1, 5+1:0:0:0:0, 4+4:0:0:0:0, 7+2:0:0:0:0, 4+1:0:0:0:0, 7+2:0:0:0:0, 4+1:0:0:0:0, 7+2:2:0:0:2, 4+1:0:1:0:1, 6+1:0:0:0:0, 5+1:1:0:0:1, 5+8:0:0:0:0, 4+1:0:0:0:0, 5+4:0:0:0:0, 4+1:0:0:0:0, 7+5:3:2:0:5, 5+5:0:0:0:0, 7+2:0:0:0:0, 6+2:0:0:0:0, 7+4:2:1:0:4, 5+5:0:0:0:0, 6+3:0:0:0:0, 5+2:0:0:0:0, 7+2:0:0:0:0, 4+2:0:0:0:0, 1+0:0:0:0:0, 3+2:0:0:0:0, 5+3:0:0:0:1, 8+6:0:0:0:1, 5+3:0:0:0:0, 4+1:0:0:0:0, 7+4:2:1:0:3, 5+1:0:0:0:0, 5+1:0:0:0:0, 4+2:0:0:0:0, 6+2:0:0:0:0, 4+2:0:0:0:0, 5+3:0:0:0:0, 4+1:0:0:0:0, 5+3:2:0:0:2, 4+3:0:0:0:0, 5+2:0:0:0:0, 5+1:0:0:0:0, 6+4:0:0:0:0, 4+2:0:0:0:0, 6+4:0:0:0:0, 5+4:0:0:0:0, 8+4:2:1:0:3, 5+2:0:0:0:0, 5+1:0:0:0:0, 4+1:0:0:0:0, 5+3:2:1:0:3, 5+5:0:0:0:4, 5+1:0:0:0:0, 4+3:0:0:0:0, 9+3:0:0:0:0, 4+2:0:0:0:0, 2+2:0:0:0:0, 3+3:0:0:0:0, 4+1:0:0:0:0, 9+6:0:0:0:0, 6+2:0:0:0:0, 4+2:0:0:0:0, 5+3:2:1:0:3, 6+7:0:0:0:0, 8+4:0:0:0:0, 6+2:0:0:0:0, 5+1:0:0:0:0, 5+1:0:0:0:0, 5+1:0:0:0:0, 5+4:1:1:0:2, 7+6:3:0:0:3, 3+1:0:0:0:0, 3+1:0:0:0:0, 5+2:0:0:0:0, 8+9:2:1:0:3, 7+2:0:0:0:0, 7+3:0:0:0:0, 4+1:0:0:0:0, 5+1:0:0:0:0, 6+2:0:0:0:0, 8+4:1:0:0:1, 2+0:0:0:0:0, 0+0:0:0:0:0, 0+0:0:0:0:0, 0+0:0:0:0:0, 0+0:0:0:0:0, 844+433:48:31:0:85
