 , 0, 1, 2, 3, 4, 5, 6, 7, 8, 9, 10, 11, 12, 13, 14, 15, 16, 17, 18, 19, 20, 21, 22, 23, 24, 25, 26, 27, 28, 29, 30, 31, 32, 33, 34, 35, 36, 37, 38, 39, 40, 41, 42, 43, 44, 45, 46, 47, 48, 49, rowcost
C major (0),  ,  ,  ,  , 0, 2, 0, 0, 1, 4, 1, 0, 1, 1, 1, 0, 1, 0,  ,  , 0, 1, 1, 1, 1, 3, 1, 0, 1, 1, 0, 0, 2, 1,  ,  , 1, 2, 2, 1, 1, 4, 1, 0, 1, 1, 0, 1, 0, 0, 40
A minor (0),  ,  ,  ,  , 0, 3, 1, 1, 1, 5, 1, 0, 1, 2, 1, 0, 2, 0,  ,  , 0, 1, 1, 1, 2, 3, 1, 0, 1, 2, 1, 1, 1, 0,  ,  , 1, 1, 1, 1, 1, 4, 1, 0, 1, 2, 0, 2, 1, 1, 50
A minor mel (0),  ,  ,  ,  , 0, 3, 1, 1, 1, 4, 0, 1, 1, 2, 0, 0, 2, 0,  ,  , 0, 1, 1, 1, 2, 2, 0, 1, 1, 2, 2, 2, 1, 0,  ,  , 1, 1, 0, 0, 1, 3, 0, 1, 1, 2, 1, 2, 1, 1, 47
C major blues (0),  ,  ,  ,  , 0, 2, 0, 0, 1, 4, 1, 1, 1, 2, 2, 0, 1, 0,  ,  , 0, 3, 1, 1, 1, 3, 1, 1, 1, 1, 2, 1, 2, 1,  ,  , 1, 3, 2, 1, 1, 4, 1, 1, 1, 2, 2, 1, 1, 0, 55
A minor blues (0),  ,  ,  ,  , 0, 3, 0, 0, 1, 6, 1, 1, 1, 2, 2, 0, 2, 0,  ,  , 0, 3, 1, 1, 2, 4, 1, 1, 1, 1, 2, 1, 2, 1,  ,  , 1, 3, 2, 1, 1, 5, 1, 1, 1, 2, 2, 2, 1, 0, 63
C dorian (0),  ,  ,  ,  , 0, 2, 0, 0, 1, 3, 0, 1, 1, 1, 0, 0, 1, 0,  ,  , 0, 1, 1, 1, 1, 2, 0, 1, 1, 1, 1, 1, 2, 1,  ,  , 1, 2, 1, 0, 1, 3, 0, 1, 1, 1, 1, 1, 0, 0, 37
C phrygian (0),  ,  ,  ,  , 0, 1, 0, 0, 1, 3, 1, 0, 0, 0, 1, 0, 1, 0,  ,  , 0, 2, 0, 0, 1, 2, 1, 0, 0, 0, 0, 0, 2, 1,  ,  , 1, 3, 2, 1, 1, 3, 1, 0, 0, 0, 0, 1, 1, 0, 31
C lydian (0),  ,  ,  ,  , 0, 2, 0, 0, 1, 3, 0, 1, 1, 1, 0, 0, 1, 0,  ,  , 0, 1, 1, 1, 1, 2, 0, 1, 1, 1, 1, 1, 2, 1,  ,  , 1, 2, 1, 0, 1, 3, 0, 1, 1, 1, 1, 1, 0, 0, 37
C mixolydian (0),  ,  ,  ,  , 0, 1, 0, 0, 1, 3, 1, 0, 0, 0, 1, 0, 1, 0,  ,  , 0, 2, 0, 0, 1, 2, 1, 0, 0, 0, 0, 0, 2, 1,  ,  , 1, 3, 2, 1, 1, 3, 1, 0, 0, 0, 0, 1, 1, 0, 31
C aeolian (0),  ,  ,  ,  , 0, 2, 0, 0, 1, 4, 1, 0, 1, 1, 1, 0, 1, 0,  ,  , 0, 1, 1, 1, 1, 3, 1, 0, 1, 1, 0, 0, 2, 1,  ,  , 1, 2, 2, 1, 1, 4, 1, 0, 1, 1, 0, 1, 0, 0, 40
C locrian (0),  ,  ,  ,  , 0, 0, 0, 0, 1, 3, 1, 0, 0, 1, 2, 0, 0, 0,  ,  , 0, 3, 0, 0, 1, 2, 1, 0, 0, 0, 1, 0, 1, 1,  ,  , 1, 3, 2, 1, 1, 3, 1, 0, 0, 1, 1, 0, 1, 0, 33
F major (1b),  ,  ,  ,  , 0, 1, 0, 0, 1, 3, 1, 0, 0, 0, 1, 0, 1, 0,  ,  , 0, 2, 0, 0, 1, 2, 1, 0, 0, 0, 0, 0, 2, 1,  ,  , 1, 3, 2, 1, 1, 3, 1, 0, 0, 0, 0, 1, 1, 0, 31
G major (1#),  ,  ,  ,  , 0, 2, 0, 0, 1, 4, 0, 1, 1, 1, 0, 0, 1, 0,  ,  , 0, 1, 1, 1, 2, 2, 0, 1, 1, 1, 1, 1, 2, 1,  ,  , 1, 2, 1, 0, 1, 3, 0, 1, 1, 1, 1, 1, 0, 0, 39
D minor (1b),  ,  ,  ,  , 0, 2, 0, 0, 0, 4, 1, 0, 0, 1, 1, 0, 2, 1,  ,  , 0, 3, 0, 0, 1, 4, 1, 0, 0, 1, 0, 0, 2, 1,  ,  , 0, 2, 2, 1, 0, 3, 1, 0, 0, 1, 0, 1, 2, 0, 38
E minor (1#),  ,  ,  ,  , 1, 5, 0, 0, 1, 5, 0, 1, 1, 2, 1, 1, 1, 0,  ,  , 1, 2, 1, 1, 2, 3, 0, 1, 1, 2, 2, 1, 1, 1,  ,  , 1, 3, 1, 0, 1, 4, 0, 1, 1, 2, 2, 1, 0, 0, 55
D minor mel (1b),  ,  ,  ,  , 0, 3, 0, 0, 0, 5, 1, 0, 1, 2, 1, 0, 2, 1,  ,  , 0, 2, 1, 1, 1, 5, 1, 0, 1, 2, 0, 0, 2, 1,  ,  , 0, 1, 2, 1, 0, 4, 1, 0, 1, 2, 0, 1, 1, 0, 47
E minor mel (1#),  ,  ,  ,  , 1, 6, 0, 0, 0, 4, 0, 1, 1, 3, 1, 1, 2, 1,  ,  , 1, 3, 1, 1, 1, 4, 0, 1, 1, 3, 2, 1, 1, 1,  ,  , 0, 2, 1, 0, 0, 3, 0, 1, 1, 3, 2, 1, 1, 0, 57
F major blues (1b),  ,  ,  ,  , 0, 3, 1, 0, 1, 4, 1, 0, 1, 2, 2, 0, 1, 0,  ,  , 0, 3, 1, 1, 1, 3, 1, 0, 1, 1, 1, 0, 2, 1,  ,  , 1, 4, 2, 1, 1, 4, 1, 0, 1, 2, 1, 1, 1, 0, 52
G major blues (1#),  ,  ,  ,  , 0, 3, 0, 0, 1, 5, 1, 1, 1, 2, 1, 0, 2, 1,  ,  , 0, 3, 1, 1, 2, 4, 1, 1, 1, 2, 1, 1, 2, 1,  ,  , 1, 3, 2, 1, 1, 4, 1, 1, 1, 2, 1, 1, 2, 0, 60
D minor blues (1b),  ,  ,  ,  , 0, 3, 1, 0, 1, 6, 1, 0, 1, 2, 2, 0, 1, 0,  ,  , 0, 3, 1, 1, 2, 4, 1, 0, 1, 1, 1, 0, 2, 1,  ,  , 1, 4, 2, 1, 1, 5, 1, 0, 1, 2, 1, 1, 1, 0, 57
E minor blues (1#),  ,  ,  ,  , 0, 5, 0, 0, 1, 6, 1, 1, 1, 2, 1, 0, 3, 1,  ,  , 0, 3, 1, 1, 2, 5, 1, 1, 1, 2, 1, 1, 2, 1,  ,  , 1, 3, 2, 1, 1, 5, 1, 1, 1, 2, 1, 2, 2, 0, 67
F dorian (1b),  ,  ,  ,  , 0, 2, 0, 0, 1, 4, 1, 0, 1, 1, 1, 0, 1, 0,  ,  , 0, 1, 1, 1, 1, 3, 1, 0, 1, 1, 0, 0, 2, 1,  ,  , 1, 2, 2, 1, 1, 4, 1, 0, 1, 1, 0, 1, 0, 0, 40
G dorian (1#),  ,  ,  ,  , 0, 3, 0, 0, 0, 3, 0, 1, 1, 2, 0, 0, 2, 1,  ,  , 0, 2, 1, 1, 1, 3, 0, 1, 1, 2, 1, 1, 2, 1,  ,  , 0, 1, 1, 0, 0, 2, 0, 1, 1, 2, 1, 1, 1, 0, 41
F phrygian (1b),  ,  ,  ,  , 0, 0, 0, 0, 1, 3, 1, 0, 0, 1, 2, 0, 0, 0,  ,  , 0, 3, 0, 0, 1, 2, 1, 0, 0, 0, 1, 0, 1, 1,  ,  , 1, 3, 2, 1, 1, 3, 1, 0, 0, 1, 1, 0, 1, 0, 33
G phrygian (1#),  ,  ,  ,  , 0, 2, 0, 0, 1, 5, 1, 0, 1, 1, 1, 0, 1, 0,  ,  , 0, 1, 1, 1, 2, 3, 1, 0, 1, 1, 0, 0, 2, 1,  ,  , 1, 2, 2, 1, 1, 4, 1, 0, 1, 1, 0, 1, 0, 0, 42
F lydian (1b),  ,  ,  ,  , 0, 2, 0, 0, 1, 4, 1, 0, 1, 1, 1, 0, 1, 0,  ,  , 0, 1, 1, 1, 1, 3, 1, 0, 1, 1, 0, 0, 2, 1,  ,  , 1, 2, 2, 1, 1, 4, 1, 0, 1, 1, 0, 1, 0, 0, 40
G lydian (1#),  ,  ,  ,  , 0, 3, 0, 0, 0, 3, 0, 1, 1, 2, 0, 0, 2, 1,  ,  , 0, 2, 1, 1, 1, 3, 0, 1, 1, 2, 1, 1, 2, 1,  ,  , 0, 1, 1, 0, 0, 2, 0, 1, 1, 2, 1, 1, 1, 0, 41
F mixolydian (1b),  ,  ,  ,  , 0, 0, 0, 0, 1, 3, 1, 0, 0, 1, 2, 0, 0, 0,  ,  , 0, 3, 0, 0, 1, 2, 1, 0, 0, 0, 1, 0, 1, 1,  ,  , 1, 3, 2, 1, 1, 3, 1, 0, 0, 1, 1, 0, 1, 0, 33
G mixolydian (1#),  ,  ,  ,  , 0, 2, 0, 0, 1, 5, 1, 0, 1, 1, 1, 0, 1, 0,  ,  , 0, 1, 1, 1, 2, 3, 1, 0, 1, 1, 0, 0, 2, 1,  ,  , 1, 2, 2, 1, 1, 4, 1, 0, 1, 1, 0, 1, 0, 0, 42
F aeolian (1b),  ,  ,  ,  , 0, 1, 0, 0, 1, 3, 1, 0, 0, 0, 1, 0, 1, 0,  ,  , 0, 2, 0, 0, 1, 2, 1, 0, 0, 0, 0, 0, 2, 1,  ,  , 1, 3, 2, 1, 1, 3, 1, 0, 0, 0, 0, 1, 1, 0, 31
G aeolian (1#),  ,  ,  ,  , 0, 2, 0, 0, 1, 4, 0, 1, 1, 1, 0, 0, 1, 0,  ,  , 0, 1, 1, 1, 2, 2, 0, 1, 1, 1, 1, 1, 2, 1,  ,  , 1, 2, 1, 0, 1, 3, 0, 1, 1, 1, 1, 1, 0, 0, 39
F locrian (1b),  ,  ,  ,  , 0, 1, 1, 0, 1, 2, 1, 0, 0, 1, 2, 0, 0, 0,  ,  , 0, 3, 0, 0, 1, 1, 1, 0, 0, 0, 1, 0, 0, 0,  ,  , 1, 4, 1, 1, 1, 2, 1, 0, 0, 1, 1, 0, 1, 0, 30
G locrian (1#),  ,  ,  ,  , 0, 1, 0, 0, 1, 4, 1, 0, 0, 0, 1, 0, 1, 0,  ,  , 0, 2, 0, 0, 2, 2, 1, 0, 0, 0, 0, 0, 2, 1,  ,  , 1, 3, 2, 1, 1, 3, 1, 0, 0, 0, 0, 1, 1, 0, 33
Bb major (2b),  ,  ,  ,  , 0, 0, 0, 0, 1, 3, 1, 0, 0, 1, 2, 0, 0, 0,  ,  , 0, 2, 0, 0, 1, 2, 1, 0, 0, 0, 1, 0, 1, 1,  ,  , 1, 3, 2, 1, 1, 3, 1, 0, 0, 1, 1, 0, 3, 0, 34
D major (2#),  ,  ,  ,  , 0, 3, 0, 0, 0, 4, 0, 1, 1, 2, 0, 0, 2, 1,  ,  , 0, 2, 1, 1, 1, 4, 0, 1, 1, 2, 1, 1, 2, 1,  ,  , 0, 1, 1, 0, 0, 3, 0, 1, 1, 2, 1, 1, 1, 0, 44
G minor (2b),  ,  ,  ,  , 0, 0, 0, 0, 1, 3, 0, 1, 0, 1, 1, 0, 0, 0,  ,  , 0, 3, 0, 0, 2, 1, 0, 1, 0, 0, 2, 1, 1, 1,  ,  , 1, 3, 1, 0, 1, 2, 0, 1, 0, 1, 2, 0, 1, 0, 32
B minor (2#),  ,  ,  ,  , 0, 4, 1, 0, 0, 3, 0, 1, 0, 1, 0, 0, 3, 1,  ,  , 0, 1, 0, 0, 1, 3, 0, 1, 0, 1, 2, 1, 2, 1,  ,  , 0, 2, 1, 0, 0, 2, 0, 1, 0, 1, 2, 2, 1, 0, 39
G minor mel (2b),  ,  ,  ,  , 0, 1, 0, 0, 1, 3, 0, 1, 0, 0, 0, 0, 1, 0,  ,  , 0, 2, 0, 0, 2, 1, 0, 1, 0, 0, 1, 1, 2, 1,  ,  , 1, 3, 1, 0, 1, 2, 0, 1, 0, 0, 1, 1, 1, 0, 30
B minor mel (2#),  ,  ,  ,  , 0, 4, 2, 1, 0, 2, 0, 1, 0, 2, 0, 0, 3, 1,  ,  , 0, 1, 0, 0, 1, 2, 0, 1, 0, 2, 3, 2, 1, 0,  ,  , 0, 1, 0, 0, 0, 1, 0, 1, 0, 2, 2, 2, 2, 1, 41
Bb major blues (2b),  ,  ,  ,  , 1, 3, 1, 0, 1, 3, 1, 0, 0, 2, 3, 1, 2, 0,  ,  , 1, 3, 0, 0, 1, 2, 1, 0, 0, 1, 2, 0, 2, 1,  ,  , 1, 5, 2, 1, 1, 3, 1, 0, 0, 2, 2, 2, 3, 0, 55
D major blues (2#),  ,  ,  ,  , 0, 3, 1, 1, 1, 6, 1, 1, 1, 3, 1, 0, 2, 1,  ,  , 0, 2, 1, 1, 2, 5, 1, 1, 1, 3, 2, 2, 2, 1,  ,  , 1, 2, 2, 1, 1, 5, 1, 1, 1, 3, 1, 1, 2, 1, 69
G minor blues (2b),  ,  ,  ,  , 1, 3, 1, 0, 1, 4, 1, 0, 0, 2, 3, 1, 2, 0,  ,  , 1, 4, 0, 0, 2, 2, 1, 0, 0, 1, 2, 0, 2, 1,  ,  , 1, 5, 2, 1, 1, 3, 1, 0, 0, 2, 2, 2, 1, 0, 56
B minor blues (2#),  ,  ,  ,  , 0, 5, 1, 1, 1, 6, 1, 1, 1, 3, 1, 0, 3, 1,  ,  , 0, 2, 1, 1, 2, 5, 1, 1, 1, 3, 3, 2, 2, 1,  ,  , 1, 2, 2, 1, 1, 5, 1, 1, 1, 3, 2, 2, 2, 1, 75
Bb dorian (2b),  ,  ,  ,  , 0, 1, 0, 0, 1, 3, 1, 0, 0, 0, 1, 0, 1, 0,  ,  , 0, 1, 0, 0, 1, 2, 1, 0, 0, 0, 0, 0, 2, 1,  ,  , 1, 3, 2, 1, 1, 3, 1, 0, 0, 0, 0, 1, 3, 0, 32
D dorian (2#),  ,  ,  ,  , 0, 3, 1, 1, 0, 3, 0, 1, 1, 3, 0, 0, 2, 1,  ,  , 0, 2, 1, 1, 1, 3, 0, 1, 1, 3, 2, 2, 1, 0,  ,  , 0, 0, 0, 0, 0, 2, 0, 1, 1, 3, 1, 1, 2, 1, 46
Bb phrygian (2b),  ,  ,  ,  , 0, 3, 1, 1, 1, 5, 1, 0, 1, 2, 1, 0, 2, 0,  ,  , 0, 1, 1, 1, 2, 3, 1, 0, 1, 2, 1, 1, 1, 0,  ,  , 1, 1, 1, 1, 1, 4, 1, 0, 1, 2, 0, 2, 1, 1, 50
D phrygian (2#),  ,  ,  ,  , 0, 3, 1, 1, 1, 4, 0, 1, 1, 2, 0, 0, 2, 0,  ,  , 0, 1, 1, 1, 2, 2, 0, 1, 1, 2, 2, 2, 1, 0,  ,  , 1, 1, 0, 0, 1, 3, 0, 1, 1, 2, 1, 2, 1, 1, 47
Bb lydian (2b),  ,  ,  ,  , 0, 2, 0, 0, 1, 4, 1, 1, 1, 2, 2, 0, 1, 0,  ,  , 0, 3, 1, 1, 1, 3, 1, 1, 1, 1, 2, 1, 2, 1,  ,  , 1, 3, 2, 1, 1, 4, 1, 1, 1, 2, 2, 1, 1, 0, 55
D lydian (2#),  ,  ,  ,  , 0, 3, 0, 0, 1, 6, 1, 1, 1, 2, 2, 0, 2, 0,  ,  , 0, 3, 1, 1, 2, 4, 1, 1, 1, 1, 2, 1, 2, 1,  ,  , 1, 3, 2, 1, 1, 5, 1, 1, 1, 2, 2, 2, 1, 0, 63
Bb mixolydian (2b),  ,  ,  ,  , 0, 2, 0, 0, 1, 3, 0, 1, 1, 1, 0, 0, 1, 0,  ,  , 0, 1, 1, 1, 1, 2, 0, 1, 1, 1, 1, 1, 2, 1,  ,  , 1, 2, 1, 0, 1, 3, 0, 1, 1, 1, 1, 1, 0, 0, 37
D mixolydian (2#),  ,  ,  ,  , 0, 1, 0, 0, 1, 3, 1, 0, 0, 0, 1, 0, 1, 0,  ,  , 0, 2, 0, 0, 1, 2, 1, 0, 0, 0, 0, 0, 2, 1,  ,  , 1, 3, 2, 1, 1, 3, 1, 0, 0, 0, 0, 1, 1, 0, 31
Bb aeolian (2b),  ,  ,  ,  , 0, 2, 0, 0, 1, 3, 0, 1, 1, 1, 0, 0, 1, 0,  ,  , 0, 1, 1, 1, 1, 2, 0, 1, 1, 1, 1, 1, 2, 1,  ,  , 1, 2, 1, 0, 1, 3, 0, 1, 1, 1, 1, 1, 0, 0, 37
D aeolian (2#),  ,  ,  ,  , 0, 1, 0, 0, 1, 3, 1, 0, 0, 0, 1, 0, 1, 0,  ,  , 0, 2, 0, 0, 1, 2, 1, 0, 0, 0, 0, 0, 2, 1,  ,  , 1, 3, 2, 1, 1, 3, 1, 0, 0, 0, 0, 1, 1, 0, 31
Bb locrian (2b),  ,  ,  ,  , 0, 2, 0, 0, 1, 4, 1, 0, 1, 1, 1, 0, 1, 0,  ,  , 0, 1, 1, 1, 1, 3, 1, 0, 1, 1, 0, 0, 2, 1,  ,  , 1, 2, 2, 1, 1, 4, 1, 0, 1, 1, 0, 1, 0, 0, 40
D locrian (2#),  ,  ,  ,  , 0, 0, 0, 0, 1, 3, 1, 0, 0, 1, 2, 0, 0, 0,  ,  , 0, 3, 0, 0, 1, 2, 1, 0, 0, 0, 1, 0, 1, 1,  ,  , 1, 3, 2, 1, 1, 3, 1, 0, 0, 1, 1, 0, 1, 0, 33
Eb major (3b),  ,  ,  ,  , 0, 1, 0, 0, 1, 3, 1, 0, 0, 0, 1, 0, 1, 0,  ,  , 0, 2, 0, 0, 1, 2, 1, 0, 0, 0, 0, 0, 2, 1,  ,  , 1, 3, 2, 1, 1, 3, 1, 0, 0, 0, 0, 1, 1, 0, 31
A major (3#),  ,  ,  ,  , 0, 2, 0, 0, 1, 4, 0, 1, 1, 1, 0, 0, 1, 0,  ,  , 0, 1, 1, 1, 2, 2, 0, 1, 1, 1, 1, 1, 2, 1,  ,  , 1, 2, 1, 0, 1, 3, 0, 1, 1, 1, 1, 1, 0, 0, 39
C minor (3b),  ,  ,  ,  , 0, 2, 0, 0, 0, 4, 1, 0, 0, 1, 1, 0, 2, 1,  ,  , 0, 3, 0, 0, 1, 4, 1, 0, 0, 1, 0, 0, 2, 1,  ,  , 0, 2, 2, 1, 0, 3, 1, 0, 0, 1, 0, 1, 2, 0, 38
F# minor (3#),  ,  ,  ,  , 1, 5, 0, 0, 1, 5, 0, 1, 1, 2, 1, 1, 1, 0,  ,  , 1, 2, 1, 1, 2, 3, 0, 1, 1, 2, 2, 1, 1, 1,  ,  , 1, 3, 1, 0, 1, 4, 0, 1, 1, 2, 2, 1, 0, 0, 55
C minor mel (3b),  ,  ,  ,  , 0, 1, 0, 0, 1, 4, 1, 0, 1, 2, 2, 0, 0, 0,  ,  , 0, 2, 1, 1, 1, 3, 1, 0, 1, 1, 1, 0, 1, 1,  ,  , 1, 2, 2, 1, 1, 4, 1, 0, 1, 2, 1, 0, 0, 0, 42
F# minor mel (3#),  ,  ,  ,  , 1, 6, 1, 1, 0, 3, 0, 0, 1, 5, 2, 1, 2, 1,  ,  , 1, 5, 1, 1, 1, 3, 0, 0, 1, 4, 3, 1, 0, 0,  ,  , 0, 1, 0, 0, 0, 2, 0, 0, 1, 5, 2, 1, 3, 1, 61
Eb major blues (3b),  ,  ,  ,  , 0, 2, 0, 0, 1, 4, 1, 0, 1, 1, 1, 0, 1, 0,  ,  , 0, 1, 1, 1, 1, 3, 1, 0, 1, 1, 0, 0, 2, 1,  ,  , 1, 2, 2, 1, 1, 4, 1, 0, 1, 1, 0, 1, 0, 0, 40
A major blues (3#),  ,  ,  ,  , 0, 3, 1, 1, 1, 5, 1, 0, 1, 2, 1, 0, 2, 0,  ,  , 0, 1, 1, 1, 2, 3, 1, 0, 1, 2, 1, 1, 1, 0,  ,  , 1, 1, 1, 1, 1, 4, 1, 0, 1, 2, 0, 2, 1, 1, 50
C minor blues (3b),  ,  ,  ,  , 0, 3, 1, 1, 1, 4, 0, 1, 1, 2, 0, 0, 2, 0,  ,  , 0, 1, 1, 1, 2, 2, 0, 1, 1, 2, 2, 2, 1, 0,  ,  , 1, 1, 0, 0, 1, 3, 0, 1, 1, 2, 1, 2, 1, 1, 47
F# minor blues (3#),  ,  ,  ,  , 0, 2, 0, 0, 1, 4, 1, 1, 1, 2, 2, 0, 1, 0,  ,  , 0, 3, 1, 1, 1, 3, 1, 1, 1, 1, 2, 1, 2, 1,  ,  , 1, 3, 2, 1, 1, 4, 1, 1, 1, 2, 2, 1, 1, 0, 55
Eb dorian (3b),  ,  ,  ,  , 0, 3, 0, 0, 1, 6, 1, 1, 1, 2, 2, 0, 2, 0,  ,  , 0, 3, 1, 1, 2, 4, 1, 1, 1, 1, 2, 1, 2, 1,  ,  , 1, 3, 2, 1, 1, 5, 1, 1, 1, 2, 2, 2, 1, 0, 63
A dorian (3#),  ,  ,  ,  , 0, 2, 0, 0, 1, 3, 0, 1, 1, 1, 0, 0, 1, 0,  ,  , 0, 1, 1, 1, 1, 2, 0, 1, 1, 1, 1, 1, 2, 1,  ,  , 1, 2, 1, 0, 1, 3, 0, 1, 1, 1, 1, 1, 0, 0, 37
Eb phrygian (3b),  ,  ,  ,  , 0, 1, 0, 0, 1, 3, 1, 0, 0, 0, 1, 0, 1, 0,  ,  , 0, 2, 0, 0, 1, 2, 1, 0, 0, 0, 0, 0, 2, 1,  ,  , 1, 3, 2, 1, 1, 3, 1, 0, 0, 0, 0, 1, 1, 0, 31
A phrygian (3#),  ,  ,  ,  , 0, 2, 0, 0, 1, 3, 0, 1, 1, 1, 0, 0, 1, 0,  ,  , 0, 1, 1, 1, 1, 2, 0, 1, 1, 1, 1, 1, 2, 1,  ,  , 1, 2, 1, 0, 1, 3, 0, 1, 1, 1, 1, 1, 0, 0, 37
Eb lydian (3b),  ,  ,  ,  , 0, 1, 0, 0, 1, 3, 1, 0, 0, 0, 1, 0, 1, 0,  ,  , 0, 2, 0, 0, 1, 2, 1, 0, 0, 0, 0, 0, 2, 1,  ,  , 1, 3, 2, 1, 1, 3, 1, 0, 0, 0, 0, 1, 1, 0, 31
A lydian (3#),  ,  ,  ,  , 0, 2, 0, 0, 1, 4, 1, 0, 1, 1, 1, 0, 1, 0,  ,  , 0, 1, 1, 1, 1, 3, 1, 0, 1, 1, 0, 0, 2, 1,  ,  , 1, 2, 2, 1, 1, 4, 1, 0, 1, 1, 0, 1, 0, 0, 40
Eb mixolydian (3b),  ,  ,  ,  , 0, 0, 0, 0, 1, 3, 1, 0, 0, 1, 2, 0, 0, 0,  ,  , 0, 3, 0, 0, 1, 2, 1, 0, 0, 0, 1, 0, 1, 1,  ,  , 1, 3, 2, 1, 1, 3, 1, 0, 0, 1, 1, 0, 1, 0, 33
A mixolydian (3#),  ,  ,  ,  , 0, 1, 0, 0, 1, 3, 1, 0, 0, 0, 1, 0, 1, 0,  ,  , 0, 2, 0, 0, 1, 2, 1, 0, 0, 0, 0, 0, 2, 1,  ,  , 1, 3, 2, 1, 1, 3, 1, 0, 0, 0, 0, 1, 1, 0, 31
Eb aeolian (3b),  ,  ,  ,  , 0, 2, 0, 0, 1, 4, 0, 1, 1, 1, 0, 0, 1, 0,  ,  , 0, 1, 1, 1, 2, 2, 0, 1, 1, 1, 1, 1, 2, 1,  ,  , 1, 2, 1, 0, 1, 3, 0, 1, 1, 1, 1, 1, 0, 0, 39
A aeolian (3#),  ,  ,  ,  , 0, 2, 0, 0, 0, 4, 1, 0, 0, 1, 1, 0, 2, 1,  ,  , 0, 3, 0, 0, 1, 4, 1, 0, 0, 1, 0, 0, 2, 1,  ,  , 0, 2, 2, 1, 0, 3, 1, 0, 0, 1, 0, 1, 2, 0, 38
Eb locrian (3b),  ,  ,  ,  , 0, 3, 1, 1, 1, 5, 1, 0, 1, 2, 1, 0, 2, 0,  ,  , 0, 1, 1, 1, 2, 3, 1, 0, 1, 2, 1, 1, 1, 0,  ,  , 1, 1, 1, 1, 1, 4, 1, 0, 1, 2, 0, 2, 1, 1, 50
A locrian (3#),  ,  ,  ,  , 0, 3, 1, 1, 1, 4, 0, 1, 1, 2, 0, 0, 2, 0,  ,  , 0, 1, 1, 1, 2, 2, 0, 1, 1, 2, 2, 2, 1, 0,  ,  , 1, 1, 0, 0, 1, 3, 0, 1, 1, 2, 1, 2, 1, 1, 47
Ab major (4b),  ,  ,  ,  , 0, 2, 0, 0, 1, 4, 1, 1, 1, 2, 2, 0, 1, 0,  ,  , 0, 3, 1, 1, 1, 3, 1, 1, 1, 1, 2, 1, 2, 1,  ,  , 1, 3, 2, 1, 1, 4, 1, 1, 1, 2, 2, 1, 1, 0, 55
E major (4#),  ,  ,  ,  , 0, 3, 0, 0, 1, 6, 1, 1, 1, 2, 2, 0, 2, 0,  ,  , 0, 3, 1, 1, 2, 4, 1, 1, 1, 1, 2, 1, 2, 1,  ,  , 1, 3, 2, 1, 1, 5, 1, 1, 1, 2, 2, 2, 1, 0, 63
F minor (4b),  ,  ,  ,  , 0, 2, 0, 0, 1, 3, 0, 1, 1, 1, 0, 0, 1, 0,  ,  , 0, 1, 1, 1, 1, 2, 0, 1, 1, 1, 1, 1, 2, 1,  ,  , 1, 2, 1, 0, 1, 3, 0, 1, 1, 1, 1, 1, 0, 0, 37
C# minor (4#),  ,  ,  ,  , 0, 1, 0, 0, 1, 3, 1, 0, 0, 0, 1, 0, 1, 0,  ,  , 0, 2, 0, 0, 1, 2, 1, 0, 0, 0, 0, 0, 2, 1,  ,  , 1, 3, 2, 1, 1, 3, 1, 0, 0, 0, 0, 1, 1, 0, 31
F minor mel (4b),  ,  ,  ,  , 0, 2, 0, 0, 1, 3, 0, 1, 1, 1, 0, 0, 1, 0,  ,  , 0, 1, 1, 1, 1, 2, 0, 1, 1, 1, 1, 1, 2, 1,  ,  , 1, 2, 1, 0, 1, 3, 0, 1, 1, 1, 1, 1, 0, 0, 37
C# minor mel (4#),  ,  ,  ,  , 0, 1, 0, 0, 1, 3, 1, 0, 0, 0, 1, 0, 1, 0,  ,  , 0, 2, 0, 0, 1, 2, 1, 0, 0, 0, 0, 0, 2, 1,  ,  , 1, 3, 2, 1, 1, 3, 1, 0, 0, 0, 0, 1, 1, 0, 31
Ab major blues (4b),  ,  ,  ,  , 0, 2, 0, 0, 1, 4, 1, 0, 1, 1, 1, 0, 1, 0,  ,  , 0, 1, 1, 1, 1, 3, 1, 0, 1, 1, 0, 0, 2, 1,  ,  , 1, 2, 2, 1, 1, 4, 1, 0, 1, 1, 0, 1, 0, 0, 40
E major blues (4#),  ,  ,  ,  , 0, 0, 0, 0, 1, 3, 1, 0, 0, 1, 2, 0, 0, 0,  ,  , 0, 3, 0, 0, 1, 2, 1, 0, 0, 0, 1, 0, 1, 1,  ,  , 1, 3, 2, 1, 1, 3, 1, 0, 0, 1, 1, 0, 1, 0, 33
F minor blues (4b),  ,  ,  ,  , 0, 1, 0, 0, 1, 3, 1, 0, 0, 0, 1, 0, 1, 0,  ,  , 0, 2, 0, 0, 1, 2, 1, 0, 0, 0, 0, 0, 2, 1,  ,  , 1, 3, 2, 1, 1, 3, 1, 0, 0, 0, 0, 1, 1, 0, 31
C# minor blues (4#),  ,  ,  ,  , 0, 2, 0, 0, 1, 4, 0, 1, 1, 1, 0, 0, 1, 0,  ,  , 0, 1, 1, 1, 2, 2, 0, 1, 1, 1, 1, 1, 2, 1,  ,  , 1, 2, 1, 0, 1, 3, 0, 1, 1, 1, 1, 1, 0, 0, 39
Ab dorian (4b),  ,  ,  ,  , 0, 2, 0, 0, 0, 4, 1, 0, 0, 1, 1, 0, 2, 1,  ,  , 0, 3, 0, 0, 1, 4, 1, 0, 0, 1, 0, 0, 2, 1,  ,  , 0, 2, 2, 1, 0, 3, 1, 0, 0, 1, 0, 1, 2, 0, 38
E dorian (4#),  ,  ,  ,  , 1, 5, 0, 0, 1, 5, 0, 1, 1, 2, 1, 1, 1, 0,  ,  , 1, 2, 1, 1, 2, 3, 0, 1, 1, 2, 2, 1, 1, 1,  ,  , 1, 3, 1, 0, 1, 4, 0, 1, 1, 2, 2, 1, 0, 0, 55
Ab phrygian (4b),  ,  ,  ,  , 0, 1, 0, 0, 1, 4, 1, 0, 1, 2, 2, 0, 0, 0,  ,  , 0, 2, 1, 1, 1, 3, 1, 0, 1, 1, 1, 0, 1, 1,  ,  , 1, 2, 2, 1, 1, 4, 1, 0, 1, 2, 1, 0, 0, 0, 42
E phrygian (4#),  ,  ,  ,  , 1, 6, 1, 1, 0, 3, 0, 0, 1, 5, 2, 1, 2, 1,  ,  , 1, 5, 1, 1, 1, 3, 0, 0, 1, 4, 3, 1, 0, 0,  ,  , 0, 1, 0, 0, 0, 2, 0, 0, 1, 5, 2, 1, 3, 1, 61
Ab lydian (4b),  ,  ,  ,  , 0, 2, 0, 0, 1, 4, 1, 0, 1, 1, 1, 0, 1, 0,  ,  , 0, 1, 1, 1, 1, 3, 1, 0, 1, 1, 0, 0, 2, 1,  ,  , 1, 2, 2, 1, 1, 4, 1, 0, 1, 1, 0, 1, 0, 0, 40
E lydian (4#),  ,  ,  ,  , 0, 3, 1, 1, 1, 5, 1, 0, 1, 2, 1, 0, 2, 0,  ,  , 0, 1, 1, 1, 2, 3, 1, 0, 1, 2, 1, 1, 1, 0,  ,  , 1, 1, 1, 1, 1, 4, 1, 0, 1, 2, 0, 2, 1, 1, 50
Ab mixolydian (4b),  ,  ,  ,  , 0, 3, 1, 1, 1, 4, 0, 1, 1, 2, 0, 0, 2, 0,  ,  , 0, 1, 1, 1, 2, 2, 0, 1, 1, 2, 2, 2, 1, 0,  ,  , 1, 1, 0, 0, 1, 3, 0, 1, 1, 2, 1, 2, 1, 1, 47
E mixolydian (4#),  ,  ,  ,  , 0, 2, 0, 0, 1, 4, 1, 1, 1, 2, 2, 0, 1, 0,  ,  , 0, 3, 1, 1, 1, 3, 1, 1, 1, 1, 2, 1, 2, 1,  ,  , 1, 3, 2, 1, 1, 4, 1, 1, 1, 2, 2, 1, 1, 0, 55
Ab aeolian (4b),  ,  ,  ,  , 0, 3, 0, 0, 1, 6, 1, 1, 1, 2, 2, 0, 2, 0,  ,  , 0, 3, 1, 1, 2, 4, 1, 1, 1, 1, 2, 1, 2, 1,  ,  , 1, 3, 2, 1, 1, 5, 1, 1, 1, 2, 2, 2, 1, 0, 63
E aeolian (4#),  ,  ,  ,  , 0, 2, 0, 0, 1, 3, 0, 1, 1, 1, 0, 0, 1, 0,  ,  , 0, 1, 1, 1, 1, 2, 0, 1, 1, 1, 1, 1, 2, 1,  ,  , 1, 2, 1, 0, 1, 3, 0, 1, 1, 1, 1, 1, 0, 0, 37
Ab locrian (4b),  ,  ,  ,  , 0, 1, 0, 0, 1, 3, 1, 0, 0, 0, 1, 0, 1, 0,  ,  , 0, 2, 0, 0, 1, 2, 1, 0, 0, 0, 0, 0, 2, 1,  ,  , 1, 3, 2, 1, 1, 3, 1, 0, 0, 0, 0, 1, 1, 0, 31
E locrian (4#),  ,  ,  ,  , 0, 2, 0, 0, 1, 3, 0, 1, 1, 1, 0, 0, 1, 0,  ,  , 0, 1, 1, 1, 1, 2, 0, 1, 1, 1, 1, 1, 2, 1,  ,  , 1, 2, 1, 0, 1, 3, 0, 1, 1, 1, 1, 1, 0, 0, 37
Db major (5b),  ,  ,  ,  , 0, 1, 0, 0, 1, 3, 1, 0, 0, 0, 1, 0, 1, 0,  ,  , 0, 2, 0, 0, 1, 2, 1, 0, 0, 0, 0, 0, 2, 1,  ,  , 1, 3, 2, 1, 1, 3, 1, 0, 0, 0, 0, 1, 1, 0, 31
B major (5#),  ,  ,  ,  , 0, 2, 0, 0, 1, 4, 1, 0, 1, 1, 1, 0, 1, 0,  ,  , 0, 1, 1, 1, 1, 3, 1, 0, 1, 1, 0, 0, 2, 1,  ,  , 1, 2, 2, 1, 1, 4, 1, 0, 1, 1, 0, 1, 0, 0, 40
Bb minor (5b),  ,  ,  ,  , 0, 0, 0, 0, 1, 3, 1, 0, 0, 1, 2, 0, 0, 0,  ,  , 0, 3, 0, 0, 1, 2, 1, 0, 0, 0, 1, 0, 1, 1,  ,  , 1, 3, 2, 1, 1, 3, 1, 0, 0, 1, 1, 0, 1, 0, 33
G# minor (5#),  ,  ,  ,  , 0, 1, 0, 0, 1, 3, 1, 0, 0, 0, 1, 0, 1, 0,  ,  , 0, 2, 0, 0, 1, 2, 1, 0, 0, 0, 0, 0, 2, 1,  ,  , 1, 3, 2, 1, 1, 3, 1, 0, 0, 0, 0, 1, 1, 0, 31
Bb minor mel (5b),  ,  ,  ,  , 0, 2, 0, 0, 1, 4, 0, 1, 1, 1, 0, 0, 1, 0,  ,  , 0, 1, 1, 1, 2, 2, 0, 1, 1, 1, 1, 1, 2, 1,  ,  , 1, 2, 1, 0, 1, 3, 0, 1, 1, 1, 1, 1, 0, 0, 39
G# minor mel (5#),  ,  ,  ,  , 0, 2, 0, 0, 0, 4, 1, 0, 0, 1, 1, 0, 2, 1,  ,  , 0, 3, 0, 0, 1, 4, 1, 0, 0, 1, 0, 0, 2, 1,  ,  , 0, 2, 2, 1, 0, 3, 1, 0, 0, 1, 0, 1, 2, 0, 38
Db major blues (5b),  ,  ,  ,  , 0, 2, 0, 0, 1, 4, 1, 0, 1, 1, 1, 0, 1, 0,  ,  , 0, 1, 1, 1, 1, 3, 1, 0, 1, 1, 0, 0, 2, 1,  ,  , 1, 2, 2, 1, 1, 4, 1, 0, 1, 1, 0, 1, 0, 0, 40
B major blues (5#),  ,  ,  ,  , 0, 3, 1, 1, 1, 5, 1, 0, 1, 2, 1, 0, 2, 0,  ,  , 0, 1, 1, 1, 2, 3, 1, 0, 1, 2, 1, 1, 1, 0,  ,  , 1, 1, 1, 1, 1, 4, 1, 0, 1, 2, 0, 2, 1, 1, 50
Bb minor blues (5b),  ,  ,  ,  , 0, 3, 1, 1, 1, 4, 0, 1, 1, 2, 0, 0, 2, 0,  ,  , 0, 1, 1, 1, 2, 2, 0, 1, 1, 2, 2, 2, 1, 0,  ,  , 1, 1, 0, 0, 1, 3, 0, 1, 1, 2, 1, 2, 1, 1, 47
G# minor blues (5#),  ,  ,  ,  , 0, 2, 0, 0, 1, 4, 1, 1, 1, 2, 2, 0, 1, 0,  ,  , 0, 3, 1, 1, 1, 3, 1, 1, 1, 1, 2, 1, 2, 1,  ,  , 1, 3, 2, 1, 1, 4, 1, 1, 1, 2, 2, 1, 1, 0, 55
Db dorian (5b),  ,  ,  ,  , 0, 3, 0, 0, 1, 6, 1, 1, 1, 2, 2, 0, 2, 0,  ,  , 0, 3, 1, 1, 2, 4, 1, 1, 1, 1, 2, 1, 2, 1,  ,  , 1, 3, 2, 1, 1, 5, 1, 1, 1, 2, 2, 2, 1, 0, 63
B dorian (5#),  ,  ,  ,  , 0, 2, 0, 0, 1, 3, 0, 1, 1, 1, 0, 0, 1, 0,  ,  , 0, 1, 1, 1, 1, 2, 0, 1, 1, 1, 1, 1, 2, 1,  ,  , 1, 2, 1, 0, 1, 3, 0, 1, 1, 1, 1, 1, 0, 0, 37
Db phrygian (5b),  ,  ,  ,  , 0, 1, 0, 0, 1, 3, 1, 0, 0, 0, 1, 0, 1, 0,  ,  , 0, 2, 0, 0, 1, 2, 1, 0, 0, 0, 0, 0, 2, 1,  ,  , 1, 3, 2, 1, 1, 3, 1, 0, 0, 0, 0, 1, 1, 0, 31
B phrygian (5#),  ,  ,  ,  , 0, 2, 0, 0, 1, 3, 0, 1, 1, 1, 0, 0, 1, 0,  ,  , 0, 1, 1, 1, 1, 2, 0, 1, 1, 1, 1, 1, 2, 1,  ,  , 1, 2, 1, 0, 1, 3, 0, 1, 1, 1, 1, 1, 0, 0, 37
Db lydian (5b),  ,  ,  ,  , 0, 1, 0, 0, 1, 3, 1, 0, 0, 0, 1, 0, 1, 0,  ,  , 0, 2, 0, 0, 1, 2, 1, 0, 0, 0, 0, 0, 2, 1,  ,  , 1, 3, 2, 1, 1, 3, 1, 0, 0, 0, 0, 1, 1, 0, 31
B lydian (5#),  ,  ,  ,  , 0, 2, 0, 0, 1, 4, 1, 0, 1, 1, 1, 0, 1, 0,  ,  , 0, 1, 1, 1, 1, 3, 1, 0, 1, 1, 0, 0, 2, 1,  ,  , 1, 2, 2, 1, 1, 4, 1, 0, 1, 1, 0, 1, 0, 0, 40
Db mixolydian (5b),  ,  ,  ,  , 0, 0, 0, 0, 1, 3, 1, 0, 0, 1, 2, 0, 0, 0,  ,  , 0, 3, 0, 0, 1, 2, 1, 0, 0, 0, 1, 0, 1, 1,  ,  , 1, 3, 2, 1, 1, 3, 1, 0, 0, 1, 1, 0, 1, 0, 33
B mixolydian (5#),  ,  ,  ,  , 0, 1, 0, 0, 1, 3, 1, 0, 0, 0, 1, 0, 1, 0,  ,  , 0, 2, 0, 0, 1, 2, 1, 0, 0, 0, 0, 0, 2, 1,  ,  , 1, 3, 2, 1, 1, 3, 1, 0, 0, 0, 0, 1, 1, 0, 31
Db aeolian (5b),  ,  ,  ,  , 0, 2, 0, 0, 1, 4, 0, 1, 1, 1, 0, 0, 1, 0,  ,  , 0, 1, 1, 1, 2, 2, 0, 1, 1, 1, 1, 1, 2, 1,  ,  , 1, 2, 1, 0, 1, 3, 0, 1, 1, 1, 1, 1, 0, 0, 39
B aeolian (5#),  ,  ,  ,  , 0, 2, 0, 0, 0, 4, 1, 0, 0, 1, 1, 0, 2, 1,  ,  , 0, 3, 0, 0, 1, 4, 1, 0, 0, 1, 0, 0, 2, 1,  ,  , 0, 2, 2, 1, 0, 3, 1, 0, 0, 1, 0, 1, 2, 0, 38
Db locrian (5b),  ,  ,  ,  , 1, 5, 0, 0, 1, 5, 0, 1, 1, 2, 1, 1, 1, 0,  ,  , 1, 2, 1, 1, 2, 3, 0, 1, 1, 2, 2, 1, 1, 1,  ,  , 1, 3, 1, 0, 1, 4, 0, 1, 1, 2, 2, 1, 0, 0, 55
B locrian (5#),  ,  ,  ,  , 0, 5, 1, 1, 0, 3, 0, 1, 1, 3, 0, 0, 3, 1,  ,  , 0, 2, 1, 1, 1, 3, 0, 1, 1, 3, 3, 2, 1, 0,  ,  , 0, 0, 0, 0, 0, 2, 0, 1, 1, 3, 2, 2, 2, 1, 52
Gb major (6b),  ,  ,  ,  , 1, 6, 1, 1, 0, 3, 0, 0, 1, 5, 2, 1, 2, 1,  ,  , 1, 5, 1, 1, 1, 3, 0, 0, 1, 4, 3, 1, 0, 0,  ,  , 0, 1, 0, 0, 0, 2, 0, 0, 1, 5, 2, 1, 3, 1, 61
F# major (6#),  ,  ,  ,  , 0, 2, 0, 0, 1, 4, 1, 0, 1, 1, 1, 0, 1, 0,  ,  , 0, 1, 1, 1, 1, 3, 1, 0, 1, 1, 0, 0, 2, 1,  ,  , 1, 2, 2, 1, 1, 4, 1, 0, 1, 1, 0, 1, 0, 0, 40
Eb minor (6b),  ,  ,  ,  , 0, 3, 1, 1, 1, 5, 1, 0, 1, 2, 1, 0, 2, 0,  ,  , 0, 1, 1, 1, 2, 3, 1, 0, 1, 2, 1, 1, 1, 0,  ,  , 1, 1, 1, 1, 1, 4, 1, 0, 1, 2, 0, 2, 1, 1, 50
D# minor (6#),  ,  ,  ,  , 0, 3, 1, 1, 1, 4, 0, 1, 1, 2, 0, 0, 2, 0,  ,  , 0, 1, 1, 1, 2, 2, 0, 1, 1, 2, 2, 2, 1, 0,  ,  , 1, 1, 0, 0, 1, 3, 0, 1, 1, 2, 1, 2, 1, 1, 47
Eb minor mel (6b),  ,  ,  ,  , 0, 2, 0, 0, 1, 4, 1, 1, 1, 2, 2, 0, 1, 0,  ,  , 0, 3, 1, 1, 1, 3, 1, 1, 1, 1, 2, 1, 2, 1,  ,  , 1, 3, 2, 1, 1, 4, 1, 1, 1, 2, 2, 1, 1, 0, 55
D# minor mel (6#),  ,  ,  ,  , 0, 3, 0, 0, 1, 6, 1, 1, 1, 2, 2, 0, 2, 0,  ,  , 0, 3, 1, 1, 2, 4, 1, 1, 1, 1, 2, 1, 2, 1,  ,  , 1, 3, 2, 1, 1, 5, 1, 1, 1, 2, 2, 2, 1, 0, 63
Gb major blues (6b),  ,  ,  ,  , 0, 2, 0, 0, 1, 3, 0, 1, 1, 1, 0, 0, 1, 0,  ,  , 0, 1, 1, 1, 1, 2, 0, 1, 1, 1, 1, 1, 2, 1,  ,  , 1, 2, 1, 0, 1, 3, 0, 1, 1, 1, 1, 1, 0, 0, 37
F# major blues (6#),  ,  ,  ,  , 0, 1, 0, 0, 1, 3, 1, 0, 0, 0, 1, 0, 1, 0,  ,  , 0, 2, 0, 0, 1, 2, 1, 0, 0, 0, 0, 0, 2, 1,  ,  , 1, 3, 2, 1, 1, 3, 1, 0, 0, 0, 0, 1, 1, 0, 31
Eb minor blues (6b),  ,  ,  ,  , 0, 2, 0, 0, 1, 3, 0, 1, 1, 1, 0, 0, 1, 0,  ,  , 0, 1, 1, 1, 1, 2, 0, 1, 1, 1, 1, 1, 2, 1,  ,  , 1, 2, 1, 0, 1, 3, 0, 1, 1, 1, 1, 1, 0, 0, 37
D# minor blues (6#),  ,  ,  ,  , 0, 1, 0, 0, 1, 3, 1, 0, 0, 0, 1, 0, 1, 0,  ,  , 0, 2, 0, 0, 1, 2, 1, 0, 0, 0, 0, 0, 2, 1,  ,  , 1, 3, 2, 1, 1, 3, 1, 0, 0, 0, 0, 1, 1, 0, 31
Gb dorian (6b),  ,  ,  ,  , 0, 2, 0, 0, 1, 4, 1, 0, 1, 1, 1, 0, 1, 0,  ,  , 0, 1, 1, 1, 1, 3, 1, 0, 1, 1, 0, 0, 2, 1,  ,  , 1, 2, 2, 1, 1, 4, 1, 0, 1, 1, 0, 1, 0, 0, 40
F# dorian (6#),  ,  ,  ,  , 0, 0, 0, 0, 1, 3, 1, 0, 0, 1, 2, 0, 0, 0,  ,  , 0, 3, 0, 0, 1, 2, 1, 0, 0, 0, 1, 0, 1, 1,  ,  , 1, 3, 2, 1, 1, 3, 1, 0, 0, 1, 1, 0, 1, 0, 33
Gb phrygian (6b),  ,  ,  ,  , 0, 1, 0, 0, 1, 3, 1, 0, 0, 0, 1, 0, 1, 0,  ,  , 0, 2, 0, 0, 1, 2, 1, 0, 0, 0, 0, 0, 2, 1,  ,  , 1, 3, 2, 1, 1, 3, 1, 0, 0, 0, 0, 1, 1, 0, 31
F# phrygian (6#),  ,  ,  ,  , 0, 2, 0, 0, 1, 4, 0, 1, 1, 1, 0, 0, 1, 0,  ,  , 0, 1, 1, 1, 2, 2, 0, 1, 1, 1, 1, 1, 2, 1,  ,  , 1, 2, 1, 0, 1, 3, 0, 1, 1, 1, 1, 1, 0, 0, 39
Gb lydian (6b),  ,  ,  ,  , 2, 7, 4, 2, 0, 2, 0, 0, 0, 5, 3, 2, 2, 0,  ,  , 2, 4, 0, 0, 0, 2, 0, 0, 0, 4, 5, 2, 0, 0,  ,  , 0, 5, 0, 0, 0, 2, 0, 0, 0, 5, 3, 2, 5, 2, 72
F# lydian (6#),  ,  ,  ,  , 1, 4, 2, 1, 0, 1, 0, 0, 0, 3, 2, 1, 1, 0,  ,  , 1, 3, 0, 0, 0, 1, 0, 0, 0, 2, 3, 1, 0, 0,  ,  , 0, 3, 0, 0, 0, 1, 0, 0, 0, 3, 2, 1, 4, 1, 42
Gb mixolydian (6b),  ,  ,  ,  , 2, 8, 4, 2, 0, 3, 0, 1, 0, 5, 2, 2, 3, 1,  ,  , 2, 4, 0, 0, 1, 3, 0, 1, 0, 5, 6, 3, 0, 0,  ,  , 0, 4, 0, 0, 0, 2, 0, 1, 0, 5, 4, 2, 4, 2, 82
F# mixolydian (6#),  ,  ,  ,  , 1, 5, 2, 1, 0, 2, 0, 1, 0, 3, 1, 1, 2, 1,  ,  , 1, 3, 0, 0, 1, 2, 0, 1, 0, 3, 4, 2, 0, 0,  ,  , 0, 2, 0, 0, 0, 1, 0, 1, 0, 3, 3, 1, 3, 1, 52
Gb aeolian (6b),  ,  ,  ,  , 2, 8, 4, 2, 0, 3, 0, 0, 0, 6, 3, 2, 3, 1,  ,  , 2, 5, 0, 0, 1, 3, 0, 0, 0, 5, 5, 2, 0, 0,  ,  , 0, 4, 0, 0, 0, 2, 0, 0, 0, 6, 3, 2, 4, 2, 80
F# aeolian (6#),  ,  ,  ,  , 1, 5, 2, 1, 0, 2, 0, 0, 0, 4, 2, 1, 2, 1,  ,  , 1, 4, 0, 0, 1, 2, 0, 0, 0, 3, 3, 1, 0, 0,  ,  , 0, 2, 0, 0, 0, 1, 0, 0, 0, 4, 2, 1, 3, 1, 50
Gb locrian (6b),  ,  ,  ,  , 2, 9, 2, 2, 0, 4, 0, 1, 1, 6, 2, 2, 3, 1,  ,  , 2, 5, 1, 1, 1, 4, 0, 1, 1, 6, 6, 3, 0, 0,  ,  , 0, 2, 0, 0, 0, 3, 0, 1, 1, 6, 4, 2, 4, 2, 91
F# locrian (6#),  ,  ,  ,  , 1, 6, 1, 1, 0, 3, 0, 1, 1, 4, 1, 1, 2, 1,  ,  , 1, 4, 1, 1, 1, 3, 0, 1, 1, 4, 4, 2, 0, 0,  ,  , 0, 1, 0, 0, 0, 2, 0, 1, 1, 4, 3, 1, 3, 1, 63
Cb major (7b),  ,  ,  ,  , 2, 9, 4, 2, 0, 4, 0, 1, 0, 6, 2, 2, 4, 2,  ,  , 2, 4, 0, 0, 2, 4, 0, 1, 0, 6, 6, 3, 0, 0,  ,  , 0, 4, 0, 0, 0, 2, 0, 1, 0, 6, 4, 2, 4, 2, 91
C# major (7#),  ,  ,  ,  , 1, 4, 3, 2, 0, 3, 0, 0, 0, 4, 2, 1, 1, 0,  ,  , 1, 3, 0, 0, 0, 3, 0, 0, 0, 3, 4, 2, 0, 0,  ,  , 0, 3, 0, 0, 0, 3, 0, 0, 0, 4, 2, 1, 5, 2, 57
Ab minor (7b),  ,  ,  ,  , 1, 4, 2, 0, 0, 2, 1, 1, 0, 2, 2, 1, 2, 1,  ,  , 1, 3, 0, 0, 1, 2, 1, 1, 0, 2, 3, 1, 0, 0,  ,  , 0, 4, 1, 1, 0, 1, 1, 1, 0, 2, 3, 1, 2, 0, 51
A# minor (7#),  ,  ,  ,  , 2, 2, 2, 2, 0, 4, 0, 0, 0, 6, 4, 2, 2, 0,  ,  , 2, 5, 0, 0, 0, 4, 0, 0, 0, 4, 6, 2, 1, 1,  ,  , 0, 5, 1, 0, 0, 4, 0, 0, 0, 6, 4, 2, 5, 2, 80
Ab minor mel (7b),  ,  ,  ,  , 1, 4, 2, 0, 0, 2, 1, 0, 0, 3, 3, 1, 2, 1,  ,  , 1, 4, 0, 0, 1, 2, 1, 0, 0, 2, 2, 0, 0, 0,  ,  , 0, 4, 1, 1, 0, 1, 1, 0, 0, 3, 2, 1, 2, 0, 49
A# minor mel (7#),  ,  ,  ,  , 2, 2, 0, 0, 0, 2, 1, 0, 0, 4, 5, 2, 2, 0,  ,  , 2, 5, 0, 0, 0, 2, 1, 0, 0, 2, 4, 0, 1, 1,  ,  , 0, 5, 2, 1, 0, 2, 1, 0, 0, 4, 4, 2, 3, 0, 62
Cb major blues (7b),  ,  ,  ,  , 2, 10, 4, 2, 0, 5, 0, 1, 1, 8, 3, 2, 5, 2,  ,  , 2, 6, 1, 1, 2, 5, 0, 1, 1, 7, 6, 3, 1, 0,  ,  , 0, 4, 0, 0, 0, 3, 0, 1, 1, 8, 4, 3, 4, 2, 111
C# major blues (7#),  ,  ,  ,  , 2, 7, 4, 2, 0, 2, 0, 0, 0, 5, 3, 2, 2, 0,  ,  , 2, 4, 0, 0, 0, 2, 0, 0, 0, 4, 5, 2, 0, 0,  ,  , 0, 5, 0, 0, 0, 2, 0, 0, 0, 5, 3, 2, 5, 2, 72
Ab minor blues (7b),  ,  ,  ,  , 1, 4, 2, 1, 0, 1, 0, 0, 0, 3, 2, 1, 1, 0,  ,  , 1, 3, 0, 0, 0, 1, 0, 0, 0, 2, 3, 1, 0, 0,  ,  , 0, 3, 0, 0, 0, 1, 0, 0, 0, 3, 2, 1, 4, 1, 42
A# minor blues (7#),  ,  ,  ,  , 2, 8, 4, 2, 0, 3, 0, 1, 0, 5, 2, 2, 3, 1,  ,  , 2, 4, 0, 0, 1, 3, 0, 1, 0, 5, 6, 3, 0, 0,  ,  , 0, 4, 0, 0, 0, 2, 0, 1, 0, 5, 4, 2, 4, 2, 82
Cb dorian (7b),  ,  ,  ,  , 1, 5, 2, 1, 0, 2, 0, 1, 0, 3, 1, 1, 2, 1,  ,  , 1, 3, 0, 0, 1, 2, 0, 1, 0, 3, 4, 2, 0, 0,  ,  , 0, 2, 0, 0, 0, 1, 0, 1, 0, 3, 3, 1, 3, 1, 52
C# dorian (7#),  ,  ,  ,  , 2, 8, 4, 2, 0, 3, 0, 0, 0, 6, 3, 2, 3, 1,  ,  , 2, 5, 0, 0, 1, 3, 0, 0, 0, 5, 5, 2, 0, 0,  ,  , 0, 4, 0, 0, 0, 2, 0, 0, 0, 6, 3, 2, 4, 2, 80
Cb phrygian (7b),  ,  ,  ,  , 1, 5, 2, 1, 0, 2, 0, 0, 0, 4, 2, 1, 2, 1,  ,  , 1, 4, 0, 0, 1, 2, 0, 0, 0, 3, 3, 1, 0, 0,  ,  , 0, 2, 0, 0, 0, 1, 0, 0, 0, 4, 2, 1, 3, 1, 50
C# phrygian (7#),  ,  ,  ,  , 2, 9, 2, 2, 0, 4, 0, 1, 1, 6, 2, 2, 3, 1,  ,  , 2, 5, 1, 1, 1, 4, 0, 1, 1, 6, 6, 3, 0, 0,  ,  , 0, 2, 0, 0, 0, 3, 0, 1, 1, 6, 4, 2, 4, 2, 91
Cb lydian (7b),  ,  ,  ,  , 1, 6, 1, 1, 0, 3, 0, 1, 1, 4, 1, 1, 2, 1,  ,  , 1, 4, 1, 1, 1, 3, 0, 1, 1, 4, 4, 2, 0, 0,  ,  , 0, 1, 0, 0, 0, 2, 0, 1, 1, 4, 3, 1, 3, 1, 63
C# lydian (7#),  ,  ,  ,  , 2, 9, 4, 2, 0, 4, 0, 1, 0, 6, 2, 2, 4, 2,  ,  , 2, 4, 0, 0, 2, 4, 0, 1, 0, 6, 6, 3, 0, 0,  ,  , 0, 4, 0, 0, 0, 2, 0, 1, 0, 6, 4, 2, 4, 2, 91
Cb mixolydian (7b),  ,  ,  ,  , 1, 4, 3, 2, 0, 3, 0, 0, 0, 4, 2, 1, 1, 0,  ,  , 1, 3, 0, 0, 0, 3, 0, 0, 0, 3, 4, 2, 0, 0,  ,  , 0, 3, 0, 0, 0, 3, 0, 0, 0, 4, 2, 1, 5, 2, 57
C# mixolydian (7#),  ,  ,  ,  , 1, 4, 2, 0, 0, 2, 1, 1, 0, 2, 2, 1, 2, 1,  ,  , 1, 3, 0, 0, 1, 2, 1, 1, 0, 2, 3, 1, 0, 0,  ,  , 0, 4, 1, 1, 0, 1, 1, 1, 0, 2, 3, 1, 2, 0, 51
Cb aeolian (7b),  ,  ,  ,  , 2, 2, 2, 2, 0, 4, 0, 0, 0, 6, 4, 2, 2, 0,  ,  , 2, 5, 0, 0, 0, 4, 0, 0, 0, 4, 6, 2, 1, 1,  ,  , 0, 5, 1, 0, 0, 4, 0, 0, 0, 6, 4, 2, 5, 2, 80
C# aeolian (7#),  ,  ,  ,  , 1, 4, 2, 0, 0, 2, 1, 0, 0, 3, 3, 1, 2, 1,  ,  , 1, 4, 0, 0, 1, 2, 1, 0, 0, 2, 2, 0, 0, 0,  ,  , 0, 4, 1, 1, 0, 1, 1, 0, 0, 3, 2, 1, 2, 0, 49
Cb locrian (7b),  ,  ,  ,  , 0, 8, 2, 2, 0, 5, 0, 1, 1, 5, 0, 0, 5, 2,  ,  , 0, 3, 1, 1, 2, 5, 0, 1, 1, 5, 4, 3, 1, 0,  ,  , 0, 0, 0, 0, 0, 3, 0, 1, 1, 5, 2, 3, 4, 2, 79
C# locrian (7#),  ,  ,  ,  , 2, 10, 4, 2, 0, 5, 0, 1, 1, 8, 3, 2, 5, 2,  ,  , 2, 6, 1, 1, 2, 5, 0, 1, 1, 7, 6, 3, 1, 0,  ,  , 0, 4, 0, 0, 0, 3, 0, 1, 1, 8, 4, 3, 4, 2, 111
